"FSC-A", "FSC-H", "FSC-W", "SSC-A", "SSC-H", "SSC-W", "FITC-A", "FITC-H", "FITC-W", "PE-A", "PE-H", "PE-W", "Time", "Event #", "Comp-FITC-A", "Comp-PE-A"
123458,70854,114192,205765,118396,113898,210848,116278,118837,146136,86751,110399,0.023,20,210848,59688.4
117336,56948,135030,168416,84807,130146,247206,127529,127037,168500,103290,106911,0.158,118,247206,67145.2
109975,68360,105431,165584,96969,111909,215568,123156,114712,147687,99798,96984.3,0.168,126,215568,59304.6
98417.7,62811,102687,100668,61810,106737,145925,100245,95399.6,127590,84626,98808.5,0.319,246,145925,67761.2
150881,74918,131986,176826,88498,130946,218652,104782,136756,149050,85479,114275,0.381,306,218652,59402.3
89848.8,59015,99776.8,173849,111618,102075,197301,105521,122538,143643,90331,104214,0.435,339,197301,62749.6
125834,71474,115380,213144,113602,122961,251093,131071,125547,175479,104781,109754,0.438,343,251093,72530.8
112681,72884,101321,160972,87490,120579,218518,128158,111743,156659,98228,104520,0.488,380,218518,67066.4
102282,67566,99209.2,89525.8,57759,101580,145326,84560,112631,128414,83037,101349,0.52,408,145326,68830.1
96865.2,67453,94112.3,181913,115257,103437,228516,135591,110450,154106,97426,103663,0.536,421,228516,60414.7
119827,72600,108168,169413,104328,106420,212675,126953,109788,163078,105298,101497,0.562,446,212675,75880.7
138063,71816,125990,208354,103843,131493,221295,100444,144387,151901,87625,113609,0.58,462,221295,61170.4
138460,78059,116247,217829,115172,123951,262143,139210,123409,174184,100733,113322,0.591,471,262143,66705.2
115270,66520,113565,117351,63153,121779,162683,91261,116825,125619,76504,107610,0.615,498,162683,58919.2
148424,74654,130296,199279,97074,134536,262143,134085,128126,168512,101095,109240,0.632,517,262143,61033.8
112279,67204,109492,182339,99996,119502,226743,133780,111076,155294,102460,99329.7,0.656,545,226743,62329.1
107657,58466,120676,170349,93485,119420,262143,139465,123184,173041,106794,106190,0.658,547,262143,65562.8
126441,77325,107164,204576,107308,124941,220276,117447,122915,153815,98994,101829,0.662,550,220276,63502
106204,62937,110590,205003,115067,116759,246929,131124,123416,162572,100236,106292,0.736,598,246929,61331.2
127356,76884,108559,222600,128144,113843,256011,148224,113193,168279,102684,107400,1.067,879,256011,63314.1
123584,77756,104162,205570,123197,109355,262143,164854,104212,177433,111861,103953,1.115,935,262143,69954.6
113555,72618,102480,179679,106031,111056,217328,123398,115421,151385,97871,101370,1.163,967,217328,62280.5
126465,72747,113930,239134,135729,115465,258404,142548,118800,173078,102828,110309,1.179,988,258404,67132.3
110759,70513,102942,153877,76833,131252,219394,111851,128548,149727,86745,113119,1.243,1048,219394,59775.7
160732,87807,119965,201347,106858,123486,262143,157322,109202,168017,99003,111220,1.26,1062,262143,60538.2
125764,76418,107855,234375,124908,122971,262143,158422,108443,177905,105375,110645,1.26,1063,262143,70426.4
114745,66533,113025,208695,108175,126434,220877,123925,116808,157870,98827,104689,1.307,1106,220877,67310.2
110134,66036,109300,169035,100566,110155,206984,132527,102356,147483,95131,101601,1.394,1187,206984,62619.4
123416,66812,121059,203512,107593,123961,262143,129200,132971,181838,104104,114471,1.408,1193,262143,74359
116695,77631,98513.7,164851,97133,111226,200640,126268,104137,149023,100975,96720.7,1.409,1196,200640,66760.8
116393,63339,120431,186773,99240,123341,240908,125494,125808,162648,93051,114553,1.41,1197,240908,63875.6
120482,64833,121789,217981,123880,115318,251014,136801,120251,170888,99556,112493,1.571,1325,251014,67972.3
108186,66725,106258,173384,96081,118264,243722,139923,114152,161445,105052,100717,1.667,1401,243722,61519.3
109839,64320,111915,215998,122383,115667,262143,141987,120996,173408,100992,112529,1.706,1440,262143,65929.6
125205,74506,110131,178802,103498,113220,225562,117526,125780,153674,92698,108645,1.745,1473,225562,61193.2
136058,80826,110320,195451,108812,117718,236121,130843,118267,155565,91886,110954,1.793,1517,236121,58755.5
103089,68393,98782.3,111287,78175,93294.9,156678,105851,97004.9,130112,88655,96181.9,1.905,1603,156678,65873.7
135584,73175,121430,232428,129374,117739,262143,152435,112702,185266,109696,110684,1.975,1647,262143,77787.6
135168,72426,122310,195954,103689,123851,233688,124027,123481,160296,93851,111934,2.259,1885,233688,64483.7
116838,66570,115023,209023,115828,118266,225222,119723,123286,153885,94481,106741,2.271,1901,225222,61544.1
125324,73424,111860,195492,106005,120860,251835,143800,114772,163355,98202,109016,2.287,1921,251835,60102.5
111282,69249,105316,164221,98827,108902,219838,131494,109566,148841,96186,101412,2.358,1982,219838,58707.5
136306,80103,111518,184024,97385,123841,232908,126834,120345,168745,101894,108533,2.364,1988,232908,73252.4
105117,60405,114046,126013,76512,107936,188782,108884,113625,138498,92071,98582.5,2.404,2032,188782,61097.3
121260,77332,102763,160238,90325,116262,214759,136556,103067,156213,100939,101424,2.425,2056,214759,68162.4
115315,67776,111504,234895,133217,115556,262143,161463,106401,179743,109602,107477,2.431,2064,262143,72264.6
125437,73720,111511,233712,132898,115250,262143,159066,108004,180814,112555,105280,2.439,2071,262143,73335.6
116851,69667,109922,137036,73395,122363,180408,91065,129833,143651,82663,113888,2.511,2128,180408,69683.8
105016,69357,99231,134835,86261,102440,180555,130064,90977.3,134508,94138,93640.2,2.589,2182,180555,60480.2
101532,65533,101536,199814,109208,119909,215897,116223,121740,156195,99260,103127,2.702,2302,215897,67677.5
110786,64610,112374,197582,116070,111560,246096,141313,114131,159778,97698,107179,2.924,2496,246096,58878.4
126252,72126,114717,178772,100838,116186,247041,136144,118919,160457,100140,105010,3.065,2630,247041,59169.9
124613,69695,117177,199142,108102,120728,262143,146160,117541,172680,101723,111251,3.236,2761,262143,65201.6
126663,70616,117551,186395,107135,114020,199371,123167,106084,145883,89326,107030,3.262,2792,199371,64140.6
101088,58389,113461,187562,109350,112410,197833,116224,111553,142262,82634,112827,3.504,3006,197833,61151
118317,66833,116021,189624,103242,120370,225267,119486,123555,160539,95942,109661,3.508,3011,225267,68179.9
109039,61984,115287,228271,126672,118100,244990,137277,116958,161279,99507,106219,3.548,3048,244990,60832.6
143480,72932,128930,205003,88004,152665,225382,112163,131689,164196,95404,112792,3.782,3242,225382,71789.7
107096,65642,106923,150500,96084,102652,203293,118609,112327,145797,95954,99578.7,3.863,3312,203293,62447.4
109607,69199,103805,209854,123510,111351,262143,161460,106403,186831,111135,110174,3.954,3388,262143,79352.8
112852,72481,102039,183502,105151,114369,226600,128251,115792,152223,97694,102116,3.961,3393,226600,59317.5
120496,79159,99759.5,154435,84365,119968,209873,114306,120328,157620,95693,107947,3.971,3399,209873,71572.6
116626,70523,108378,212405,111553,124785,262143,149292,115075,176107,115236,100154,3.989,3413,262143,68628.8
123620,73078,110861,212488,108682,128132,262143,148267,115871,173349,103462,109805,4.104,3510,262143,65870.8
128551,81178,103780,169096,93004,119155,211652,116139,119433,159702,99480,105210,4.305,3702,211652,72924.9
102884,60599,111266,168052,101402,108612,214105,131584,106636,147050,92820,103826,4.625,3973,214105,59267.4
122705,65833,122152,219656,127459,112941,255322,144047,116162,166730,100521,108702,4.731,4054,255322,62048.1
114162,63369,118066,185329,109651,110767,225064,136157,108329,155638,93225,109412,4.759,4071,225064,63361.8
112720,59125,124942,220294,111085,129965,262143,147554,116431,182050,105035,113589,4.763,4075,262143,74571.8
130995,73982,116040,204368,114535,116938,249210,129701,125922,172466,104421,108242,4.789,4101,249210,70290
98523.9,61403,105155,204595,113267,118378,235309,136216,113212,160338,103815,101218,4.822,4138,235309,63861
139122,77821,117160,151798,75782,131274,198026,111622,116266,149218,92446,105782,4.83,4144,198026,68027
112772,64861,113945,158715,89597,116093,203518,120267,110901,162933,97541,109472,4.851,4157,203518,79491
109824,70293,102392,149544,86617,113148,214757,132420,106286,148547,101692,95732,4.863,4173,214757,60496.5
110804,64400,112759,155945,87104,117331,191782,120720,104114,150252,89355,110200,4.963,4252,191782,71621.7
112268,65909,111632,225919,124530,118894,253722,136524,121795,167451,108506,101138,5.036,4320,253722,63425.2
108232,64710,109614,199822,112084,116837,226383,128209,115719,153199,94862,105839,5.104,4379,226383,60382.3
152232,81767,122014,195364,104623,122377,220466,125180,115422,154006,90399,111648,5.106,4380,220466,63614.4
89979.3,59719,98743.8,75793.2,48860,101662,125614,83814,98220,121708,78711,101336,5.17,4449,125614,70206
111600,67036,109103,139504,75676,120812,204079,105606,126646,144528,91977,102980,5.206,4490,204079,60855
116571,75038,101809,222076,127875,113814,260289,140654,121279,174077,101723,112151,5.376,4643,260289,67358.7
138924,83965,108432,166165,98808,110211,179705,103889,113363,135493,84961,104515,5.38,4646,179705,61814.2
121960,74210,107705,200571,106071,123923,233129,128342,119044,161071,98918,106714,5.436,4705,233129,65488.3
131741,74486,115912,206018,109801,122964,240703,129194,122101,162361,97317,109338,5.596,4834,240703,63672.4
127893,78321,107016,200910,111526,118061,246910,136377,118652,163388,101783,105202,5.669,4889,246910,62155.5
111459,63752,114578,212125,112425,123654,262143,141953,121025,185032,110775,109468,5.811,4988,262143,77553.8
121768,71053,112313,189889,108127,115092,215586,114982,122877,147424,92549,104394,5.816,4994,215586,59033.9
133521,72989,119887,205685,110850,121604,262143,138166,124342,174846,102459,111837,6.027,5178,262143,67367.4
125123,67775,120990,227203,121252,122802,250561,131958,124439,167003,96715,113165,6.143,5260,250561,64273.3
129656,71275,119216,214862,121611,115789,262143,172021,99870.4,170629,106458,105040,6.18,5295,262143,63150.6
134214,71872,122382,173281,86534,131233,223597,116914,125337,159965,96920,108166,6.259,5364,223597,68290.7
103682,63108,107671,161706,96692,109601,237912,141442,110234,157346,103551,99582.1,6.286,5386,237912,59802.2
143222,77573,120998,217575,117917,120924,241501,124234,127397,163503,97166,110279,6.318,5411,241501,64487.6
110511,68041,106442,122280,70814,113166,166859,90270,121140,131960,84754,102038,6.377,5479,166859,63547.6
132293,81068,106947,223959,121026,121275,262143,163941,104793,166188,102124,106648,6.459,5565,262143,58709.8
126759,77488,107207,164707,93478,115474,227041,128314,115960,156415,94376,108617,6.493,5591,227041,63328.3
95426.1,59267,105520,185461,111456,109051,195924,112560,114073,146212,88376,108425,6.785,5800,195924,65882.8
101110,60011,110418,165438,98366,110222,222830,119466,122239,165137,99293,108995,6.804,5822,222830,73776.9
131496,72531,118815,202712,106551,124681,233713,138702,110428,160651,99040,106305,6.826,5849,233713,64829
116264,80202,95003.4,179472,107227,109691,205873,122664,109992,144480,95039,99629,6.852,5864,205873,60072.2
120075,72686,108264,170545,101325,110307,215046,132305,106521,147445,95845,100819,6.982,5947,215046,59276.5
120248,67217,117241,217627,113668,125474,206679,124469,108822,150924,90904,108807,7.043,6008,206679,66185.7
120764,67951,116472,220478,129973,111171,231409,133879,113278,161886,99183,106968,7.045,6011,231409,67008.6
136462,73019,122478,234727,114463,134393,262143,131681,130465,177072,100799,115126,7.059,6027,262143,69593.4
132179,69150,125271,236720,126623,122519,262143,154254,111373,166270,99177,109871,7.08,6050,262143,58791
114696,70139,107169,155791,90557,112745,172390,104089,108540,130736,85132,100643,7.463,6379,172390,60056.1
107873,69589,101590,133820,79996,109631,170887,96469,116092,133718,84276,103984,7.484,6400,170887,63654.6
148921,78950,123619,190737,94524,132243,262143,143064,120085,169400,109046,101808,7.531,6436,262143,61921.4
126122,84452,97872.1,216570,128081,110814,262143,177008,97056.6,176389,123002,93980.7,7.58,6478,262143,68910.2
98335.8,60122,107191,169970,110323,100968,201774,119653,110515,153301,95780,104894,7.647,6527,201774,70574.2
121299,78272,101562,203231,122535,108695,243118,147869,107751,163716,102685,104487,7.743,6604,243118,64037.5
116879,70148,109195,228280,139379,107337,262143,158901,108116,191554,116067,108159,7.769,6630,262143,84075
125326,72310,113585,167174,95284,114982,211750,118864,116749,149519,93661,104620,7.898,6751,211750,62701.1
124651,69003,118388,187379,94251,130291,208575,107761,126847,144812,93161,101871,7.989,6825,208575,59296.1
142722,76436,122369,200582,107913,121814,233009,111448,137019,161577,93381,113397,8.055,6885,233009,66043.1
120903,72821,108808,192091,100083,125784,218513,117344,122039,149582,92949,105466,8.134,6965,218513,59991.1
116350,71361,106853,187165,107677,113915,223226,121655,120253,153629,101227,99461.9,8.38,7187,223226,62106.4
81646.2,55543,96335.5,63095.2,39426,104880,124309,72413,112503,111551,69004,105944,8.385,7190,124309,60584
116543,64398,118602,207521,119853,113473,249043,140923,115817,173984,108679,104916,8.388,7193,249043,71875.9
99063,63119,102856,126617,76902,107904,168736,101929,108490,131930,88842,97321,8.433,7238,168736,62748.5
135125,83271,106346,173482,110328,103050,262143,164073,104708,203874,125671,106318,8.447,7246,262143,96395
107886,65249,108360,209889,125026,110020,244917,147121,109100,162739,101298,105286,8.508,7293,244917,62322.7
95395.5,59860,104441,180671,111041,106632,204912,116899,114878,144095,95290,99101.8,8.599,7375,204912,60080.9
113569,62357,119359,198765,112234,116063,256970,133065,126561,175935,104773,110048,8.673,7449,256970,70577.5
114041,73309,101949,220136,129465,111434,262143,159467,107733,190516,116500,107173,8.673,7451,262143,83037.6
100795,69185,95478.4,113049,75146,98591.4,145125,99016,96054.6,119274,84565,92435,8.701,7485,145125,59773
123306,70690,114316,236894,122024,127230,248926,132678,122956,166412,98312,110933,8.997,7755,248926,64352.9
132082,70647,122527,191850,101255,124173,230985,120722,125394,161050,97383,108382,9.211,7923,230985,66346.7
121388,72229,110140,208503,113530,120360,262143,146561,117219,168172,97344,113220,9.262,7959,262143,60693.6
116240,66883,113898,227826,126895,117663,250862,148320,110845,170626,105403,106090,9.299,7988,250862,67773.1
126626,72573,114348,198983,114221,114170,237324,135838,114499,157480,97065,106327,9.31,8004,237324,60177.6
126823,67999,122229,229971,120076,125515,262143,154893,110914,172908,106006,106897,9.311,8005,262143,65429.8
120437,76492,103187,155240,106673,95374,189918,127446,97660.9,138716,92437,98347,9.41,8077,189918,60849.7
112527,77035,95730.1,198180,110508,117529,219426,130360,110312,155117,99708,101955,9.563,8218,219426,65152.5
153454,88814,113234,206126,112870,119684,225579,126019,117312,156694,93110,110290,9.583,8230,225579,64206.1
144958,78792,120570,177610,101429,114758,262143,162633,105635,167997,101892,108054,9.618,8259,262143,60518.6
97998.3,66178,97047.6,107815,68950,102477,155550,99522,102431,134165,86505,101643,9.656,8293,155550,70389.4
117689,67541,114196,232833,121232,125865,249123,143766,113563,166930,102273,106968,9.873,8447,249123,64790
122449,68953,116381,217350,115155,123696,262143,144287,119067,169659,106965,103948,9.905,8476,262143,62180.4
130350,78835,108360,196525,105933,121581,248693,122046,133543,171111,103278,108580,9.978,8533,248693,69146.6
139642,82086,111488,224204,126876,115810,262143,164687,104318,179036,108645,107997,9.996,8548,262143,71557.6
124715,73574,111090,152911,73695,135982,176323,89452,129181,133321,84538,103354,10.048,8587,176323,61028.2
121147,75067,105766,169494,112016,99163.9,207220,138487,98062.2,146286,90376,106079,10.581,9056,207220,61326
125630,71005,115954,202066,109963,120428,260623,143548,118986,168118,105047,104884,10.721,9184,260623,61262.3
111677,66031,110840,188009,104484,117926,218281,133845,106879,159670,100348,104278,10.768,9222,218281,70174.8
114896,64625,116515,218912,129064,111159,262143,159903,107439,180235,110590,106808,10.825,9276,262143,72756
124279,74447,109403,163290,99224,107851,198016,108191,119947,146145,91880,104242,10.9,9337,198016,64958
133695,74171,118130,208620,115717,118151,226426,124256,119423,160860,102383,102968,11.012,9435,226426,68025.3
143618,75968,123897,193162,98474,128552,229597,120205,125177,154587,89277,113478,11.047,9463,229597,60451.7
113613,66044,112739,182255,100837,118451,258630,150716,112461,165931,100177,108552,11.058,9471,258630,59892.3
105498,62582,110478,159608,100220,104371,188724,111862,110567,144437,93027,101753,11.09,9506,188724,67059.7
123113,67879,118863,215401,106078,133077,262143,147870,116182,172768,110639,102338,11.261,9666,262143,65289.8
124223,75516,107806,179313,104059,112931,224168,127179,115515,158630,95412,108959,11.332,9751,224168,66720.9
139783,84594,108291,195885,112222,114394,262143,162142,105955,194025,128973,98591.2,11.339,9759,262143,86546
124388,68446,119100,200403,115088,114118,262143,140667,122131,168217,108113,101970,11.367,9781,262143,60738.4
93123,62814,97158.4,82684,56159,96489.9,142419,90647,102966,119232,73238,106693,11.415,9809,142419,60840.5
114844,72567,103717,124187,77456,105075,167797,95865,114711,131960,84581,102247,11.422,9818,167797,63163
115977,71372,106493,202019,109534,120871,211532,132231,104839,145813,94402,101227,11.592,9982,211532,59084.8
119614,74229,105606,184649,110131,109880,228309,135721,110244,163187,102979,103852,11.636,10017,228309,69580
101856,60164,110950,214663,128530,109454,236138,134706,114884,165901,101507,107111,11.685,10062,236138,69084.8
113519,70989,104799,226751,119928,123911,262143,159289,107853,172802,111997,101117,11.821,10166,262143,65323.4
120002,62540,125750,217512,114837,124132,262143,169385,101425,177023,110192,105283,11.875,10222,262143,69544.4
114034,67906,110055,154207,84384,119764,213990,127956,109601,159789,97383,107533,11.971,10297,213990,72053.1
107632,63251,111520,201005,113944,115610,239441,144433,108645,157053,98803,104173,11.986,10314,239441,58882.7
119875,66366,118375,203060,110853,120049,262143,132323,129832,176900,100202,115699,11.993,10318,262143,69421.2
116716,72333,105748,113228,67592,109784,154529,94025,107708,123712,81796,99120,12.011,10331,154529,60355.4
99150.3,63314,102630,134557,78447,112411,160034,101823,103002,130609,89924,95186.8,12.019,10340,160034,64994.9
134495,82833,106410,204576,107464,124759,262143,155321,110608,198332,115283,112748,12.028,10347,262143,90853.8
109910,65429,110090,178952,94984,123471,245715,135693,118674,161682,98665,107393,12.124,10430,245715,60938.5
130969,74206,115667,178720,105114,111427,222200,126336,115265,150800,95639,103334,12.29,10579,222200,59697.8
103556,61941,109566,171143,105521,106292,209313,129210,106164,156246,104880,97632.6,12.316,10595,209313,70427.4
134294,78020,112806,221204,125399,115606,262143,151726,113229,188882,116624,106141,12.652,10874,262143,81403.8
68033.7,49311,90419.1,44112.6,31176,92730.4,113911,61209,121964,108437,71340,99614.9,12.813,11023,113911,61733.5
126832,74496,111577,221857,124458,116823,262143,157571,109029,173366,103357,109927,12.857,11050,262143,65887.6
123060,74638,108053,193274,105139,120473,219246,117443,122344,151276,100629,98520.3,12.883,11080,219246,61384.9
119190,67213,116216,193101,107814,117378,231557,129495,117189,161904,97918,108362,12.915,11113,231557,66965.9
115549,71044,106591,169380,91318,121559,199623,110006,118925,140602,88595,104007,12.916,11116,199623,58756.5
98905.5,63563,101976,185636,108880,111736,194527,108141,117888,141228,91435,101225,13.074,11239,194527,61471.6
129554,77317,109814,117860,71301,108331,191975,110831,113518,138502,86189,105314,13.117,11274,191975,59792.2
135919,80274,110965,185307,101687,119428,251285,139789,117807,178396,108904,107355,13.171,11313,251285,75369.7
106162,67331,103332,187963,108210,113837,193798,119446,106330,138436,94082,96432.4,13.252,11390,193798,58979.1
127160,70272,118590,210287,109317,126068,257960,132087,127989,176078,100852,114420,13.328,11474,257960,70314.5
116016,71556,106256,209532,115673,118713,261524,145864,117502,171395,103695,108323,13.443,11571,261524,64170.1
123362,70390,114855,203521,113737,117270,251236,135653,121376,166830,103143,106002,13.489,11620,251236,63823
112562,72227,102135,141211,82925,111600,195629,117848,108790,139045,91156,99965.6,13.695,11818,195629,58837.3
125883,83922,98304,190291,104677,119137,234909,146462,105112,164321,114460,94084.6,13.71,11835,234909,68008.2
125303,79676,103066,212622,122533,113720,262143,153762,111730,180827,111837,105964,13.724,11841,262143,73348.2
142889,77545,120761,221281,115963,125056,254591,141215,118152,181577,107061,111150,14.142,12203,254591,77194.7
114695,71740,104776,165420,94759,114406,200203,115818,113285,145667,92095,103659,14.144,12205,200203,63584.1
111317,67765,107656,129843,74535,114166,168715,106591,103732,136255,91855,97214.2,14.229,12271,168715,67081.7
116865,66543,115096,193530,117470,107970,259785,149832,113629,174586,108811,105152,14.343,12381,259785,68073.6
106929,68888,101726,205090,111476,120571,262143,151364,113500,170964,106903,104808,14.366,12403,262143,63485.2
99116.1,61964,104830,122476,73578,109090,160138,99942,105009,129482,80164,105854,14.413,12446,160138,63825.4
124250,72339,112565,193038,103964,121686,200740,119300,110274,141469,88460,104808,14.757,12725,200740,59165
110307,68531,105486,174436,105751,108101,219517,127978,112412,162527,100313,106182,14.765,12736,219517,72525.3
127735,70700,118405,229484,109816,136951,249470,128669,127065,163041,100824,105977,14.77,12739,249470,60758.4
120900,66794,118623,215477,116317,121405,262143,143831,119444,173387,103928,109336,14.8,12767,262143,65908.6
101478,63244,105155,178679,105229,111280,238025,141268,110423,159802,103982,100717,14.863,12811,238025,62211.3
118815,68911,112996,168666,102740,107589,198678,107767,120822,141932,88325,105312,14.915,12858,198678,60473.9
58412.7,41331,92621.4,47426.4,31548,98520.9,97171.2,61670,103263,102834,67507,99831.8,14.995,12931,97171.2,62994
127313,70044,119119,228903,118704,126376,262143,134287,127933,174553,100809,113477,15.082,13015,262143,67074.8
101174,55292,119918,218638,117591,121852,253684,137994,120480,169883,100944,110293,15.132,13063,253684,65872.5
103258,53666,126097,206646,105127,128823,262143,158742,108225,185209,115382,105197,15.173,13098,262143,77730.2
112462,62621,117697,219976,127057,113464,262143,149688,114771,168041,103977,105915,15.177,13104,262143,60562
133798,80836,108474,141235,79791,116003,204961,132263,101558,148940,93035,104917,15.218,13138,204961,64906.2
97570.8,62166,102860,91714,51925,115755,161337,82521,128130,125359,79934,102779,15.383,13251,161337,59210.5
109919,63105,114153,193166,110483,114582,220632,120322,120172,152901,92748,108040,15.391,13255,220632,62442
92232,62604,96551.6,79972.2,53402,98143.5,141487,91848,100955,116789,79148,96703.8,15.398,13258,141487,58779.8
133107,71107,122679,162239,89995,118145,219201,126699,113383,155760,96979,105259,15.408,13265,219201,65887.5
128027,70993,118186,203304,110871,120173,245034,138000,116366,162330,97186,109465,15.446,13292,245034,61866.2
109293,67572,106000,189878,113602,109539,218291,124094,115283,161823,101668,104313,15.518,13350,218291,72324
63054,45690,90442.3,42154,29459,93777.9,113324,75957,97776.8,113053,71532,103576,15.612,13440,113324,66589.8
55116.9,41858,86295.1,34388.2,22868,98551,97550.6,68280,93630.3,106392,73978,94250.7,15.86,13627,97550.6,66395.9
110347,64479,112156,184155,118162,102137,212747,120792,115426,158420,96255,107861,15.864,13634,212747,71193.6
121052,74057,107124,168386,96858,113934,216993,119106,119397,156474,98445,104166,15.927,13690,216993,67506.7
109202,66619,107427,133609,79583,110026,182500,109450,109276,140690,89591,102915,15.938,13699,182500,65865.3
102798,63892,105443,209850,116510,118039,246564,145450,111095,162854,110478,96605.4,15.95,13703,246564,61762.4
88891.2,51957,112123,218585,130816,109506,248042,137598,118139,168304,105907,104148,16.034,13791,248042,66606.5
151427,79859,124268,222048,109608,132766,228274,127742,117112,163769,96422,111310,16.077,13827,228274,70176.8
95753.7,62887,99787.1,77750.4,35688,142778,134744,85948,102744,118763,83615,93084.7,16.116,13878,134744,63518.2
145873,85190,112219,214523,116129,121064,260651,140005,122010,171290,101692,110389,16.252,13994,260651,64423.3
122397,69333,115694,204691,112760,118966,248430,133075,122345,169044,101045,109639,16.32,14050,248430,67188.1
128920,76870,109911,176581,93800,123373,213458,113303,123467,155284,96808,105122,16.339,14063,213458,67766
109292,69585,102932,160335,98889,106258,197165,105485,122495,144250,93423,101191,16.36,14084,197165,63412.8
114251,65193,114853,218046,119970,119112,262143,165282,103942,166872,103295,105872,16.364,14091,262143,59393
108621,67967,104736,126085,65658,125851,174552,108293,105634,136492,91775,97467.9,16.448,14167,174552,64925.3
116323,66766,114180,174157,100090,114033,232390,127794,119176,162740,101761,104808,16.528,14230,232390,67460.2
118561,66944,116067,223681,122233,119928,262143,144716,118714,174581,99236,115295,16.546,14245,262143,67102.8
95562.9,64800,96648.3,80215.8,43053,122106,142498,87269,107011,122657,85969,93503.9,16.574,14276,142498,64232.8
97686.9,62098,103095,140470,86884,105956,163923,98114,109494,138970,85526,106488,16.715,14392,163923,71761.1
111618,68995,106022,167240,100206,109377,208144,127104,107321,150644,97963,100779,16.84,14501,208144,65305.3
116392,69542,109688,136709,80902,110743,179530,109293,107653,147714,90979,106405,16.9,14556,179530,74106.5
128426,71057,118447,203234,111569,119380,262143,138947,123643,170373,103365,108021,16.912,14565,262143,62894.4
124464,75946,107403,173698,102307,111268,225642,130841,113020,162994,102252,104467,17.14,14777,225642,70480.3
122804,72038,111720,220048,133313,108174,262143,145011,118472,177565,110141,105654,17.319,14926,262143,70086.2
136252,81667,109339,168129,98656,111686,216100,131860,107404,149166,94060,103931,17.342,14953,216100,60564.9
132077,76159,113654,187369,95650,128379,261258,132978,128757,171252,99259,113070,17.388,14994,261258,64136.3
104235,59475,114858,193094,107924,117255,228795,123729,121187,153621,89643,112309,17.424,15020,228795,59814.6
123710,67986,119252,199574,114494,114236,256523,137899,121912,164086,100562,106934,17.76,15290,256523,58911
108862,63767,111882,199539,109084,119880,260151,147513,115578,173302,101121,112316,17.783,15306,260151,66640
136228,69612,128252,207453,116950,116252,262143,146827,117007,172617,103847,108936,18.034,15515,262143,65138.6
128268,77038,109117,220898,128899,112311,262143,153750,111739,183477,115106,104463,18.05,15532,262143,75998.4
122339,77387,103604,188145,109414,112693,206235,125468,107723,149288,97596,100247,18.204,15678,206235,64731.1
109700,62533,114968,208740,126766,107915,223370,129625,112932,155488,94800,107490,18.205,15680,223370,63906.5
124182,69591,116946,229642,120902,124479,249367,148168,110297,171871,105492,106773,18.207,15685,249367,69630.7
125688,70079,117540,209860,106027,129716,262143,143019,120123,169912,97971,113660,18.231,15722,262143,62433.8
136286,76807,116287,203259,107012,124479,254372,138689,120201,163237,98119,109030,18.341,15809,254372,58944.9
114404,68672,109180,178690,107827,108606,182504,108462,110274,139754,84861,107928,18.704,16107,182504,64927
112526,74067,99565.4,182097,107339,111179,225386,128969,114531,160441,99862,105292,18.722,16130,225386,68033.1
129066,73021,115836,233330,128210,119269,262143,146813,117018,176511,103913,111322,18.747,16145,262143,69032
101012,56879,116385,211576,125958,110083,256908,135929,123864,176526,106364,108766,18.835,16225,256908,71193.6
112018,69244,106020,199058,115135,113306,256519,147554,113933,163870,103514,103748,18.85,16245,256519,58697.1
92483.1,60314,100490,213105,127553,109492,225917,136874,108170,153943,100946,99942.4,19.049,16415,225917,61316.8
132757,71671,121393,183985,102244,117930,224448,120028,122550,160385,92888,113158,19.148,16500,224448,68361.7
126532,71186,116489,228297,122853,121785,251101,135834,121149,169926,98792,112725,19.181,16524,251101,66974.9
142543,83012,112534,172344,92409,122226,222366,120416,121022,150507,90983,108412,19.229,16574,222366,59336.9
115950,73742,103047,148476,84607,115008,186997,119133,102868,144225,99925,94590.4,19.264,16598,186997,67556.6
120992,75176,105477,194646,110131,115829,247121,131728,122945,160048,97075,108050,19.292,16611,247121,58728.4
110234,68175,105967,172512,102883,109889,219204,137735,104300,151227,97104,102064,19.454,16745,219204,61353.1
128093,69210,121294,238591,122656,127481,247941,131370,123689,164982,95366,113376,19.495,16777,247941,63325.6
114614,67147,111864,178660,111102,105386,220508,133202,108491,152162,95387,104543,19.582,16863,220508,61753.4
97038.9,55939,113687,198465,113359,114738,237672,145037,107394,159170,100892,103392,19.715,16967,237672,61724.5
120797,70832,111765,207028,118803,114204,234520,132960,115595,154930,95557,106256,19.775,17017,234520,58776.6
108931,65956,108237,221712,128845,112772,235757,137854,112079,173072,107131,105875,19.823,17072,235757,76411.8
145928,79282,120627,186260,79724,153113,241794,118317,133930,162712,102205,104334,19.825,17073,241794,63576.7
115045,68437,110168,190520,110834,112654,262143,147953,116117,166257,100389,108536,19.886,17134,262143,58778.4
89062.2,64145,90993.5,73505.6,49435,97446.4,144199,87707,107747,131846,85541,101012,19.926,17187,144199,72725
126752,74465,111554,186785,111953,109342,235231,137940,111759,156055,98247,104097,19.969,17235,235231,59610.6
110055,65040,110894,226022,117687,125864,244426,122988,130246,164434,101355,106323,20.171,17412,244426,64219.5
127466,77434,107880,214543,111303,126324,262143,138568,123981,174054,107166,106440,20.287,17510,262143,66575
113084,66683,111139,169477,97670,113718,200060,118983,110193,145366,88114,108118,20.297,17515,200060,63341.6
126032,76599,107829,193719,116836,108662,235574,122762,125760,156741,97555,105296,20.309,17529,235574,60155.9
119563,78752,99498.4,195527,114608,111808,230247,139272,108345,160831,105997,99438.6,20.375,17579,230247,66429.4
128168,72618,115669,220462,128487,112449,251677,145208,113588,165278,99010,109400,20.382,17584,251677,62091
64643.4,46156,91785.9,39732,28980,89850.8,121407,75454,105448,116747,81714,93633.4,20.571,17738,121407,66970.7
122980,70084,115000,205465,117215,114878,213850,121753,115109,150454,93839,105075,20.6,17760,213850,62775.3
135324,78685,112710,225635,126788,116630,262143,153196,112143,166326,98386,110791,20.601,17761,262143,58847
102392,63418,105812,193343,107671,117682,258196,149888,112892,166376,103701,105145,20.604,17764,258196,60515.5
129900,69500,122491,185266,100931,120296,237068,118309,131321,166065,97507,111615,20.638,17798,237068,68867.5
117407,77949,98710.3,193192,113393,111656,253394,154797,107279,164139,106594,100916,20.789,17941,253394,60247.1
138095,75611,119694,216136,117045,121019,262143,142830,120281,178933,104240,112495,20.834,17977,262143,71454
99504,68123,95725.3,162658,97680,109131,243783,138772,115128,168805,110340,100261,20.866,18000,243783,68853.8
104168,62072,109981,102375,57798,116081,167930,92807,118584,132895,89253,97581.1,20.871,18002,167930,64043.7
113028,63966,115802,228278,124241,120415,244822,143209,112037,169281,103250,107448,21.024,18128,244822,68903.9
113448,62149,119630,188397,100598,122734,259249,138937,122287,167329,96207,113984,21.089,18182,259249,61037.2
114998,72373,104135,157347,92207,111834,224309,122537,119967,154279,99257,101865,21.161,18255,224309,62311.7
115111,69892,107937,192063,110941,113457,198059,125466,103454,146854,94964,101346,21.341,18417,198059,65650
127996,70850,118396,233664,115925,132098,225858,107502,137689,160838,91604,115068,21.346,18424,225858,68235.9
119369,67075,116630,231554,119104,127411,262143,153294,112071,188045,110275,111755,21.429,18480,262143,80566.6
122391,71134,112759,207061,119668,113397,261467,150170,114107,167385,101003,108608,21.457,18508,261467,60184
120907,66046,119973,217428,116064,122772,260726,141258,120963,175066,103933,110390,21.525,18564,260726,68168.1
128710,75894,111144,217820,118857,120103,252130,142616,115861,170916,105965,105706,21.532,18572,252130,67542.8
122787,76791,104791,156183,96717,105830,209422,127320,107797,156474,98747,103848,21.562,18595,209422,70610.9
131895,71484,120920,187540,100040,122857,238462,129192,120966,167453,96523,113695,21.614,18640,238462,69683.2
119347,71604,109233,119694,67548,116129,171184,101649,110367,142678,90682,103114,21.633,18657,171184,72492.9
104932,66882,102820,162061,100280,105912,212320,127375,109241,152564,97332,102725,21.894,18888,212320,65512.5
120301,64413,122399,232676,125462,121540,262143,152111,112943,188980,109722,112876,21.975,18941,262143,81501.8
117645,64292,119922,234403,129351,118761,262143,163446,105110,189974,113417,109773,22.009,18985,262143,82495.8
116623,70064,109086,153642,92717,108600,192935,122448,103262,144082,92596,101976,22.081,19051,192935,64978.9
128495,79875,105428,187939,109918,112054,239274,137887,113724,168553,102380,107895,22.182,19131,239274,70450.7
115320,66130,114284,226842,131044,113445,262143,166232,103348,170827,107230,104404,22.218,19171,262143,63348
76307.4,47364,105584,46464.6,28091,108401,130423,65945,129614,116196,73186,104050,22.487,19424,130423,62722.5
124656,73378,111334,203178,112826,118018,254188,150642,110583,165232,98028,110465,22.492,19439,254188,61015
117482,65952,116740,217462,114757,124189,246994,139682,115884,164829,98078,110139,22.82,19681,246994,63561.6
113598,77805,95684.8,201082,114748,114844,259806,147177,115688,177031,111076,104450,22.968,19792,259806,70510.8
97636.5,68592,93286.5,99194.2,59913,108504,143368,92199,101908,125790,88750,92887.6,23.047,19866,143368,67009
109476,66801,107403,167831,93046,118210,232775,143223,106513,161720,106734,99297.8,23.154,19956,232775,66281.8
126797,75750,109700,192430,114487,110153,236380,141745,109291,158430,99550,104298,23.182,19981,236380,61513.7
120242,66260,118928,220678,119232,121296,255093,138796,120448,169462,102541,108306,23.207,20007,255093,64873.6
107336,64953,108299,196762,111283,115875,247744,140339,115692,166610,102001,107047,23.213,20014,247744,65034.8
126879,69272,120036,220045,125450,114953,262143,148896,115381,171871,101454,111023,23.227,20034,262143,64392.4
71597.7,49410,94965.1,80329.2,50072,105138,131191,74298,115720,114850,69721,107957,23.305,20105,131191,61062
124411,75854,107488,181651,106108,112194,228648,133017,112652,156761,97983,104850,23.352,20148,228648,63015.1
126860,71297,116609,209724,116446,118033,262143,163336,105181,177117,112224,103432,23.362,20159,262143,69638.2
113894,74806,99780.3,179852,96196,122529,243678,139319,114627,177737,109864,106024,23.557,20328,243678,77828.9
106764,62862,111306,180713,103340,114605,216727,120796,117582,147745,95798,101073,23.656,20428,216727,58886.7
102535,63684,105517,181506,109786,108349,200196,124302,105550,159781,101267,103404,23.794,20526,200196,77700.3
121913,74116,107800,187261,104468,117475,235782,135368,114150,169126,103930,106647,23.859,20587,235782,72454.8
113583,68691,108366,181957,98571,120976,248787,141423,115289,166800,102518,106629,23.911,20635,248787,64797.5
133825,73431,119436,206605,110370,122679,253348,133385,124477,170192,101963,109390,24.111,20803,253348,66319.6
64256.4,42818,98349,51867.2,32481,104651,131527,69070,124798,113457,70974,104764,24.255,20915,131527,59531.2
138738,75093,121081,180765,93646,126504,227192,107814,138101,154699,92496,109608,24.334,20979,227192,61549.9
96862.5,56461,112431,202353,120842,109742,251129,138723,118639,164541,102845,104850,24.457,21091,251129,61577.6
95517.9,62322,100444,188518,111496,110809,262143,155659,110368,174824,110653,103542,24.563,21166,262143,67345
105273,56688,121704,208853,113166,120950,262143,133444,128742,172698,104532,108273,24.567,21168,262143,65219.8
121605,70808,112551,160899,89936,117247,199804,108915,120225,149755,92146,106509,24.609,21201,199804,67835.6
156614,76290,134537,225436,98030,150711,262143,141197,121673,169421,100688,110273,24.743,21322,262143,61942.4
126718,76425,108663,177159,95667,121361,203211,105343,126422,152632,96161,104022,24.972,21522,203211,69315.5
114892,67343,111809,210724,118555,116486,249259,131935,123814,173674,102068,111513,25.019,21560,249259,71478.1
100472,68673,95881.9,119028,75457,103378,156565,102737,99872.8,125177,87599,93649.3,25.044,21574,156565,60985.2
110467,68010,106448,164504,100355,107428,170247,105734,105522,132058,87558,98843.5,25.091,21606,170247,62256.5
122474,70088,114520,227566,122425,121819,262143,141417,121483,171921,103782,108564,25.103,21612,262143,64442.8
133592,67008,130657,216276,94744,149602,262143,135742,126562,169555,103331,107538,25.181,21670,262143,62076.8
142363,77897,119772,196445,101375,126996,204809,102497,130954,150773,85220,115948,25.217,21708,204809,66801.4
121855,77002,103710,205146,118534,113423,251069,136878,120210,177673,108610,107209,25.245,21748,251069,74734.3
105686,65725,105382,170422,97207,114897,215270,126798,111263,154869,101329,100164,25.278,21779,215270,66608.9
121846,68826,116021,202245,109360,121199,262143,158102,108663,173296,105490,107661,25.281,21781,262143,65817.6
133365,85454,102279,218939,114627,125175,259312,140638,120837,167213,101216,108268,25.289,21788,259312,60895.2
116888,76749,99810.3,226687,122279,121494,237633,130897,118975,158908,95500,109049,25.296,21795,237633,61478.8
123897,70192,115678,202121,115483,114703,256973,152688,110297,177722,111689,104282,25.312,21804,256973,72362.8
130500,79831,107132,219712,121185,118819,262143,145774,117852,174072,107369,106250,25.388,21869,262143,66593.2
110040,62870,114707,205061,115409,116446,237773,139167,111971,170659,105189,106326,25.514,21986,237773,73171.6
130273,78186,109196,235341,127261,121195,262143,141067,121785,174895,101796,112597,25.631,22077,262143,67416.4
155610,74331,137198,218728,100029,143304,246191,125072,129001,159866,96171,108941,25.709,22137,246191,58927.5
127761,78204,107066,174635,98708,115947,216803,132319,107380,152060,92382,107871,25.805,22219,216803,63170.5
118087,71003,108995,132811,68427,127200,159036,86138,120999,125625,77528,106193,25.866,22262,159036,60420.1
140875,76145,121248,220136,108700,132722,236762,125237,123897,163566,104210,102864,25.898,22290,236762,66493.6
91889.1,68900,87402.7,189960,115115,108146,238953,135277,115763,164517,107984,99846,25.959,22352,238953,66545.9
119589,66522,117817,199171,112118,116421,230118,126712,119018,154412,98528,102707,26.051,22446,230118,60063.2
94212,62801,98315,182245,115707,103223,198071,128694,100865,142745,95880,97569.5,26.158,22549,198071,61536.4
105246,64277,107307,192902,111067,113823,258394,142648,118712,166051,100576,108200,26.208,22604,258394,60109.7
143741,81444,115665,217554,122233,116643,262143,142548,120519,172173,101171,111530,26.233,22625,262143,64694.8
89874,65346,90135.3,134525,89660,98329.3,183961,120620,99951,135745,89588,99301.4,26.395,22757,183961,60321.2
112046,64596,113676,212191,113060,122998,250872,140520,117002,167826,100545,109391,26.429,22778,250872,64969
114361,68397,109578,160195,96056,109296,208650,110923,123276,147242,86156,112002,26.457,22803,208650,61695.5
110922,68710,105798,165777,106024,102471,177460,114154,101880,132587,87019,99854.3,26.722,23028,177460,59828.5
131690,75444,114395,206150,105909,127565,254904,134771,123954,171837,101647,110791,26.989,23253,254904,67326.9
126769,72473,114635,191393,106530,117742,250824,129435,126998,162364,96630,110118,26.993,23260,250824,59525.8
129797,72221,117783,238995,134935,116077,262143,150374,114247,175209,106973,107340,27.058,23318,262143,67730
119715,67439,116337,187333,100798,121798,243988,133715,119583,160160,97644,107495,27.312,23527,243988,60125
119740,70666,111048,189791,95145,130728,221388,120141,120765,153163,91421,109796,27.448,23649,221388,62393.9
109022,63010,113392,215170,123688,114008,237808,133856,116431,156737,97946,104873,27.561,23749,237808,59235.6
124212,74066,109907,210193,112027,122963,245228,144109,111522,163458,100072,107047,27.595,23777,245228,62914.8
128252,68621,122486,223849,121064,121177,262143,131032,131112,177589,100805,115455,27.639,23821,262143,70110
111183,65941,110500,196858,103862,124216,214297,131249,107004,159914,104906,99899.9,27.708,23870,214297,72052
104711,63473,108115,220697,128654,112423,249004,136950,119158,167041,103880,105383,27.748,23905,249004,64949.4
101550,64416,103315,193900,108696,116908,205853,121423,111106,144931,90717,104701,27.791,23941,205853,60531
127322,76417,109193,213527,110369,126790,260924,139358,122705,176224,102042,113179,27.908,24043,260924,69244.9
127118,74422,111940,228046,126642,118012,262143,138903,123682,175522,104058,110544,28.077,24168,262143,68043.6
117968,75076,102978,182788,112142,106822,234350,137348,111821,161788,98344,107815,28.125,24211,234350,65704.6
108426,62370,113930,179488,109477,107447,256348,157781,106477,166909,107131,102105,28.41,24477,256348,61806.6
127599,75542,110698,213024,121285,115107,260457,151818,112433,166690,107116,101984,28.456,24525,260457,59902.1
135220,67147,131975,213462,111783,125148,250138,126341,129752,169639,95952,115865,28.509,24568,250138,67082.8
114076,66838,111854,190831,109855,113844,241349,141799,111545,163579,103839,103240,28.554,24615,241349,64625.8
118669,75559,102927,149870,90599,108410,201379,131446,100403,144243,95313,99179.9,28.623,24670,201379,61678.1
112937,71183,103978,150119,88632,111001,223147,124843,117141,162147,102832,103338,28.663,24705,223147,70656.2
137659,77667,116157,190540,114144,109399,239257,133678,117296,157711,94852,108967,28.683,24716,239257,59615.9
121239,72008,110342,181903,106041,112421,223509,133938,109363,156377,95426,107396,28.695,24730,223509,64738.7
73923.3,53418,90693,48727,31273,102113,122993,73099,110268,125846,79295,104010,28.874,24887,122993,75419
108434,66761,106444,174905,112046,102302,224323,132124,111269,155050,99083,102554,28.982,24997,224323,63077.4
96037.2,59719,105392,132154,87025,99521.6,167605,118806,92454.7,133160,90709,96206,29.118,25121,167605,64441.5
103861,71028,95830.2,142072,91506,101751,189682,121878,101995,139555,95071,96200.4,29.163,25164,189682,61785.3
105577,64404,107433,166732,109003,100244,213601,119855,116796,153175,103002,97459.3,29.26,25260,213601,65599.1
129384,76505,110833,227039,125666,118403,262143,150663,114028,176989,101298,114505,29.293,25298,262143,69510.8
112468,66874,110218,168125,103792,106157,191220,113957,109970,137717,88176,102357,29.361,25359,191220,59316.2
116724,67401,113494,192798,110915,113918,237069,143388,108353,160679,96813,108769,29.481,25447,237069,63481.1
129754,69748,121918,220010,112911,127699,242049,124590,127321,170971,96439,116185,29.484,25449,242049,71730.8
127889,69173,121165,228472,128545,116482,262143,147089,116799,176967,103694,111846,29.514,25475,262143,69488.4
118855,70215,110935,126883,63737,130465,176025,93511,123365,130921,80643,106395,29.553,25506,176025,58750.8
110576,68425,105907,173215,112168,101204,193459,120944,104830,140973,91542,100924,29.619,25553,193459,61654.8
132610,74109,117269,165339,92396,117274,228218,120524,124096,158185,97010,106863,29.672,25600,228218,64615.1
112890,70334,105189,167346,95379,114985,217550,125765,113365,149451,98095,99846.5,29.699,25623,217550,60255.8
123519,74507,108646,149971,90435,108680,188140,105893,116438,147325,94664,101993,29.813,25722,188140,70187.2
142722,76251,122666,191677,97121,129341,236494,137043,113095,161368,104359,101337,29.847,25760,236494,64405.8
128021,73774,113726,211870,109164,127195,243655,129684,123131,176091,111692,103322,29.975,25850,243655,76192.2
131648,78290,110202,222488,118768,122769,262143,167199,102751,178123,102281,114132,30.132,25969,262143,70644.8
117191,67474,113825,139856,79746,114935,189295,112342,110428,143448,89143,105460,30.222,26067,189295,65837.1
104800,60063,114349,177408,99821,116475,218756,117284,122236,148368,93823,103636,30.225,26071,218756,58678
116539,64034,119273,208974,109540,125026,249337,129649,126037,171465,102050,110114,30.274,26106,249337,69236.8
112748,66597,110951,193974,107987,117721,218988,115851,123880,162609,101511,104981,30.284,26115,218988,72823.5
92826.9,60501,100552,121796,70877,112618,172876,102395,110646,135080,87018,101733,30.413,26228,172876,64201.1
137786,77334,116765,228270,120809,123831,262143,154242,111382,170551,98383,113609,30.551,26363,262143,63072.2
117176,69969,109752,203162,124993,106522,223033,130308,112170,160035,102182,102641,30.552,26367,223033,68592
119476,70531,111015,170789,95748,116899,230700,139984,108006,158750,102665,101338,30.984,26675,230700,64163
139939,75369,121682,214004,113650,123405,247754,130219,124688,165417,100123,108275,30.999,26688,247754,63837.9
119398,69190,113093,220807,120570,120020,262143,146749,117069,188457,113180,109124,31.064,26746,262143,80978.2
125307,68384,120088,164476,86014,125318,212491,109067,127681,154214,93739,107816,31.168,26833,212491,67093.1
90660.6,56990,104256,74684.4,40548,120709,116584,65607,116457,108986,70536,101260,31.321,26967,116584,61186.5
117867,72022,107252,139747,85077,107649,175538,91807,125307,132654,77268,112513,31.401,27025,175538,60683.8
125686,73659,111825,158025,90142,114889,206833,113497,119431,145348,90925,104762,31.425,27046,206833,60546.4
165507,102828,105484,191027,115504,108387,262143,145765,117860,176095,99218,116315,31.463,27080,262143,68616.2
106233,63413,109790,164842,93117,116016,206597,113408,119388,149181,94256,103725,31.666,27245,206597,64476.6
113545,67193,110745,188674,96169,128575,203743,98368,135741,144084,83827,112645,31.77,27333,203743,60549
108899,71009,100506,188832,111775,110716,230329,138935,108647,158323,103908,99856.3,31.828,27378,230329,63888.2
106858,63228,110759,163031,95713,111630,208937,126416,108316,145551,95208,100189,31.852,27408,208937,59886.7
95926.5,58846,106832,160741,101971,103307,181222,121455,97785.5,138954,88791,102561,31.886,27441,181222,64653.4
126138,71800,115133,182920,112416,106638,230996,137132,110394,167905,103860,105948,31.944,27495,230996,73196.5
104551,58853,116423,186243,111359,109606,229243,133127,112852,152909,97559,102718,31.949,27498,229243,58919.8
123001,74679,107942,208020,110838,122998,253922,142689,116625,165960,102618,105989,32.078,27597,253922,61852.1
107650,65557,107615,197394,117931,109695,262143,157687,108949,168876,108560,101948,32.257,27760,262143,61397.8
114831,70221,107170,194519,112875,112939,247689,133886,121242,163499,100910,106184,32.408,27889,247689,61946.4
111544,65177,112159,214061,127623,109923,243922,138405,115499,166638,101801,107276,32.476,27956,243922,66629.8
148079,78744,123241,180958,96564,122813,237314,124825,124595,164423,98919,108934,32.718,28159,237314,67124.3
115934,67210,113047,216961,121125,117389,247114,140523,115247,172563,104425,108298,32.731,28165,247114,71245.9
133846,75287,116511,186455,94145,129794,230808,127968,118203,157476,98238,105055,32.765,28193,230808,62844.8
121315,72201,110116,190208,114344,109017,219317,119421,120357,149794,93830,104625,32.891,28307,219317,59874.4
95234.4,58002,107605,202003,122474,108092,242896,137210,116015,158425,99458,104391,33.355,28738,242896,58838.1
106491,63939,109151,177528,100566,115690,217645,131499,108469,147946,94351,102763,33.388,28763,217645,58711.8
109890,65861,109348,179876,99468,118514,243165,137759,115681,168374,105036,105055,33.524,28891,243165,68676.3
105178,62221,110782,171991,94928,118739,223367,123583,118452,168371,104346,105748,33.631,28987,223367,76790.4
81255.6,57427,92729.3,85849.4,62817,89565.4,129254,81362,104112,115227,77844,97008.3,33.727,29086,129254,62233
116943,66220,115735,180877,105084,112805,238017,135569,115061,174119,106182,107467,33.799,29153,238017,76532.5
133312,77079,113348,208097,112765,120941,240310,123645,127372,167899,102830,107006,33.932,29258,240310,69372.1
128662,77639,108605,182711,103144,116092,235481,124380,124075,158200,101163,102486,34.001,29329,235481,61652.6
138340,81452,111308,190428,98068,127258,234231,117640,130488,155687,88870,114809,34.047,29364,234231,59652.2
131272,68238,126074,215438,119603,118048,254216,133781,124534,164805,99275,108796,34.068,29380,254216,60576.6
124986,74914,109340,192814,114463,110396,211690,130043,106682,145624,91412,104402,34.07,29383,211690,58831
102856,65364,103126,174587,101501,112725,236699,142285,109023,161060,104769,100748,34.18,29475,236699,64013.5
104636,57541,119174,225953,122376,121005,262143,147188,116720,175032,99848,114884,34.202,29490,262143,67553.6
124449,67609,120633,193101,107273,117970,247397,129348,125347,174828,103386,110823,34.256,29521,247397,73395.1
115640,69494,109054,232725,132237,115337,262143,169684,101246,166982,103626,105604,34.321,29595,262143,59503.6
121811,69242,115292,228087,122468,122055,225796,122930,120376,154290,99986,101130,34.322,29598,225796,61713.4
123946,71468,113658,198162,111937,116018,222397,132755,109789,150714,96631,102216,34.33,29611,222397,59531.4
112917,63424,116677,171086,102798,109071,216898,126815,112089,149409,93780,104411,34.414,29677,216898,60481.3
143567,70239,133954,223153,107752,135724,247740,122827,132185,162376,95452,111485,34.558,29805,247740,60802.9
112955,66592,111164,198125,109371,118718,262143,146874,116970,169422,107526,103261,34.757,29981,262143,61943.8
121595,68135,116957,204651,116099,115522,239641,138934,113040,162900,103718,102931,34.948,30154,239641,64647.1
135193,67200,131845,225011,116375,126714,262143,146834,117002,172103,98949,113988,34.957,30164,262143,64624.8
114241,69293,108047,134068,81414,107921,196633,105973,121602,141428,94308,98280.4,34.973,30176,196633,60808.6
109033,61315,116539,184005,105808,113970,246305,122455,131818,161067,91707,115102,35.009,30209,246305,60082.2
92826,56520,107633,107919,54678,129350,145557,75123,126981,128758,77524,108847,35.043,30244,145557,69079.8
117022,66210,115830,208218,114775,118891,241102,125423,125981,168230,100710,109474,35.069,30265,241102,69377.6
135286,76480,115927,230143,127197,118577,262108,148387,115762,169974,99152,112347,35.115,30305,262108,62509.7
122460,73299,109491,230191,130352,115731,262143,161428,106424,185017,106540,113810,35.116,30307,262143,77538.4
117742,70397,109612,184730,106730,113431,218156,123846,115443,148665,87908,110830,35.128,30324,218156,59220.5
115661,63404,119550,210300,127428,108157,222468,129235,112815,153616,95694,105204,35.228,30391,222468,62404.4
122320,73788,108640,223812,114961,127589,262143,144334,119028,170275,107272,104027,35.242,30400,262143,62796.4
129539,74821,113464,194828,118026,108182,241868,135095,117333,161232,97130,108787,35.263,30412,241868,62066.4
129072,71853,117724,188528,104019,118780,247512,135848,119405,164185,94117,114326,35.406,30522,247512,62705.2
142287,74968,124386,176096,75522,152812,218891,104896,136757,150763,93129,106094,35.423,30535,218891,61017.7
102252,57391,116763,182472,99904,119700,226607,114378,129841,152543,96100,104027,35.432,30541,226607,59633.8
135934,74544,119508,225133,124427,118578,239354,126838,123672,170820,100658,111217,35.435,30545,239354,72684.5
130648,79217,108084,187211,103038,119073,262143,135837,126474,168994,102690,107851,35.451,30560,262143,61515.4
122934,69813,115402,180613,104735,113015,222817,145863,100111,156719,100203,102499,35.622,30703,222817,65363.8
121001,69311,114411,205822,117598,114702,240682,126985,124214,163848,97000,110700,35.784,30870,240682,65167.8
99783.9,67339,97112.2,138718,82478,110223,189421,114939,108004,145811,96266,99265.5,35.841,30910,189421,68148.6
137671,67098,134466,224434,107021,137436,262143,143866,119415,184253,105395,114571,35.916,30975,262143,76774
116415,68595,111223,201335,120654,109360,239810,137800,114051,164577,102901,104816,35.963,31034,239810,66254.8
109003,64398,110929,209562,114383,120069,262143,147541,116441,182603,106434,112437,36.024,31096,262143,75124.8
110177,62306,115889,207563,112003,121451,217228,121287,117377,151669,96367,103145,36.037,31109,217228,62605.4
112323,65079,113111,200798,115489,113946,219895,116784,123399,154279,93853,107730,36.066,31137,219895,64121.6
117284,60039,128022,209770,109852,125146,243747,132368,120680,161930,94965,111749,36.098,31157,243747,61993.3
122590,66767,120330,232428,124886,121970,262143,147425,116533,182104,109340,109149,36.205,31242,262143,74625
120704,77979,101444,203563,116738,114279,241723,141548,111916,172483,107126,105519,36.373,31402,241723,73376.5
117511,67639,113858,182735,98070,122114,210641,110710,124691,146009,86136,111090,36.436,31454,210641,59645.9
128346,80187,104896,153798,96320,104644,218308,129764,110254,152302,97344,102536,36.472,31489,218308,62795.7
126529,69890,118647,212037,122582,113361,262143,140626,122167,169809,100489,110744,36.486,31502,262143,62330.2
114530,66951,112109,188836,108512,114048,216002,125751,112571,163450,99306,107867,36.584,31581,216002,74889.3
124066,67397,120640,201498,108696,121489,238476,125759,124276,162578,100023,106522,36.606,31606,238476,64802.6
104825,68630,100099,141999,86708,107326,162984,97578,109464,126437,85775,96603.5,36.808,31758,162984,59613.4
107081,70574,99437,204800,116079,115626,237362,136625,113857,167247,106235,103174,36.811,31762,237362,69928.5
120595,70787,111649,166124,100412,108424,208649,127937,106881,144557,94604,100140,36.915,31857,208649,59010.9
100624,65459,100743,178212,98064,119098,241940,136479,116177,163829,105452,101816,37.099,32015,241940,64634.2
133107,86266,101121,184433,111696,108213,262143,148443,115733,173032,107160,105821,37.1,32019,262143,65553
111656,65107,112392,161791,86805,122149,204420,105380,127129,143353,82045,114508,37.12,32040,204420,59541
114906,75087,100290,125434,77499,106072,155161,93205,109099,128660,78719,107113,37.175,32075,155161,65044.2
126686,70649,117517,219345,124276,115670,260550,154687,110387,175773,111013,103767,37.208,32106,260550,68947.4
128786,69394,121626,205787,113001,119348,262143,144521,118874,176155,102676,112436,37.257,32163,262143,68676.4
150684,84297,117148,183519,102250,117624,228829,130188,115191,161686,92813,114168,37.301,32207,228829,67866.3
131769,77570,111327,212418,120589,115442,253313,145278,114272,168287,102303,107806,37.41,32279,253313,64428.6
65637,47333,90879.2,45761.8,32923,91092.7,110961,68074,106824,106669,70964,98509.8,37.456,32320,110961,61174.7
133924,70359,124743,234326,125153,122704,262143,154588,111133,186668,104906,116613,37.582,32437,262143,79189
70209.9,57900,79469.4,33229,25558,85206,107321,83670,84061.2,104385,80038,85471.9,37.66,32507,107321,60383.7
75459.6,59166,83583.8,75332.6,52701,93679.4,110356,88839,81409.3,105633,78519,88166.6,37.805,32628,110356,60386.7
117829,76079,101500,184409,108607,111277,226019,149149,99312.6,153168,100136,100244,37.821,32647,226019,60500.7
102854,61437,109716,177652,111140,104756,225974,135733,109107,159144,100322,103962,37.845,32666,225974,66494.3
55970.1,42300,86715.3,39363.8,29075,88727.3,98170.8,64425,99863.8,102620,67945,98981.6,38.102,32874,98170.8,62370
138085,77400,116919,203570,111555,119593,255402,150651,111105,176502,104310,110893,38.226,32983,255402,71787.4
113189,66832,110994,213058,110047,126882,219432,122024,117851,149929,87322,112523,38.25,33013,219432,59961.8
121490,71886,110758,170395,105331,106018,209654,124730,110157,150200,92565,106342,38.444,33162,209654,64242.2
129347,73136,115906,221612,122785,118284,225040,118286,124683,156110,92695,110371,38.553,33258,225040,63843.3
115863,65822,115360,215205,122362,115262,250319,135528,121044,163878,100386,106986,38.617,33303,250319,61247.8
126590,69709,119011,182869,86746,138157,199391,93892,139173,143996,90119,104716,38.726,33388,199391,62245.4
111067,65597,110964,172085,104064,108373,206049,129815,104022,144140,91206,103572,38.727,33389,206049,59659.6
122845,76534,105192,230779,128166,118006,262143,145770,117856,174688,104162,109909,38.945,33557,262143,67209.2
78827.4,56297,91763.9,47983.6,31714,99156.6,119074,78500,99409.5,114562,74055,101383,39.064,33673,119074,65741.6
136140,83068,107407,206133,113182,119358,249743,133856,122274,169369,104005,106724,39.09,33695,249743,66974.5
118131,72054,107445,164947,96895,111563,203179,120092,110878,145092,87412,108781,39.139,33736,203179,61788.3
92637.9,55656,109083,174388,103867,110032,199976,106409,123163,148623,95404,102094,39.221,33810,199976,66632.4
103784,66022,103020,107146,54810,128114,168777,89062,124194,128978,82984,101859,39.507,34055,168777,59779.2
99047.7,59273,109513,172571,104511,108215,215589,125934,112192,150815,98480,100364,39.577,34120,215589,62423.6
126609,72555,114361,199273,114768,113791,216847,119250,119172,148597,87444,111368,39.581,34122,216847,59690
124817,78373,104373,160854,97658,107946,220640,137423,105222,153248,99618,100818,39.676,34195,220640,62785.8
129227,70935,119392,236188,126996,121884,262143,149365,115019,172061,105665,106717,40.222,34678,262143,64582.8
143338,84545,111110,189645,114960,108112,262143,140753,122056,166993,101902,107398,40.371,34784,262143,59514.8
126628,76110,109036,218863,123948,115721,259995,149767,113770,170587,100025,111768,40.519,34896,259995,63989.1
125881,77367,106631,161854,96142,110329,197095,105251,122724,145438,91460,104214,40.673,35027,197095,64628.7
130080,69181,123226,208249,110139,123914,239973,136013,115628,162190,93023,114265,40.718,35061,239973,63801.2
78819.3,52089,99166.8,52966.2,36467,95187.2,140406,79368,115936,122933,76636,105127,40.94,35242,140406,65366.1
117400,69673,110429,190208,113072,110244,206363,119549,113127,146327,92024,104208,41.11,35387,206363,61717.8
92904.3,57990,104994,87036.6,50352,113283,151728,83119,119631,131473,82210,104807,41.14,35416,151728,69264.2
132773,77845,111779,199857,107515,121823,242819,130367,122066,165071,97257,111232,41.142,35418,242819,65515.5
111676,65158,112323,196596,118256,108951,236982,140445,110583,167147,105539,103793,41.243,35498,236982,69984.7
130878,71535,119902,209612,110739,124050,218912,119100,120459,153422,92015,109272,41.266,35516,218912,63667.7
116395,67235,113454,202957,114168,116503,256943,147077,114491,164580,98267,109761,41.272,35524,256943,59233
120943,70987,111656,226073,129631,114293,262143,150480,114167,175225,109462,104909,41.369,35589,262143,67746.8
109552,69949,102640,183163,105702,113563,225817,128704,114986,153434,97131,103525,41.477,35688,225817,60849.3
116363,67773,112522,175085,97904,117200,223496,129031,113516,156911,103354,99495.8,41.633,35801,223496,65277.2
121799,68426,116655,190035,102520,121480,241515,121543,130225,157755,98040,105453,41.695,35855,241515,58733.5
115333,69390,108927,147182,80455,119890,167345,97544,112432,128026,80116,104727,41.715,35871,167345,59414.4
111365,66570,109635,221896,125420,115948,262143,152366,112754,172949,105536,107398,41.772,35921,262143,65470.4
114343,73038,102599,86280.6,43012,131463,139766,88888,103048,123770,73213,110792,42.049,36139,139766,66465.7
108583,65663,108373,172011,97706,115376,228533,124144,120643,166298,100250,108713,42.148,36213,228533,72599
109997,66937,107695,182042,103394,115387,227941,136770,109222,152834,98278,101916,42.208,36263,227941,59378
120678,66136,119583,202847,108923,122048,221687,129951,111800,155875,95691,106754,42.21,36265,221687,64982.8
112928,65784,112502,184268,106662,113219,220917,144134,100448,159818,100461,104258,42.215,36269,220917,69242.3
110336,69028,104755,157783,97377,106190,199163,118010,110604,143423,96125,97782.8,42.228,36286,199163,61766.3
97342.2,63558,100372,156479,94736,108249,177135,107674,107814,134021,87927,99891.7,42.3,36336,177135,61395.2
125067,72299,113368,204263,114332,117085,262143,159743,107547,170589,104245,107244,42.302,36339,262143,63110
141901,75199,123667,188542,98911,124923,219594,113796,126466,155812,89872,113620,42.322,36357,219594,65778
111561,67586,108177,210312,116706,118100,242766,134392,118384,171368,109384,102673,42.392,36417,242766,71834.5
135175,79123,111962,221631,100459,144585,262143,134118,128095,176834,112517,102998,42.487,36486,262143,69355.4
125091,75189,109031,179607,103038,114237,236355,141336,109595,159981,98603,106330,42.545,36516,236355,63075.2
111045,71993,101085,169522,102039,108878,203430,124282,107272,151451,98483,100784,42.585,36542,203430,68044.4
129311,71068,119245,229272,129348,116164,262143,154257,111371,173243,105852,107260,42.724,36669,262143,65764.4
129546,72407,117253,220627,122568,117967,262143,148567,115637,170682,102081,109578,42.724,36671,262143,63203.8
97274.7,57589,110698,198436,112577,115518,246744,132830,121739,164683,97011,111252,42.902,36802,246744,63518.2
123590,69302,116874,226955,123897,120049,257783,147322,114675,166117,103060,105634,42.916,36814,257783,60425.8
105960,58396,118915,199513,111680,117078,223860,130593,112341,153713,95279,105729,42.974,36864,223860,61930.4
115798,64313,118001,220318,123659,116763,262143,139672,123001,173741,103886,109604,43.048,36927,262143,66262.8
52508.7,37667,91358.8,65270.8,40967,104415,112578,66875,110324,110110,63619,113428,43.064,36935,112578,63952.9
101369,60361,110060,201788,119075,111059,217972,137024,104252,156386,99105,103414,43.102,36963,217972,67017.2
100523,67148,98109.6,155030,91933,110516,179997,101505,116214,137607,89323,100962,43.257,37082,179997,63808.8
111421,70310,103856,140869,88315,104535,178084,102990,113321,134140,79695,110308,43.343,37139,178084,61125.1
106591,72432,96442.5,80697.4,49457,106933,141341,87962,105306,118476,72792,106667,43.372,37171,141341,60526.5
113948,67767,110197,188838,110027,112478,213506,118478,118100,153321,98632,101874,43.441,37238,213506,65783.7
129537,88643,95770,118217,71460,108417,184758,116185,104216,137046,98872,90839.1,43.576,37347,184758,61295.2
103027,66974,100815,178770,107807,108675,226803,136660,108764,155537,100532,101393,43.591,37357,226803,62548.1
113663,68095,109391,138319,88824,102054,193439,110825,114390,141623,90001,103125,43.8,37539,193439,62312.4
128365,71013,118465,212635,121430,114759,240925,126405,124910,163502,96252,111325,43.874,37603,240925,64722.7
118809,75986,102470,158862,97667,106599,203616,120386,110845,148742,99484,97984.9,43.957,37688,203616,65259
108383,61678,115163,230160,130843,115281,262143,160500,107039,178276,108837,107349,44.042,37768,262143,70797.4
156112,85437,119749,181455,97269,122257,231032,122411,123689,161462,92547,114337,44.11,37831,231032,66738.8
118781,71136,109430,199083,110905,117642,225061,120485,122419,152951,89133,112459,44.146,37858,225061,60676.3
114547,67063,111938,162250,87692,121257,207070,108872,124647,150598,85005,116106,44.179,37885,207070,65699.4
127099,67032,124262,232385,126347,120538,262143,162914,105453,179689,105147,111996,44.217,37922,262143,72210
120276,68199,115580,221025,126124,114848,262143,148970,115324,177992,108561,107450,44.35,38033,262143,70513.2
114588,73733,101849,155679,93606,108995,226849,127369,116722,152874,98360,101858,44.39,38066,226849,59866.3
108824,66036,108000,226912,114455,129928,259223,148280,114570,166036,103980,104648,44.597,38229,259223,59754.5
127758,73123,114502,189525,105123,118154,230674,122480,123428,161990,99807,106367,44.972,38542,230674,67413.5
110981,63579,114397,196946,109610,117755,249315,138170,118254,174686,107390,106604,44.993,38563,249315,72467.3
102742,61358,109738,189431,109311,113571,215116,123079,114543,149820,94687,103695,45.011,38580,215116,61622.2
137527,72692,123989,213380,116468,120068,262143,144628,118786,168570,99769,110730,45.198,38737,262143,61091.2
124144,69447,117153,203589,108563,122900,251656,131330,125581,164825,96379,112078,45.35,38851,251656,61646
104885,61242,112239,185003,111152,109079,229782,143035,105282,154045,98177,102829,45.365,38863,229782,59834.2
97316.1,55408,115104,215002,119056,118351,262143,150806,113920,168295,103734,106324,45.467,38948,262143,60816.8
133235,75066,116320,223152,120261,121606,262143,148477,115707,167252,98020,111825,45.615,39074,262143,59773.8
119836,69701,112675,209758,116754,117741,239007,138125,113401,170166,106849,104371,45.645,39104,239007,72173.1
100740,67896,97238.1,210686,140776,98081.5,235214,145296,106094,163222,111223,96175.3,45.872,39297,235214,66784.1
112016,72654,101041,181024,106226,111683,233271,135017,113228,159400,101236,103189,45.966,39392,233271,63758.8
109102,64018,111690,228992,128609,116689,262143,185163,92782.1,180044,128746,91648.5,45.992,39421,262143,72565.6
152512,81780,122219,183742,100588,119713,223196,105559,138571,153598,90139,111674,46.053,39474,223196,62087.7
120307,76817,102639,129487,79839,106290,176872,104611,110805,137934,89999,100441,46.084,39491,176872,65416.2
101073,61887,107032,191584,110866,113251,240012,138813,113314,163023,104038,102692,46.221,39609,240012,64618.2
131974,76297,113360,170044,84601,131724,195394,99818,128287,140298,79748,115295,46.297,39673,195394,60186.7
62360.1,43929,93032.7,37200.8,24871,98025.5,118523,63224,122857,110702,68551,105833,46.332,39697,118523,62107.9
125543,69852,117786,196458,103546,124341,245221,135714,118417,166414,102847,106042,46.367,39723,245221,65873.1
101552,61117,108894,170219,100677,110805,227788,134963,110611,158322,101724,101999,46.439,39775,227788,64928.6
119300,68255,114548,200266,116667,112496,251409,135388,121697,163769,101685,105549,46.601,39911,251409,60691.4
121902,76207,104833,149191,88296,110734,182878,102556,116864,137631,86662,104080,46.664,39970,182878,62651.3
136171,79477,112285,212510,111955,124399,252244,145969,113250,163145,100595,106286,46.697,40000,252244,59724.9
110198,66057,109329,200379,110155,119214,235479,132898,116122,158007,101527,101994,46.822,40120,235479,61460.6
139067,77062,118267,221529,118552,122462,262143,144717,118713,169274,101256,109559,46.924,40206,262143,61795.4
57010.5,41496,90038.6,39774,28845,90366.8,106289,63328,109995,104454,70866,96597.8,46.936,40226,106289,60875.3
120043,71411,110167,209965,114299,120388,235351,131518,117277,162743,98411,108377,46.998,40278,235351,66249
118438,77696,99901.7,222561,121283,120262,223861,125097,117277,152201,93458,106729,47.109,40389,223861,60417.8
105913,66378,104569,190653,117282,106535,209779,134096,102524,149390,95954,102032,47.111,40392,209779,63380.5
110905,63333,114763,219656,121993,118002,262143,148745,115498,175876,100182,115053,47.224,40485,262143,68397.8
110646,60384,120086,126827,59092,140658,144056,73522,128408,119892,71872,109323,47.26,40514,144056,60828.9
119322,67703,115503,210099,116359,118333,262143,141838,121123,168857,100178,110465,47.365,40606,262143,61378.2
102095,64017,104518,204505,116514,115029,253301,149483,111051,168321,106950,103142,47.507,40718,253301,64467.4
110032,72613,99308.2,192122,121232,103858,195948,115829,110867,141084,92753,99684.7,47.632,40814,195948,60744.8
141583,78107,118795,196336,112539,114334,246459,132597,121812,166692,96084,113696,47.674,40849,246459,65644.3
138744,77821,116842,168192,89116,123688,209201,103827,132048,145982,85984,111266,47.781,40933,209201,60210
82065.6,52094,103241,51632,23009,147062,109974,55767,129239,104005,71285,95616.8,47.902,41026,109974,58915.2
140827,79283,116408,211096,116121,119138,262143,157014,109416,174051,103769,109923,48.038,41148,262143,66572.2
131699,66620,129556,208988,105103,130312,262143,125865,136494,173138,97982,115805,48.066,41176,262143,65659.4
91579.5,59913,100174,184488,109644,110271,217567,130672,109116,164597,102149,105601,48.089,41207,217567,75394.1
122670,72222,111314,195259,105430,121375,219806,120221,119822,153272,95440,105248,48.201,41287,219806,63151.7
109616,65506,109667,190722,116764,107046,207698,119103,114285,145999,93972,101820,48.328,41402,207698,60842.7
119890,73410,107030,162505,101459,104968,209325,129923,105588,149677,95710,102489,48.411,41483,209325,63853.5
123559,73440,110261,233297,119996,127416,262143,157261,109244,174566,99824,114605,48.419,41488,262143,67087.4
113258,65355,113571,229183,123967,121159,246091,140614,114696,177327,108965,106652,48.489,41553,246091,76429.7
88752.6,53357,109011,118105,81160,95369.1,183700,120936,99548,146724,89545,107384,48.6,41648,183700,71407.4
107902,62068,113931,124866,66625,122825,159389,78423,133197,124663,71981,113501,48.834,41821,159389,59313.7
130737,68001,125998,202520,100148,132527,262143,138274,124245,167868,96509,113994,48.963,41926,262143,60389.8
131519,73149,117831,215767,112723,125444,240810,145839,108213,160992,99523,106013,49.013,41962,240810,62259.6
120833,66669,118780,219090,123046,116690,252470,140871,117454,162572,93119,114416,49.07,42017,252470,59059.3
96271.2,62914,100283,157506,97026,106387,203753,116800,114325,143206,93363,100523,49.178,42110,203753,59667.2
92915.1,54849,111019,210174,118273,116459,246567,150115,107644,165704,106447,102019,49.178,42112,246567,64611.7
110695,63530,114190,148016,88045,110175,216402,130614,108581,147511,91085,106135,49.184,42116,216402,58786.1
89446.5,58804,99686.5,69760.6,41843,109262,137207,85528,105135,124089,74441,109245,49.44,42313,137207,67834.1
126811,80116,103733,201081,117895,111778,262143,164028,104737,181444,129840,91582.9,49.474,42349,262143,73965.6
118876,64565,120663,184339,96259,125504,236830,124783,124383,162876,96549,110558,49.557,42412,236830,65775.9
148924,80548,121168,209574,115709,118700,259132,129492,131147,168223,96303,114479,49.59,42446,259132,61978.6
88409.7,54757,105813,215358,121055,116589,251791,144832,113935,164662,105141,102637,49.61,42461,251791,61427.9
125032,74878,109433,207609,117231,116060,230930,125107,120970,155043,94842,107135,49.744,42573,230930,60361.7
111672,66380,110252,209474,116657,117679,247446,151433,107088,168109,104320,105610,49.761,42591,247446,66656.4
132317,73837,117442,167474,90256,121605,212017,131436,105715,154662,100521,100834,49.804,42627,212017,67735.1
114479,66209,113315,172812,100954,112184,215835,130916,108046,158974,104000,100178,49.841,42665,215835,70481.8
112507,64898,113613,228803,118259,126797,235003,126077,122157,155742,92993,109758,50.239,42974,235003,59390.5
110861,66389,109437,172267,105628,106882,212433,120828,115222,146562,91647,104805,50.275,42999,212433,59464.2
107104,70657,99341.9,181006,104628,113377,228581,131694,113751,156134,100919,101392,50.333,43064,228581,62415.5
111236,70459,103464,150480,95955,102776,205971,120483,112037,143496,92712,101434,50.363,43079,205971,59047.8
110875,76416,95088.4,108328,63149,112423,152284,89979,110915,123298,81865,98704.7,50.364,43081,152284,60861.7
125699,77096,106852,158626,82953,125320,186756,104068,117608,136255,86121,103687,50.499,43191,186756,59685.1
100658,62723,105172,170600,109757,101865,197400,121776,106234,141075,89867,102880,50.635,43289,197400,60141.2
138584,81710,111152,187348,107028,114718,251999,146463,112759,166741,101557,107600,50.979,43618,251999,63422
142673,83524,111947,191940,104649,120202,217472,123647,115265,155397,92413,110202,51,43637,217472,66233.8
117480,74280,103650,213108,112824,123788,236334,137299,112808,158008,97071,106677,51.228,43832,236334,61111.3
110742,66096,109804,192910,118237,106926,231294,135069,112225,170877,109848,101946,51.27,43867,231294,76046.5
103694,57820,117531,167955,94918,115964,216562,142121,99862.8,148488,99199,98099,51.319,43918,216562,59697.9
143417,77464,121333,131359,71713,120045,181406,99250,119785,134784,81132,108874,51.537,44101,181406,60407
126128,78373,105469,232194,123077,123639,262143,163693,104951,179353,108255,108577,51.577,44143,262143,71874
105274,59010,116916,173039,97550,116251,235837,135033,114460,159403,100553,103892,51.637,44184,235837,62709.4
122880,70034,114988,182263,103832,115040,201655,114929,114990,142794,92613,101046,51.645,44192,201655,60116
122612,70334,114247,212698,125296,111251,227086,128538,115781,154510,96918,104479,51.864,44354,227086,61404.5
127814,78691,106447,194249,110106,115618,247839,135454,119911,166453,100157,108916,51.875,44361,247839,64838.9
89953.2,53596,109993,218306,139842,102308,215554,140592,100479,161812,101819,104151,51.938,44405,215554,73434.9
99521.1,64486,101142,147981,76623,126569,217687,127971,111481,153656,101357,99351.5,52.027,44488,217687,64403.8
121607,74931,106360,215034,126022,111826,186676,117977,103698,143331,101789,92282.2,52.046,44498,186676,66793.4
74115,49473,98178.8,48531,28741,110662,113238,71064,104429,122853,71723,112255,52.067,44519,113238,76425.4
104853,63526,108170,176992,95994,120834,225495,130467,113270,161616,99806,106123,52.386,44799,225495,69163
130722,78855,108643,186546,98692,123875,236743,122665,126484,159426,97103,107599,52.393,44807,236743,62361.8
117050,74862,102469,186257,114131,106952,249008,134115,121679,166754,99179,110189,52.522,44908,249008,64660.6
121519,72172,110346,202226,116842,113427,262143,158572,108341,174166,111048,102785,52.612,45006,262143,66687
118857,77838,100072,185048,109130,111127,249554,147915,110569,168564,108583,101738,52.618,45013,249554,66247
106312,66776,104338,130364,85225,100247,165529,107894,100544,129667,89341,95116.8,52.637,45046,165529,61799.7
118234,70805,109435,170456,103174,108273,195937,123262,104176,142999,90958,103032,52.802,45190,195937,62664.6
118413,67063,115717,200775,119285,110307,227721,136808,109087,154041,97374,103675,52.951,45312,227721,60674.9
108685,69408,102622,177246,98677,117717,212507,133293,104483,153605,95332,105596,53.104,45434,212507,66477.2
97126.2,54716,116333,188524,105376,117248,258387,150679,112382,172130,106688,105736,53.157,45487,258387,66191.4
119167,69030,113135,182956,102000,117551,232919,139245,109624,164784,105904,101973,53.176,45508,232919,69287.2
130763,76241,112402,226939,119222,124748,262143,150530,114129,170828,102756,108951,53.261,45598,262143,63349.4
122095,65210,122705,236792,126833,122353,262143,147715,116304,180440,105423,112170,53.459,45749,262143,72961.8
110204,62839,114934,195306,109278,117128,244581,133779,119816,167077,100847,108576,53.55,45815,244581,66799
114512,68504,109550,200117,115689,113363,202703,120678,110081,142146,86064,108241,53.559,45827,202703,59037.9
112988,71569,103463,175928,114735,100489,241640,144464,109620,159414,111407,93776.4,53.563,45833,241640,60341.4
126495,73443,112876,210731,115527,119543,262143,155646,110377,175900,112384,102575,53.588,45857,262143,68421.6
125576,68744,119716,197800,105850,122466,240719,120870,130518,161777,93555,113326,53.641,45906,240719,63082.3
120530,72845,108436,206637,115969,116774,232169,131004,116145,157821,98373,105140,53.787,46022,232169,62631.3
107334,67080,104863,216748,114018,124584,262143,153178,112156,175484,111330,103301,53.837,46060,262143,68005.8
100771,63791,103528,92117.2,44886,134496,142092,88113,105684,117667,82394,93592.2,53.966,46166,142092,59409.6
123024,75295,107079,227714,121248,123082,262143,149302,115067,171858,104883,107385,54.041,46239,262143,64379.8
139455,76918,118819,222709,122284,119357,262143,146905,116945,166621,100630,108513,54.198,46383,262143,59142.4
126394,69613,118992,202551,113708,116741,245403,138886,115798,173328,104318,108891,54.272,46433,245403,72713.1
117055,79352,96674.4,144404,83160,113801,181973,107123,111328,148131,93058,104321,54.553,46656,181973,73522.1
127520,67789,123282,205709,115091,117136,248492,129593,125664,170437,98850,112997,54.619,46704,248492,68555.8
121432,75217,105803,169852,93892,118556,200472,114227,115018,141914,86168,107934,54.694,46759,200472,59720.4
114137,69883,107037,222292,127268,114468,254597,141065,118281,171077,108237,103585,54.703,46770,254597,66692.4
110145,76205,94724,177836,100621,115828,224102,121853,120529,153565,94608,106376,54.822,46870,224102,61682.7
126500,74777,110867,196483,106192,121259,258839,148230,114439,165133,102378,105708,54.852,46904,258839,59008.8
111476,70931,102997,190659,110275,113308,229536,121950,123353,157864,96883,106786,54.9,46945,229536,63754.4
133048,77254,112867,228515,129918,115272,257660,153005,110363,166723,99390,109934,55.118,47140,257660,61082.5
119393,72229,108330,185359,96192,126286,211103,118105,117140,145288,98175,96985.8,55.134,47153,211103,58735.5
121703,68909,115746,198415,110316,117873,254526,144725,115257,168525,99867,110592,55.165,47180,254526,64169.5
121036,71202,111404,200570,121338,108330,236233,138256,111979,159011,98016,106319,55.235,47247,236233,62155
122279,72495,110541,225296,118035,125090,253341,136843,121329,168445,104021,106125,55.261,47271,253341,64575.3
130034,70633,120650,237548,129035,120649,262143,146644,117153,175741,102328,112553,55.335,47314,262143,68262
133288,75834,115188,231977,135310,112356,262143,157675,108957,178394,106860,109407,55.379,47351,262143,70915
117796,70782,109066,173197,103290,109891,203696,114712,116373,143454,85541,109905,55.385,47359,203696,59938.5
143426,90897,103409,127365,73124,114148,197194,104793,123322,141362,83140,111430,55.429,47394,197194,60512.6
112980,66995,110519,222859,119435,122286,262143,165941,103530,179288,109522,107283,55.606,47563,262143,71809.6
106685,70686,98912.3,139898,88096,104072,213406,127258,109901,148092,100171,96887.9,55.717,47659,213406,60595.5
135140,77610,114116,205688,125371,107521,262143,163562,105035,180891,112609,105275,56.003,47907,262143,73412.6
124762,65574,124689,219388,111247,129242,230167,118224,127590,154238,90490,111705,56.057,47951,230167,59869.5
126450,73010,113505,238858,140986,111031,262143,153903,111627,174509,103386,110620,56.438,48295,262143,67030
114966,65669,114733,227776,120030,124365,237142,132011,117727,166597,95652,114144,56.479,48340,237142,69369.1
130687,72596,117978,216744,128582,110471,261017,156613,109225,166723,101858,107271,56.532,48385,261017,59706.1
122502,76246,105294,180481,101357,116696,243596,136621,116851,158614,101033,102887,56.611,48457,243596,58740.1
103644,58499,116112,163202,97746,109423,188647,117135,105546,149132,90665,107798,56.64,48479,188647,71786.9
109689,66107,108742,139408,80672,113252,181986,105695,112840,140008,90081,101859,56.655,48488,181986,65394.1
141962,78908,117905,218092,118699,120413,262143,149194,115151,172766,104561,108285,56.834,48636,262143,65287
104875,65697,104618,219276,121898,117890,248895,138484,117787,173379,109644,103631,56.839,48640,248895,71331.9
142199,73283,127167,193095,93873,134806,219355,99135,145011,152428,87408,114286,56.937,48739,219355,62492.3
133628,75058,116676,229618,115528,130256,215302,111367,126698,147162,90489,106581,56.987,48793,215302,58888.7
121023,70568,112393,198072,111002,116942,247960,129407,125575,163730,103352,103822,57.024,48815,247960,62066.6
150210,74184,132699,203458,86778,153654,241849,123308,128538,161983,98176,108129,57.053,48832,241849,62824.9
152604,89533,111702,211457,125454,110463,260378,137801,123832,171333,108177,103798,57.096,48867,260378,64578.6
99914.4,63430,103232,172843,102764,110227,226289,128932,115022,158740,99824,104216,57.116,48876,226289,65961.9
120378,73475,107371,210339,114583,120304,262143,163093,105337,185081,118150,102662,57.132,48891,262143,77602.8
112848,70036,105598,211659,115366,120237,261107,152409,112276,177394,116460,99825.6,57.301,49019,261107,70340.1
110448,67154,107787,183117,106093,113116,205030,126224,106452,144642,93264,101639,57.312,49033,205030,60580.1
114124,68232,109615,175011,106241,107958,233482,142638,107275,169232,107365,103300,57.366,49094,233482,73504.3
130154,68576,124384,174272,92465,123518,201970,108031,122523,146313,86039,111446,57.375,49109,201970,63505.1
118765,72202,107800,148285,89425,108672,192581,106764,118214,147470,89340,108178,57.432,49140,192581,68512.1
117529,70019,110004,222506,126204,115544,262143,153055,112246,176176,107321,107583,57.569,49241,262143,68697.4
105895,68811,100855,68346.6,44616,100394,137516,83812,107530,116185,66280,114880,57.715,49373,137516,59802.9
126603,82172,100972,236687,135043,114863,262143,163590,105017,180251,111155,106275,57.729,49383,262143,72772.8
111856,65971,111119,213515,120549,116077,220450,121846,118571,149860,89261,110028,57.828,49456,220450,59475.9
140615,77252,119289,195377,104792,122187,244114,130167,122906,167019,98977,110589,57.85,49471,244114,66931.9
120886,72919,108647,132791,76258,114121,183128,108292,110825,138113,88785,101947,57.859,49476,183128,63030.2
119129,68623,113770,208800,110361,123992,234902,132287,116372,157333,98184,105017,57.879,49493,234902,61023.7
139991,75978,120752,203074,103257,128889,262143,134033,128176,170279,99274,112410,57.907,49520,262143,62800.6
137740,80348,112348,213280,116061,120433,234093,134312,114223,161091,100895,104636,57.917,49529,234093,65113
142124,81976,113622,196860,112663,114513,259452,142232,119547,165862,99122,109662,57.935,49546,259452,59486.8
121210,65407,121449,197698,107795,120194,222030,123453,117866,158323,100363,103383,57.963,49575,222030,67290.8
99641.7,54145,120604,188279,111221,110942,239257,128943,121604,173195,109882,103297,58.211,49771,239257,75099.9
109208,69888,102407,172123,101220,111443,230818,136388,110911,155991,101674,100547,58.298,49845,230818,61355.4
128685,72378,116520,183184,97095,123644,217335,112161,126989,153909,94803,106395,58.315,49857,217335,64801.8
140999,78225,118128,146833,75863,126845,194215,119229,106753,141483,96726,95860.5,58.349,49878,194215,61854.4
139180,75173,121338,208741,96777,141357,210405,111470,123702,149552,90996,107709,58.35,49879,210405,63286.3
112067,71521,102689,169868,99011,112436,221798,128698,112945,156157,98514,103883,58.477,49993,221798,65220.3
127360,73667,113303,155792,77250,132168,204056,107090,124876,150889,94553,104583,58.504,50023,204056,67226.4
121197,72153,110082,229398,124970,120300,262143,143651,119594,181030,109703,108146,58.784,50261,262143,73551.2
133415,78283,111691,192856,106350,118843,210333,116018,118813,157895,93555,110607,58.797,50276,210333,71658.2
109745,58484,122978,214672,120184,117060,262143,150489,114160,172899,102670,110364,58.802,50280,262143,65420
103646,60499,112275,159732,93537,111915,203452,114670,116277,149113,95470,102359,58.805,50283,203452,65697.2
130696,79007,108412,229306,135591,110832,261339,152517,112297,173285,104915,108244,58.865,50340,261339,66135.9
132191,70253,123315,225873,116900,126628,254737,149031,112020,172554,102614,110204,58.927,50382,254737,68112
126248,68767,120316,212047,114515,121353,248091,128136,126888,162424,93304,114085,59.044,50493,248091,60706.4
128349,77059,109156,200126,120043,109256,227077,133702,111305,154053,100315,100643,59.095,50521,227077,60951.6
118427,69713,111332,178025,106832,109210,216376,132489,107031,152505,100399,99548.4,59.276,50644,216376,63790.8
126738,67777,122548,193606,98126,129305,242931,126236,126119,161988,101833,104250,59.32,50674,242931,62386.8
112560,66084,111627,157417,81466,126636,203057,107743,123512,142197,83415,111718,59.324,50676,203057,58943.1
119086,71592,109013,185626,108195,112438,201173,113104,116566,145333,93210,102183,59.537,50871,201173,62851.7
136130,71652,124510,218319,109365,130826,262143,140051,122668,170233,98411,113365,59.588,50922,262143,62754.4
109589,65172,110201,205454,113450,118684,223777,132505,110679,156009,98961,103316,59.601,50933,223777,64260.3
113345,63630,116740,204145,112978,118420,262143,148542,115656,170101,102643,108607,59.605,50938,262143,62622.8
128356,71571,117533,208909,119188,114870,259851,140501,121206,165420,99920,108496,59.635,50964,259851,58880.8
139114,79181,115141,197702,104354,124160,214976,113902,123691,149764,90048,108996,59.676,50997,214976,61623.6
91834.2,55952,107564,197757,119699,108273,233775,146044,104904,158782,98610,105526,59.947,51204,233775,62934.7
117180,73378,104657,139458,83042,110059,187796,117775,104499,135957,84027,106038,59.969,51221,187796,58960.4
137784,71426,126422,211362,107472,128888,262051,135199,127026,179521,102402,114891,59.98,51232,262051,72079.9
124320,72955,111677,216495,133966,105909,249112,139958,116648,163309,97725,109517,59.984,51236,249112,61172.8
105822,59819,115936,214143,101560,138185,234613,114071,134790,164609,97200,110986,60.08,51322,234613,68417.7
144112,87177,108337,187253,107268,114403,247747,142718,113765,165798,103148,105341,60.121,51359,247747,64221.6
117208,66886,114842,196753,116671,110519,227224,140844,105730,157111,97725,105361,60.237,51455,227224,63948.9
108563,70325,101170,177373,101090,114990,221970,132345,109917,165106,105581,102484,60.33,51540,221970,74098.5
121007,67277,117875,193865,106621,119162,253071,139956,118503,168498,101817,108456,60.359,51559,253071,64739.3
144053,81010,116537,202041,106442,124396,220413,118315,122089,153590,87892,114523,60.415,51599,220413,63220.4
121640,69736,114313,203595,117353,113698,262143,149781,114699,167895,102890,106941,60.478,51649,262143,60416.4
100952,58095,113882,222305,128329,113528,244502,137890,116206,160283,99304,105779,60.509,51673,244502,60037.6
123225,73697,109580,194615,112846,113024,206405,128320,105416,144854,87364,108662,60.558,51718,206405,60227.8
110261,64410,112188,205183,120057,112004,237741,137664,113178,157409,99664,103507,60.622,51771,237741,59935.2
120790,64285,123140,192557,101035,124902,238587,124213,125881,159214,92863,112361,60.638,51787,238587,61393.1
70396.2,47470,97187.4,38410.4,23651,106434,95816,61407,102259,107093,65883,106529,60.64,51789,95816,67808.4
157052,82456,124825,215615,114371,123550,261835,133114,128909,168771,101576,108890,60.763,51899,261835,61419
130725,71907,119143,205874,99048,136219,223831,111558,131492,153063,89885,111600,60.859,51982,223831,61292.8
124988,68133,120224,229421,120154,125134,254198,140211,118815,165710,102078,106389,61.025,52119,254198,61488.4
129605,67498,125838,209881,121027,113650,262143,138949,123641,170793,98850,113233,61.039,52131,262143,63314.4
114870,65977,114102,208534,122549,111519,226307,127193,116604,157318,99305,103821,61.051,52144,226307,64532
126148,74780,110554,185382,103874,116961,262143,154894,110913,179011,107672,108957,61.68,52624,262143,71532.4
127368,71683,116446,235173,125198,123104,230849,128313,117906,157655,98142,105277,61.772,52701,230849,63007.4
131399,79167,108775,209992,114024,120694,242353,137180,115781,169130,102220,108434,61.922,52802,242353,69765.2
107074,59135,118664,210158,112552,122369,251086,137674,119523,173461,103163,110194,62.011,52881,251086,70516.2
107756,63555,111115,186882,103726,118075,223292,132581,110375,157847,98804,104699,62.132,53000,223292,66297.6
132052,73688,117443,150577,81190,121545,189263,102478,121036,139404,86662,105421,62.149,53016,189263,61805.7
123883,81198,99987.8,158892,91667,113597,222298,138973,104830,154104,97885,103175,62.199,53050,222298,62961.6
110114,68441,105440,191652,116307,107991,236368,132801,116645,163082,104292,102479,62.256,53098,236368,66171.1
92229.3,50981,118561,213317,117070,119415,262143,134915,127338,171102,105045,106748,62.353,53185,262143,63623.8
105426,64165,107679,127008,78852,105560,181800,109283,109024,138065,87251,103704,62.521,53346,181800,63527.3
115356,69139,109344,218863,111940,128135,236194,121201,127715,159880,98212,106687,62.603,53428,236194,63040.5
142528,76407,122249,163796,87915,122101,208947,108311,126428,156782,97675,105194,62.724,53545,208947,71113.4
126623,71342,116318,196790,108827,118507,262143,148198,115925,176663,107022,108182,63.054,53816,262143,69184.6
112844,72100,102570,230483,115436,130851,262143,140534,122247,172498,102020,110810,63.144,53883,262143,65019.6
66806.1,48909,89517.4,51699.2,35398,95716.1,111161,71775,101499,107622,71066,99247.6,63.257,53965,111161,62046
135446,72564,122328,191743,94710,132679,235721,116728,132344,161847,94927,111736,63.343,54049,235721,65201.5
145266,75904,125424,205775,100533,134142,232215,105300,144525,157664,89626,115286,63.355,54059,232215,62455.6
116685,65519,116715,179481,99350,118394,226969,126294,117778,159317,96592,108094,63.439,54132,226969,66259.8
122709,69099,116381,199184,107940,120935,226227,130139,113925,151589,94557,105064,63.458,54152,226227,58836
151740,78134,127274,226194,127547,116223,262143,143976,119324,173970,98224,116074,63.471,54169,262143,66491
118572,67415,115267,218217,116119,123159,259239,136202,124738,172211,104154,108359,63.544,54248,259239,65923.1
102109,60447,110705,182945,110914,108097,222557,140878,103533,150340,94674,104070,63.704,54376,222557,59092.2
121067,69505,114154,182533,107984,110780,230432,142844,105721,167265,100375,109209,64.215,54828,230432,72788
131176,77644,110720,227899,125332,119168,262143,135754,126551,173946,100403,113540,64.262,54894,262143,66467.2
125912,71447,115495,235526,132278,116689,242500,128795,123393,164196,95667,112481,64.264,54896,242500,64771.4
122086,71843,111368,169917,99397,112032,220928,118228,122465,150290,94482,104246,64.57,55170,220928,59709.4
127082,78653,105888,226862,120664,123215,260642,136893,124780,172319,103392,109226,64.66,55257,260642,65455.7
107032,65186,107607,141911,85393,108912,188173,103412,119252,136066,90835,98169.4,64.698,55297,188173,58915.2
126890,79142,105075,173015,98282,115369,228201,130709,114418,152524,95138,105067,64.716,55321,228201,58961.8
130383,76806,111251,160737,91016,115738,203395,122639,108690,153157,97084,103388,64.781,55377,203395,69765.3
110862,61889,117395,216142,108608,130424,243982,147332,108528,159053,102179,102014,64.888,55489,243982,59019.9
122370,75923,105629,209010,119854,114286,220086,128292,112427,157395,98136,105110,64.975,55554,220086,67159.9
137672,72452,124530,228000,123701,120793,262143,157742,108911,168938,99258,111543,64.976,55556,262143,61459.4
88128,52057,110947,216093,119012,118995,262143,143286,119899,175437,112656,102058,64.994,55576,262143,67958.2
104450,63862,107188,201351,113646,116113,225098,122642,120285,153756,94573,106548,65.011,55589,225098,61466.4
121635,70563,112970,193011,103293,122459,252265,134491,122926,172631,105024,107724,65.055,55632,252265,69202.7
119975,71029,110697,215571,119552,118171,241317,137930,114659,162264,99630,106736,65.097,55669,241317,63324.4
120876,74617,106165,215233,119939,117606,262143,154458,111226,175204,106747,107565,65.148,55705,262143,67725.8
88979.4,60812,95891.5,83865.6,49781,110408,118783,80075,97215.9,111254,74588,97752,65.186,55735,118783,62552.8
118507,73930,105051,214186,112375,124911,236362,132624,116798,156344,91012,112580,65.2,55750,236362,59435.2
119277,72879,107259,181273,98573,120519,214641,115136,122175,147273,97111,99388.1,65.627,56113,214641,59270.2
104918,67768,101463,119297,73832,105892,157319,100243,102851,129571,84088,100985,65.785,56229,157319,65070.4
111990,71363,102845,147557,92447,104604,183617,114875,104753,142635,93429,100052,65.874,56314,183617,67351.8
104657,63871,107386,190257,112334,110997,244328,135073,118545,161004,100585,104902,65.902,56329,244328,60829.7
127156,71839,115999,232260,118868,128053,262143,153634,111823,178084,105769,110344,66.072,56472,262143,70605.6
