"FSC-A", "FSC-H", "FSC-W", "SSC-A", "SSC-H", "SSC-W", "FITC-A", "FITC-H", "FITC-W", "PE-A", "PE-H", "PE-W", "Time", "Event #", "Comp-FITC-A", "Comp-PE-A"
88673.4,64127,90621.7,74188.5,51078,95188.1,132885,80767,107826,98024.2,72974,88032.9,0.371,85,132885,80483.3
88789.5,64783,89821.5,57815.7,41022,92365.3,127482,89634,93208.9,96851,73624,86211.4,0.411,96,127482,80023.3
111782,67493,108541,170361,95216,117258,242319,126577,125462,124465,80877,100856,0.595,120,242319,92478.7
110426,71535,101165,90052.5,54019,109252,127442,71456,116884,80977.2,60970,87041.6,1.443,283,127442,64154.9
99385.2,68692,94819,64733.7,37708,112506,157208,94112,109473,111905,82235,89180.9,1.494,288,157208,91153.3
65987.1,51092,84642,33218.2,24926,87338.1,64340.3,44246,95299.2,87499.1,68467,83753.4,2.023,403,64340.3,79006.2
88427.7,50755,114180,179331,70827,165934,215909,101185,139841,99290.5,67480,96430.1,2.096,413,215909,70790.5
62793,39707,103639,160614,82792,127138,103075,59968,112646,79653.9,49381,105713,2.258,440,103075,66048
80109.9,59806,87785.2,146962,84623,113814,236784,137298,113023,119582,85714,91430.9,2.427,473,236784,88326.2
94644,58153,106660,151089,91266,108493,262143,173471,99035.6,122711,80040,100474,2.663,514,262143,88107.7
81233.1,57717,92237.9,60054.9,41799,94159.2,152958,95265,105225,98456.5,74947,86093.4,2.713,521,152958,78266
84903.3,60507,91960,112643,85982,85857,172627,109195,103606,115868,89713,84642.1,2.759,534,172627,93080.9
82459.8,45585,118550,176280,106727,108245,262143,177286,96904.5,101260,66073,100437,2.869,560,262143,66657.2
81455.4,53173,100394,104143,55071,123933,181426,108732,109351,107102,79993,87745.9,2.921,569,181426,83154.1
97714.8,66475,96334.5,109250,72193,99175.8,146204,91010,105281,112869,75701,97713.5,2.938,571,146204,93570.4
92033.1,64675,93258.3,77256.2,54710,92543.6,121593,78793,101135,91621.9,73576,81609.9,3.024,587,121593,75571.6
85514.4,57090,98165.6,75834.2,49909,99578.7,132568,85983,101043,110192,83785,86191.6,3.193,620,132568,92693.2
83776.5,60337,90995.2,49628.6,33623,96733.1,126333,81389,101726,100309,75829,86693.4,3.204,623,126333,83633.4
95852.7,59320,105897,118245,54749,141542,157673,81119,127384,104681,85777,79979.1,3.333,654,157673,83868
98177.4,64736,99390.7,86602.6,39586,143374,135911,67118,132708,85023.5,64790,86002.5,3.352,658,135911,67083.2
78706.8,52800,97691.8,43609.9,24154,118325,90666.9,54104,109825,89415.9,68470,85584.4,3.537,699,90666.9,77447.9
100106,64975,100970,142911,86259,108578,123208,70975,113766,79702.6,59111,88365.8,3.969,782,123208,63439.1
65526.3,35911,119583,93205.1,47580,128379,107712,49002,144056,80054.3,48201,108845,3.974,784,107712,65836.2
77143.5,51393,98372.9,73386.4,53438,90000.6,149048,94893,102937,110081,77137,93525.4,4.145,817,149048,90406.7
63378,42302,98187.8,69689,45412,100571,67705.5,42536,104315,78258.4,48272,106247,4.221,833,67705.5,69321.3
66791.7,46380,94378.2,63684.2,39578,105453,70158.9,41807,109980,92561.5,66467,91265,4.226,834,70158.9,83300.5
80978.4,62334,85138.1,57115.1,41802,89543.4,122403,84659,94754.6,87618.6,68370,83986.8,4.278,844,122403,71461.4
84250.8,58511,94366.2,75226.8,52283,94295.7,151375,106611,93053.5,99336.4,71676,90826.9,4.28,845,151375,79354.8
86493.6,64832,87432.8,57115.1,38844,96362.2,79352.3,55241,94140.8,96250.5,75248,83827.8,4.535,902,79352.3,85776
94604.4,65821,94194.8,64105.4,49115,85538.3,134827,83918,105294,96179.7,71274,88436.6,4.783,948,134827,78382.5
80204.4,50272,104557,91570.4,60930,98492.7,219958,128408,112261,103620,70110,96860.1,4.836,961,219958,74585.9
105094,63654,108201,128293,80409,104563,184855,110592,109544,111931,78350,93625,4.862,968,184855,87530.3
102347,64995,103199,66868.7,36389,120430,145511,84856,112381,109153,84283,84873.8,4.981,994,145511,89945.1
82008,57418,93602.6,79452.4,54353,95799.5,105691,61523,112585,75960.7,45043,110520,5.012,1001,105691,62009.4
95272.2,56947,109642,141089,79745,115950,195549,107114,119644,92147.3,64381,93800.4,5.641,1126,195549,66334.8
77045.4,58394,86468.6,60271.8,44213,89339.6,119754,84832,92514.6,91303.5,76291,78432.2,5.703,1145,119754,75496
90047.7,61135,96530.1,63798.2,45316,92265,164220,111591,96444.5,100808,68211,96855,5.779,1159,164220,79131.3
97391.7,69299,92103.2,53035.4,36244,95898.1,140927,87405,105666,83680.8,61875,88632,5.875,1175,140927,65078.5
102417,69065,97184.1,85106.9,56111,99402.4,184821,107014,113186,113100,73448,100917,6.218,1232,184821,88703.7
88535.7,64680,89707.4,67581.8,44249,100094,122788,85066,94597.9,87692.3,72433,79342.3,6.686,1339,122788,71484.2
98672.4,65324,98992.6,66232.1,41116,105569,122674,72552,110811,99647.7,78085,83633.4,6.686,1340,122674,83454.7
68080.5,49903,89407.9,45084.6,29061,101671,83815.6,46134,119065,93825,64701,95035.9,6.847,1377,83815.6,82761.3
61344,48263,83298.6,31618.3,21436,96666.3,61310.1,47913,83860.8,69625.1,59789,76317.6,7.431,1509,61310.1,61532.2
75234.6,53966,91364.5,71636.4,49688,94484.9,150388,97871,100702,99785.3,76996,84933.4,7.676,1575,150388,79934.1
98980.2,67120,96644.3,87639.5,58004,99019.8,156953,106502,96581.2,101635,71723,92868.1,7.695,1577,156953,80917.6
51255.9,43662,76934.3,34541.5,27328,82834.9,64444.6,46539,90750.5,76917,63542,79330.8,7.768,1595,64444.6,68410.4
65295.9,44320,96553.1,48936.3,31339,102335,68208.7,46367,96407.5,77574.5,57583,88288.6,8.04,1649,68208.7,68571
115233,69781,108223,91079.8,50172,118971,188288,108924,113287,105363,81697,84520.8,8.245,1681,188288,80509.4
88614,55240,105130,171967,108445,103924,241108,129462,122053,117270,75152,102265,8.294,1697,241108,85443.9
52723.8,40945,84389,29255.3,19780,96930.1,46509.4,30441,100129,68525.6,57285,78395.6,8.366,1714,46509.4,62386.4
101831,58078,114908,168390,62028,177913,140038,67452,136060,98685.8,73026,88564,8.423,1725,140038,80200.8
59695.2,45565,85859.4,69443,49271,92367,87100.2,64927,87917.2,88886.3,71548,81417.4,8.84,1802,87100.2,77389.1
115185,69205,109078,96941.4,51077,124384,168864,91579,120843,109653,86043,83518.9,8.952,1825,168864,87362.9
62319.6,49834,81955.6,35834.2,25123,93477.3,66328,54059,80409.8,95386,75591,82697.9,9.01,1842,66328,86630.7
78217.2,51398,99732.3,82952.4,58617,92743.9,125411,85619,95994.6,108198,82169,86295.8,9.035,1844,125411,91643.3
109486,61089,117456,145779,66814,142991,211858,117548,118116,120281,93012,84749.6,9.104,1862,211858,92315.6
99297.9,68076,95593,70726,47014,98589.7,131748,73351,117712,107458,69805,100886,9.206,1883,131748,90067.3
88869.6,48022,121281,100448,51170,128649,138785,68041,133675,110675,82932,87459.2,9.248,1894,138785,92355
62428.5,44198,92567.9,86021.5,57410,98197.3,98124.3,57845,111171,104368,70265,97343.9,9.358,1914,98124.3,91415.7
57039.3,42775,87390.5,39047.9,30095,85032.1,93335.7,59275,103194,73560.2,55187,87354.6,9.688,1967,93335.7,61239.9
84139.2,55417,99502.8,78011,57836,88397,129103,73937,114434,96413.2,70666,89414.1,9.852,2001,129103,79371.6
130676,77143,111015,87821.6,45895,125405,164368,81822,131652,110951,73011,99591.8,10.236,2079,164368,89254.7
97430.4,54997,116101,86528.9,45914,123508,152646,82590,121126,92500.3,70287,86247.8,10.27,2085,152646,72351.1
80261.1,56345,93353.3,74611,51510,94927.4,149105,99967,97749.9,102831,79391,84885.2,10.392,2120,149105,83148.9
90967.5,58533,101851,90445.9,57267,103506,150841,88740,111399,109426,79960,89686.9,10.485,2142,150841,89515.3
104774,69592,98667,103137,63725,106068,176377,101809,113537,106776,69461,100742,10.586,2160,176377,83493.9
80312.4,47621,110526,171184,92411,121400,262143,186644,92045.8,128443,81259,103590,10.678,2177,262143,93840.1
65038.5,39686,107402,74559.6,43508,112309,144992,82568,115084,100703,72480,91054.8,10.726,2188,144992,81563.7
79045.2,51372,100839,78344.6,53461,96039.9,124451,87480,93232.9,100049,78959,83041.1,10.905,2225,124451,83621.9
90646.2,62371,95246,70202,50373,91333.8,133699,86210,101636,92631,67658,89725.8,10.954,2241,133699,74982.8
84720.6,57832,96006.5,76893.4,52006,96898.2,145154,86323,110200,108895,78129,91343.4,11.148,2285,145154,89735.1
131098,63726,134821,141184,64379,143721,262143,125649,136729,126838,87562,94931.9,11.228,2297,262143,92234.6
61928.1,47480,85478.5,63593.9,35693,116765,59853.4,43081,91050.6,77421.6,63167,80325.2,11.282,2309,59853.4,69521
85113.9,62673,89002,107318,70613,99601.7,179146,114704,102355,114191,91024,82216.1,11.312,2318,179146,90544
87421.5,60787,94251.3,110131,65506,110182,230148,118140,127670,118671,89891,86518.6,11.445,2340,230148,88291.7
102752,56267,119679,134059,66673,131772,122302,58900,136081,99289.1,73430,88615.1,11.6,2370,122302,83145.2
105117,67440,102150,72285.6,46288,102344,156688,96466,106449,102613,76050,88426.3,11.619,2375,156688,81929.8
74844,54429,90117,68096.1,49570,90029.2,111286,79678,91534.1,83167.9,64623,84342.9,11.623,2377,111286,68478.1
103923,67311,101183,124782,67260,121583,155302,71297,142753,110410,71646,100995,11.77,2408,155302,89910.6
81373.5,58441,91252.6,68932.9,45707,98837.9,88819.6,57090,101960,103659,75890,89516.6,11.809,2415,88819.6,91935.1
60530.4,18086,219337,111186,21229,262143,129574,38143,222630,83288.8,50044,109072,11.838,2421,129574,66185
78384.6,51865,99045.9,82256,54703,98545.5,164450,97149,110936,112830,82728,89382.8,11.875,2427,164450,91123.1
86509.8,56526,100299,71461.3,35259,132825,115376,51966,145504,92850.6,53303,114160,12.015,2444,115376,77621
92914.2,59703,101992,71055.4,44273,105181,139746,97331,94095.6,92334.9,74800,80899.2,12.132,2480,139746,73888.4
84253.5,64373,85775.7,55285.9,39982,90621.1,101577,75180,88546.9,88627.8,73641,78873.3,12.269,2506,101577,75219.6
107158,65111,107857,131530,79234,108791,232129,128198,118666,120368,82018,96179.7,12.309,2518,232129,89727.5
62862.3,50307,81892.1,24530.7,17767,90484.9,58698.3,47517,80957.4,96112.9,80768,77987,12.367,2528,58698.3,88364.8
85992.3,58639,96106.5,121382,76439,104068,152835,89174,112322,104470,76844,89096.4,12.369,2530,152835,84295.4
101539,59174,112456,105345,58113,118802,232678,113341,134539,123514,80875,100088,12.392,2535,232678,92800.6
81744.3,57048,93906.8,54444.9,36887,96730.6,140686,96778,95269.6,97291.7,81255,78470.3,12.485,2551,140686,78721.1
86529.6,62540,90674.8,57835.1,41808,90659.3,128708,88009,95842.9,101573,76627,86871.2,12.489,2552,128708,84583.3
97596,68427,93472.6,86599.8,57615,98505.7,198898,121576,107217,116482,88541,86217.3,12.622,2584,198898,90227.5
66967.2,49389,88861.1,62741.8,52520,78291.1,81982.2,52696,101958,99057,80343,80801,12.734,2614,81982.2,88235.3
95815.8,54642,114919,163453,90175,118792,262143,165982,103504,111128,67202,108373,12.774,2622,262143,76524.8
72052.2,52347,90206,64341.7,47904,88023.9,126352,88683,93373.4,81877.9,64070,83751.4,12.895,2647,126352,65199.4
78733.8,59951,86068.6,49346.4,32232,100334,74253.8,48953,99407.5,85266.8,64919,86077.2,12.927,2658,74253.8,75465.3
90427.5,60238,98380.7,69487.5,42303,107650,128718,80342,104997,89799.6,72991,80627.8,12.938,2660,128718,72808.8
87552,58261,98484.5,108566,70136,101445,168350,104335,105746,83177.6,65647,83037,13.024,2683,168350,60955.4
84059.1,59952,91888.5,71183.3,44264,105392,132520,87145,99659.4,98666.4,78628,82237.9,13.063,2691,132520,81173.8
86791.5,63253,89924.1,46891.6,32959,93239.8,109962,78058,92321.6,79901.4,65893,79468.5,13.458,2790,109962,65386.4
82187.1,56885,94686,48866.8,35609,89936.2,140740,95625,96455.5,108519,76594,92851.7,13.71,2843,140740,89941
100238,69880,94007.2,84824.8,58273,95397.1,143306,90372,103923,110638,77702,93315.5,14,2903,143306,91722
51030,30925,108142,45778.3,22614,132667,67068.9,35096,125240,70058.8,51872,88513.5,14.073,2927,67068.9,61205.7
75325.5,49544,99639.4,123699,69838,116079,224363,131536,111786,110923,80056,90804.9,14.301,2973,224363,81307.5
68032.8,51327,86866.5,30669,21163,94973.4,65633,54025,79617.3,89536.9,76793,76411.7,14.456,3011,65633,80873.3
94331.7,67498,91589.7,65633,41351,104020,144809,81657,116220,98584.4,73298,88144.6,14.753,3077,144809,79469.6
67885.2,49626,89649.1,46655.3,30155,101396,72926.4,55148,86663.2,81695.9,69332,77222.9,14.76,3080,72926.4,72069.6
63356.4,48770,85136.9,61036.3,45540,87836.5,129320,88488,95777,78940.9,60312,85778.5,14.878,3105,129320,61870.6
73124.1,53281,89943.2,48195.5,35487,89005.5,72808.2,41975,113676,94150.3,78266,78836.7,15.093,3155,72808.2,84539.6
81919.8,53854,99689.8,113039,67540,109685,204134,121842,109799,98382.8,71611,90036.7,15.139,3160,204134,71437.1
88365.6,60177,96234.9,97654.4,69315,92330.4,128902,79706,105986,104032,76708,88880.2,15.144,3162,128902,87016.8
77347.8,51147,99107.8,103670,76502,88810,141538,93061,99674.9,111015,70137,103733,15.152,3166,141538,92332.1
97365.6,48236,132286,125278,34941,234974,137855,52399,172416,93117.5,61885,98611.1,15.185,3176,137855,74920.7
47862,38351,81788.9,32474.6,19639,108369,50447.3,40912,80810.3,73478.2,55872,86187.5,15.257,3200,50447.3,66819.1
89001,57106,102139,94831.4,58942,105440,188412,113168,109110,101039,73764,89768.7,15.485,3252,188412,76168.8
79911,51218,102250,129530,72483,117115,262143,157021,109411,119479,85698,91369.3,15.568,3267,262143,84876
148058,85179,113915,143651,77954,120767,220546,110796,130453,118313,79176,97930.4,15.6,3273,220546,89200.6
70191,55868,82337.6,38177.7,27441,91178,75068.3,51643,95263.2,95021.8,75807,82147.4,15.687,3298,75068.3,85112.8
96150.6,67284,93652.6,70448,48641,94917.4,114795,81177,92676.2,98762.3,77615,83392.2,15.705,3303,114795,83609.4
75244.5,34096,144628,87842.4,23283,247255,121107,35914,220996,79028.4,52986,97746.7,15.782,3321,121107,63042.4
83002.5,60038,90603.5,100958,68693,96318.6,183010,127399,94143.2,114724,82132,91542,15.823,3328,183010,90566.3
91781.1,65236,92203.2,83297.1,55933,97598.2,121464,75026,106100,80547.7,58180,90731.8,16.148,3409,121464,64514.5
138611,84273,107792,133733,68026,128838,245581,129073,124692,121009,79778,99406.6,16.192,3427,245581,88592.5
94762.8,59698,104030,81573.5,43772,122133,112119,65347,112443,102981,72737,92785.8,16.207,3429,112119,88181.2
71625.6,53387,87925.1,93421.9,48358,126608,89666.1,50529,116297,74454,56925,85716.5,16.218,3432,89666.1,62618
89938.8,64265,91717.6,84735.8,54525,101848,101293,61395,108126,99697.8,69067,94600.8,16.295,3448,101293,86327
103728,66096,102849,191725,117547,106893,180942,95025,124790,113944,72968,102338,16.447,3481,180942,90059.5
103542,65955,102885,104294,48219,141750,128879,58766,143727,77916.4,53809,94897.4,16.592,3510,128879,60904.4
55484.1,45497,79921.9,31995,25566,82016.2,59575.4,39816,98059.4,70696.8,60831,76164.9,16.677,3531,59575.4,62832.8
56128.5,45119,81527.5,31397.3,20561,100076,57758.7,37903,99867.4,73608.8,60092,80277.4,16.922,3586,57758.7,65984.7
96543.9,63648,99407.7,139022,93137,97823.2,203208,119443,111496,92447.5,64187,94390.5,17.087,3621,203208,65624
72872.1,53813,88747.1,52283.5,36617,93575.4,76673.8,50206,100086,75329.7,54339,90852,17.17,3638,76673.8,65208.7
100310,58483,112408,118278,60585,127944,232553,117344,129879,119711,89594,87565.9,17.457,3702,232553,89014
83124,54368,100199,99860.4,64183,101965,243677,149670,106699,120488,80969,97522.5,17.523,3712,243677,88322.6
53963.1,44000,80375.6,40018.1,27927,93910.1,67976.6,49343,90284.6,75439.5,60557,81642.1,17.636,3741,67976.6,66466.6
60777,49261,80856.7,34067.5,24282,91946.6,65113.2,49214,86708.2,83821.2,70605,77803.3,17.659,3748,65113.2,75226.2
62156.7,44486,91568.2,35072.5,21482,106997,62586.1,34018,120573,75197.6,61780,79769.3,17.673,3757,62586.1,66936.2
72804.6,50531,94423.7,69698.8,50018,91322.7,147120,107309,89849.7,105462,78708,87812.7,17.759,3767,147120,86042.2
62761.5,44513,92403.1,69620.9,53331,85553.9,130003,93583,91040.5,92440.6,71195,85092.8,17.894,3798,130003,75280.2
72164.7,51100,92551.6,87597.8,44944,127732,96735.7,51279,123631,99066.7,80942,80210.9,17.946,3810,96735.7,86297.6
67212.9,54879,80265,36404.1,29424,81082.8,58352.2,51468,74301.9,79923.6,66591,78657.4,17.965,3815,58352.2,72221.1
121861,58163,137309,165962,52206,208338,171594,65742,171056,114668,79565,94449.6,18.07,3833,171594,92017.6
84562.2,59462,93200.2,115941,62680,121224,117373,67973,113165,108873,78895,90438.1,18.212,3865,117373,93379.9
63985.5,45691,91776.4,45906.1,33953,88607.9,121383,84642,93983.7,94906.4,76202,81622.4,18.221,3866,121383,78883.8
76547.7,56734,88423.7,56848.2,40225,92619.1,71236.1,52858,88322.1,87998.1,65721,87750.4,18.263,3872,71236.1,78595
106202,62903,110647,96204.7,52733,119562,154850,87217,116356,103099,77153,87575.4,18.449,3921,154850,82658.9
58055.4,46756,81373.9,31320.9,21719,94509.2,46762.4,38389,79830.7,67512.3,55664,79485.6,18.69,3965,46762.4,61339.7
82213.2,54132,99533.1,32812.3,17254,124631,75784.2,48257,102920,82509,69684,77597.6,19.01,4035,75784.2,72505.5
88676.1,54960,105740,158242,86571,119792,262143,172651,99506,124537,91180,89511.5,19.042,4042,262143,89934.2
75008.7,53810,91354.2,61855,44237,91636.6,143570,103091,91269.1,87679.8,70596,81395.3,19.306,4110,143570,68728.5
79218.9,54697,94917.3,83227.6,57264,95250.2,129837,83320,102124,108167,79235,89465.9,19.322,4117,129837,91028.5
130193,70267,121427,124274,57734,141068,254591,113209,147381,124832,85627,95542,19.34,4122,254591,91225.7
138218,75717,119633,222828,112113,130255,262143,120365,142731,123203,79661,101357,19.501,4162,262143,88599.8
98587.8,62012,104190,99775.6,46920,139363,118735,60157,129352,88119,58524,98676.9,19.522,4171,118735,72446
151822,71531,139098,80496.3,27848,189436,179165,63139,185967,115281,77484,97504.8,19.731,4217,179165,91631.2
84081.6,59490,92626.9,55836.3,38232,95712.7,130643,70322,121752,89750.9,70147,83851.3,19.955,4265,130643,72506
94191.3,67215,91838.4,86813.8,57909,98247.8,147895,88796,109154,85487.8,62301,89926.8,20.016,4276,147895,65965.7
67703.4,49536,89571.4,73489.3,43382,111018,87953.6,49682,116020,86691.5,66212,85806.4,20.216,4316,87953.6,75081.6
173690,67889,167670,122488,45432,176690,262143,129914,132240,127870,85638,97855,20.29,4328,262143,93267.4
99324.9,67543,96373.5,66875.7,39341,111404,140881,84839,108827,107134,84380,83208.7,20.354,4343,140881,88538
91260.9,65720,91005.4,66072.3,47447,91262.1,149910,103698,94741.5,112615,79963,92296.9,20.426,4360,149910,92826.9
73852.2,47850,101149,55089.9,25597,141047,75137.8,39783,123777,76454.2,58376,85831.5,20.466,4369,75137.8,66536
85808.7,57157,98387.9,82579.9,53165,101795,152269,98228,101591,103067,81268,83115.2,20.563,4391,152269,82967.6
100184,65330,100500,92707.4,59858,101501,134863,79413,111297,86961.2,62260,91536.9,20.606,4404,134863,69159.2
111677,42124,173746,129648,42264,201037,215695,55923,252772,104282,75930,90006.9,20.715,4433,215695,75810.3
87688.8,60021,95746,78418.2,49104,104660,123766,67566,120047,103852,76445,89032.3,20.761,4444,123766,87515.4
101483,58533,113625,161884,86775,122261,262143,150063,114484,120770,81793,96766.1,20.808,4453,262143,86167.3
48904.2,42339,75698.2,19881.2,17387,74937.2,36212.3,33812,70188.3,65792.9,55868,77178.4,20.819,4459,36212.3,61012.8
79098.3,42913,120798,81569.4,25590,208899,94629.8,38580,160748,93602.6,55140,111250,20.845,4464,94629.8,81111.5
92104.2,60393,99947.7,64183.2,41777,100685,104112,71842,94973.8,84335.5,65343,84584.6,21.068,4516,104112,70592.6
50976.9,44057,75829.5,25705.3,20493,82204.7,54079.3,42617,83162.7,80044.5,65928,79568.6,21.609,4648,54079.3,72906.1
102093,61729,108390,215191,100964,139681,183244,85059,141185,116870,72612,105481,21.645,4658,183244,92681.6
142238,61164,152405,123647,47883,169232,236438,97305,159243,106627,68905,101414,21.729,4676,236438,75417.1
63638.1,51711,80651.8,40393.4,31753,83369.2,66310,51762,83955.2,82681.4,69702,77739.6,21.784,4689,66310,73928.5
93635.1,68053,90171.9,125527,75467,109008,230694,137586,109886,117497,93143,82671.4,21.885,4705,230694,87045.1
93456.9,62823,97492.8,85939.5,52817,106635,188740,114333,108186,96757.9,68787,92185,21.982,4736,188740,71844.2
146928,68658,140247,60109.2,34394,114535,157260,79511,129620,114339,75721,98959.3,22.085,4764,157260,93580.2
95255.1,68050,91736,89958,61921,95209.8,106835,67560,103635,91598.2,65733,91323.7,22.405,4825,106835,77495.9
75519,57537,86017.9,49960.8,32590,100467,70789.9,50329,92179.2,102472,79777,84179.9,22.476,4841,70789.9,93127.9
70408.8,56122,82219.3,32817.9,25587,84056.5,70338.2,57127,80691.8,95960,80070,78541.7,22.769,4908,70338.2,86675.4
75492,43637,113377,135068,54530,162329,148431,54591,178190,85347.4,55818,100207,22.772,4909,148431,65754.5
110928,67619,107511,95779.3,53201,117986,178762,94463,124021,104201,74600,91540.8,22.979,4954,178762,80604.7
104240,65239,104714,88335.9,56938,101675,145366,83376,114262,82453.4,63658,84885.9,23.028,4965,145366,63265.1
88650,58947,98559.2,97383.4,62615,101926,178356,113425,103053,106183,76641,90797.9,23.137,4988,178356,82640.4
97403.4,66725,95667.7,128975,86377,97856.2,239351,145192,108037,124768,87231,93737.1,23.396,5062,239351,93173.5
57427.2,50008,75258.9,23421.5,20194,76010.3,46337,35541,85443.4,74146.8,64731,75068.9,23.5,5085,46337,68030.3
91917,57404,104938,109355,64948,110346,209815,114714,119867,99913.2,67510,96991.7,23.546,5100,209815,72217.6
95070.6,60730,102594,64559.9,36516,115867,128829,73596,114720,87710.4,73884,77800.2,23.548,5102,128829,70704.9
96273,69253,91105.8,145206,84491,112630,252620,141763,116784,126743,89367,92945.1,23.622,5120,252620,93397.1
96264,63700,99038.6,84275.7,49352,111912,145833,85909,111249,95196.9,63338,98500.5,23.816,5157,145833,75946.9
54625.5,43146,82972.6,37004.6,27330,88735.2,106070,72277,96176.8,78999.3,64259,80569.2,23.832,5161,106070,64998.1
84044.7,61872,89021.7,54355.9,38663,92136.4,120199,72437,108748,83202.6,61532,88616.8,23.906,5185,120199,67336.4
100099,69112,94919.6,89053.1,58432,99880,174704,106227,107782,100718,69263,95298.4,24.007,5207,174704,77657.1
65672.1,48521,88701.5,38287.6,25108,99936.8,61882.8,44372,91398.9,95466.6,72789,85953.9,24.071,5217,61882.8,87298.1
109658,63784,112670,82386.7,49672,108699,172425,107842,104784,109658,76677,93725.4,24.194,5244,172425,86898.4
99891.9,67272,97314.1,62110.8,40200,101256,122431,69713,115095,87155.8,63627,89770.7,24.249,5257,122431,70994.9
81068.4,60332,88061,56042,38116,96357.7,106189,71741,97004.6,75090.6,61034,80629.4,24.354,5286,106189,61073.6
59495.4,46783,83344.2,34344.1,25985,86618.3,52255.7,35499,96471.1,70602.3,60153,76920.4,24.393,5299,52255.7,63704.5
81169.2,56834,93597.2,95533.3,61212,102282,137802,88727,101784,102585,75405,89158.5,24.431,5309,137802,84394.9
85380.3,64039,87376.2,44196.4,27195,106507,88010.6,59259,97333.1,98135.4,76607,83953.2,24.49,5323,88010.6,86518
100518,64737,101759,60819.4,33296,119710,138904,82381,110501,99129.2,75670,85853.5,24.554,5348,138904,80793.9
88236,53483,108121,97194.4,60835,104705,100826,55005,120130,88437.4,65124,88996.8,24.692,5374,100826,75128.3
95307.3,68864,90701.4,99205.7,65724,98921.9,99521.2,62666,104079,75429.7,58027,85190.8,24.731,5383,99521.2,62292.9
49107.6,41666,77240.8,29618.1,23297,83317.7,47608.9,36390,85740.5,76348.5,65467,76429,25.008,5435,47608.9,70064.2
55297.8,45319,79966.4,39812.4,31584,82609.7,58837.3,50368,76555.8,85105.5,69019,80810.7,25.069,5447,58837.3,77339
70463.7,52756,87533.3,43012.2,33372,84467.4,82671.6,61729,87770.2,76957.4,58453,86282.6,25.3,5500,82671.6,66044.7
109460,74764,95949.4,66018,41449,104383,162023,101247,104875,112290,86586,84990.9,25.684,5580,162023,90902.8
126574,69943,118599,165044,85743,126148,170549,86119,129787,114968,72217,104332,25.762,5612,170549,92455.8
145440,66719,142861,104657,42498,161392,262143,94243,182293,124666,78053,104674,25.865,5635,262143,90063.4
64699.2,46893,90421.3,69682.1,46538,98128.1,164666,102544,105238,106327,89823,77577.3,25.914,5646,164666,84590.7
62604.9,48646,84341.5,45472.5,32717,91086.7,80510.2,61909,85227,102378,82248,81575.5,26.194,5707,80510.2,91750.3
104166,63260,107914,79843,43413,120530,127915,70005,119749,110520,86299,83929.8,26.202,5710,127915,93635.5
73806.3,51368,94163.1,54435.2,39272,90839.9,131044,86717,99035.7,100216,78468,83700,26.289,5726,131044,82918.5
89648.1,61087,96177.2,65991.6,40949,105615,108559,65285,108976,76027.4,60716,82063,26.348,5741,108559,61697.6
71361.9,45672,102399,95901.7,58213,107966,107251,60986,115253,92949.3,54056,112689,26.458,5767,107251,78792.2
55044,45826,78718.7,36808.6,29496,81783.6,52293.2,37858,90524.8,78069.4,65752,77812.9,26.574,5797,52293.2,71166.6
74153.7,40916,118774,60637.4,22156,179361,85119.4,36427,153139,81107.9,59896,88745.3,26.958,5876,85119.4,69872.1
73527.3,50498,95423.3,75762,53542,92733.5,171580,103294,108861,108086,77382,91540,27.028,5895,171580,85437.8
60528.6,42080,94268.1,66251.6,46030,94326.8,84545.4,52316,105910,75736.9,49868,99532.7,27.059,5901,84545.4,64576.9
105451,66950,103224,104814,64387,106685,202822,111721,118976,101502,77115,86261.2,27.147,5916,202822,74729.5
90911.7,65703,90680.6,56132.4,39407,93351.2,107984,69004,102557,78273.7,61377,83577.6,27.17,5918,107984,64019.9
98574.3,63929,101052,83375,52787,103512,143506,85155,110444,80521.3,63135,83583.5,27.192,5925,143506,61578.5
80659.8,54062,97778.9,66125.1,48293,89735,129098,86694,97590.9,104269,74856,91287.3,27.326,5953,129098,87228.6
94601.7,68750,90179.1,60540.1,44677,88805.3,137930,94640,95513.1,91585.7,68083,88159.5,27.376,5962,137930,73379
68742.9,50063,89989.3,44644,24182,120990,75193.4,51683,95348.1,96114.3,79256,79476,27.455,5979,75193.4,86188.8
112869,59593,124125,200829,100652,130762,206184,98901,136626,90277.7,57716,102510,27.684,6029,206184,63061.4
107080,55951,125424,111450,39549,184682,212238,77181,180215,96460.4,61934,102070,27.751,6046,212238,68445.1
63644.4,51429,81102.1,45911.7,37087,81130,73988.3,60269,80454.3,89794,70315,83691.1,27.754,6047,73988.3,80027.5
49410,42788,75678.6,23361.7,16495,92818.1,51798.3,45915,73933.5,75314.4,64812,76155.7,27.799,6061,51798.3,68477
72286.2,53221,89012.8,65759.5,44789,96220.4,119066,85068,91727.9,98934.6,81230,79820,28.051,6123,119066,83217.9
105177,58273,118286,73692.2,38408,125742,145742,66952,142659,91906.8,70786,85090.3,28.082,6128,145742,72668.9
91501.2,59498,100787,62751.6,33868,121427,90497.3,56057,105800,72855.5,52876,90299.1,28.121,6139,90497.3,60909.8
118677,64952,119744,97828.2,42810,149761,151930,67103,148382,98474.5,65550,98453.5,28.136,6143,151930,78419.8
75562.2,52911,93592,75784.2,51056,97277.4,152750,99376,100735,81960,61647,87130.4,28.147,6145,152750,61797
88696.8,58264,99767.1,133048,71368,122176,101054,53960,122734,77745.5,57178,89109.9,28.179,6152,101054,64406.3
79307.1,56257,92388,85529.5,55924,100230,167020,108997,100423,104584,79784,85906.8,28.299,6179,167020,82537
76149.9,54121,92211.1,61925.9,44358,91491.4,140013,89266,102793,82285.2,63063,85512,28.483,6217,140013,63803.5
83719.8,63062,87004.2,61311.5,44684,89922.8,125580,86720,94902.9,78191.7,62165,82431.8,28.603,6240,125580,61615.2
88595.1,66879,86816,55737.6,40319,90598,121052,77984,101730,93324.6,71469,85577.3,28.87,6297,121052,77345.7
81240.3,56646,93990.1,69589,45757,99669.6,141462,93234,99436.2,94476.9,72739,85121.3,28.874,6298,141462,75804
87160.5,60389,94589.3,58399.5,39128,97814,126943,87900,94645.6,99695,79281,82410.8,28.903,6306,126943,82938.5
48595.5,39957,79704.6,26164,18806,91177.4,53100.8,42253,82361.3,73312.8,62009,77482.7,28.935,6313,53100.8,66303.5
86456.7,56438,100394,92232.1,61876,97687.6,175200,109122,105221,112539,82185,89740.6,29.25,6399,175200,89412.2
97569,56622,112929,76206.8,40019,124798,167651,84129,130599,101628,70543,94415.1,29.376,6431,167651,79498.6
58953.6,47393,81522.2,41102.3,32733,82292.5,70727.4,58015,79896.4,86869.4,73662,77286.5,29.436,6441,70727.4,77533.4
115382,70845,106735,152917,88238,113574,220936,109037,132792,119202,77446,100871,29.46,6446,220936,90038.6
72831.6,54822,87065.3,50191.5,34297,95907.8,72366.2,46046,102997,84983.2,67748,82208.5,29.47,6448,72366.2,75430.9
52112.7,39879,85640.5,58008.9,35655,106624,57942.1,34110,111325,80271.1,57886,90879.4,29.487,6451,57942.1,72622.7
86319,59288,95415.6,93052.2,67050,90951,134895,85496,103403,103308,75018,90249.9,29.514,6459,134895,85501.4
83607.3,56183,97525.7,45719.9,30006,99856.6,87004.3,53457,106664,103010,81396,82938.6,29.64,6482,87004.3,91525.6
82053,58924,91260.4,45494.7,34443,86564.5,83350,56140,97300,98266,79728,80774.2,30.004,6570,83350,87263.9
59148,42523,91158.3,74918.2,52477,93561.8,125759,79465,103715,90996.4,73159,81514.7,30.057,6584,125759,74396.2
98432.1,60505,106617,104318,65161,104918,149845,101317,96925.8,110283,77013,93847.5,30.098,6595,149845,90503.1
85377.6,60375,92675.9,53102.2,34521,100811,148866,92077,105956,106382,82607,84398,30.118,6599,148866,86731.9
88345.8,58996,98139.4,75932.9,48699,102186,138383,99803,90869.6,90333.3,68400,86550.9,30.291,6649,138383,72066.8
93775.5,67641,90857.2,71913,48319,97537.1,132820,89668,97074.7,88939.1,68211,85451.3,30.41,6677,132820,71406.9
97608.6,61156,104599,140291,85442,107607,181615,98133,121287,98231.3,64529,99764.2,30.432,6679,181615,74258.2
61325.1,47421,84751.5,48007.8,33830,93001.5,57629.4,40030,94349.3,70346.5,54135,85161.7,30.476,6694,57629.4,62739.4
99009.9,67818,95678.3,65528.8,39721,108116,113710,76475,97445.2,96600.8,75083,84317.8,30.551,6705,113710,81591.1
77340.6,46231,109636,56365.9,32251,114539,85390.5,41057,136302,80376.8,53001,99386.2,30.608,6715,85390.5,69105.2
70760.7,54235,85505.2,37367.4,25807,94893.2,74114.8,48926,99276.2,96896.9,80677,78711.8,30.682,6737,74114.8,87113.7
124506,72769,112131,100151,44963,145975,146769,75862,126791,105664,74661,92749.5,30.816,6768,146769,86290.2
77051.7,51484,98082.1,43946.2,25810,111587,143670,88801,106030,100143,67702,96938.7,30.838,6772,143670,81178.1
82168.2,53397,100848,97291.7,46322,137647,109172,52030,137511,88291.4,59883,96626.2,30.891,6786,109172,73880.7
95534.1,63636,98386.5,89050.4,51782,112703,193958,104549,121581,113724,83703,89041.4,30.911,6794,193958,88121.8
66400.2,54216,80264.2,38747.6,26347,96381.6,60085.5,50222,78407.2,84021.3,73958,74453.4,30.945,6801,60085.5,76090
98681.4,65605,98577.6,140933,85551,107962,162780,101794,104799,107080,72450,96861.2,31.031,6824,162780,85593.1
62476.2,42905,95430.4,93150.9,57162,106797,214977,124498,113165,118103,86826,89143.6,31.097,6844,214977,89725.7
90198.9,54733,108002,130075,73723,115630,171277,98415,114056,98810.9,68430,94632.1,31.146,6856,171277,76202.3
131700,63237,136488,103712,38725,175516,213763,93582,149699,120904,69836,113459,31.244,6876,213763,92686.9
89917.2,61495,95825.9,114751,72564,103637,209502,114571,119838,119280,84445,92570.8,31.305,6892,209502,91625.8
80217,58119,90454.1,62013.5,47036,86404.3,104203,75731,90174.8,78861.6,58029,89063.7,31.39,6917,104203,65106.9
56716.2,43566,85317.8,66211.3,46624,93068.4,125042,91216,89838.7,92279.3,77174,78363.4,31.472,6936,125042,75773.8
82346.4,55645,96983.6,47323.9,30453,101843,102614,68012,98878.3,87248.9,66744,85669.8,31.571,6964,102614,73703.9
85550.4,53039,105708,125739,75926,108533,185604,102756,118375,117822,77523,99603.7,31.576,6967,185604,93322.2
101327,56610,117304,141567,68295,135848,207009,99769,135979,111246,75252,96882.6,32.026,7073,207009,83920.7
112488,72356,101886,101969,56655,117953,212335,121437,114591,115720,79627,95242.1,32.147,7095,212335,87692.1
57061.8,44077,84842.5,54832.7,39042,92042.4,80667.3,48815,108299,75060,64798,75914.9,32.323,7137,80667.3,64411.9
77098.5,58370,86563.8,41091.2,28001,96173.4,78743.5,51737,99745.5,100497,81923,80394.7,32.509,7180,78743.5,90102.9
115832,75204,100941,71347.3,40192,116337,127665,75470,110860,108948,78291,91198.6,32.737,7240,127665,92096.5
101930,60168,111023,105234,57969,118971,186010,105594,115445,87226.7,69957,81714.3,32.898,7270,186010,62673.4
82036.8,56597,94993.8,90243,62538,94569.1,139790,98842,92685.8,89367.3,70096,83553.6,33.205,7344,139790,70915
108522,64925,109543,73007,42091,113672,128932,63229,133636,84992.9,65212,85415.2,33.365,7398,128932,67973.9
122791,74749,107656,204611,104152,128748,262143,147589,116403,118386,74792,103735,33.369,7400,262143,83783.4
72659.7,56024,84996.2,22969.8,15437,97515.4,67730.5,50623,87683.2,97976.9,81181,79095.1,33.435,7414,67730.5,89036.5
76125.6,53808,92718,46712.3,27448,111532,75913.5,54028,92083.1,90329.1,71442,82861.8,33.535,7444,75913.5,80308.6
93838.5,54869,112082,166263,82347,132321,262143,164888,104191,124641,96518,84631.8,33.571,7458,262143,90038.4
60467.4,42054,94231,63000.4,52183,79121.4,145019,99967,95070.8,87939.7,59997,96058.5,33.833,7507,145019,68797.3
76990.5,54091,93280.8,57783.7,38698,97858.1,81137.1,56906,93441.8,89824.6,73336,80270.9,33.872,7518,81137.1,79114.5
84788.1,63850,87027,80932.8,54392,97514.5,133989,94914,92516.4,97445.9,75790,84262,34.176,7584,133989,79759.4
84699,58270,95260.6,50400,34592,95484.9,110012,75094,96009.2,79377.3,55468,93785.1,34.194,7586,110012,64855.8
120427,72547,108789,105394,56919,121350,203881,104915,127356,120352,87884,89747.5,34.312,7608,203881,93439.5
94881.6,64001,97157.2,74164.8,44860,108347,139341,86971,104998,89108.7,65934,88570.9,34.355,7620,139341,70715.8
144734,73615,128849,78140.2,31020,165087,150461,70685,139500,90586.3,65164,91103.4,34.459,7641,150461,70725.5
54254.7,40390,88032.6,38694.8,24978,101525,63556.4,37196,111981,72534.4,49452,96125.8,34.657,7679,63556.4,64144.9
119138,66518,117379,117886,60289,128146,211095,113789,121579,119052,83101,93888.1,34.791,7716,211095,91187.6
70209,51354,89598,52700.5,36715,94069.9,126553,87740,94526.4,94675.7,74487,83298.6,34.842,7730,126553,77970.7
83816.1,57206,96020.9,49955.2,30188,108449,83835.1,45274,121355,83672.4,49457,110875,34.953,7765,83835.1,72606.2
56066.4,35423,103728,55793.2,18565,196955,69709.9,37080,123207,73733.9,55846,86527.7,35.196,7810,69709.9,64532.2
126639,62570,132642,113024,46830,158170,221296,110109,131714,122649,91248,88089.1,35.324,7844,221296,93438.3
69692.4,56009,81546.9,27473.3,22516,79965.1,78097.1,55337,92491,96245,80937,77931.1,35.43,7866,78097.1,85936.2
103422,67134,100960,84024.1,48742,112975,131185,72456,118656,104404,77775,87974.8,35.477,7879,131185,87087.8
89824.5,63828,92228.2,54501.9,36503,97850.5,91888.7,66304,90824.4,99201.5,79512,81764.6,35.496,7881,91888.7,87072.2
131555,75631,113995,68628.5,30294,148466,169576,69648,159564,98104.8,61805,104027,35.528,7889,169576,75720.8
80217.9,56315,93352.8,94212.8,48387,127603,112469,62861,117255,76527.8,58253,86095.6,35.563,7897,112469,61681.9
82404,58682,92028.7,76689.1,53695,93600.8,132845,93483,93130.7,80182.1,65438,80302.2,35.642,7912,132845,62646.6
77249.7,57764,87643.5,45562.8,31847,93760.9,75721.6,56250,88222.1,101852,77775,85824.3,35.71,7928,75721.6,91857
105486,58207,118768,86612.3,23688,239624,107322,55082,127690,102241,80452,83285.6,35.787,7952,107322,88075
58325.4,47630,80252.2,31414,24592,83716.2,60679.1,53815,73895.1,76033,61653,80821.7,36.073,8008,60679.1,68023.4
127782,63448,131987,100608,44872,146939,185509,84645,143630,117590,84757,90923.1,36.089,8014,185509,93102.6
42412.5,35867,77495.9,20648.4,17028,79470.1,42425.6,31640,87876.2,66800.6,54801,79886.2,36.344,8078,42425.6,61200.4
70154.1,55483,82865.4,39287,28012,91914.5,59868.7,43377,90452.4,70810.8,57112,81255.3,36.345,8079,59868.7,62908.1
77854.5,52974,96316.5,72694.2,43424,109711,94556.1,63622,97400.8,85352.9,59932,93334,36.384,8086,94556.1,72871.5
72543.6,40030,118766,110183,60327,119696,104592,48153,142349,88640.3,56431,102942,36.426,8098,104592,74834.2
87555.6,52152,110025,67163.4,34679,126925,90427.8,49053,120814,85015.2,63086,88316.8,36.458,8105,90427.8,73078.7
119986,58424,134592,108546,59405,119749,188591,102387,120714,95801.6,75838,82787.7,36.927,8211,188591,70907.6
45694.8,35873,83479.3,21133.6,17591,78734,53028.5,31715,109578,73419.8,55549,86619.7,37.072,8250,53028.5,66420
51083.1,26901,124448,54759.1,21326,168278,75057.2,36095,136278,77377.1,43793,115794,37.078,8252,75057.2,67469.6
100552,61416,107297,95501.3,54620,114588,191621,103649,121160,106072,81136,85677.8,37.242,8299,191621,80778.3
168905,62698,176550,112159,49499,148497,262143,90948,188897,113926,87914,84926.6,37.379,8341,262143,79322.9
78750.9,50246,102715,78255.6,50892,100773,194346,116086,109717,116178,89565,85008.8,37.5,8362,194346,90524
58757.4,46421,82952.2,28745.2,18860,99885.8,53434.4,38570,90792.7,68470,57229,78408.7,37.512,8367,53434.4,61416.7
76599.9,58645,85600.7,38140.2,27485,90942.6,102835,76589,87994.3,89602.2,72464,81035.7,37.632,8391,102835,76028
55808.1,46132,79282.1,24155.4,13053,121279,51206.2,39581,84784.4,92821.4,77086,78913.7,37.847,8455,51206.2,86062.2
92787.3,65676,92589.5,59432.2,41667,93478.1,143758,89417,105364,94004.3,67909,90719.4,37.897,8467,143758,75028.3
61096.5,42847,93449.3,77962.3,59492,85882.8,137674,87493,103124,86458,64727,87538.6,37.912,8476,137674,68285
129097,71339,118596,112008,46688,157225,151032,72730,136093,109066,75382,94820.7,37.97,8485,151032,89130.1
74813.4,49516,99017.9,83234.6,53666,101645,114701,64596,116371,107462,64679,108886,37.978,8487,114701,92321.7
73857.6,55164,87744.4,59632.4,43432,89981.3,74409.5,49008,99504.1,71197.2,59809,78014.7,38.001,8492,74409.5,61375.1
96349.5,64224,98317.8,75884.3,49837,99788.3,108851,71021,100444,107177,77884,90185.1,38.082,8510,108851,92809
87981.3,50349,114520,151858,85259,116728,235559,123150,125356,119814,77766,100971,38.177,8528,235559,88720
88136.1,62595,92277.1,56970.5,38191,97761.8,107468,73660,95615.2,77035.2,60099,84004.4,38.218,8536,107468,62849.4
93321.9,61934,98749.4,104661,60496,113381,225238,105185,140336,110618,73586,98516.5,38.286,8558,225238,80886.1
91100.7,65758,90793.1,56276.9,41287,89329.9,118005,73404,105357,81786.2,60859,88071.5,38.399,8582,118005,66209.5
101330,65793,100934,115209,67762,111424,151620,89861,110577,113216,76146,97440.3,38.434,8591,151620,93201.7
47054.7,37460,82321.9,26875.7,18250,96510.8,65706.7,44287,97232.9,97971.4,71892,89309.7,38.495,8615,65706.7,89298.1
76760.1,50519,99577.4,110916,66938,108593,227519,126616,117763,120268,93458,84336.4,38.552,8629,227519,90235.8
74297.7,58041,83892,64835.2,42509,99956.2,79474.6,47592,109440,83358.3,66160,82572.1,38.793,8684,79474.6,72867.6
87751.8,56425,101921,114272,67006,111765,244326,131167,122074,115898,79232,95864.1,38.918,8714,244326,83647.2
105820,73822,93942.6,142774,79910,117092,222937,121223,120525,119597,85869,91277.5,39.238,8792,222937,90169.4
77708.7,55109,92411.7,76308.2,49726,100570,81199.6,57879,91941.8,84430,62529,88490.2,39.309,8808,81199.6,73711.6
99085.5,64712,100347,95632,59909,104614,145412,95964,99305.2,82254.6,61835,87177.8,39.384,8827,145412,63060.2
121572,72845,109374,152591,82019,121926,183644,100393,119882,117718,71364,108104,39.446,8845,183644,93476.7
67590,37956,116703,44967.9,15104,195115,73347.5,29139,164965,79382.9,49187,105769,39.487,8857,73347.5,69701
81295.2,59987,88815.3,44033.8,31468,91705.9,106186,71843,96864.3,91609.3,72133,83231.1,39.513,8865,106186,77592.8
60174.9,42487,92819.5,78882.5,53630,96394.6,149818,95368,102954,89167.1,71594,81622.1,39.922,8978,149818,69391.1
101818,64424,103575,125047,65022,126036,258680,116666,145311,121914,82876,96406.2,40.089,9013,258680,87768.3
81500.4,58614,91125.2,46210.6,30605,98952.9,99857.6,72374,90422.9,82306.1,65283,82625,40.489,9100,99857.6,69124.9
112162,51541,142617,75732.8,33438,148431,139949,43600,210361,90629.4,52812,112465,40.569,9121,139949,72156.1
104973,69623,98811.2,144686,83999,112884,262143,144948,118524,124392,79738,102237,40.617,9130,262143,89789.6
50291.1,35862,91904.4,78557.2,60313,85360.2,114408,82632,90737.9,86995.9,63906,89214.9,40.68,9146,114408,71894.1
75809.7,56688,87642.3,55666.7,39967,91279.7,128925,82433,102498,93775,78986,77806.6,40.951,9222,128925,76756.8
61018.2,47495,84196,44852.5,34796,84476.8,69280.4,57700,78689.1,76156.7,66232,75356.4,40.959,9224,69280.4,67011.7
87579,60683,94583,58798.4,37699,102215,105103,68612,100391,87458.8,66773,85838.6,41.145,9275,105103,73585.1
79605,53522,97473.8,103921,62134,109610,164619,100072,107807,102903,77733,86756.7,41.152,9279,164619,81173.4
71165.7,56815,82089.5,48237.2,34873,90651,70694,59560,77787.1,76668.2,63742,78826,41.2,9291,70694,67336.6
102951,61909,108982,134958,71578,123566,128433,60852,138319,89160.2,60244,96992.2,41.393,9338,128433,72207
63398.7,43783,94897.5,58947.1,41040,94131.5,99574,57361,113765,76021.9,46914,106198,41.487,9364,99574,62878.1
72252,51529,91892.1,38655.9,26697,94892.8,72898.5,51346,93044.8,103323,87436,77443.7,41.528,9372,72898.5,93700.3
76990.5,51654,97681.7,49931.6,32705,100056,75998.2,48754,102158,89314.4,73855,79254.1,41.579,9386,75998.2,79282.7
44786.7,34986,83894.7,32261.9,21223,99623.8,60312.1,38295,103215,80841,58186,91052.8,42.016,9483,60312.1,72879.8
100023,66493,98583.7,59814.5,39487,99273.2,140209,92448,99393.8,103466,81833,82860.8,42.233,9538,140209,84958.4
100919,58380,113289,81725,40547,132092,131693,66139,130492,96901.1,60419,105108,42.246,9544,131693,79517.6
75758.4,54140,91704.9,56581.3,36481,101645,75406.1,45234,109250,91947.1,62830,95907.1,42.262,9551,75406.1,81993.5
80275.5,58783,89497.6,55790.4,37193,98305.6,118432,70847,109554,82660.5,49480,109483,42.3,9566,118432,67027.5
116422,56664,134651,86038.2,44822,125800,127569,52516,159196,83062.2,61345,88736.9,42.403,9592,127569,66223.2
108795,60100,118635,132783,59317,146704,200366,88400,148543,110388,73185,98850.9,42.413,9596,200366,83940
72108.9,51166,92360.7,86255.1,56286,100430,142335,88026,105969,86402.4,66791,84778.9,42.496,9616,142335,67614.2
132684,73169,118843,130199,57695,147893,160179,89901,116768,101603,74136,89817.1,42.63,9644,160179,80459.8
97174.8,66517,95741.7,73226.6,45976,104380,102693,57175,117711,89592.4,67790,86613.5,42.668,9655,102693,76036.9
113909,48590,153636,207148,55074,246498,180907,63296,187309,117087,74445,103075,42.682,9659,180907,93206.9
88905.6,61833,94229.9,59354.4,41506,93717.8,133541,87198,100367,89039.2,69770,83635.9,42.714,9669,133541,71411.8
79281,52684,98621.2,73311.4,46581,103144,150242,99226,99230.8,108666,83867,84914.6,42.77,9685,150242,88834
54679.5,42133,85051.5,32129.8,23799,88476.9,66262.7,48527,89488.1,78375.1,64493,79642.7,43.09,9757,66262.7,69628.5
119263,70956,110153,210724,113096,122109,253932,117847,141214,117199,69233,110941,43.106,9763,253932,83680.2
84147.3,60466,91202.9,50565.4,37668,87975.3,126468,86782,95505.9,95415.2,69327,90197.6,43.482,9860,126468,78721.4
107943,66356,106609,80354.5,44581,118125,151773,86957,114385,86280.1,67501,83768.4,43.811,9946,151773,66246.1
61955.1,49110,82677.4,44538.4,35353,82563.5,60770.8,43578,91391.9,86256.4,65382,86459.6,43.896,9967,60770.8,78234.7
124862,78743,103919,57155.4,31246,119879,146624,66986,143450,91607.9,70616,85017.8,43.911,9972,146624,72253.6
75639.6,56271,88093.6,74340,49767,97895.1,87835.5,55064,104540,105363,82026,84181.8,44.206,10042,87835.5,93769.1
159482,72443,144276,134599,49817,177070,247612,101433,159982,125826,75243,109593,44.288,10071,247612,93140.8
95950.8,66794,94143.7,65327.2,44065,97158.4,125928,91858,89843.5,95330.4,68732,90897.6,44.517,10131,125928,78707.8
96909.3,68841,92256.8,71140.2,48406,96315.4,146092,88836,107775,111710,80253,91224.4,44.618,10159,146092,92426
76203.9,57339,87097.8,48494.3,34745,91470,78512.8,55069,93435.7,98815.1,77045,84054.1,44.661,10169,78512.8,88451.4
65691,51695,83279.3,42764.7,32901,85183.7,90536.3,64304,92270.8,89217.1,71892,81329.4,44.754,10196,90536.3,77266.4
89537.4,63940,91772.3,100537,67354,97823.6,142308,83928,111123,102850,71576,94171.2,44.942,10237,142308,84065.6
90931.5,54417,109511,102757,60545,111228,206724,114392,118433,94425.5,72918,84866.1,44.971,10239,206724,67138
75600,55461,89333.4,66542.1,45404,96046.6,93836.1,62514,98372.3,103533,77629,87404.5,45.067,10257,93836.1,91146.4
76613.4,53073,94604.3,61964.8,43656,93021,173033,103559,109502,113962,87916,84951.6,45.134,10272,173033,91121.6
87527.7,56763,101056,121002,74608,106289,221680,134741,107822,101902,73415,90966,45.185,10289,221680,72640.5
77886.9,56118,90958.3,81430.4,59442,89778.6,143370,93967,99991.6,88196.9,64303,89888.1,45.355,10324,143370,69272
83762.1,57787,94994.3,67177.3,46876,93918.7,137766,86075,104892,82842.6,62328,87106.5,45.485,10367,137766,64657.5
52300.8,44070,77775.9,22251.1,18311,79637.9,41591.6,38309,71151.6,67314.9,59827,73738.5,45.57,10391,41591.6,61824.8
81648.9,58365,91680.7,59528.1,38380,101648,76661.3,53618,93701.3,90949.1,68329,87231.5,45.6,10397,76661.3,80829.8
56221.2,45608,80786.5,26019.4,20208,84382.8,57212.4,42322,88593.9,71234.7,60867,76699,45.615,10405,57212.4,63682.7
84586.5,59588,93029.8,71262.5,45788,101997,173715,115207,98818.7,105587,82228,84153.3,45.662,10422,173715,82656.8
83620.8,50573,108362,128496,70775,118984,237760,134845,115553,123026,89895,89689.5,45.805,10455,237760,91641.9
72657,49322,96542.1,61507.5,44545,90491.8,124584,72918,111972,81652.8,47913,111686,46.175,10542,124584,65207.6
90894.6,65798,90532.7,52995.1,38731,89672.1,109975,66924,107695,76227.6,57356,87099,46.252,10564,109975,61710.8
45534.6,27804,107328,67576.2,29704,149094,72690,42873,111115,78977,57688,89721.2,46.391,10598,72690,69381.9
77985,50779,100648,78444.6,51246,100319,195334,126538,101166,118949,87901,88684.5,46.713,10681,195334,93165.2
117721,65253,118231,72032.6,38655,122125,153961,80070,126014,109243,82469,86812.5,46.726,10687,153961,88920.1
90973.8,59810,99683.3,127124,80363,103669,213309,127636,109526,108848,74970,95151,46.831,10719,213309,80691.3
73709.1,51793,93267.4,102538,65907,101960,182324,111042,107606,114731,80169,93789.2,46.926,10747,182324,90663.9
109425,66168,108380,126643,71999,115275,113210,64620,114815,82424.2,49886,108282,47.005,10763,113210,67480.5
45591.3,39396,75842,19490.6,16713,76427.6,42499.2,29865,93260.7,68123.9,59390,75173.7,47.014,10766,42499.2,62514
107454,58023,121367,219962,121495,118650,262143,141624,121306,117231,74544,103065,47.089,10778,262143,82628.3
75933,51855,95966.5,132320,81112,106910,262143,161824,106164,95885,63897,98344.5,47.419,10851,262143,61282.1
102087,57380,116598,76145.6,24982,199755,119350,51614,151542,87059.9,65784,86731.7,47.614,10914,119350,71305.7
63604.8,49471,84259.6,37749.6,27994,88374.6,61490.8,48850,82494.6,89514.6,72335,81100.8,47.708,10934,61490.8,81397.8
141686,54464,170489,152701,44898,222893,166240,51836,210176,91217.4,67941,87988.4,47.807,10959,166240,69273.7
92304.9,64174,94263.9,72263.3,47923,98822,129624,91103,93246.8,93136.9,70708,86324.4,47.973,10999,129624,76026.5
103582,63109,107565,103611,58695,115687,219386,125352,114699,120478,84089,93896.5,48.03,11015,219386,91519.2
70575.3,48513,95339.9,73196,49214,97471.7,98302.2,57238,112553,101787,72507,92000.9,48.17,11046,98302.2,88811
68119.2,48456,92130.2,55290,34779,104186,64024.8,41821,100331,73779.8,55433,87226.6,48.259,11078,64024.8,65328.5
77661.9,47406,107363,142739,72894,128331,260839,137440,124377,127484,89110,93758.1,48.27,11083,260839,93053.1
79893,55433,94454,106460,68957,101179,179865,108004,109140,88662.5,69609,83474.7,48.372,11116,179865,64920.4
92584.8,62185,97574,67638.8,46445,95441.4,120014,81596,96392.4,77379.9,59270,85560.5,48.398,11130,120014,61538.1
72301.5,46532,101830,31881,16929,123419,70663.4,42195,109752,95443,79410,78767.8,48.562,11173,70663.4,86115.4
124875,72425,112997,106902,53256,131552,242561,98719,161027,123504,77866,103948,48.629,11185,242561,91486.3
83020.5,59086,92083.3,67388.6,45662,96718.9,139799,91457,100177,95732.1,69592,90152.6,48.674,11195,139799,77278.6
92343.6,68744,88034.3,115294,74810,101001,241037,146471,107848,124120,96232,84528.3,48.713,11210,241037,92303.1
62806.5,49759,82720.4,52284.8,40019,85622.8,96022.6,70434,89345.1,92326.6,72449,83516.9,48.733,11217,96022.6,79651.6
58487.4,45086,85016,71537.7,55685,84193.2,133145,95505,91365,97491.8,69701,91666.2,49.079,11302,133145,79916.6
84114.9,58390,94409.2,126829,91919,90426.1,151766,94428,105330,83166.5,63323,86073,49.111,11315,151766,63133.4
124319,68230,119410,106518,60979,114479,217446,110471,128998,97790.7,65772,97439.8,49.2,11333,217446,69087.8
93516.3,64666,94774.4,55583.3,38436,94773.4,114742,81906,91809.1,94657.6,66596,93151,49.476,11410,114742,79511.7
63578.7,53249,78249.2,36996.2,29883,81136,59462.8,50545,77098.7,75012.7,62357,78836.9,49.536,11434,59462.8,67163.6
73235.7,58024,82717.1,97749,66808,95887.9,158492,96307,107852,101318,69629,95362.7,49.724,11480,158492,80397.6
74343.6,46760,104196,70089.4,31183,147304,81130.1,37623,141322,83573.8,59766,91642.2,49.758,11488,81130.1,72864.6
91329.3,58928,101571,87080.7,54015,105654,125976,76099,108490,81697.2,57912,92452.5,49.896,11518,125976,65068.5
95805,64011,98087.5,81663.9,53102,100786,159692,91783,114025,106695,83579,83661.7,49.899,11521,159692,85615.7
84568.5,59540,93085,63126.8,43411,95300.3,115512,74965,100983,85279.3,63529,87973.4,50.365,11641,115512,70031.7
74842.2,56308,87107.7,39238.3,27866,92281.7,64369.5,47803,88248,80478.2,63040,83664.7,50.374,11646,64369.5,71981.4
67326.3,51218,86147.4,44837.2,31776,92474,97797.6,66792,95958.6,75276.8,61470,80256.1,50.46,11663,97797.6,62367.6
84092.4,59683,92339.2,60610.9,40208,98791.3,85932.6,54611,103124,81467.9,60228,88647.8,50.631,11712,85932.6,70124.8
115904,67133,113147,172453,82442,137089,262143,120942,142050,113541,77024,96606.4,50.706,11727,262143,78937.9
84295.8,56704,97425.4,74677.8,48214,101507,182492,107884,110858,115109,82673,91248.2,50.72,11734,182492,91019.8
77270.4,59154,85606.9,64019.2,45068,93094.1,121065,78912,100544,100960,79286,83451.1,50.97,11809,121065,84979.3
76315.5,57046,87673.3,60908.4,44210,90289.4,115209,76096,99221,77777.4,63284,80545.2,51.113,11839,115209,62569.9
74051.1,58377,83132.3,37069.9,28191,86176.9,75705,56188,88300,85667.1,69538,80736.8,51.151,11845,75705,75674
66794.4,51856,84415.3,36126.1,23793,99506.6,54464.4,41053,86945.6,73483.7,61864,77845.4,51.16,11851,54464.4,66294.4
78131.7,51197,100014,58407.8,38766,98741.5,166532,99258,109954,107921,86364,81894.2,51.239,11884,166532,85938.8
58574.7,41241,93081,48770.9,32144,99435.4,142440,79992,116699,85993.7,53932,104496,51.887,12025,142440,67191.6
82959.3,60575,89753.5,55028.7,38396,93925.5,120214,79974,98511.5,86851.4,65538,86848.7,51.974,12043,120214,70983.1
63946.8,48528,86358.8,42269.9,27365,101232,71981.1,50534,93350.2,78579.5,62849,81939,52.052,12065,71981.1,69078
96223.5,69803,90341.4,75132.3,50604,97302,118595,79798,97398.8,88465.2,67396,86023.7,52.089,12077,118595,72810.6
85437.9,60531,92502.3,55408.2,36164,100410,111149,76977,94628.7,97584.9,71803,89067.7,52.095,12083,111149,82913.3
112356,66543,110656,112668,62279,118560,195737,111926,114610,118389,81918,94713.6,52.589,12230,195737,92551.8
77897.7,58321,87534.6,60762.5,43145,92296.4,74302.5,53317,91330.8,78719.9,63839,80812.4,52.698,12262,74302.5,68911.9
69210.9,54514,83204.4,39641.4,29422,88299.2,87884.1,62210,92582.8,102941,80139,84182.7,52.957,12327,87884.1,91339.9
91332.9,55339,108162,171847,79878,140992,149150,72145,135487,109763,68634,104808,53.045,12339,149150,90075
84230.1,54799,100734,85244.5,50923,109707,180158,115956,101822,102734,77954,86368.2,53.116,12353,180158,78952.7
45904.5,40576,74142.3,15511,13451,75572.8,44181.1,40338,71779.9,66843.7,56980,76880.8,53.233,12373,44181.1,61011.8
63357.3,42020,98814.5,140818,87151,105893,186293,110519,110469,90226.3,69342,85274,53.251,12380,186293,65635.6
79872.3,53522,97801.1,77049.1,52006,97094.4,130389,81315,105087,80885.5,58681,90334.4,53.268,12384,130389,63674.2
89759.7,61601,95493.4,78348.7,47724,107591,83423.6,50169,108977,73703.4,58589,82442.5,53.462,12428,83423.6,62691.4
72733.5,51079,93319.4,55102.4,35238,102480,74616.6,59441,82267.7,88823.8,66666,87318.2,53.629,12475,74616.6,78974.4
76265.1,42112,118686,83533.4,31720,172587,92380.8,44376,136431,77398,54796,92568,53.956,12537,92380.8,65203.7
93174.3,51329,118963,71109.6,34363,135618,170192,77906,143168,96005.9,67260,93545.1,54.157,12589,170192,73540.6
83912.4,62235,88363.2,64679.5,48510,87380.6,138444,93838,96688.6,98389.8,70754,91133.7,54.193,12599,138444,80115.1
70716.6,53192,87127.5,81263.6,60377,88207.3,129095,83503,101318,88992,70760,82422,54.337,12635,129095,71951.4
105012,22492,262143,209996,35247,262143,183926,40502,262143,87122.4,51097,111741,54.379,12638,183926,62844.2
88558.2,60662,95673.6,74365,49008,99444.7,128265,87596,95963,86085.5,64247,87812.6,54.39,12645,128265,69154.5
70200.9,55678,82630.2,54332.3,32302,110232,95522.2,64405,97199.6,97487.6,78260,81637.5,54.415,12652,95522.2,84878.7
57544.2,45393,83079.3,49735.6,36715,88777.7,57458.4,38505,97795,69270.6,48156,94271.1,54.754,12734,57458.4,61686.1
66770.1,50875,86011.7,33632.4,24258,90862.2,64149.9,43344,96994.5,82888.5,66877,81226.4,54.766,12740,64149.9,74420.7
100292,51336,128033,170340,65774,169724,140744,54150,170338,82685.5,58498,92633.6,54.946,12777,140744,64107.3
107688,63918,110414,122280,72758,110142,254626,127079,131313,124960,81497,100487,55.006,12790,254626,91349
54433.8,44063,80960.7,33408.6,25822,84790.8,63504.9,44831,92834.4,75283.8,64270,76766.7,55.356,12878,63504.9,66901.1
43930.8,38899,74013.4,12786.6,11235,74586.9,43395.8,39018,72889.1,66701.9,61254,71364.8,55.492,12917,43395.8,60973.7
41766.3,31996,85548.1,24497.4,14616,109843,50596,32798,101099,71482.1,51814,90412.9,55.493,12918,50596,64803.5
63781.2,36498,114526,80065.4,41133,127566,97230.5,50725,125620,78505.8,52259,98451.1,55.646,12958,97230.5,65671.4
89698.5,62098,94664.6,74198.2,44885,108336,133918,85509,102638,94488,77040,80378.6,55.894,13016,133918,76810.8
106048,69888,99444.2,170981,94883,118097,240289,134341,117221,120673,78796,100366,56.032,13048,240289,88954.7
73249.2,49477,97024.1,79323.1,56191,92515.2,150626,104492,94470.6,105690,81802,84674,56.116,13067,150626,85807.4
77749.2,58486,87121.2,42899.6,32710,85951.3,98202.1,68181,94392.5,80294.7,59820,87967.2,56.175,13079,98202.1,67332.1
77901.3,48291,105720,98678.9,61524,105114,237819,136374,114287,122349,84664,94707,56.383,13135,237819,90957
111883,64211,114191,218650,119086,120328,253205,132277,125449,125894,79765,103436,56.669,13212,253205,92470.6
80528.4,60092,87823.8,69005.2,45958,98401.2,122658,86813,92595.6,102590,78771,85353.2,56.767,13242,122658,86399.5
68209.2,50410,88676,33471.2,23334,94007.4,75057.2,58490,84099,97540.5,80003,79902.2,56.957,13294,75057.2,87632.9
120089,59307,132702,140846,64114,143970,262143,129534,132628,127943,81535,102837,56.981,13302,262143,93339.7
70500.6,56339,82009.4,49541,40461,80243.2,73956.3,59606,81314,95733.5,78184,80246.5,56.996,13307,73956.3,85971.2
100142,62607,104827,108014,60227,117536,262143,155212,110686,123217,84527,95533,57.194,13359,262143,88613.7
77595.3,51771,98226.5,67256.5,42799,102987,160870,101998,103363,110023,80033,90093.4,57.22,13368,160870,88787.8
78041.7,52537,97351.2,39259.2,27651,93048.6,118232,75820,102195,82707.8,66709,81253.5,57.25,13379,118232,67101.2
139729,66885,136910,92715.8,46475,130742,199202,85056,153486,101881,73165,91258.1,57.523,13447,199202,75586.7
57016.8,47037,79440.7,25570.4,20617,81281.7,47057.1,41965,73488.2,80298.9,66411,79240.9,57.987,13557,47057.1,74087.4
79094.7,57783,89707.2,63160.2,42543,97296.1,149724,98408,99710.4,103876,78656,86549.3,58.075,13576,149724,84112.5
78302.7,57756,88850.4,66911.8,47302,92705,79381.5,50381,103260,83040,62655,86858.3,58.078,13577,79381.5,72561.6
121223,71354,111339,171411,97844,114811,225850,126100,117378,116172,74435,102283,58.444,13670,225850,86359.8
56688.3,47632,77996.4,26735.3,20574,85162,50461.2,42894,77097.6,72163.2,63292,74721.8,58.492,13679,50461.2,65502.4
93387.6,62017,98686.6,95915.6,64894,96864.5,143638,82782,113714,83277.7,61321,89001.9,58.52,13683,143638,64317.4
65297.7,46304,92418.6,67976.6,47148,94487.8,147818,92119,105162,93869.5,75694,81272.4,58.629,13718,147818,74357.5
65993.4,49899,86674,44264.6,27976,103693,65435.6,50000,85767.8,92366.9,75335,80352.5,58.646,13727,65435.6,83729.4
74795.4,57118,85818.7,49990,37884,86478.2,97191.6,67707,94075.2,76956,62210,81070.3,58.671,13736,97191.6,64126.7
93424.5,55570,110179,59518.4,25819,151075,88704.2,48917,118841,104591,83090,82494.2,58.692,13740,88704.2,92881.6
101234,65805,100820,82693.9,46698,116053,145094,86059,110492,107742,81549,86585.5,58.872,13787,145094,88589.3
75563.1,52108,95035.4,72808.2,47626,100188,148199,93315,104082,101670,83071,80209.2,58.939,13806,148199,82107.9
99702.9,66389,98421.9,56349.2,33193,111255,124825,65841,124247,95715.4,68939,90990.7,59.107,13852,124825,79238.5
78388.2,58874,87258.4,51021.3,34604,96628.6,78389,51136,100464,88170.5,66219,87261.1,59.109,13855,78389,77823.1
53621.1,44671,78666.5,20181.4,17769,74433.5,47521.3,38353,81202.4,67700,57795,76767.6,59.125,13863,47521.3,61427.1
76745.7,53134,94658.9,72501,49999,95030.4,150616,103747,95142.9,113095,94703,78263.3,59.547,13972,150616,93213.2
101490,58411,113870,166818,89920,121581,152369,70170,142307,110127,64239,112350,59.624,13999,152369,90014.2
64953.9,44708,95213.8,87463,55361,103538,97123.5,52777,120603,96560.5,63967,98929,59.723,14030,97123.5,83740.2
112540,73996,99672.9,83967.1,52960,103906,173863,110409,103200,84083.9,60880,90514.5,59.735,14034,173863,61134
78895.8,52500,98486,68785.5,46747,96432.5,137190,80019,112360,98082.6,69624,92323.6,59.754,14045,137190,79973.5
81162.9,58049,91631.1,62562.5,41692,98342.5,132895,88077,98884.1,92385,59121,102409,59.908,14089,132895,74842.8
49350.6,40923,79032.3,25699.7,21375,78795.6,46510.8,34158,89236.2,69283.2,58007,78275.7,60.018,14116,46510.8,63143.7
84820.5,53159,104569,103936,72518,93929,183958,115204,104648,113831,77206,96625.2,60.045,14124,183958,89548.8
54683.1,36656,97766,81775.1,56574,94729.2,99925.7,51691,126690,84193.7,67944,81209.8,60.1,14136,99925.7,71003.5
101113,59474,111419,127292,78692,106011,248836,150542,108327,124896,93054,87961.4,60.288,14182,248836,92049.3
45286.2,37873,78363.9,16484,13598,79445.2,44260.4,32091,90388.2,68436.6,58976,76049,60.344,14194,44260.4,62594.3
81072.9,60321,88082,57968.6,39319,96620.7,140806,89203,103448,95102.4,73991,84235,60.55,14247,140806,76516.1
59390.1,47058,82710.5,36112.2,29307,80753.7,63402.1,50249,82690.6,85312.6,68656,81435.7,60.614,14273,63402.1,76943.6
110905,68866,105542,77279.8,31744,159545,165695,77191,140677,114076,73534,101668,60.708,14286,165695,92204.2
84122.1,56609,97387.8,66125.1,44834,96658.2,141933,87003,106913,97045.6,78391,81131.5,60.732,14291,141933,78310.5
129542,71386,118926,71744.9,33299,141202,139208,62914,145010,95965.6,71658,87766.9,60.743,14292,139208,77590.1
80550,54224,97354,85087.5,57574,96854.3,159265,103668,100683,104475,74136,92355.8,60.784,14301,159265,83452.2
153743,76049,132490,146746,53595,179442,262143,112912,152152,128176,86024,97648.9,60.82,14307,262143,93573.2
82257.3,55734,96724,68219.8,47956,93228.2,142354,95381,97811.1,107974,80177,88256.9,60.854,14317,142354,89183.1
116196,65837,115665,69340.1,35550,127828,162687,77317,137898,110020,79315,90906.7,60.856,14319,162687,88545.2
85669.2,60729,92450.3,65195.2,46528,91829.2,150242,103689,94959.7,95664,74107,84599.8,60.977,14345,150242,75832
99979.2,66458,98592.1,83244.3,53287,102380,175493,99572,115506,116114,84845,89688.5,61.107,14390,175493,92948.6
74086.2,50055,96999.6,63536.9,40585,102598,102066,48872,136868,101609,83057,80174.4,61.118,14395,102066,88136.2
87513.3,51203,112010,127681,73955,113146,262143,149947,114573,126312,94600,87505.2,61.488,14481,262143,91709.2
97393.5,61071,104514,110868,61574,118002,179282,83461,140778,93669.3,53532,114674,61.778,14560,179282,70004.1
60852.6,41424,96273.6,74544.3,49129,99438.9,160477,95875,109695,86476.1,67205,84328.5,61.821,14571,160477,65293.1
102198,60855,110059,56350.6,26781,137896,132724,66432,130934,97261.1,74484,85576.8,62.03,14619,132724,79741.5
48576.6,39225,81160.4,33019.4,25873,83637.9,52653.2,43142,79984.2,81302.5,61669,86400.6,62.068,14627,52653.2,74352.3
88066.8,65580,88007.7,57931,41964,90472,103893,82574,82455.9,91257.7,69048,86616,62.09,14636,103893,77543.8
85896,59126,95208.2,99765.9,60111,108770,149176,85138,114830,111884,86668,84603.6,62.105,14642,149176,92192.6
59864.4,43860,89449.9,53686,37082,94880.6,65592.7,46467,92510.5,71565.5,54861,85490.9,62.113,14645,65592.7,62907.3
63887.4,50748,82504.2,50028.9,37142,88274.5,86791.6,56038,101502,96951.1,79508,79913.8,62.239,14674,86791.6,85494.6
95598.9,63645,98439.3,69259.5,38624,117517,79861.1,45398,115286,83874,63888,86037.5,62.478,14730,79861.1,73332.3
42856.2,37985,73940.4,22680.6,18282,81303.9,55476.3,42550,85445.2,69500,59946,75980.9,62.722,14793,55476.3,62177.1
101143,56146,118058,103747,41569,163563,119693,55762,140673,105683,73652,94037.5,62.793,14816,119693,89883.6
66088.8,42047,103008,82254.6,53682,100418,262143,142442,120609,115649,68924,109965,62.969,14860,262143,81046.5
69561,52768,86392.3,34437.2,25626,88069.9,75086.4,59628,82526,97494.6,82103,77821.8,63.796,15048,75086.4,87583.2
122640,62142,129339,206188,81054,166713,262143,77326,222174,111906,67596,108496,64.158,15134,262143,77303.2
43734.6,30364,94394.4,12113.8,9973,79604.3,57003.9,32451,115122,68800.8,51480,87586.1,64.199,15145,57003.9,61276.3
117999,71788,107722,70851.1,43003,107976,144390,74872,126386,98965.2,67062,96713.3,64.333,15174,144390,79905.7
65385,51126,83813.9,43130.3,26986,104743,71143,57367,81273.7,93452.5,72540,84429.3,64.356,15180,71143,84061.6
71987.4,48159,97962.3,49887.1,23676,138089,74397,45176,107926,78478,61096,84181.2,64.366,15183,74397,68657.6
99423.9,66245,98359.8,64801.8,40814,104054,164693,97199,111043,92906.2,75262,80900.1,64.554,15227,164693,71166.8
111104,68990,105542,222570,119887,121667,262143,163341,105178,124220,76502,106414,64.568,15235,262143,89617.2
90041.4,61468,96000.4,103070,56927,118657,119198,74799,104437,96782.9,70878,89488.5,64.752,15291,119198,81048.8
93664.8,65255,94068.1,55659.8,36461,100044,127288,87426,95417.1,109414,90277,79428.3,64.785,15297,127288,92611.9
82746,50834,106677,72872.1,39826,119915,180076,96200,122676,98905.4,58701,110422,64.87,15321,180076,75135.4
128929,67659,124883,150689,72457,136295,198297,96316,134927,116891,81594,93886.1,64.924,15332,198297,90715.4
90138.6,53268,110898,146316,81091,118249,262143,145447,118117,125809,88332,93341.2,64.96,15339,262143,91206
112666,61267,120516,106423,52086,133904,202092,100270,132086,115273,83610,90354.2,64.997,15343,202092,88596.5
78813.9,54979,93947.6,56903.8,32854,113510,80653.4,52972,99782.9,97116.5,72152,88211.4,65.075,15356,80653.4,86470.3
79227.9,54875,94620.1,76001,53198,93627.6,128104,90839,92420.8,103950,80461,84667.8,65.077,15357,128104,87040.1
67141.8,49143,89538.8,36782.2,24937,96665.9,76747.5,56264,89395,91008.9,76464,78002.2,65.08,15359,76747.5,80878.2
82071,54381,98906,78052.7,51533,99261.8,186406,110562,110493,85594.8,66335,84563.8,65.175,15394,186406,60989.2
86457.6,59557,95137.2,48647.2,32766,97300.4,109515,73860,97173,106272,84266,82651,65.855,15556,109515,91816.4
66902.4,46592,94104.5,51464.8,36725,91839.2,85319.6,59479,94008,104771,82327,83402.6,65.864,15557,85319.6,93509.1
84245.4,61356,89984.8,82055.9,48370,111177,130157,77409,110193,89749.5,71399,82379.6,66.112,15622,130157,72568.8
100587,61538,107122,111613,65961,110894,214013,127255,110216,117843,83878,92073.6,66.112,15623,214013,89593.1
108821,62090,114860,63407.6,28110,147829,103805,54517,124786,85740.8,63643,88291,66.199,15646,103805,72038.5
77092.2,59644,84707.8,44022.7,33486,86157.5,58701.1,43032,89399.4,72513.5,59095,80417,66.366,15687,58701.1,64765
102831,63749,105714,156311,88437,115834,221515,118423,122587,105035,72811,94540.6,66.48,15716,221515,75795.4
117063,68943,111278,73664.4,36640,131760,140180,72993,125859,112112,82835,88698.8,66.527,15724,140180,93608.1
73660.5,54460,88641.5,69031.6,51205,88351.8,132791,88949,97837.9,88598.6,67434,86104.9,66.665,15758,132791,71070.2
67005.9,53452,82154.1,30662,23357,86032.7,63809.3,49394,84662.3,98951.3,83889,77303,66.693,15767,63809.3,90528.5
60156.9,41764,94398.1,79697,57310,91136.4,158618,98398,105645,107234,77567,90601.8,66.764,15780,158618,86296.7
43612.2,37392,76438,11891.5,9885,78838.5,35007.1,27364,83841.1,65826.2,57856,74564.2,66.835,15799,35007.1,61205.3
65482.2,52526,81701.3,33916,23935,92864.8,59303,46957,82766.8,85436.4,73867,75800.5,66.835,15800,59303,77608.4
87680.7,58923,97521.2,61021,34717,115191,88057.9,50881,113421,88912.7,62758,92848.5,66.953,15842,88057.9,77289.1
68160.6,49964,89403.8,91229.9,69763,85702.2,123824,86855,93430.8,100533,81524,80817.2,66.96,15845,123824,84188.4
65059.2,48297,88281.2,58125.6,37588,101344,85642.1,53717,104485,97184.6,68765,92621.1,66.997,15858,85642.1,85879.9
110452,49171,147213,142588,40658,229835,139712,51243,178681,82167.1,50520,106589,67.038,15869,139712,63725.1
84104.1,52205,105581,71685.1,43866,107098,142564,93228,100217,95423.5,76254,82011.1,67.216,15905,142564,76605.1
57667.5,47972,78781.3,42322.7,34268,80940.3,63361.8,47621,87198.4,70734.3,60968,76034.1,67.327,15942,63361.8,62370.6
80471.7,59112,89217,67455.3,48215,91688.3,126302,85729,96552.5,89099,73548,79392.9,67.416,15974,126302,72427.1
79776,57259,91307.9,83099.8,57013,95522.5,137254,91019,98826.5,94072.4,75038,82160.1,67.421,15976,137254,75954.9
68250.6,50881,87908.5,37315.9,27869,87751.2,112347,76043,96823.6,81424.8,64803,82345.8,67.485,15987,112347,66595
91826.1,60794,98988.6,53421.9,33852,103422,126291,71269,116132,96560.5,73091,86579.6,67.506,15990,126291,79890.1
65148.3,52755,80931.8,43484.8,31983,89104.1,66079.2,50846,85170.3,93410.8,80365,76174.6,67.53,15994,66079.2,84688.3
74143.8,57582,84385.5,40380.9,27548,96065.1,72054.8,55434,85185.7,92736.6,77931,77986.8,67.57,16004,72054.8,83225.4
136934,66334,135287,135424,71521,124091,262143,124302,138210,124815,74877,109244,67.652,16029,262143,90212.2
80960.4,56682,93606.8,42424.2,29523,94174.4,91231.3,56007,106753,102838,86547,77871.9,67.701,16041,91231.3,90795.2
57430.8,42742,88058.2,35545.1,21970,106030,78040.2,53537,95530.9,81174.6,68208,77994.6,67.82,16080,78040.2,70873.3
78940.8,56122,92182.5,75242.1,56589,87138.2,161066,108598,97199.2,113474,81422,91334.5,67.955,16127,161066,92213.3
83759.4,58940,93133,89049,57964,100682,185033,109862,110378,102816,78358,85991.4,68.077,16173,185033,78391.2
153869,88717,113665,68504.8,30562,146899,220555,91070,158717,122755,78715,102203,68.329,16229,220555,93641.8
99539.1,65962,98896.2,144522,79614,118967,180528,99691,118677,105009,72460,94974.7,68.444,16256,180528,81179.3
73648.8,57723,83617.4,44061.6,31744,90965.9,75014.1,60604,81118.8,86727.7,68634,82812.9,68.471,16260,75014.1,76825.8
98733.6,64211,100771,60034.1,40474,97207.9,114628,76473,98233.9,102868,76144,88537.2,68.604,16294,114628,87737.5
68918.4,42958,105141,162366,99167,107302,262143,139661,123011,127528,85617,97617.3,68.823,16356,262143,92925.5
82865.7,57893,93805.6,71518.3,46164,101530,108509,65703,108233,107571,83185,84747.9,68.973,16395,108509,93247.5
81995.4,57764,93027.7,67535.9,44229,100071,132150,77132,112283,79295.3,59717,87022.1,69.134,16433,132150,61851.5
71641.8,52116,90089.7,86902.8,61271,92952,126707,87356,95057.7,78454.4,59779,86009.9,69.414,16498,126707,61729.1
78746.4,47926,107681,73140.4,46668,102711,146174,79523,120464,81566.6,57488,92985.5,69.951,16625,146174,62271.6
90360.9,62567,94648.8,67376.1,46897,94154.4,145751,92458,103311,106760,78711,88890.3,69.963,16626,145751,87521.2
64539.9,48266,87632.8,52793.6,34691,99734.2,62707.1,49173,83573.7,84227,62207,88734.5,70,16636,62707.1,75949.7
59211.9,46658,83169.3,35230.9,27117,85145.7,68604.8,48218,93245,82097.6,66425,80998.8,70.042,16654,68604.8,73041.7
121274,62521,127122,121988,54652,146282,234272,107818,142400,118204,101026,76679.6,70.078,16664,234272,87280.3
86535.9,57386,98825.8,80828.5,45915,115369,148028,94742,102396,85515.6,65583,85454.3,70.102,16671,148028,65975.9
82722.6,54334,99777.5,67580.4,43027,102934,147247,91633,105311,91856.8,71558,84126.5,70.141,16681,147247,72420.2
74164.5,57077,85155.9,32286.9,18863,112175,72634.5,54619,87152.3,101759,74844,89103.8,70.331,16725,72634.5,92171.4
77680.8,59822,85100.6,57539.1,40226,93742.3,152226,100609,99158.8,111231,85301,85457.5,70.461,16758,152226,91136.8
97272.9,54587,116784,124811,54378,150421,122344,52020,154131,86402.4,58551,96710,70.916,16869,122344,70253
80571.6,58051,90960.4,65392.6,47946,89383.2,127912,81295,103116,96226.9,72489,86997,71.007,16893,127912,79342.5
183623,76819,156653,116810,37360,204905,227052,72912,204083,110850,75788,95854.9,71.168,16949,227052,80878.8
72114.3,49999,94523.5,81523.5,58475,91367.7,140967,88668,104191,79303.7,58183,89325.8,71.342,16998,140967,60696
67130.1,45612,96453.5,59404.4,43270,89972.9,148463,94197,103291,103719,80430,84512.4,71.635,17066,148463,84121.9
55269.9,47100,76903.8,21130.8,17440,79405.2,50252.7,41156,80021.3,74773.7,62924,77877.5,71.659,17069,50252.7,68140.3
52734.6,27254,126808,56692.5,17282,214987,84086.7,31555,174638,80613,47401,111455,71.768,17101,84086.7,69513.6
79873.2,50661,103325,115941,62912,120777,118692,64121,121311,91114.5,52334,114099,71.851,17123,118692,75447.1
71623.8,48692,96400.6,116988,74056,103529,149440,90641,108050,90340.3,64193,92230.3,72.001,17169,149440,70614.1
103633,64550,105216,85405.8,44505,125765,160968,81728,129077,101695,71342,93419,72.24,17226,160968,80447.5
76317.3,48406,103325,74986.3,51580,95275.4,154336,85773,117922,110056,75215,95893.5,72.285,17239,154336,89683.7
93801.6,56999,107851,74705.5,46298,105748,190640,108697,114941,93396.9,71900,85130.2,72.522,17315,190640,68232.4
110007,68458,105312,61283.7,32904,122061,131803,85625,100880,91512,72985,82172.1,72.569,17336,131803,74114.1
97655.4,60814,105238,64615.5,36198,116986,132434,77959,111330,96014.2,76304,82464.7,72.754,17370,132434,78533
80217,52473,100187,71956.1,50359,93642,139389,87716,104143,82542.4,61252,88315.4,72.838,17384,139389,64143
94143.6,65060,94832.4,71148.5,44629,104479,134067,82487,106516,95855.8,75020,83737.7,72.867,17394,134067,78159
67586.4,51196,86517.3,30154.7,17883,110508,64504.3,49201,85920.1,88155.2,75121,76907.1,72.922,17409,64504.3,79640.6
106762,66264,105589,67075.8,35732,123024,114038,54118,138099,79765.1,59562,87765.5,73.018,17444,114038,64712.1
74410.2,50739,96110.4,69875.3,50243,91144,119888,86485,90847.5,91749.7,68557,87706.7,73.059,17453,119888,75924.6
55405.8,29262,124088,66601.9,23964,182141,97183.2,47038,135401,80337.8,52060,101134,73.149,17479,97183.2,67509.6
88210.8,45861,126054,79681.8,19491,262143,115478,43585,173638,85924.2,56065,100439,73.152,17480,115478,70681.1
54142.2,43613,81357.9,31521,24014,86023.2,54508.8,42948,83177.1,77389.6,65388,77564.8,73.422,17559,54508.8,70194.5
135957,71715,124243,118214,52670,147091,195035,80942,157913,113678,77355,96309.6,73.462,17575,195035,87933.7
92812.5,58507,103963,119090,73993,105478,211596,116041,119502,120505,82119,96170.1,73.58,17608,211596,92574
77032.8,59303,85129.3,50206.8,34262,96035.1,81469.3,58203,91733.6,100288,80924,81218.3,73.652,17625,81469.3,89534.6
83497.5,55586,98443.7,78548.9,47808,107676,141962,84414,110214,88508.2,70250,82569.1,73.935,17681,141962,69769.2
86228.1,56711,99646.4,77103.3,50307,100444,150238,97320,101171,108963,82968,86069.7,73.936,17682,150238,89132.1
85628.7,57483,97624.7,63388.2,41948,99032.3,87289.2,58790,97305.4,102154,73372,91244,74.113,17730,87289.2,90631.7
85369.5,59118,94637.4,61135,38813,103227,153797,107577,93693,100291,81121,81023.3,74.322,17796,153797,79990.1
111311,71791,101613,59315.5,33281,116802,145796,90803,105226,112087,87075,84360.9,74.325,17797,145796,92841.8
62473.5,42270,96859.8,36765.5,14563,165451,52603.2,34229,100716,68659,54556,82477.4,74.429,17821,52603.2,61715.4
123161,66682,121045,181416,82273,144510,165108,78968,137024,112951,67877,109056,74.535,17849,165108,91157.1
69782.4,53628,85277.4,41996.1,30704,89638.3,73521.3,54008,89214.4,93517.8,73963,82862.8,74.716,17889,73521.3,83813
113170,63761,116321,213687,104185,134417,216158,92278,153515,119229,73675,106057,74.753,17900,216158,90695.9
75857.4,56755,87593.9,52080.5,34835,97980.5,92692.1,66082,91926.3,78238.9,63225,81098.7,74.793,17908,92692.1,66003.6
77288.4,55212,91740.4,75039.1,53999,91071.4,149889,95141,103248,87508.8,66921,85697.7,74.839,17918,149889,67723.5
106389,66470,104894,110697,63640,113995,106913,62035,112947,97044.2,67618,94056.2,74.883,17929,106913,82931.7
127696,57157,146416,78319.5,30515,168204,173188,65490,173310,113234,73208,101367,74.91,17938,173188,90372.7
86146.2,63712,88612.5,66935.5,45326,96780.7,119856,85189,92205,78706,61453,83935.3,74.931,17943,119856,62885
76381.2,55271,90566.8,74066.1,56620,85729.4,116938,81944,93522.9,97511.3,75705,84413.2,74.983,17955,116938,82075.5
107740,67362,104819,108198,61108,116038,169399,88359,125644,112363,78781,93472.4,75.157,18004,169399,90002.7
122990,74292,108495,149809,86838,113059,177682,86259,134996,88112.1,64446,89602.4,75.17,18007,177682,64658
93459.6,64875,94411.8,77103.3,48837,103467,137436,80424,111994,91999.9,68886,87525.9,75.61,18109,137436,73858.3
86222.7,54130,104391,104076,60434,112863,178373,101425,115256,112750,85956,85964.6,75.653,18122,178373,89204.6
74669.4,56460,86672.6,59569.8,39393,99103.1,83594.6,58220,94099.2,102073,76840,87057.2,75.767,18141,83594.6,91038.8
81596.7,60280,88711.4,55167.7,38746,93312.1,99084.8,64557,100587,92216.8,71903,84051,76.031,18207,99084.8,79137.6
74867.4,55789,87947.6,57423.7,41931,89750.3,111297,70009,104186,86469.1,66034,85817,76.264,18262,111297,71777.9
129202,71975,117644,83836.5,42756,128504,154890,78949,128575,105778,77747,89164.1,76.396,18301,154890,85332.1
99606.6,66035,98853.9,111978,60551,121197,173693,101934,111672,86242.5,64293,87909.9,76.398,18302,173693,63315.1
65949.3,52252,82715.6,51468.9,39776,84801.6,67198.2,46266,95186.5,97048.4,79348,80155.3,76.488,18324,67198.2,88178.2
100330,65724,100043,63018.4,37858,109091,131398,72449,118860,90790.6,58290,102077,76.49,18326,131398,73446.1
142037,61897,150388,91852.6,33980,177153,155050,57301,177333,104224,68284,100029,76.543,18340,155050,83756.9
133636,60543,144658,96591.1,48713,129949,179218,91713,128065,111739,86567,84592.8,76.606,18354,179218,88082.5
132966,76275,114245,94825.8,39725,156438,176251,78722,146728,103315,76150,88914.3,76.633,18361,176251,80049.5
89107.2,58973,99023.8,45457.2,29202,102016,114169,65050,115022,81846,56368,95157.9,76.676,18368,114169,66775.7
109050,59643,119825,76694.6,35766,140532,171016,73144,153228,108509,73361,96934.9,76.693,18378,171016,85934.9
83178.9,49617,109866,48741.7,23796,134238,105708,54040,128196,101305,73985,89735.7,76.851,18403,105708,87351.1
67975.2,54695,81448.4,34217.6,25476,88023.5,71286.1,49625,94142.2,75828.7,62572,79420.6,77.076,18469,71286.1,66418.9
138296,78939,114815,194426,85577,148894,262143,109476,156928,121428,73700,107977,77.122,18485,262143,86824.7
88592.4,57651,100709,71311.2,43824,106641,159680,95007,110148,94103,72616,84928,77.133,18488,159680,73025.2
85424.4,58375,95903.6,95053.8,61915,100613,133803,87029,100758,86781.9,69311,82055.3,77.356,18542,133803,69119.9
89602.2,51847,113260,96532.7,40031,158037,112552,41634,177169,92571.2,67754,89540.8,77.364,18545,112552,77714.3
150051,77965,126130,154829,70732,143456,172115,82756,136301,111607,77169,94782.8,77.372,18547,172115,88888
73273.5,56599,84843.4,54161.3,37846,93788.5,78226.4,62285,82309.5,86647,72518,78304.7,77.532,18583,78226.4,76321.1
85850.1,45487,123690,87267,35068,163087,94967.6,40555,153466,78323.7,54380,94391.8,77.703,18620,94967.6,65788
57215.7,46419,80779.2,44029.6,30261,95354.6,75264.3,55112,89500,79270.3,64070,81084.1,77.885,18682,75264.3,69335.4
81297,50015,106526,202626,113075,117438,262143,173535,98999.1,127179,86619,96224.1,78.28,18780,262143,92576.6
108688,37544,189724,70805.2,23583,196764,101585,37878,175762,78833.9,58932,87668.1,78.37,18810,101585,65424.6
56462.4,42805,86446,67238.5,49691,88678.8,83059.4,58131,93640,72780.4,54554,87431.5,78.415,18821,83059.4,61816.6
78235.2,49059,104511,93669.3,42078,145889,83009.4,46314,117461,74010.5,56960,85153.7,78.438,18828,83009.4,63053.3
86880.6,57612,98830.2,85428,56461,99158.9,158713,94597,109955,99403.1,65189,99932.2,78.526,18854,158713,78453
119866,61473,127788,116214,64712,117694,176110,97012,118970,98569.1,65738,98266.2,78.545,18859,176110,75322.5
45314.1,39146,75862.3,18589.9,16051,75902.1,37413.2,29968,81817.7,66045.9,55839,77515.4,78.574,18866,37413.2,61107.3
74514.6,50956,95835.4,57609.9,40902,92306.6,123855,82959,97842.7,80606.1,63761,82850,78.61,18877,123855,64257.3
82532.7,58981,91705.2,75212.9,49948,98685.7,89739.8,59376,99049.9,84462,61091,90607.4,78.704,18904,89739.8,72616.3
59602.5,46779,83501.3,28664.6,22741,82606.8,57690.6,46386,81507.5,75276.8,65463,75360.8,78.709,18905,57690.6,67661.7
94818.6,64667,96092.8,64338.9,40838,103250,118283,77051,100606,79865.2,58964,88766.8,78.797,18940,118283,64251.8
64339.2,50910,82823.3,42065.6,33149,83164.2,61386.6,45396,88620.8,71019.3,59474,78258,78.805,18943,61386.6,62916.2
86490.9,59555,95177,69447.2,47253,96317.5,148623,93144,104571,92610.1,72574,83629.1,79.03,18987,148623,72991.9
118475,73768,105254,175938,91473,126051,262143,139962,122746,123707,87035,93149.6,79.19,19031,262143,89104.3
70201.8,51550,89248.2,71254.2,52230,89406.7,101150,61706,107429,106489,75458,92487,79.196,19035,101150,93137.5
150792,70405,140364,133985,47395,185269,203385,69448,191928,94887,60124,103428,79.311,19064,203385,68040.2
74007.9,56053,86528.5,116394,67889,112360,151357,88247,112404,98589.9,75334,85767.2,79.34,19072,151357,78610.8
95462.1,61839,101169,77220.1,51268,98710.6,156299,99427,103022,97211,70126,90848.2,79.494,19117,156299,76579.6
74683.8,51827,94438.8,67652.7,46321,95716.6,96548,65547,96531.8,75492.3,62332,79372.8,79.494,19118,96548,62748
93511.8,59919,102278,178028,82224,141896,184407,92149,131150,103012,69773,96756.1,79.533,19129,184407,78669.8
88101,63148,91432.6,72369,47111,100672,112058,79836,91986.2,84152,65075,84748.1,79.675,19174,112058,69360.4
80820,55342,95707,50903.2,37313,89405.6,127779,84931,98598.8,78902,58777,87975.2,79.733,19191,127779,62035.2
79057.8,46770,110779,99574,53855,121171,169693,93535,118896,102215,75203,89075.8,80.011,19276,169693,79815.6
97600.5,64463,99225.1,65213.2,40149,106449,123579,68342,118505,83903.2,65131,84424.9,80.028,19281,123579,67590.7
105156,61928,111283,69026,35473,127525,114004,61149,122183,78732.4,60955,84649.4,80.124,19306,114004,63683.9
91823.4,54085,111264,56689.8,29292,126834,120314,70166,112375,87210,65948,86665.2,80.134,19309,120314,71328.5
62798.4,46043,89385.1,59326.6,44240,87884.9,117844,80694,95707.7,86282.9,61588,91813.9,80.34,19375,117844,70727.4
110193,67122,107590,58056.1,31760,119797,139569,74030,123555,95411,72154,86659.9,80.413,19403,139569,76987.9
130365,66127,129200,105185,45266,152287,177559,95581,121745,93791.6,70120,87660.1,80.794,19486,177559,70353.9
82658.7,54087,100156,97856,62428,102728,168554,102402,107873,103003,78882,85576.1,81.149,19588,168554,80754
58023,47636,79826.1,24856,20001,81444,52911.7,39611,87541.9,79293.9,67572,76904.7,81.171,19594,52911.7,72309.6
99011.7,52462,123686,101093,29893,221632,134382,67057,131334,109891,81691,88158.9,81.181,19597,134382,92152.1
112394,66873,110147,96511.9,51424,122997,162979,79011,135184,90789.2,69718,85343.3,81.345,19644,162979,69276
87519.6,59802,95911.2,79649.8,53098,98307.4,145975,100940,94775.3,106139,84781,82045.8,81.403,19660,145975,86870.3
81037.8,54241,97912.9,96940,62908,100990,162098,101054,105124,104598,75839,90387.6,81.492,19685,162098,83200.6
94829.4,65230,95274.2,93488.6,60562,101167,97761.5,65611,97649.7,77942.9,62007,82378.8,81.579,19715,97761.5,65038.3
88230.6,46579,124139,77239.5,32111,157640,91898.5,50283,119775,79659.5,66473,78536.6,81.693,19756,91898.5,67528.9
62450.1,50921,80374.1,33305.8,25448,85772.1,73957.7,59243,81813.8,101951,84115,79432.4,81.712,19759,73957.7,92188.5
84510,60479,91576.4,73141.8,50324,95251.2,170956,112679,99430.9,100647,76496,86226.9,81.767,19772,170956,78080.9
64403.1,50407,83732.8,38623.9,27695,91397.7,66771.4,50657,86383.6,72114.6,57611,82034.7,81.855,19795,66771.4,63300.8
59383.8,48312,80555.1,26462.8,22035,78705.1,44588.4,38275,76346.1,73585.2,61765,78077.9,81.924,19818,44588.4,67699.5
75734.1,54841,90503.6,64683.6,45741,92676.3,106297,70899,98256.8,80508.8,64444,81873,82.279,19901,106297,66477.5
89847,62572,94103,56680,39141,94902.6,129488,82653,102672,93708.2,69464,88409.3,82.359,19921,129488,76615.8
60373.8,49637,79711.9,21180.8,16226,85548.3,62702.9,51874,79216.9,97361.2,80976,78796.9,82.528,19964,62702.9,89084.4
75461.4,49658,99590,43406.9,31462,90417.5,91588.5,63575,94413.6,105705,77673,89188.1,82.603,19977,91588.5,93615.6
74851.2,55367,88598.8,92796.4,58529,103906,87987,54307,106180,91267.4,65778,90931.6,82.652,19993,87987,79653.1
119945,58502,134366,172920,75429,150241,213662,98321,142417,104910,75098,91552.4,83.245,20157,213662,76706.8
95650.2,59321,105671,69484.7,47662,95542.6,80538,50308,104916,73322.5,53974,89029.2,83.27,20168,80538,62691.5
87261.3,59558,96020,49964.9,32214,101648,113929,71411,104556,101556,79310,83918.6,83.281,20171,113929,86517.6
89486.1,61442,95448.7,66109.8,44222,97973.2,164789,107538,100426,105188,76584,90013.8,83.281,20172,164789,83436.1
58998.6,49248,78511.5,26444.8,21168,81872.8,62900.3,46025,89565.1,71618.4,61361,76491.3,83.291,20175,62900.3,63315.5
68753.7,46355,97202.9,52038.8,25196,135355,94018.2,56936,108219,97052.6,75286,84483.7,83.314,20179,94018.2,84642.2
84306.6,56654,97523.9,80429.6,52169,101038,149763,97800,100356,85044.4,62923,88576,83.364,20199,149763,65275.7
75437.1,53502,92404.9,45639.3,28952,103309,93656.8,67969,90304.3,80201.6,64879,81013.8,83.461,20217,93656.8,67838.9
46842.3,40549,75707.3,13313.4,10865,80304.5,39817.9,35562,73379.1,68142,61463,72657.6,83.483,20223,39817.9,62886
71496.9,55466,84477.4,40874.3,30937,86587,72453.8,42681,111252,90500.1,73294,80920.9,83.559,20239,72453.8,80936.2
61379.1,46357,86773.1,54043.2,40356,87763.3,61503.3,44589,90396.3,69096.9,58982,76774.9,83.627,20257,61503.3,60978.5
73149.3,51535,93022.5,51427.2,39894,84482.2,102667,82029,82024.3,76226.2,60489,82586.3,83.797,20304,102667,62674.2
63071.1,48357,85477.3,29595.9,21604,89779.5,64611.4,48550,87216.7,83544.6,71573,76497.8,83.89,20331,64611.4,75015.9
90670.5,60675,97934.6,93203.7,60839,100399,149040,92410,105697,85081.9,61363,90867.9,83.926,20345,149040,65408.6
108380,59796,118784,156097,79390,128857,206764,106058,127765,96037.9,68535,91835.4,83.935,20348,206764,68745
104427,60638,112862,77531.4,43406,117060,152830,95169,105243,110003,85945,83881.2,83.947,20351,152830,89829.6
76579.2,55292,90767.1,48312.2,34309,92284.5,99365.5,72585,89715.8,100058,75894,86401.9,84.016,20373,99365.5,86941.5
96204.6,66161,95295.8,78593.4,53149,96910.5,139416,93414,97809.1,96685.6,72029,87970,84.113,20397,139416,78282.8
53057.7,39227,88642.8,51671.9,36203,93538.3,67768.1,37817,117441,70542.5,58095,79577.8,84.115,20399,67768.1,61597.1
100492,62098,106056,106324,63256,110156,201547,121821,108426,113257,81081,91543.3,84.129,20404,201547,86653
89918.1,56586,104140,75290.7,40597,121542,89567.4,54340,108022,88765.4,54886,105989,84.19,20414,89567.4,76942.5
96235.2,64662,97536,48666.7,29448,108307,103455,57254,118420,82467.3,60453,89401.3,84.431,20469,103455,68811.3
81539.1,53753,99413,87147.4,54117,105536,193324,113257,111867,108961,84449,84558.1,84.483,20477,193324,83441.9
160507,66911,157209,149789,52605,186609,185882,80097,152090,89599.4,51887,113169,84.781,20564,185882,65063
78398.1,52801,97306.8,77470.3,43438,116881,84986,52050,107006,76016.3,60876,81835.3,84.84,20588,84986,64798.2
81173.7,46067,115480,64692,35275,120189,184538,98265,123074,117183,83799,91644,84.855,20592,184538,92823.6
86827.5,54990,103479,113844,72399,103052,184000,103013,117059,115923,77666,97818.1,84.895,20600,184000,91635.2
50778.9,28262,117750,112598,80865,91253.9,66649.1,34709,125844,77488.3,52665,96426,84.965,20620,66649.1,68690.6
87159.6,58391,97824.9,79558,51508,101225,145597,94069,101434,93620.7,74038,82869.9,84.995,20629,145597,74401.9
88903.8,57206,101849,62188.6,41488,98235.4,97483.5,41875,152565,104497,63823,107302,84.998,20631,97483.5,91629.6
90696.6,57740,102942,90277.7,55475,106651,186968,113109,108330,117935,82844,93295.3,85.116,20659,186968,93254.8
101704,64998,102545,121818,77400,103146,250196,147408,111234,126350,89781,92229.4,85.176,20678,250196,93323.8
63282.6,47240,87791.9,39460.7,28597,90432.5,61839.7,47625,85096.6,93904.2,76469,80478.5,85.2,20683,61839.7,85741.4
100224,63233,103874,84948.5,59318,93853.2,150078,88651,110947,111400,83168,87782.8,85.274,20703,150078,91589.8
58456.8,34763,110204,46463.5,25866,117723,71931.1,40133,117461,72111.8,52025,90839.4,85.321,20719,71931.1,62616.9
74254.5,48237,100884,54852.2,34013,105689,141888,92012,101061,106634,83855,83338.6,85.5,20762,141888,87904.6
130576,67143,127450,231175,115978,130631,262143,147728,116293,123667,77759,104228,85.808,20862,262143,89064
78961.5,56043,92336.6,43882.3,31131,92379.6,119401,87244,89691.7,79021.5,69059,74990.3,85.915,20882,119401,63260.6
75896.1,54378,91469.5,49695.3,34171,95309.8,70941.4,46275,100469,92286.3,72773,83108.8,86.231,20967,70941.4,82922
103875,68898,98806.5,110896,63162,115064,170542,99632,112179,103754,73227,92856.6,86.285,20989,170542,81242.2
94814.1,68362,90894.6,64509.9,43188,97891.1,123714,73750,109935,92464.2,69486,87208,86.354,21007,123714,76133.9
71228.7,50056,93256.4,59487.8,44749,87121.4,132894,84481,103092,86770.8,65517,86795.9,86.428,21030,132894,69228.8
79821,58762,89022.7,85893.7,56923,98890.2,94103,61344,100534,102843,80101,84143,86.576,21066,94103,90421.7
94040.1,61819,99694.5,58860.9,35301,109275,77642.6,51130,99518.6,93139.7,76592,79695.1,86.799,21113,77642.6,82890.9
61625.7,43510,92822.4,29761.3,20481,95231.5,58519,39290,97610.1,69925.3,57862,79199.2,87.067,21194,58519,62200.8
67839.3,49567,89695.1,74098.1,53218,91249.1,75064.2,47888,102727,74235.7,53441,91037.1,87.136,21211,75064.2,64327.3
86104.8,58955,95716.5,143130,81096,115667,141531,80231,115609,87243.4,67466,84747.6,87.241,21247,141531,68561.2
88975.8,56094,103953,148822,81676,119413,262143,155634,110386,127210,84046,99193.7,87.319,21263,262143,92607.1
108596,59915,118784,80243.3,30526,172274,115908,56410,134660,109086,83515,85602,87.365,21278,115908,93786
73340.1,54429,88306.2,42030.8,30370,90699.1,110914,80386,90424.2,101813,78602,84888.9,87.439,21307,110914,87172.7
110463,59106,122480,79156.3,34322,151145,133714,60386,145118,101287,68985,96222.6,87.73,21376,133714,83636.3
90025.2,50642,116502,125759,71326,115550,205356,106473,126400,118434,83434,93027.6,87.733,21377,205356,91326.6
78803.1,40014,129066,88488.8,17467,262143,154102,48948,206326,95957.3,72568,86658.8,87.977,21448,154102,75615.8
53917.2,36439,96970.8,99720,66747,97910.8,171052,99473,112695,85040.2,65892,84580.7,88.173,21511,171052,62461.3
70704.9,50046,92589.1,64145.7,45104,93203.6,76065,52237,95430.3,79407.9,68532,75936.5,88.22,21530,76065,69367.3
87570,60082,95519.2,62406.8,40063,102087,150600,103633,95237,110840,83070,87444.4,88.23,21537,150600,90960.9
89367.3,60266,97182.1,92875.6,61382,99161,152259,89324,111711,87974.5,62383,92421,88.38,21574,152259,67876.3
45253.8,33436,88699.4,35798.1,20970,111877,57443.1,38325,98228.1,80920.2,64402,82345.1,88.407,21583,57443.1,73337.8
111960,63875,114871,59806.1,27133,144453,133958,62764,139875,80239.1,59254,88745.9,88.465,21601,133958,62556.6
76411.8,58308,85884,57148.5,42642,87830.8,81754.2,57361,93405.7,101139,74337,89165,88.648,21655,81754.2,90347.6
127890,59752,140270,125325,55111,149032,257817,125276,134873,126091,89771,92050.9,88.716,21676,257817,92059.2
80257.5,58635,89703.3,54697.9,41627,86114.3,112490,79562,92659,77890,57810,88299.6,88.754,21690,112490,63041.4
73443.6,55444,86811.9,45108.3,31602,93545.2,108659,64938,109660,102785,67375,99979.4,88.849,21719,108659,88441.9
125582,74270,110814,139719,80590,113620,262143,137502,124942,128322,82935,101401,88.886,21736,262143,93719.1
118892,69965,111366,113956,61299,121833,151240,81148,122143,112105,76316,96269.5,88.891,21740,151240,92141.2
81913.5,58773,91339.3,50437.5,32256,102476,119639,77644,100982,79120.2,64408,80505.9,89.014,21776,119639,63327.9
72207,49153,96274,60758.3,40889,97382.1,156271,104736,97782.6,97465.4,76144,83887,89.138,21808,156271,76837.7
45188.1,33450,88533.6,63179.7,52051,79547.8,127161,90102,92491.3,82196.3,61329,87834.7,89.218,21829,127161,65411
67832.1,55226,80495.5,31441.8,24744,83275.5,66608.8,56092,77823.5,95260.9,73070,85438.9,89.397,21887,66608.8,86468.5
108261,53701,132120,112251,47656,154366,127389,52396,159336,99510.1,62927,103636,89.425,21899,127389,82694.7
74992.5,52954,92810.9,68371.3,48931,91573.5,112832,79772,92696,87489.4,68194,84079.3,89.672,21970,112832,72595.6
113912,60401,123596,150263,47333,208050,183452,62712,191713,96050.4,63270,99490.4,89.674,21971,183452,71834.7
85508.1,47526,117911,76732.2,39682,126725,117116,54037,142038,102271,77331,86671.7,89.764,21996,117116,86811.4
56478.6,33024,112082,99874.3,68995,94867.2,150149,86012,114405,83890.7,62043,88613.7,89.8,22005,150149,64071
80785.8,57653,91831.8,47563,32263,96615,111314,71112,102586,99604.6,75540,86413.7,89.85,22021,111314,84911.2
92973.6,61770,98642,84405,55587,99511.8,197137,122235,105694,117424,85907,89579.7,90.118,22087,197137,91402.4
80617.5,54804,96404.4,65908.2,45637,94646.1,145871,93008,102785,89320,63423,92295.8,90.165,22095,145871,70065.1
57810.6,42594,88948.6,62972.6,45006,91698.2,144881,96440,98454.2,95002.3,73134,85132.4,90.179,22104,144881,75878
76422.6,56494,88654.2,66469.8,46981,92721.8,112623,76621,96329.8,76519.5,60125,83405.9,90.202,22114,112623,61653.2
85926.6,60605,92917.8,75660.5,49282,100615,134313,81294,108278,82916.3,63517,85551.9,90.526,22201,134313,65187
94673.7,64087,96814.3,65186.8,40977,104256,153669,88036,114394,100476,71403,92220.3,90.543,22205,153669,80191.9
89984.7,57179,103136,72613.6,46661,101987,152147,87984,113328,82631.3,60694,89223.4,90.59,22226,152147,62548
75014.1,49873,98572.9,70867.8,40978,113339,110385,61193,118220,77199.2,57869,87427.2,90.752,22278,110385,62628.3
76900.5,54648,92222.1,65495.4,48561,88390,130976,86897,98779.2,102497,78130,85975.4,90.76,22281,130976,85208.4
92103.3,60694,99451,91221.5,56473,105861,193552,117710,107762,103898,73526,92607.8,90.844,22307,193552,78349.5
80319.6,62351,84422.5,122838,77984,103231,253106,141515,117214,124697,85561,95512.4,90.956,22339,253106,91286.8
78754.5,53984,95607.1,78783.8,54384,94939.2,133607,81332,107658,92308.5,68493,88323.3,91.164,22399,133607,74672.4
87912.9,54915,104916,57288.8,37661,99691.5,137812,88519,102030,104970,86335,79681.7,91.233,22421,137812,86778.9
109472,66188,108393,71091.5,39681,117413,122276,57820,138593,84485.6,62024,89269.4,91.287,22438,122276,68345.2
59434.2,44732,87075.9,52847.8,39656,87336.9,132210,83782,103417,78872.8,64117,80618.3,91.384,22464,132210,61421.1
64436.4,49881,84659.6,31648.9,19917,104139,52920.1,32803,105727,75262.9,62882,78439.5,91.481,22487,52920.1,68277.5
85851,61650,91262.5,66916,46176,94971.6,117020,80997,94682.8,82407.5,65063,83006.6,91.514,22496,117020,66960.9
119048,70522,110631,72114.6,32402,145858,125666,60781,135497,80703.4,57682,91692,91.592,22516,125666,64115.5
67879.8,51714,86022.6,43853.1,32051,89668.3,96484.1,70637,89516.5,77580.1,63534,80024.7,91.744,22582,96484.1,64844.2
88443,58298,99423.7,60522,40452,98051.2,130577,87224,98109.1,79227.2,58966,88054.7,91.876,22616,130577,61991.1
76482.9,57567,87070.4,59062.5,38828,99688.9,85245.9,61476,90875.7,94789.7,78812,78822.2,92.149,22692,85245.9,83537.2
52039.8,25833,132020,20049.4,15611,84168.5,92154.2,37256,162106,73821.5,46623,103768,92.26,22716,92154.2,61657.2
75313.8,51865,95165.6,102282,57883,115805,158699,92526,112406,99322.4,76352,85252.5,92.328,22735,158699,78374.2
83375.1,58921,92735.5,59757.5,41661,94003.2,101881,70013,95366.6,77887.3,64006,79749.1,92.444,22763,101881,64438.9
56380.5,45662,80919.6,42560.4,36270,76902.1,98373.1,71208,90537.3,103873,70734,96240,93.139,22935,98373.1,90888.1
87088.5,61703,92498.5,75974.6,49774,100034,147126,100266,96164.7,88481.8,67010,86535.5,93.213,22951,147126,69061.2
84381.3,55804,99097.1,123507,67981,119065,199604,100456,130219,116930,83164,92144.4,93.282,22973,199604,90581.9
85583.7,60538,92649.5,56146.3,38490,95598.9,129359,86146,98410.5,97559.9,68914,92777.8,93.311,22981,129359,80484.5
79911,57287,91417.7,61054.4,45907,87160.1,120603,84811,93193.8,81556.9,58965,90645.5,93.382,22999,120603,65637.2
124639,71360,114467,55531.9,25130,144820,151472,68035,145909,101915,69053,96724.1,93.39,23001,151472,81920.4
45943.2,38551,78102.6,19915.9,16068,81230.4,38479.4,35197,71647.7,66193.2,57751,75116.2,93.555,23042,38479.4,61113.9
88191,59231,97578.7,106801,71029,98541.3,167364,96623,113517,92298.8,70541,85750,93.601,23054,167364,70206.7
102474,61943,108418,70671.8,37568,123284,167577,90199,121757,113392,85934,86476.4,93.801,23103,167577,91271.9
95523.3,64495,97065.1,82945.5,54161,100366,140650,90193,102199,88021.8,64717,89135.7,93.995,23144,140650,69456
98190.9,60758,105913,120983,76058,104246,188648,113100,109312,104756,73065,93961.4,94.056,23159,188648,79854.4
112919,72609,101920,66917.4,39212,111841,154076,90409,111687,113917,79244,94211.5,94.157,23185,154076,93579.4
84292.2,52378,105467,131284,78231,109980,231757,126189,120363,118552,83782,92733.6,94.232,23206,231757,87959.7
79632.9,58234,89618.1,116137,81902,92930.2,169262,102508,108213,84316,48045,115012,94.254,23210,169262,61973.5
70508.7,53974,85612.7,50051.1,36717,89336,73999.4,48245,100521,81702.8,66310,80749.1,94.508,23264,73999.4,71934.9
86868.9,59076,96368.1,101615,49919,133404,165480,99206,109317,115027,87137,86511.9,94.548,23276,165480,93183.4
75665.7,47542,104304,153352,85077,118129,262143,140749,122060,126117,92145,89698.1,94.558,23283,262143,91514.6
53213.4,38578,90398.5,40841,26813,99823,75440.9,51606,95804.6,71049.9,56137,82945.7,94.608,23294,75440.9,61091.7
85547.7,59090,94879.9,52525.3,31923,107831,124059,84166,96598.7,96862.1,79105,80247.2,94.633,23301,124059,80486.4
106587,68822,101498,74745.9,46128,106195,151379,88356,112282,89984.4,70500,83648.5,94.642,23304,151379,70002.4
82811.7,55272,98189.8,70770.5,38362,120901,83889.3,47920,114728,96653.6,63958,99038.3,94.859,23358,83889.3,85580.3
90861.3,57562,103448,87595,56833,101009,189893,126984,98003.3,117064,82310,93207.8,94.913,23373,189893,91998.5
83439,65234,83825.3,89035.1,60518,96417.6,163996,96064,111880,100911,76054,86955.6,95.068,23422,163996,79263.7
47176.2,35011,88307.7,42439.5,24934,111547,58321.6,35782,106818,79995.9,61703,84965.2,95.155,23447,58321.6,72297.4
71296.2,54698,85423,45254.2,34027,87159.6,115538,77827,97291.6,76169.2,59052,84532.7,95.228,23465,115538,60918.2
114081,69306,107876,98895.7,50524,128280,156103,89447,114373,89502.1,69386,84535.9,95.334,23497,156103,68896.6
83925,59835,91921.3,72599.7,51411,92546.2,167359,109381,100274,109261,79749,89788.3,95.409,23510,167359,87169.6
83936.7,55548,99029.2,117712,74799,103135,195869,109958,116740,115157,77368,97546.1,95.441,23519,195869,89302.6
81702.9,61611,86907.9,105711,68465,101188,153147,95700,104876,86868,65289,87196.7,95.464,23523,153147,66652.6
54358.2,37571,94818.3,33806.2,18241,121458,59949.3,33003,119045,68895.4,52792,85526.7,95.525,23539,59949.3,60982
78666.3,58381,88307.4,65156.2,48659,87755.2,126240,83414,99183,85587.9,68249,82185.6,95.763,23612,126240,68924.2
56958.3,41908,89071.8,30246.4,21106,93917.8,71097.1,40835,114104,72496.8,56743,83731.1,95.958,23674,71097.1,63112
81774,60628,88393.8,44575.9,30701,95154.1,71484.9,55441,84501.3,95440.2,76153,82134.2,96.124,23715,71484.9,86004.2
87875.1,57021,100998,98734.5,59995,107853,173098,97055,116884,110499,82191,88108.1,96.426,23800,173098,87650.5
63977.4,47072,89072.5,35294.9,24952,92701.4,52592,47312,72849.9,71625.3,61374,76482.5,96.449,23811,52592,64683.2
139214,56806,160608,110866,46369,156694,175325,56974,201673,104921,63045,109067,96.467,23817,175325,81778.5
75206.7,49956,98661.7,60724.9,42376,93913.3,163338,104939,102007,114536,85225,88075.5,96.484,23819,163338,92975.4
114247,45959,162912,135303,37542,236194,127499,45984,181711,81574.9,53179,100530,96.544,23840,127499,64745
71881.2,54667,86172.8,37189.4,26377,92400.5,62404.1,47271,86516.3,76459.7,62659,79970.4,96.802,23901,62404.1,68222.4
97653.6,66265,96579.3,75946.8,49918,99708.5,164736,86794,124388,112946,78809,93923.5,96.946,23936,164736,91200.7
76602.6,51822,96874.4,53716.6,40485,86954.9,97646.1,56521,113220,104759,59045,116275,96.962,23940,97646.1,91869.5
58110.3,41590,91568.1,44003.2,30006,96107.3,66757.5,43713,100085,86409.4,69576,81391.9,97.015,23955,66757.5,77597.4
91135.8,62131,96130.4,76141.4,51379,97121.5,158010,103465,100085,114100,82948,90148.4,97.236,24016,158010,93242.3
93857.4,54833,112178,63498,33152,125525,129224,63214,133971,95996.2,60963,103197,97.375,24056,129224,78938.6
71640.9,49098,95626.3,57851.8,36921,102689,70107.4,46684,98418.3,72644.2,55251,86166.9,97.402,24065,70107.4,63390
68751,53176,84731.2,34929.3,24772,92407.9,55804.3,40155,91076.9,72951.4,55763,85736.8,97.466,24078,55804.3,65585.2
