H.sapiens;Q92673;S.cerevisiae;P32319;;OrthoMCL (0.442, OG5_128036);;;eggNOG (NOG11453);pombase (n/a)
H.sapiens;Q92673;S.cerevisiae;P40438;;OrthoMCL (0.449, OG5_128036);;;eggNOG (NOG11453);pombase (n/a)
H.sapiens;Q92673;S.cerevisiae;P40890;;OrthoMCL (0.449, OG5_128036);;;eggNOG (NOG11453);pombase (n/a)
H.sapiens;Q92673;S.cerevisiae;P53751;;OrthoMCL (0.553, OG5_128036);;;eggNOG (NOG11453);pombase (n/a)
H.sapiens;Q92835;S.cerevisiae;P40559;;;;;eggNOG (COG5411);
H.sapiens;Q92835;S.cerevisiae;P50942;;;;;eggNOG (COG5411);
H.sapiens;Q92835;S.cerevisiae;Q08227;;;;;eggNOG (COG5411);
H.sapiens;Q92835;S.cerevisiae;Q12271;;;;;eggNOG (COG5411);
H.sapiens;Q8N427;S.cerevisiae;P36010;;;;;eggNOG (COG0105);
H.sapiens;Q8NFF2;S.cerevisiae;Q12424;;;;;eggNOG (COG0530);
H.sapiens;Q8NFF2;S.cerevisiae;P47144;;;;;eggNOG (COG0530);
H.sapiens;Q06413;S.cerevisiae;Q12224;;;inParanoid (0.447, INP1457);;eggNOG (COG5068);
H.sapiens;Q06413;S.cerevisiae;P38128;;;;;eggNOG (COG5068);
H.sapiens;Q06413;S.cerevisiae;P07249;;;;;eggNOG (COG5068);pombase (n/a)
H.sapiens;Q06413;S.cerevisiae;P11746;;;;;eggNOG (COG5068);pombase (n/a)
H.sapiens;Q13492;S.cerevisiae;P53309;;;inParanoid (1.000, INP1443);;;pombase (n/a)
H.sapiens;Q13492;S.cerevisiae;P38856;;;inParanoid (0.334, INP1443);;eggNOG (NOG03054);pombase (n/a)
H.sapiens;O00499;S.cerevisiae;P39743;;;;;;pombase (n/a)
H.sapiens;Q8IZY2;S.cerevisiae;Q08234;;;inParanoid (0.472, INP1260);;;
H.sapiens;Q8IZY2;S.cerevisiae;P25371;;;;;eggNOG (COG1131);
H.sapiens;Q8IZY2;S.cerevisiae;P32568;;;;;eggNOG (COG1131);
H.sapiens;Q8IZY2;S.cerevisiae;Q04182;;;;;eggNOG (COG1131);
H.sapiens;P21709;S.cerevisiae;P31374;;;;;eggNOG (COG0515);
H.sapiens;P21709;S.cerevisiae;P22209;;;;;eggNOG (COG0515);
H.sapiens;P21709;S.cerevisiae;P16892;;;;;eggNOG (COG0515);
H.sapiens;P21709;S.cerevisiae;P24583;;;;;eggNOG (COG0515);
H.sapiens;P21709;S.cerevisiae;P38070;;;;;eggNOG (COG0515);
H.sapiens;P21709;S.cerevisiae;P38080;;;;;eggNOG (COG0515);
H.sapiens;Q92879;S.cerevisiae;P53316;;;inParanoid (0.11, INP1685);;;
H.sapiens;Q92879;S.cerevisiae;P25555;;;inParanoid (0.11, INP1685);;;
H.sapiens;Q92879;S.cerevisiae;P38922;;;inParanoid (0.039, INP1685);;;
H.sapiens;Q92673;S.pombe;O42930;;OrthoMCL (0.515, OG5_128036);;;eggNOG (NOG11453);pombase (n/a)
H.sapiens;Q92835;S.pombe;O14306;;;;;eggNOG (COG5411);
H.sapiens;Q92835;S.pombe;O43001;;;;;eggNOG (COG5411);
H.sapiens;Q92835;S.pombe;Q9USQ6;;;;;eggNOG (COG5411);
H.sapiens;Q8N427;S.pombe;P49740;;;;;eggNOG (COG0105);
H.sapiens;Q8NFF2;S.pombe;P87122;;;;;eggNOG (COG0530);
H.sapiens;Q06413;S.pombe;Q9HGP0;;OrthoMCL (0.205, OG5_135254);;;eggNOG (COG5068);
H.sapiens;Q06413;S.pombe;P78926;;;;;eggNOG (COG5068);pombase (n/a)
H.sapiens;Q06413;S.pombe;O42954;;;;;eggNOG (COG5068);pombase (n/a)
H.sapiens;Q13492;S.pombe;O60167;;;inParanoid (1.000, INP1591);;;pombase (n/a)
H.sapiens;O00499;S.pombe;O74352;;;;;;pombase (n/a)
H.sapiens;Q8IZY2;S.pombe;Q9C0Y5;;;;;eggNOG (COG1131);
H.sapiens;Q8IZY2;S.pombe;P41820;;;;;eggNOG (COG1131);
H.sapiens;P21709;S.pombe;Q9HFF4;;;;;eggNOG (COG0515);
H.sapiens;P21709;S.pombe;Q10447;;;;;eggNOG (COG0515);
H.sapiens;P21709;S.pombe;Q10292;;;;;eggNOG (COG0515);
H.sapiens;P21709;S.pombe;O94537;;;;;eggNOG (COG0515);
H.sapiens;P21709;S.pombe;Q10452;;;;;eggNOG (COG0515);
H.sapiens;P21709;S.pombe;P36582;;;;;eggNOG (COG0515);
H.sapiens;P21709;S.pombe;Q9UTH3;;;;;eggNOG (COG0515);