"FSC-A","FSC-A","SSC-A","SSC-A","FITC-A","FITC-A","Comp-PE-A","Comp-PE-A"
101345,78385.5,73004.2,55012,146815,70596.7,89116.9,77096.1
71670.6,104037,49422.8,160990,121732,147047,78210.9,90010.6
70312.5,59832.9,38665.6,51664.9,113984,62836.3,71736,60948.5
59400,101984,25734.5,86460.8,47732.6,151058,63719.2,85133.2
64122.3,123866,41579.1,152851,74462.3,262143,75451.6,72078.2
76258.8,86879.7,87064,63133.8,151233,88644.5,77633.3,70012.9
99163.8,85940.1,73173.8,137607,143957,112826,81689.3,66986.3
83895.3,57384,98375.9,41914.1,145170,128432,65908.3,72775.7
105354,81831.6,99268.2,56923.3,192569,160064,89300.3,65868.9
68578.2,53209.8,56816.2,28098.8,75666,52574,83983,77053.8
62726.4,62850.6,45252.8,27551.2,81669.4,57633.6,78810.7,69873.8
48453.3,76940.1,32056.2,54735.4,63516.1,102482,64337.9,62840.4
78466.5,128921,66682.5,118636,84746.9,201236,74359.6,68283.5
105812,65029.5,110316,32531.6,186090,59763.1,66218.4,86755
67940.1,66593.7,47563,60162,134293,82521.5,82414.4,90823.2
83650.5,114675,72765.1,99564.3,145411,156375,67726.7,69607
68530.5,41953.5,47136.3,27134.2,71476.6,41932.1,72003.8,65111.7
85825.8,68516.1,84167.3,34013.3,143943,60050.8,67825.9,76551.9
57538.8,59947.2,42535.4,109747,65146.5,206048,65850.4,92785.1
70232.4,51110.1,44156.1,72128.5,62249.8,79920.8,65172.2,78021.2
81145.8,62053.2,46880.5,43815.6,91336.9,66738.1,92445.1,78770.3
55188,78299.1,22319.2,115134,61005.7,202636,89058.2,78640.5
88690.5,74458.8,132407,52054.1,219299,131619,69789.8,73585.1
79116.3,61316.1,65360.6,47440.7,81501.3,73836.8,73029.6,61051.8
111519,70225.2,89732.8,56167.1,198830,145140,84419.3,67064.7
72978.3,120804,31637.8,93535.9,84168.7,165068,90961.6,80474.7
122104,102797,145497,89738.4,214658,119976,80991.5,75964.3
87735.6,68619.6,67053.6,35571.5,90850.4,74738.9,80745.8,85292.5
96061.5,76260.6,157690,67075.8,239970,96481.3,90799.7,88492.6
83640.6,48812.4,87703.4,18510.6,126942,58945.7,89859.5,79035.8
102037,55219.5,68458.9,35903.7,134170,59095.8,71719.4,75748.1
81972,70570.8,84266,47522.7,184778,70147.7,70553.2,78883.2
71847,58438.8,64797.6,30575.8,74011.9,61950.9,71316.1,66059.6
122875,43797.6,107058,20307.9,198175,39549.7,73344,61965.1
80855.1,71765.1,51808.1,99404.5,85464.1,170745,87886.9,81949.4
95824.8,95893.2,159052,92062.5,255407,172644,89087.2,87287.9
68437.8,61728.3,40515.7,28058.5,58271.6,71893.6,60995,83020.1
91190.7,77009.4,84035.2,51808.1,167888,108694,80748.8,63638.4
79323.3,65306.7,97647.5,49712,158336,116364,67446.6,77052.7
92205,51414.3,88519.4,39487.1,122598,65407.8,86083.5,67477
88731,76005,72544.1,72742.9,137218,145554,79340.1,89843.5
92990.7,61811.1,43812.8,29569.5,120396,64422.3,88881.7,93655.7
119323,73990.8,156825,89396.5,176804,121465,74851.5,63385.6
60110.1,49996.8,39256.4,16385.3,71429.3,48918.3,89957.7,62842.6
98667,72376.2,76791.9,130882,142340,165264,76741.6,64625.1
85985.1,82259.1,90839.3,51455,157790,98039.5,75148.4,72610.5
60035.4,91332.9,50826.7,63047.6,76027.4,141424,77706.7,93413.3
55973.7,116647,34360.8,95454.1,73827.1,241777,62622.4,87871.5
68456.7,48548.7,47474.1,26026.4,70225.6,44766.3,62785,63210
71245.8,96066,73554.6,70660.6,148435,157292,76112.2,70282.4
49946.4,61114.5,20791.6,66272.4,60859.8,88178.8,86025,64554.6
45954.9,66599.1,23136.5,66006.9,43580.7,93701.3,61257.9,72055.9
81155.7,72547.2,80029.2,41669.4,139018,73007,82666.5,71434.8
155239,111175,117423,134886,248412,262143,91692.4,93118.7
50288.4,64094.4,67545.7,53944.5,82800.9,82201.8,70265.7,71135.7
109783,76605.3,116792,95582,222371,116055,86681.5,91372.9
61740,75810.6,37356.2,65040.9,57440.4,85416.9,69107,85690
54666,62790.3,36990.7,59398.9,60410.8,111354,71029.2,69408.7
78948.9,72500.4,69976.8,110180,162099,185080,82041.2,84798.4
65681.1,52016.4,25534.3,24622.5,56432.6,62139.9,75225.3,60948.6
170366,64001.7,121671,80340.6,217308,149760,87552.6,68204.8
60069.6,104970,37115.8,80311.4,59073.6,169316,74557,87717.5
56649.6,77602.5,23774.6,59343.3,44035.2,116495,60889.3,63470.5
56411.1,104098,33062.5,142560,66312.7,131441,62430,74136.8
87514.2,106058,47632.5,115127,90026.1,244249,70932.7,88158.1
65739.6,78915.6,58374.4,57508.5,73613,87561.7,80469.1,83160.6
58455.9,81287.1,45265.3,63293.6,65122.9,100821,80431.9,66474.9
86635.8,108625,86327.3,197009,118396,262143,79172.5,70878.7
81085.5,82236.6,47550.5,72364.8,137823,77461.9,64606.9,63158.7
59912.1,66465.9,39225.8,47171,58457.8,62417.9,64266.1,77846.3
87795,72189,74859.8,50134.5,149881,81296.9,90715.2,79561.8
71023.5,79315.2,36520.9,61125.2,63263.1,135114,75877.7,90162.4
89009.1,72972.9,61262.9,59059.7,150031,118158,86369.7,62022.1
60132.6,123095,54697.9,109836,72249.4,148763,75318.4,68241.8
55707.3,85487.4,20444.1,61324,58168.7,123945,81073.2,76430.1
56081.7,97947.9,71683.7,113298,133661,162775,85200.1,88687.9
99628.2,89111.7,90500.1,117871,152523,210076,75051.3,68047.9
85769.1,107276,69650.1,72264.7,84696.9,157529,71342.9,91839.3
69366.6,72106.2,52824.2,81791.8,79252.2,85476.7,80813.1,72912.2
75803.4,78317.1,50393.1,64493.2,112194,143116,67578.5,73789.8
76356,84967.2,60770.8,126900,85713,114155,84447.2,65027.5
130046,134640,81701.4,82821.8,157587,144963,75984.2,84852.2
60550.2,59824.8,38220.8,37667.6,48429,49696.7,60975.1,61121.9
68818.5,83301.3,46876.4,88106.5,83430.6,125535,86112,93194.9
54427.5,91315.8,28079.4,71672.6,58388.3,83821.2,73399.2,87236.4
99546.3,47729.7,67598.5,60038.3,140548,64564.1,93553.9,60997
101095,41725.8,58261.8,19726.9,140725,40481,61318.7,60984.5
73433.7,67759.2,60693,44954,102089,73611.6,88034.6,80378.9
75187.8,117483,70895.6,150141,142435,178072,74043.7,84134.8
58329,72845.1,35207.3,57309.7,64621.1,78091.6,76293.4,78554.6
47279.7,103526,13560.8,70774.6,47948.1,145330,61309.6,90417.9
72936.9,80627.4,42531.2,78419.6,85354.3,81092.6,91059.5,63289.6
99276.3,72916.2,136356,65819.3,218149,70912.2,90306.4,62700
62912.7,99491.4,45649,92511.4,73690.9,144774,83969.9,83879.1
56920.5,77826.6,40632.5,80878.5,67898.7,109226,68403.4,65726.8
102154,119040,97598.9,125867,149492,152842,72068.2,72638
57290.4,138201,37346.5,83159.5,55989.2,163034,72256.4,91913.2
79630.2,59220,53495.5,69604.2,130531,67017.5,69653.3,63061.2
98782.2,81864,63678.7,55661.2,130346,103209,77269.9,63080.8
73206.9,62499.6,31526.6,39498.2,71561.4,60135.6,82886,68976.4
71084.7,52143.3,36885,26027.8,79257.8,43989.3,75716.6,61133
64999.8,120174,46442.7,178501,60016,196112,71787.4,92348
86900.4,69947.1,137678,64516.8,241047,82592.4,89426,72931.5
62772.3,65655.9,39733.1,53688.8,60795.8,75732.8,69696.8,87395
67672.8,88505.1,46145.2,89532.7,72445.4,122278,86325,85151.3
41557.5,103328,18930.4,62935,46969.5,110484,61747.4,61464.4
58234.5,62163.9,40657.5,53428.8,73118.2,68935.7,63469.4,73423.4
97878.6,92094.3,69199.8,53035.4,158960,111616,86849.3,66733.2
97572.6,74043.9,113200,77061.6,218969,113745,88570.5,72341.6
86560.2,115747,53811.1,168079,120660,142873,64823.5,65994.8
95214.6,106616,159137,115068,230028,176757,80447.1,72804.7
51817.5,73071.9,24268,60456.7,53052.1,127951,61578.3,69725.6
71379.9,59949.9,51795.6,36565.3,76436.1,68335.2,93301.4,89236.1
93851.1,57330.9,88612.5,17376.4,168297,49595.2,72874.7,61352.2
72303.3,105334,59636.6,222394,90579.4,262143,76471.2,80455.8
170581,67967.1,193257,40376.7,196228,110084,91180.4,78708.8
50404.5,74511.9,24589.1,52237.6,48737.6,99027.8,62056.1,73586.5
74587.5,72143.1,55829.3,47240.5,152408,60916.8,91126.6,64750.5
58968,82256.4,45006.8,70720.4,79337,75058.6,92206.8,68620.3
52812.9,71505,14795.2,102891,41394.2,198674,60787.5,82781.6
68199.3,61528.5,46025.7,46031.2,70535.5,70849.7,61615.4,89118.2
75153.6,75067.2,61368.5,99568.5,63578.6,90379.2,65447.2,63919.5
92260.8,74771.1,62762.7,50223.5,118634,65538.5,66485.2,60942.1
103585,82153.8,61647.9,49853.7,147642,118243,82711.1,77492.7
112170,60753.6,73012.5,42347.7,137742,66996.6,67638,85288.6
50296.5,93870,32167.4,62301.2,50500.1,141284,76271.1,71230.7
76196.7,50360.4,45024.9,46478.8,78850.5,60527.6,86440,61090.6
118382,84504.6,79407.9,95370.7,176861,128699,89316.7,76820.1
45828.9,64946.7,31558.6,50185.9,49062.8,72318.9,62145.2,67694.8
125660,82212.3,59075,53288.4,138551,87557.5,78221.7,77476.1
62495.1,86133.6,38544.7,89933,52408.6,152775,62188.7,79380
49005,59967.9,40864.6,49553.5,54674.3,58769.2,70472.9,66326.7
102178,72817.2,135543,36737.7,192501,73037.5,89203.7,82830.2
148655,98176.5,98489.8,86433,165866,149360,77140.4,87952.5
52424.1,78849.9,31333.4,42388.1,63477.1,75179.5,70995.6,90017.3
77285.7,68346,74959.9,103105,131455,118144,81050.2,74296.2
69250.5,71555.4,140647,76023.3,193070,117658,76337.9,66815.5
82602.9,51447.6,48291.4,21620.1,123803,44991.5,87559.1,61135.6
58717.8,126022,43996.3,104831,65669.2,170420,69694.3,63280.1
77022.9,87838.2,71297.3,61593.7,147197,116275,66527.6,71551.7
103312,89155.8,81594.4,40795.1,177153,94985.6,81808.3,63771.5
88009.2,78867.9,57308.3,43925.4,145685,97942.2,80160.2,67390
135293,87001.2,135218,80735.4,227743,117009,90614.9,62278.1
119674,168697,99115.3,210643,171686,210974,73918.8,91217.4
71868.6,79356.6,50564,60737.4,70502.2,83119.2,71151.1,65148.8
69840.9,54705.6,48263.6,20933.4,71999.2,50746.1,66953,74192.6
74561.4,82598.4,62064.9,119332,80665.9,165849,74322.8,61852.6
92936.7,57253.5,102033,55712.6,217243,67950.1,61430.7,64608.8
83520,112226,96131,104624,109525,136787,62885.1,90508.7
88124.4,78979.5,134666,66710.3,170208,112960,66787.2,76566.6
80745.3,76167.9,58548.2,69415.2,96549.4,69701.5,85404.8,63617.3
133995,91276.2,84003.3,85004.1,147775,155894,76416.2,90143.8
86726.7,45459.9,77022.7,56981.7,98861,97893.5,78164.9,65585.2
90201.6,51683.4,100038,23206,155267,44442.5,65762.6,60859.2
76961.7,60084.9,61686.8,35900.9,84858.1,63880.2,67415.7,72543.6
103265,70164,79679,42937.1,128478,72762.3,70733.3,90506
75181.5,100117,62908.6,114508,132488,95955.9,61652.6,87800.2
57348,87469.2,45963.1,72463.5,104625,149953,75306.5,90255.3
117840,91060.2,155421,66204.3,250101,133038,92396.6,61933
78719.4,52332.3,42977.4,32877.7,94062.7,64373.7,93198.7,65796.8
78216.3,90312.3,76106.7,106028,114806,103795,77200,69195.8
87798.6,69175.8,62196.9,44962.3,130475,72951.4,75974,85365.8
88841.7,86324.4,73392,103037,123030,98837.3,91234.8,65177.1
104572,132392,115353,197285,153534,228409,68750.5,63654.2
76976.1,58428.9,101590,34478.9,184143,49755.1,89479.9,63129.7
112752,62772.3,99239,92947.9,204629,183390,93333.8,84270.9
81993.6,74690.1,73966.1,57162.4,131105,101125,71440.1,61707.3
78599.7,72547.2,52872.8,62322,110565,85455.8,76219.7,78882.2
71345.7,61478.1,61974.5,67405.3,74808.4,155195,85568.2,72156.4
67877.1,95586.3,43983.8,119828,69616.8,199704,82340.7,73250.6
90441,68387.4,114562,49040.6,173247,74182.9,86454.9,86996.3
85753.8,92799.9,74018.9,195380,181004,142793,82029.6,87600.3
70944.3,79201.8,140194,64643.3,198607,107735,78096.4,87963.5
79956,78160.5,53166.1,63826,121614,89147.6,67859.9,93185.8
48882.6,80336.7,16942.7,61550.6,40556,105758,61142.8,79927.5
75687.3,88013.7,50184.6,101378,79566.4,178591,79445.5,91117.6
80172.9,56691,68306,34459.5,153349,91509.3,75381.6,82824.4
51408,62280.9,38483.5,80002.8,48469.3,77813.6,64556,65518.4
62057.7,72855,25888.8,50550.1,65937.4,74741.7,92410.4,66603.6
77240.7,78868.8,64650.3,42446.4,126635,76996.3,78420,89323
139625,91143.9,118179,57715.6,198742,120617,74503.5,70454.5
75781.8,55026.9,60977.9,31963,93373.2,46649.8,93452.3,69114.9
77806.8,103559,52932.6,99137.6,114169,167466,88808.6,73814.2
94534.2,105660,71209.7,152530,132386,262143,79077.2,69894.5
69723,109069,77254.8,131871,93977.9,111350,78249.3,81118.6
97232.4,62484.3,109193,48898.8,174591,69116.4,67473.6,66350.9
69561.9,47927.7,45886.7,75440.9,70806.6,218832,67527.5,93576
115912,59103,194403,35654.9,189565,58211.8,80634,64486.2
63005.4,147268,33009.7,119051,60111.9,183922,80274.6,89937.2
75231,68592.6,54743.8,74062,125003,78729.6,66111.5,73848.6
104614,114206,76637.6,202018,97972.8,262143,62543.2,88216.1
116448,100812,102233,84058.9,180893,113848,62938.7,62899.6
51208.2,76589.1,38822.7,61988.4,64856,123064,60691.6,70612.5
91565.1,44640.9,74512.3,20855.6,178434,39620.6,83261.2,62603.5
73765.8,41808.6,70026.8,17295.8,69391.6,37642.6,70477.6,62396.1
84044.7,71984.7,103310,61375.4,161482,78881.1,63550.8,78319.7
71246.7,44467.2,44948.4,48231.6,62525,71728.2,71360.3,82832.1
67662.9,64323.9,63360.4,38295.9,99437.8,60832,65931.9,64663
68304.6,64559.7,53139.7,35713.3,70994.2,85201.4,69120.7,63162.9
80613,150871,76791.9,87656.2,176351,157832,70838.6,64667.9
78849,54134.1,66315.5,25124.2,117762,42357.5,69345.5,61299.8
83436.3,43346.7,87553.3,24109.5,155580,45049.9,76035.1,62137
81850.5,105065,81547.1,73743.7,155549,138113,67882.6,86665.4
84479.4,74877.3,98235.5,57908.8,172061,75157.3,88492.1,81783.1
49625.1,103562,19590.7,175130,41419.2,146628,61644.6,88627.2
62551.8,80780.4,39571.9,61315.7,55505.5,80966.1,61898.1,87763.4
88631.1,81924.3,100981,65829,181667,80895.2,88369.4,61747.8
92770.2,84383.1,91328.6,72295.3,114683,185536,79285.9,74366.1
68226.3,66847.5,39623.3,60011.9,81729.2,117057,90580.3,61148.5
60714.9,131053,29729.3,98904.1,61742.4,188959,87764.2,74563.3
58890.6,52740,51669.1,29531.9,84093.6,52644.9,80921.8,62368.8
88807.5,78159.6,144945,53745.7,215635,163702,83546.6,74379.2
53876.7,76221,23028.1,54539.4,56085.1,93185.6,63363.1,91982.9
61169.4,63432.9,63823.2,64555.8,77738.5,68810.6,73356.7,62424.2
120493,94270.5,69256.8,70208.9,128137,104575,67443.6,88994.9
96570,98848.8,53998.7,168936,117989,214107,82927.8,66795.8
83112.3,83861.1,50988,59838.1,110978,132328,70431.5,65483.7
91296,69585.3,125816,65723.4,182906,68657.7,66383,65562.1
83370.6,97592.4,75093.4,103959,99711.6,176508,83978.2,89310.4
116251,141465,121959,108936,206133,153717,75669.9,82644.4
87451.2,68550.3,125835,71454.3,126519,142563,63799.9,75472.4
104951,53652.6,88171.9,32261.9,173480,57647.5,86360.2,79086.2
68977.8,104602,69716.8,123482,107204,140326,77726.7,88696
125447,67587.3,79232.8,85764.4,175800,107771,62162.6,70560.1
121170,89235,82004.4,74466.5,147907,132082,90492,76037.1
91067.4,72164.7,94543.6,63339.5,134656,116848,84828.2,60823.2
102228,72187.2,56450.7,45935.3,119655,59824.2,77220.1,72855.2
52368.3,85665.6,22766.8,65200.7,40442.1,90999.1,63201.2,62985.6
78906.6,69183,66508.7,54376.8,130346,97450.1,82201.6,62943
85125.6,88015.5,77792.7,98345.3,181467,157851,91485.8,71673.7
79072.2,55714.5,78105.5,48559.6,94329.6,131974,73446.3,87190.9
103292,82675.8,74577.7,51015.8,124349,126812,80410.5,63078.7
80768.7,74934.9,38054,51474.5,118980,77951.2,61759.4,64656.5
108401,88841.7,94800.8,95625,167695,156956,71255.6,61312.7
50751.9,80511.3,26981.3,59689.4,62885,76194.2,66454.8,79245.7
68684.4,69633,30664.8,51662.1,66354.4,71920,79028.1,92475.6
150145,53957.7,128800,31248.6,184584,48497.1,93091.4,65725.5
110852,80603.1,88119,65519,158617,85934,64421.1,81141.8
91204.2,52244.1,56471.5,24176.3,137846,46788.8,77774.1,60717.6
151816,101717,125197,108085,213279,223655,92916.2,93058.8
90988.2,106377,118183,179210,209516,262143,67451.8,92723.9
84824.1,69781.5,59594.9,36646,95089.9,75504.8,91864.9,85954.5
102295,65811.6,98264.7,42353.3,180760,72380.1,92610.6,63034.4
66445.2,91031.4,50233.2,47065.4,66601.9,123037,66581.3,63219.8
59482.8,82547.1,30289.5,89969.1,51321.6,190683,72544.5,86150.8
71967.6,102139,41886.3,80385.1,84225.7,129221,92959.9,68505.6
81136.8,67500,61218.4,70648.1,144528,125814,88480.5,61075.4
87528.6,118382,67606.8,59872.9,97790.7,129156,90613.3,65609.1
74028.6,140526,46690.1,65373.1,91102,166429,92662.4,83415.6
61403.4,76968.9,35357.4,94632.6,65952.7,93002.1,61405.8,64818.7
92121.3,96738.3,107644,81786.2,204715,148530,93001.3,73286.4
77385.6,80759.7,54033.5,137381,72709.5,251109,62400.2,89472.5
143170,74890.8,80112.6,61449.1,174004,122203,82066.8,80814.7
58819.5,87039,54371.2,100678,78821.3,108930,83308,84610.1
60056.1,78208.2,37076.9,159842,61325.4,262143,75278.6,88716.5
105236,72126.9,105238,68333.8,177003,88094,69479.3,73290.9
66434.4,98633.7,48697.3,128307,74112,133879,63118.5,64984.3
53160.3,72798.3,25309.1,69131.6,55195.5,86053.5,61533.1,76209.5
73543.5,78838.2,48167.7,67089.7,106314,89143.5,67135.6,60902.3
93663.9,85500,69438.8,93105,124096,91812.3,82110.5,65918.2
77960.7,65295,39925,34234.3,76512.5,64169.3,60909.9,79858.6
87153.3,120289,111300,94593.7,188180,151775,70601.9,61826.9
89727.3,72541.8,111959,57155.4,191431,131077,79078.4,76738.3
71111.7,42634.8,61693.8,18563.4,82490.9,43515.3,89975.2,61828
95491.8,99678.6,82390.9,83313.8,133283,140917,68162.7,69551.4
80108.1,71861.4,113945,96018.4,228401,124929,92868.9,74704.5
74800.8,63344.7,71194.4,43844.8,86831.9,66891,84053.4,68366.8
112833,69634.8,75698,32202.1,146785,68507.5,61730.8,73891.4
86072.4,71244,62556.9,85579.5,107439,195751,68753.8,87030.3
83812.5,101520,94652,149376,161070,232917,89803.9,93341.7
87844.5,71549.1,158232,45885.3,153463,71279.2,73823.6,89976.1
57989.7,86058.9,26264,124253,51366.1,110798,66385.1,63203.5
67179.6,94125.6,34558.2,101603,72082.6,167602,83547,77602.1
169260,49476.6,106025,27990.4,215603,45864.4,70477.8,61702.8
84980.7,74711.7,85618.4,64148.5,141041,97028.9,62211.2,87883.8
83919.6,66132.9,82351.9,41373.3,165156,109151,83979.9,64695.6
109741,53816.4,71508.5,28235.1,168329,60523.4,85814.1,78165.9
68750.1,93630.6,35187.9,47004.2,66303,85985.4,83503.7,72084.7
71270.1,50321.7,42949.6,30609.2,67524.8,42283.8,72831.2,60852.2
100894,54073.8,110872,36402.7,185404,59330.8,79919.9,75090.2
73894.5,86108.4,52701.8,57622.4,81328.9,104682,85360.8,71693.3
69698.7,90852.3,62779.3,147743,67745.8,149909,62835.8,90899.1
121295,56036.7,69355.4,27270.4,151239,62616.7,79335.3,85759.8
90885.6,96458.4,81522.1,106279,137370,218106,86207.6,89464.2
60974.1,81699.3,34634.6,85508.6,59783.9,93727.7,81409.1,67534.9
108442,42365.7,70831.6,15985,111087,41889,70101.4,61527
93483.9,88171.2,70431.3,56143.5,162341,151535,85876.2,88666.2
90485.1,92942.1,192372,113279,135884,182745,66957.6,87232
74555.1,47961,68368.5,26567.1,89578.5,47946.7,62478.1,69804.1
102200,68595.3,102917,52255.7,158171,82760.6,73884.7,83324.5
65896.2,81770.4,83363.9,96720.4,85849.2,140350,76796.7,92603
103890,78973.2,59953.5,65801.2,124955,152662,86867.7,74500.6
57472.2,76704.3,32359.2,43261,55726.5,74770.9,61328.2,69064.2
73174.5,57417.3,41666.6,30201.9,83512.6,53649.8,93694.8,65891.8
50910.3,92932.2,25261.9,178771,53241.2,262143,65360.6,62448.3
79640.1,71688.6,120613,57394.5,163628,80226.6,78521.4,73174.3
63604.8,86781.6,44197.8,84537,68085,78414.1,89665.2,61277.4
80606.7,77950.8,96960.8,62714,103206,119527,81081.7,69361.3
69109.2,69450.3,57293,60694.3,83223.5,79292.5,75439.1,72209.2
106384,116712,98460.6,83515.4,151226,173945,65353.5,84320.9
61419.6,75193.2,62135.8,71394.6,74340,126522,60853.3,68495
62303.4,73146.6,29039.9,48256.6,64127.6,77783,71212.7,71478.5
81738,94356.9,61489.4,114297,125157,172435,61985.1,75514.4
59565.6,99304.2,51300.7,89036.4,68308.8,134072,62294.4,63496.5
90460.8,111460,117002,99701.9,170702,162499,83802.4,90610.5
83322.9,176007,77290.9,147194,137684,262143,67506.8,86810.8
84766.5,86513.4,107699,81754.2,181036,142139,89563.3,64520.9
89665.2,98940.6,69394.4,78272.3,126004,119404,63145.2,84475.8
96618.6,85508.1,110258,108102,184477,109147,68880.6,64872.6
99954.9,103463,106438,141331,154872,210952,67548,67868.4
75169.8,58590,59671.3,24163.8,130966,61667.3,87211.3,74163.2
133930,65739.6,92373.8,48308.1,174302,63973.4,91928.5,73792.1
54685.8,115984,36869.8,92633.8,131188,159604,80389,70922.5
107687,49330.8,115537,46659.5,161012,102193,74092.1,69071
87751.8,96246.9,84605.1,119493,168982,132029,71263.6,93551.1
59909.4,65081.7,54397.6,36401.3,73184.9,65849.9,62594.6,85135.6
55638,75616.2,32571.9,51819.2,65054.8,67415,67701.5,74435.9
80748,77589.9,100006,59048.6,188440,112793,72018.7,77419.8
62722.8,78719.4,39184.1,63195,67408,136310,68297.2,76331
64651.5,65022.3,37370.1,30730.1,68931.5,67346.9,72353.7,66082.6
75852,50822.1,38646.2,30994.2,65367.5,50690.5,74765.9,70380.2
66223.8,50174.1,50641.9,30866.3,72513.5,54861.9,68792.2,63810.9
64684.8,113276,44377.1,132436,69415.2,222968,63525.8,89874.6
90320.4,106152,78407.1,116935,147833,164481,70346.7,78743.7
54959.4,49700.7,28103,20110.5,50539,52522.5,66861.2,61088.1
64315.8,74888.1,53658.2,42973.2,136012,100216,64577.7,64535
78799.5,53950.5,60141.1,37263.1,94695.1,59660.2,74528.1,65256.9
59130,44934.3,19386.3,15776.5,54071,47674.2,75079.7,61159.5
67699.8,58059.9,45180.6,51285.4,77935.9,129276,77863.5,80781.9
62764.2,90214.2,43899,67715.2,67366.4,132984,79514.4,87082.5
106568,68946.3,77684.3,35112.8,152660,83798.9,82200.2,63217.4
78326.1,68579.1,52195.9,54923.1,81014.8,72727.6,77864.3,80316.3
44957.7,52203.6,16717.5,31063.7,45368.2,55695.9,61604.3,70874.6
50547.6,124460,27453.9,136559,58663.6,212969,66187.7,90526
50580,141599,21387.9,92853.4,50099.8,164242,63064.8,89948.1
89530.2,62038.8,63122.7,46399.6,122734,63019.8,72178.1,63944.7
59705.1,70175.7,43205.4,51569,62145.5,68810.6,65579.4,72083.3
56340.9,78027.3,32945.8,98314.7,63498,161916,76053.8,80012.4
101404,47501.1,97332,27599.8,135886,55098.2,87122,61436.1
91987.2,127429,111755,165834,217207,141592,93623.7,84584
86174.1,77112,68354.6,47129.3,177923,79551.1,74268.7,85909.7
56114.1,62275.5,53597,70627.3,97762.9,73854.9,73597.8,62888.4
71837.1,67456.8,65467.6,43865.6,77948.4,63735.7,83715.1,70676.5
119748,71440.2,93923.7,110366,194350,262143,64224.6,93495.4
58719.6,74636.1,71301.4,90432,172992,170035,89060,67708.1
103299,101948,96874.7,65613.6,224810,135956,87684.1,66411.5
78201.9,80500.5,68162.8,57313.9,136631,140519,63731.4,73686.3
60041.7,107656,28489.4,104218,61400.5,152742,77150.8,84934.6
81960.3,63056.7,67505.4,35932.9,131696,66072.3,74404.8,79034.7
72939.6,93188.7,52094.4,63858,78415.5,106436,92121.3,71899.6
99705.6,64448.1,65416.2,42493.7,153977,92882.6,91161.3,74813.3
75302.1,78663.6,75450.6,72453.8,141128,96746.8,68599.2,65030.5
74138.4,75048.3,62124.7,160938,107175,207610,63594.3,85951.3
80015.4,71099.1,77118.6,87996.7,154993,83041.4,81281.9,60815.4
65417.4,82683,64254.1,49484,67277.4,83672.4,62049.7,90625.4
104060,59546.7,120470,55580.5,210696,85708.8,81494.9,64937.7
81621,74838.6,81112.1,46366.2,116440,68047.5,91288.8,70154.6
64282.5,114525,35785.6,96523,82924.6,129702,70621.9,62658.3
79688.7,58719.6,55234.4,24954.7,111598,61269.8,62640.7,73025.8
94200.3,120217,99336.4,101777,194408,150483,79529.2,93014
138308,80019,85031.9,139221,185477,261898,62429.5,72677.7
71657.1,59814,33002.8,36316.5,68440.8,69508.3,93180.9,69892.3
70004.7,62660.7,53164.7,34656.9,70418.8,56627.2,77454.6,67447.6
80677.8,77706.9,41630.5,69458.3,103665,96087.9,67937,71825.6
90575.1,136845,83954.6,93676.3,129515,129440,75500.3,90284.5
123469,65393.1,69388.8,68314.3,126105,70270.1,66697.1,76934.9
80990.1,85206.6,40425.4,52782.5,99875.7,145350,65227.7,82638.3
94961.7,67741.2,51127,46141.1,128400,109711,83614.9,70947.5
105830,48168.9,99756.1,16067,186416,44391,70309.3,61014.7
97315.2,91071,79514.9,98514.9,197719,141039,80965.8,67668.5
90011.7,65699.1,64012.3,59252.9,154918,121853,70826.5,61845.8
57184.2,80900.1,55711.2,79173,63096.3,99925.7,68566.1,85909.9
104462,54249.3,92119.5,28275.4,115624,58389.7,78580.7,71671.3
90213.3,53938.8,81494.3,34723.6,160382,53073,91958.8,67905.6
65805.3,75861,80141.8,65642.8,76658.5,107455,66845.4,91586.6
59629.5,92456.1,27880.6,54260,67419.2,105393,83563.5,89896.2
61490.7,57062.7,55801.6,42529.8,76505.6,57680.8,63202.9,62158.6
71406.9,50226.3,62914.2,19133.3,82467.3,49307.5,78836,60761.9
56255.4,141963,53017.4,114689,78301.5,150302,61374.3,61508.5
48052.8,70180.2,24247.2,96106,45722.7,168233,61522.8,91908.1
80595.9,92505.6,83355.5,53326,174583,172516,66198.7,75355
63103.5,65625.3,29672.3,81986.4,59892.3,132375,72584.9,65912.6
113931,71090.1,100414,41762.6,148041,72313.4,68955.8,64633.4
81341.1,119720,60367.7,94439.4,84848.4,199598,61060.6,65971.2
70586.1,85033.8,71219.4,88249.7,88925.2,221359,64845.3,92992.2
91152.9,73584,61867.5,45115.2,94570,71430.7,62282.1,83742.8
86916.6,110090,109140,189464,191285,196660,63451.9,92655.1
97832.7,136553,105545,115517,204404,206629,76422.2,89892.2
49644.9,66089.7,23050.4,52218.1,38290.3,68144.8,61162.5,73304
88344.9,69894,76319.3,53752.7,159494,126263,90547.1,71058.9
145662,72766.8,104581,57358.3,191008,106452,92183.5,66977
77100.3,83656.8,57876.8,60380.2,82956.6,152826,74951.7,75572.9
81098.1,76652.1,57010.8,56988.6,116634,73536.6,61661.8,64943.1
86892.3,84989.7,68564.5,91393.9,126475,150880,71106.1,63988.4
92778.3,68308.2,95648.7,67606.8,118235,75852.3,69504.1,70695.1
83968.2,69177.6,85244.5,93852.8,169310,85738,72266.9,66685.2
102233,77067.9,54353.2,62740.4,116526,143467,87852.4,83377.4
76657.5,102326,52501.7,115690,104557,113902,84224,83393.6
76098.6,75976.2,41480.4,77956.8,73161.3,171109,83941.1,80954.7
105034,94898.7,76163.7,48725.1,160399,125292,83962.8,80740.6
62367.3,87345.9,65652.5,55597.2,154832,123745,60700.6,65467.2
145832,98207.1,106706,75468.7,217017,140466,72044,81327.1
69096.6,69834.6,37421.6,71995,58218.8,86442.7,60874.1,61502
107458,69771.6,101533,72791.5,223012,161421,90176.1,76725
110057,57863.7,134113,50401.4,142431,137446,61236.8,89419.5
70956.9,79924.5,56584.1,52681,70520.3,108837,64967.4,67218.2
57794.4,70247.7,26239,29552.8,55650,79538.6,71893.9,65636.8
75375,81877.5,76205.4,83565.4,167913,144215,92774.5,62267.5
57991.5,93807.9,50612.7,79421.8,73182.1,138732,65957.4,74200.2
66554.1,107942,44150.6,85614.3,67185.6,111700,76142.5,91434.9
55442.7,113601,42771.7,89891.3,68030.8,135814,69176.9,77390.4
74835,82809,62780.7,99250.2,146905,208126,72083.1,87943.2
50673.6,101703,35584,97368.1,59614.3,246376,61170.8,91490
56877.3,53537.4,24273.6,85494.7,55930.8,210524,63477.9,69086.9
89955,64697.4,68433.9,31653.1,123907,72655.3,68585.7,90235.1
67260.6,109753,47943.9,73906.3,70113,138451,82693.6,70278.6
78624,76905.9,70386.8,63705.1,91563.5,144410,79720.3,61641.3
75874.5,53655.3,41049.5,25010.3,72181.3,42222.6,91411.1,62942.5
70359.3,101372,79278.6,145901,94463,216587,89929.4,77247.9
60969.6,68636.7,33731.1,57391.7,51239.6,143536,70473.1,78905.1
67882.5,86374.8,55691.7,98765.1,74199.6,164954,81716.3,63131.4
84498.3,137955,62423.5,131317,87770.2,200249,76320.7,64911
119608,101092,126523,114159,167178,187138,79868.1,78941.7
89639.1,99476.1,60085.5,116714,96404.8,130083,86851.4,64807.1
95753.7,65109.6,80418.4,43209.5,138679,67327.4,90763.5,64948.2
108824,67959.9,152790,52704.6,221136,71129.1,87839.6,63854.2
77350.5,64832.4,82923.2,41691.7,168853,66346.1,70738.5,75501.3
43229.7,80712,15745.9,109715,49379.8,197897,60880.2,69715.3
135408,97573.5,180282,77489.7,213935,114553,82866.1,68589
124463,106960,172025,87437.9,166015,159195,61302.6,62982.5
77833.8,69373.8,74252.4,57787.9,172132,82803.7,84499,80555.5
63271.8,85573.8,39498.2,96826,57144.3,158122,68284.2,82766.3
71886.6,79682.4,48837.6,77018.5,77400.8,152612,87084.5,77637.5
79988.4,106513,78298.7,113367,151283,106088,64085.3,75158
79372.8,65726.1,87401.8,37580,166059,69413.8,70258,71839.6
78588.9,114892,50850.4,142567,135276,182385,83177.1,88302.6
82112.4,68340.6,116011,45045.7,173885,63506.3,84060.5,67992.1
79330.5,57578.4,134837,43997.7,240192,72955.5,88251.7,71263.7
57528,68841.9,40870.2,49068.4,63363.1,62727.9,62562.2,79298.2
53214.3,57645,41680.5,26651.9,55406.8,54343.4,69681.2,70983.6
64338.3,58806,36422.2,37895.6,71337.6,63767.6,70461.2,70023.1
72012.6,101091,66276.6,87406,81288.6,188679,83377.1,65676.6
59860.8,66649.5,25001.9,63289.5,52981.2,114846,75988.1,68530.8
115904,79933.5,84485.6,102515,153206,94432.4,79061.8,68961.1
84814.2,99415.8,64436.2,124424,139609,248576,65779.2,91558.2
89968.5,63513,77935.9,56771.8,135207,82967.7,60894.8,84738.6
45343.8,71263.8,15551.3,36409.7,43990.7,72801.2,62005.8,93784
94002.3,75326.4,161678,46667.9,135536,82477,65955.4,91033.4
91988.1,68551.2,67864,55098.2,109828,74638.8,68624.7,88106.5
64364.4,86589,45193.1,71671.2,65164.6,137285,77842.4,89540.9
58612.5,101362,38102.7,97208.3,61096.1,125842,74929.4,72200.1
54710.1,47869.2,31914.4,24416.7,51798.3,68820.3,65485.7,66073
122374,80844.3,90547.4,57363.9,155167,123513,64633.2,69473.2
96927.3,74161.8,89933,51769.2,110638,88611.1,80300.8,88098.4
66384.9,89256.6,27592.9,77001.8,75611.8,173615,93422.7,70877.2
43184.7,84658.5,22112.1,72890.2,51876.2,139028,64677.6,89403.9
88513.2,72675.9,98039.5,45255.6,158072,75189.3,73981.1,81539.8
81083.7,115334,64797.6,199130,162376,246792,92970.4,63364.1
119002,52080.3,153563,20285.7,210509,52095.8,81220.8,60974.8
68871.6,98535.6,89395.1,99421.1,152705,262143,62930.1,90594.4
76687.2,90542.7,87816,106838,146214,108362,65969.3,61544.4
80747.1,89297.1,52799.1,56194.9,97347.3,120110,63693.3,67865.2
80550.9,102821,61351.8,81132.9,128304,137130,72781.4,71673.3
124568,118603,114024,219580,199313,262143,82791.7,90761.2
56864.7,102081,49659.1,100793,70413.2,168154,69043.1,91989.4
81658.8,50647.5,79352.3,32223,163054,60342.7,62986.1,63629.5
85519.8,72171.9,74408.1,90090.1,133175,123589,70670.7,61745.9
103384,89925.3,74449.8,77416,112509,126345,62852.5,92588.9
47583,114609,10826.7,145996,35490.9,237812,62046.3,91835.1
86519.7,44581.5,68703.5,18036.6,144796,40485.1,93674.3,60703.2
57553.2,53963.1,38799.1,35677.1,59532.3,54943.9,69796.9,72974
77450.4,47419.2,96532.7,21197.5,93559.5,42984.4,70153.6,61803.6
47321.1,86016.6,30962.2,73290.5,52276.5,136524,63455.7,69555.7
93397.5,138487,82269.9,156668,122705,253311,82732,83147.8
45790.2,73666.8,24828.2,50141.5,52480.8,82976,62414.1,88325.1
87265.8,71884.8,94932.8,70001.8,207551,83580.7,91348.2,85500.1
82520.1,63381.6,74442.8,50220.7,92251.5,65202.1,92646.9,78290.6
81534.6,66114.9,56149.1,74399.8,109962,146111,61005.2,69424.5
69573.6,78939.9,46641.4,82026.7,66650.5,87874.4,60773,65398.2
81541.8,92337.3,58749.7,92932.6,128376,137257,86478.7,75044.1
91615.5,65472.3,84224.3,44347.9,183433,94828.6,77811.5,67285.3
75272.4,82447.2,53334.3,47090.4,103196,115066,75502.1,81788.9
68877,51474.6,52165.3,36227.6,103940,48773.7,66107.6,62026.3
77969.7,98808.3,52282.1,181410,91913.8,262143,73451.1,93218.7
89200.8,45417.6,78790.8,37372.9,161871,51780.3,88837.8,62232.7
99460.8,75510.9,64020.6,55056.5,185379,99133.4,88090.8,63446.4
52828.2,63385.2,41675,44952.6,63568.9,76808.6,72976.7,86812.4
99392.4,86577.3,69383.2,80140.4,137932,133494,64573,77567.4
92845.8,60042.6,73967.5,61129.4,101431,139680,63718.6,61287.1
55529.1,65799,33062.5,39039.5,68732.7,68338,69975.2,76168.3
83907,83556.9,47058.4,77960.9,109692,98808.1,65255.2,91174
85958.1,67668.3,73130.7,40461.5,146006,70612,78759.8,92584.3
96813,56115,121999,34422,125662,52947.9,67368.7,60886
76806,66172.5,72427.3,35781.4,134930,92802,60782.6,93023.2
81008.1,59948.1,67858.4,48815.4,83469.5,92055.5,65166.5,89649.5
73851.3,99913.5,58216,99973,81930.8,220900,85388.4,84120.6
75947.4,43883.1,56375.6,17954.6,136944,44546.7,66060.1,60691.1
79985.7,67745.7,103048,72298.1,95190,141480,89018.9,74977.3
95352.3,50658.3,83437.5,22784.9,171204,54529.7,84564.6,74485.4
78001.2,48445.2,49028.1,30250.6,119466,52888.1,73610.2,75784.9
60077.7,103683,54522.8,190367,68837,215111,74508.1,91748.6
54507.6,57481.2,56332.5,114807,79514.9,243339,79842.9,84383.5
47582.1,65808.9,19375.2,74176,35547.9,82328.3,61247.9,61650.4
82205.1,49803.3,94321.2,23129.6,120216,38762.9,76259.4,61223.8
55096.2,82394.1,52063.8,85656,61186.4,97530.7,65052.7,93604.1
81897.3,101209,80305.9,81306.7,203998,132699,86417.1,84181.7
70596,60007.5,29775.2,53644.3,54998.1,74567.9,69181.9,74303.5
83794.5,95427,59966,76994.9,110518,136862,72834.3,62636.2
96079.5,75222,55096.8,55163.5,151894,92726.9,93529.7,62842.3
75204,86283,51777.5,130563,111303,115469,71500.5,74160.1
89790.3,64871.1,93661,45622.6,203995,63228.3,85155.3,74079.5
49230.9,64734.3,25242.4,35935.7,37456.3,62399.9,61795.2,61159
82814.4,66020.4,56314.5,39249.4,129287,76113.6,74856.2,86380.1
48996.9,48873.6,52336.3,24935.2,59914.6,40836.8,70451.1,61518.6
68255.1,70536.6,51810.9,44659.3,76440.3,69037.1,67740.1,74688.8
42916.5,92887.2,42278.2,104374,66101.5,186721,73379.1,83920.1
86500.8,64209.6,92314.1,130727,176358,231192,84490.3,89249.3
64149.3,86886,38012.3,188731,78927,156118,83195.4,85164.5
81673.2,91903.5,58398.1,81533.2,114294,122826,64266.9,79328.6
96923.7,55465.2,86590,60303.8,124509,65442.6,90093,61150.7
75735.9,74254.5,101249,42235.1,193171,73464.3,69388.4,68878
116318,96611.4,216472,78569.8,141783,89260.2,61250,92918
61868.7,50642.1,29408.2,20064.7,70696.8,47977.2,92218.6,60834.6
66933,91889.1,41352.5,118532,63411.8,107029,66634,76775.4
92648.7,64932.3,53556.7,43682.1,112634,62579.2,72279.7,76895.1
97752.6,134482,88951.7,109939,140864,177527,72567.7,78363.1
81196.2,81010.8,99009.7,50576.5,202779,134081,78440.9,64613
98201.7,97705.8,122182,78756,185326,102825,79638.2,69955
88191.9,68666.4,81059.2,48459.6,169132,70188,82943.4,77889.6
84512.7,51850.8,91284.1,21939.8,118902,40610.2,76384.1,61928
103799,73696.5,163250,103609,180403,174207,74812.9,82436.1
93530.7,81268.2,71473.8,94335.1,138379,87943.9,80813.2,82490.2
51777.9,54348.3,21218.3,30496.6,44143.6,60423.3,61767.4,67986.2
110397,66546,87500.5,60178.7,180532,74979.4,90390.3,60830.1
89182.8,67782.6,64343.1,60722.1,95534.7,126968,86040.5,86774.4
88510.5,87995.7,64159.6,66542.1,99304.4,122850,80990.6,69852.6
64864.8,109801,48584.7,55901.6,77881.7,123675,89308.9,79737.8
63165.6,96988.5,41858.5,85232,71237.5,179106,73368.4,90285.2
48917.7,75381.3,59938.2,84428.6,72970.8,206886,65226.3,75595.5
92349,81588.6,106763,68432.5,231279,86808.3,82382.2,75206.4
124451,86802.3,146407,77719.1,173911,181951,79274,69569.8
81418.5,88062.3,55258.1,100728,121536,184343,87460.8,68436.7
67405.5,88976.7,40611.6,61820.2,68710.5,114355,87697.9,67683.8
45725.4,96372.9,23951.1,85651.8,47625.6,116386,61267.4,87544.3
72983.7,50588.1,71889.4,29337.3,95062.1,60445.5,74429.7,70262.9
77859,84037.5,66909,122627,142593,165777,61241.7,78496.3
80916.3,63658.8,47161.3,95094.1,71070.7,181905,64128.8,89281.9
77991.3,57260.7,77823.3,52746.3,178611,59015.2,89801.5,62292.4
58255.2,71112.6,34234.3,61055.8,59182,126671,80758.8,66170.7
117112,51936.3,116921,17925.4,200623,49393.6,82869.1,60724.1
62964.9,60434.1,44336.8,32608,60966.8,62301.2,63531.8,82625.2
118982,82476,102043,43128.9,184350,114754,91619.6,84833.8
77773.5,53889.3,53679,88570.8,82300.5,212987,61007.7,67451
141171,88220.7,143002,114326,221684,185958,83272.1,83887.4
56600.1,59100.3,46748.5,31334.8,71294.5,54606.1,69253.4,69371.3
58651.2,113544,37514.7,71746.2,68039.1,152787,86150.4,87033
96169.5,68915.7,100136,45380.7,171315,66903.5,84235.8,78684.5
77039.1,96668.1,54547.8,102618,119073,124801,69241.9,78167.2
46318.5,86779.8,57625.2,85750.5,69889.2,164801,74747.3,84773.1
91788.3,69790.5,85835.3,43618.2,176440,123240,72551.9,81846.8
68780.7,45246.6,86054.9,18892.9,169302,42917.6,68513.6,61088.2
57543.3,86432.4,42372.8,73593.5,60641.5,78428,77911.2,70859.6
116062,70327.8,109248,60833.3,196554,99562.9,70087.1,92618.6
137340,42339.6,84438.3,19893.7,181843,43625.1,62707.8,60732.1
44395.2,54670.5,12494.7,24393.1,46515,59581,61298.7,74636
97455.6,47614.5,80401.8,20915.3,152496,46902.8,61111.9,61132.1
59508,91566,29880.8,75894,54001.5,110176,61453,90941.1
83993.4,47808,131602,21878.6,202490,42905.1,93724.6,62832.9
68583.6,96316.2,52668.5,87977.3,81540.2,117024,80288.6,80938.2
99716.4,79340.4,83778.1,69306.8,160291,133366,68631.5,76138.6
66936.6,61628.4,53570.6,41234.3,64630.8,67125.9,67287.7,80524.7
56601,84876.3,27964,52835.3,59214,82257.4,79605,87889
89941.5,79094.7,97106.8,86705.4,179006,147564,61321.1,86086.5
114406,56159.1,110201,44342.4,149690,59909,65200.4,63187.7
81819,76587.3,110310,76483.4,111167,149418,69605.9,89087.4
72567,52416,80293.4,21996.8,85653.2,36042.7,90922.7,61039.4
62369.1,59191.2,44182.5,51140.9,73581,72683.1,69685.5,66896.1
102932,68704.2,63279.8,53527.5,154745,67673.5,71277.6,62254.6
45056.7,82722.6,22416.5,73916,45036,134934,62788,73287.9
57894.3,118468,37885.8,169428,60068.8,262143,63523.9,93787.2
114886,151875,123799,129402,196214,190967,82077.8,81666.7
78731.1,48690,52058.3,67220.4,73553.2,97015,76740.6,66881.3
140552,49594.5,128389,22967,201582,46160.5,73505.9,63740.4
63229.5,97767.9,61396.3,65003.3,97212.4,139916,73799.7,78011
111632,88468.2,86060.5,56577.2,170788,121447,91208,67412.1
67402.8,56220.3,49839.8,138402,76215.1,229357,93419.5,74058.3
76706.1,82106.1,49805.1,104689,76037.2,196242,70844.4,66400.4
51990.3,53145.9,23236.6,26522.6,42399.2,50821.2,61470.8,60887.3
65623.5,66425.4,80173.8,77409.1,84566.2,99258.5,63244,75973.2
116109,57770.1,65086.8,35864.8,138786,61408.8,75861.1,65366.7
65893.5,70029,52241.8,87287.8,77139.4,84710.8,61982.2,62349.2
116933,60903.9,150884,45049.9,159732,60567.9,72305.3,68919.3
73161,82864.8,60021.6,154892,82179.6,254503,81492.8,77376.2
111621,71598.6,69755.8,51018.6,144371,75233.8,80750.6,86293.3
52901.1,76372.2,21529.7,49471.5,42044.7,86288.4,62455.8,84104.3
76950.9,104809,65836,105455,94645.1,159505,84647,64574.9
59158.8,79305.3,78767.1,48456.8,91999.9,145908,68535.8,67260.6
91615.5,51066.9,53897.2,17430.6,148720,48433.2,89490.9,63309.8
70556.4,77632.2,57069.2,46754,96111.5,70696.8,91036.5,91669.6
97829.1,88672.5,88183,61927.3,184566,121312,91789.9,81884.5
69735.6,74347.2,75985.7,123230,80596.4,262143,68413.4,74697
105358,77894.1,117094,84926.2,221652,221672,86188.4,90973
68067.9,42039,51947.1,22815.5,70158.9,55844.6,72811.6,63871.6
87653.7,90100.8,117563,89249.1,230031,146171,93352.8,65375.9
80657.1,66266.1,64673.9,51627.4,153745,75875.9,85235.8,61864.1
53164.8,76500,19800.5,103505,44979,186877,62138,93209.8
63576,97405.2,45098.6,110241,63689.8,161675,74773.3,66994.8
89662.5,73583.1,71601.7,66988.3,177860,66294.7,77651.9,63757.1
54261,76366.8,22951.7,85850.6,56083.7,115374,75855.2,90519
58662.9,51235.2,32531.6,26654.6,56864.9,41701.4,64996.2,61296
72071.1,52791.3,63011.5,22183,122381,45193.1,60832.2,61220.2
112556,72378,93684.6,48441.5,176606,79574.7,62717.8,88757.4
99813.6,115870,66023.6,106188,141719,166742,68532.3,73274.6
85645.8,97227.9,74469.2,95976.7,127655,144254,76029.4,70891.4
97146,127009,90990.8,139564,151278,262143,66804.9,88517.8
81150.3,52298.1,62355.4,25869.3,99568.5,48914.1,89551.5,61433.7
71496,43757.1,50851.8,24311.1,87137.7,53573.4,87527,60806.2
77909.4,80211.6,91734.4,54767.4,184043,124957,92446.9,78356.5
112947,77076,68607.6,36646,129035,93524.8,61049.2,88365.8
69035.4,93332.7,37948.4,66685.2,68692.4,128721,72349.1,63564.9
61222.5,54181.8,52365.5,24502.9,71808.8,38867.2,64565.1,62779.4
64763.1,65550.6,54289.2,44360.5,64015.1,112981,62095.3,63938.5
81307.8,119396,84171.4,110137,184379,155830,89826.8,82311.3
67051.8,67430.7,67027.2,44406.3,78796.3,67470.6,66577.1,65485.3
71022.6,62487,53294,38012.3,92389.1,58631.6,70101,65102.2
70532.1,98797.5,38498.8,136099,86242.5,93584.5,82075.4,66461.2
85874.4,99263.7,63945.6,75657.7,109147,126270,76405.5,86883.1
80457.3,75931.2,95737.6,58877.6,154938,90847.6,71541.2,93744
69480,75451.5,106246,113709,220433,108555,69765.2,70691.5
85318.2,92464.2,61909.2,55327.6,121143,126382,67646.9,68298.1
56267.1,81747.9,50782.3,82830.1,58270.2,131958,61577.6,66525
51170.4,69900.3,27014.7,77336.8,41652.7,83103.9,60829.9,82625.9
93021.3,67248.9,81729.2,30751,193773,71486.3,92243.9,75163.4
64358.1,57041.1,37044.9,25865.1,61148.9,53629,62388.8,61174.1
74904.3,70425.9,35485.3,46704,69217.8,82199,88011.7,87984.3
64090.8,80705.7,41088.4,98367.5,54988.4,125258,65159.1,74334.4
67883.4,103586,55861.3,203478,64077.6,262143,65493.9,83694.5
74779.2,53867.7,63131,43160.9,162598,72277.2,85608.8,64959.2
48192.3,69639.3,29153.9,53825,56181,80767.3,61077.7,83798.9
52282.8,79042.5,30630,118534,60198.1,175214,65153.9,86769.4
63289.8,98973,33461.5,70593.9,60497,136993,68322.6,91824.2
67688.1,96471.9,63425.7,130666,75079.5,170440,61990,76643.6
68872.5,111395,55194.1,69245.6,66439.2,187547,62400.8,87195.8
95563.8,63244.8,71208.3,52287.6,102804,59601.8,75239.7,62248.3
50147.1,119647,19316.8,150866,46660.9,179250,60927.7,92276.1
47799,94698,17368.1,98168.8,39963.9,172136,61631,78297.7
50037.3,155797,19704.6,196032,43388.8,246767,61279,93547.1
50559.3,46890,20826.4,25979.1,35317.1,42200.4,61812.1,62486.7
69597,99255.6,44274.3,118567,97434.8,135337,62379.3,74141
63104.4,64408.5,39588.6,39381.5,65013.1,68731.3,61377,83622.4
74569.5,56018.7,59592.1,26643.5,90092.9,57076.2,76798.1,83552.6
64684.8,49191.3,52628.2,17341.6,83245.7,41497.1,83157.6,62761.7
117411,88953.3,65745.6,78521.1,141294,109995,61858.1,66238.3
92317.5,87310.8,94620.1,53050.7,159351,136872,70434.6,90726.8
91123.2,51394.5,94083.5,26599,191504,51803.9,86489.9,64379.9
78075,106700,75531.2,63270,115947,134858,71446.3,74903.4
61391.7,49038.3,41020.3,16810.7,61483.9,48239.9,61321.6,73109.8
104528,58557.6,91227.1,33590.7,148312,59611.5,64730.5,64423.8
74880,89345.7,56732.8,62725.1,88053.7,148428,67715.3,75211
72325.8,180001,60932,130668,69862.8,247915,61174.7,91895.7
44943.3,106531,22447.1,156292,34901.5,137520,62748.2,76065.8
82746.9,125872,62304,117615,118075,191153,82473,66121.4
75274.2,55305.9,67401.1,63732.9,123428,77195,70921.7,62212.6
76572.9,106160,57540.4,124825,117242,241959,69225.1,87672.3
77655.6,93909.6,48606.9,61119.7,93966.8,103127,60881.4,90815.2
82993.5,71624.7,55248.3,59828.4,139594,88640.3,60784.2,64200.4
67673.7,82658.7,29773.8,52535.1,63995.6,123856,82875.6,80741.1
72144.9,94895.1,80415.7,71836.6,88523.5,111311,65622.5,85870.6
68297.4,55319.4,37821.9,24476.5,83818.4,55442.9,91055.1,62105.1
97850.7,76555.8,79859.7,51834.5,134637,79774.9,81421.1,78620.1
71153.1,73953,50051.1,53891.7,88013.4,71942.2,84506.3,77666.4
65070,84035.7,26275.2,124509,61002.9,215254,87446.2,89236.1
104813,65046.6,125292,27601.2,162109,55793.2,83994.2,67417.3
89794.8,68835.6,162795,68153.1,121927,79236.9,76194.7,72179
51816.6,49960.8,29078.8,20794.4,72200.8,45707.4,73364.9,62315.7
58050,54594,29818.3,23097.6,48893.2,53954.2,62991.9,63844.5
83854.8,86706,56794,48708.4,126565,87920.3,92851.8,90246.8
68670,72673.2,47283.6,61949.5,66672.7,102829,68434.5,78793.4
48684.6,103165,28311.5,45783.8,52957.6,130286,78074.8,67417.1
85392,62492.4,87437.9,35111.4,103334,53748.5,68600.7,64270.6
42948,81038.7,22341.5,75242.1,45152.8,139406,61112.9,74735.4
83587.5,79419.6,58940.2,57486.2,122103,80867.4,89411.2,61736.2
66455.1,75008.7,46299.5,50858.7,72024.2,131476,83978.6,78856.8
90055.8,70992,77289.6,38084.6,142350,81569.4,81156.4,82856.3
95549.4,132048,104557,124761,188919,227173,84140.2,89101.4
83313.9,42933.6,58268.8,17197.1,123508,43860.1,80129.5,60805.4
81759.6,116932,67406.7,182150,110385,143269,63283,79681.2
103882,72538.2,140436,49382.5,166867,63473,68691.9,72926.8
57375,86992.2,30283.9,85697.7,61160,131058,62331.8,65983.6
61400.7,81469.8,60319.1,102009,99847.9,134727,61012.7,71326.1
67021.2,75233.7,63524.4,69244.2,69398.5,82784.2,65433.7,74739.6
96661.8,62784.9,87791,54754.9,200537,73921.6,84783.4,78704.7
106246,97461,67623.5,104283,142557,185158,88815.7,66452.7
41689.8,68762.7,12333.5,64009.5,37823.3,86377.4,62910.2,82922.2
68703.3,67762.8,65770.6,45230.6,152518,75645.2,82677.6,84676.6
75241.8,63179.1,96842.7,42742.5,195016,107778,91942.3,73114
104245,57647.7,75992.7,61483.9,155107,76562.6,83910.7,63811.2
129440,64383.3,95173.3,80704.8,165881,167398,90137.7,72645.9
115377,55509.3,91299.4,30450.7,178687,60530.3,68644,60815
84420.9,76382.1,54172.5,65756.7,108820,150604,78999.2,85312.7
67998.6,65213.1,47012.6,61661.8,75659.1,140992,78009.7,76940.5
92778.3,87138.9,96303.4,67727.8,134022,126337,69723.4,64649.6
67616.1,64344.6,45366.8,44024.1,72053.4,68175.3,65544.8,68703.2
85559.4,74093.4,79972.3,68217,166756,152300,72377.6,88836.3
90976.5,83101.5,100510,102795,120510,125322,61056.9,92575.2
66698.1,87205.5,37053.2,81946.1,60907,154289,82631.4,81251.2
62352,117332,32976.4,106126,67481.7,164476,83164.6,84283.6
87891.3,66233.7,73514.3,30876.1,159070,69063.5,85934,90735.6
92061,65448,120134,118623,208604,123561,81059.4,65772.2
81735.3,71555.4,67691.6,86413.5,152521,86078.5,77696.9,61825.3
114944,81117,100063,72325.9,155973,145331,63218.8,83352.4
76956.3,92097.9,53527.5,77097.7,78690.7,181562,90059.8,89325.8
58543.2,96912.9,31124.9,138636,67066.1,167925,84113.2,65645.8
106886,172739,114770,134918,130935,262143,62068.9,89037.6
72826.2,122674,42215.7,191555,70449.4,262143,85665.5,93163.1
81633.6,100014,43130.3,153974,109799,262143,71929.8,90919.7
44183.7,44000.1,37577.3,17127.6,51638.5,49178.2,62790.8,61354.4
75116.7,78923.7,34747.2,45775.5,82035,111174,88265.9,65533.6
69740.1,46202.4,51974.9,23281.1,79116,45529.4,70451.9,61053.4
129211,54791.1,128455,24116.5,210932,50187.3,86669.3,60708.3
59747.4,74901.6,72349.5,50869.8,75224,102483,65505.7,82029.1
96962.4,64924.2,134342,83637.7,262143,84594,92497.3,67296.3
94698.9,100064,90047,162049,168757,140975,90735.2,61669.3
86634.9,100183,62588.9,90277.7,120320,147258,70413.2,87364
56826,69416.1,39697,45173.6,49795.4,69875.3,63777.7,75153.6
71236.8,84418.2,38248.6,62948.9,66617.1,93658.2,82161.2,88909.7
89733.6,134490,74470.6,114479,160450,180312,84929,61220.9
61562.7,56906.1,36424.9,27997.4,59757.5,47127.9,69136.1,65343.3
74067.3,86731.2,123568,80449,199067,172922,81776.1,74285.3
137821,77516.1,174050,53192.5,235075,131937,74266.7,79482.6
72114.3,66256.2,60847.2,55480.5,128646,62844.7,64855,66226.6
65297.7,83048.4,25085.3,47191.9,59371.1,167145,78591.8,90065.4
98118,118737,99417,119419,159156,203810,71302.6,80444
50477.4,58785.3,21219.7,116577,44015.7,208140,60711.1,93016.3
85176,56108.7,64799,37475.8,125277,46612.3,82856.8,61124.6
93157.2,93713.4,97865.7,136127,117266,183980,86633.1,90609.2
73897.2,93760.2,69226.2,93970.9,93136.9,105462,91172,73047.1
65727.9,82271.7,46316.2,45929.8,77192.3,123525,93336.4,69103.2
72868.5,77555.7,56899.6,58353.6,77870.6,127139,80153.1,73605.2
88124.4,52412.4,95059.3,62497.2,156880,114925,72680.4,83611.6
52009.2,56924.1,27741.6,48131.5,40721.4,104809,61030.6,61810.4
56782.8,69975.9,36283.2,59761.7,49571.6,84423,62787,71504.2
72269.1,81216.9,44813.6,53024.3,69657.1,84980.4,73268.4,64147
100593,71973,93837.5,41868.2,163642,98628.8,92853.3,61259.8
63434.7,89909.1,35593.7,49895.4,58730.3,100857,65567.3,70388.5
50766.3,74053.8,67909.8,67303.8,151402,94183.6,61223,75969
97008.3,77734.8,80980,43997.7,140234,112798,81874.9,75267.4
76506.3,103560,107739,129896,196338,213511,86209.2,89702.5
87698.7,105800,84386.9,206929,169456,158046,79010,90271.2
93798.9,95280.3,66916,121104,143900,193380,91325.4,62972.4
48355.2,49619.7,82482.6,15463.8,174395,50815.6,61313.9,66364.6
85784.4,45922.5,88285.9,20231.4,184589,51570.4,71056.3,74271.4
47511,60877.8,17313.8,37823.3,46328.7,48449.8,61469.2,61760.5
82435.5,74687.4,65225.8,64785.1,102493,115338,91753.7,85026.4
54055.8,54668.7,23189.4,39677.6,45348.8,67702.7,61814,72613.1
100913,80373.6,88052.3,191539,193961,262143,74727.4,92821.2
61522.2,68812.2,50864.3,79154.9,78365.4,131868,62957.4,69528.2
54340.2,57394.8,40212.7,57551.6,69616.8,98216,81166.1,72188.3
87756.3,139277,40811.8,124327,105591,191324,66260.8,63374.4
67118.4,51803.1,53118.8,20516.4,87130.8,50800.3,67720.4,77335.1
50687.1,75130.2,26447.5,56012.8,50380.6,128368,62631.5,85226
100498,81532.8,70650.9,136891,147240,215975,89543.1,93319.2
49952.7,59371.2,25563.5,38901.9,46239.7,60086.9,61228,60984.7
84078,104617,80617.2,157084,153470,138869,92956.1,61665.1
85362.3,74712.6,84773.3,74559.6,143292,160074,62496.3,69086.8
51487.2,81557.1,19487.8,110078,44578.7,171053,62017.1,84785.9
43232.4,80930.7,17245.7,54763.2,44828.9,72822.1,61291.9,71396.7
64566.9,105442,73196,75639.6,81038.4,139214,65448.5,71182.8
80403.3,91480.5,96204.7,92555.9,108013,134374,65675.7,64332.4
81475.2,79717.5,102437,70286.7,194318,159753,86143.6,79142.8
76335.3,91932.3,56371.4,83785,112495,166831,69783.5,86212.1
95193,62813.7,120917,32546.8,160687,63908,71570.5,78678.2
121982,81254.7,103135,99868.7,170129,102065,93049.2,60797.9
95355,85650.3,144682,64929.7,201196,99772.8,92317.8,75360.5
91198.8,77717.7,64981.1,85697.7,145469,101653,73003.7,74677.2
77175.9,75746.7,39706.7,100850,65617.7,173154,88767.7,63693.5
126113,75540.6,123453,45428,172145,74591.6,60792.3,85171.5
62240.4,73905.3,44154.7,50245.7,72116,80877.1,68730.7,84719.9
71564.4,57518.1,66362.8,40985.5,76515.3,58104.8,70014,60834.9
75574.8,85194.9,59576.8,67061.9,87403.2,167428,61186.2,91262.3
91983.6,84136.5,108196,74658.3,184347,92159.8,76958.2,66988.5
61974.9,70770.6,51260.4,66601.9,132685,91723.3,65659,91967.4
93168,70890.3,118554,52858.9,197807,70785.8,84055.3,71217.9
86786.1,115556,72706.7,68062.7,163570,127773,83402.5,69076.3
86280.3,129162,93979.3,108295,122364,146384,70861.9,87662.9
93444.3,64951.2,54811.9,50657.2,100070,74205.1,85266.7,86723.7
69064.2,97233.3,72050.6,78102.7,86188.3,156162,61431.3,87812.1
79006.5,52404.3,85847.8,37833,153241,56620.3,73376.2,68913.6
126666,78274.8,108282,69579.2,176855,115061,67217.8,75943.1
62303.4,82894.5,47884.1,78600.3,65027,153869,65749.5,64979.7
145615,114548,152821,135077,148246,262143,67471.9,88314.8
82445.4,104153,72641.4,104743,90167.9,162130,81347.4,78642.8
107042,127253,72633.1,177260,117164,212142,78485.8,91883.4
100231,87856.2,77345.2,71914.4,124319,129922,78460.2,67438.8
41645.7,72220.5,15939.1,48687.5,39943,63575.8,60897.1,66818.1
72185.4,63565.2,60651.3,72430.1,71081.8,135191,72314.5,90431.6
117639,59886,154611,34633.2,203100,70140.8,81961.1,61816.3
56793.6,58855.5,50796.2,45993.7,64026.2,61465.8,70718.8,68324
52094.7,65763,22298.4,47260,52582.3,54121,61069.1,63844.7
112588,66478.5,99822.9,82007.2,188914,145772,66369.7,72884.5
101841,51737.4,122427,37076.9,150744,128264,69505.2,75919.8
81046.8,,66276.6,,118664,,66356,,
65701.8,,67014.7,,102474,,86980.2,,
84824.1,,76202.6,,103773,,82863.8,,
85266,,99632.4,,169711,,65911.8,,
57708,,24422.3,,53533.1,,68352.2,,
53103.6,,47016.8,,61171.1,,62769.5,,
81981,,54849.4,,82351.9,,65783.9,,
63010.8,,42889.8,,52742.2,,61082.7,,
111421,,67886.2,,167651,,71717.4,,
86649.3,,68338,,81769.5,,61889.5,,
80780.4,,59383.6,,72407.9,,65916.4,,
71999.1,,76715.5,,150319,,74705.7,,
69858.9,,89253.3,,92468.4,,62266.2,,
84191.4,,90035.9,,135992,,69870.6,,
75990.6,,59549,,144780,,66079.4,,
93606.3,,97626.6,,170802,,74948.8,,
88999.2,,114439,,206589,,90998.4,,
110066,,58075.6,,129239,,68668.6,,
86453.1,,79342.6,,157627,,62883.7,,
46315.8,,25851.2,,56703.7,,62354.3,,
62775.9,,26904.8,,72962.5,,81757.3,,
102282,,123299,,192507,,66274.9,,
61465.5,,32929.1,,71893.6,,71135.6,,
61424.1,,71464.1,,82427,,61887.5,,
82313.1,,64976.9,,101605,,89867.9,,
87201,,94500.5,,185936,,89382.2,,
88184.7,,69675.1,,152901,,88802.7,,
65245.5,,40682.5,,70788.5,,68589,,
69553.8,,45486.4,,87026.5,,88171.3,,
69612.3,,49388.1,,60594.3,,60737.1,,
96570,,81194.1,,162462,,86171.6,,
69912,,66257.1,,96966.4,,89373.8,,
98479.8,,84040.8,,161190,,65885.7,,
99563.4,,54077.9,,152387,,68781,,
70218.9,,80674.2,,171049,,74685.4,,
99089.1,,72652.5,,145604,,79632.9,,
94666.5,,71024.8,,157469,,79402.5,,
85627.8,,56520.2,,117905,,62811.6,,
54611.1,,40079.3,,53812.5,,62968,,
100408,,154198,,233043,,75779,,
58111.2,,24402.8,,47080.7,,74586,,
78657.3,,51221.5,,86973.7,,65230.8,,
70223.4,,49164.3,,75237.9,,74222,,
53637.3,,89554.9,,192799,,75256.1,,
71771.4,,40107.1,,75003,,87267.5,,
55883.7,,49019.7,,67150.9,,67216.3,,
73042.2,,46801.3,,86123,,83806.5,,
68798.7,,33578.2,,74978,,89898,,
79195.5,,75417.2,,142599,,88432.1,,
98866.8,,109235,,127774,,77007.4,,
81027,,94193.4,,188979,,75240.4,,
69932.7,,52947.9,,105883,,77496.5,,
45199.8,,14143.2,,35574.3,,61218,,
85776.3,,98296.6,,197541,,66445.7,,
110316,,67750,,156280,,86498.3,,
90710.1,,66810.4,,141296,,63043.4,,
55438.2,,40656.1,,55334.5,,71193.3,,
88556.4,,70563.4,,123978,,71931.8,,
65416.5,,59218.2,,71480.8,,90085.8,,
65385,,52279.3,,64010.9,,61542.6,,
76009.5,,43426.4,,71680.9,,64719.6,,
60228.9,,31148.5,,64578,,78514.7,,
60075.9,,30653.7,,56136.5,,62808.6,,
88336.8,,72163.2,,130778,,84322.6,,
73713.6,,48987.8,,106022,,60841.3,,
117753,,95787.7,,196251,,90799.2,,
96075.9,,172213,,226393,,92910.1,,
50704.2,,31970,,60031.3,,65765.3,,
60039.9,,148303,,190149,,65948.1,,
47452.5,,41698.6,,51158.9,,61269.4,,
105972,,80340.6,,168076,,68914.6,,
57262.5,,37356.2,,65819.3,,63917.1,,
104185,,98049.2,,124426,,90711.4,,
73376.1,,44392.4,,72316.1,,73335.8,,
84645,,74565.2,,143438,,79689.4,,
85379.4,,46220.3,,104567,,75599.2,,
140820,,106338,,180858,,73169.5,,
127238,,129194,,181862,,63736.6,,
77864.4,,57368.1,,136087,,65353.2,,
93085.2,,79488.5,,162473,,78443.1,,
94387.5,,138514,,231256,,92058.4,,
113033,,89328.4,,170522,,76518.8,,
94857.3,,72121.5,,141180,,65630.3,,
96272.1,,130831,,172543,,72144.6,,
63253.8,,42121.2,,68319.9,,84359.2,,
96374.7,,79766.5,,127221,,64179.9,,
79783.2,,77325.7,,110955,,68723.3,,
60082.2,,31639.2,,68702.1,,77679.8,,
96830.1,,150470,,222194,,87848.7,,
65848.5,,33810.4,,70845.5,,76172.3,,
85877.1,,51813.6,,112044,,86449.5,,
63489.6,,43796.1,,51727.5,,60810.8,,
71105.4,,63295,,99173.7,,76016.4,,
85471.2,,42674.4,,98929.1,,84244.1,,
68379.3,,51509.2,,80087.6,,79966.1,,
95641.2,,101410,,183779,,74894.1,,
56090.7,,33836.8,,65637.2,,65236.6,,
75674.7,,116674,,111895,,70592.5,,
56392.2,,33290.5,,53601.2,,63759,,
61114.5,,47393.4,,68575.6,,68619.8,,
83704.5,,58630.2,,112719,,70485.1,,
49353.3,,27280.1,,52297.4,,65367,,
57353.4,,30723.2,,66949.4,,69618.5,,
65000.7,,45849.1,,83076.1,,82986.8,,
90747.9,,47315.6,,111698,,63282.2,,
49510.8,,28197.5,,46100.7,,61571.6,,
66184.2,,40512.9,,65499.6,,70998.3,,
82848.6,,76308.2,,142953,,82881,,
82361.7,,70605,,161749,,92998.9,,
69972.3,,48555.5,,76224.8,,69703.5,,
119361,,124354,,228883,,92559.2,,
72432.9,,47375.4,,73843.8,,84072.1,,
76674.6,,54635.3,,74548.5,,72375.3,,
87852.6,,66714.4,,141263,,65784.7,,
96071.4,,82078.1,,165293,,66064,,
57437.1,,36490.3,,67991.9,,64211.4,,
61337.7,,42062.8,,70548.1,,63778,,
106978,,58238.2,,122086,,75980.4,,
78917.4,,47390.7,,89168.5,,62986.7,,
59001.3,,29009.3,,56263,,74121.8,,
104444,,100870,,208404,,93638.9,,
104506,,63755.1,,135857,,73963.9,,
86788.8,,113455,,189278,,84981,,
78111,,58366.1,,99063.9,,65443.3,,
60090.3,,40740.9,,54941.1,,61577.8,,
66330,,57995,,138832,,66967.4,,
87892.2,,116981,,187614,,63915.6,,
56499.3,,29039.9,,50426.4,,60860.2,,
99535.5,,59681,,134576,,65014.7,,
88450.2,,114590,,230306,,87709.3,,
68598,,86163.3,,196458,,74161.4,,
81934.2,,80357.3,,89599.4,,61284.1,,
110804,,67235.7,,141248,,78382.9,,
84834.9,,100093,,189157,,89649.3,,
53365.5,,32277.2,,46527.5,,61007.9,,
77156.1,,60043.8,,91635.8,,66454.4,,
49072.5,,18277.1,,41982.2,,62202.8,,
137540,,86608.1,,198830,,90400.5,,
76599,,67462.3,,118746,,64185.2,,
74447.1,,73903.5,,167852,,77949.9,,
67101.3,,33180.7,,79748.5,,79934.4,,
94199.4,,79453.8,,174438,,73961.4,,
88438.5,,73158.5,,133133,,68792.7,,
73836,,96892.7,,175301,,69089.5,,
60262.2,,27651.3,,59669.9,,93586.6,,
115737,,219744,,262143,,84663.3,,
96544.8,,93346.8,,167854,,61550.5,,
86325.3,,72678.9,,103574,,90401.6,,
92637.9,,119711,,157308,,74098.7,,
97836.3,,62601.4,,155032,,75893.3,,
66957.3,,40643.6,,61027.9,,72934.1,,
109379,,114801,,144442,,93286,,
138496,,131960,,196101,,88111.3,,
78255.9,,77621.8,,175059,,80159.4,,
76412.7,,47390.7,,79401,,79397.9,,
122279,,134306,,200638,,62278.4,,
55484.1,,24892.1,,47839.6,,60962.6,,
89879.4,,117612,,190262,,70135.2,,
84506.4,,99576.8,,181633,,66177.1,,
83484.9,,73736.7,,139097,,64520.7,,
59534.1,,24697.5,,68167,,91504.5,,
93918.6,,104005,,238655,,93043,,
89966.7,,121090,,238107,,92605.1,,
84798.9,,73586.6,,87843.8,,62787.7,,
69642,,50437.5,,79209.1,,82859.3,,
137495,,127781,,186815,,63330.3,,
80443.8,,82536.8,,202891,,89558.6,,
79983.9,,73044.5,,175472,,86322.4,,
86562.9,,62474.9,,127797,,65095,,
46380.6,,19072.2,,54665.9,,75863,,
99028.8,,81880.7,,148380,,62942.3,,
110509,,81572.1,,141487,,80391.8,,
87711.3,,51742.8,,104760,,76663.4,,
63680.4,,36754.4,,61613.1,,75274,,
78765.3,,52100,,132687,,63925.5,,
94328.1,,81063.4,,151055,,67741.9,,
91881,,67445.6,,148027,,80817.1,,
94878,,90482,,144192,,79287,,
84375.9,,66518.5,,132235,,69222.6,,
53451,,24896.3,,60331.6,,72589.5,,
103306,,84074.1,,165124,,72098.2,,
84350.7,,83569.6,,145900,,65969.1,,
56210.4,,41654.1,,61782.7,,92664.2,,
77693.4,,68887,,114775,,61663.9,,
70515,,37036.6,,71871.3,,88840.2,,
55141.2,,38320.9,,54943.9,,65203.9,,
72792,,55173.3,,68653.5,,61010.4,,
66787.2,,70888.6,,196400,,81269.2,,
52867.8,,35130.9,,74441.5,,61004,,
84023.1,,80040.4,,140212,,66810.2,,
84159.9,,56279.7,,167886,,91684.3,,
88211.7,,84564.8,,131536,,75507.4,,
93943.8,,71654.5,,113423,,93355.1,,
121624,,108733,,169818,,63415.2,,
60081.3,,58475.9,,96128.2,,64151.7,,
69570.9,,62611.2,,139448,,89063.5,,
170819,,122021,,236736,,64976.3,,
65440.8,,49536.8,,64511.3,,72598,,
139924,,107354,,191064,,87612.8,,
84938.4,,147453,,174733,,63515.6,,
46948.5,,23247.8,,48109.3,,60922.8,,
74328.3,,41381.7,,83760,,93165.9,,
59069.7,,46585.8,,115433,,62854.5,,
94061.7,,87945.3,,163085,,60752.5,,
66744,,40503.2,,71985.3,,76227.6,,
132166,,138889,,193399,,71503.1,,
71855.1,,50552.9,,81800.1,,72560.7,,
81792,,66579.6,,135916,,69791.8,,
93030.3,,75720.2,,131479,,90029.3,,
86455.8,,75126.7,,150235,,92917.4,,
72861.3,,50568.2,,73733.9,,72498.1,,
74654.1,,39926.4,,91564.9,,62726,,
53259.3,,23734.2,,43338.8,,63273.3,,
77364.9,,47535.2,,118024,,83918.5,,
67021.2,,51865.1,,78622.6,,63244.6,,
77227.2,,77434.1,,157352,,67893.4,,
52489.8,,37648.1,,64120.7,,70533.9,,
81087.3,,59063.9,,154222,,80210.6,,
72326.7,,41226,,72755.4,,75675.6,,
49337.1,,24783.7,,42837,,63969.2,,
69902.1,,60763.8,,100487,,65671,,
110148,,141881,,219065,,89168,,
92046.6,,86028.5,,118678,,85145.6,,
81103.5,,62083,,135626,,60867.2,,
101589,,106575,,124841,,62386.7,,
138834,,183429,,226620,,73902.5,,
68187.6,,74284.4,,97445.9,,73592.4,,
95658.3,,105480,,210774,,84409.2,,
79455.6,,52391.9,,74732,,76964.5,,
82564.2,,82377,,130716,,86186.6,,
53076.6,,38544.7,,58879,,66822.3,,
46930.5,,25050.6,,37675.9,,63356.4,,
89257.5,,99344.7,,169324,,66473,,
75737.7,,94128,,159181,,68791.8,,
88431.3,,102464,,185334,,93702.6,,
91181.7,,70650.9,,123542,,63643.9,,
57723.3,,32214.6,,79647,,62075.2,,
58595.4,,57179,,135564,,85685.6,,
63305.1,,59175.1,,68793.9,,79588.7,,
84654.9,,59764.4,,132449,,79989.1,,
53500.5,,30677.3,,54104.4,,71615.6,,
86482.8,,48183,,117558,,75727.5,,
135650,,108752,,199626,,85408.1,,
75276.9,,60323.2,,122469,,66316.7,,
45614.7,,18634.3,,46763.8,,63573.2,,
49098.6,,37113,,51348,,67899.8,,
68734.8,,55069,,86645.6,,89813.2,,
54343.8,,25624.7,,60655.4,,62894.6,,
59519.7,,37805.2,,56211.6,,66002.6,,
101203,,101818,,145241,,92990,,
104510,,103276,,158980,,93200.4,,
97198.2,,134117,,152444,,73820.5,,
116364,,145170,,172510,,92615.3,,
72238.5,,51410.5,,84730.2,,75743.4,,
