"FSC-A","FSC-A","SSC-A","SSC-A","FITC-A","FITC-A","Comp-PE-A","Comp-PE-A"
116042,105098,178188,161933,202516,262143,84520.7,88172.1
138200,111175,210094,191267,245267,262143,90854.8,91587.6
115953,90934.2,141242,211201,179182,262143,86431.5,88804.1
139365,109278,153953,165276,205102,252428,82563.3,88792.6
93836.7,101981,188778,81897.5,210177,156024,86559.4,89065.7
153723,98251.2,207558,173665,225437,254927,87813.4,89804.7
80434.8,140688,64980.1,164094,101476,254120,86078.8,87200.4
116713,116303,157132,154788,196253,220129,83427.2,90599.4
99261.9,138392,119308,156796,165375,212973,85693.9,99581.9
106935,93528,113034,111868,134843,183748,85560.7,86273.6
106754,106843,155854,140334,233143,216819,86960.9,102725
121005,95719.5,222452,105970,247260,200296,81304.1,82122.3
86259.6,77377.5,81064,72117.4,134807,113305,85303.2,94634
133047,88902.9,216911,118153,247528,222656,90052.1,93460.9
92635.2,92530.8,150820,126198,160513,209461,88840.4,96622
58856.4,100115,68812.3,112982,120048,175350,99800,92547
114674,104467,149196,114961,167724,162679,90651.4,96387.1
128016,147356,169209,179832,183130,215364,92913.1,92791.7
122593,134391,233874,171459,252417,218713,87136.2,90434.3
141753,146332,159782,196429,198343,262143,88434.7,87922.3
116848,84888.9,156245,96161.2,171444,164288,80638.1,83987.5
88757.1,117081,105035,181854,174967,218664,92722.9,82833.7
101228,95916.6,130629,200677,172688,209414,89067.3,83472.2
127101,86263.2,156099,100374,185145,147543,84714.1,89156
105411,103553,134097,127368,187397,173044,96365.2,85337.5
83164.5,131894,97790.9,196008,137580,262143,93769.6,94119.9
108244,108302,115016,201709,172602,262143,90296.4,85097.4
83845.8,149743,81976.1,161936,102224,227982,88469.2,90187.5
111298,68943.6,177015,130636,226339,213367,86487,90174
55601.1,103364,36608.6,131250,118895,207871,98760.6,92865.6
124456,110912,135335,180675,193266,250676,84841.8,88190.7
98124.3,128618,133832,138454,166498,218879,80610.1,91788
145542,129830,230224,160611,226512,222143,90103.2,90320.3
115649,139120,150811,120791,212175,202163,91797.6,86191.3
94000.5,77562.9,113745,36509.3,144934,99620.8,95473.5,93215.7
59262.3,119102,63916.1,156182,118844,223251,99201.4,88646.5
140828,110959,177668,138190,199243,262143,88069,88529.5
106555,99743.4,155349,223193,210380,262143,89060.6,86905.2
120578,115834,163988,161685,191541,224040,90502.6,93042.3
88186.5,118342,125045,148560,132989,182137,81498.7,80456.2
144066,146557,171185,228177,218515,262143,85269.3,94536.6
87362.1,81867.6,133463,126122,208322,138015,84357.8,94459.6
145444,74527.2,170620,60242.5,188374,108773,80205.2,83987.4
121143,86068.8,141131,82163.8,182675,162260,80330.7,93847.8
103982,125695,140024,205249,170587,240556,82272.2,86158.8
108644,104928,172753,143888,213514,185625,86532.6,85155.6
114688,110119,174189,89952.5,234038,141760,81144.6,87645.6
85814.1,124041,89239.1,129012,126948,220400,90079.3,90527.6
136034,120322,197339,170789,209122,230144,88560.8,92631.2
133931,120506,187277,192329,233078,246703,84863.8,91537
111875,99324,186938,149079,198483,241788,85441.1,91913.2
115592,77655.6,163322,73846.6,195647,109778,84268.2,90683.2
77909.4,119822,53382.5,88115.8,106260,152827,92534.5,88144.1
104688,114633,175957,139837,194507,204056,85288,93641.6
117260,94574.7,148912,121004,184930,199261,83945.9,86459.7
94824,133945,187440,143349,262143,232145,100755,91068.5
107720,102778,221929,96348.8,247354,167168,87896,95183.4
143247,94995.9,228583,66168.2,248248,151219,87452.1,91332.2
119285,126556,196148,128896,203794,199872,81186.4,91716.4
111754,84518.1,146494,84015.8,180449,119790,89148.1,94277.5
128097,112954,178426,212498,194892,262143,85223.6,86338
106975,96043.5,102273,105994,132407,155918,84622.8,92377.9
116194,124326,164562,154243,202026,221222,90255.5,84087.3
123664,103565,197245,84762.4,198352,156095,81148.9,85467.1
88254,93574.8,75760.6,109099,120110,151990,91409.4,97667.2
112003,82971.9,187411,53000.3,234850,119708,91578.7,97347.2
85514.4,118507,104764,147682,137197,214688,93127.3,88558
147012,113147,120175,114815,207258,168969,89981.2,96904.2
68548.5,77810.4,70399.3,61844.7,100463,116696,90779.8,97536
109208,112486,139746,108743,169522,206078,84342.2,91133.1
102614,137199,131190,227151,177755,262143,84790.9,92633.6
135774,105476,182625,105936,229350,164220,85657.9,92266.8
124310,77951.7,237723,54857.8,249639,125423,82750.8,97486.6
102154,121567,144598,140953,175550,208898,80090.6,94101.5
97417.8,96877.8,184430,118971,237176,172961,85270.5,88880.7
127237,92981.7,212559,114192,252514,141311,85410.6,80981.6
103694,73868.4,138068,136289,168702,151706,80640.5,88459.7
77176.8,97704,126923,150296,199461,199613,94064.4,87463.7
123635,142468,229367,229813,241257,255599,88374.1,91357.4
106978,93850.2,147463,143505,200998,215292,80902.6,89624.3
140284,120635,233147,122732,235058,192389,87996.3,85322.8
145712,64295.1,177309,38132.2,219477,82068.6,90313,94295.1
138318,117680,225100,218813,252626,262143,86977.7,88942.1
128814,117364,148890,74230.2,201477,160247,88100.8,90142.8
131214,116337,215528,106001,233637,182490,84228.6,91249.8
125544,102362,146105,156921,175214,176993,89785.6,87641.7
110129,136386,142133,227682,180964,255461,84737.2,90291
120152,101249,163363,118870,195903,191958,86797.5,89501
132161,70822.8,152852,46145.8,191463,102101,82965.4,94276.5
99700.2,85297.5,94277.5,84467,128452,144193,83489.4,95251.9
84469.5,132445,117773,188741,164938,239008,83223.9,86253
81268.2,112088,128294,117006,142249,179753,99345.8,90565.9
117791,117636,142560,180210,193389,242637,92537.8,87754.5
115729,112540,163306,164907,234586,225437,88470.3,93939.2
92503.8,98711.1,133752,127653,181655,206400,82799.5,87347.1
136962,94383.9,185562,154788,189536,233107,82695.5,87432
106293,114848,135999,159309,177471,207265,85809.2,89758.4
112402,116295,161702,158463,219602,220185,90152.4,90285.2
143410,134601,197087,185203,217787,250463,81277.6,90851.6
121098,70410.6,202573,52724.3,213701,97331.4,82965.9,80377
118651,103831,196298,158218,248345,187651,85704.5,83233.2
121190,94573.8,176187,103423,194141,170964,90816.8,84699.4
112695,88221.6,117329,95490.5,201840,177389,83822.6,88796.2
118132,112923,170252,155322,186768,210053,80201.2,86101.6
90872.1,143637,121130,194293,180511,262143,83586.5,85493.5
144618,124856,145108,195910,228917,262143,87951.3,89031.8
107502,74366.1,152683,92235.1,191180,125503,90170.1,87006.5
119747,126217,154608,154582,188137,229747,87389.2,92647.1
97947,118669,181982,109771,135582,195078,81955.7,92178.2
92745.9,110882,147363,155028,206604,211622,87556,93748.8
132111,122167,225391,160232,236201,180701,86649.2,90716
101309,99597.6,97452.8,107229,142406,215568,95009.2,92269.2
88552.8,107733,38174.9,144745,116182,214873,99842.3,94469.5
90810.9,120707,123895,140821,132669,215401,83511.2,86605.9
98056.8,117401,138794,124275,204515,234051,91936.6,83696.5
139594,108779,198334,103180,252300,163938,89466.8,93997
115317,109732,214431,155681,243062,210360,82657.7,89603.4
111272,134609,159309,200205,222593,246029,87832.2,89326.1
128252,105317,205425,120985,238797,204462,87568.2,93422.1
79166.7,119707,85473.1,143982,138054,164722,96233.5,83205
133988,98621.1,153935,119286,208108,145233,84167.8,96383.1
109979,119168,212557,165094,232747,225678,82048.7,87678
101253,132777,159187,183296,207553,198400,86913.9,91782.9
112568,116020,164181,170810,206674,235538,95891.7,88736
118354,107847,207201,175893,254816,200782,85984.1,84462.3
110987,120597,203322,190673,262143,229941,90845.1,90781.4
77601.6,115456,180031,166958,137939,250754,92182.7,87748.8
121336,121865,180567,159099,201984,204302,82356.2,92096.9
100820,128728,151683,206666,200002,244470,90160.3,89130.1
117536,112277,173263,146302,262143,212614,87229.5,88067.1
76344.3,116625,95937.6,136997,122406,201172,94851,82780
82567.8,101510,107799,124720,124137,225248,80606.1,94896.4
69514.2,130700,46225.9,214303,99119.9,243991,90548.7,89081.7
120975,115073,198474,137229,227485,198836,90273.2,92775
84204.9,122887,121411,205051,210457,216239,80420.2,88561.6
119944,96233.4,153644,138940,208471,223535,89495.7,92643.1
127278,104910,182665,76805.3,209782,166675,88911.4,83308.3
110530,135622,162921,180170,176496,246420,91134.6,86430.8
128204,117494,170550,204484,236139,262143,85085.9,88213.5
123190,114634,156557,182287,200354,231396,94283.1,93591.1
113209,117355,135389,208257,173298,177785,93703.1,80227.2
138111,104543,165588,155754,188719,221941,91880,94830.7
126784,93028.5,135218,118031,248683,210177,84228.5,86495.9
72306.9,103166,76102.9,117365,101948,145277,91195.2,85406.7
122074,152902,185360,129895,204288,200626,93108.3,90783.2
113821,94631.4,135290,139263,166094,216853,88896.9,87348.6
91529.1,115744,162788,196431,226498,252903,87183.1,87770.5
160135,118627,192480,146348,262143,207342,96049.1,85707.9
169590,116508,192391,195293,247230,219299,85064.6,85990.7
104181,143871,116776,144338,157350,262143,87046.2,89676.3
134674,110333,128172,173634,204701,229614,95753.1,83007.5
110796,115025,168032,213903,208301,262143,83814.6,82213.2
83552.4,109037,101015,142471,134055,204564,86893.1,92761.4
148078,66349.8,183893,48417.3,163213,94423.7,83215.6,82939.5
115922,116916,179258,159888,220921,211467,91927.2,87932.5
103722,106257,125056,151823,168048,182352,83404.1,80633.7
97888.5,107272,77881.7,175887,197957,205419,98279.3,96001.7
108011,105384,140518,139355,189754,224821,93467,86410
94752.9,122322,129103,158512,182978,239742,86143,93344.9
90607.5,111231,89268.1,155780,106304,201581,80600.4,91321.9
98790.3,125422,145449,184292,150272,221683,87117.8,91650.1
116812,102783,131856,116701,180947,167624,84139.8,89697.3
103400,101873,184837,115699,238040,184527,91224.4,97426.9
105836,117849,178816,185838,180537,208191,80592.3,98468
111142,74445.3,191510,70813.3,225066,115002,88968.1,96975.6
130774,102167,161541,203449,201731,254066,85770.1,90885.8
114080,120804,172728,179248,201214,262143,88427.3,86825.2
81558,95361.3,75128.6,146476,131684,220019,97443.3,93137.7
97622.1,132680,140895,136225,166871,176592,91809,93103.4
104737,134744,107519,220858,151071,237043,84717.6,90195.6
92052.9,134413,123049,219552,174908,262143,90418.2,91940.8
98209.8,67913.1,124491,38221.9,158856,94248.5,83702,98264
92879.1,126966,94945.4,136189,152369,195282,84602.4,87979.4
122926,112694,182248,113178,196044,151292,82334.1,91110.2
95422.5,120895,124880,133812,125592,208419,84776.4,93153.3
131625,139212,230243,149626,241452,249015,86955.5,92138.4
147166,116383,195865,200144,262143,234636,81828.2,87040.2
162179,124415,179494,168781,262143,229513,94703.6,89868.5
134672,135838,160077,194076,232482,246774,92235.4,89590.1
125233,122578,176944,111326,181093,153855,86804.9,81036.4
128500,95168.7,167071,208174,205968,252889,88540.5,85806.6
106891,86159.7,178840,174144,213279,165910,83167.6,99672.3
75573.9,96598.8,39978.6,99118.5,93096.2,167964,97163.9,87198.6
102982,111814,178226,94596.2,208093,152965,84805.3,92144.5
140438,119539,158635,233845,223339,262143,80530.9,92153.4
90738,135068,98206.3,200246,147645,262143,89304,92724.7
124635,79269.3,154461,65338.9,195943,122381,89754,100322
117157,108152,193675,180900,235199,196092,87879.9,91969
117678,114208,166376,137471,223113,192382,87744.3,82088.7
102082,99003.6,99502.1,202523,126169,209318,85269.8,86058.8
152727,106608,182844,121913,226135,194812,86371.9,92749.2
117329,93451.5,176875,89716.6,187383,135186,82848,81956.3
118543,114878,147178,188860,183263,243559,90509.4,91265.9
146813,122421,196847,189954,237575,249813,91500.4,92537
135161,128301,226072,127182,262143,200248,88700.6,82899.6
102339,117007,151205,176986,180848,262143,84627.8,90489.1
111920,114448,191596,173656,257050,250678,90260.8,88023.4
112172,120820,122810,171570,150412,262143,83656.4,83705
79743.6,110742,51021.4,159861,124462,183521,92492.5,91109.4
113473,142802,204850,208384,247582,262143,93974.6,86968.7
118057,94056.3,182459,149785,206717,234121,83104.8,85684.1
133215,102697,208216,196015,248871,262143,84790.8,82929.4
114228,125636,165546,237675,201855,252425,87296,90708.3
123038,124735,160748,187721,200727,262143,88968.9,93101.4
115978,130664,196326,156856,197564,208581,82670.4,89014.9
98673.3,124021,185566,128562,200747,215712,80332.4,85427.8
85344.3,116477,118603,119080,151455,193553,85467.5,87431.9
101258,126409,143699,189860,182664,220267,83471.3,87932.9
83938.5,105438,123404,135483,162430,191660,88592.3,90767.7
119947,120533,192183,199449,210907,249879,90986.9,89686.7
114186,114950,153528,190400,192619,203449,87159,91210.7
108999,124771,174458,142826,198777,235732,81216.1,91060.1
109758,109418,164866,175463,187567,262143,85937.5,84665.5
118290,138454,231990,211630,262143,262143,82261.5,93279.4
129578,106423,174843,129358,200787,194910,88554.9,90132
97434.9,170733,91122.8,196232,134982,262143,92017.3,91688.3
112744,77445,196228,73075.1,229377,150386,81953,83620.1
112063,92899.8,186464,92421.4,221417,152398,91250.9,99056.6
118960,86754.6,205202,111363,236014,211980,89162.8,91710.6
96867,87176.7,139608,108091,189644,145333,84762.5,89702.9
138838,134014,164261,220478,209216,262143,91996.7,83703.6
133646,100342,113949,131424,179232,233729,88521.8,92646.4
108415,94050.9,222715,99615.3,262143,161096,82224.3,89456.1
90013.5,93906.9,147746,123155,182591,187237,82576.9,88417.3
77810.4,141838,62606.5,228031,112833,262143,86202.8,93089
114451,87998.4,177003,88713.3,218251,134637,85775.2,87873.2
107438,105328,126500,84791.3,174678,182884,85276.9,93509.8
119542,97964.1,209236,126299,236344,162541,88042.2,97559.1
114725,114539,154628,224182,218534,262143,92493.2,91096.3
124171,63554.4,201245,44718.9,255125,103777,88420.3,93933.2
79448.4,98469,71620.6,96564.1,103388,168059,80867.2,94799.2
131767,104158,132259,116679,159133,181180,84841.2,94305.5
98447.4,83881.8,125417,71826.2,158672,127817,84824.2,86100.8
87254.1,135025,73770.7,212470,121519,249948,89040,89792.1
70744.5,121063,162144,134914,187939,244141,103149,89829.6
128259,145279,209133,206284,239778,229308,84849,87840.9
68633.1,131257,37109.6,165062,109551,217391,85101.3,91949.7
85002.3,134732,140674,215127,146248,262143,100728,89786.7
138370,140848,234702,208971,221505,262143,86422.5,89001.4
123483,121018,150136,184448,238134,262143,90785.2,93100
110027,94261.5,158223,113773,223227,170805,88894.3,82613.7
137686,105891,168404,104644,206131,176713,83799.1,96394.5
111618,112340,151738,193363,201535,262143,82630.7,91664.8
121143,70063.2,176065,56450.3,194203,109858,90898,96318.7
109772,139384,186949,211424,233533,262143,86582.7,93026.9
93124.8,129356,107853,180728,142255,217632,84646.9,92855
81286.2,114251,81472.4,145133,129450,204840,85622.1,89984.3
114264,130508,230671,198080,242817,254052,81908.8,88883.3
114263,150163,154530,154635,181195,192125,88383.9,91588.8
132802,80353.8,170182,186281,208580,250136,88801.2,87002.5
107318,133911,144314,178428,194699,227152,88132.4,92619.4
117949,111539,162458,194856,243683,262143,93011.2,86819.7
113625,86158.8,200747,82466,236816,138983,83581.4,86838.6
115832,123050,135036,141467,185651,187082,86295.9,83111.7
109991,87762.6,165679,92893.3,213486,203728,89503.5,93227.5
116771,111042,211444,139813,238058,179320,89203.8,93219.5
106373,103468,161482,158984,168922,210244,85302.7,84494.2
144070,74109.6,194637,98268.4,262143,188169,82788.7,85740
132217,107306,186918,107538,247089,192694,85561.9,87339.9
103840,118627,131300,197194,166656,215740,82929.2,94102.7
138034,88593.3,190486,81512.5,231478,156500,92250.4,81709.3
96392.7,110877,82381.9,136071,129828,218857,94260.7,88518.1
111115,124863,195340,169032,239291,207213,85568.7,90921.1
93854.7,98100.9,81462.8,110383,118858,180075,93757.4,88409.7
103851,123376,142354,227972,154287,257748,101059,84326
111346,121303,142742,187164,186519,235086,87801.6,82301.3
125273,85682.7,177992,71359.8,179012,135084,87511.1,97138.7
107963,102850,168643,128474,168334,183060,103990,95816.2
117566,126729,198941,201016,211612,240897,94087.8,83694.5
105134,137019,149233,170033,224565,243519,88233.1,89961.4
137561,121947,211404,158922,262143,215775,86113.1,91779.6
104589,101613,174426,139177,215461,261676,88006.7,93341.8
106979,106120,131016,177777,169543,200428,91136.8,84458.9
99252.9,118946,117056,235060,177218,234269,83151.1,87038.1
120418,111686,194563,124706,205788,164783,91749,97258.9
159526,101619,197408,115458,244308,170264,85116.7,94124.3
100191,128938,107320,219025,171653,248710,94494.8,81130.6
111907,83892.6,164497,73788.6,226461,184332,85276.6,96309.1
114997,108944,96285.4,114220,142445,199282,94910.4,80156.7
133408,103333,213646,112983,247514,159354,90299,82922
136598,127495,190450,234955,243160,252566,86984.6,88000.2
110457,93661.2,132577,96456.5,192430,153895,82100.8,81554.3
112721,110126,147311,118677,177359,203489,87395.5,93242.5
149081,166863,203353,187216,258078,231877,83767.1,91457.4
84195,102334,57394.2,212117,108382,262143,91722.4,91118.4
154712,132871,205590,196160,211609,233239,88743.3,81352
129618,80126.1,176782,77286.9,208464,168030,83756.9,93657.8
126357,113141,181658,104666,230405,160676,91804.1,80246
118550,127774,178064,207719,200859,250997,90478.9,88125.2
134150,106510,221947,94814.3,244931,179316,89047.7,96400.7
131032,121985,151284,225255,207644,262143,89210.1,91790.4
91355.4,84826.8,162563,66996.2,225521,125118,92935.1,88804.1
127907,93624.3,165913,138581,179190,213029,89170.1,90511.5
122064,120950,182684,210622,230918,262143,92111.5,92790.9
164906,109613,202885,86608.8,258928,153344,81686.5,89487.5
116255,98624.7,106846,202227,165484,262143,86136.5,102939
100561,103593,134165,100675,164739,158926,87557.4,95065.3
120694,132517,196299,195168,262143,213692,87989.9,89520.4
142097,110591,175888,174969,215079,255762,88838.1,91430.8
112715,86829.3,206892,87481,233887,165156,83641.2,91806.7
153499,86284.8,202790,75136.9,218719,144523,90280.6,99605.8
117829,103961,202438,121850,248181,214380,91330.6,82940.7
96739.2,100585,158000,110339,218535,172018,89107.9,83428.1
120134,119092,96140.5,158944,167863,200077,87076.8,85396.6
110704,114142,207451,188011,230380,262143,80172.9,86811.4
159003,104157,211615,190975,259900,213387,87607,83313.7
115337,108631,145197,192808,154659,228111,92619.2,85399.3
114160,103355,187785,117958,199286,202387,86559.5,87633.5
130874,75163.5,237941,84432.5,262143,123177,92668.1,80476.3
98410.5,114315,112578,215378,150163,245968,95701.8,83611.6
98012.7,86454,179764,156462,223353,182658,95613,89567.2
89521.2,80564.4,102414,189895,152555,262143,84245.8,91437.1
120890,96802.2,201593,136877,230025,240381,90028.4,92411.2
105641,94039.2,120416,120852,179077,194568,92005.3,92141
109084,106861,124029,133787,168377,203945,87425.6,90344
129266,110120,164301,126988,235381,190641,89531.5,96965.1
118478,91914.3,171575,95911.4,216043,130420,91568.7,96443.2
85904.1,125526,78850.4,196556,132076,260184,84139.9,84426.2
111760,101515,94857.1,120166,138230,183729,88062.8,86550
77303.7,120722,95749.9,127871,119017,213541,88024.1,91569.8
105791,118637,142097,227763,155250,262143,83222.3,92618.4
109764,53520.3,120205,27166.7,169377,101179,84352.8,93635.4
132399,103396,147808,61280.3,217001,130244,90413.8,95091.7
112740,118522,151586,170695,180690,223295,83663.9,103615
131629,148704,195694,189488,222736,262143,83385,94914.7
116555,83073.6,191508,82739.3,249367,120692,91254.6,95168.8
90514.8,113349,92785.7,169849,124401,262143,90367.3,91957.4
113367,98902.8,147483,92584.2,175408,149195,82488.3,92185
113391,137217,118690,234223,172358,262143,92128.1,88679.9
119283,127801,126932,148482,151741,223559,83618.3,91862.6
130480,118993,204043,110814,206906,162587,87398.5,92056.8
94787.1,118647,129848,196400,173201,262143,81599.8,90951.4
112936,102957,174617,94626.6,230392,155083,86971.1,95994.4
131180,114227,178602,122969,229017,174806,85656.9,90811.3
117255,96615,137880,98472.7,163741,183983,85134.9,94116.6
100065,91825.2,123568,139134,175849,228251,86551.8,93237.3
129481,100562,183228,182194,205592,218335,90431.2,85833.7
110914,101992,181972,87733.5,200637,188696,80922.1,90634.7
95042.7,103304,128706,174505,153452,237050,85835.8,83453.7
103897,110160,174475,173855,176390,197329,92048.3,93421.5
134201,112867,203382,156751,256168,222473,82869.2,86742
107629,122192,107686,230840,129869,262143,99260.7,93835.6
144873,122061,212175,150074,262143,200423,88845.5,87837.7
102416,122247,159600,193615,238641,233303,91964.1,85970.5
88200,111478,86211.4,196813,129455,262143,89100.6,80380.6
96445.8,101593,61861.3,108514,129898,161523,103096,84653
121874,129028,135330,200423,162143,236538,84535.3,90536
123917,67745.7,166119,87515.5,233891,124265,80683.5,84485.9
119559,108792,156034,156191,194879,224761,93437.1,90276.8
116960,102689,160617,127294,232406,207196,83097.1,91736.8
91950.3,129411,157566,160542,230692,207966,102909,87690.2
122781,114692,192985,166185,228492,232066,92171.8,93574.9
87505.2,105501,111511,117110,176414,200871,81980.4,93444.7
78879.6,126404,88774,157908,139072,212356,91265.6,89655.8
67140,77565.6,90601.1,52492.4,186424,111939,86309,96406
178700,85762.8,179552,193585,262143,262143,83876.1,91137.7
119000,128301,214856,180210,220400,227806,92810.1,84553.9
130036,135814,124508,219592,166148,262143,86795.8,90974.8
122480,117320,165621,165952,200965,230794,84696.6,93635.4
103634,102600,165622,136460,201579,174774,94976.3,95119.8
67297.5,105925,93606.8,172290,161932,243798,85373.1,84715.2
126515,96399,170447,110504,213983,152396,91358,93019.3
122166,72530.1,158791,79035.4,258034,114969,92294,91973.4
109100,103846,167809,159901,194207,195968,87787.1,90975.7
127246,114790,159670,154502,234302,216488,82417.6,86224.5
132973,104768,228874,128949,258184,161109,83368.2,89590.1
75510.9,92572.2,100919,81788.5,200611,152152,81860.2,88675.4
121387,112576,163377,163068,179906,243860,84946.2,90992.6
90234,115319,81116.4,118049,140225,178173,95524.6,92335.5
115239,131846,145662,143225,174493,217321,84743.2,89073.4
126032,123244,176004,166537,244515,217455,95921,94692.9
101704,76796.1,87617.6,88015,140409,157901,86217.4,86592.6
92289.6,80208.9,91249.7,153671,147210,250198,94404.4,96781
95093.1,139342,144588,184756,202131,234150,101610,90228.5
136143,126881,108290,142562,198096,197598,95011,94950.6
106544,83372.4,116264,111130,139764,185356,83416.1,92258.4
159926,117575,182000,181213,224686,226432,80781,90872.4
126184,109127,166947,147292,208420,225845,93062.1,87751
134363,83491.2,162629,97004.3,231788,134720,82423.9,98027.9
87157.8,100567,75771.7,132324,119794,163785,91708.9,95330.4
91558.8,138628,170729,178860,246243,220618,80311.6,94036.2
126641,102727,215680,114035,236314,169525,85821.8,96840.6
96370.2,115211,102103,125711,142278,164050,81094,84397.1
103929,111326,188766,111857,214324,176462,82124.8,82889.5
123041,103583,216995,148684,247041,167760,83070,97916.5
137561,139285,175362,170647,205984,262143,85667.2,90807.9
116119,89570.7,162549,92932,176683,154143,89967.9,85374.8
118490,105394,181943,221904,205973,262143,85916.7,87113.6
,91327.5,,86252.8,,153742,,96624.2
,83793.6,,73487.8,,108963,,88024.4
,117754,,116447,,206594,,92748.5
,89027.1,,193433,,262143,,85413.4
,142510,,172424,,244023,,90362.2
,118404,,149079,,222925,,91193.6
,71364.6,,55580.9,,96082.5,,88907.2
,103221,,175562,,257319,,89410.8
,129644,,160443,,206128,,93912
,106842,,165760,,211054,,88332
,115795,,224718,,251586,,85311
,92858.4,,92213,,169395,,97734.4
,79535.7,,60445.4,,128771,,98579.3
,111869,,130810,,197220,,86836.5
,88311.6,,88110.2,,134295,,99680.2
,118904,,149414,,201171,,98277.5
,129335,,230599,,262143,,92662.6
,106400,,140205,,182288,,101308
,117268,,118372,,193124,,89017
,119641,,155952,,191630,,90200.5
,130020,,160495,,249329,,92720.9
,112600,,119542,,162213,,92530.1
,120212,,195162,,222544,,90678
,72672.3,,49386.1,,106283,,99164.6
,118574,,138785,,177991,,94814.2
,110375,,83376.8,,156971,,90326.9
,122875,,172604,,219539,,88855.6
,83378.7,,80964.6,,138309,,81486.8
,121734,,164976,,238889,,90797.2
,112671,,128728,,188108,,84946.6
,116770,,234963,,240767,,86910.8
,144389,,206705,,258278,,88501.4
,127839,,230815,,262143,,88859.3
,73406.7,,50541.1,,100417,,83351.3
,115861,,127265,,225423,,87759.4
,102149,,159038,,203543,,83181.5
,111427,,84676.8,,146820,,88253.8
,142422,,209045,,262143,,92025
,131242,,222699,,262143,,85845.4
,91591.2,,121074,,184022,,94732.7
,115645,,122849,,221422,,95230.4
,102782,,101212,,174625,,82808.7
,112964,,124121,,176888,,89969.7
,61834.5,,32653.6,,89875.3,,84393
,119858,,117965,,196567,,94107.1
,96689.7,,131969,,192825,,85800.2
,117797,,144649,,193778,,83443.7
,94707,,150758,,235792,,84972.8
,86053.5,,70195.1,,129645,,95061.3
,121627,,156097,,225415,,90409.8
,108168,,138341,,195648,,85376.2
,108247,,123540,,189369,,89813.7
,116446,,166024,,262143,,91417.8
,123658,,176047,,190182,,86429.7
,132794,,235994,,262143,,91099
,126637,,182183,,236655,,91753.5
,121115,,180162,,223684,,86993.4
,102295,,101190,,184153,,90431.6
,134875,,146948,,215531,,91418.5
,114064,,180323,,248074,,94097.7
,80860.5,,120184,,205149,,92747.5
,83431.8,,38831.8,,129048,,102777
,109793,,96455.1,,161270,,80328
,119653,,155620,,214215,,89631
,107987,,128457,,181680,,93274.2
,115574,,185898,,225492,,86904.4
,120226,,146073,,222493,,83673.7
,67254.3,,78288.8,,118712,,86463.7
,137740,,229017,,262143,,88997.3
,95877.9,,73667.2,,144105,,97034.7
,117966,,174213,,241783,,90747.6
,106842,,189594,,253492,,86045.1
,93319.2,,100089,,155341,,87130.3
,91300.5,,118129,,178358,,80508.5
,91810.8,,74423.4,,150862,,94892.3
,118374,,159914,,236346,,90591
,99922.5,,101411,,171628,,94920.7
,121107,,150449,,228131,,89471.3
,97709.4,,139657,,186209,,93524.1
,92235.6,,109845,,156641,,94791.2
,109678,,130226,,191899,,91089.3
,90734.4,,104972,,200412,,91134.1
,113167,,164150,,251508,,90170.3
,94895.1,,106568,,151329,,95862.2
,124130,,201029,,237746,,92263
,113476,,158051,,252678,,93734.8
,132043,,190423,,250712,,90156.6
,137814,,234318,,262143,,90613.3
,85446.9,,115814,,190888,,82038.4
,108311,,129978,,196876,,87184.1
,119819,,163858,,212492,,91666.3
,116399,,153397,,220487,,90613.4
,114455,,151020,,203401,,98280.8
,105388,,133675,,151284,,83504.4
,131612,,214528,,262143,,91477.2
,137661,,123347,,254638,,90859.4
,124648,,122859,,228274,,92323
,86552.1,,122498,,199968,,88473
,122360,,201058,,252115,,87820.9
,116448,,158456,,239525,,91592.9
,89685,,154179,,190996,,84690.5
,118588,,142257,,170837,,83121.3
,123699,,160070,,241310,,94002.4
,112860,,131038,,216058,,90557.1
,98749.8,,159418,,245528,,97692.2
,87387.3,,135684,,201908,,86773.7
,106698,,131151,,165955,,85744
,94542.3,,141527,,200517,,87737.9
,95417.1,,130331,,196255,,89042.2
,99496.8,,100953,,172347,,84602.6
,112368,,120173,,191841,,90842.1
,91063.8,,92915.4,,177721,,91351.8
,143250,,206680,,262143,,81321.7
,87144.3,,124858,,210980,,86433.1
,105502,,169082,,244722,,91742.6
,93505.5,,117496,,178125,,86350.8
,103376,,127239,,187095,,99611.2
,117684,,211924,,262143,,90424.2
,114952,,195173,,262143,,91531
,147335,,230768,,252045,,90617.7
,135860,,210348,,254530,,84706.2
,84363.3,,158844,,184923,,94655.3
,107787,,107652,,175409,,96121.2
,149165,,191823,,242734,,85196.7
,130783,,124607,,184874,,93263.2
,54745.2,,42395,,79936.5,,80204.1
,103496,,110836,,172119,,82617
,92188.8,,86418.4,,136228,,95906
,107583,,167692,,206209,,84699.9
,123368,,112997,,262143,,80845.6
,120290,,177042,,205184,,95123.5
,149484,,195510,,262143,,91807
,91170.9,,76924,,114822,,99521.8
,115956,,145424,,194423,,87253.9
,85996.8,,78262.6,,143650,,94189.6
,111859,,102472,,178729,,82730.6
,108732,,124480,,197936,,85996.4
,106479,,180569,,237792,,88263.7
,116530,,137758,,200847,,87731.1
,122180,,124414,,189582,,93241.4
,133028,,215045,,262143,,83793.3
,91012.5,,76486.5,,140031,,93041.8
,133552,,158235,,234713,,89474.3
,100520,,169570,,207255,,83273.3
,124681,,162128,,217811,,89199.4
,98626.5,,104321,,154183,,94394.9
,119842,,194993,,262143,,88675.8
,80589.6,,67551,,127367,,98454.5
,70897.5,,44876.2,,115346,,99141
,116013,,166330,,213918,,86441.5
,82485,,68243.8,,111947,,99488.2
,88933.5,,92611.8,,159567,,84417.7
,87342.3,,64327.3,,134113,,99309.2
,103350,,150846,,187190,,90502.7
,99235.8,,92871.2,,169803,,95516.4
,111771,,232210,,262143,,95014.1
,92793.6,,93283.9,,162104,,98994.4
,90454.5,,144087,,193072,,89700.8
,95018.4,,104448,,142422,,94414.4
,74734.2,,39001.6,,94001.5,,97984.5
,126153,,146535,,232690,,89483.8
,88223.4,,133939,,218726,,83224
,101417,,148222,,224752,,90915.1
,100032,,196872,,262143,,92550.8
,74050.2,,36423.7,,84516.7,,83998.6
,93899.7,,84140,,171735,,89640.6
,122174,,217936,,262143,,90776.1
,124927,,168044,,206500,,93369.8
,84944.7,,73936.3,,139514,,98326.5
,126539,,187743,,262143,,90887.9
,95130,,88544.9,,206580,,90383.1
,113152,,139136,,196531,,96693.7
,121605,,185944,,197076,,92343.5
,88102.8,,81393.8,,120699,,94414.6
,70319.7,,44467.7,,116370,,81264.1
,94623.3,,101173,,182793,,90371.8
,95067,,122315,,141828,,81357.6
,122587,,236742,,262143,,88329.4
,139358,,171951,,204843,,88158.3
,105037,,132303,,193931,,88058.1
,90720,,91473.3,,142244,,91643.2
,121335,,210134,,236582,,86300.9
,90656.1,,147374,,238406,,90304.8
,127194,,168479,,239952,,88443.1
,99555.3,,96540.7,,148231,,98487.7
,76689,,80169.7,,120597,,91879.3
,128359,,183361,,261731,,90046.8
,134450,,183555,,230951,,90048.1
,124263,,147090,,212669,,90089.2
,120128,,148710,,216532,,92222
,101455,,116755,,161282,,81477.8
,107886,,147165,,165899,,102889
,103300,,151547,,218633,,87739.6
,115479,,143143,,198843,,89084.3
,121349,,145826,,203460,,89203.2
,105009,,173013,,262143,,93769.3
,85269.6,,67476.5,,162175,,92938
,60270.3,,68149.9,,137495,,82605
,106058,,149766,,231585,,90176.1
,89829,,104006,,158933,,91547.1
,123409,,156238,,197895,,92952.7
,111985,,167808,,204390,,81458.6
,103864,,100349,,134046,,100728
,119016,,131818,,210355,,89412.1
,111135,,227736,,190915,,80894.7
,99199.8,,89001.7,,138366,,83489.5
,138841,,214900,,232671,,86463.4
,117788,,143752,,177897,,84874.4
,100208,,220575,,262143,,83118.5
,89602.2,,143572,,153829,,80328.1
,86010.3,,84464.3,,151921,,81374.3
,113817,,224658,,262143,,90551.2
,126712,,173666,,253685,,94499.1
,125113,,164910,,205893,,90962.4
,102766,,176531,,254309,,88229
,132500,,151541,,203978,,90597.7
,125332,,115289,,165801,,83548.7
,120721,,214199,,262143,,92321.7
,107844,,133879,,229277,,85518.4
,110721,,125650,,188195,,86361.3
,103449,,105839,,172810,,96543.8
,98729.1,,161096,,253186,,93256.2
,93513.6,,175599,,179516,,97231
,131659,,153437,,195528,,94049.5
,131185,,234807,,257870,,81603.1
,146897,,213173,,262143,,91795.9
,124766,,197288,,262143,,91140.4
,109153,,145460,,228986,,87891.2
,108180,,115582,,151636,,87011.7
,104642,,124039,,171816,,88378.8
,118739,,161359,,262143,,87636.6
,115767,,169763,,243712,,91543
,93399.3,,93127.9,,188508,,91191.5
,117736,,174809,,209240,,90040.4
,89061.3,,99562.9,,157188,,94302.1
,94851,,140636,,215281,,91590.5
,114418,,155066,,193203,,80542.1
,63205.2,,38884.3,,95631.2,,86283.9
,121880,,172285,,244991,,91008.6
,89816.4,,178703,,238293,,92951
,98541.9,,173531,,193388,,103465
,149273,,184992,,215723,,92212.2
,109088,,145945,,223661,,90166.8
,96256.8,,187605,,262143,,85356.9
,86941.8,,74059.1,,135393,,97351.8
,119448,,147866,,179566,,86795
,116927,,153601,,199497,,92816.3
,80236.8,,71485.4,,156466,,96590.3
,115031,,163571,,209143,,86832.5
,114356,,177952,,231629,,85979.6
,94379.4,,121030,,206651,,88198.9
,143953,,215352,,262143,,100309
,108290,,107225,,170142,,84884.1
,78769.8,,111102,,156660,,97296.9
,93427.2,,121422,,213708,,88873.1
,111006,,193382,,262143,,91252.2
,98756.1,,123636,,219357,,89465.7
,88967.7,,59064,,124135,,95065.9
,111320,,123757,,197190,,89767.7
,145854,,221685,,262143,,87580
,98366.4,,145673,,220332,,85816.9
,117932,,178779,,235530,,92041.8
,96561,,164285,,238412,,86255.4
,126961,,208421,,262143,,91158.4
,107837,,171991,,211413,,94482.8
,95098.5,,102531,,153577,,85065.3
,96047.1,,167151,,198990,,102131
,131788,,167786,,245216,,86918.2
,102845,,169412,,262143,,98996.8
,94211.1,,93092,,149860,,85089.9
,120735,,164743,,194496,,91076.7
,83389.5,,84251.8,,147301,,88401.3
,81963,,116363,,180718,,94228
,72122.4,,37999.7,,85870.5,,86029.6
,140390,,173978,,218522,,92319.1
,135769,,209387,,222336,,96003.3
,116068,,146335,,176833,,91906.8
,132528,,183971,,243475,,92968.3
,108061,,168339,,257213,,88553.9
,94287.6,,133181,,174083,,92093.6
,126708,,202007,,228993,,86179.3
,123626,,163228,,251684,,85644.2
,103072,,88235.8,,139740,,87015.9
,132404,,199255,,225968,,87644.4
,113802,,124658,,179628,,83572.5
,143248,,116540,,212247,,85829.4
,77985.9,,49475.8,,103311,,89231.6
,120246,,104781,,177979,,90213
,93197.7,,116497,,151231,,84370.3
,105069,,182473,,236557,,83896.5
,94209.3,,86759.2,,140699,,88418
,112954,,117684,,202899,,92619.3
,86362.2,,101114,,132325,,97952.8
,113904,,148017,,188068,,92727.9
,144220,,207894,,262143,,91670.4
,159986,,222103,,262143,,85828.8
,107829,,124395,,165428,,84084.1
,107788,,116418,,180189,,87538.1
,120165,,162748,,219339,,91203.4
,107949,,126913,,191576,,81138.9
,124459,,176888,,201020,,92564.4
,97245.9,,103143,,172276,,92733.1
,111753,,147877,,229050,,91517.5
,124766,,145147,,223233,,89538.3
,101411,,148451,,228894,,90720.4
,90115.2,,84233.8,,139813,,96957.6
,70578,,54065.6,,184891,,82390
,109654,,113798,,183917,,92964.9
,74090.7,,52212.3,,123720,,100337
,121735,,182484,,229159,,91208
,122350,,141998,,247433,,91940.4
,113690,,192228,,234105,,91030.4
,153332,,212923,,262143,,84178.3
,77498.1,,76703.2,,184151,,94061.1
,120843,,199679,,262143,,89423.7
,125024,,217344,,262143,,88096.2
,115943,,133657,,213671,,91246
,110691,,101927,,146960,,81231.8
,129034,,95148.2,,148404,,90981.2
,85584.6,,157005,,254781,,83714.4
,115094,,212105,,262143,,90464.2
,104899,,185765,,262143,,85072.6
,96730.2,,112477,,147431,,81543.2
,86714.1,,129650,,150020,,88369.2
,115960,,143810,,176332,,96491.7
,102062,,123068,,205512,,80876.5
,101428,,91056.5,,167190,,95676.8
,89310.6,,116224,,165673,,83149.3
,127884,,185894,,233317,,88367.7
,145987,,222249,,262143,,86023.4
,101343,,162009,,208143,,83440.1
,128728,,213623,,227274,,94329.1
,93735,,95991.4,,127284,,98220.6
,124185,,183089,,256190,,88291.9
,119722,,116039,,176890,,85081.6
,112684,,156564,,219137,,94035.8
,109256,,116613,,164223,,81476.3
,114256,,147728,,184460,,98065.1
,123888,,218678,,262143,,89699.7
,79926.3,,146900,,167373,,88730.9
,108022,,154353,,204613,,91374.2
,128178,,180162,,239451,,89561.5
,113534,,112380,,192651,,93051.5
,117516,,233057,,262143,,91877.4
,135670,,174236,,262143,,89739.7
,116276,,169271,,204036,,93566.2
,123602,,196044,,257729,,87448
,137794,,154778,,221707,,89307.5
,137703,,163472,,228895,,93945.3
,101756,,148244,,241143,,88706.2
,105284,,163284,,211295,,87668.2
,127601,,190170,,257298,,87941.6
,109653,,134747,,196847,,92680.6
,129111,,200514,,221959,,93461.5
,103650,,121367,,198790,,86623
,118950,,175967,,260316,,91728
,108634,,159528,,246298,,91503.8
,122256,,197426,,238832,,91049.4
,131370,,170914,,241296,,87328.6
,110657,,130667,,246595,,85261
,109652,,117591,,221364,,89715.7
,124482,,176730,,200395,,92486.7
,76645.8,,86603.3,,129920,,84440.4
,51727.5,,97890.3,,173579,,83361.7
,112731,,164275,,242743,,82750.5
,80780.4,,56446.1,,105700,,91393.7
,133302,,178286,,219693,,91426.1
,122134,,177149,,240382,,89753.2
,111082,,165404,,184890,,82782.1
,125180,,181790,,262143,,80635.9
,129098,,219127,,224665,,87408.2
,102737,,148224,,184590,,101564
,127942,,167179,,247129,,92978.5
,110066,,124923,,170974,,82158
,103683,,107975,,143436,,80166.4
,122856,,150598,,199472,,94413.9
,127735,,190888,,242957,,86844.6
,132668,,208181,,262143,,85621.8
,87055.2,,131900,,206734,,93741.7
,115497,,205754,,262143,,92526
,129160,,213084,,253772,,85445.2
,93504.6,,112721,,186177,,91182.4
,96929.1,,120771,,189273,,98958.2
,118658,,179862,,248247,,86393.8
,90173.7,,136439,,226392,,87921.5
,88839.9,,82878.7,,146672,,90269.8
,136874,,217062,,262143,,84846.3
,101037,,120190,,173361,,83354.2
,110938,,132782,,207696,,92383.6
,109922,,122198,,195647,,89128.5
,141667,,211899,,262143,,90098.5
,111485,,114013,,186213,,82410.6
,109129,,148594,,184763,,95404.2
,120734,,129342,,237422,,86414
,142534,,230296,,262143,,88272.8
,162343,,209819,,262143,,90451.8
,94461.3,,73112.4,,178986,,92516
,106104,,157502,,208744,,93019.9
,95807.7,,126002,,143779,,97742.2
,129839,,181513,,262143,,86829.3
,80262,,80186.3,,176506,,98458.8
,97182,,99985.1,,167143,,92472.6
,113012,,184723,,262143,,96830.2
,80568.9,,204022,,262143,,92833.7
,113788,,185845,,262143,,80442.7
,118419,,131228,,214768,,94713.7
,107910,,115051,,193236,,88734.8
,132491,,193842,,262143,,88348.7
,118681,,137281,,191555,,84120.2
,75078,,55235.9,,102164,,95997
,118800,,167371,,164439,,93643.2
,101236,,136821,,188358,,87213
,108465,,192015,,190768,,82449.6
,98160.3,,137829,,154738,,97189.4
,72569.7,,35253.5,,110001,,98745.3
,137181,,225786,,241163,,94685.2
,106962,,134434,,184131,,91971
,65612.7,,31280.5,,91720.3,,89744.6
,115251,,163431,,260803,,89941.6
,157426,,196283,,224981,,92359.6
,93143.7,,68221.7,,126721,,94746.5
,105993,,158040,,164546,,82581
,120689,,147610,,225554,,90368
,111259,,127288,,187212,,92388.5
,105978,,121608,,172209,,95751.9
,109326,,145667,,231581,,89333.3
,66304.8,,47339.5,,122062,,95436
,120083,,124472,,262143,,90108.2
,112331,,144678,,174789,,87583.6
,95093.1,,154848,,219227,,90849.4
,87867.9,,65806.7,,122740,,97536.1
,116208,,123060,,204560,,91580.5
,134985,,146528,,218385,,87026.9
,85242.6,,105384,,137565,,87020
,122794,,185802,,222996,,93958.2
,118471,,183210,,262143,,90217.2
,110372,,78177,,149480,,96704.4
,103753,,125728,,198848,,91696.1
,117907,,104409,,153762,,84423.1
,106228,,195201,,262143,,90904.5
,117662,,188583,,212423,,89183.1
,119336,,218312,,262143,,97609.9
,93809.7,,182236,,181525,,88905.6
,107939,,149113,,209542,,89909.1
,119201,,216530,,258111,,85446.3
,101345,,147340,,234837,,88407.2
,161528,,218569,,260400,,84404.9
,74484.9,,142460,,192350,,83256.3
,109336,,144740,,185595,,88593.2
,82113.3,,83788.1,,120068,,88595.2
,96293.7,,115059,,196893,,90131.7
,105168,,131742,,188271,,90374.3
,111664,,160926,,249941,,94014.2
,129357,,103358,,155503,,90268.8
,116017,,129425,,192936,,91416.1
,94995,,100787,,172312,,86557.1
,120083,,165848,,223920,,87421.6
,86537.7,,112647,,191399,,95369.1
,86253.3,,135958,,198960,,80538.2
,106133,,118310,,191721,,88908.7
,141095,,156899,,218856,,91493.5
,140116,,119260,,208772,,90410.5
,135464,,214932,,262143,,88942.1
,95890.5,,121032,,191614,,91579.2
,103334,,102996,,157908,,87965.1
,124551,,165728,,217513,,89282.1
,108004,,124782,,176187,,81660.4
,81867.6,,111194,,207269,,93457.8
,124030,,177957,,262143,,92567.4
,95858.1,,113974,,210312,,90566.9
,123033,,159117,,219438,,85838.5
,136719,,169399,,250125,,90414.8
,71046,,63431.7,,108657,,93267.6
,106185,,139198,,201681,,91192.6
,121423,,180029,,226466,,88843.4
,101255,,124879,,209357,,91030.1
,118580,,167071,,214060,,88001.7
,117476,,121639,,196871,,92841.3
,155982,,164826,,222873,,90631.2
,94880.7,,119501,,192607,,88843.8
,84052.8,,108572,,160820,,84844.7
,120248,,185363,,228095,,88917.1
,100738,,107267,,199505,,89478.7
,149398,,131248,,219511,,94213.9
,125114,,174511,,228386,,87874.6
,115914,,130788,,184789,,94655.2
