"FSC-A","FSC-A","SSC-A","SSC-A","FITC-A","FITC-A","Comp-PE-A","Comp-PE-A"
81479.7,110919,64992.2,83233.2,96581.4,128621,97706.2,105866
121362,68966.1,120063,35757.8,163823,87558.9,93913.6,105427
78025.5,97158.6,92479.5,82445.1,112222,112772,100215,105013
74192.4,76783.5,63737.1,50936.6,171215,89415.9,103357,108941
99273.6,90717.3,89681.4,92931.2,132204,179170,108238,105283
159024,83988,154418,66018,231221,101310,103774,109745
78297.3,89068.5,52717.1,102952,94109.9,116305,112627,107827
68176.8,97479,71639.2,103018,100901,118267,101035,96924.6
117166,93789,148781,89035.1,177820,203496,108575,102022
105560,103950,106963,170529,202986,167948,105089,107615
119264,78756.3,119496,44945.6,150932,79166.1,110469,101950
81574.2,94619.7,47930,123760,94941.2,245095,113142,98381.2
97631.1,99117,61759.1,95595.9,155059,125443,100528,110266
77285.7,85521.6,48762.6,82646.6,91594,172641,112055,96302.4
97273.8,87203.7,113663,103631,133364,115374,99243.6,102130
103829,110263,86113.3,95755.7,118635,171817,107112,99545.7
72733.5,60879.6,62174.7,33139,99440.6,64183.2,112838,96539.5
89599.5,105890,86573.4,72470.4,135191,163187,98579.7,96396.6
82891.8,104343,55644.5,137604,104251,152555,101067,106636
62817.3,99187.2,38607.2,99556,83694.7,163272,108934,94795.2
72101.7,97828.2,88226.1,134962,104485,140248,99595.9,113049
88429.5,116541,82221.3,85040.2,118397,180906,104219,101151
75787.2,109349,42817.6,129359,86269,226202,111679,93972.3
81225,81822.6,65420.3,56040.6,102121,86295.4,109753,97468.2
96811.2,74311.2,89721.7,40784,124228,84414.7,99329.1,111964
66474.9,72125.1,171999,43497.3,252588,81413.7,93962.9,101040
72046.8,64015.2,40950.8,23678.7,75610.4,70063,97851.5,111106
102162,87992.1,128296,70511.9,140811,175494,95247,103992
70469.1,93502.8,53706.8,81759.8,90354.2,180678,101948,104067
101850,114548,95765.4,167420,235353,161786,94984.1,111385
124039,78947.1,139474,42941.3,158345,83672.4,109380,97665.8
95855.4,60993,98435.6,40633.9,201465,62130.2,106974,95276
82635.3,80777.7,82452,52744.9,106311,96841.3,109680,107588
87893.1,91073.7,99836.8,131156,160929,114934,96842.1,109916
76745.7,105656,72865.2,96193.6,99884,186765,95157.5,104050
173846,120325,132694,94242,216577,184586,100058,97240.1
79081.2,92253.6,52473.9,54166.9,97968.6,144550,108091,94247.5
90430.2,112981,64789.3,92870.1,107086,184731,113141,101149
91316.7,112926,92959,115289,109314,141936,110432,96188.3
97103.7,110449,95302.6,170987,225318,176719,104736,103380
126970,79714.8,81244.1,70145,180086,166473,102145,95974
106600,85947.3,119761,87406,251147,197611,110429,104012
79256.7,166074,65166,176487,101699,216964,112624,103005
92891.7,84961.8,72973.6,46063.2,118744,87337.9,110849,112965
72284.4,111178,51178.4,140913,95684.8,146083,99070,107766
116635,101235,141024,149004,178500,143355,98128.4,102888
86577.3,100836,84564.8,114047,116681,133083,108002,110483
113638,91809.9,83436.1,111921,184641,124511,107409,100391
91587.6,104431,68232.3,99105.6,147165,118441,103653,112012
73530,83979,68019.6,110287,89190.7,231170,105447,106535
84239.1,78100.2,54738.2,61022.4,93477.5,85908.9,111856,112982
87732.9,75396.6,63680.1,107115,103948,114098,106696,95079.9
87090.3,99387,111639,79366.2,200325,152619,104419,110823
102998,84994.2,93359.4,112183,132947,200145,110114,99437.1
78918.3,97824.6,74943.2,76195.6,154222,154473,105055,94638.9
91792.8,101747,95481.9,77931.7,204216,163335,106282,104909
45976.5,83889.9,18165.9,61276.8,66215.4,102290,94700.6,106688
75848.4,81327.6,37128.3,101822,85754.7,119130,113003,104574
109111,70511.4,116164,74410.9,140939,82388.1,112996,98159.1
103024,85272.3,111686,75201.8,156040,87774.3,98917.7,111703
118749,69292.8,113576,71320.9,210527,151364,103860,96703.5
93137.4,98157.6,89247.7,94579.8,189343,119005,108498,112712
73143,83843.1,36140,52254.3,81591.6,85743.5,105306,112288
80145.9,97544.7,44916.5,119671,89554.9,121797,110905,109481
77152.5,48028.5,57543.2,63616.1,90487.6,151721,104137,95915.5
75301.2,114974,56201.9,67734.7,92822.8,129865,95133.2,108216
106146,83056.5,93706.9,101542,141805,222200,95492.5,100824
82147.5,74656.8,57856,111655,101403,256171,109909,96667.4
90306,75176.1,51759.4,42026.6,137780,80336.4,111852,110145
66850.2,66141,47123.8,50290.2,87335.1,83466.7,101426,106789
77739.3,81968.4,60886.2,63149.1,160804,144812,106792,99577
95641.2,76077,71092.9,47051.5,181029,92212.6,106604,109578
81481.5,63737.1,56618.9,38662.8,95087.1,79003.4,111181,105210
115509,93041.1,113933,104144,194184,107757,95859.2,95502.7
84396.6,92920.5,67281.6,91881.8,105789,121636,104728,107373
99586.8,87244.2,67726.4,112589,130782,245795,96786.2,97887
142469,114694,154574,103652,193753,124926,101443,104707
65386.8,84319.2,35228.2,53761,77227,145091,103013,107462
75724.2,89663.4,67962.7,90085.9,91541.2,113769,107290,102695
99911.7,103390,96924.7,127360,187736,240419,106731,101935
81941.4,69053.4,65534.3,102891,91449.5,235708,96142.9,98597.2
91573.2,90965.7,111151,101840,206757,125985,102737,102397
83777.4,93014.1,62551.4,83401.4,99050,193229,95003.5,98470.6
87309.9,75050.1,74345.5,63153.3,94394.9,92230.7,106792,104965
81324.9,106720,49276.9,145038,76586.2,140073,100984,113029
86529.6,98559.9,47675.6,68938.4,85041.6,172721,103469,102322
161241,107618,164545,115089,203335,157811,105101,109472
71116.2,60752.7,64124.9,46074.3,98373.1,88683.4,107094,96936.2
112250,64951.2,75481.2,54191.9,157618,67081.4,104809,93964.9
128842,78512.4,92421.1,68599.3,175057,94104.4,103031,104208
93943.8,151633,70060.2,113432,113053,195002,107421,97968.4
101311,111444,82553.5,132742,126597,158814,109170,112279
92852.1,104518,58134,186965,99647.7,187193,113079,105422
88665.3,81793.8,73854.9,82802.3,99789.5,98869.3,102830,106060
104238,102931,85576.7,93010.5,186869,195246,99340.8,108575
108590,105617,117922,78269.5,218497,173751,106970,104839
118414,108865,95910,117334,127899,144035,107261,106000
121382,114114,139599,133614,221501,246621,94035.5,106671
91682.1,108182,65848.5,134766,129087,134154,104638,103219
130292,87283.8,117438,56905.2,175713,101987,105249,111032
82765.8,119268,59856.2,166697,85920.1,182909,105733,105708
89308.8,126263,74324.7,184360,125503,206589,112502,103062
97095.6,88321.5,60964,105438,126878,182358,108720,95598
130221,101361,112254,66457.3,181271,150458,105184,109397
105374,86108.4,120056,56653.6,194251,144599,105655,104761
125075,75308.4,65242.4,36910.1,153751,81591.6,101577,111991
88737.3,79639.2,98521.8,67864,179421,97578,98778.2,102056
91451.7,110611,64234.7,79480.2,172883,139404,105663,110172
112477,104337,67558.2,93007.7,158500,129976,106281,109838
84709.8,82611,56149.1,150234,88398.4,250666,99905.3,103213
151233,81631.8,87137.7,77047.7,181912,106938,103490,95414.8
83205,87776.1,71161,86631.8,93645.7,119804,110215,110018
96324.3,103477,112337,91898.5,168777,121685,103498,113017
70159.5,90978.3,38564.2,75732.8,84196.5,108645,112703,112817
91898.1,95040,66857.6,100498,114569,211122,108168,101804
84231,73779.3,33846.5,65691.4,96286.7,91364.7,99142.1,109269
104206,91865.7,100247,99177.9,221619,191660,105212,103491
72170.1,109346,38469.6,145023,81661.1,159286,104460,109430
72492.3,83102.4,45202.8,81163.5,88160.8,93317.6,109632,113007
73141.2,116347,42208.7,93726.3,88359.5,228705,112943,101199
98035.2,144833,91694.1,206710,179243,231029,112981,96331.9
94006.8,106239,71597.5,115081,103178,139360,103623,101567
70619.4,60374.7,37395.2,81552.7,72241.1,109766,105741,108757
113124,66003.3,55365.1,87050.1,119076,185338,108686,102991
63284.4,78830.1,27737.4,94014,70391,189832,108070,101254
86636.7,96161.4,77751,102550,133678,178775,96443,98478.5
94585.5,89550,65031.1,108451,136465,229950,97989.1,105102
88402.5,157358,88028.7,209134,203742,240624,95374.6,99721.9
102495,77470.2,116039,51247.9,143830,86291.2,99803.8,106281
73676.7,102638,49660.5,77346.5,81960,162237,102551,101539
74595.6,105704,94517.2,118712,116882,135620,112046,108781
101995,82636.2,107635,70801,210140,105017,98524.9,105108
74483.1,84184.2,46253.6,67905.7,87461.6,107908,112123,112664
80937,65771.1,88259.4,44357.7,132138,78845,94030.3,107045
92716.2,108204,72906.9,154846,167619,253836,111109,102388
89080.2,79204.5,62513.9,47553.3,107914,92309.9,111049,111421
127985,122698,61201.7,92368.3,138636,216074,105710,100847
79806.6,108545,57669.7,76639,81480.4,153449,98879.4,105695
114466,81865.8,106257,105420,153100,106960,112470,103039
78718.5,71899.2,67669.4,41619.4,101982,82857.9,108665,95724.4
104631,137644,83933.8,87133.5,188708,206792,100321,97406
86222.7,95948.1,94055.7,111104,120941,114159,107562,110049
122663,82475.1,165143,75766.1,188121,100576,97375.4,103070
95337,107984,106120,121685,184638,183611,94292.1,105539
63423,94153.5,43401.4,138206,86649.8,148708,98197.1,107934
70767,91208.7,71731,97283.3,80057,103192,96201.1,112179
84748.5,109667,127695,156928,193229,141163,94371.5,108966
70394.4,137537,19137.5,195661,78639.2,193295,112831,104078
104551,92314.8,112986,96024,140686,105497,110922,111259
150116,105855,137742,114229,232391,144374,102254,96415.5
92516.4,78825.6,79210.5,45130.5,113031,94739.6,112996,110438
63562.5,100704,44803.9,98179.9,81088.4,211454,109340,98259.8
116991,77330.7,79312,57120.7,162167,85354.3,103067,109865
65835,103730,45792.2,106724,76876.7,132317,112867,106567
97639.2,94766.4,51435.6,73148.8,157705,115884,98656.2,105166
110695,84659.4,142989,77687.1,222158,113883,94941.1,106965
90102.6,89291.7,75763.3,66750.6,198516,106322,104531,109238
67177.8,70552.8,27768,74513.7,73105.7,102084,97751.2,96788
105570,79021.8,92490.6,52625.4,177732,82877.4,98958,112528
105429,93898.8,113758,130237,156453,241497,103960,100026
108328,110470,55625,115007,158019,194348,105365,110547
81252,93845.7,42314.4,116440,83502.9,134613,108722,99452.5
81325.8,86277.6,46787.4,67381.6,93894.5,142082,112445,102589
77202,98974.8,43957.4,97958.9,91617.7,129470,101007,106061
117196,88798.5,115898,85872.8,150751,117579,112206,98202.5
102214,86729.4,127859,136144,220369,144743,107105,106184
69980.4,95761.8,31209.7,185548,67005,230449,98516.2,106696
112973,86323.5,118670,83205.4,149823,93904.2,101680,108988
100881,127133,45394.6,119172,98442.6,231172,111141,96347.8
82498.5,79812,106771,76737.7,213918,151164,102747,99295.9
98649.9,75173.4,87312.9,55334.5,138570,93777.7,107575,110774
148597,72479.7,140222,58773.4,203937,96245,100210,110092
93825.9,83115.9,87617.3,60189.8,181193,104121,110768,109133
96952.5,95625,75307.4,68934.3,143126,109870,109488,112048
94386.6,98665.2,105648,70927.5,228737,158265,93886.5,105749
79067.7,62341.2,49549.3,68702.1,94356,167585,98351.6,111223
120150,116540,116076,146527,198468,132724,99773.7,106513
66212.1,97275.6,37988.7,114052,73621.4,165806,111594,107172
109600,64910.7,60733.3,35249,159265,64024.8,102996,100076
73542.6,79793.1,60894.5,58542.6,87828.5,141464,97402.1,99444.7
70191,76003.2,34989.1,44061.6,84017.2,83188.7,109891,113070
116727,101376,77495.3,127170,180214,213111,100128,103432
88265.7,96123.6,53125.8,72898.5,103041,124672,112732,104073
122594,81317.7,58772,82949.6,150901,103177,96456,108435
80003.7,82056.6,47528.3,53161.9,97268,90334.7,111272,111468
100170,76921.2,93869.5,78731,194707,95394.3,97794.6,112185
94833.9,68325.3,79317.6,33259.9,112444,83545.9,98182.5,111753
87866.1,95245.2,77863.6,88437.4,112301,107238,107986,112522
80561.7,70506.9,93041,47084.9,104243,88552.7,96327.9,99859.9
84042,98148.6,51716.3,71835.2,84093.6,106071,108656,107471
72848.7,87937.2,42895.4,70913.6,73190.5,89218.5,97235.4,113083
171261,83289.6,133377,114510,252260,168522,100605,99734.5
91119.6,99209.7,79788.8,81481.8,113902,176590,111441,99778.8
96758.1,105770,60285.7,110584,142892,140099,105667,104829
92425.5,88176.6,101890,78113.8,133872,173325,112590,102314
86258.7,87666.3,64117.9,75955.2,84353.5,100689,110871,107982
84954.6,77152.5,57885.2,181323,125131,155805,96328.5,102585
94424.4,78745.5,86000.7,65197.9,137616,92214,108907,110626
93379.5,73931.4,68978.8,106910,116565,228601,99004.8,107286
75339,106357,70461.9,70606.4,111603,152338,107573,94652.5
95461.2,89535.6,83173.4,70669,178655,95556.9,102849,109523
65298.6,65789.1,37121.3,25100.6,80873,78309.8,105170,107534
82611.9,107887,71291.7,115128,118268,140857,94647.6,110785
127761,88788.6,110640,72733.1,245873,98911,103167,110925
93010.5,84771,109048,67840.3,205770,95149.7,103551,109303
61493.4,80942.4,30290.9,55177.4,76201.2,159479,111511,98342.8
96152.4,85652.1,107130,118218,200081,132998,98817.2,96910.8
109199,86229.9,96803.8,103672,166191,227038,102020,98325.1
95932.8,83246.4,106054,59068.1,183579,85679.6,110192,106938
103568,68370.3,85411.3,30218.6,136164,73095.9,112827,110048
82931.4,66275.1,64625.3,64818.5,94622.9,95087.1,104527,104064
63306,140435,20819.4,188562,69426.3,195993,100497,102821
93584.7,84149.1,83122,81573.5,165620,100122,100033,100093
127863,90917.1,82497.9,86597,131860,114565,100282,96718.2
100523,86436.9,162013,81524.9,229774,165644,101824,110074
104200,75416.4,96183.8,57775.3,182735,139309,107606,95859.5
92754.9,72874.8,76739.1,49357.5,108370,81789,111579,99535.1
68261.4,81713.7,41630.5,72952.8,78433.5,105131,109369,112090
74690.1,108203,48695.9,106228,91990.2,210520,102031,103483
62593.2,76165.2,38678.1,73569.9,87343.4,103137,99013.2,109919
75758.4,114442,38094.3,140646,78940.9,142446,96227.6,112911
95112,87902.1,104204,80603.3,189456,114635,102506,106460
70506,76110.3,45679.6,54899.4,83708.6,79427.4,105439,105161
84673.8,65913.3,54169.7,47809.1,84802.5,88387.3,103075,102972
68652.9,96361.2,67405.3,117038,90614.1,138488,98203.4,95949.7
90017.1,83592.9,98717.8,51033.8,200940,94111.3,97729.4,108467
63644.4,100129,29800.2,115872,87298.9,144857,111361,110092
78823.8,82381.5,71013.7,124504,177937,218480,104098,96271.7
85678.2,87939.9,92132,65330,190960,104175,102373,108815
90740.7,76455.9,111144,58178.4,210863,83415.3,104591,97068.6
101534,101024,72410.7,138889,160202,213725,100002,96097.4
56597.4,77248.8,71961.7,57494.6,156585,95344.3,111919,110413
75587.4,94375.8,59318.2,89705,73179.3,129891,94142.8,106083
80085.6,89241.3,48206.6,65865.1,89395.1,94838.3,107896,107778
74103.3,66721.5,29815.5,74106.5,81606.9,204081,110555,108895
99977.4,84072.6,66494.8,62292.8,120719,92440.6,112383,106401
145575,81612,95319.2,154443,165140,153998,100990,107273
101475,81273.6,167760,75054.4,184945,92911.8,102597,110827
93411,77148.9,83088.6,79375.9,114197,103991,109371,106237
91043.1,84081.6,67998.8,106637,103230,111157,110613,106880
66078,95544.9,43401.4,62701.5,78148.6,94953.7,105886,108748
69039,108856,45525.3,94998.2,83804.5,118617,106218,111868
84924.9,132116,60740.2,200580,102731,240755,113070,95529.1
79127.1,84611.7,57251.3,57491.8,98674.7,95349.8,111594,109196
89055.9,95322.6,52795,95355.4,92266.8,120452,110138,102802
81943.2,82989.9,82550.7,125328,108410,120588,96489.5,105328
167070,83536.2,141092,72730.4,220376,96894.1,104082,111223
95749.2,117731,81588.8,126494,183779,246530,99740.3,102957
93491.1,115081,102175,177673,141074,235868,96507.8,101627
134150,73751.4,130123,77741.3,151949,99273.8,111313,105303
59072.4,104752,31896.3,102650,69590.4,136804,108180,107072
101475,65254.5,115615,95190,202305,106128,99749.6,99037
109671,93870,54967.6,99289.1,128790,117612,100456,110893
122784,113124,91919.3,160498,171045,221170,102950,97511
92604.6,81435.6,122802,67434.5,235929,99093.1,99032.3,105562
138556,100591,87532.5,168004,190013,146491,100355,107092
80227.8,124313,78307,215686,99977.1,194265,103108,94799.1
93594.6,95719.5,98785.9,74579.1,115976,111322,110303,111940
92320.2,119848,95320.6,140233,117602,160268,108548,104170
81736.2,98216.1,54500.5,89055.9,126051,127027,98896.7,111228
93919.5,87042.6,103816,62059.3,208182,94896.7,96109.1,111531
77820.3,75094.2,41595.8,49889.9,88131.6,85494.7,100453,108452
81198.9,127326,45619.8,169024,99729.7,165892,107285,106857
72043.2,100321,39891.6,77816.4,90052.5,127552,108312,107431
76115.7,112218,39017.3,199129,84385.5,216066,95952.3,100961
87174.9,108109,59154.2,171412,100701,243656,112206,98561.4
125919,117805,116981,172559,169456,253991,110776,100347
90405.9,117669,94514.4,84189.5,198014,175454,95945.9,106820
73755.9,83010.6,40125.1,62622.3,75022.5,103573,108244,107211
90088.2,85404.6,95647.3,122755,197220,194943,99356.1,99103.4
119746,75554.1,120872,66090.3,147956,101837,109484,108729
75818.7,94999.5,52567,72257.8,101331,186759,108584,101244
108245,95220.9,105208,80411.5,224018,120412,106664,107333
75118.5,96083.1,49187.9,62830.8,103980,104574,101842,111091
120057,100318,83904.6,105722,168109,125086,98513,106923
75343.5,74835,70960.9,41580.5,114580,78793.5,110576,96807.2
80517.6,113970,61992.6,112060,165753,261011,111166,101060
85291.2,90491.4,124445,127979,198053,226514,101242,97857.8
101044,83747.7,68005.8,71047.1,166297,115385,104585,108187
128920,73346.4,88053.7,57839.3,186803,85893.7,102059,107087
91106.1,90437.4,97698.9,47590.8,205350,136743,106394,104159
82517.4,83875.5,68912,46317.6,93695.7,86441.3,94035.3,98141.2
114649,71083.8,98229.9,35725.8,132956,86064.6,111628,108952
97946.1,101802,119496,84517.6,237728,184852,96712.6,101741
69537.6,171152,39216.1,178083,69458.3,198922,96392.3,104457
84911.4,78030.9,56514.6,112532,108938,111015,112975,99833.4
96160.5,101277,100211,79054.9,149909,190918,96959.5,95799.7
83385,87658.2,69142.8,107849,111118,185229,104055,103348
84815.1,138435,82617.4,174944,108647,252548,109801,95818.3
123744,70236.9,129330,56290.8,144888,86299.5,108858,105538
99381.6,66910.5,107170,44744.1,209581,81137.1,102220,94008.3
78655.5,93410.1,66307.2,89040.6,98890.2,161600,109158,94257
63174.6,76743.9,36215.1,75593.8,66633.8,116905,98712.5,110054
86866.2,68562,97730.9,122929,205641,129530,102127,104572
121229,97071.3,105425,99376.7,195410,204594,94899.5,100156
76745.7,78170.4,48722.3,58870.7,92300.2,88841.9,107358,94063
124449,98804.7,156125,98997.2,190434,115128,104127,113108
90922.5,70079.4,94882.8,55668.1,117733,96475.7,102936,103917
91974.6,87176.7,76124.7,69260.9,100270,94921.7,106802,106484
104202,67328.1,130445,35028,228280,80065.4,102690,109968
68545.8,80562.6,28867.5,88793.2,75698,117142,97281.1,104106
69565.5,101750,98082.6,93148.1,102941,110547,107938,111025
67402.8,85052.7,28357.4,85693.5,72132.7,214986,111878,95951.8
71672.4,63880.2,57219.3,95067.7,90511.2,231436,95635.7,106571
74434.5,108153,38330.6,100525,82381.1,129124,103003,107849
73621.8,99691.2,66341.9,89169.9,98563.5,129663,104346,100576
89667,94239.9,138294,51623.2,236622,113209,102571,99675.9
56000.7,80068.5,43356.9,76347.1,86891.7,178034,105003,96204.9
90148.5,149608,101095,198707,154981,261018,99713.6,98898
71563.5,84323.7,69502.8,68075.2,94595.1,123053,107609,110268
72469.8,79340.4,65979.1,108098,93313.5,253650,103589,100663
79612.2,75096.9,72135.4,84036.6,111356,179500,112066,93965.3
64107.9,63703.8,42114.2,44594,87670.1,69691.8,97912.3,97315
96752.7,69031.8,115164,61685.4,222275,168788,104725,97454.6
73176.3,89516.7,37331.2,78088.8,78077.7,111739,111561,106299
74704.5,78716.7,55618.1,123246,92733.9,108716,108404,103883
109701,131809,106182,118525,189350,143505,101923,111512
101420,80282.7,85158.4,40164.1,109058,82599.4,111216,106663
88092.9,99345.6,79225.8,86894.5,137180,167127,107961,103499
63907.2,67355.1,30603.6,25203.5,81590.2,78434.9,95417.8,111722
113585,97823.7,129212,65623.3,220234,119883,100950,109406
86848.2,111506,67648.5,84349.4,113574,175670,111901,97889
101702,101142,67014.7,79538.6,174880,122089,107562,108175
81072,88772.4,60968.2,69816.9,84669.1,181813,101572,101273
86200.2,88812,53812.5,59718.6,94538.1,105915,102517,111900
79348.5,73833.3,42648,75882.9,88759.8,99036.1,103160,109591
67399.2,95074.2,32955.5,94818.9,60537.3,118132,103398,112452
72486.9,108574,35065.5,79551.1,78921.4,171090,100286,102611
114394,88204.5,176858,89146.3,215868,133494,98876.6,103059
67708.8,73659.6,46977.8,76101.1,78699,91231.3,95799.4,109826
85716,80383.5,74752.8,69648.7,104610,142568,113097,102882
96046.2,75971.7,115428,61158.6,105868,91716.4,103204,110355
65169.9,97875.9,22652.8,127439,75314.4,132200,109329,104977
68946.3,96011.1,46410.7,78761.6,92707.4,113478,96574.6,97597
85385.7,116205,71865.8,180669,112155,175681,110276,107169
100644,68665.5,97597.5,35924.6,191211,70250.6,105948,96676.9
115877,90720,58783.1,60307.9,182857,99918.8,95825.4,110977
78531.3,72864,90525.1,86143.9,207709,110694,104272,106359
73606.5,93452.4,47346.2,56912.2,93367.7,94385.2,109402,104175
101568,56855.7,122713,20267.6,194412,83545.9,94077.7,111637
92338.2,82716.3,119152,60181.4,185337,98899.9,94179,109600
93244.5,78777,62290.1,71819.9,103922,107327,112580,110222
84167.1,97549.2,56199.1,81390.1,98421.7,188868,110424,108754
94644.9,93456.9,79838.8,100268,121813,192131,96635.8,105902
85643.1,84268.8,58573.2,60092.5,99000,105085,111351,109843
75140.1,72837,42759.2,83965.7,91385.5,93485.8,112816,111855
90903.6,82167.3,74039.7,78618.4,110259,103755,110796,106799
122054,106026,77461.9,73278,155148,129630,94416.5,107773
103026,101568,94235,131206,193551,144917,112188,103841
70203.6,75582.9,56571.6,87939.7,96167.1,176030,106881,105058
78557.4,70069.5,59493.4,52936.8,98499.6,77175.6,110600,101465
96852.6,91146.6,103504,70256.2,182318,101281,94719.3,103320
63341.1,84930.3,35755,73271.1,82090.6,101223,109854,104472
89867.7,105602,74580.5,116722,101011,137261,112131,108555
67410,82009.8,49912.1,64172.1,82828.7,137513,106024,107164
85671,129892,78764.4,179432,101273,210459,102447,100788
70689.6,74836.8,37128.3,66421.1,80332.3,106766,104459,102593
89777.7,106370,87747.9,109786,164241,225400,101125,104920
96093,122645,121326,158281,234689,169096,100687,102530
88407,79460.1,48419.3,87711.8,94014,107726,112746,107038
103504,89746.2,71434.9,76013.5,168786,115506,102491,95687.7
74035.8,82858.5,74454,95280.3,104570,191997,107695,96141.1
102502,103390,67656.9,101617,113106,212923,104114,101471
90259.2,99307.8,79287,58552.4,113701,117597,111716,109301
72355.5,100381,25806.7,140907,77373,124455,110341,104837
86109.3,94028.4,52854.8,105694,122239,254456,108780,100672
106165,80437.5,146607,70158.9,226271,103488,100898,107491
86576.4,68458.5,65754,67144,100088,77677.4,110929,99111.8
79706.7,93703.5,56763.4,76711.3,97610,110640,106746,111943
88185.6,93361.5,60859.8,68919,100229,168854,111710,109137
95474.7,106941,81526.3,92903.4,159461,119045,111110,99882.6
120987,69749.1,118314,58471.7,248828,83097,113265,103188
103838,69788.7,103896,137043,213875,193407,104540,94584.3
76097.7,78004.8,86267.6,92107,218183,212177,107232,105900
98682.3,73333.8,100621,84172.8,209463,157633,107166,101607
113298,119624,144639,205199,192641,168889,102467,106701
111597,71109.9,132744,52090.2,203585,94280.9,98426.9,104573
97042.5,85197.6,60522,68896.7,130151,101602,99926.1,110476
94920.3,83262.6,75901,57722.5,130374,142820,106346,99086.5
100417,72337.5,84940.1,43907.3,181223,82040.6,105336,102788
102612,86382.9,90690.5,120860,202003,133774,100983,96851.5
68921.1,78480.9,33639.4,73569.9,86573.4,143933,110606,109712
130421,97476.3,123283,121469,204570,150836,99016.9,107291
80186.4,97398.9,63014.3,72880.5,92849.2,107550,94942.1,112698
96579.9,87349.5,88237.2,81957.2,182999,143420,100068,101411
100202,76149,61465.8,116589,157326,221007,96822.8,100671
86473.8,87524.1,118406,73854.9,204519,104746,98922.2,97423.5
105880,119868,89022.5,182859,187881,171363,103308,107898
103423,94974.3,122348,120571,142355,213996,110768,104161
107678,133178,132406,223256,179175,254214,108208,100633
75192.3,106382,51054.7,114988,111835,158195,94327.7,93865.6
161763,72627.3,128717,76290.1,241949,91806.7,98847.8,106087
89520.3,111382,49976.1,90088.7,99365.5,127236,99744.8,111888
75110.4,85058.1,43444.4,117095,78444.6,133491,109251,107632
138507,80048.7,90804.5,63564.7,205510,146920,100837,94044.4
92045.7,92344.5,57357,88274.7,158292,118757,112818,111641
74694.6,78606.9,47183.6,72950,91784.5,103704,113116,109945
84434.4,80230.5,72207.7,91588.5,98855.4,114586,112465,102665
61880.4,89694,25849.8,88365.1,64933.8,110832,95973.4,111439
75166.2,116870,63760.7,106827,99815.9,132589,94632.7,108878
75209.4,90025.2,69447.2,98364.7,178830,120710,105289,111251
77889.6,81818.1,46565,48534.6,101002,97701.7,99836,105929
119336,87386.4,111025,78786.6,159364,112679,110115,109579
97345.8,86907.6,45305.7,69942,116190,177377,112711,107831
82103.4,118169,65075.6,152892,95158,143127,105421,111884
100709,87794.1,93530.3,94773,160858,120138,103241,108536
122280,78633.9,156532,54850.8,186381,95059.3,103745,108126
101844,79058.7,167409,68647.9,230495,97312.5,104556,102965
102933,112954,73268.3,131152,177752,142340,106064,111735
68490,97394.4,26800.6,94887,73426.8,116821,109178,110803
72274.5,90692.1,62174.7,97640.5,87866.1,199034,106251,105238
101815,80270.1,121145,60709.6,219264,141156,105114,104881
90354.6,111326,90101.2,106051,147201,221189,99022.5,100579
107981,78434.1,97430.7,77528.6,175253,100972,107028,108597
70486.2,103577,34245.4,88470.7,86976.5,115440,104460,112388
102217,96066.9,101417,62630.6,206173,123066,100700,106923
68450.4,108250,64787.9,117069,81883.5,137047,94585.3,106365
85678.2,65079.9,53687.4,54378.2,101448,81284.4,107228,109836
69995.7,69056.1,49809.3,50906,99065.3,78348.7,108412,106613
85265.1,107891,65829,123987,92168.1,145024,106768,112740
96162.3,77932.8,86462.2,58437,117474,87425.4,112544,95723.4
102988,74155.5,104981,103009,153195,195718,107347,105037
113407,134308,101925,199628,151971,215025,108163,101935
87192,93951.9,80044.5,109649,180996,123831,102678,105917
93029.4,100667,120418,115321,188651,174631,95466.5,98910
72814.5,77967,67114.8,120690,100665,219758,100046,103510
83566.8,76473,69976.8,56869.1,104734,84402.2,99467.1,100105
69261.3,72898.2,68100.3,43352.7,80753.4,74629.1,107888,96463.1
65167.2,93366,53067.4,113053,91427.2,119074,105186,110769
76978.8,91423.8,39309.2,101061,79541.4,197062,98305.6,98711.2
98469.9,79894.8,59704.7,83042.8,143191,94365.7,96513.3,94073.3
91448.1,89708.4,131704,56923.3,219644,109856,101196,106182
83302.2,104232,72009,67529,192340,128447,105580,108397
94042.8,93640.5,81098.2,105024,204120,129078,109449,110168
115898,84944.7,77264.5,68189.2,203097,114083,100761,108819
85915.8,82914.3,150089,72040.9,260860,167772,98468.6,99810
88654.5,82481.4,54153,56748.1,100423,97059.5,101173,112602
91255.5,89805.6,84910.9,98072.8,124707,124757,112874,102923
120969,125613,151418,114679,215624,173740,101241,100452
88601.4,90851.4,113439,73645,186909,93612.3,106896,112140
92188.8,93188.7,84165.9,129681,182547,127435,97541.3,108989
73321.2,65130.3,49732.8,41679.1,81634.7,78775.5,107445,97733.9
72792,68441.4,43721.1,33850.7,97379.2,88518,107184,113018
63878.4,152700,45856.1,91186.8,65923.5,177082,94248.4,103003
112255,130328,131759,164308,220885,182741,99419.6,105201
98505.9,50888.7,57190.2,45807.4,163410,71603.1,109532,102803
82547.1,84007.8,49774.5,58876.2,92133.4,181784,112463,104770
94010.4,88958.7,97896.3,73953.6,154070,112067,107534,107743
67787.1,75141,28382.4,118172,65756.7,241781,103197,105808
101433,119929,112579,118702,133999,153427,112822,111762
92774.7,79369.2,113951,48737.6,181449,98516.2,100395,112596
87295.5,116854,95304,81605.5,192879,150746,101226,103998
74913.3,78801.3,43065,57619.7,90477.9,98209.1,109501,109309
110735,93095.1,79506.6,96984.5,119736,115050,111028,110401
99152.1,92481.3,98701.1,70409.1,150035,145892,95254,105823
86046.3,91120.5,80285,118827,116123,242067,110817,95533.8
110101,79098.3,106296,73403.1,136456,106314,96774,107985
70898.4,58891.5,56521.6,85590.6,87319.8,245471,97174.6,96118.6
89586,88580.7,75964.9,109924,101673,113432,109697,108731
72374.4,96846.3,33629.7,96915,83398.6,110209,110868,99533.9
105646,92932.2,99144.5,87943.9,125270,167196,96716.1,103168
78805.8,94194,50484.8,78508.6,93214.8,111176,108962,113109
69354,95427,77040.8,67278.8,132699,104667,94781.8,103325
73325.7,102812,40125.1,84416.1,80052.9,121107,110774,95270.9
85455.9,90302.4,55650,58712.2,97152.7,90327.8,108128,109696
76656.6,156929,55905.8,112594,92334.9,207531,94609.7,96101.8
114976,110844,120713,126800,200665,254740,95915.7,101570
68449.5,88625.7,27674.9,94609,63951.1,192824,98399.4,107031
65068.2,74482.2,39435.7,86210.6,76901.8,117816,106441,107182
74597.4,117378,57544.6,102342,104292,195730,100415,96368.3
97788.6,90873.9,94834.1,50269.3,130709,90097,106917,113077
96767.1,98641.8,77837.2,127546,170294,143067,103594,107675
83577.6,91334.7,76704.4,120153,185434,178714,111640,96956.2
69523.2,75834,36527.8,66935.5,90126.2,101081,103812,109072
79317.9,82080,82021.1,52718.5,191246,100486,100822,109124
84114.9,84735,65662.2,73123.7,97066.5,149959,97362.8,108455
78723,97031.7,90826.8,104603,220793,126583,109387,110405
99659.7,109591,75004.4,88409.6,139061,153267,94491.1,107873
72905.4,95637.6,42496.5,63129.6,95458.2,125794,104564,98530.3
94100.4,100499,69358.2,106192,110310,111666,112764,107056
80860.5,79011.9,45070.8,84746.9,84948.5,106443,109749,102344
86133.6,65160.9,85557.3,71137.4,184331,103921,99201.8,109093
96143.4,85572,52411.3,103155,106883,197887,95301.2,94013.8
81450,106097,44755.2,136656,86017.4,141027,100065,105753
93526.2,78825.6,74520.7,81989.1,167455,110825,98959.4,109220
87799.5,110145,76224.8,124270,112151,135150,95595.5,111024
90278.1,77198.4,72445.4,78166.6,101649,151410,96759.2,98671.2
81215.1,94959.9,65884.6,74034.2,150322,117305,96656.2,107934
79723.8,97686,56579.9,113532,95085.7,126589,110614,99933.5
75637.8,74008.8,44859.5,77596.8,85877,209779,99163.7,108487
143278,90956.7,187120,91147.9,246783,129914,105529,105062
73875.6,101164,33340.5,82425.6,74911.3,133244,100903,104472
102923,61937.1,105137,19657.4,218960,71065.1,102406,102334
94969.8,91000.8,83010.8,100280,121063,125599,102192,105888
95372.1,72987.3,54133.6,65610.8,103823,89792.6,110481,104478
67180.5,61894.8,45769.9,46958.4,92176.5,83502.9,100862,108167
73229.4,82127.7,51619,67285.7,82956.6,97929.7,107508,96075.7
102619,100860,123734,94859.2,258387,146815,100142,97166.4
85016.7,71339.4,72255,41035.6,103363,89385.3,101192,100430
134034,92522.7,163264,74858.5,177782,176374,108940,99981
77593.5,74124,57248.5,182265,85226.5,242127,111849,99631.9
80056.8,83337.3,70058.8,108915,173743,185639,108144,95739
81694.8,86775.3,56427.1,75471.4,133918,169149,102911,94407.3
91583.1,72269.1,162406,85269.5,227483,172517,104142,106496
86450.4,92796.3,88823.8,101488,189914,127350,102907,105770
74671.2,94844.7,47846.6,106167,94934.2,130332,102751,107558
66297.6,85969.8,37831.6,79306.4,80628.3,175582,93944.8,107382
88175.7,93885.3,74629.1,130631,110208,124394,112066,111721
73206,115906,51609.3,57979.7,96552.2,125475,104071,107517
147206,74152.8,147546,38922.8,192060,90454.2,103733,109275
108099,93617.1,149886,101423,237402,163977,100795,101729
134784,89760.6,131618,62658.4,205499,106336,103419,112109
88582.5,78610.5,59724.1,114166,109036,152605,107820,106339
71354.7,93317.4,51753.9,104370,79427.4,111061,96244,110144
94882.5,87228,70895.6,118538,102152,180617,108452,102885
72991.8,87102,38995.1,81865.4,83423.6,121471,103623,112701
88496.1,88308.9,69908.7,115495,117253,132328,104728,102003
122534,77886,145842,53683.2,233956,84934.6,103254,106123
59851.8,85092.3,27444.2,79726.2,75016.9,104734,113038,107136
99885.6,106168,96958.1,93679,125778,180804,101575,101524
93565.8,76054.5,94000.1,110333,216637,187975,106527,100435
151577,64770.3,164194,48598.6,177226,85131.9,108477,96141.5
81481.5,93888.9,65546.8,69622.3,96867.7,164184,106202,95098.8
74239.2,78322.5,31837.9,41248.2,72514.9,72795.7,102714,104746
97066.8,77391.9,85669.9,54689.6,208158,93230.1,106949,108022
81194.4,94569.3,69696,136427,100589,189454,109477,102383
92337.3,69345.9,79901.4,41262.1,162790,82069.8,96628.4,105850
78678.9,85185,85327.9,73184.9,178931,194433,96952.5,99682.2
82742.4,74943.9,89459,43504.2,100568,93332.9,95281.3,109130
68540.4,59118.3,45133.3,30420.2,94556.1,78933.9,105916,107706
85570.2,90396.9,77856.7,91516.2,184862,116275,99964.3,107460
125643,103782,106182,90497.3,147863,133109,104886,110557
90679.5,69519.6,71326.5,45485,115376,84099.2,111366,95384
72300.6,63357.3,30685.6,42421.4,87796.6,84480,111615,111691
102282,94902.3,126929,52330.7,213466,98189.6,104445,110877
88148.7,87836.4,84042.2,60790.3,233760,117616,102377,105442
115081,91127.7,115170,74013.3,195587,162612,104655,100258
90261.9,82336.5,63624.5,64621.1,107878,103941,110044,100554
84093.3,142151,63674.5,184666,106448,204758,112218,101736
88221.6,85185.9,74709.7,43187.3,101530,95039.9,107263,108232
160119,120863,97497.4,103422,205416,188270,105812,98010.5
78608.7,72609.3,61407.4,43878.1,135696,79562.2,98593.8,100691
93462.3,78947.1,68581.2,122195,101886,127943,112434,105288
85746.6,77765.4,56614.7,67877.9,91730.3,89899.6,111304,109662
88443.9,79338.6,49917.7,49648,99182.1,95637.6,100036,110855
80606.7,87423.3,56871.8,70293.7,99368.3,104383,107073,108733
81154.8,79197.3,63442.4,72734.5,91610.7,167246,107254,108540
79245.9,102706,48451.2,97183.2,91988.8,189048,104309,107261
74907.9,107014,52708.8,138608,94165.5,230832,106254,103879
124858,94226.4,156037,83276.3,188844,173227,100740,100280
104679,88441.2,96332.6,53944.5,191670,93545.6,102737,111762
125695,94032,131455,82713.3,153891,99646.3,106955,100927
61790.4,62346.6,24390.3,74378.9,75564.6,119886,101187,98787.5
108025,104572,66942.4,128460,156609,126081,101403,109176
95061.6,86753.7,75250.4,64878.2,162495,95398.5,104982,111326
74241,142833,65254.9,80866,94212.8,167596,109388,106177
81788.4,88722.9,84032.4,95569.4,162132,141403,99724.5,99349.9
99590.4,91216.8,137778,128023,212398,133366,106810,101938
75987.9,77794.2,86238.4,50337.5,117095,91587.1,102810,111796
80046,76170.6,58500.9,46448.2,104931,83272.1,112192,110576
111784,89096.4,127111,92258.5,159803,171450,99908.3,100138
147833,131166,124466,121279,255207,165595,103183,110754
97602.3,95803.2,69436.1,62912.8,148345,139823,106115,97419.3
82776.6,76169.7,56984.4,68981.5,95737.6,106924,98159.5,110105
169128,139725,194913,159148,251458,153667,97488.4,105237
117674,84329.1,148516,69340.1,236453,94468.6,103475,109454
96650.1,73386,84626,66462.9,143308,107932,102340,111359
143585,94234.5,99936.8,87918.9,167806,121842,102868,107125
72123.3,100858,92030.5,115495,124390,136278,103379,110075
77733,89219.7,62116.3,58246.6,140928,99077.8,111824,103768
100321,73932.3,96175.5,47581.1,200959,76259.6,99325.4,110046
68540.4,103593,58491.2,59799.2,80191.9,125751,106194,105692
110101,90758.7,79566.4,97409.8,157530,131512,107169,107272
96564.6,96085.8,82956.6,91260.4,156817,195402,97511.3,95694.3
88182.9,84884.4,99332.2,57611.3,168706,88708.4,99380.9,103594
81354.6,73049.4,92493.4,99212.6,96789.9,219979,94634.6,104991
69175.8,74083.5,59385,66562.9,111087,91920.7,101995,98296.4
100764,99491.4,103740,77079.7,129758,162440,110213,97251.5
102297,125215,99546.2,177060,144222,188216,107023,105057
94194,96864.3,101168,79894.4,131283,110379,113055,112077
88260.3,115574,119066,113488,182079,144115,96956.7,111790
119481,95759.1,121450,145883,167477,145252,105844,101718
102705,80089.2,155458,64281.9,152557,99075,102023,109249
73099.8,82006.2,39482.9,88059.3,83294.4,116499,96264.5,107468
60726.6,83206.8,33048.6,90085.9,73572.7,207767,107647,102490
85978.8,81326.7,69536.1,79100.7,102126,164925,99701.5,95903.1
134648,76542.3,126940,82001.7,227184,107625,99326.1,105618
,133702,,72499.6,,148230,,94002.3
,91532.7,,101154,,225504,,96228.6
,87714.9,,48017.6,,135247,,107011
,72720.9,,80759,,111320,,108033
,88338.6,,87659,,123236,,113000
,128213,,110388,,167310,,97842.9
,66654,,41109.2,,83915.7,,94502
,87986.7,,94994,,100222,,108266
,92559.6,,51200.6,,100932,,111930
,87300,,99355.8,,124702,,112301
,88702.2,,70215.9,,98400.9,,111694
,100391,,77311.8,,142831,,107429
,81694.8,,55171.9,,93041,,109994
,87082.2,,103262,,209968,,107000
,103701,,80824.3,,207712,,97085.7
,82877.4,,68813.3,,88107.9,,107056
,74124,,47582.5,,88551.3,,104831
,84240,,56452.1,,87696.5,,106047
,78609.6,,113888,,229368,,103400
,85117.5,,106653,,226681,,98218
,87030,,63535.5,,97291.7,,108787
,76046.4,,70648.1,,98350.8,,102245
,88820.1,,58310.5,,97044.2,,100285
,99393.3,,104183,,204917,,103596
,80113.5,,66442,,119281,,102797
,100760,,116948,,121487,,110324
,81809.1,,112550,,110941,,105393
,53207.1,,23869.1,,65812.3,,109493
,113234,,118849,,190315,,100618
,83013.3,,67064.7,,90309.7,,102462
,67108.5,,32096.5,,87759,,95142.8
,80541,,47779.9,,87151.6,,107283
,57778.2,,82685.5,,204883,,111070
,85803.3,,90894.9,,127085,,112274
,84088.8,,58103.4,,93882,,112242
,107829,,131968,,215600,,99746
,81918,,88569.4,,113858,,111123
,115712,,127248,,189803,,108521
,93260.7,,82383.9,,115188,,101747
,86156.1,,83798.9,,123574,,110839
,102473,,104866,,132481,,106434
,85991.4,,94161.4,,112862,,105461
,72660.6,,40950.8,,97537.7,,106780
,85254.3,,87950.9,,105331,,108429
,74248.2,,38134.6,,86542.8,,111391
,127977,,140265,,203803,,102620
,82572.3,,81695.9,,118317,,109005
,77773.5,,52678.2,,87272.5,,99005.9
,72131.4,,62957.3,,117548,,111014
,71788.5,,45319.6,,96789.9,,104185
,130273,,170788,,181894,,104769
,78438.6,,46109.1,,91399.4,,112276
,111434,,130838,,163450,,106911
,89667,,81410.9,,120352,,103232
,103431,,108941,,200763,,108078
,99374.4,,121095,,242309,,105481
,95992.2,,78220.9,,100850,,97943.4
,98733.6,,71393.2,,190502,,97239
,96711.3,,127477,,133857,,101302
,85994.1,,105028,,221369,,98474.5
,60379.2,,79473.2,,192605,,105962
,82806.3,,68351.9,,110050,,109894
,94462.2,,95684.8,,126106,,111504
,76906.8,,79911.1,,102033,,103515
,91328.4,,48769.5,,137623,,99768.4
,74588.4,,34363.6,,82737,,108174
,75654,,63142.1,,101267,,109455
,64773,,59125,,84853.9,,100512
,97061.4,,64158.2,,164108,,101513
,67546.8,,36545.9,,81077.3,,99152.3
,115712,,99068.1,,148634,,108993
,89714.7,,62894.7,,96477.1,,104364
,62031.6,,68574.3,,163592,,109352
,92067.3,,89400.6,,120022,,108659
,83620.8,,115737,,155968,,105970
,91328.4,,134193,,144748,,96710.9
,80504.1,,121715,,248191,,95268.8
,79843.5,,59469.8,,118481,,110709
,106331,,107006,,146860,,104586
,109141,,131260,,165681,,108473
,80691.3,,57369.5,,95968.4,,106158
,98399.7,,106117,,217196,,102008
,80064.9,,39267.5,,92004.1,,109550
,55620,,77617.6,,221843,,98125.6
,86407.2,,78376.5,,104100,,110653
,72117,,56635.6,,93802.8,,106021
,86247.9,,76077.5,,108374,,107431
,78926.4,,80970.3,,101716,,99833.5
,83342.7,,67773.6,,188444,,101360
,68362.2,,70466,,151196,,108357
,68191.2,,84224.3,,218579,,107283
,120696,,79733.2,,154447,,97583.7
,108626,,160357,,174616,,103514
,68599.8,,53752.7,,91759.5,,108712
,133952,,94682.6,,182343,,97689.2
,83217.6,,66510.1,,102485,,112988
,85963.5,,75004.4,,116025,,111770
,113074,,161682,,163868,,106833
,112845,,119507,,146570,,95444.5
,101761,,128033,,129542,,98690.2
,82678.5,,72749.8,,178949,,102904
,83286,,107052,,213963,,104072
,66294,,37363.2,,89417.3,,104233
,86813.1,,80796.5,,113865,,107557
,74128.5,,144493,,231888,,100233
,97891.2,,99515.7,,183711,,102632
,94560.3,,105333,,114614,,99368.1
,122051,,221111,,214667,,106632
,91962.9,,95632,,108127,,111678
,101229,,91043.6,,176878,,100404
,102184,,119611,,132530,,112721
,89913.6,,91531.5,,219221,,100746
,90004.5,,107729,,239922,,108485
,90669.6,,74084.2,,128175,,106154
,85188.6,,41599.9,,84341,,110972
,92562.3,,90926.9,,199851,,101559
,75319.2,,42914.9,,82436.7,,98957.5
,89508.6,,72982,,104553,,112351
,86867.1,,43158.1,,91603.8,,111332
,118817,,99515.7,,189967,,103246
,97203.6,,89169.9,,114350,,112419
,63911.7,,73923,,160378,,103287
,98257.5,,100069,,178616,,106171
,71097.3,,38779.6,,77724.6,,97625.2
,91226.7,,64793.5,,93309.3,,110024
,94592.7,,65478.7,,151174,,97790.6
,117788,,161408,,157654,,108393
,95688,,81337.2,,185836,,106142
,63267.3,,22987.8,,55520.8,,95573
,87881.4,,112122,,130857,,99460.4
,102076,,107510,,248782,,99353.9
,73210.5,,60392.7,,96895.5,,101033
,85090.5,,99136.2,,203514,,110069
,90380.7,,76908.7,,158222,,106575
,97911,,84731.6,,107012,,112203
,93861.9,,72060.4,,103859,,112547
,79377.3,,70998.4,,171475,,103709
,79674.3,,102436,,226966,,107381
,68132.7,,56283.9,,104421,,111507
,98103.6,,80474,,105956,,97808.8
,78872.4,,91627.4,,111186,,111822
,78470.1,,68654.9,,109625,,97943
,120884,,164801,,186437,,101265
,92393.1,,57705.8,,135243,,99744.7
,63250.2,,53307.9,,80642.2,,105244
,63592.2,,59436.4,,99371.1,,106608
,81965.7,,62491.6,,101109,,108700
,87439.5,,78902,,111353,,99227.2
,81789.3,,65288.3,,128476,,101818
,91289.7,,77153.3,,113634,,111540
,79325.1,,63580,,84552.3,,110251
,84709.8,,88121.8,,188004,,103624
,81746.1,,61700.7,,98692.8,,108218
,93064.5,,108980,,197672,,97132.2
,106969,,91302.1,,125823,,109798
,132701,,86843,,161644,,98575.4
,81825.3,,63805.2,,112190,,109991
,75049.2,,67082.8,,89524.3,,108264
,96531.3,,113741,,141303,,107816
,87027.3,,92993.8,,211088,,101976
,69422.4,,37149.1,,76037.2,,103108
,81497.7,,67978,,107287,,93985.7
,82003.5,,69156.7,,95133,,110487
,69051.6,,105750,,226594,,101775
,141410,,121972,,243598,,103737
,64793.7,,79441.3,,188522,,95575.3
,130124,,117796,,195213,,106930
,99931.5,,116343,,220059,,105884
,70412.4,,70788.5,,178917,,95611.6
,74155.5,,52895.1,,80654.8,,103296
,86800.5,,48570.8,,83900.4,,103073
,71806.5,,46388.5,,100590,,101596
,65608.2,,58293.8,,176202,,101624
,90304.2,,108805,,144636,,95060.4
,81467.1,,126067,,130838,,104450
,98918.1,,93989,,127834,,111626
,90537.3,,64457.1,,104627,,110174
,89239.5,,57208.2,,101909,,109717
,94661.1,,75019.7,,101202,,112883
,92399.4,,67470.6,,177641,,105794
,96420.6,,72106.2,,152234,,106647
,85202.1,,95454.1,,214232,,103332
,120960,,125110,,207823,,96823.6
,92130.3,,68055.8,,149414,,108934
,93359.7,,73707.5,,117954,,112605
,83781.9,,70507.8,,94126.6,,111740
,77869.8,,68736.9,,93834.7,,97446.1
,78820.2,,63767.6,,105010,,108037
,82013.4,,89983,,178155,,102914
,75652.2,,43637.7,,87101.6,,111718
,78771.6,,75878.7,,179645,,96181.3
,72450.9,,72577.5,,106493,,109200
,91904.4,,85589.2,,111162,,111829
,84017.7,,113442,,123413,,108876
,79664.4,,65820.7,,103278,,108582
,70766.1,,35290.7,,82688.3,,102134
,106142,,80172.4,,160723,,98765.2
,78405.3,,54018.2,,88134.3,,110096
,111952,,104989,,149358,,110626
,90940.5,,60909.8,,98801.2,,110950
,78982.2,,73310,,88958.6,,103017
,67944.6,,81246.9,,106467,,105741
,111891,,111244,,231435,,109071
,97083,,70709.3,,188916,,105733
,73203.3,,57408.4,,93163.4,,110195
,126851,,155371,,227779,,99946.8
,91989,,87606.1,,115339,,109469
,85717.8,,98670.5,,226788,,107299
,84135.6,,50270.7,,95893.3,,113059
,98937,,102767,,185134,,104260
,74025,,51266,,84723.3,,109306
,91611,,105135,,117231,,109984
,100504,,153039,,162383,,104456
,66964.5,,93553.9,,196546,,98431.7
,109868,,111976,,136188,,112710
,94123.8,,96374.3,,127619,,110031
,63145.8,,72527.4,,194797,,103643
,71046,,36217.8,,91860.9,,109366
,113081,,143884,,234506,,95734
,76953.6,,56493.8,,88333.1,,104244
,111401,,101068,,198892,,99257.7
,97108.2,,85617,,196792,,105891
,85731.3,,57237.4,,156346,,96268.3
,93395.7,,114775,,254545,,100898
,93154.5,,95144.1,,170268,,98850.8
,102694,,112158,,216626,,103517
,86369.4,,56910.8,,139694,,103544
,84245.4,,96716.2,,127328,,94970.9
,116569,,105673,,130460,,113092
,85225.5,,63240.8,,106189,,110260
,138541,,126165,,190987,,101043
,84589.2,,76755.8,,101045,,110041
,77924.7,,44338.2,,95347,,105712
,71361,,92629.6,,250670,,98829.5
,96270.3,,104445,,113735,,96934.8
,78385.5,,100913,,111983,,109678
,73209.6,,29078.8,,83091.4,,112066
,83128.5,,61360.2,,147883,,103525
,80021.7,,86990.4,,180810,,101800
,86703.3,,103423,,172079,,111362
,95191.2,,93723.5,,103879,,111538
,64896.3,,25968,,81454,,112769
,114145,,116036,,218277,,100894
,91481.4,,77525.9,,191532,,103289
,79919.1,,54793.8,,95530.5,,106828
,94044.6,,104518,,137578,,104265
,82373.4,,78245.9,,104768,,103414
,101815,,129263,,245495,,102603
,103987,,111168,,133964,,108260
,74132.1,,44299.3,,86902.8,,102567
,78000.3,,61984.3,,96128.2,,108158
,90234.9,,98580.2,,114183,,105007
,64521.9,,85992.4,,219781,,102687
,120747,,90607.1,,136053,,111486
,99149.4,,100188,,120517,,110401
,92644.2,,86018.8,,105687,,109907
,98415,,68849.5,,145327,,102534
,106365,,108031,,180875,,102787
,129074,,135713,,250246,,105649
,85644,,89436.8,,113185,,111418
,89927.1,,68603.5,,102841,,110175
,67841.1,,86709.6,,207118,,95308.4
,116528,,135212,,210496,,103020
,75243.6,,63043.4,,169907,,108662
,134330,,153327,,235744,,97405.4
,127954,,126767,,210692,,105975
,77793.3,,64204.1,,174509,,105309
,77872.5,,41027.2,,96264.4,,110334
,88164.9,,80760.4,,209305,,104030
,64310.4,,60105,,97183.2,,101301
,85039.2,,89181,,118909,,110060
,93228.3,,109166,,120142,,106689
,76643.1,,84285.4,,199801,,105878
,93401.1,,72665,,105772,,108957
,119492,,83293,,157498,,101771
,84355.2,,57197.1,,94614.5,,101798
,74352.6,,68182.3,,158335,,107974
,84582,,70536.9,,84683,,97706.1
,71208.9,,41263.5,,70895.6,,98291.7
,99299.7,,102429,,122100,,110292
,78861.6,,97433.4,,103330,,97080.9
,83137.5,,72905.5,,94532.5,,111700
,95194.8,,163684,,255789,,97656.2
,72839.7,,46722.1,,99893.7,,102508
,100142,,125771,,140131,,105948
,81442.8,,59984.1,,89974.7,,108753
,75580.2,,98583,,175096,,101484
,122645,,100633,,192236,,105065
,82748.7,,79591.4,,103758,,109776
,73101.6,,61015.4,,79834.6,,107898
,92678.4,,76825.3,,197411,,111160
,79255.8,,89162.9,,111240,,107792
,73125.9,,29170.5,,89295,,111259
,101913,,101976,,120485,,111733
,88452,,98994.4,,113427,,105367
,88182.9,,58785.9,,169918,,97237.3
,78911.1,,65421.7,,88470.7,,109399
,122097,,118856,,163239,,106659
,74355.3,,73970.2,,191228,,109092
,125496,,203193,,252334,,96164.9
,99170.1,,117826,,242634,,100167
,99057.6,,62438.8,,130343,,105022
,93181.5,,122481,,119958,,107001
,124376,,74043.9,,147398,,102353
,52823.7,,52412.7,,118606,,105742
,95508,,105002,,129957,,107416
,67106.7,,104432,,217518,,101134
,87009.3,,73127.9,,107956,,112957
,63623.7,,35021.1,,74643,,106567
,72882,,51323,,96378.4,,102859
,105665,,81782,,115079,,111402
,79826.4,,38397.4,,95861.4,,113144
,93175.2,,50217.9,,85544.8,,113017
,89838.9,,98131.2,,106726,,107828
,129134,,101958,,137550,,106025
,70918.2,,31525.2,,81078.7,,102053
,62359.2,,49356.1,,82823.1,,104052
,102884,,103552,,133070,,104492
,85203.9,,64181.9,,172578,,94539.8
,77535,,89775.9,,210376,,97434.6
,127488,,103163,,206503,,100590
,139800,,153174,,249762,,99220.4
,72273.6,,41524.9,,89014.2,,110687
,84481.2,,56278.3,,96111.5,,102664
,106012,,134352,,146748,,112073
,53610.3,,54372.6,,141278,,94377.7
,96176.7,,71440.4,,109739,,111315
,115752,,85101.4,,158374,,107603
,77611.5,,66654.7,,108915,,101009
,93985.2,,104428,,179449,,107495
,89786.7,,52091.6,,100505,,95101.9
,78088.5,,87547.8,,201303,,99444.1
,78482.7,,88666.7,,99835.4,,103063
,100978,,134451,,171002,,109079
,107313,,104792,,194464,,107074
,74358,,97389,,126384,,108105
,84210.3,,68866.2,,140038,,105535
,99666,,72844.3,,115344,,110349
,88507.8,,127930,,243529,,97021.3
,124584,,151671,,184643,,98984
,118602,,127615,,145928,,110076
,137372,,210738,,206924,,108746
,79006.5,,65826.2,,89970.5,,103413
,72716.4,,35096.1,,84637.1,,111292
,125443,,128118,,130093,,112445
,72647.1,,49688.3,,85279.3,,107481
,88183.8,,96168.5,,115916,,105029
,119164,,110149,,157516,,95967.9
,74125.8,,46793,,93805.5,,105096
,78693.3,,69573.7,,104607,,101560
,86878.8,,77082.4,,161472,,105298
,100990,,107226,,130358,,110941
,96739.2,,100861,,178078,,102048
,114682,,140585,,147088,,112381
,83292.3,,85141.7,,107945,,111286
,123305,,141748,,166447,,102909
,88042.5,,110972,,130781,,110190
,97768.8,,142589,,139193,,105617
,135248,,177623,,251427,,97425.7
,111465,,115990,,177642,,102975
,104028,,133782,,163257,,107070
,81656.1,,87613.1,,108545,,107013
,78430.5,,59902.1,,90274.9,,94453.5
,79308.9,,69258.1,,98234.1,,105514
,85467.6,,86143.9,,202334,,100318
,67459.5,,83487.6,,221086,,102726
,73661.4,,30756.5,,71081.8,,108575
,80089.2,,38935.3,,78717.1,,109101
