"FSC-A","FSC-A","SSC-A","SSC-A","FITC-A","FITC-A","Comp-PE-A","Comp-PE-A"
67474.8,88673.4,99268.2,74188.5,169798,132885,80317.4,80483.3
93331.8,88789.5,88757.1,57815.7,152995,127482,89343.7,80023.3
73266.3,111782,61720.2,170361,105668,242319,68121.6,92478.7
83405.7,110426,96539.7,90052.5,162940,127442,61860,64154.9
48879,99385.2,48898.8,64733.7,79951.4,157208,67770.1,91153.3
89084.7,65987.1,61257.3,33218.2,137848,64340.3,62235.1,79006.2
88444.8,88427.7,90612.7,179331,185982,215909,63619.5,70790.5
86150.7,62793,85366.9,160614,135443,103075,66034.4,66048
86387.4,80109.9,65445.4,146962,100857,236784,64450.4,88326.2
96349.5,94644,79704,151089,158247,262143,61140.8,88107.7
74297.7,81233.1,62871.1,60054.9,162075,152958,78277.4,78266
89436.6,84903.3,85245.9,112643,175415,172627,85141.5,93080.9
89486.1,82459.8,128355,176280,217007,262143,88269.4,66657.2
64355.4,81455.4,41547.1,104143,61692.4,181426,66116,83154.1
99549,97714.8,100564,109250,162128,146204,69834.5,93570.4
93832.2,92033.1,93074.4,77256.2,180749,121593,88268.3,75571.6
168621,85514.4,181605,75834.2,262143,132568,92340.3,92693.2
86594.4,83776.5,65345.3,49628.6,119455,126333,67481.8,83633.4
97586.1,95852.7,47458.8,118245,142511,157673,85148,83868
87306.3,98177.4,66038.9,86602.6,161180,135911,92044,67083.2
62559,78706.8,28482.5,43609.9,70096.3,90666.9,93532.2,77447.9
117600,100106,66166.8,142911,156007,123208,61925.9,63439.1
118712,65526.3,91218.8,93205.1,185067,107712,75741.5,65836.2
92006.1,77143.5,72284.2,73386.4,87795.2,149048,80444.3,90406.7
99588.6,63378,115369,69689,190415,67705.5,69194.8,69321.3
81413.1,66791.7,70377.1,63684.2,162245,70158.9,60942.6,83300.5
88447.5,80978.4,68351.9,57115.1,118600,122403,86345.7,71461.4
66071.7,84250.8,132905,75226.8,181073,151375,79747.9,79354.8
100699,86493.6,73731.2,57115.1,153531,79352.3,88726.6,85776
102344,94604.4,81231.6,64105.4,186962,134827,91858.6,78382.5
95452.2,80204.4,53031.3,91570.4,133578,219958,70314.4,74585.9
87713.1,105094,76711.3,128293,101761,184855,86250.1,87530.3
91527.3,102347,53167.5,66868.7,126680,145511,89866.2,89945.1
77148.9,82008,53370.4,79452.4,95905.8,105691,85146.4,62009.4
137588,95272.2,95247,141089,200841,195549,75357.9,66334.8
95040,77045.4,73323.9,60271.8,149364,119754,81059,75496
76025.7,90047.7,109914,63798.2,203553,164220,86043.5,79131.3
105100,97391.7,105170,53035.4,208593,140927,91324.6,65078.5
95625.9,102417,76750.2,85106.9,110106,184821,73885.3,88703.7
82745.1,88535.7,48055.1,67581.8,91385.5,122788,86607.6,71484.2
70568.1,98672.4,47740.9,66232.1,78215.3,122674,77113.5,83454.7
88127.1,68080.5,77998.5,45084.6,151624,83815.6,83860.3,82761.3
50607,61344,45325.1,31618.3,88555.5,61310.1,84972.7,61532.2
116789,75234.6,97760.1,71636.4,168041,150388,62921.3,79934.1
90211.5,98980.2,74227.4,87639.5,160074,156953,65724.4,80917.6
77566.5,51255.9,135501,34541.5,137060,64444.6,89909.8,68410.4
55404.9,65295.9,32970.8,48936.3,51666.3,68208.7,61009.3,68571
92851.2,115233,71332,91079.8,140241,188288,71280.8,80509.4
54891.9,88614,40927.2,171967,68041.9,241108,81330.9,85443.9
96155.1,52723.8,149488,29255.3,209876,46509.4,85773.2,62386.4
49707,101831,11220.1,168390,56706.4,140038,86633,80200.8
61874.1,59695.2,39724.8,69443,68218.4,87100.2,89865.9,77389.1
83064.6,115185,88794.6,96941.4,150911,168864,62342.7,87362.9
46240.2,62319.6,30584.2,35834.2,62839.1,66328,89861.5,86630.7
59290.2,78217.2,89521.6,82952.4,161227,125411,92982.9,91643.3
83916,109486,60175.9,145779,93775,211858,80198.5,92315.6
55821.6,99297.9,38938.1,70726,62783.5,131748,66805.9,90067.3
97646.4,88869.6,97051.2,100448,171730,138785,63026.5,92355
91910.7,62428.5,85314,86021.5,174583,98124.3,89375.5,91415.7
92788.2,57039.3,68110,39047.9,123627,93335.7,74726.3,61239.9
83268.9,84139.2,66373.9,78011,123878,129103,63821.9,79371.6
88375.5,130676,58179.8,87821.6,114455,164368,70899.5,89254.7
90078.3,97430.4,80414.3,86528.9,127109,152646,62700.5,72351.1
107790,80261.1,109015,74611,172617,149105,82969.9,83148.9
105396,90967.5,74139.8,90445.9,147928,150841,65426.1,89515.3
77449.5,104774,79118.8,103137,138764,176377,87672.1,83493.9
85005,80312.4,53594.2,171184,103834,262143,86164,93840.1
104542,65038.5,90885.1,74559.6,183568,144992,86803.7,81563.7
126386,79045.2,95277.5,78344.6,137079,124451,78712.1,83621.9
94900.5,90646.2,68318.5,70202,110769,133699,76965.6,74982.8
110488,84720.6,84058.9,76893.4,141980,145154,78468.3,89735.1
77286.6,131098,59058.3,141184,130704,262143,70264.2,92234.6
94283.1,61928.1,70001.8,63593.9,141209,59853.4,68929.1,69521
92934.9,85113.9,73913.2,107318,150898,179146,71619.9,90544
77688,87421.5,81201,110131,150383,230148,60933.5,88291.7
64084.5,102752,34302.4,134059,78194.4,122302,91672.4,83145.2
79473.6,105117,143880,72285.6,205015,156688,80603.2,81929.8
86529.6,74844,77431.3,68096.1,159568,111286,60695.5,68478.1
74050.2,103923,48153.8,124782,117529,155302,72355.1,89910.6
68298.3,81373.5,71145.8,68932.9,81887.7,88819.6,75629.4,91935.1
81603.9,60530.4,88032.9,111186,162891,129574,72406.7,66185
74979,78384.6,89692.5,82256,164077,164450,62962.3,91123.1
93675.6,86509.8,56554.9,71461.3,114664,115376,64630.9,77621
86324.4,92914.2,59863.1,71055.4,93068.8,139746,72472.9,73888.4
78464.7,84253.5,53819.4,55285.9,105479,101577,61482.9,75219.6
90811.8,107158,94828.6,131530,187945,232129,90805.9,89727.5
126526,62862.3,188191,24530.7,257222,58698.3,92246.1,88364.8
66514.5,85992.3,38301.4,121382,66818.7,152835,84717.2,84295.4
87419.7,101539,81740.3,105345,132138,232678,66388.7,92800.6
73738.8,81744.3,52515.6,54444.9,87663.1,140686,90578.2,78721.1
85051.8,86529.6,71407.1,57835.1,134681,128708,66211.4,84583.3
83273.4,97596,74157.9,86599.8,144253,198898,67406.9,90227.5
46589.4,66967.2,19341.8,62741.8,40119.6,81982.2,62936.5,88235.3
78633,95815.8,76156.7,163453,154708,262143,87096.4,76524.8
63466.2,72052.2,80706.2,64341.7,72852.7,126352,61272.1,65199.4
81394.2,78733.8,53356.5,49346.4,109367,74253.8,68835.7,75465.3
86519.7,90427.5,109796,69487.5,231053,128718,88483.6,72808.8
111779,87552,112027,108566,200024,168350,90673.8,60955.4
57103.2,84059.1,36969.8,71183.3,52268.2,132520,63743.2,81173.8
54012.6,86791.5,40824.3,46891.6,57181.8,109962,64422,65386.4
150618,82187.1,138297,48866.8,231560,140740,77032.6,89941
102865,100238,158838,84824.8,230591,143306,87787,91722
87459.3,51030,76305.4,45778.3,151606,67068.9,76274.7,61205.7
86098.5,75325.5,84165.9,123699,153064,224363,93119.5,81307.5
82248.3,68032.8,125534,30669,223335,65633,64977.2,80873.3
81240.3,94331.7,98081.2,65633,193984,144809,90955.3,79469.6
93263.4,67885.2,95037.1,46655.3,195829,72926.4,73010.2,72069.6
87586.2,63356.4,126789,61036.3,210035,129320,85816.2,61870.6
85043.7,73124.1,43842,48195.5,113847,72808.2,63309.9,84539.6
70449.3,81919.8,37231.1,113039,68229.5,204134,89607.2,71437.1
71125.2,88365.6,46417.7,97654.4,64996.4,128902,62331.3,87016.8
89281.8,77347.8,66027.8,103670,115121,141538,78831.9,92332.1
90885.6,97365.6,107232,125278,224083,137855,90485,74920.7
95927.4,47862,87294.8,32474.6,139235,50447.3,70852,66819.1
55449,89001,45646.2,94831.4,65196.6,188412,62627.4,76168.8
72785.7,79911,43443.1,129530,78498.9,262143,91293,84876
55696.5,148058,31786.5,143651,57732.3,220546,84284.8,89200.6
84926.7,70191,64539.1,38177.7,133459,75068.3,79348.4,85112.8
75699.9,96150.6,51220.1,70448,79017.3,114795,90429.5,83609.4
51890.4,75244.5,21001.5,87842.4,53323.2,121107,89976.4,63042.4
73677.6,83002.5,42292.1,100958,83904.6,183010,90111,90566.3
87422.4,91781.1,80928.6,83297.1,161810,121464,66760.1,64514.5
53098.2,138611,27882,133733,44334.1,245581,62861.2,88592.5
89863.2,94762.8,68078,81573.5,172670,112119,65011.1,88181.2
82053.9,71625.6,65816.5,93421.9,94300.4,89666.1,83242.7,62618
76524.3,89938.8,39659.5,84735.8,84869.2,101293,61413.6,86327
108989,103728,131021,191725,216103,180942,92625.4,90059.5
113633,103542,81812.6,104294,166744,128879,68767.9,60904.4
84021.3,55484.1,59756.1,31995,131197,59575.4,83398.7,62832.8
90446.4,56128.5,92831.1,31397.3,180718,57758.7,64258.7,65984.7
46946.7,96543.9,27423.3,139022,59066.7,203208,60994.3,65624
84667.5,72872.1,43822.5,52283.5,105040,76673.8,61034.9,65208.7
93786.3,100310,65913.8,118278,105666,232553,81749.4,89014
61160.4,83124,27289.9,99860.4,69509.7,243677,92355.9,88322.6
45682.2,53963.1,16984.4,40018.1,42973.2,67976.6,62147,66466.6
138807,60777,129080,34067.5,203702,65113.2,74206.1,75226.2
58702.5,62156.7,26284.9,35072.5,67583.2,62586.1,83609.9,66936.2
72251.1,72804.6,62048.2,69698.8,104308,147120,67243.3,86042.2
132782,62761.5,131092,69620.9,232223,130003,85086.3,75280.2
115261,72164.7,116121,87597.8,186763,96735.7,77987.6,86297.6
101668,67212.9,157386,36404.1,254868,58352.2,93616.1,72221.1
82489.5,121861,46356.5,165962,94536.7,171594,90381.2,92017.6
105602,84562.2,69552.8,115941,124316,117373,69827.3,93379.9
74387.7,63985.5,119429,45906.1,131886,121383,61796,78883.8
130825,76547.7,78104.1,56848.2,173965,71236.1,85929.2,78595
75794.4,106202,118442,96204.7,213575,154850,89738.5,82658.9
117418,58055.4,73198.8,31320.9,188918,46762.4,83238.2,61339.7
73901.7,82213.2,62547.2,32812.3,96999.8,75784.2,69349.2,72505.5
96828.3,88676.1,75194.8,158242,139830,262143,71198.9,89934.2
83598.3,75008.7,89887.1,61855,172634,143570,63161.6,68728.5
106946,79218.9,104666,83227.6,173229,129837,71268.8,91028.5
97326.9,130193,73087.6,124274,109728,254591,88078.4,91225.7
95056.2,138218,92261.2,222828,176299,262143,82292,88599.8
88280.1,98587.8,76750.2,99775.6,140512,118735,87100.7,72446
87618.6,151822,62819.7,80496.3,132763,179165,74387.6,91631.2
88744.5,84081.6,140947,55836.3,246137,130643,90445.7,72506
81936,94191.3,51645.4,86813.8,150694,147895,88547.8,65965.7
78386.4,67703.4,65844.3,73489.3,91145.1,87953.6,91996.5,75081.6
94178.7,173690,69208.1,122488,138878,262143,75181.8,93267.4
79408.8,99324.9,54290.6,66875.7,83080.3,140881,74968.8,88538
100354,91260.9,62468,66072.3,145479,149910,76752.7,92826.9
73565.1,73852.2,104716,55089.9,159422,75137.8,65367.1,66536
80384.4,85808.7,61568.7,82579.9,96503.5,152269,87519.5,82967.6
67593.6,100184,38555.8,92707.4,55397.1,134863,72009.3,69159.2
97767,111677,69319.3,129648,142351,215695,81549.6,75810.3
86252.4,87688.8,49844,78418.2,106874,123766,68915.9,87515.4
72994.5,101483,88477.7,161884,193974,262143,93315.4,86167.3
89453.7,48904.2,53635.9,19881.2,123846,36212.3,67317.8,61012.8
75486.6,79098.3,46184.1,81569.4,59582.3,94629.8,62424.6,81111.5
96770.7,92104.2,96951.1,64183.2,161978,104112,68583.9,70592.6
85265.1,50976.9,69655.7,25705.3,141783,54079.3,62748.4,72906.1
88109.1,102093,63446.6,215191,110284,183244,79997.3,92681.6
81797.4,142238,88392.9,123647,138614,236438,69072.8,75417.1
82305,63638.1,69173.4,40393.4,138807,66310,76906.4,73928.5
161802,93635.1,122141,125527,200560,230694,75204.5,87045.1
95494.5,93456.9,90675.3,85939.5,148808,188740,67756.4,71844.2
86078.7,146928,83900.4,60109.2,163913,157260,83106.9,93580.2
65720.7,95255.1,26733.9,89958,69123.3,106835,75423.9,77495.9
71795.7,75519,82488.2,49960.8,118076,70789.9,92063.9,93127.9
56343.6,70408.8,34387.2,32817.9,67815.3,70338.2,83854.5,86675.4
100053,75492,91303.5,135068,191140,148431,87242.7,65754.5
90256.5,110928,95846.1,95779.3,179250,178762,80986.5,80604.7
90521.1,104240,87499.1,88335.9,164885,145366,64046.9,63265.1
74109.6,88650,50608.5,97383.4,75668.8,178356,92445,82640.4
74466,97403.4,70431.3,128975,145040,239351,68233,93173.5
51535.8,57427.2,22270.6,23421.5,47323.9,46337,60886.1,68030.3
104506,91917,110344,109355,207648,209815,62794.5,72217.6
101379,95070.6,72327.3,64559.9,139955,128829,67747.6,70704.9
102519,96273,144655,145206,196094,252620,62158.2,93397.1
90231.3,96264,100127,84275.7,173573,145833,67723.2,75946.9
94620.6,54625.5,66861.8,37004.6,128257,106070,69867.3,64998.1
96879.6,84044.7,101417,54355.9,165485,120199,75519.9,67336.4
93235.5,100099,78753.2,89053.1,160079,174704,81179.1,77657.1
86394.6,65672.1,72193.8,38287.6,174617,61882.8,72735.4,87298.1
62804.7,109658,50434.8,82386.7,44881.7,172425,61301.6,86898.4
48294,99891.9,25984.7,62110.8,43523.7,122431,61176.4,70994.9
79434.9,81068.4,57443.1,56042,101377,106189,63058.5,61073.6
59440.5,59495.4,29422.1,34344.1,54105.8,52255.7,63591,63704.5
75432.6,81169.2,82757.8,95533.3,87903.6,137802,86875.4,84394.9
41863.5,85380.3,23140.7,44196.4,37887.2,88010.6,61212.9,86518
63002.7,100518,23354.8,60819.4,65541.3,138904,88879.3,80793.9
57395.7,88236,25952.7,97194.4,54248.9,100826,71350.5,75128.3
68728.5,95307.3,54871.6,99205.7,94486.6,99521.2,70773.5,62292.9
60301.8,49107.6,38807.4,29618.1,65135.4,47608.9,80234.2,70064.2
94316.4,55297.8,122516,39812.4,171940,58837.3,65325.6,77339
88190.1,70463.7,79206.4,43012.2,151215,82671.6,62227.5,66044.7
62125.2,109460,35265.7,66018,60456.7,162023,60819.2,90902.8
95660.1,126574,84449.4,165044,153598,170549,71804.2,92455.8
77355,145440,48209.4,104657,88202.4,262143,83529.2,90063.4
124588,64699.2,89224.1,69682.1,204775,164666,88765.1,84590.7
88369.2,62604.9,98826.2,45472.5,175261,80510.2,61745.9,91750.3
80676,104166,49874.6,79843,115071,127915,61059.1,93635.5
46011.6,73806.3,20770.8,54435.2,54137.7,131044,73596.1,82918.5
78487.2,89648.1,90248.5,65991.6,198970,108559,89685.6,61697.6
77268.6,71361.9,49646.6,95901.7,128101,107251,77010.2,78792.2
86695.2,55044,77507.8,36808.6,120933,52293.2,65368.6,71166.6
141315,74153.7,114301,60637.4,194461,85119.4,64772.9,69872.1
64854,73527.3,42288,75762,79983.4,171580,89128.8,85437.8
75861,60528.6,54304.5,66251.6,148697,84545.4,88077.6,64576.9
92029.5,105451,107493,104814,186942,202822,67525.1,74729.5
81720.9,90911.7,48779.3,56132.4,105272,107984,80481,64019.9
108968,98574.3,108381,83375,206017,143506,77704.8,61578.5
83906.1,80659.8,109775,66125.1,157412,129098,61116.3,87228.6
94895.1,94601.7,87599.2,60540.1,185122,137930,78845.1,73379
65373.3,68742.9,34701.4,44644,72405.1,75193.4,86884.9,86188.8
106525,112869,123921,200829,231357,206184,91494.5,63061.4
87440.4,107080,123727,111450,186616,212238,69223.7,68445.1
47007,63644.4,50155.4,45911.7,126149,73988.3,72432,80027.5
65269.8,49410,32156.3,23361.7,56992.8,51798.3,69434.3,68477
91010.7,72286.2,64633.6,65759.5,124134,119066,80789.2,83217.9
92805.3,105177,85935.4,73692.2,172762,145742,85204,72668.9
95049.9,91501.2,68478.4,62751.6,133277,90497.3,89979.5,60909.8
102021,118677,56581.3,97828.2,106901,151930,92385.3,78419.8
96261.3,75562.2,110675,75784.2,222194,152750,85716.5,61797
147594,88696.8,118172,133048,197711,101054,66302.4,64406.3
83588.4,79307.1,92610.1,85529.5,181267,167020,71476.8,82537
50503.5,76149.9,14333.7,61925.9,46998.7,140013,72819.1,63803.5
92512.8,83719.8,120778,61311.5,176213,125580,72160.6,61615.2
101073,88595.1,92264,55737.6,155622,121052,74275.4,77345.7
111247,81240.3,99362.8,69589,195959,141462,69982.2,75804
99259.2,87160.5,113592,58399.5,201614,126943,86178.5,82938.5
86925.6,48595.5,88216.4,26164,92133.4,53100.8,70018,66303.5
80893.8,86456.7,101314,92232.1,194221,175200,79702.6,89412.2
106542,97569,97124.9,76206.8,214020,167651,88824.9,79498.6
46460.7,58953.6,27544.2,41102.3,58792.8,70727.4,61202.8,77533.4
79240.5,115382,98570.5,152917,179047,220936,70078.2,90038.6
80414.1,72831.6,80126.5,50191.5,171338,72366.2,79477.4,75430.9
90056.7,52112.7,122437,58008.9,214209,57942.1,72777.4,72622.7
87189.3,86319,90105.4,93052.2,177909,134895,69851.8,85501.4
86294.7,83607.3,52437.8,45719.9,152644,87004.3,91044,91525.6
81323.1,82053,58342.5,45494.7,119822,83350,65819.6,87263.9
106265,59148,121989,74918.2,201177,125759,80804,74396.2
57742.2,98432.1,46074.3,104318,64906.1,149845,62390.5,90503.1
88322.4,85377.6,67624.9,53102.2,129971,148866,71685.7,86731.9
65932.2,88345.8,57073.4,75932.9,82086.4,138383,73529.2,72066.8
96746.4,93775.5,81113.4,71913,172534,132820,85425.9,71406.9
97585.2,97608.6,113741,140291,239038,181615,88369.2,74258.2
79385.4,61325.1,58471.7,48007.8,93164.8,57629.4,77130.7,62739.4
83871.9,99009.9,64856,65528.8,166106,113710,89087.7,81591.1
70781.4,77340.6,81726.4,56365.9,165133,85390.5,63080,69105.2
54362.7,70760.7,44894.2,37367.4,69094.1,74114.8,79428.1,87113.7
86112,124506,63096.3,100151,136362,146769,64830.3,86290.2
85505.4,77051.7,72733.1,43946.2,137182,143670,91339.2,81178.1
70444.8,82168.2,37871.9,97291.7,71248.6,109172,77528.6,73880.7
83093.4,95534.1,98767.8,89050.4,188219,193958,66511.5,88121.8
72063,66400.2,40842.4,38747.6,83119.2,60085.5,61326.3,76090
76478.4,98681.4,68453.3,140933,169506,162780,85610.1,85593.1
88854.3,62476.2,54339.3,93150.9,126347,214977,71196.6,89725.7
132831,90198.9,78295.9,130075,160020,171277,78972.7,76202.3
152905,131700,125240,103712,190483,213763,83878.1,92686.9
71448.3,89917.2,54023.7,114751,164835,209502,62503.6,91625.8
95436,80217,96823.2,62013.5,181936,104203,61229,65106.9
78469.2,56716.2,70391,66211.3,124751,125042,61864.9,75773.8
96908.4,82346.4,148011,47323.9,231513,102614,91589.3,73703.9
157756,85550.4,109319,125739,221470,185604,76325.3,93322.2
89424.9,101327,86809.7,141567,142599,207009,63723.5,83920.7
90459.9,112488,67566.5,101969,153185,212335,63168.5,87692.1
93339.9,57061.8,101523,54832.7,165726,80667.3,82456.2,64411.9
82609.2,77098.5,57447.3,41091.2,131880,78743.5,61288,90102.9
71993.7,115832,35898.1,71347.3,69543.1,127665,73754.7,92096.5
55214.1,101930,43743.3,105234,60221.8,186010,61372.8,62673.4
88365.6,82036.8,88301.1,90243,150729,139790,61634.2,70915
59096.7,108522,46706.8,73007,70001.8,128932,65771.1,67973.9
85692.6,122791,98175.7,204611,165210,262143,63303.4,83783.4
77968.8,72659.7,83147,22969.8,205505,67730.5,92145.1,89036.5
75826.8,76125.6,68110,46712.3,152191,75913.5,91130.2,80308.6
102469,93838.5,99168.2,166263,171495,262143,62397.2,90038.4
94606.2,60467.4,117579,63000.4,200956,145019,93828.3,68797.3
88937.1,76990.5,74106.5,57783.7,191791,81137.1,77330.9,79114.5
53126.1,84788.1,37517.5,80932.8,59170.9,133989,64623.7,79759.4
81056.7,84699,62322,50400,153837,110012,70771.9,64855.8
83754,120427,93912.6,105394,181541,203881,68539.7,93439.5
54245.7,94881.6,25909.6,74164.8,59408.6,139341,72299.9,70715.8
103568,144734,134248,78140.2,233723,150461,88416.1,70725.5
56107.8,54254.7,25841.5,38694.8,57234.6,63556.4,63735.3,64144.9
95094,119138,122594,117886,112034,211095,67321.6,91187.6
42552,70209,21383.8,52700.5,41394.2,126553,61011.3,77970.7
50996.7,83816.1,30377.1,49955.2,60815.3,83835.1,64340,72606.2
84036.6,56066.4,111346,55793.2,184079,69709.9,88076.1,64532.2
71150.4,126639,48045.3,113024,83491.7,221296,70262.1,93438.3
131395,69692.4,134590,27473.3,200317,78097.1,81109.4,85936.2
101570,103422,123351,84024.1,200795,131185,89008.2,87087.8
84277.8,89824.5,76267.9,54501.9,145393,91888.7,75192,87072.2
76077,131555,67996,68628.5,85404.4,169576,70877,75720.8
91991.7,80217.9,90963,94212.8,154932,112469,86492.8,61681.9
82077.3,82404,69454.1,76689.1,98701.1,132845,69975.3,62646.6
98784.9,77249.7,64486.3,45562.8,95772.4,75721.6,76151.2,91857
85225.5,105486,126523,86612.3,201802,107322,89314.6,88075
96498,58325.4,78330.7,31414,120860,60679.1,66548.5,68023.4
119111,127782,67758.3,100608,132361,185509,81386.5,93102.6
73364.4,42412.5,61603.4,20648.4,128607,42425.6,63274.1,61200.4
85172.4,70154.1,61255.9,39287,116198,59868.7,83768.8,62908.1
77663.7,77854.5,62181.6,72694.2,116033,94556.1,68894,72871.5
90221.4,72543.6,90805.9,110183,196445,104592,92445.9,74834.2
82333.8,87555.6,99355.8,67163.4,187558,90427.8,65446.4,73078.7
132721,119986,136296,108546,213690,188591,76963.1,70907.6
84364.2,45694.8,45753.2,21133.6,90956,53028.5,73362,66420
63537.3,51083.1,38145.8,54759.1,49172.6,75057.2,60910.3,67469.6
95254.2,100552,116957,95501.3,211059,191621,90017.8,80778.3
109423,168905,118082,112159,225910,262143,85484.6,79322.9
86584.5,78750.9,55392.9,78255.6,129477,194346,91007.9,90524
58753.8,58757.4,35863.4,28745.2,65134,53434.4,63594.7,61416.7
96124.5,76599.9,106206,38140.2,205549,102835,86534.8,76028
86840.1,55808.1,92949.3,24155.4,189813,51206.2,80844.6,86062.2
100571,92787.3,109030,59432.2,177899,143758,80539.4,75028.3
86462.1,61096.5,45415.5,77962.3,115687,137674,71890.7,68285
100607,129097,100152,112008,176426,151032,81442.7,89130.1
81438.3,74813.4,52154.2,83234.6,119931,114701,65022.7,92321.7
94516.2,73857.6,100163,59632.4,184011,74409.5,65202.9,61375.1
64993.5,96349.5,51363.3,75884.3,88430.4,108851,74679.5,92809
97577.1,87981.3,52800.5,151858,114660,235559,71630.1,88720
93263.4,88136.1,97698.9,56970.5,158101,107468,63972,62849.4
123124,93321.9,123422,104661,224819,225238,85905.2,80886.1
105966,91100.7,78715.7,56276.9,156442,118005,91226.6,66209.5
72784.8,101330,43661.3,115209,76936.5,151620,72637,93201.7
87586.2,47054.7,49706.4,26875.7,128429,65706.7,66842.1,89298.1
77692.5,76760.1,76650.2,110916,178529,227519,66884.3,90235.8
62634.6,74297.7,43615.4,64835.2,67638.8,79474.6,71572.1,72867.6
97925.4,87751.8,55689,114272,138003,244326,68376.4,83647.2
87298.2,105820,70681.5,142774,151819,222937,66633.4,90169.4
83147.4,77708.7,76412.5,76308.2,140906,81199.6,79780.5,73711.6
51323.4,99085.5,25391.1,95632,49313,145412,65581.6,63060.2
91534.5,121572,116191,152591,256163,183644,76264.7,93476.7
159369,67590,112886,44967.9,262143,73347.5,89602,69701
45073.8,81295.2,21265.6,44033.8,49087.8,106186,85026.9,77592.8
77763.6,60174.9,54728.5,78882.5,76090,149818,85753.5,69391.1
118903,101818,127966,125047,161649,258680,86566.7,87768.3
89234.1,81500.4,73166.8,46210.6,159213,99857.6,89615.3,69124.9
88182,112162,92075,75732.8,176223,139949,74166.5,72156.1
117634,104973,66531,144686,119989,262143,63826.5,89789.6
96795.9,50291.1,102357,78557.2,161083,114408,93049.3,71894.1
110328,75809.7,67623.5,55666.7,184788,128925,63011.2,76756.8
48047.4,61018.2,18986,44852.5,41549.9,69280.4,65836.3,67011.7
82922.4,87579,68128.1,58798.4,88170.5,105103,77353.5,73585.1
135974,79605,118218,103921,206434,164619,81188.7,81173.4
83127.6,71165.7,75837,48237.2,145231,70694,67796.2,67336.6
105174,102951,127673,134958,155035,128433,91132.9,72207
102981,63398.7,87005.7,58947.1,176202,99574,86084.3,62878.1
67041,72252,48926.6,38655.9,66155.7,72898.5,65831.2,93700.3
56527.2,76990.5,36493.1,49931.6,63951.1,75998.2,61672.8,79282.7
99840.6,44786.7,91688.6,32261.9,204020,60312.1,88586.7,72879.8
56607.3,100023,35440.8,59814.5,51085.3,140209,61426.5,84958.4
85980.6,100919,95055.1,81725,185205,131693,91358,79517.6
83318.4,75758.4,69529.2,56581.3,151071,75406.1,76432.9,81993.5
89001.9,80275.5,66006.9,55790.4,114967,118432,65557,67027.5
92456.1,116422,90742,86038.2,163340,127569,62243.6,66223.2
94227.3,108795,51933.2,132783,90251.3,200366,78457.7,83940
72459.9,72108.9,30965,86255.1,78279.2,142335,61527.4,67614.2
97097.4,132684,83654.4,130199,157162,160179,65119.1,80459.8
87293.7,97174.8,82623,73226.6,151149,102693,66812.2,76036.9
66909.6,113909,55884.9,207148,71583.6,180907,74283.2,93206.9
123349,88905.6,120943,59354.4,226378,133541,84601.3,71411.8
96291.9,79281,87336.5,73311.4,168146,150242,90597.7,88834
83969.1,54679.5,42200.4,32129.8,135190,66262.7,75790.9,69628.5
106196,119263,90388.9,210724,160980,253932,81852.5,83680.2
88890.3,84147.3,72124.3,50565.4,100259,126468,91730.2,78721.4
94436.1,107943,87216.9,80354.5,164304,151773,85120.9,66246.1
75201.3,61955.1,61247.6,44538.4,75841.2,60770.8,88931.9,78234.7
109131,124862,69342.9,57155.4,198179,146624,86709.7,72253.6
122088,75639.6,107478,74340,223575,87835.5,92628.8,93769.1
100634,159482,90822.6,134599,179149,247612,93031.7,93140.8
121673,95950.8,87998.1,65327.2,148499,125928,61421.2,78707.8
113864,96909.3,89824.6,71140.2,150675,146092,71477,92426
93071.7,76203.9,99643.5,48494.3,179056,78512.8,84130,88451.4
67626.9,65691,37213.1,42764.7,74787.6,90536.3,92861.5,77266.4
80122.5,89537.4,100945,100537,201757,142308,92025.4,84065.6
123457,90931.5,118585,102757,209541,206724,73333.8,67138
92421.9,75600,84632.9,66542.1,212118,93836.1,93378,91146.4
100742,76613.4,93858.4,61964.8,153627,173033,73140.4,91121.6
104306,87527.7,90347.2,121002,175007,221680,73323.4,72640.5
94172.4,77886.9,84760.8,81430.4,150322,143370,86945.7,69272
83373.3,83762.1,70448,67177.3,152641,137766,73213.5,64657.5
87671.7,52300.8,71842.1,22251.1,169000,41591.6,66102.9,61824.8
91436.4,81648.9,79763.8,59528.1,135588,76661.3,61351.9,80829.8
66708.9,56221.2,73054.2,26019.4,86412.1,57212.4,76001,63682.7
98821.8,84586.5,91339.7,71262.5,187683,173715,91657.8,82656.8
155511,83620.8,118883,128496,216159,237760,74101.8,91641.9
137737,72657,90885.1,61507.5,193186,124584,87058.8,65207.6
87844.5,90894.6,72888.8,52995.1,182093,109975,78818.2,61710.8
130240,45534.6,135137,67576.2,212053,72690,61555.6,69381.9
95532.3,77985,56406.2,78444.6,114492,195334,84511.2,93165.2
79574.4,117721,72384.2,72032.6,87009.8,153961,72163.5,88920.1
83067.3,90973.8,96719,127124,176687,213309,71533.7,80691.3
107325,73709.1,97630.8,102538,164420,182324,71519.6,90663.9
100118,109425,67042.5,126643,161403,113210,74974.6,67480.5
81387.9,45591.3,58934.6,19490.6,107473,42499.2,62371.9,62514
75714.3,107454,63277,219962,118461,262143,61616.5,82628.3
90882.9,75933,81590.2,132320,164247,262143,62535.4,61282.1
90631.8,102087,87802.1,76145.6,166357,119350,69081.8,71305.7
71480.7,63604.8,44101.9,37749.6,69776.6,61490.8,82560.1,81397.8
88891.2,141686,63895.5,152701,124390,166240,67075.1,69273.7
92948.4,92304.9,81105.1,72263.3,128629,129624,64231.7,76026.5
90524.7,103582,147977,103611,230976,219386,83762.2,91519.2
101552,70575.3,78753.2,73196,140450,98302.2,73270.1,88811
66341.7,68119.2,36002.4,55290,70624.5,64024.8,68652.4,65328.5
62462.7,77661.9,37901.1,142739,57445.9,260839,75697.6,93053.1
89405.1,79893,78489.1,106460,122021,179865,67145.9,64920.4
65817.9,92584.8,41597.1,67638.8,70773.2,120014,77177.1,61538.1
98893.8,72301.5,75129.5,31881,143153,70663.4,72297.5,86115.4
93354.3,124875,118784,106902,178714,242561,75345.8,91486.3
100802,83020.5,87328.1,67388.6,155054,139799,70643.1,77278.6
91990.8,92343.6,61458.8,115294,179260,241037,92875.3,92303.1
107733,62806.5,97002.5,52284.8,175265,96022.6,75327,79651.6
65358,58487.4,61439.4,71537.7,165062,133145,61670.1,79916.6
62829,84114.9,47230.8,126829,75753.6,151766,62751.7,63133.4
108527,124319,110110,106518,131696,217446,69735.8,69087.8
100946,93516.3,84638.5,55583.3,106314,114742,68265.6,79511.7
99783,63578.7,115591,36996.2,169181,59462.8,69708.3,67163.6
102010,73235.7,67428.9,97749,145666,158492,86919.4,80397.6
73886.4,74343.6,84124.2,70089.4,159682,81130.1,74387.2,72864.6
102819,91329.3,94365.7,87080.7,177482,125976,86803.5,65068.5
69870.6,95805,57179,81663.9,81751.5,159692,75137.2,85615.7
148750,84568.5,123394,63126.8,173672,115512,86223.6,70031.7
49991.4,74842.2,21368.5,39238.3,46287,64369.5,60954.8,71981.4
104069,67326.3,104457,44837.2,193666,97797.6,81575.9,62367.6
78975,84092.4,65616.3,60610.9,74947.4,85932.6,84109.9,70124.8
89460.9,115904,123835,172453,191735,262143,72212,78937.9
98741.7,84295.8,114697,74677.8,215960,182492,93190.5,91019.8
85932.9,77270.4,79373.2,64019.2,169150,121065,77532.5,84979.3
106240,76315.5,82225.4,60908.4,165830,115209,88589.1,62569.9
88491.6,74051.1,94677.1,37069.9,185594,75705,74529.3,75674
71915.4,66794.4,47906.3,36126.1,92410,54464.4,64310.3,66294.4
89572.5,78131.7,84156.2,58407.8,165360,166532,71227.4,85938.8
73071.9,58574.7,47043.2,48770.9,95758.5,142440,63854.4,67191.6
92478.6,82959.3,118913,55028.7,200770,120214,83380.6,70983.1
69271.2,63946.8,37236.7,42269.9,90621,71981.1,61018.6,69078
81009.9,96223.5,86310.7,75132.3,160542,118595,77822.3,72810.6
68407.2,85437.9,43366.6,55408.2,84228.4,111149,60824.1,82913.3
78240.6,112356,63920.5,112668,100428,195737,83437.5,92551.8
89934.3,77897.7,81517.9,60762.5,174583,74302.5,82211.5,68911.9
94770,69210.9,151876,39641.4,240163,87884.1,86572.2,91339.9
103775,91332.9,132231,171847,213952,149150,75253.6,90075
59505.3,84230.1,38168,85244.5,73797.9,180158,87664.3,78952.7
149771,45904.5,185729,15511,241877,44181.1,92311.9,61011.8
56779.2,63357.3,34251,140818,61781.3,186293,68008.5,65635.6
142271,79872.3,90757.3,77049.1,178979,130389,90620.2,63674.2
63139.5,89759.7,38109.6,78348.7,60319.1,83423.6,65784.3,62691.4
117248,72733.5,101198,55102.4,171012,74616.6,91894.3,78974.4
83403,76265.1,80208.6,83533.4,149137,92380.8,69368.4,65203.7
93495.6,93174.3,105950,71109.6,181563,170192,69761.4,73540.6
52149.6,83912.4,12411.3,64679.5,62252.5,138444,87160.3,80115.1
61958.7,70716.6,63488.2,81263.6,90197.1,129095,62169.9,71951.4
67689.9,105012,31789.3,209996,65393.9,183926,82351.8,62844.2
103996,88558.2,106984,74365,176905,128265,80981.9,69154.5
64405.8,70200.9,37694,54332.3,70874.7,95522.2,67418.4,84878.7
109710,57544.2,78002.6,49735.6,151951,57458.4,91415,61686.1
88439.4,66770.1,51752.5,33632.4,131076,64149.9,68030.1,74420.7
90705.6,100292,69919.8,170340,137299,140744,67260.1,64107.3
57599.1,107688,27081.4,122280,62012.1,254626,68333.9,91349
81916.2,54433.8,107393,33408.6,148847,63504.9,62249.6,66901.1
78580.8,43930.8,55495.8,12786.6,132981,43395.8,69596.7,60973.7
66903.3,41766.3,54424.1,24497.4,87917.5,50596,71792.1,64803.5
99174.6,63781.2,99421.1,80065.4,180551,97230.5,91035.4,65671.4
59137.2,89698.5,29341.5,74198.2,66827,133918,83476.2,76810.8
83473.2,106048,83127.6,170981,191231,240289,84780.2,88954.7
63531,73249.2,62103.8,79323.1,78928.4,150626,63170.8,85807.4
78983.1,77749.2,89238,42899.6,138737,98202.1,78088.7,67332.1
95814.9,77901.3,98815.1,98678.9,177931,237819,61172.4,90957
120450,111883,116507,218650,185237,253205,72547.1,92470.6
93795.3,80528.4,112394,69005.2,207922,122658,62169,86399.5
90685.8,68209.2,51161.7,33471.2,109696,75057.2,86189.5,87632.9
90411.3,120089,123168,140846,221355,262143,83920.2,93339.7
66418.2,70500.6,34952.9,49541,68991.3,73956.3,80628.8,85971.2
79980.3,100142,75841.2,108014,172457,262143,64744.5,88613.7
67530.6,77595.3,44569,67256.5,57224.9,160870,66051,88787.8
98200.8,78041.7,66321.1,39259.2,147037,118232,86261.7,67101.2
71602.2,139729,59396.1,92715.8,91737.2,199202,68527.4,75586.7
99329.4,57016.8,136013,25570.4,234172,47057.1,92449,74087.4
125332,79094.7,73329.5,63160.2,171819,149724,89801.4,84112.5
135700,78302.7,114751,66911.8,180478,79381.5,66547.8,72561.6
67329.9,121223,40137.6,171411,62053.8,225850,74611.2,86359.8
96883.2,56688.3,117448,26735.3,175645,50461.2,86383.1,65502.4
67346.1,93387.6,95811.3,95915.6,177960,143638,81565.4,64317.4
84001.5,65297.7,98552.4,67976.6,200424,147818,81541.5,74357.5
109495,65993.4,90680.8,44264.6,209066,65435.6,89699.9,83729.4
70122.6,74795.4,72477.4,49990,101549,97191.6,66046.5,64126.7
87957,93424.5,62790.5,59518.4,134200,88704.2,72327,92881.6
93022.2,101234,94482.5,82693.9,136652,145094,73572.6,88589.3
68937.3,75563.1,74420.6,72808.2,155088,148199,66257.5,82107.9
90922.5,99702.9,78851.9,56349.2,167794,124825,69413.3,79238.5
111598,78388.2,139128,51021.3,249946,78389,89259.1,77823.1
93041.1,53621.1,110929,20181.4,222672,47521.3,93316.4,61427.1
64362.6,76745.7,38184.7,72501,72898.5,150616,81683.7,93213.2
118731,101490,93185.6,166818,187343,152369,84747.1,90014.2
101889,64953.9,111978,87463,191411,97123.5,84445,83740.2
80180.1,112540,83174.8,83967.1,105020,173863,87443.3,61134
93083.4,78895.8,51906.8,68785.5,121198,137190,79221,79973.5
117299,81162.9,87551.9,62562.5,158717,132895,72393.4,74842.8
101607,49350.6,89536.9,25699.7,134484,46510.8,83163.5,63143.7
83714.4,84820.5,100384,103936,121694,183958,81664.4,89548.8
92415.6,54683.1,83875.4,81775.1,155301,99925.7,74335.9,71003.5
97545.6,101113,83076.1,127292,149957,248836,61756.9,92049.3
72349.2,45286.2,56086.5,16484,76202.6,44260.4,62855.1,62594.3
70044.3,81072.9,46178.6,57968.6,65564.9,140806,71505.3,76516.1
94578.3,59390.1,94200.3,36112.2,193994,63402.1,92847.2,76943.6
115967,110905,89673.1,77279.8,195805,165695,82415.3,92204.2
91043.1,84122.1,76123.4,66125.1,186406,141933,91915.3,78310.5
95350.5,129542,65809.5,71744.9,143347,139208,62895,77590.1
92304.9,80550,97623.9,85087.5,193288,159265,90067.3,83452.2
57017.7,153743,33838.2,146746,47161.3,262143,61677.6,93573.2
49149.9,82257.3,21103,68219.8,39110.4,142354,61055.6,89183.1
97675.2,116196,79011.8,69340.1,198211,162687,88058,88545.2
84056.4,85669.2,65728.9,65195.2,153462,150242,67058.7,75832
88473.6,99979.2,87428.2,83244.3,164369,175493,85350,92948.6
85777.2,74086.2,74562.4,63536.9,98295.2,102066,64910.9,88136.2
56029.5,87513.3,24056.7,127681,63036.5,262143,87162.4,91709.2
78380.1,97393.5,81964.1,110868,148943,179282,64757,70004.1
86277.6,60852.6,107693,74544.3,188091,160477,74605.7,65293.1
99305.1,102198,155986,56350.6,136394,132724,62659.1,79741.5
108298,48576.6,135925,33019.4,249344,52653.2,90711.8,74352.3
84559.5,88066.8,53633.1,57931,121389,103893,67654.7,77543.8
99845.1,85896,146214,99765.9,238823,149176,93403,92192.6
75458.7,59864.4,44455,53686,71393.2,65592.7,87042.1,62907.3
77392.8,63887.4,58709.4,50028.9,105700,86791.6,91049.6,85494.6
91527.3,95598.9,106878,69259.5,179863,79861.1,86849.2,73332.3
76203,42856.2,71586.4,22680.6,186519,55476.3,75636.1,62177.1
87302.7,101143,60210.6,103747,108021,119693,63287.9,89883.6
129455,66088.8,79698.4,82254.6,166978,262143,62030.3,81046.5
90043.2,69561,93943.1,34437.2,230634,75086.4,84039.4,87583.2
96064.2,122640,93360.7,206188,190128,262143,76323,77303.2
82703.7,43734.6,67345.5,12113.8,121236,57003.9,78436.3,61276.3
68657.4,117999,79627.5,70851.1,143616,144390,63658.7,79905.7
122082,65385,104378,43130.3,155348,71143,91714.4,84061.6
96390,71987.4,111140,49887.1,113296,74397,72392.5,68657.6
63447.3,99423.9,69919.8,64801.8,139431,164693,78909,71166.8
66398.4,111104,44449.4,222570,88023.1,262143,73230.7,89617.2
92691,90041.4,72830.4,103070,129986,119198,73903.5,81048.8
84128.4,93664.8,97686.4,55659.8,153092,127288,75852,92611.9
87669.9,82746,57522.4,72872.1,142000,180076,81565.4,75135.4
43806.6,128929,19701.9,150689,73183.5,198297,62687.9,90715.4
83527.2,90138.6,74640.2,146316,164620,262143,70724.6,91206
96197.4,112666,85565.6,106423,185733,202092,78807.5,88596.5
88861.5,78813.9,51587.1,56903.8,116920,80653.4,75006.9,86470.3
67736.7,79227.9,43048.3,76001,95668.1,128104,63086.5,87040.1
102831,67141.8,106357,36782.2,191074,76747.5,80143.1,80878.2
79810.2,82071,56118.5,78052.7,108017,186406,72276.2,60989.2
119199,86457.6,81128.7,48647.2,139210,109515,88155.3,91816.4
59612.4,66902.4,26621.3,51464.8,55524.9,85319.6,70697,93509.1
77801.4,84245.4,98071.4,82055.9,96531.3,130157,72175.8,72568.8
72824.4,100587,53296.8,111613,90204,214013,82026.5,89593.1
128937,108821,102179,63407.6,237237,103805,92020.8,72038.5
78083.1,77092.2,58816.5,44022.7,103290,58701.1,64191.9,64765
85260.6,102831,53799.9,156311,113628,221515,66560.7,75795.4
85568.4,117063,86353.8,73664.4,192300,140180,88403.2,93608.1
61804.8,73660.5,38960.3,69031.6,64811.5,132791,68706.6,71070.2
85156.2,67005.9,34812.6,30662,96125.4,63809.3,66396.9,90528.5
83700,60156.9,102268,79697,170930,158618,92208.2,86296.7
98080.2,43612.2,94588.1,11891.5,105843,35007.1,67480,61205.3
44768.7,65482.2,12161.1,33916,41030,59303,62021.3,77608.4
97128.9,87680.7,104650,61021,211422,88057.9,62214.4,77289.1
85232.7,68160.6,80624.2,91229.9,151511,123824,66284.8,84188.4
71410.5,65059.2,44801.1,58125.6,67485.9,85642.1,91625,85879.9
104756,110452,76060.8,142588,154453,139712,85538.6,63725.1
81039.6,84104.1,80772.9,71685.1,143954,142564,77466.9,76605.1
87715.8,57667.5,84279.9,42322.7,177019,63361.8,79897.9,62370.6
108965,80471.7,78753.2,67455.3,153949,126302,69503.2,72427.1
94469.4,79776,92890.9,83099.8,193595,137254,90941.4,75954.9
99091.8,68250.6,86663.7,37315.9,210500,112347,76764.2,66595
69865.2,91826.1,66778.4,53421.9,125561,126291,61032.4,79890.1
57087,65148.3,35668.8,43484.8,56235.2,66079.2,63989.6,84688.3
82888.2,74143.8,91181.2,40380.9,176846,72054.8,86440,83225.4
52062.3,136934,21287.8,135424,42089.2,262143,61577.1,90212.2
82161.9,80960.4,80825.7,42424.2,146763,91231.3,63187.7,90795.2
82791,57430.8,116486,35545.1,189652,78040.2,69025.9,70873.3
52813.8,78940.8,39727.6,75242.1,61671.5,161066,66527.4,92213.3
115975,83759.4,91110.3,89049,164887,185033,75372.2,78391.2
94212,153869,68976,68504.8,149068,220555,65778.9,93641.8
87531.3,99539.1,61575.6,144522,125101,180528,73954.8,81179.3
139645,73648.8,128854,44061.6,210927,75014.1,93472.7,76825.8
82039.5,98733.6,60249.6,60034.1,77792.7,114628,77872.6,87737.5
92235.6,68918.4,121448,162366,210520,262143,65830.7,92925.5
128499,82865.7,152311,71518.3,262143,108509,90891.9,93247.5
110012,81995.4,73689.5,67535.9,147817,132150,66733.5,61851.5
69906.6,71641.8,46114.6,86902.8,79349.5,126707,80680.7,61729.1
97568.1,78746.4,114407,73140.4,203649,146174,80071.9,62271.6
99473.4,90360.9,69605.6,67376.1,144730,145751,65108.8,87521.2
92938.5,64539.9,74098.1,52793.6,162039,62707.1,63778.9,75949.7
76232.7,59211.9,74547.1,35230.9,133427,68604.8,63131.3,73041.7
125663,121274,81805.7,121988,221959,234272,80843.6,87280.3
77536.8,86535.9,86998.7,80828.5,224420,148028,93577.9,65975.9
151262,82722.6,166995,67580.4,187640,147247,68747.9,72420.2
85864.5,74164.5,107970,32286.9,165427,72634.5,67244.6,92171.4
57860.1,77680.8,24366.7,57539.1,54194.7,152226,64942.8,91136.8
54053.1,97272.9,29441.6,124811,57530.7,122344,68761.4,70253
88831.8,80571.6,66467,65392.6,122844,127912,64344.8,79342.5
59191.2,183623,63745.4,116810,81783.4,227052,64617.6,80878.8
88526.7,72114.3,75892.6,81523.5,149589,140967,78749.6,60696
109974,67130.1,89802.3,59404.4,239790,148463,92720.7,84121.9
84879,55269.9,66365.5,21130.8,122655,50252.7,63749.8,68140.3
82237.5,52734.6,87481,56692.5,189084,84086.7,73179,69513.6
64128.6,79873.2,36655.7,115941,64159.6,118692,75453.6,75447.1
64945.8,71623.8,47161.3,116988,72637.2,149440,71522.6,70614.1
92865.6,103633,71875.5,85405.8,114045,160968,65289.4,80447.5
94440.6,76317.3,71952,74986.3,151420,154336,76271.5,89683.7
103099,93801.6,83540.4,74705.5,166813,190640,86698.2,68232.4
86035.5,110007,131163,61283.7,262143,131803,91459,74114.1
91764,97655.4,90751.7,64615.5,151534,132434,72891.3,78533
64331.1,80217,44439.7,71956.1,60795.8,139389,74882.9,64143
104726,94143.6,98256.3,71148.5,161710,134067,70084.3,78159
86811.3,67586.4,72754,30154.7,125998,64504.3,62356.4,79640.6
110930,106762,108409,67075.8,175889,114038,90156.6,64712.1
93241.8,74410.2,122358,69875.3,239632,119888,82318,75924.6
83227.5,55405.8,95077.4,66601.9,186278,97183.2,73058.8,67509.6
80120.7,88210.8,60954.3,79681.8,74405.3,115478,71465.7,70681.1
97933.5,54142.2,108317,31521,164515,54508.8,93285.7,70194.5
103200,135957,94428.3,118214,165303,195035,72073.1,87933.7
92841.3,92812.5,73661.7,119090,138511,211596,89167.8,92574
100428,77032.8,78247.3,50206.8,121150,81469.3,84053.5,89534.6
87800.4,83497.5,96821.8,78548.9,135813,141962,64526.1,69769.2
87897.6,86228.1,85580.9,77103.3,180376,150238,92477.8,89132.1
51198.3,85628.7,21390.7,63388.2,37855.3,87289.2,62076.2,90631.7
48908.7,85369.5,21126.6,61135,45361.3,153797,61587.2,79990.1
106208,111311,66269.6,59315.5,173283,145796,86635,92841.8
96256.8,62473.5,93402.4,36765.5,171500,52603.2,87475.1,61715.4
100176,123161,98765.1,181416,179121,165108,67994.6,91157.1
73785.6,69782.4,40360,41996.1,64523.8,73521.3,84605.9,83813
62784.9,113170,32758.1,213687,63172.7,216158,82196.1,90695.9
86935.5,75857.4,90113.7,52080.5,143169,92692.1,78967.5,66003.6
108788,77288.4,87871.6,75039.1,148338,149889,82398.1,67723.5
76164.3,106389,80885.5,110697,108534,106913,63706.7,82931.7
71875.8,127696,44790,78319.5,87047.4,173188,71659.5,90372.7
61213.5,86146.2,52795,66935.5,68506.1,119856,78165.8,62885
83448.9,76381.2,96802.4,74066.1,189749,116938,81698.2,82075.5
94865.4,107740,97040.1,108198,157762,169399,64528.3,90002.7
81607.5,122990,63206.1,149809,95470.8,177682,76431.5,64658
76694.4,93459.6,79731.8,77103.3,138751,137436,71420.5,73858.3
75812.4,86222.7,64452.9,104076,133315,178373,84289.4,89204.6
68355,74669.4,47020.9,59569.8,70395.2,83594.6,71376.5,91038.8
77224.5,81596.7,51991.6,55167.7,117163,99084.8,76735.9,79137.6
124225,74867.4,142914,57423.7,134007,111297,86398.4,71777.9
75105,129202,47554.7,83836.5,79819.4,154890,65015.9,85332.1
71966.7,99606.6,119622,111978,179435,173693,85781.2,63315.1
85148.1,65949.3,63792.7,51468.9,125024,67198.2,64201.7,88178.2
73869.3,100330,70505,63018.4,107868,131398,91375,73446.1
84672,142037,120380,91852.6,159708,155050,66560.8,83756.9
86769,133636,73904.9,96591.1,149078,179218,79938.9,88082.5
88161.3,132966,82175.4,94825.8,144232,176251,63705.3,80049.5
93474.9,89107.2,67886.2,45457.2,112565,114169,92188.1,66775.7
81291.6,109050,72210.5,76694.6,159188,171016,65946.9,85934.9
124582,83178.9,128012,48741.7,196016,105708,75702.9,87351.1
93030.3,67975.2,78776.9,34217.6,175585,71286.1,89386.4,66418.9
94051.8,138296,67334.4,194426,137251,262143,74950.3,86824.7
95096.7,88592.4,48000.9,71311.2,123950,159680,63453.7,73025.2
70893.9,85424.4,77619,95053.8,217057,133803,74269.7,69119.9
61754.4,89602.2,69217.8,96532.7,77628.7,112552,77851.2,77714.3
131707,150051,71233.3,154829,143857,172115,69670.7,88888
106505,73273.5,84211.8,54161.3,157894,78226.4,67973.4,76321.1
77967,85850.1,61150.3,87267,91970.7,94967.6,86326.1,65788
97423.2,57215.7,88085.7,44029.6,181232,75264.3,83415.9,69335.4
154605,81297,164832,202626,194392,262143,72461.8,92576.6
80939.7,108688,57939.4,70805.2,132732,101585,83518.4,65424.6
118473,56462.4,81958.6,67238.5,180261,83059.4,89743.6,61816.6
85057.2,78235.2,90058.1,93669.3,181907,83009.4,64331.2,63053.3
84421.8,86880.6,75431.1,85428,140585,158713,82156.7,78453
97794,119866,80094.6,116214,145094,176110,64532.6,75322.5
88980.3,45314.1,86897.2,18589.9,154045,37413.2,61977.6,61107.3
80874.9,74514.6,81372,57609.9,173001,123855,68998.4,64257.3
95174.1,82532.7,107061,75212.9,195798,89739.8,62839.4,72616.3
108641,59602.5,87267,28664.6,169390,57690.6,91097.9,67661.7
62795.7,94818.6,31448.8,64338.9,56960.8,118283,68964.5,64251.8
72813.6,64339.2,58103.4,42065.6,93149.5,61386.6,66217,62916.2
96869.7,86490.9,73797.9,69447.2,146599,148623,76383.8,72991.9
116687,118475,87264.2,175938,164452,262143,93535.8,89104.3
88740,70201.8,87727.1,71254.2,147464,101150,78763.3,93137.5
104961,150792,187419,133985,147277,203385,65714.9,68040.2
102239,74007.9,109845,116394,192112,151357,71767.5,78610.8
83682.9,95462.1,65722,77220.1,140259,156299,82377.5,76579.6
54622.8,74683.8,34306.6,67652.7,55793.2,96548,67745.3,62748
95587.2,93511.8,97010.9,178028,158004,184407,81304.3,78669.8
120558,88101,181672,72369,232420,112058,83424.2,69360.4
52974,80820,64911.6,50903.2,123044,127779,78685.4,62035.2
114396,79057.8,93142.5,99574,168504,169693,70695.6,79815.6
89028.9,97600.5,74586,65213.2,131052,123579,66394.4,67590.7
75801.6,105156,45017.9,69026,121113,114004,87658.4,63683.9
89206.2,91823.4,90498.7,56689.8,182086,120314,82694.4,71328.5
85891.5,62798.4,79838.8,59326.6,175864,117844,76126.4,70727.4
69328.8,110193,50858.7,58056.1,84467.5,139569,81539.7,76987.9
155375,130365,115983,105185,209242,177559,81301.8,70353.9
67662.9,82658.7,35281,97856,72321.7,168554,83379.2,80754
83353.5,58023,72248,24856,144076,52911.7,86113.2,72309.6
86386.5,99011.7,85183.4,101093,135200,134382,65516.1,92152.1
72820.8,112394,41786.2,96511.9,66148.7,162979,72170.5,69276
98469.9,87519.6,67795.9,79649.8,111224,145975,86302,86870.3
85510.8,81037.8,46961.1,96940,130742,162098,67989.4,83200.6
128033,94829.4,87760.4,93488.6,158065,97761.5,78417.5,65038.3
76543.2,88230.6,90366.7,77239.5,144485,91898.5,67066.3,67528.9
91274.4,62450.1,111994,33305.8,227843,73957.7,92742.3,92188.5
85452.3,84510,109442,73141.8,204761,170956,85083.4,78080.9
108238,64403.1,115765,38623.9,174655,66771.4,92952.2,63300.8
83245.5,59383.8,69027.4,26462.8,147747,44588.4,67471,67699.5
57596.4,75734.1,31719.8,64683.6,80439.3,106297,89649.7,66477.5
93414.6,89847,75497.9,56680,154157,129488,90481.6,76615.8
93663.9,60373.8,53341.2,21180.8,133547,62702.9,77071.1,89084.4
59293.8,75461.4,27488.6,43406.9,63049,91588.5,82334.7,93615.6
78678.9,74851.2,60342.7,92796.4,136112,87987,73614.8,79653.1
86172.3,119945,84263.2,172920,187831,213662,82586.6,76706.8
79014.6,95650.2,77546.7,69484.7,123756,80538,87384.6,62691.5
72962.1,87261.3,63400.7,49964.9,81060.6,113929,72248.2,86517.6
97322.4,89486.1,76301.3,66109.8,127356,164789,90969.6,83436.1
96890.4,58998.6,82624.4,26444.8,159333,62900.3,62900.4,63315.5
73067.4,68753.7,78244.5,52038.8,178572,94018.2,73996.8,84642.2
55905.3,84306.6,29337.3,80429.6,44065.8,149763,61545.5,65275.7
75929.4,75437.1,76911.5,45639.3,139313,93656.8,87020,67838.9
111751,46842.3,110121,13313.4,178290,39817.9,61501.8,62886
111107,71496.9,80244.7,40874.3,162034,72453.8,72425.4,80936.2
93469.5,61379.1,90704.4,54043.2,135574,61503.3,82491.5,60978.5
89298.9,73149.3,111603,51427.2,222125,102667,75952.6,62674.2
76540.5,63071.1,100215,29595.9,110302,64611.4,83323.9,75015.9
66808.8,90670.5,60481.7,93203.7,138655,149040,67176.9,65408.6
80679.6,108380,41951.6,156097,102930,206764,66053.4,68745
91354.5,104427,123714,77531.4,200747,152830,61249.4,89829.6
128645,76579.2,106259,48312.2,195352,99365.5,92103.6,86941.5
61289.1,96204.6,25314.7,78593.4,61960.6,139416,74998.8,78282.8
75020.4,53057.7,32690,51671.9,79816.6,67768.1,72292.9,61597.1
91211.4,100492,106528,106324,181370,201547,76846.7,86653
82613.7,89918.1,70492.5,75290.7,152582,89567.4,61382.7,76942.5
114122,96235.2,62636.2,48666.7,143480,103455,78749.8,68811.3
140426,81539.1,112532,87147.4,188389,193324,76559.5,83441.9
151859,160507,215688,149789,153375,185882,77182.3,65063
81441,78398.1,67438.6,77470.3,133044,84986,64084,64798.2
74934,81173.7,44242.3,64692,68029.4,184538,81026.8,92823.6
65403.9,86827.5,58259.1,113844,133530,184000,65806,91635.2
73107.9,50778.9,54133.6,112598,123321,66649.1,72238.2,68690.6
54525.6,87159.6,27162,79558,62213.6,145597,65095,74401.9
50665.5,88903.8,24850.4,62188.6,36976.8,97483.5,61515.2,91629.6
107648,90696.6,102223,90277.7,205022,186968,81774.1,93254.8
96010.2,101704,108218,121818,222615,250196,82488.9,93323.8
79902,63282.6,83969.9,39460.7,163401,61839.7,62583,85741.4
89059.5,100224,114073,84948.5,179010,150078,80390,91589.8
86886.9,58456.8,100401,46463.5,202376,71931.1,86809.1,62616.9
73900.8,74254.5,58877.6,54852.2,103334,141888,60736,87904.6
98402.4,130576,86994.5,231175,166605,262143,66331.5,89064
91749.6,78961.5,122088,43882.3,183651,119401,81350.8,63260.6
84507.3,75896.1,61432.4,49695.3,160248,70941.4,86865.6,82922
110336,103875,85106.9,110896,165037,170542,69082.1,81242.2
66935.7,94814.1,76336,64509.9,206657,123714,79713.8,76133.9
94081.5,71228.7,87574.2,59487.8,178151,132894,82257.5,69228.8
82757.7,79821,51550.9,85893.7,102013,94103,65149.8,90421.7
76655.7,94040.1,71851.9,58860.9,163559,77642.6,91909.3,82890.9
82840.5,61625.7,97191.6,29761.3,196625,58519,91903.6,62200.8
113947,67839.3,101660,74098.1,204818,75064.2,93261.6,64327.3
109170,86104.8,61843.9,143130,142848,141531,77696.3,68561.2
94490.1,88975.8,81327.5,148822,201896,262143,87246.3,92607.1
72900.9,108596,68312.9,80243.3,129409,115908,85753,93786
85353.3,73340.1,60606.8,42030.8,135268,110914,62806.3,87172.7
69278.4,110463,81634.7,79156.3,173626,133714,93365.9,83636.3
90173.7,90025.2,93694.3,125759,103836,205356,93669.8,91326.6
62264.7,78803.1,54967.6,88488.8,71352.9,154102,89764.9,75615.8
72358.2,53917.2,103622,99720,162686,171052,62713.6,62461.3
90767.7,70704.9,72093.7,64145.7,141638,76065,62429.7,69367.3
79773.3,87570,67016.1,62406.8,135500,150600,71379.8,90960.9
74935.8,89367.3,39384.3,92875.6,102913,152259,66077.8,67876.3
51928.2,45253.8,24583.5,35798.1,52850.6,57443.1,75067.1,73337.8
78048,111960,78712.9,59806.1,146730,133958,73772.8,62556.6
80747.1,76411.8,89346.4,57148.5,148321,81754.2,80201.3,90347.6
96109.2,127890,94228.1,125325,211254,257817,91416.8,92059.2
82778.4,80257.5,100557,54697.9,214834,112490,81741,63041.4
63517.5,73443.6,47215.5,45108.3,68937,108659,66312,88441.9
97539.3,125582,85607.3,139719,166402,262143,81885.9,93719.1
48942.9,118892,21768.8,113956,44589.8,151240,63408.4,92141.2
95872.5,81913.5,132852,50437.5,195720,119639,63055.4,63327.9
64366.2,72207,34483.1,60758.3,68023.8,156271,83442,76837.7
96081.3,45188.1,69851.7,63179.7,183985,127161,63706.6,65411
59332.5,67832.1,49407.6,31441.8,53784.7,66608.8,66966.6,86468.5
76524.3,108261,61133.6,112251,64131.8,127389,65959.4,82694.7
76653.9,74992.5,41045.3,68371.3,77364.6,112832,92107.2,72595.6
109292,113912,79578.9,150263,206213,183452,91641.5,71834.7
87467.4,85508.1,124627,76732.2,181184,117116,67137.1,86811.4
55821.6,56478.6,78083.2,99874.3,130386,150149,61016.8,64071
76531.5,80785.8,78701.8,47563,143463,111314,72487.3,84911.2
139180,92973.6,149643,84405,231983,197137,93591.5,91402.4
67791.6,80617.5,29605.6,65908.2,66911.8,145871,89079.2,70065.1
88105.5,57810.6,67291.3,62972.6,144902,144881,90835.8,75878
107998,76422.6,80722.9,66469.8,190568,112623,71041.4,61653.2
60073.2,85926.6,35969,75660.5,76961.5,134313,88778.5,65187
91296,94673.7,120387,65186.8,173362,153669,61236.2,80191.9
52609.5,89984.7,33592.1,72613.6,72580.2,152147,83687,62548
127212,75014.1,159678,70867.8,243659,110385,76632.4,62628.3
101345,76900.5,51753.9,65495.4,122046,130976,83718.3,85208.4
81201.6,92103.3,115937,91221.5,229183,193552,88423.2,78349.5
59195.7,80319.6,46938.9,122838,97268,253106,69776.7,91286.8
83345.4,78754.5,44845.6,78783.8,103160,133607,89434.7,74672.4
82422,87912.9,94125.2,57288.8,177563,137812,78518.2,86778.9
83958.3,109472,96327,71091.5,187119,122276,88777.1,68345.2
160319,59434.2,173169,52847.8,205135,132210,61402.6,61421.1
63042.3,64436.4,44111.6,31648.9,72439.9,52920.1,77792.5,68277.5
81768.6,85851,81734.8,66916,150158,117020,65165.2,66960.9
66393,119048,43501.4,72114.6,67437.2,125666,66433.5,64115.5
43408.8,67879.8,11780.2,43853.1,34858.4,96484.1,62367.5,64844.2
81670.5,88443,66239.1,60522,156531,130577,76525.4,61991.1
74176.2,76482.9,61700.7,59062.5,130078,85245.9,75736,83537.2
74209.5,52039.8,94144.7,20049.4,187726,92154.2,88323,61657.2
82870.2,75313.8,81128.7,102282,149146,158699,76014.3,78374.2
92441.7,83375.1,58199.3,59757.5,139851,101881,69436.4,64438.9
91400.4,56380.5,88518,42560.4,187391,98373.1,75493.1,90888.1
99438.3,87088.5,91845.6,75974.6,197985,147126,84767.2,69061.2
89384.4,84381.3,89548,123507,164538,199604,85775.2,90581.9
87652.8,85583.7,114915,56146.3,160916,129359,91301.8,80484.5
89038.8,79911,82782.8,61054.4,191819,120603,74837.8,65637.2
100830,124639,108319,55531.9,172762,151472,84709.2,81920.4
87358.5,45943.2,99597.7,19915.9,202376,38479.4,77493.3,61113.9
70873.2,88191,38817.1,106801,76224.8,167364,71653.6,70206.7
85365,102474,51923.4,70671.8,82297.7,167577,83863.8,91271.9
80859.6,95523.3,40257.2,82945.5,64469.6,140650,78957.2,69456
73083.6,98190.9,55412.3,120983,80393.4,188648,81148.9,79854.4
74638.8,112919,98359.2,66917.4,196396,154076,63935.1,93579.4
79229.7,84292.2,69051,131284,89851,231757,89244.1,87959.7
99962.1,79632.9,145312,116137,253683,169262,87656.5,61973.5
107873,70508.7,111406,50051.1,216764,73999.4,85219.9,71934.9
84930.3,86868.9,83907.4,101615,159696,165480,61815.6,93183.4
83119.5,75665.7,99166.8,153352,168765,262143,86340.3,91514.6
96154.2,53213.4,117283,40841,206928,75440.9,90969,61091.7
42882.3,85547.7,27039.7,52525.3,56154.6,124059,61723.4,80486.4
91774.8,106587,81048.1,74745.9,151564,151379,87679.6,70002.4
109580,82811.7,174309,70770.5,262143,83889.3,86602.3,85580.3
72407.7,90861.3,42848.1,87595,81385.9,189893,89252.3,91998.5
99452.7,83439,113610,89035.1,203175,163996,93207.4,79263.7
92530.8,47176.2,101306,42439.5,169684,58321.6,63214.6,72297.4
89264.7,71296.2,76222,45254.2,140910,115538,85409.4,60918.2
93241.8,114081,120464,98895.7,219414,156103,93615.9,68896.6
79239.6,83925,85255.6,72599.7,140304,167359,65876.5,87169.6
86037.3,83936.7,64728.1,117712,116029,195869,77238.7,89302.6
86064.3,81702.9,78368.2,105711,163461,153147,86006.3,66652.6
92142.9,54358.2,50447.3,33806.2,152986,59949.3,82936.9,60982
70101.9,78666.3,58580.2,65156.2,87984.2,126240,88452.2,68924.2
73208.7,56958.3,47481,30246.4,77917.8,71097.1,81144.9,63112
70798.5,81774,64281.9,44575.9,164069,71484.9,76862,86004.2
143666,87875.1,76648.8,98734.5,157365,173098,76001.1,87650.5
150733,63977.4,130375,35294.9,220694,52592,69294.2,64683.2
99089.1,139214,80775.7,110866,167467,175325,93121.2,81778.5
60326.1,75206.7,88445.7,60724.9,80704.8,163338,73494.8,92975.4
51218.1,114247,24187.4,135303,61994,127499,75133.4,64745
110338,71881.2,89860.7,37189.4,161863,62404.1,84208.8,68222.4
62354.7,97653.6,37025.4,75946.8,52693.5,164736,68565.9,91200.7
98489.7,76602.6,102774,53716.6,190322,97646.1,79797.5,91869.5
82016.1,58110.3,92797.8,44003.2,168754,66757.5,85960.9,77597.4
92550.6,91135.8,179424,76141.4,228937,158010,79096.8,93242.3
65308.5,93857.4,68599.3,63498,200056,129224,76661.1,78938.6
83215.8,71640.9,43183.1,57851.8,89285.3,70107.4,81987.9,63390
140394,68751,131046,34929.3,210707,55804.3,76930.1,65585.2
97397.1,,55141.3,,134833,,73897.6,,
90615.6,,76940.7,,190730,,62210.1,,
51752.7,,22748.7,,48116.2,,61119.3,,
80818.2,,96509.1,,184244,,72486.3,,
108048,,97155.4,,187426,,75274.4,,
59571.9,,57311.1,,59069.4,,64107.5,,
60507.9,,49393.6,,71013.7,,69111.1,,
64460.7,,44883.1,,75010,,78412.3,,
77089.5,,52718.5,,112455,,74345.3,,
74507.4,,49901,,78255.6,,79550.4,,
74691,,104023,,210693,,81240.9,,
101993,,87841,,169640,,84272,,
83190.6,,77728.8,,102683,,91496.4,,
84182.4,,79870.8,,161964,,83311.4,,
79928.1,,69049.6,,125965,,72564.8,,
85803.3,,75215.7,,176064,,62204.2,,
96171.3,,144857,,196570,,72424.5,,
103036,,120677,,218091,,93555.6,,
74236.5,,78311.2,,161423,,68046.9,,
73961.1,,40904.9,,83857.3,,85104.9,,
106558,,73731.2,,147180,,77221.7,,
130329,,109845,,163040,,66724.2,,
55829.7,,38704.6,,63322.8,,93262.9,,
101569,,52854.8,,123653,,87677.6,,
75500.1,,58601,,96346.5,,62233.8,,
90117.9,,82912.1,,164654,,75767.2,,
85086.9,,94086.3,,163853,,72691.2,,
106983,,122733,,177834,,66445,,
96045.3,,104086,,199240,,93795,,
104011,,88320.6,,160478,,86137.4,,
82300.5,,52375.2,,130032,,63610.1,,
79507.8,,53754.1,,99917.4,,62121.1,,
48523.5,,19961.8,,49097.6,,60707.6,,
45864,,15024.5,,52150,,89539.1,,
94670.1,,68050.2,,130350,,65341.7,,
79727.4,,40013.9,,84569,,83349.9,,
60120,,53642.9,,84970.7,,68371.1,,
101824,,107560,,183584,,87218.5,,
65226.6,,41330.3,,67320.5,,80440.7,,
73409.4,,68256,,148029,,78306.4,,
77572.8,,97787.9,,165610,,66831.2,,
66999.6,,64995,,175393,,83953.2,,
80652.6,,91075.6,,152696,,78935.9,,
108075,,149412,,258761,,92925.7,,
163271,,201437,,242068,,73738.4,,
98069.4,,116364,,176433,,83272.5,,
76217.4,,66556,,149479,,81307.8,,
90333,,57338.9,,138457,,63205.5,,
141438,,104874,,176744,,74297.8,,
57462.3,,27740.2,,56738.4,,64110.8,,
92994.3,,84413.3,,164875,,80903.3,,
77118.3,,49706.4,,89105.9,,92019.6,,
153097,,126009,,156151,,86748.9,,
60927.3,,47628.3,,63698.1,,72135.4,,
84257.1,,54589.5,,108527,,69476.1,,
73836.9,,57732.3,,90830.9,,81651.8,,
57662.1,,33492.1,,54640.9,,61136.5,,
79091.1,,72456.5,,94910.6,,72185.4,,
84996,,66849.3,,120927,,66224.1,,
73586.7,,66314.1,,173868,,65150.4,,
99512.1,,101099,,247066,,93496.5,,
76744.8,,90829.5,,178547,,68704.2,,
98451.9,,95626.4,,216387,,89468.8,,
71451,,29387.4,,74505.4,,82985.3,,
49021.2,,20256.5,,37228.4,,63949.2,,
95555.7,,113619,,179395,,63292.2,,
75517.2,,46314.8,,88702.9,,65519.6,,
70543.8,,45675.4,,61646.5,,74022.8,,
94691.7,,64391.8,,138351,,83024.2,,
72765,,58612.1,,70706.5,,62442.2,,
94974.3,,87760.4,,160973,,82330.2,,
89438.4,,59301.6,,120623,,69119.4,,
84309.3,,77741.3,,146840,,86952.2,,
81117,,74181.5,,140544,,74800.6,,
80245.8,,114329,,185052,,71164.8,,
142216,,119502,,192065,,67999.9,,
81727.2,,97006.7,,171515,,72570.9,,
93758.4,,103707,,201183,,92825.4,,
82169.1,,106791,,176075,,63931.9,,
43773.3,,19646.3,,43512.6,,66287.5,,
77758.2,,102738,,184058,,80773,,
83469.6,,69363.8,,141041,,77000.8,,
93425.4,,75749.4,,151176,,92064.8,,
69289.2,,44192.3,,79370.4,,85622.1,,
77937.3,,72149.3,,136605,,63146.9,,
62859.6,,47239.1,,135036,,65466.9,,
69842.7,,49379.8,,70845.5,,76205.7,,
111414,,103273,,172986,,73841.8,,
91251.9,,90758.7,,175325,,68141.2,,
85063.5,,65168.8,,149629,,84724.1,,
115908,,87624.2,,147286,,62081.8,,
96424.2,,113715,,195289,,93002.9,,
71929.8,,38169.4,,77126.9,,89939.6,,
127954,,92974.3,,164323,,76447.5,,
92943.9,,99613,,201843,,78374,,
101209,,84377.2,,182453,,72209.9,,
86498.1,,116112,,218040,,85390.6,,
77174.1,,39787.4,,72502.4,,86570.4,,
111097,,76135.9,,144249,,67401.9,,
107944,,118029,,215254,,89929.7,,
93532.5,,65542.7,,138379,,64555.8,,
97206.3,,90083.1,,152486,,90363,,
86496.3,,79774.9,,116656,,61932.7,,
77718.6,,56753.7,,81855.7,,69036.6,,
97056.9,,103139,,151183,,74776.5,,
79022.7,,51363.3,,121853,,69977.3,,
91229.4,,89253.3,,183253,,77183.2,,
65535.3,,52036,,69922.6,,70087.8,,
59422.5,,38498.8,,76468.1,,77814,,
64266.3,,30586.9,,54774.3,,60886.7,,
67678.2,,64771.2,,99070.9,,75512.9,,
94798.8,,154379,,258144,,83303.6,,
81648.9,,67170.4,,127658,,62932.4,,
80860.5,,69024.6,,130043,,62917.8,,
74322,,87212.8,,167363,,62605,,
73596.6,,76687.7,,85276.5,,64687.5,,
121737,,104128,,189133,,65200.9,,
83943.9,,62049.6,,184636,,87388.2,,
63535.5,,80465.7,,208454,,81550.4,,
69799.5,,96575.8,,176894,,71552.2,,
104338,,106436,,184467,,70188.4,,
79428.6,,79359.3,,131700,,74575.3,,
125020,,75240.7,,183210,,86971.8,,
78778.8,,94716,,171098,,88319,,
88003.8,,70495.2,,131240,,67330.1,,
92972.7,,105552,,214934,,89474.3,,
87054.3,,52419.7,,97216.6,,90233.1,,
84870,,54761.8,,145398,,71620.3,,
83732.4,,100750,,191282,,83632.2,,
81804.6,,59788.1,,124397,,61145.8,,
86751,,52883.9,,112083,,91078.6,,
78071.4,,90024.7,,144680,,73930.8,,
148965,,125991,,210710,,84738.7,,
92322.9,,83441.7,,177566,,84932.7,,
88407,,67057.8,,173425,,76419.3,,
94623.3,,67408,,141567,,75645.5,,
102358,,141975,,192566,,68200.5,,
107523,,140687,,227815,,77022.3,,
56353.5,,45194.5,,56295,,61027.9,,
91139.4,,110367,,191999,,91777.5,,
95702.4,,97950.5,,185675,,81460.4,,
64887.3,,51439.7,,85662.9,,80283.8,,
80120.7,,104545,,180657,,63293.8,,
105031,,102169,,161483,,73669.9,,
126886,,97733.7,,164554,,66363.2,,
87655.5,,64931.1,,122441,,66010.4,,
102025,,119997,,223834,,87083.2,,
87085.8,,114218,,217265,,69641.2,,
91293.3,,144439,,251055,,86890,,
47450.7,,26279.3,,43123.4,,62009.1,,
85249.8,,71751.8,,157039,,76583.3,,
48330,,13042.4,,54579.7,,86373.1,,
75747.6,,51776.1,,73251.6,,77585.3,,
62301.6,,36131.7,,72876.3,,86514.1,,
78692.4,,77631.5,,155950,,60797.8,,
81690.3,,77281.2,,142294,,82669.1,,
91405.8,,77128.3,,95912.8,,72331.1,,
143903,,218027,,150779,,73142.4,,
63397.8,,43537.6,,67499.8,,66580.9,,
72549,,61779.9,,141306,,71079.1,,
94044.6,,157010,,236564,,62573.5,,
85578.3,,125181,,193407,,84121.8,,
88042.5,,83582.1,,175845,,77046.4,,
112341,,128265,,204640,,86964.7,,
112177,,109533,,159519,,65697.5,,
74837.7,,65174.3,,102971,,84198.5,,
101894,,107006,,200092,,76072.6,,
81292.5,,64458.5,,82639.7,,63580.3,,
87978.6,,54297.6,,108645,,62720.4,,
88625.7,,58803.9,,122221,,62376.8,,
86814,,101369,,187824,,76709.2,,
93079.8,,94054.4,,204046,,75492.2,,
89514.9,,70215.9,,149261,,74057.2,,
111038,,67711.1,,152237,,62541.6,,
156283,,106008,,251828,,93193.1,,
96468.3,,102102,,192963,,78088.1,,
86763.6,,97337.5,,125039,,75289.1,,
132017,,66446.2,,170899,,93028.2,,
88510.5,,97655.8,,157067,,86042.8,,
63109.8,,47087.6,,66736.7,,68516.5,,
90480.6,,122059,,262143,,89697.9,,
73084.5,,56902.4,,93477.5,,63926.1,,
95634,,102608,,165981,,87886.6,,
85656.6,,75939.9,,126750,,65861.4,,
49347,,30602.2,,48395.6,,67753,,
119182,,102759,,173402,,68055.8,,
140242,,94460.2,,183518,,85856.7,,
63160.2,,34131.4,,64307,,67006.6,,
105402,,64234.7,,130192,,70145.6,,
105391,,137987,,232212,,90863.2,,
95348.7,,83591.8,,174305,,90678.5,,
84450.6,,84481.4,,196989,,76572.4,,
106507,,75332.4,,141355,,75181.5,,
138225,,104367,,213019,,74320.3,,
45999.9,,21795.2,,41891.8,,60719.1,,
99606.6,,114150,,226439,,91818.4,,
78293.7,,109668,,184290,,76728.1,,
108908,,151263,,180788,,87322.1,,
96044.4,,110932,,196033,,84991.4,,
71618.4,,43024.7,,65193.8,,72378.6,,
93322.8,,92147.3,,144845,,75408.8,,
88218.9,,92252.9,,135289,,64937.2,,
101626,,199478,,118125,,70602.8,,
92979.9,,76879.5,,154123,,72521.6,,
84325.5,,77227,,135198,,60762.5,,
85187.7,,77051.9,,137343,,92695.4,,
92443.5,,119671,,181925,,84276.7,,
58985.1,,33690.8,,69741.9,,72988.9,,
79895.7,,72715.1,,154315,,62484.1,,
77127.3,,101250,,215878,,89463.7,,
120335,,114718,,202848,,92982.3,,
99711,,72097.9,,155617,,60891.6,,
79653.6,,107252,,158777,,73296,,
82977.3,,58753.9,,101702,,69990.6,,
129821,,98966.6,,179324,,77401.7,,
87181.2,,81583.3,,162242,,66119.3,,
83101.5,,64640.6,,147967,,68504,,
114485,,78487.7,,164538,,64470.6,,
95147.1,,101528,,220426,,92599.6,,
93471.3,,75008.6,,132630,,65987.4,,
122621,,86132.7,,157103,,80386.2,,
91161.9,,103135,,135043,,64005.1,,
77974.2,,73631.1,,125229,,67157.5,,
84671.1,,77942.9,,149069,,63848,,
57657.6,,38926.9,,67622.1,,69122.4,,
86444.1,,81016.1,,149239,,71107.8,,
90766.8,,104165,,200478,,91000.2,,
87029.1,,87469.9,,188396,,66902.2,,
87537.6,,72252.2,,132756,,67642.9,,
114066,,84956.8,,141495,,77145.1,,
61580.7,,27349.6,,62267.8,,80842.1,,
103617,,98955.5,,168451,,69215.3,,
84567.6,,51007.4,,96995.6,,61282.2,,
108341,,73193.2,,159220,,66742,,
95074.2,,123161,,234361,,89873.4,,
71442.9,,41951.6,,55583.3,,66765.3,,
103918,,85669.9,,189495,,82911.9,,
88228.8,,56282.5,,135632,,72460.5,,
77233.5,,45254.2,,85168.1,,77535.7,,
97289.1,,113759,,241884,,93051.8,,
42411.6,,22080.2,,47725.6,,62833.3,,
85121.1,,52985.4,,123709,,60766.8,,
86371.2,,89978.9,,164404,,89237.4,,
86139.9,,92624,,155916,,85014.6,,
68840.1,,95351.2,,147856,,61060,,
65818.8,,50910.1,,82215.7,,82021.8,,
99182.7,,84967.9,,152216,,68146.1,,
98067.6,,72906.9,,154328,,61962.6,,
94559.4,,106083,,188369,,80448.7,,
62838.9,,31985.3,,60759.7,,88498.5,,
57057.3,,31141.6,,59621.3,,68521.6,,
104925,,131865,,176067,,88426.2,,
42687.9,,15295.6,,36861.4,,60711.7,,
61854.3,,26774.2,,66418.4,,67295,,
103402,,93869.5,,122861,,90975,,
77582.7,,68364.4,,139352,,84885.4,,
73868.4,,39054.8,,90464,,89477.3,,
56979.9,,29573.6,,69007.9,,68380.7,,
46413,,45580.9,,64686.4,,64301.6,,
82632.6,,63413.2,,140276,,84756.4,,
106026,,99864.5,,158662,,80996.5,,
78615.9,,108603,,212327,,74805.1,,
103196,,118331,,177828,,67160.2,,
90771.3,,70588.4,,144817,,67483.9,,
91925.1,,75339.4,,112288,,80591.7,,
79315.2,,78833.9,,92519.8,,85516.9,,
75319.2,,69803,,129326,,74727.4,,
96057,,76049.7,,151532,,69773.7,,
95802.3,,92802,,143679,,81598.1,,
101149,,94075.2,,195998,,86953.1,,
88464.6,,87732.6,,147465,,62969.9,,
47710.8,,34907.1,,57931,,62234,,
82638,,94329.6,,141252,,65795.9,,
90290.7,,108940,,187485,,81851.1,,
50094,,15349.8,,46692.9,,65669,,
92375.1,,67283,,127516,,72820.1,,
87148.8,,103117,,216328,,78131.3,,
66908.7,,61301.8,,101356,,80537.8,,
97393.5,,66454.5,,142385,,79692.3,,
69605.1,,66412.8,,92339.1,,83352.9,,
93354.3,,80453.2,,191917,,90089.7,,
99349.2,,84243.7,,157247,,83683.9,,
104955,,83156.8,,153006,,85419.6,,
100244,,92482.3,,184510,,87682.9,,
82574.1,,66251.6,,119780,,73910.7,,
90176.4,,83204,,143462,,62261.3,,
73017.9,,90330.5,,165545,,84813.9,,
84184.2,,62675.1,,94524.2,,78848.6,,
52287.3,,21611.7,,52649,,61328.5,,
96973.2,,125656,,177432,,73601,,
86850.9,,91505.1,,146726,,78115.7,,
79737.3,,70443.8,,125485,,72775.4,,
64566,,53900,,68329.6,,66176.7,,
91973.7,,77197.8,,148002,,74476.4,,
97650,,97222.2,,189232,,77332.3,,
42263.1,,16481.2,,39754,,60778.9,,
69786.9,,28799.4,,51303.5,,68617.4,,
73166.4,,66878.5,,76336,,81926.4,,
83904.3,,53855.6,,100266,,65871.1,,
78176.7,,97106.8,,165792,,63802,,
48357,,22543,,45940.9,,61197.9,,
71407.8,,57191.6,,135767,,69565.4,,
75388.5,,73831.2,,104417,,85996.7,,
80464.5,,75247.6,,157422,,63412.6,,
112936,,86061.9,,191787,,89688.6,,
47590.2,,23546.6,,44478.6,,62325,,
96422.4,,73989.7,,101299,,65652.8,,
98230.5,,77129.7,,144592,,79392.6,,
92721.6,,89674.5,,135617,,63495.6,,
71902.8,,62139.9,,147257,,83074.6,,
109694,,109253,,237209,,89051.3,,
105160,,66727,,135671,,64325.2,,
86109.3,,50847.6,,128054,,68702.8,,
89681.4,,110504,,171922,,76234,,
98514.9,,59988.2,,119586,,69092.2,,
111784,,79499.7,,157424,,68072.9,,
90692.1,,80529.6,,112167,,74327.6,,
89045.1,,80747.9,,130691,,78248.8,,
99315.9,,111299,,231113,,93139.2,,
42519.6,,20085.5,,41601.3,,62072.4,,
63913.5,,49534,,73086.2,,71751,,
88459.2,,71967.2,,140729,,85982.3,,
88659,,120773,,221002,,92434.7,,
127196,,98726.1,,162758,,63496.4,,
74364.3,,49322.8,,80378.1,,63157.4,,
87260.4,,106060,,204515,,85958.2,,
65176.2,,49757.8,,103139,,64147.8,,
53639.1,,29780.8,,63022.6,,62956,,
