"FSC-A","FSC-A","SSC-A","SSC-A","FITC-A","FITC-A","Comp-PE-A","Comp-PE-A"
105286,109233,67139.8,75776.4,168483,158221,57194.5,85702.4
101941,92284.2,83109.6,77978.6,167091,125791,83439.8,57712
102327,101884,87540.6,104597,177292,203084,82998.9,69924.5
94149,100936,52243.8,79067.8,124501,158346,59711,55249.8
96258.6,141142,76918.8,108958,164468,237444,67732.7,86941.7
112098,112129,67757.2,103044,153854,183722,86204.8,72336.4
95443.2,101999,68514.6,95998,136573,168388,55111.8,75308.4
95722.2,59963.4,70952,59663.8,147486,91949.2,57765.5,61614.4
89184.6,99636.3,89467,92764,172551,184461,60539.4,55657
98435.7,119304,84798,87964.8,165830,177454,74994.2,62313
112741,124602,108885,146794,192423,250292,70258.5,88680.9
96846.3,108747,64073.8,128281,178562,225183,85527.5,85964.5
108197,101966,83312.6,81659.2,179077,155830,67924.9,67014.8
101350,103168,80892,117359,183856,230677,68558.7,86514.7
68906.7,103899,52136,82257,111245,144780,73661.8,53972.3
89890.2,89419.5,57614.2,115765,125153,198541,55197.7,57309.3
97503.3,105983,64835.4,96191.2,129952,194149,54563.2,69142.2
106678,99939.6,91764.4,85037.4,204424,171744,70076.8,57437.1
92640.6,90728.1,104513,56147,192664,133764,63073.2,87809.3
99533.7,102844,64453.2,90083,148357,163437,62738.3,68755.5
98079.3,101160,78538.6,89931.8,155639,184183,64455.6,54699.6
51113.7,99121.5,35747.6,88047.4,91470.4,163370,66014,78527.8
91837.8,101131,68672.8,84800.8,171528,143300,70464.3,57628.8
102823,112292,84474.6,126713,145277,221669,72181.5,88150.8
111657,112162,82714.8,106723,171291,212834,87763,89252
95117.4,108231,83673.8,103762,167734,187333,66628.2,73568
102920,70585.2,78050,61434.8,187576,103418,71002.6,63882.8
96059.7,87300.9,113635,99097.6,180789,156376,71314.7,86342.2
94968.9,128471,80684.8,93352,147806,175711,64796.2,57323.7
101464,103745,85148,99198.4,201081,184387,88328.1,69541.5
97823.7,100908,91949.2,96618.2,178126,188094,78419.1,72283
95162.4,81055.8,80470.6,100155,151385,186882,55702.2,58497.4
105440,52894.8,85969.8,27294.4,176862,83941.2,72201.1,80922.5
108476,83061,96168.8,47006.4,169400,102262,80374,55378.5
95489.1,127840,45210.2,79084.6,131660,196333,73046.6,55016.2
105315,108361,73588.2,77177.8,152041,178388,54331.7,79125.6
107784,99252.9,80960.6,92771,182780,164006,70879.5,70200.6
101240,90108.9,60855.2,102707,183810,156509,77243.1,62526.4
87326.1,103311,54397,82129.6,122297,136657,79732.2,59535.8
96804.9,99173.7,66999.8,117706,150059,215165,83158.3,84606.9
101066,107200,73868.2,85458.8,165250,152537,81662.9,64904
94056.3,124342,69571.6,112977,132433,214777,76190.4,88797.5
114331,97041.6,93448.6,110419,188758,221635,71591,87503.5
100525,104890,86072,78537.2,148212,179435,57007.8,79811.1
95170.5,97841.7,76192.2,97851.6,159051,204841,82503.2,79863.3
98457.3,108555,69139,119799,157452,209097,86777.9,88254
97187.4,48318.3,89087.6,51322.6,182686,88629.8,74279.3,53677
95931.9,119114,61891.2,110926,141319,215636,78335.4,82086.6
105218,115266,97294.4,118598,170576,211029,56938.8,82177.9
100699,89509.5,69389.6,51382.8,170722,114220,85543.8,78481.6
79828.2,115187,53144,71758.4,110851,168972,64362.5,65717.7
101508,112172,90071.8,71818.6,166068,163519,86682.5,60059
116961,94392,98509.6,93874.2,193925,177127,74294.9,76931
109616,99729.9,94571.4,75703.6,163439,159755,63149.8,54063.3
85954.5,104072,113669,92786.4,179498,168155,71832.5,82817.9
99342,121214,73357.2,127578,160096,221042,79134.5,70858.8
111901,107323,87840.2,72237.2,187727,170405,89070.8,69531.9
45904.5,128894,43118.6,120679,81061.4,212880,55348.3,73260.9
113133,88332.3,99299.2,90304.2,201652,200235,57434.4,65282.5
67837.5,88865.1,61103,68577.6,113747,125040,73855.1,63396.6
105377,98110.8,98462,53636.8,217706,150865,62016.8,70549.9
93329.1,111659,78834,96104.4,148905,179890,54561,55240.4
92893.5,121569,77313.6,97609.4,134147,183726,69026.9,69319.1
100732,151560,84680.4,137918,166565,239973,67763.7,75160.4
95977.8,112456,78558.2,86483.6,161286,163505,65433.9,57915.1
106318,97085.7,88344.2,69602.4,190352,143335,84215.9,72077.3
97257.6,113604,61734.4,107366,143717,205121,83386.5,73281.6
58089.6,128545,46396,111082,81159.4,181672,62883.7,73546.8
75905.1,103362,33513.2,111096,90669.6,200894,59484,74469.2
106545,126932,92565.2,131905,179329,211980,66582.5,64284.7
100826,105236,65811.2,53578,160006,140011,83241,69573.7
103452,94057.2,72416.4,94480.4,151452,162404,68082.2,56747.3
92669.4,120280,51989,84396.2,133140,158654,62954.4,63299.1
94001.4,107205,89623.8,100771,155862,208019,54869.1,77416.3
95642.1,95337,94868.2,62834.8,173617,154721,69528.5,78954.4
102057,110228,86136.4,83724.2,201092,167780,58098.5,68071.3
97618.5,122904,65179.8,106992,128122,174170,56447.9,59059.2
105231,134561,82580.4,83533.8,167828,171336,63501.4,80015.2
102074,108366,76127.8,92192.8,159274,176880,62047.1,73788.9
88717.5,105580,79619.4,85734.6,153177,199751,55330.5,67260.5
50803.2,110504,33114.2,101247,75868.8,193103,55857.7,86142.8
103967,92249.1,88975.6,73423,184079,178594,86318.4,81693.6
109420,149955,81344.2,97927.2,178018,192114,82875.4,85667.7
107686,98407.8,95068.4,99855,170729,183588,71176.5,81942.2
93692.7,96013.8,67264.4,65626.4,151725,148959,57375.1,59400.1
103582,107699,85045.8,120928,166921,206427,88951.6,75695.8
93533.4,110237,74373.6,75161.8,152492,151255,56536.3,78094
94432.5,106514,62540.8,90511.4,154949,151024,77504.4,57925.4
84095.1,107690,80207.4,85834,132586,157695,60347.8,54335.2
99387.9,101120,65647.4,97188,179309,199104,88212.4,84636.5
104107,95319.9,81704,92258.6,187177,210738,67663.3,87389.7
52515,92835,35576.8,73497.2,72413.6,151189,65714.9,59492.3
89297.1,128763,51655.8,95352.6,132409,193854,59445.2,86875.8
94427.1,111154,87250.8,98011.2,149281,160632,58660.7,65331.5
95221.8,103467,61483.8,85638,155130,195527,84534.4,80532.6
98581.5,97887.6,76353.2,79221.8,165745,159333,88504.3,54411.9
101592,96716.7,97889.4,72668.4,151652,149948,75542.1,56394.8
86516.1,95387.4,62914.6,70455,127551,148506,60244.6,59414.6
93735,98226,65746.8,51151.8,113807,124443,53703.7,83730.4
51773.4,108892,24785.6,104044,80903.2,180083,87460.8,81395.1
100522,78936.3,93209.2,88985.4,170482,157385,73273.2,60603.8
99582.3,94277.7,73113.6,94115,156916,152781,85316.7,62695.5
91544.4,102911,69566,89762.4,142624,146699,58309,59269.3
113846,115888,82355,127322,195236,193690,76340.6,71772.3
115448,97873.2,80616.2,65027.2,171746,134100,80107.1,72285
52200.9,76567.5,35100.8,65595.6,66390.8,134376,53565.6,86066.6
114735,112584,89656,83970.6,190025,159930,83138.6,63077.6
89541.9,98947.8,57614.2,99257.2,137929,168241,82424.5,86448.1
101901,116140,104118,85803.2,165539,156824,54549.6,75044
87160.5,102781,65009,93318.4,121757,200640,54598.7,71201.6
97264.8,94181.4,85654.8,89534.2,152932,172708,73248.5,70639.9
109447,133695,72158.8,104205,147301,205204,56184.5,64230.8
49979.7,113840,32193,133715,84214.2,237031,73218.5,69475.9
95435.1,120638,72924.6,130718,146521,217095,59850.8,89110.7
102354,104694,101828,81666.2,194351,185090,87568.2,67698.9
99574.2,97679.7,66998.4,97175.4,156906,191450,73749.2,59266.9
106126,106254,78475.6,95670.4,172042,184852,76636.6,81298.8
111162,141998,87246.6,112566,164244,207579,71219.5,71095
92676.6,107866,78111.6,95167.8,150354,166214,56874.8,55388.5
97004.7,95649.3,56686,64467.2,156870,159055,71492,54732.5
96719.4,95168.7,73169.6,96517.4,171492,169956,66720.4,58931.3
95867.1,59547.6,71500.8,61419.4,152236,114849,55049.6,68447
131271,102429,90438.6,106233,188783,189192,78034.9,68221.9
100929,104998,83538,84733.6,167212,190165,77395,83930.1
105529,115738,83692,144182,201347,230216,82896.7,83201.9
102614,113581,82842.2,105545,180158,200890,56828.6,69883
91063.8,103814,50044.4,94420.2,143011,176908,83294.4,65497.7
89290.8,82890.9,53600.4,67519.2,125363,131509,56005.6,88761.8
105925,105592,75658.8,79594.2,163139,165906,83210.6,70535.8
111618,107968,97816.6,126420,193634,237975,66955.8,80533.9
104545,112270,103277,114148,172742,198815,57579.8,78060.2
53307,96957,31838.8,91520.8,84005.6,193514,64443,78895.9
107235,94622.4,68938.8,62344.8,137570,151442,53683.8,61567.2
94959,109935,78412.6,110613,153913,194879,60400.3,83133.2
81808.2,100148,91747.6,80278.8,142572,175596,60355.1,74346.8
113216,109275,118188,112888,228169,226230,88315.4,81692.6
108698,118881,109586,92741.6,178959,185139,59298.9,81281.2
96921.9,141196,77029.4,109624,143079,206772,67972.6,84789.9
95523.3,122498,60529,92458.8,145708,173874,85973.9,56597.9
92849.4,119880,59570,112608,125545,204988,60916,66228.8
102420,93717,85166.2,89093.2,174356,179157,84444.3,61525.9
91541.7,117654,83732.6,90442.8,134905,168241,63778.6,58064.5
120657,96021.9,122818,96727.4,198598,150436,86415.7,57835.4
104901,92664,96656,100661,163278,173890,62669.1,63874.1
115399,134338,96304.6,99099,189011,205688,70928.9,84871.2
74485.8,92551.5,48279,72746.8,116598,122417,87704.8,56478.7
116351,117454,91513.8,105668,188191,172123,77784.2,67037.1
102282,108427,82432,113583,159362,219538,83214.9,80325.5
118795,97990.2,95022.2,81617.2,231665,150517,86926.9,57464.7
88120.8,96321.6,49676.2,87367,124790,182207,62766.2,67249.3
102479,103833,83218.8,96199.6,152916,199758,76721.5,64352.2
102802,136282,57803.2,89594.4,142806,186981,74209.4,57830
101890,110984,83780.2,101402,159387,192633,61905.2,88976.6
94464,88995.6,101555,117030,170519,244892,83929,87322.3
93285,124072,54600,94287.2,141446,193306,83550.3,56337.4
101322,126030,73099.6,106204,170276,209579,84458.8,84642.4
48878.1,95011.2,25145.4,71033.2,67670.4,162333,67593.1,65567.8
85819.5,98992.8,59560.2,73285.8,115790,144628,58226.5,56199.9
97080.3,107866,74977,99892.8,177086,187313,77901.1,85280.3
101086,104929,82933.2,72263.8,179936,182029,81771.6,79882.1
99489.6,91535.4,83851.6,64346.8,174266,155688,72036.4,60153
110278,94847.4,87985.8,46687.2,196022,132577,82175.7,64714.9
85788,92520,62328,87372.6,119384,166457,54863.1,88257
96052.5,107952,69053.6,88116,138898,159162,70676.1,65592.3
98625.6,101728,85710.8,109330,145481,176631,64498.9,77647
76711.5,110759,42782.6,126755,120980,230289,62435.3,87166.1
89112.6,102866,95639.6,99285.2,150181,191369,72133.7,85072.9
89620.2,85179.6,66108,103890,137791,164284,68401.4,53599.2
109221,111960,83594,93720.2,165287,197952,54375.9,69101.2
90421.2,139353,79665.6,115317,136368,183432,74851.3,69841.1
111737,106650,89577.6,104026,190438,190635,80360.3,85934.7
93483.9,96775.2,87449.6,126791,164384,239716,67042.5,77583.9
104847,111195,100166,75492.2,189064,150266,76820.8,69134.8
95824.8,103435,86503.2,69980.4,155905,166064,65720.4,70111
104599,103961,87819.2,90105.4,182171,154585,75489.3,57670.8
94178.7,90255.6,87528,76188,145606,158991,68904.8,59775.4
111005,116518,135829,81116,242022,174296,78730.9,54006.7
103963,87743.7,96990.6,60921,168434,129277,58994,59500.7
107431,119889,91085.4,85166.2,185702,173494,62225.1,66372.6
84938.4,117125,65216.2,122732,120883,186886,58363.5,78550.7
77828.4,96804,47563.6,107377,124586,177544,72858.3,61971.1
101469,115143,77000,109508,193910,194268,82393.6,63385.9
114509,89245.8,113684,66780,201711,143146,80303.7,71409.4
90607.5,112667,75623.8,67929.4,156414,135556,84813.7,61823.3
99164.7,60109.2,76892.2,44786,151211,98530.6,63462.7,60547.2
89591.4,112282,65504.6,135104,140258,246180,59144.2,85763.1
95544.9,87435,65326.8,98861,160250,181075,82676.1,58236.7
106284,105516,81662,93483.6,165669,153875,82380,67205.4
95841.9,110961,67641,79318.4,155539,150151,60136.2,59125.4
106394,100624,87830.4,82129.6,169586,157720,57571.1,62050.3
99705.6,125678,78008,67534.6,147076,158672,78243.8,86435.7
117607,98231.4,111504,75607,228897,146168,80235.6,61261.5
58655.7,124671,54819.8,109330,110624,238353,78891.2,83903.9
48753,133886,26150.6,97923,75063.8,211422,81823.4,85451.7
109599,130037,91656.6,114176,214742,200040,85739.4,78059.1
105239,99989.1,94589.6,89066.6,183036,185289,65321.4,71037.4
59876.1,104982,41192.2,95715.2,96642,197211,70883.4,73189.1
110270,114884,104618,105720,183366,205492,73884.4,88673.9
101281,103234,84761.6,128467,138197,247976,62174,83973
97754.4,99722.7,66340.4,79664.2,133011,222513,76981.1,82392.9
91379.7,113990,65375.8,99786.4,143380,184353,72977.3,83256.7
88595.1,99773.1,61037.2,56162.4,138685,135512,68978,76737.6
98869.5,104276,81635.4,75259.8,195889,138750,88229.7,65349.1
107080,104508,91177.8,103881,174716,186078,86548.6,84652
52519.5,92644.2,20538,103845,82640.6,184206,86928.9,70163.8
87830.1,101300,64439.2,74321.8,144250,159439,61186.5,88889.6
98096.4,138200,67144,109679,140874,228276,60418.1,80657.4
116336,106146,100916,84046.2,217776,161633,83309,60974.4
104526,115286,77001.4,112139,190914,215457,72092.7,86542
92607.3,90667.8,94270.4,67065.6,167584,151732,81265.2,55103.9
88262.1,102332,74250.4,88712.4,160286,204630,54325.1,83100
100786,82293.3,78437.8,79801.4,148130,161283,73946.2,59834.1
106077,90961.2,89944.4,79303,199850,175718,82161.1,72468.4
127829,100519,114517,118483,231039,168701,71760,54644.7
101737,140909,98204.4,127575,187774,200096,85269.5,76368.4
100458,53453.7,86244.2,52669.4,151404,97092.8,64089.7,54162.9
98064.9,58902.3,67180.4,40264,127732,88251.8,56069.1,64013
111868,91818.9,95160.8,93630.6,194076,193095,86997,83218.7
103517,99061.2,98190.4,79256.8,205373,174159,79632.2,85910.5
107622,136253,88837,126728,196225,194223,88383.9,63982.5
56988.9,103348,30210.6,75545.4,84530.6,173076,79314.2,57276.4
93012.3,89934.3,95412.8,98765.8,164683,167016,67148.7,60290.2
102159,92599.2,125086,89387.2,188369,178843,66013.9,88775.2
87480,106252,88995.2,112881,132363,182699,55832,86513.1
97445.7,92814.3,75472.6,62371.4,198576,125583,74020.2,57931.5
116628,122989,100857,118023,206268,209178,74832.7,70121.4
101059,99252,96160.4,106473,178157,192672,83914.8,72910.4
110092,149386,103166,93202.2,192350,212317,84240.9,84981.1
106358,103351,107549,102658,209003,197508,82084.8,65419.1
92697.3,109126,78653.4,100866,170775,204408,66855.9,83177.6
56976.3,93511.8,30479.4,67111.8,84492.8,142209,86115.1,63740.4
95739.3,114502,72795.8,90533.8,143361,162749,71018.5,67255.4
99169.2,134044,74471.6,106928,171247,208732,74241.9,86257.9
118255,122268,102221,111210,238252,208040,83042.6,84574.6
113418,104954,105906,86872.8,183669,162540,87466.9,54302.4
100437,107710,63936.6,102347,164032,174602,55295.9,72220
95169.6,123912,75787.6,113173,159279,207151,73456.8,68471.6
88338.6,108651,56387.8,114502,107296,187734,63332.9,83636.9
94819.5,105764,55013,106786,145709,217027,75528.4,84220.8
36198.9,145255,18141.2,112822,76753.6,194758,69214.1,82789.8
110561,126284,81789.4,94364.2,189620,206585,86523.9,82926.2
109571,106336,65445.8,101102,127821,210637,56831.8,78170.4
103830,90456.3,89866,67018,170374,131218,64016.5,54576.2
116097,101080,91277.2,92265.6,192594,171450,73297.8,77916.1
96424.2,128508,95372.2,113749,173578,193567,71306.3,87431
136951,102002,118243,80621.8,204357,192294,87158.5,77449
91032.3,108712,53345.6,144059,126067,224064,88241.8,63057.4
108239,73095.3,100906,65014.6,177425,125957,65423,82348.1
111444,101799,87382.4,84971.6,162950,171893,75705.1,61081.2
120614,91275.3,77015.4,100257,143374,186294,58909.1,65823.2
118689,112571,55354.6,87042.2,145370,188261,80085.4,86157.2
108709,94570.2,110282,102306,204583,184570,86146.7,57293.4
102161,64761.3,75595.8,54917.8,164142,94536.4,67765.5,54730.6
106775,129377,91782.6,73213,174324,168868,76652.6,61124.1
81504.9,43157.7,45441.2,37860.2,118133,72697.8,68135,56440.7
83651.4,101534,48178.2,94059,115072,197571,68545.7,89055.3
109544,98015.4,118635,74456.2,246963,180284,87056.9,73712.7
94919.4,92825.1,97146,86679.6,173729,173064,72013.1,79736
90000,100652,72618,93487.8,143374,180643,67493.9,80553.1
99329.4,60642,91725.2,51084.6,178959,97510,60456.7,83850.3
100728,109785,78115.8,101647,188366,186168,82893.9,57574.3
108502,113617,99338.4,97545,181556,181418,67460.3,58342.8
82995.3,116492,91617.4,138960,198141,231014,69336.5,75932.3
113646,110181,82777.8,93178.4,181787,167569,70107.8,57540.5
89689.5,100110,68661.6,106515,132208,202019,62147.9,76254.2
111269,89369.1,87634.4,104114,205013,187526,86993.3,61855.5
88492.5,134542,50808.8,114122,107579,216681,74738.2,68682.7
50089.5,100973,26216.4,102260,73008.6,168645,82687,64238.4
108876,107756,88132.8,100456,186246,164912,85662.9,65327.6
112620,114976,83900.6,114925,188856,230219,70132.7,82410.8
59076.9,93871.8,48416.2,77287,107688,164738,82043.2,64598.5
62489.7,94998.6,49966,76564.6,116462,153927,87948.9,73119.8
104337,91750.5,87031,113628,186066,224566,77172.7,83728.9
99080.1,98991.9,79944.2,93093,161812,182973,87032,86077.8
95707.8,101606,62939.8,84128.8,148161,145747,67904.6,70938.1
95447.7,118636,71286.6,93240,171760,157287,68841.8,67708.2
98345.7,114635,58784.6,130480,131480,233750,69053.1,82142.7
54262.8,97619.4,34678,85513.4,93471,172907,87164.7,70054.1
87437.7,85727.7,58199.4,84886.2,153369,184316,76480.3,63135.6
101691,102208,77994,84777,179749,155238,85709.6,53872.9
109557,102313,94476.2,94185,197861,154571,72946,59214.5
71298.9,97505.1,41643,65423.4,105046,153080,57777.8,81201.9
110527,139595,80140.2,123819,145887,236340,64152.9,88889.2
86290.2,123325,55756.4,121089,113322,219608,61363,87626.1
93753,92205.9,59799.6,55700.4,156747,116936,74559.1,72642.2
94386.6,103729,66715.6,86429,161039,162096,70371.2,59017.4
100922,117949,83703.2,98471.8,174346,173398,61735.6,64089.9
114056,109103,124251,90581.4,210171,159725,75760.9,57169.2
93414.6,89955,67404.4,113205,153111,227553,69488.9,83128.5
111539,90184.5,106602,63232.4,196972,122276,55143.5,54893.4
80692.2,91582.2,100740,84952,146558,155777,57780.6,54867.7
115334,107289,100951,100866,203638,182907,83547.7,61482.7
86099.4,96709.5,66987.2,85479.8,174630,187656,86797.8,68621.5
101414,101346,94980.2,89681.2,174208,176497,77227.3,70118.2
50565.6,136138,41238.4,125629,79522.8,245302,68836.7,88339.6
107003,92176.2,86051,62284.6,198013,122532,76036.9,54228.3
110614,79129.8,102025,73364.2,192739,138944,75536.6,56239.1
104786,102663,82622.4,89566.4,166414,213892,78769.3,85973.3
83656.8,103893,63081.2,133293,115928,245498,57144.9,86393.3
38688.3,103639,28981.4,82138,76032.6,159449,73639.5,59307
101928,107596,66607.8,77165.2,180517,147892,83098.2,69514.1
56730.6,107150,38354.4,80607.8,100978,224955,85850.3,85594.6
108983,95431.5,87322.2,92799,203753,176462,86741.9,59381.1
109296,118443,86510.2,127138,169072,233712,65785.2,84634.4
98421.3,118504,72114,93513,158343,170554,70883.8,54008.7
97723.8,94072.5,62917.4,74986.8,135096,159405,63038.1,70908.8
99739.8,117851,81281.2,123000,159845,245335,74799.8,87689.3
89405.1,84954.6,60775.4,85318.8,141819,150375,55364.8,88625.4
75044.7,124186,55896.4,102752,114176,181611,61302.4,59616.7
103570,107559,75450.2,94322.2,175829,163734,68689.5,55314.1
99333,89894.7,75920.6,121898,156573,236102,78553.6,87364.9
114268,80126.1,118226,84443.8,211253,164039,68273.7,61832
99272.7,108635,94714.2,117702,171354,207830,72896.4,71947.8
108941,115517,92500.8,112309,188189,196140,83017.5,85455.2
108922,112909,109886,107863,186204,205867,56544.3,81565.2
96119.1,110356,68027.4,122350,140258,231476,88607.2,74184
84202.2,113572,55245.4,84357,136499,147610,57128.5,70470.7
84946.5,96835.5,52487.4,77173.6,128195,151085,61169.5,82473.2
112491,98145.9,101819,71603,198016,144089,55680.7,59958.1
93306.6,97126.2,75845,67450.6,145510,157647,61383.3,68846.5
96457.5,113571,72165.8,97699,146482,188237,75413,59953.6
91233.9,119854,61041.4,103209,169992,184673,56547.5,63522.2
101398,125216,75408.2,94207.4,147386,181607,62652.5,75661
38877.3,120054,28648.2,111633,69865.6,213129,76600.1,83150.9
110956,111695,110477,85323,201373,196102,83210,71809.1
95981.4,113361,73791.2,101667,159408,183169,66717.1,59880.6
84706.2,119855,72639,87231.2,127177,165418,55967.1,62669.2
88552.8,75997.8,59109.4,45211.6,154437,96527.2,78165.4,61110.6
92770.2,106386,70008.4,129352,134494,219124,57902,74673
101838,98416.8,92132.6,84964.6,165778,157055,79544.8,55503
108838,109796,84599.2,92650.6,203120,164083,85816.2,54735.3
97194.6,112119,69574.4,99213.8,147087,196799,56096.5,69241.6
107316,120961,105158,82394.2,194085,169660,74585.4,58500
108452,91733.4,104324,86434.6,168984,178493,57700.4,79682.9
91241.1,96516,69172.6,109522,155400,206889,82005,79509.7
88913.7,117526,78821.4,110718,121523,209721,55263.7,80092.8
95988.6,99617.4,68367.6,92209.6,140953,187638,56298.3,77670.9
91194.3,100743,61339.6,75257,156715,138495,55760.6,77704.1
79397.1,128318,74534.6,86728.6,140004,215265,56135.5,83180.7
112783,134437,106154,104910,200746,201319,82225.2,76717.6
132075,86364,97351.8,47703.6,193977,107141,86296.5,71675.9
100109,124291,66378.2,86711.8,163461,151393,79480.8,56170.6
99309.6,110009,107204,86976.4,152785,168358,56977.6,55354.7
99173.7,99411.3,90917.4,77436.8,188145,161944,78345.9,66488.1
109621,92996.1,96520.2,88439.4,186003,145741,66104.2,72632.5
100559,112956,75765.2,80740.8,161209,189465,54485.4,87456.7
112980,98029.8,96819.8,62200.6,183701,135713,65271.9,68168.9
90288.9,133710,67681.6,120742,132800,248515,59182.8,86800.4
97091.1,40005,78220.8,30730,154421,81540.2,69860.2,56816.1
98280.9,106065,80168.2,98971.6,169572,159431,84704,60664.8
98300.7,111321,67288.2,82458.6,138260,187327,81555.6,69091.2
101834,91520.1,94964.8,95109,171599,167488,85443.8,68317.4
95372.1,121111,70884.8,97503,139580,181163,54543.7,81650.1
104354,89578.8,91232.4,62956.6,179395,120820,74243.1,66617.9
93354.3,100172,67506.6,116641,154738,178928,58969.7,75440.1
103076,65168.1,64544.2,55246.8,149884,96927.6,84950.7,62047.4
80116.2,83500.2,60316.2,65126.6,139296,126728,72583.3,60860.4
102867,104079,61734.4,72437.4,149678,149051,54596.8,88698.8
102208,119191,87654,118311,167135,218623,66250.5,83818.7
95923.8,100315,60673.2,84872.2,158143,179890,60135.2,85901.9
89627.4,80208.9,57612.8,83594,128274,163640,75393.9,60108.3
92550.6,158630,67435.2,138863,132171,251093,53954.7,71769.3
106685,99669.6,87616.2,74064.2,200992,165976,80204.1,60528.2
102137,117982,77950.6,100926,161658,203196,74398.8,77236.3
89316.9,107699,77665,111580,155470,220265,57391.2,86591.5
120902,92425.5,97284.6,75422.2,209654,185185,70610.8,86153
87150.6,100602,66253.6,99625.4,133385,169509,58749.4,58510
87869.7,103374,57192.8,116444,142794,191646,58839.6,61365.2
51425.1,97459.2,30998.8,82644.8,79444.4,159902,75189.5,56941.8
109551,116681,85498,136787,195686,222008,77482.7,81668.9
105875,91115.1,100996,83743.8,167104,167304,80330.9,80526.3
90776.7,125536,56429.8,105566,141735,204438,86441.9,77185.1
111881,113127,102127,86444.4,207376,139822,84278.2,54785.3
99880.2,100972,64950.2,105116,160990,161704,81385.4,58596.7
88143.3,85140.9,70758.8,85274,185934,144410,78386.8,75432.1
37309.5,103936,20790,91354.2,70088.2,171430,62284.4,54494
105430,120603,82058.2,102763,159303,156422,60473,73662.1
86117.4,99202.5,84016.8,97043.8,164706,165376,67133.2,72231.2
97144.2,99781.2,83609.4,86347.8,162798,157647,73776.2,58126.7
110016,108616,78129.8,117239,175305,230273,68075.9,88773
130167,109046,95067,105946,198689,186983,82759.9,80130.5
97630.2,113879,84166.6,99216.6,152680,166585,81481.7,65654
85857.3,106832,45756.2,93970.8,124345,147452,64668.8,61445.6
103715,118439,89110,85699.6,167041,175746,58870.3,70397.4
90929.7,120064,79716,116172,146567,204198,89007,54400.5
83717.1,92254.5,58752.4,76344.8,125335,149681,59332.5,64342.1
95328,87808.5,76266.4,75034.4,160943,150198,63411.2,54734.8
86315.4,116306,57601.6,93091.6,115412,197312,57151,89205.4
88463.7,123188,75059.6,111250,141061,196837,63011.2,60391.1
101327,96625.8,73383.8,114629,135950,215544,56846.9,80458.9
99729,119177,78993.6,80165.4,155166,156806,67257.4,75280.4
37952.1,88606.8,28341.6,72422,76199.2,127709,57671.2,56091.6
78569.1,105109,76584.2,103928,156957,206567,59293.6,86846
86987.7,143789,71479.8,99535.8,133036,227787,62601.4,84695.1
92424.6,99863.1,53561.2,107632,147246,248227,83033.1,88572.2
94258.8,127782,52934,94332,127553,167307,56688.5,56262.7
57128.4,88947,50598.8,98240.8,110006,184404,77632.8,81328.4
91243.8,97291.8,69078.8,76809.6,171009,181357,61806,71736.4
90788.4,119420,94547.6,122480,169421,216419,79829.4,62300.5
90225.9,58841.1,64398.6,42767.2,125203,107978,55170.6,83415.7
91574.1,126063,69606.6,88592,138643,178174,73368.3,78502.7
93597.3,111343,56348.6,102894,137311,186812,69798.1,63095.4
109622,92357.1,119892,80113.6,218646,137287,84154.5,62871.1
88902.9,81243.9,54126.8,114190,134009,192524,59063.8,70583.6
108664,100891,91903,97932.8,207140,174138,78577.6,60476.7
97691.4,92167.2,78898.4,99145.2,169191,176735,82843.4,63018.5
97474.5,121082,55679.4,99957.2,154718,206438,85958.8,82184.1
96151.5,127060,84957.6,74064.2,152424,163001,53718.4,60248.6
62473.5,131551,55337.8,92373.4,103338,193144,73223.3,79974.5
82721.7,108123,49075.6,114045,100008,201797,56661.3,87923.8
125756,121302,112811,94054.8,208348,205237,61657.2,79026.5
85426.2,101884,92006.6,77581,177405,152858,56549.7,80207.2
57048.3,119780,40551,112693,97329.4,194379,74408.1,60553.4
112460,113147,93461.2,81970,185898,185161,67368.4,63765.8
102766,94375.8,92701,97644.4,204105,181552,83869.7,72929
46768.5,108939,31504.2,94936.8,68296.2,184986,63568.8,83087.5
123548,83571.3,97391,54986.4,184561,122640,86199.8,61177.8
96063.3,77418.9,76032.6,77163.8,150504,133699,62131.7,56481.7
69192,109851,66431.4,100328,119917,174332,83404.7,62306.3
101436,103684,74799.2,115150,168693,200364,74935.5,57393.4
96371.1,120483,70175,101515,149869,198962,58445.5,84734.1
98872.2,99138.6,76671,84215.6,161482,183554,77234.2,88905.2
65460.6,107904,29429.4,100838,82770.8,155413,57175.9,64519.6
58152.6,104554,31126.2,91235.2,81678.8,199011,82876.4,82167.4
89874.9,123264,60926.6,150622,149779,243806,60982.6,59034.2
100816,60463.8,66451,46160.8,136487,105473,65569.8,73061.4
91556.1,127973,83245.4,100331,155466,197085,75598.5,77440.8
108428,88127.1,81732,95919.6,195723,185370,82598.7,75131.2
112820,98878.5,96810,85303.4,174577,164860,89041.3,86902.2
87839.1,96266.7,63641.2,83678,113791,165739,54333.4,64738.2
97968.6,106196,83953.8,100149,162649,174861,63126.3,83475.8
95820.3,96531.3,83119.4,94428.6,154648,222457,74952.4,86033.8
98923.5,124889,76780.2,101280,160280,214435,77275.7,87238.1
101132,116559,86188.2,86844.8,160961,206669,71467,87820.6
102188,103237,78999.2,74558.4,147346,173298,65040.8,79064
116494,99644.4,89588.8,79734.2,176285,179025,58613,68638.1
107869,103024,76557.6,99223.6,154965,166382,88591.3,66476.6
99546.3,114530,90682.2,124335,173915,221108,86583.2,88824.9
98728.2,91063.8,81796.4,105977,170260,180043,59205.3,60056.2
53895.6,99859.5,20003.2,86809.8,86794.4,204733,82712.4,74803.8
102632,112565,90479.2,114374,156393,218609,59636.1,88439.6
84078,101246,63728,99318.8,127245,226712,54594.9,88015.4
86921.1,102408,80687.6,98291.2,127435,208820,54324.7,62880.5
88697.7,101456,71447.6,81830,140861,170297,57427.2,67077.8
91116.9,109010,72641.8,94992.8,131954,197217,56778.8,66545.7
101013,121645,83867,103754,178028,222023,86745.7,82220.9
60660.9,106752,45507,85895.6,87753.4,193008,53776.9,73785.7
100579,120098,76578.6,80920,167231,192931,63302.7,71687.9
37219.5,105070,16485,90155.8,63463.4,177972,68470,73245
102424,108711,87234,123983,167072,178234,80860.9,53893.8
117012,122811,97654.2,88825.8,193207,173537,73549.9,76195
94748.4,76736.7,62791.4,47045.6,130192,108926,64129,56933.7
93003.3,99169.2,61138,94077.2,129077,175113,70761.5,66134.1
72135,117854,35711.2,90241.2,79881.2,180783,55408,54960.3
74289.6,77940,66799.6,37060.8,105605,94467.8,55772.5,70186.9
103066,103178,86619.4,83195,178716,163080,62715.6,82476.7
104411,112004,76235.6,89698,157165,179113,61658.5,69547.9
109614,100969,112157,83106.8,202572,146600,78229.5,60649.2
88064.1,125715,75609.8,116546,144768,227398,58916.5,81016.3
110610,127391,112078,100290,209278,170974,86263.9,65214.5
107830,104882,81043.2,92862,168094,170212,62543,59709.6
111922,106026,93200.8,107962,163450,231315,71169.7,77691.8
54555.3,100740,42092.4,76903.4,120201,172662,54414.3,57940.7
90756,108974,64307.6,104376,122018,176247,53857.6,72612.7
101336,102996,83914.6,80445.4,152565,188889,54600.9,70368.5
95488.2,124700,62297.2,104307,126525,194650,57235.1,63171.7
106393,89459.1,81459,89819.8,189860,191222,82526.5,65394.4
98973,80402.4,69192.2,61145,145321,125577,59641.6,68678.3
102514,86323.5,81069.8,83416.2,167710,171009,60821.1,67215.6
95103.9,119977,65780.4,126435,164286,237335,77774.3,86877.5
109309,81655.2,78520.4,42505.4,168529,110334,86291.9,53811.2
87399,106291,65083.2,114612,150045,198251,81949.6,80012.6
84977.1,93510,81440.8,91635.6,155711,145883,70315.5,55359.7
101784,116628,70688.8,101773,160551,197579,87035.5,75431.4
80470.8,93374.1,65542.4,83672.4,132384,131638,77190.5,73980.5
99921.6,131489,72210.6,116312,163447,208547,64921.7,74944.1
93913.2,131263,84537.6,98572.6,128667,196721,54501,65371.6
87560.1,112893,73669.4,113137,135155,208211,88599.6,74771.7
92748.6,101704,68541.2,97556.2,127775,171473,68040.4,54953.2
108698,89216.1,95228,106236,200840,176596,70912.6,62558.7
97865.1,108022,71792,94906,148785,190158,54087.4,79702.6
67129.2,108240,65847.6,84050.4,122121,163428,57349.4,61644.2
92393.1,107896,67305,102308,123278,207929,55485.2,87023.5
34994.7,117403,18974.2,85286.6,63466.2,165574,75597.2,84210.5
54995.4,113551,36710.8,103431,87724,246603,72351.2,72914
100857,102795,92621.2,80805.2,162819,168776,69936,54389.2
115735,111794,85740.2,109571,195495,209789,88968.4,73292.8
105401,109388,81288.2,92464.4,172928,165299,79252.1,58565.2
103902,111173,80260.6,101602,144752,188731,65994.6,71851.7
92709.9,109184,59038,126759,126332,250256,80767.9,80806.9
110037,97386.3,110615,79851.8,187134,149479,87208.8,53844.2
90048.6,94178.7,59099.6,94280.2,127345,191596,58464.8,84181.5
100300,119678,70546,96300.4,151047,192272,74707.1,85926.1
101119,85637.7,113526,62498.8,203951,117788,86000.9,61183
108951,120222,72100,118486,167891,237299,54356.6,84261.9
117838,122170,96878.6,143676,185454,221284,67221.2,74132.9
94753.8,110707,67860.8,109754,140105,201142,77189.1,70815.6
103482,98410.5,99272.6,87263.4,191685,137974,60762,55540.1
87362.1,97953.3,88986.8,69799.8,178277,158320,73910.9,78981.5
119139,123221,112062,119106,202342,219103,80445.4,71233.2
97336.8,106841,68507.6,93879.8,135187,187349,56967.3,62240.9
125294,102508,107743,123803,176725,220195,55042,60845.9
92808.9,87905.7,63394.8,64517.6,136493,132096,64331.9,57251.1
97470,43634.7,67082.4,22646.4,132124,71535.8,56122.2,75675
90405,94118.4,60228,115049,137966,209069,70527.7,84545.8
98937,112415,70462,99692.6,151890,176837,88276.2,59623.8
106084,131925,81768.4,142778,163148,214813,82055.1,83745.3
96067.8,41894.1,53699.8,37637.6,132423,80798.2,84411.9,56023.7
85383.9,112583,60793.6,117585,117366,231970,54906.6,87007.6
99560.7,90602.1,85584.8,78429.4,168357,155410,55307.2,61376.8
104210,93312,77231,110729,153216,228476,53687.1,86620.8
111612,114619,100330,111621,187216,182808,87777.3,61514.5
91537.2,76635.9,78348.2,49455,156247,104798,73087.1,71572.9
93631.5,83583,65522.8,63026.6,132707,116749,57934.5,55697.8
119182,100026,82583.2,95435.2,200157,176873,82003.7,71217.6
95062.5,108145,66549,93321.2,144652,167086,66663.4,66382.5
106922,91752.3,78675.8,88418.4,188149,189316,84227,86830.9
95619.6,109210,68028.8,93889.6,166263,174303,83155.7,57181.4
103367,113835,95180.4,107255,190347,178079,73230.5,69010
92613.6,116749,50932,87490.2,145613,171763,84640.4,82273.2
94238.1,104475,84407.4,97409.2,148894,180018,72760.4,69045.8
89989.2,81583.2,74062.8,96390,138907,185023,59474.2,57764.7
117375,119649,87764.6,89213.6,175498,198040,57980.3,73120.4
89207.1,101832,63282.8,77936.6,128185,166415,54523,83494.2
111650,96998.4,97437.2,127956,207029,191433,83420.5,66790.2
83095.2,102695,42450.8,92629.6,119657,230286,67719.5,76166.5
58575.6,98118,37003.4,90157.2,102680,178304,88162.7,72759.7
118324,119179,111441,87425.8,225554,163230,84912.4,65750.8
98745.3,114964,104964,89838,157042,156146,69695.6,57528.5
106366,104831,84942.2,82793.2,159757,163290,56175.8,84859.6
104870,87228.9,95834.2,114748,225719,207439,88943.3,71573.2
68344.2,129406,79819.6,114171,123053,214497,81332.9,73721.2
67579.2,104846,39466,99072.4,93601.2,194515,60406.3,64492.4
75996,120389,71045.8,98655.2,130850,188959,70476.5,60638.1
94699.8,110053,80235.4,99891.4,152746,153560,64937.8,54235.6
84672.9,115200,76174,90998.6,159365,188238,76473.7,68914.9
99264.6,79708.5,79913.4,82842.2,142878,150828,57663.6,84003.6
102444,103620,105234,76231.4,213227,153348,82926,55294.1
99086.4,124617,65338,101692,168613,195516,74333.1,88597.4
94175.1,110797,81512.2,106597,149237,180652,58902.9,85580
92252.7,99987.3,65970.8,83631.8,141358,154053,67354,54012.7
99159.3,98442.9,49705.6,88818.8,124529,189220,61617.3,74275.1
97295.4,118055,74839.8,104976,126286,193642,53973.5,72465.6
95624.1,105106,98768.6,102802,164808,181555,55449.1,55262.2
111650,112864,144385,91029.4,248511,170871,89049.1,57108.3
109037,102596,93865.8,77309.4,197189,129094,78052.8,64984
97525.8,107641,79216.2,85853.6,146230,155008,56389.6,66126.9
54027,98983.8,27769,58165.8,79213.4,151010,68722.7,62601
111606,105826,87582.6,103216,194488,188096,78637,76300.9
106882,88755.3,77872.2,65307.2,184400,131575,86035.4,58311.7
86642.1,136469,63672,95863.6,124440,180733,68371.1,71245.6
96030.9,152024,81106.2,96793.2,160405,208698,62741.1,82886.1
87399,115592,54626.6,67088,142190,161945,59075.5,82266
50616.9,106294,52066,95387.6,86934.4,171014,57715.9,67359.5
112966,113144,74622.8,96625.2,145607,191604,70877.3,78463.3
73879.2,117014,103684,108765,149177,216853,67382.5,83190.7
115170,88624.8,105046,72669.8,199329,171506,85496.7,77359.4
98595.9,90882.9,74876.2,112242,149505,188968,84891.7,72286.9
112658,94303.8,121549,57701,208617,121047,84525.3,59070.9
106807,88416.9,96080.6,90115.2,188313,153737,88581.4,59842.2
96193.8,110189,68889.8,97000.4,142044,191764,56461.5,63072.4
110872,129539,100373,119755,191379,223041,78948.6,69227.5
77442.3,130148,49532,101668,109080,166758,66726.4,65162.4
101741,110918,97101.2,78152.2,169726,187081,73050.1,78662.5
68438.7,122767,48958,106422,93725.8,199681,63084.7,60090.1
101534,89514,64682.8,85654.8,159369,172063,60866.2,61001.5
83360.7,107766,66782.8,97805.4,101476,185374,55906.4,70895.9
43946.1,103929,16629.2,120604,67408.6,237362,81672,87644.3
106301,101908,95137,95995.2,174856,187027,65449.7,78250.2
102103,100503,84736.4,70162.4,198071,154126,75674.7,55028.5
104891,101735,85380.4,84389.2,175372,171963,84396.8,56838.8
126263,92681.1,102130,117677,219345,214035,79138.4,63232.1
70755.3,96444,35044.8,75551,96252.8,164307,88096.9,67268.8
110702,101271,129710,73929.8,248493,174919,86019.3,67722
113702,98022.6,93123.8,73189.2,168354,157653,57365.4,57689.5
92853.9,103842,84814.8,96229,135601,182388,53719.9,61892.2
40125.6,132499,24225.6,111404,77225.4,212013,68705.5,68709.3
108095,100570,105427,102820,204123,160464,70821.9,70850.2
78448.5,138604,35544.6,117109,107045,217685,79441,73866.4
93533.4,88326.9,82240.2,64708,172249,133743,60940.2,54363.3
102366,105746,101034,92267,178307,196105,85278.4,54657.5
49903.2,111214,53534.6,118082,75552.4,221385,57627.1,83735.8
98349.3,53761.5,69613.6,36565.2,158834,93535.4,79074.9,83635.3
85087.8,94969.8,65191,75940.2,126094,159628,54726.8,77862
105674,106708,88286.8,109754,172378,217955,81374.5,84145.6
107941,98161.2,100400,79879.8,208341,150251,76083.3,59111.8
97409.7,94148.1,77191.8,108403,144973,180369,65676.2,72255.2
100610,122444,79520,119286,170219,225042,72173.3,81594.7
101787,111678,74424,97427.4,163500,185661,86720.4,59835.2
112945,95642.1,120158,69512.8,241394,161456,84596.4,61700.1
111724,94263.3,107715,87960.6,158826,187149,56388.5,88039.4
92701.8,95857.2,62666.8,84973,138664,127218,73127.5,65492.8
101971,102218,89625.2,118681,173334,239807,67360.4,81481.1
50212.8,125278,33441.8,102838,75503.4,212978,61781.4,78498.9
111625,116456,95554.2,101513,190422,198157,69267.7,77592.6
51864.3,110822,37182.6,104290,80621.8,173415,62671.4,61864.2
98694,102745,62332.2,109280,138510,218677,58532.9,74566.7
109372,99758.7,89618.2,79357.6,185434,154214,88461.9,67388.9
83557.8,109954,71026.2,90028.4,140638,168141,61849.1,57142.9
104722,106788,81034.8,128407,165469,250691,85317.9,81632.2
88674.3,113169,57156.4,90203.4,130946,181597,62879.3,78570.8
103895,113223,98301,98383.6,189423,189965,89237.5,75194.7
139278,91808.1,105524,71909.6,244644,154469,73943.5,55549
77634,100995,69655.6,100024,134112,175592,54084.2,64670.3
113535,105268,84739.2,80152.8,195761,155926,82636.8,78884.7
47915.1,134838,33924.8,100698,71031.8,181885,54419.9,65447.8
97020.9,106790,76816.6,88334.4,149766,222716,57274.8,77524.3
68395.5,97338.6,78923.6,95323.2,188978,183158,76342.1,71525.2
112582,104615,116418,101193,196844,213975,79010.7,78074.7
97470,89139.6,61987.8,95351.2,154143,177220,77321,64772.9
99922.5,108040,73124.8,113278,162544,193642,72541.3,75891.4
117524,73155.6,116250,86290.4,249480,173576,87834.3,68404.2
53465.4,125787,36520.4,113256,81513.6,203190,71183.3,59899
114334,84100.5,78629.6,62879.6,180884,107808,83547.2,62747.4
104429,82569.6,93717.4,82210.8,165137,157669,62133.4,62899.2
103291,105043,84361.2,91176.4,183049,156667,78998.6,57180.6
40164.3,103360,26903.8,89240.2,70443.8,161631,57409.9,58716.3
48010.5,125535,50545.6,141385,101483,240780,69742.1,88388.9
44647.2,97915.5,32618.6,86912,69799.8,149183,57304,72063.7
97357.5,99424.8,69034,82213.6,171896,172568,85182,69345.7
106579,90872.1,122577,64142.4,230454,139062,79378.2,70050.7
123663,101912,114758,83650,239460,172722,88917,82247.7
92054.7,102992,72916.2,94603.6,151122,172264,74300.4,77072.7
104670,83004.3,65497.6,87231.2,174412,185395,89000.4,76613.5
81439.2,99388.8,60333,72493.4,159015,167061,59810.2,56104
101528,90682.2,67564,71094.8,145946,134302,65070.2,53875.7
108376,125160,98935.2,107848,173051,198111,79916,83533.1
116027,94631.4,96721.8,89768,198139,166701,87683.6,55240.1
95779.8,114036,63434,97627.6,148418,183243,65366.2,56377.1
105566,97359.3,93058,84176.4,176386,173264,78018.7,67460.2
100062,149116,73565.8,114874,149600,224315,71505.6,63537.8
91640.7,71350.2,74555.6,64841,150318,116585,62103.4,73663.6
110067,126134,84940.8,102266,153481,198440,66377.5,74230.7
93164.4,110663,69763.4,98085.4,127317,175886,56778.2,68701.1
104400,117299,92878.8,97585.6,157633,195525,64990.4,53676.5
93082.5,108675,87064.6,104308,155137,188269,57831.8,60360.2
90693.9,87085.8,97806.8,57159.2,180604,142541,70352.5,63551.9
88654.5,89759.7,117586,118178,231077,192857,84613.7,53791
118107,117292,117092,111072,209987,211197,84793.2,81632
87561.9,95230.8,53666.2,114079,144143,204715,62541.8,81401.8
51345.9,99613.8,41435.8,115786,84875,205296,58459.4,70397.3
109189,114430,86016,113732,169352,248380,73064.9,80768.3
102243,99764.1,92055.6,93723,144836,163506,68299,82716
53773.2,123095,35708.4,102693,84204.4,213084,86552.7,84430.6
109066,139869,83727,155662,167614,245059,63277.5,76899.5
134218,123588,85019.2,92582,197378,189692,57062.7,55850.8
94226.4,123898,71615.6,115186,160063,222111,56334.8,84824.6
44370,103117,33901,96398.4,75476.8,154580,66356.9,54101.1
105512,126582,79738.4,108552,165194,220609,68194.4,84258.8
89709.3,96315.3,64304.8,73145.8,120702,162274,61029.8,55004.5
93978,106663,60613,91429.8,146049,202593,77241.9,88604.9
107589,100139,83780.2,72308.6,188140,151297,86708.3,63809.8
109682,124913,96966.8,115965,179206,240820,81273.8,82898.3
99540,90972.9,89009.2,93819.6,141154,210496,74469.7,84454.5
94741.2,93178.8,64055.6,67611.6,152666,145095,72836.2,83320.8
55861.2,112954,54643.4,79030,107135,178373,57646.9,83426
96740.1,113375,76518.4,94868.2,130094,175949,56883.4,63427.4
84985.2,104481,67457.6,129868,119750,230118,56089.1,88613.8
99255.6,59404.5,60317.6,73827.6,155306,98921.2,85071.6,59376.2
107116,116912,93793,113884,182962,198250,81480.9,76719.9
96638.4,120127,75420.8,124106,151047,247699,56626.1,85419.2
88265.7,106052,67627,112330,155273,184720,57650.6,63174.7
113002,83449.8,99618.4,68490.8,213182,145909,84922.6,59920.6
105396,66690.9,110293,28420,198391,94298.4,73674,84709.1
99311.4,66782.7,83402.2,55923,178515,151899,71089.6,76990.3
107014,111816,82565,88183.2,181602,197637,66211.2,75381.4
115368,83533.5,106291,78114.4,214795,182626,80018.3,71764.7
101317,101387,104651,121309,169781,219201,60607.5,77698.9
103158,98615.7,75447.4,55074.6,141309,143297,83115.6,80295
97122.6,121044,58217.6,106557,137333,200792,66131.4,89168.9
98432.1,116539,81929.4,69966.4,135545,162879,57498,58425.4
98037,109227,85507.8,87668,159625,182983,58910.3,55200.1
95102.1,94829.4,67992.4,98411.6,160611,199487,61764.3,77924.8
93735.9,93123.9,71579.2,75840.8,168995,153730,79776.3,57951.2
95251.5,112037,77323.4,88925.2,132572,175545,55080.5,85480.2
105303,71944.2,91326.2,104040,161609,182281,53679.2,55103.6
110200,103505,90092.8,98632.8,176975,171623,89192.4,57226.7
61196.4,105713,66543.4,95351.2,129072,188504,80753.7,76937.5
98473.5,116186,74671.8,102050,166368,205451,67621.3,84821
95959.8,113031,69624.8,115045,141653,203743,59774.5,75205.1
116955,124595,87084.2,112406,181124,208625,88862.6,72235.5
106487,102856,88921,81568.2,179987,170632,72690.7,70445.1
97839.9,126077,63117.6,117849,147700,202923,57409.8,67660.1
101880,110434,92827,89275.2,171112,162959,55731.6,65760.3
100070,107505,76084.4,108487,149530,177211,68935.6,67842.3
93684.6,126022,55918.8,91877.8,137061,179504,59782.1,62719.5
91766.7,109488,86669.8,90692,154353,207456,77753.7,74661.9
66681.9,83084.4,45035.2,54916.4,102582,130817,85643.6,54447.2
94720.5,138380,83641.6,81081,177817,187625,71201.5,71045.5
100472,102367,70527.8,126661,154598,210910,61182.5,81116.1
86334.3,96980.4,56499.8,63599.2,123547,154543,64812.5,66214.9
111911,48495.6,104609,33569.2,174922,83997.2,62102.2,65318.6
122598,121849,73805.2,96846.4,154594,201174,54616.8,81001.3
113702,116263,90267.8,114836,207463,221956,87293.6,73807.1
104505,79109.1,95062.8,66473.4,178559,157329,58479.7,56736.5
78579,121391,50127,102670,127677,193119,61550.9,80561.4
107329,95596.2,71562.4,84981.4,172032,202586,66820.5,83520.5
96635.7,119473,71607.2,104964,179288,184617,79001.8,69914.1
90783.9,107996,80694.6,97480.6,161962,195726,71431.7,74464.5
63930.6,110386,39054.4,128331,108175,242074,76488,84260.3
73887.3,129006,41498.8,115009,93366,227930,55510.6,87156.6
115733,115506,85138.2,97455.4,217700,191397,89164.6,72186.8
115231,119048,81184.6,74874.8,156115,166432,58251.6,64257.1
106222,127570,74923.8,110071,165264,252004,85735.9,87841.3
93273.3,118685,59712.8,79790.2,140578,168647,70997.8,56534.1
101345,102101,89441.8,76427.4,167733,165565,61262,59251.9
101602,101269,72000.6,69115.2,149401,163923,65764.7,71517.9
49566.6,103342,32991,103195,85647.8,182689,66188.2,59443.3
113348,120560,88037.6,116509,165320,210578,66707.6,73233.6
78096.6,98469.9,46839.8,72311.4,91701.4,162291,59722.5,67183.4
97575.3,109245,72835,95153.8,162208,212594,56693.1,69844.2
121339,95427.9,132664,80943.8,222046,158698,86332.6,72078.3
110168,82310.4,96467,82240.2,197532,172936,88187.1,58387.4
112386,111860,103970,95856.6,193497,238724,88082.4,87071.4
101552,106746,50344,127526,147696,225765,72787.7,88482.5
110942,107096,90746.6,121757,186476,211456,64537.2,78828.9
102580,107504,88134.2,95312,155813,185102,70308.7,57948.4
102699,109291,70393.4,102714,143881,211295,64085.1,74820.1
92203.2,104756,61279.4,90963.6,133900,181601,71603.8,69564.3
111442,103596,76615,100352,152348,178690,82105.6,74866.4
103648,91206,69039.6,72840.6,158507,136487,64462.4,56570.6
35923.5,121365,21989.8,111395,71517.6,221915,69208.2,73051
106478,91493.1,108507,46342.8,213788,137914,66332.6,71200.3
99810.9,131338,76059.2,131370,150979,222786,62251.6,59174.1
106951,106944,82308.8,104203,179613,204478,75358.5,75100.6
55157.4,124466,42792.4,103359,97568.8,192767,63774.7,71056.1
89506.8,92238.3,64568,101709,138887,211009,55093.5,72550
78885,116545,82769.4,98394.8,134058,195170,62820.9,88436.8
90288,93898.8,62494.6,65371.6,155008,153388,77871.5,57422.2
88088.4,96584.4,70669.2,96041.4,127667,161533,55086.4,64002.2
93475.8,136077,69885.2,74722.2,133389,202626,55779.7,80608.7
50355,122385,32103.4,86734.2,104230,169466,58267,65118.1
99089.1,103662,80467.8,85374.8,190225,200200,87480.8,58968
102801,85782.6,85321.6,79734.2,175028,151547,73415.5,57288.9
105843,104455,89936,77457.8,191075,177230,84708.7,58039.6
99339.3,101843,72728.6,75871.6,146206,150914,63660,64560.2
91665.9,108679,67306.4,106053,143479,189746,87995.6,87610.4
87524.1,109126,63282.8,136122,119790,221054,53706.5,74171.8
107838,100941,109808,93998.8,202443,142891,88416,56939
47144.7,113666,39223.8,98131.6,86412.2,174187,55363.4,83230.5
99617.4,58912.2,84873.6,68325.6,161622,123714,73110.4,88852.1
99215.1,107330,84366.8,89198.2,151761,178821,62569.5,86475
106028,98667,68457.2,79906.4,149813,145123,73051.2,64000.3
103414,86724,77373.8,84714,148698,153318,75692.3,63715.6
97425,85328.1,82136.6,65242.8,171471,181714,55828.3,73252.9
94509,106392,61868.8,123624,163281,217860,65998.1,79244.9
99032.4,106234,98263.2,90094.2,167097,183098,60238.6,65876
104020,117780,69826.4,121666,144249,196679,80499.6,65542.4
101159,101614,82538.4,95327.4,185101,180737,87431.1,55321.7
102943,105119,80225.6,106687,182920,197175,79001.5,70031.7
118970,104096,90682.2,95893,210949,183823,86744.4,77967.5
96013.8,100254,88781,90447,150863,221161,65280.5,80392
108212,93337.2,116907,68264,201030,151263,87186.2,59218.6
135553,97402.5,99185.8,90287.4,235703,161806,86862,63504
90927,119920,57544.2,111971,128604,218169,71053.1,87305.2
115164,92433.6,98302.4,75500.6,195090,167658,71530.1,69400.9
103719,102469,100281,79434.6,161795,165339,68243.7,88433.1
87805.8,98771.4,62899.2,92240.4,132265,178270,61404.9,82328.2
93929.4,101733,93560.6,81807.6,146567,206361,55658.9,65809.1
81736.2,111411,39664.8,102350,110978,179544,57923.9,58476.3
105999,139767,95440.8,117617,183586,218098,65357.9,88155.6
91251,99609.3,64572.2,63905.8,153762,152256,78163.7,65346.7
98616.6,100799,89306,65857.4,164151,141295,70919,55942.5
100183,152882,81965.8,125233,172600,246963,68435,84975.1
102864,105314,98662.2,92689.8,193211,205150,79541.7,79040.7
98685,107172,69804,88338.6,137256,172854,76595.9,69310
99009.9,102196,77070,89297.6,141695,190512,61324.3,66719.4
96510.6,84501.9,40975.2,75831,84417.2,146394,56000.5,61721.2
120579,95201.1,121779,103183,191985,185886,79468.6,62266.1
107614,116871,129424,127642,229099,228417,83729.3,74129.7
89080.2,94777.2,58773.4,102400,147774,182210,73308.9,59572.9
117885,45066.6,104896,35527.8,185935,91504,67305.7,55268.1
86591.7,105988,70026.6,90699,128230,180688,53936.2,75413.6
97365.6,121537,64180.2,81561.2,163694,169905,86802.8,65588.8
97533.9,109677,66588.2,97767.6,158161,178233,74365,59044.4
119077,109452,98196,91803.6,163603,162028,61366.6,73488.2
93313.8,116364,87403.4,108490,147028,217746,63868.9,70498.1
99671.4,109257,90059.2,90479.2,180419,173082,61530.7,71095.4
82910.7,108022,64937.6,122038,109691,192615,55348.8,55095
103954,83827.8,72209.2,63505.4,180243,122520,88850.8,56905.9
98562.6,97813.8,72464,78324.4,155313,197327,56518.1,76426.6
85636.8,65301.3,52402,45229.8,119974,105818,72784.7,79015.2
110626,81532.8,88109,75909.4,186606,146128,72398,75366.4
98889.3,97888.5,66668,86462.6,136842,170625,72176.9,53611.9
63091.8,109136,34935.6,124582,91614.6,227562,80494.4,72536.9
86741.1,131299,58830.8,114045,115737,216628,55369.8,78290.2
102710,97928.1,81634,97434.4,196955,181229,63492.8,69145.1
114298,101370,97853,71779.4,212304,144193,87492.1,75669.1
91909.8,93891.6,93686.6,110879,175438,220531,88018.5,81994.6
100616,118755,65983.4,96128.2,138883,168090,73604.5,63552.7
96170.4,134601,68023.2,88390.4,124989,200841,55764.3,88069.5
97385.4,89766,88803.4,95436.6,152306,192199,63800.6,84704.5
113353,116710,125628,116453,219486,235113,77696.9,69049.5
112533,112894,101238,92188.6,226724,177953,87808.8,83767.3
76320,94505.4,83945.4,86255.4,150458,166093,62288.8,58098.4
117696,100289,101258,71981,174920,149206,65381.1,77642.6
91514.7,71643.6,80827.6,49810.6,137397,107247,56293.6,65137.9
118980,115385,126046,109304,232134,204992,87587.6,80309.7
84186.9,142358,83165.6,117576,166191,198789,56279,53735.5
126727,126319,135089,118705,197789,201494,78162.9,62717.2
78846.3,153470,43947.4,126552,121150,243764,54939.7,80643.2
85208.4,94237.2,67747.4,58035.6,140734,150408,60154.4,54085.3
104464,128785,85401.4,107540,168538,188723,68269.1,53951.9
101805,112348,73311,99033.2,151425,165659,84762.1,64128.9
86696.1,99092.7,49557.2,99782.2,97088.6,197669,64012.2,58346.9
119195,86493.6,110319,94787,220098,139355,87114.9,63399.6
90765,109001,67258.8,102665,136454,178076,57340.1,54175.8
91154.7,120583,66669.4,103893,132086,215366,61947.3,74898.6
104739,79976.7,67817.4,40972.4,141859,104807,66003.5,66740.9
105467,76536.9,98844.2,48895,183014,108503,61694.1,55649.8
80143.2,104193,42476,94903.2,97694.8,169945,55660.3,56755.1
95860.8,135766,65861.6,137722,161108,242092,58080.3,76710.3
105004,99645.3,84324.8,68602.8,165712,177681,66180.6,87288.1
107779,117278,84515.2,76603.8,170458,143968,68402.8,62175.3
98637.3,126490,70385,116824,172278,229736,79127,88143.4
117070,42120,85860.6,36243.2,194817,95727.8,80809.1,64124.4
95569.2,99018.9,90610.8,71531.6,175788,181838,64882.8,80505.1
128137,56268.9,100485,26362,194974,80201.8,73216.3,79816.9
94423.5,76319.1,57600.2,45491.6,148523,105421,72398.5,77502.8
105717,96845.4,95901.4,95183.2,188405,158564,87655.5,61392.6
116013,90707.4,85820,88208.4,194925,190784,77332.8,68955.5
86844.6,114352,69144.6,107748,120610,224734,63093.9,70532.6
91309.5,142198,69930,108884,146804,201716,73414.9,73111.5
92459.7,120394,81944.8,119323,169868,185661,83949.5,67490.4
106446,103869,83113.8,112028,176252,203276,74606,69251
96112.8,99579.6,114184,111579,209485,235869,79794.8,76576.4
76313.7,98838.9,46379.2,86471,110958,171919,87742.3,71399
99597.6,100709,72840.6,79734.2,155203,162869,55250,65636
110950,118258,98183.4,80193.4,197784,152036,69543.5,53997.4
98674.2,91605.6,76146,101214,180832,199378,77011.3,77596
100725,111082,89342.4,92163.4,154717,188149,59918.9,74042
72285.3,102791,43391.6,85727.6,102392,154042,57724.7,58661.4
42750.9,123664,30105.6,89712,65623.6,178679,61195.8,63136.6
92227.5,98019.9,61864.6,84894.6,118658,149689,55990.3,59823.7
103843,108516,78905.4,103257,192693,159261,74276.9,53715.2
115775,107761,83388.2,86994.6,152909,161769,54117.6,59061.5
70387.2,90990,60905.6,72213.4,123427,164073,61778.2,54972.6
107851,110435,62547.8,102473,154945,189923,69145.2,68655.3
107136,99307.8,100064,95186,182178,189385,71232.9,88862
109098,89958.6,110725,39977,194160,121772,87236.4,84410.6
89135.1,75210.3,60940.6,58921.8,161384,114475,70544.5,54859.4
101004,90275.4,95776.8,82286.4,167573,158131,63582.6,54621.3
106500,115372,118783,85320.2,177551,165460,63236.2,54615
93600,118283,69056.4,140388,143137,249607,59393.7,73709.7
89808.3,111894,48711.6,104020,139422,184694,66235.8,72627.8
71765.1,112177,65126.6,107260,118797,176722,86401.8,55733.7
95308.2,109390,76895,90448.4,158154,197728,80155.9,72133
107776,114719,94901.8,120445,190161,218478,83226.2,82944.8
112126,78830.1,80262,94628.8,172614,158406,81976.2,58121.4
106226,108932,94320.8,103086,196965,177551,87817.1,57896.6
104900,92886.3,82803,80553.2,150639,174338,55164.9,61043.1
61358.4,134962,36971.2,101927,88344.2,206679,69756.7,65453.6
116134,88043.4,99849.4,102183,204417,207423,73675.3,84454.3
97325.1,113210,66731,101357,165777,179364,76072.9,72285.2
107946,110285,99715,69204.8,184170,175678,85696.4,74946.3
119558,110586,117461,81698.4,219713,172509,78362.3,60160
103811,105759,75749.8,104994,154174,195300,61525.5,70229.6
84012.3,111136,90293,128138,151791,217965,89072.4,79491.3
95117.4,110286,73004.4,69879.6,144493,145208,63969.1,63034.3
100306,106636,95229.4,73392.2,144402,149164,55205.5,70020.9
110560,96782.4,77263.2,102946,167177,190981,83810.7,75291.5
98505,49691.7,75818.4,26947.2,144477,72032.8,79540.9,58231.8
97448.4,106186,82342.4,86352,149009,161974,54981.2,61009.3
99973.8,92183.4,78891.4,87098.2,193340,179725,77787.4,68153.8
96278.4,95857.2,53597.6,64685.6,150307,166636,57428.1,76341
83788.2,125409,79072,111832,144939,228063,56925.6,82844.3
45360,90348.3,36953,82728.8,76350.4,181941,59913.9,86291.5
92902.5,104404,55974.8,105795,131067,229533,63024,88392
115918,121140,110333,99758.4,214936,231021,80660,78607.2
91948.5,79338.6,87525.2,49018.2,158199,126811,58328.3,81447.5
97527.6,110362,117576,92338.4,215799,180541,81808.5,59996.7
93443.4,120097,70387.8,107162,179494,174079,59855.8,69248.8
95986.8,114507,71610,116126,150709,205664,61199.8,79368
103010,105396,74331.6,81316.2,157423,151621,79085.5,68022
53717.4,111583,28858.2,100304,81993.8,159956,70805.8,61404.3
109123,69595.2,123763,28847,216779,93368.8,76794.8,58850.9
94851.9,90351,80806.6,77968.8,140519,154720,54607.7,71246.1
99153.9,106683,77876.4,98501.2,157128,177436,73927.8,54842.4
60442.2,85347.9,38626,76595.4,74454.8,147522,61261.2,82125.9
103899,83320.2,81984,70039.2,194046,123295,83718.8,55022.1
99811.8,105247,66911.6,70012.6,151840,145804,72407.8,63437.3
99988.2,113626,66255,114430,127312,190863,57302.2,80750.8
60447.6,111000,51184,88190.2,86049.6,207449,62628.1,76572
89645.4,109999,59610.6,82423.6,118342,159328,58654.4,57251.3
90513.9,104447,93009,88769.8,177086,151789,77605.7,58689.7
81142.2,101276,41284.6,82783.4,93177,153402,64488.7,71188.9
100382,105385,74624.2,83099.8,171506,190054,66781,84755
115328,119642,114663,120694,223549,207801,86899.8,87793.6
118705,100214,87196.2,88867.8,176168,147032,71458.7,55904.1
104090,90405.9,67540.2,80673.6,169756,195664,82853.7,77020.8
70645.5,99729.9,57468.6,120625,122780,208807,88594.5,66892.3
46739.7,103004,36869,86394,67985.4,177563,55944,64230.8
96198.3,98415.9,68616.8,64562.4,147952,122290,67036.4,57839.5
98024.4,121732,100895,107765,194776,219943,61732.6,87053.8
81507.6,113411,43792,71020.6,116126,145188,83880.3,87923.4
112570,134017,87714.2,116334,203146,215774,74835.8,85172.9
91914.3,106629,61649,95058.6,136171,220913,75007.1,72292.5
110458,102317,92680,87333.4,165288,189729,61367.4,76685.9
110251,111555,94794,89496.4,159179,219891,86350.4,84691.2
107674,92362.5,95221,68541.2,190061,158694,66540.6,56475.6
101520,122120,75692.4,109914,184622,197495,72685.7,69600.3
77170.5,101877,61566.4,87722.6,117484,176070,63647.5,71542.2
100537,99130.5,84313.6,63589.4,159669,169782,85165.9,74110.4
72452.7,123222,34405,77253.4,86045.4,183151,53700.6,87487
111928,96234.3,97514.2,85240.4,178573,162791,88755.2,83058.6
107189,126800,95558.4,92719.2,188952,170241,76256.9,54998.1
97568.1,94434.3,66392.2,61024.6,146842,126048,71179.4,54024.3
100441,103035,86275,98070,157480,189629,62945.3,83656.1
92961.9,113939,99155,81202.8,220013,197329,76263.6,75873.5
97902,94599,78822.8,78814.4,180739,148462,65394.7,65025.9
98071.2,118437,94430,123063,209584,212233,81126.6,80057.2
82497.6,93442.5,58392.6,67408.6,132153,149500,57895.5,83734.2
87380.1,93123.9,42736.4,64796.2,131018,135384,77277.8,62743.2
50934.6,103967,46443.6,80955,104664,172876,87723.8,88256.2
95339.7,111453,70352.8,105148,141541,203631,59952.7,77390.9
106694,125600,103610,77011.2,188506,181805,71348.6,67170.8
125960,138676,83769,98728,209761,194209,84448.4,74123.6
96620.4,102688,100695,82192.6,168269,232729,64200.3,80443.3
100592,103660,77392,94864,138076,212320,57322.6,83331.7
95922,125785,99199.8,115592,172094,221894,64040.2,80347.8
99350.1,130217,74942,115052,156710,198666,62350.7,85403.3
114429,88765.2,105934,104880,203013,184430,75161,77711.8
118238,89175.6,79921.8,91340.2,202825,225938,86187.1,77301.9
91621.8,99975.6,109053,105168,184454,222568,76356.4,88927.3
120888,96786.9,115142,93366,211215,173167,86161.2,69222.1
119651,101678,98018.2,85745.8,206367,159074,86932,68003.3
98154,114392,67720.8,108520,146139,193484,54028.2,73692.6
33708.6,124219,31817.8,108619,84039.2,201221,57863.6,71713.4
88042.5,96830.1,54812.8,90787.2,144326,143843,72431.9,58615
112709,106699,101970,86076.2,207669,169894,78877.2,55348.6
107430,44748,87193.4,39733.4,169561,83066.2,88952.4,57148
81583.2,111530,71328.6,116021,132279,203423,81151,84781.3
104477,79378.2,100708,78752.8,200031,157912,87948,74643.2
94265.1,97197.3,67044.6,94239.6,146440,163334,83531.6,54343.8
115846,92610.9,91056,84397.6,156810,183830,67396.8,55761.6
97174.8,63924.3,66666.6,43477,157356,92716.4,73030.7,66340.5
89789.4,98450.1,55414.8,65664.2,120163,151759,68548.4,77751.3
103743,86470.2,91175,49742,155653,115423,53828.7,57287.5
101638,109664,96034.4,74608.8,214659,156611,82429.7,72454.1
92340,103169,78815.8,85523.2,138652,161330,65700,61547.4
89879.4,109131,74842.6,89619.6,151130,191842,70839,76246.8
94464,74759.4,88561.2,62231.4,149033,146633,65345.2,57579.6
103751,99120.6,82451.6,71685.6,198978,125542,74903.7,56811.4
97944.3,96903.9,78428,79037,161120,135310,70063.5,63943.7
108686,98203.5,93116.8,62876.8,179536,176445,87641.6,67381.8
62696.7,70698.6,43261.4,74737.6,79487.8,147860,60833.8,67983.3
88802.1,103821,62536.6,62227.2,136347,128862,62671.3,70231.1
95598,125902,66845.8,129758,150836,248833,66297.2,87375.8
94748.4,110642,63933.8,108143,127413,177136,60960.8,76731.6
90931.5,87903,71804.6,60312,126099,126224,55268.2,59157.6
87604.2,92493.9,76055,91642.6,149038,203629,63937.9,60145.9
89965.8,62068.5,57745.8,58987.6,145739,106912,62965.7,80021
117082,85257,113509,72675.4,212068,126514,67332.3,63178.9
91015.2,128918,104065,122613,199380,239019,86427.1,80362.7
87909.3,116031,56882,88116,128593,193365,61533.9,66073.3
99750.6,97849.8,81165,124771,165649,228694,76382.3,82973.4
108437,145469,74797.8,129084,152641,222288,69804.1,85885.4
119595,94700.7,90209,58821,158409,156713,60527.8,71604.5
108142,84888,95064.2,85331.4,188545,170404,85784.2,70237.5
108094,116744,79690.8,103443,199363,215760,73745.7,71071.7
105956,109615,95771.2,81478.6,173187,150494,65547.3,58219.4
98870.4,100005,74579.4,91512.4,136844,145757,54826.5,59709.4
101893,107195,67102,114807,160861,173211,62010.9,55850.7
100639,89217,67181.8,104398,153265,197208,79163.9,60345.7
91289.7,63864,65382.8,43072.4,146619,94063.2,53944.7,65001.4
108414,104276,81888.8,99467.2,169119,187904,62931.8,57748.1
96799.5,85390.2,72388.4,109169,153373,236996,61913,88255
129340,90954,83220.2,74151,204960,131680,87199.8,59060.7
56214,144882,45516.8,122861,72692.2,214095,69406.5,62224.3
104395,112043,73962,91908.6,165481,162243,73382,61047.6
108656,113152,87983,85055.6,168696,167139,80753.7,61610.6
110822,105015,97099.8,107696,205964,190460,83654.6,87249.6
107248,112022,78712.2,116404,198526,230699,78934.7,86100.3
93922.2,105890,73217.2,88158,141950,169337,72598.5,54087.6
64638.9,67511.7,38287.2,55164.2,82345.2,111804,75121.2,83063.7
93271.5,99838.8,89408.2,67975.6,117743,170901,53980.2,80126.5
92352.6,103036,73421.6,130197,135152,205493,63042.8,55297.8
99861.3,72363.6,69517,68733,152468,103142,80893.7,60766.4
119435,94948.2,111516,80914.4,244780,163848,84225.9,65080.1
113990,91878.3,120333,80455.2,192146,143319,78003.4,65893.1
42452.1,86913.9,38396.4,66596.6,66532.2,152092,57605.1,64066.7
105859,98356.5,90048,67218.2,177023,146712,73757.1,65883.4
103595,105622,92132.6,90916,180155,156401,63723.8,58210.3
90111.6,132001,80098.2,124345,136294,224421,56316,79283.6
100297,122141,87326.4,105210,162285,202776,69761.2,69445
115677,145274,88156.6,134921,174520,233451,53980.7,76978.2
90443.7,107735,107405,95170.6,189686,176201,85286.1,65995.1
82814.4,139871,53989.6,116683,136210,214752,61330.7,69367.2
111825,109110,92220.8,91070,184233,185655,85718.8,69720.9
104717,121135,90930,100642,174849,219845,59970.6,77320.4
91683,134086,61899.6,110400,135877,211158,57691.7,87257
101577,111516,69484.8,100880,172962,170871,78547.1,65868.1
98501.4,98771.4,78233.4,102383,145772,201688,70926.6,69872.4
101997,96309,102494,71351,234886,157713,89189.5,88351.1
93452.4,96408.9,79769.2,64495.2,154762,155704,53901.5,70492.3
115900,109282,108601,86252.6,229173,175826,81312.2,76883.9
105563,92396.7,94088.4,77425.6,189304,179941,82851.6,77498.5
105569,136983,86945.6,126179,174376,233800,83085,80178
119787,103216,127362,92556.8,224084,161337,86258.2,84382.3
103760,84672.9,84513.8,54944.4,195854,192902,77898.6,61359.3
104415,131974,79016,116444,162632,174532,75181.5,67225.3
102934,115466,69347.6,124041,152494,234258,73935.4,81050.8
98919,97173,79468.2,74425.4,137270,171837,69231,88151.1
57310.2,101994,34944,52892,83286,151949,69235.1,66151
85823.1,86921.1,81390.4,76725.6,169457,140312,74862.6,54978.4
95288.4,90786.6,72556.4,101256,152205,174000,70251.5,69794.4
120026,104044,92869,95205.6,172904,175419,55582.5,75512.2
43823.7,99496.8,30685.2,85117.2,66994.2,164297,77183,59141
108028,104768,94386.6,80719.8,183016,168017,88188.9,84526.7
86981.4,112868,58605.4,120820,157252,233729,60607,88542.1
100450,103860,88914,132679,160023,242995,55574.5,64921.5
98397.9,111997,99055.6,82128.2,153488,166671,86119.8,62559.9
45207,101001,35625.8,78628.2,72864.4,147647,55432.9,67388.3
97216.2,81265.5,64794.8,68054,140868,125735,85794.9,57869.7
61053.3,96440.4,41578.6,78079.4,88061.4,151871,81232.9,77868.5
98772.3,100291,59253.6,102759,152387,220031,81302.2,88259
79534.8,110408,75762.4,113058,133981,216367,59065.6,72850.2
96993,107617,69567.4,93725.8,151624,176149,68615.4,61286.1
93900.6,129506,73248,154224,136480,242763,82336.7,87856.3
105059,90526.5,79889.6,68086.2,147386,150640,76915.7,70178.4
86735.7,115757,55707.4,87326.4,120364,173358,59355.4,74452.6
101218,119498,76876.8,112405,184339,220248,71590,76400.6
91092.6,131850,49586.6,110719,132154,202201,86878.2,60345.2
87106.5,88686,68489.4,81755.8,139929,149703,66144.9,58326.2
103856,42462,102824,38332,183922,75056.8,62252.9,60976.4
114833,99380.7,103487,107618,201872,195220,88407.5,66527.7
97524.9,75440.7,86416.4,77124.6,137357,196295,61838.9,62249.7
99005.4,115357,70736.4,112281,152117,212675,63103.3,84561.2
92171.7,104842,114661,116164,199172,189466,66411,55540.8
113162,118596,103022,105624,238155,190821,88802.9,68783.6
125352,104791,121811,86132.2,205360,171657,88455.8,82577
95482.8,88749,93268,61656,202850,131922,74159.5,73708.3
108369,115002,80074.4,85850.8,173422,185272,85105.1,86502.9
44375.4,137366,33740,102953,90783,194286,55584.5,86351.7
80099.1,123080,39921,109480,106110,206735,54257.9,77884.7
92316.6,111773,98067.2,108836,164434,203923,68436.3,66024.7
85909.5,103706,54268.2,109179,124218,175689,68069.4,66706.5
117932,104723,77637,112669,146587,238795,59488.1,81536.7
126265,106486,120074,91757.4,227185,164193,83903.2,54534.8
89390.7,96100.2,63049,76885.2,123619,154179,53929.8,73073.8
100821,109228,71906.8,100262,159586,167616,60340.9,53880.5
107731,71175.6,95386.2,49971.6,196200,119606,55741.8,80338.2
88201.8,133483,63701.4,92757,131702,212268,66853.1,75339.7
37049.4,96484.5,16272.2,79427.6,65114,177850,72369.3,59989.5
100255,98792.1,72422,69469.4,173187,158448,68401.9,67591
95554.8,115931,75663,109621,151021,185658,55425.2,83029.2
103176,119231,86073.4,81527.6,181716,190658,76212.4,80140
105567,162175,73847.2,113987,146941,225050,65792.7,87826.9
109118,102637,80656.8,89534.2,184495,186927,86821.5,63684.2
102632,101097,117018,89854.8,200710,200220,77368.2,62696.3
99435.6,77607.9,102844,95186,186598,202545,64900.2,65195.8
105838,107552,92762.6,96021.8,163988,184621,61401.4,66355
92570.4,113802,90668.2,87897.6,169142,171251,75688.4,70465.8
99792.9,121169,65650.2,98883.4,167875,193134,87002.8,71779.5
97311.6,105962,79686.6,102641,160391,246921,62739.2,77489.2
92885.4,133557,70478.8,92541.4,153124,211928,65783.6,85181.8
93292.2,74213.1,61804.4,34536.6,135286,94973.2,60434.1,58277.4
88088.4,130014,41857.2,101660,120219,206933,61975.9,87017.8
94390.2,126870,71521.8,141130,132216,234363,59170.9,87936.1
114631,108946,119267,96125.4,180730,166585,56040.4,68029.8
106880,108601,88670.4,99220.8,181696,192010,81953.6,75317.3
45720.9,139054,33762.4,116346,76287.4,202754,57392.4,76851.1
103217,123204,126127,105342,181954,182472,87700.4,53733.1
93753,117552,70709.8,102432,171417,203214,54041.3,78006.5
39723.3,105698,21026.6,104714,66019.8,207899,54178.1,88912.7
114615,111411,87176.6,102683,181689,189489,70279.5,84555.8
95638.5,93269.7,92100.4,84362.6,176859,165978,54377.9,56265
127750,96147,120312,72223.2,191500,162917,65051.2,80467.3
101416,90783,83483.4,107838,210882,190383,76853.6,65997.1
78871.5,105871,33429.2,121772,121528,195768,76061.7,65342.1
94032.9,90287.1,71024.8,70635.6,143900,159095,61166.2,67969.8
113980,86381.1,93693.6,59600.8,198995,124342,80480.2,53688.8
98102.7,146179,71545.6,142250,146684,228213,77172.1,86796.4
103396,87448.5,90960.8,97895,185126,206136,76478.7,74855.4
108656,124198,86441.6,84193.2,169739,195765,74534.6,68272.5
94632.3,104314,72941.4,131020,141086,233468,64294.7,85112.5
98968.5,100136,65549.4,72837.8,165199,153341,80910.3,74253.3
134769,101976,120588,138013,209546,229937,87108.5,84453.7
38572.2,120434,22911,85598.8,86004.8,182490,78183.7,66816.3
107924,96595.2,98131.6,86485,196118,181814,77667,84936.3
79042.5,103629,48657,71285.2,106147,173454,60323.1,79448.4
110229,123387,83700.4,105228,169445,194324,78713.4,66192
98642.7,103366,77156.8,87661,157543,145928,69882.3,53655.8
112976,133476,100295,125181,198919,208319,81509.9,86968.4
103226,133212,96240.2,107045,200206,221263,87299.4,88389
96276.6,98772.3,70133,68401.2,143350,156551,66995.7,64448.6
109300,98393.4,88187.4,68530,185247,152585,85555.3,88811.4
89563.5,108289,83382.6,81026.4,133399,184857,63224.3,82545.8
108519,119254,95418.4,113670,180113,221095,60092.2,64091.9
117158,120711,93965.2,92576.4,193900,182524,87626,72111.6
98163.9,118190,71265.6,139423,152988,231840,62665,88115.2
70157.7,92902.5,36026.2,88541.6,97237,163286,56908.6,61233.5
100490,85536,85813,105923,179687,192669,80232.6,61105.8
54600.3,56116.8,49588,39530.4,99926.4,103566,58258.5,56222
60583.5,108785,90606.6,114073,118054,232827,56929.1,84701.2
121097,92459.7,106656,76773.2,187467,159951,84610.8,80770.8
113284,117341,113655,105147,226806,181811,84577.8,72129.3
88587.9,92798.1,49177.8,88152.4,128930,172602,62346,55746.7
106242,110336,83799.8,120378,171595,217350,65309.3,72498.3
78873.3,50832,56264.6,49338.8,110475,93826.6,59247.8,54447
123655,128605,136899,115480,249071,203258,78135.5,74115.8
61029,88576.2,52333.4,96703.6,97154.4,167413,70761.4,55867.9
98999.1,117302,103761,136795,207977,250876,81428.7,86585.8
99885.6,75660.3,81110.4,64769.6,159881,119020,69593.6,62589.9
128727,143939,105622,126109,211449,224706,85928.8,70251.6
115097,88970.4,110795,62300,227440,115212,89199.4,59580.6
107870,121522,90728.4,121394,190247,226650,80774.7,74831.5
113123,99140.4,85960,91030.8,174786,143658,76514.3,65991.2
100717,106608,88690,89878.6,147007,172581,60837.9,70841.5
88815.6,117082,61285,83601,127988,185528,53756.2,63394.3
111765,87863.4,93163,82675.6,204802,165316,82906.7,55688.5
108103,94779.9,78057,74909.8,174591,153800,80752.4,56240
96906.6,145615,59388,120908,137925,232814,75347.7,88483.4
104185,119330,93800,95090.8,185213,204078,68711.3,84283
103647,96242.4,79277.8,67020.8,178381,125433,62086.7,53678.4
108245,117648,86612.4,100937,175073,170339,73395.8,59072.6
100562,126979,113189,118707,184785,207102,69763,82217.3
115856,97791.3,97077.4,87704.4,194298,181588,74778.6,83360.8
106679,112226,95188.8,85323,161816,210172,62365.1,83612
111081,133276,92069.6,101902,208802,173531,85855.7,55889.7
80079.3,69746.4,55315.4,43495.2,112780,114614,56336.3,54230.1
108826,109297,84673.4,118334,182693,218858,77872.7,59563.6
93195.9,106464,57948.8,102402,143983,203458,66462.5,85130.4
98384.4,103285,106859,66091.2,163374,139909,77078.5,58881.6
42459.3,105335,28572.6,88821.6,65849,163509,58869.6,60227.6
113836,122256,106182,116785,221844,234394,80876.1,84814.8
118169,121972,74100.6,84785.4,156710,194737,55679.7,75394.9
101498,103059,100836,111016,202231,194842,66279.1,72025.2
102045,96041.7,89755.4,81736.2,177969,196574,76055,71373.3
100012,110735,86149,119862,168557,230530,53810,82460.2
94409.1,102316,72136.4,74468.8,158473,173912,63535,85011.2
91334.7,117610,72472.4,99401.4,128139,158656,54582,56352.1
101292,114151,77726.6,97713,151742,178304,69163.4,64376.5
86765.4,105303,78859.2,81415.6,137785,170113,63870,60711.6
55467,121688,46369.4,143919,110215,249630,86301.8,87527.6
94007.7,110851,67485.6,127095,134322,244374,59530.4,80083.5
106619,113025,76997.2,111628,188705,217378,80634.3,87346.2
103288,103363,113200,98887.6,205037,192861,83584.2,84750.4
98477.1,114293,64302,97434.4,132094,193362,67504.8,85694.5
102033,100606,79469.6,105972,157326,181499,59316.9,65775.7
106853,99074.7,66157,87806.6,183221,166104,73980.8,66249.9
51181.2,105232,17154.2,129412,73949.4,229383,65360.1,75577.9
118196,88892.1,65735.6,59242.4,158855,135688,55923.2,56202
53391.6,106126,17952.2,96072.2,67029.2,185931,75927.7,82976.1
93465,114355,66617.6,114619,149839,189722,77809.4,88332.9
95671.8,100300,78806,98635.6,140822,216782,65887.2,85751.8
90032.4,106025,90295.8,96644.8,175321,164277,78159,58631.3
100567,91553.4,92120,61380.2,179761,145275,82835.9,64817.6
58058.1,93233.7,37518.6,72690.8,90167,151215,68083.8,54590.6
91130.4,113306,70904.4,81527.6,141506,149873,64400,54117.8
101265,103980,73731,75745.6,189127,174262,84814.8,67178.7
93911.4,115920,69126.4,95289.6,148026,216719,65109.3,76331.2
91124.1,102160,79933,87302.6,147435,183613,56172.9,73031
102568,103116,76713,96777.8,159524,193334,80139.6,73482.7
95978.7,86761.8,79258.2,88446.4,157867,195913,83505.4,73231.3
87662.7,110501,57807.4,107528,138333,206364,75201.8,76618.4
96057.9,126899,64982.4,114192,134644,241273,56112.7,86197.6
106550,125559,98410.2,86373,206130,196700,83260,74170.6
95023.8,99932.4,83344.8,84903,168095,178335,80608.5,74768.1
112610,111084,108461,91161,213373,170351,82493.6,69569.1
103154,101947,92834,75317.2,152156,160415,55925.7,58950.6
99206.1,99819.9,76714.4,106583,165099,190064,69737.9,73464.8
100170,108785,100150,90813.8,193358,192034,82278.8,73585.4
111720,90748.8,89754,70914.2,183463,146181,59053.4,55258.9
106768,117638,86192.4,92146.6,193915,202317,68326,88716.9
115005,113249,106576,65009,196231,152104,76350.6,83387.3
128045,122528,104503,81782.4,187177,153380,61891.1,63575.7
50135.4,97296.3,40959.8,74172,84343,167979,62890.6,55461
72383.4,115194,56030.8,106509,107064,209797,77471.4,54010
104909,112952,86846.2,101256,149611,178163,59023.9,75037.1
113157,100097,108692,79377.2,203907,154715,69864.5,61492.6
106508,106761,104580,49112,221738,156129,87345.5,65897.5
83046.6,57063.6,70915.6,29962.8,131116,63327.6,53692.6,61523.8
114648,89656.2,94439.8,66070.2,198617,121947,87484.1,57432.3
55824.3,96404.4,41424.6,89157.6,68885.6,186474,62310.6,56849.9
92082.6,130279,92514.8,86394,179392,159202,79363.1,60979.4
93656.7,85323.6,84235.2,83092.8,163275,160290,77554,63350.6
102359,113128,85150.8,89136.6,148424,153968,57923.4,55457.5
90535.5,94524.3,68866,89815.6,135202,166405,63574.3,54821.4
70512.3,106606,81736.2,80833.2,191738,189829,85891.3,80516.7
100714,94430.7,107738,93926,187393,158588,59915.5,65329.2
98624.7,95832,71195.6,75671.4,139367,142845,54210.6,56043.2
49321.8,95625.9,31095.4,80375.4,78743,157233,70579.4,57050.8
108770,90115.2,90501.6,81093.6,175011,156292,78473.5,67636.7
87992.1,96273.9,63732.2,70484.4,143870,153663,80738.8,69528.1
114490,104790,86800,103550,168505,180716,55514.4,63140.7
102490,85079.7,85111.6,64555.4,152790,152849,56320.6,55775
101671,106363,84862.4,81909.8,199741,169051,89119.3,61666.4
113829,100491,98196,106753,214473,198647,88299.6,64751.7
96308.1,111556,85815.8,95265.8,175738,160314,68050.1,64945.1
93560.4,108040,71734.6,97202,124401,198624,55765.3,59622.2
110337,120130,82244.4,125994,188593,240345,79019.1,87594.4
113721,92055.6,78085,75220.6,150196,180646,60817.8,78675.5
80429.4,130023,46034.8,103692,116351,189837,59541.8,70821.1
96926.4,93066.3,64065.4,65444.4,156218,131446,70776.2,54361
88343.1,102478,72100,90770.4,130628,189125,55449.5,88289.8
98746.2,99510.3,84046.2,82485.2,147314,167559,57533.3,75503.1
106921,89719.2,94546.2,116502,188318,198792,87018.6,66187
111997,99065.7,127173,81449.2,196332,146258,84760.7,56008.4
95697.9,103361,74711,109081,136718,216061,72336.2,81768.8
94191.3,90418.5,66284.4,81116,145599,152204,57608.7,55135.8
98892.9,77608.8,76993,48879.6,149691,98739.2,69518.6,64142.6
113524,104874,87403.4,93688,181951,192469,57025.2,80047
101552,107626,86207.8,114804,211959,244034,89141.7,80087.8
98061.3,101652,95260.2,86984.8,182935,164816,84223.9,68611.3
83576.7,109593,46618.6,102273,120159,192580,78133.1,69559.3
92152.8,145282,83878.2,123589,149853,249526,63839.3,86609.1
86473.8,106279,47618.2,77245,120203,145295,63798.4,58510.7
109586,130863,91814.8,109915,199179,187057,86835.2,61333.4
91136.7,123800,78393,110984,160671,196323,64281.7,79479.1
101121,99149.4,85867.6,71810.2,172122,143557,65257.8,56000.4
130173,98613.9,85059.8,98016.8,178529,193374,79147.1,74034.5
92187.9,108875,76255.2,96798.8,134172,174175,75039.7,75584.4
66091.5,96208.2,53580.8,62382.6,110390,145130,88475.7,74950.6
88895.7,97011.9,71506.4,88580.8,140990,156456,56501.7,62837.9
98474.4,113180,81694.2,86769.2,148989,172099,62171.5,70240.5
88956.9,107528,89259.8,116326,193449,229561,72043,75384.2
103186,103856,74440.8,86987.6,171619,161609,69261.3,82268.6
111046,112675,69994.4,93816.8,194716,198593,87707.9,80475.9
97568.1,107770,78699.6,102654,147574,199723,56048.9,83565.3
89088.3,98224.2,67085.2,70947.8,136018,157185,54344.8,64117
93842.1,104422,68509,105097,140022,181983,78748.5,76508.3
95384.7,87149.7,68786.2,83260.8,149117,178429,56070.3,62055.5
108478,95540.4,91933.8,112896,197694,211541,86075,73997.5
98387.1,112663,78437.8,109001,153817,205454,55866.5,82736.2
96020.1,138204,54153.4,131419,149863,243078,81744.6,87132.7
91736.1,65844.9,64785,61020.4,129049,96637.8,53778.6,63420.3
107904,65693.7,84044.8,63456.4,167490,103208,53918.2,69143.9
94639.5,93467.7,72748.2,78086.4,151978,148670,55194,65997.8
92614.5,98721,71633.8,65091.6,162424,162250,64807.2,61420.9
107366,108443,115076,101676,220517,183338,84857.1,58913.3
113811,77855.4,93116.8,74295.2,174307,146313,86350.1,59251.4
100913,152762,72402.4,114087,146406,237573,60513.6,84294.2
96515.1,93285.9,90258,61731.6,127966,139304,55398.5,62639.9
91926,107157,55553.4,94774.4,139314,210354,74680.7,65425.2
107182,106627,92258.6,88929.4,180853,171685,73252.3,68237.8
90333.9,114844,62279,104124,138561,179213,64807.2,69437.8
79948.8,60824.7,73455.2,54598.6,181320,98989.8,58811.3,54527.7
103777,106445,101268,100320,194218,199662,71134,87660.1
103134,109768,89091.8,63005.6,167681,131550,63401.9,61048.9
89073,94522.5,82451.6,82780.6,179703,147430,72986.6,54514.2
99270,101488,74030.6,103908,138149,193528,56337.8,88559.2
105989,95453.1,99849.4,95407.2,187939,181273,89097.4,60733.8
93536.1,95826.6,83626.2,61784.8,158522,120284,57973.7,85624.7
98636.4,115017,88671.8,81788,155434,173624,65872,61949.8
107715,86085,84274.4,76438.6,175822,132126,74444,82799.1
95703.3,103212,78734.6,127329,185686,233177,62207.9,78856.9
106355,79353.9,81258.8,52287.2,212906,105284,82761,59479.8
99737.1,79433.1,86756.6,95978.4,154584,157947,53830.7,53948.9
96494.4,132340,80945.2,110432,163936,197837,79896,83632.4
106467,112700,88004,99103.2,164752,173559,75194.2,68493.5
100095,91548,88177.6,54852,207493,127939,69510.3,54194.8
108038,135579,94185,108193,181933,193215,82012.2,86331.4
103038,101604,74978.4,77604.8,142715,189965,61171.6,63905.1
100723,107390,76041,83316.8,171662,175000,71660.9,66570
99453.6,126104,101052,87029.6,190820,192858,76189.7,81394.7
113093,90212.4,107654,89178.6,198486,207131,81527.3,66202.1
87955.2,117814,47174.4,87935.4,131312,169849,64767.6,76249.3
96220.8,91061.1,56911.4,62833.4,129513,144819,55264.2,56439.4
82954.8,100570,62679.4,109080,140557,227367,54927.2,81430
114939,97403.4,83260.8,84347.2,193995,155968,84849.1,68418.3
102473,91993.5,98816.2,101185,186802,193288,72665.1,70417
102165,98956.8,88849.6,67155.2,184219,153329,61516.5,66212.5
112165,106564,94525.2,77033.6,207420,154962,87478.5,67613.9
103132,107340,78101.8,124681,162393,200206,65304.9,81220.6
108397,109067,114789,74708.2,229356,158383,86627.1,79846.7
101493,138892,84758.8,94194.8,162198,206223,88785.9,77523.7
95329.8,78135.3,72370.2,80903.2,175805,204267,65812.7,79838.2
92289.6,103969,67481.4,69874,182997,179360,62585.6,64222.9
96370.2,94038.3,69840.4,70051.8,157458,149936,74837,54204.6
101740,100278,73988.6,66347.4,183550,147420,58920.3,69633.5
110496,91467.9,119939,68342.4,193831,150101,88875.1,64510.3
106271,118318,77071.4,89926.2,157451,208503,63249.6,88629.2
96106.5,61015.5,106529,50037.4,166883,96817,56723.3,71874.3
75266.1,120054,36951.6,108527,94430,208135,61681.6,82636.3
117732,113935,86454.2,90256.6,158570,204456,60494.8,70307.1
54387,99081.9,32895.8,111605,74450.6,200799,65292.1,67891.2
83820.6,111695,93431.8,118754,143665,211093,85144.1,87464.2
101183,98234.1,78649.2,98007,189396,181388,66928.9,75070.6
102697,98796.6,102522,113686,187550,224735,74073.1,76150.7
102045,105683,71990.8,93317,144525,173404,64031.4,69858.9
88830.9,96618.6,53145.4,70099.4,140372,154434,68673.4,80838.2
111677,83850.3,117009,65164.4,180743,169246,78455,58397.2
108010,137972,101522,98462,199233,197786,80733.2,63233.5
103927,101768,90095.6,86525.6,174234,189781,59908.9,77119.2
106071,85661.1,94516.8,92125.6,170748,172521,66370.4,64000.8
79901.1,101460,71106,123382,152566,226559,79970.2,65115.9
111270,110388,95965.8,101688,192860,161770,78618.4,53854.8
101066,109184,93333.8,99101.8,144957,206842,55061,87019.6
99981,92065.5,86772,88352.6,177598,170188,80378.9,78952.8
98459.1,97828.2,69911.8,133069,139761,228480,59392.6,81923.5
98082.9,91917.9,79996,74936.4,167415,163212,66281,68995.8
87894.9,96435.9,90069,93305.8,160215,156192,67225.2,55856.7
72249.3,100377,54121.2,80000.2,107752,155855,61691.3,67172.8
92539.8,106628,70287,75251.4,129270,161504,55120.6,83595.7
105404,116754,83885.2,87862.6,182421,187982,77024,74236.4
101040,96462,67564,93058,179941,161333,71710.9,62117
90527.4,114980,59564.4,113543,134341,219078,85916.3,85743.1
87715.8,105194,59595.2,113476,116502,199513,57615.2,87572
101427,105952,111608,73740.8,193781,181493,71974.9,60794.8
90055.8,120830,97169.8,136784,163079,231073,56277.2,85643
94665.6,108610,65522.8,96306,131908,213696,81202.1,63360.9
97772.4,104215,101331,101829,173886,189150,70090.4,58367.3
103043,119029,80686.2,149729,146817,249243,59982.5,83969.1
98157.6,98275.5,91530.6,89579,166232,180181,61806.3,72459.4
62010,84847.5,38110.8,78493.8,79724.4,156947,54306.8,59032.5
96354,99570.6,86598.4,113225,184671,222909,81596.3,86323.2
118936,107941,103995,95491.2,209370,186655,81877.2,72130.2
116030,124968,99582,110104,179739,236079,78277.6,84556.6
102640,105111,98583.8,91879.2,183925,144621,89165,60316.4
102082,123692,69886.6,116631,133641,217399,74255.7,87192.3
127491,121344,137864,112251,226815,183778,61111.8,57632.7
88045.2,120812,44007.6,96665.8,131716,196251,59066.7,83534.1
119273,121646,98212.8,115359,201470,202962,69381.4,78128.1
96847.2,85772.7,69119.4,54103,147892,122619,59995.5,55854.9
107574,92404.8,58982,76353.2,164255,160286,78648.6,57440.1
102359,99495.9,84169.4,87754.8,161525,150767,64855.4,53711.6
104282,95234.4,76783,86419.2,170383,152004,80150.9,71401.6
81040.5,99050.4,76213.2,102017,141120,203302,63647.1,80722.2
93120.3,88685.1,56313.6,66508.4,134340,121492,65357.4,61007.1
72719.1,109522,46771.2,82861.8,81719.4,176110,56882.7,76095.1
91655.1,111980,68959.8,98175,134537,204292,53879.7,68264.1
104031,114052,92792,116578,176761,222152,79167.2,85804.8
115192,142265,120827,103817,219675,220748,80179.2,81966.2
78465.6,107615,50855,75114.2,117802,151582,60214.7,57505
101370,128984,96413.8,83134.8,183884,201067,62685.2,88567
77904.9,88172.1,72749.6,84968.8,132584,191526,70889.8,65143.3
91379.7,107519,65641.8,127665,130225,222170,55249.3,74690.4
89865,87646.5,69189.4,64883,142961,134697,62726.2,72137.8
114164,109321,74922.4,94364.2,155194,211341,77566.6,82862.9
93885.3,113764,74396,76724.2,174371,161606,69270.1,61022.4
67716,113609,47731.6,120768,111328,204648,87439.4,84440
96765.3,108581,85145.2,83419,168979,177939,63723.6,58485.7
96558.3,84951,108304,70046.2,180400,121509,70669.8,57723
96272.1,133415,65818.2,86410.8,177121,207515,55148.8,68533
99235.8,100518,101868,78450.4,176805,170024,68059.5,73363.6
98099.1,119084,91938,67625.6,177993,171164,70383.4,66243.6
92012.4,82307.7,51233,57310.4,140028,106322,79380.9,53822.6
86970.6,102337,93521.4,139593,204415,236145,80653,68274.4
104208,78651.9,74526.2,64904,154223,103300,80815.7,54548.4
119629,67615.2,116441,25425.4,213151,83944,84949.8,54582.7
115466,128962,89524.4,95326,169693,199620,56570.1,64147.1
116939,111712,98316.4,79868.6,182063,157612,66077.2,62067.2
91663.2,108885,59830.4,119745,120275,220906,67344,87998.2
105548,109640,84499.8,89755.4,180230,181591,76902.6,69615.4
98493.3,84241.8,90006,76722.8,181503,142213,59345.2,71076.1
100503,96760.8,66857,67713.8,134975,148757,56295.2,79408.2
100328,68715,81032,49107.8,185067,107327,88162.8,60109.4
97022.7,89457.3,85482.6,65499,147487,134973,64628.2,58212
116252,135544,112724,100194,216793,196510,81574.9,89213.6
128669,104881,94491.6,101493,172168,190308,54935.3,62889.9
79573.5,117330,59276,101980,160101,208678,54222.5,84868.4
107510,94500,80987.2,86356.2,177948,180880,83400.8,76303.9
100635,94195.8,81498.2,76627.6,152377,155330,63660.1,69929
112353,63476.1,127449,27510,222453,71864.8,78503.5,57269.9
56054.7,113361,42116.2,105395,94362.8,188219,78431.5,61637.6
106452,56344.5,86655.8,62325.2,171126,125644,70908.1,56401.5
76660.2,115978,41552,118405,94852.8,224790,64435.5,82330.9
98554.5,100791,78580.6,88554.2,138162,170796,57872.7,63379.7
97601.4,107837,71498,113063,136839,199095,60559.8,73865.5
93912.3,119426,62780.2,93892.4,136483,173827,79011.5,62609.8
84221.1,105655,57155,115256,133526,203358,55941.5,71576.5
105019,132283,87875.2,102220,182179,180844,87310.4,60735.5
100475,102618,62027,88065.6,153982,180020,80533.4,56682.3
103776,109647,116512,104157,189672,179574,85023.8,83747.1
112712,92448,89696.6,65657.2,199459,123224,86202.1,56313.4
97462.8,103148,84831.6,124153,154151,225225,59092.4,89262.9
92928.6,142155,64349.6,89493.6,145191,225740,80832.2,83833.3
94004.1,83594.7,69944,90280.4,149936,197546,62986.8,69130.8
109624,92412,98756,83584.2,204996,144934,87572.6,61434
81630,100671,67730.6,111084,127196,188986,74647.5,84377.5
111201,122641,96873,94704.4,198314,193175,82591.5,79775.1
107978,114387,90868.4,79374.4,195355,160006,87884.2,65965
97058.7,122952,85166.2,103961,158529,203405,64915.9,77487.1
86752.8,95404.5,53030.6,82503.4,129811,167175,60631.7,62574.2
72517.5,92515.5,68161.8,73042.2,151540,161623,87943.7,61861.3
101120,129641,51895.2,102089,143949,174854,62365.5,65679.4
108134,114287,82951.4,91945,170171,195553,76978.5,78790.7
87756.3,80137.8,84166.6,100727,148474,188181,63359.1,61311.1
105359,118301,87498.6,145698,183778,245686,71449.2,86814.9
114734,107800,94462.2,69217.4,199261,136970,83448.8,81605.8
92997.9,103789,67865,85456,133385,154461,58336.4,76619.6
53545.5,118079,60690,122548,102735,195933,63635.3,70360
87732,95826.6,75699.4,64211,122730,140129,54957.2,84030.7
95679,126168,74116,117571,145044,251439,58467.1,87996.2
100435,148320,79485,102670,155877,220944,61088.3,84564.3
115775,105530,89538.4,99667.4,191272,206374,86136.2,81881.7
102794,108362,68416.6,115326,163073,217076,82852.4,88794.2
114484,83496.6,95606,62384,213286,178847,88431.1,65959.1
88833.6,117424,56249.2,117482,129968,237933,58605.3,81827.4
86601.6,116908,61985,87257.8,140531,178713,56763,81718
101870,96470.1,68717.6,82868.8,144438,162919,56079.5,67157.3
104015,109979,111846,96518.8,227335,153257,87247.7,58741.3
99198.9,97709.4,90406.4,71419.6,180048,144500,70998.2,57495
86076,105704,59493,70498.4,117125,151834,61008.3,60555.7
103374,113824,92435,105696,194466,201688,84104.1,84179
96228.9,80630.1,63851.2,75285,151423,133319,70459.9,54307.3
104782,84675.6,87914.4,43023.4,185669,112574,72494.8,63519.3
114910,98707.5,94385.2,58737,168820,150231,87156,87506.5
109082,152266,122849,116446,229411,214719,89025.9,77629.3
113467,113518,98106.4,121937,188502,234611,83731.9,86998.5
102121,114096,80718.4,80922.8,160671,178882,76040.3,81170.6
110330,117888,113270,118805,216685,222901,86743.8,85147.7
74529,91223.1,52424.4,88223.8,114246,141639,77641.4,56887.2
81719.1,105423,52645.6,69748,100647,125068,55975.1,66466.3
108267,85364.1,104833,76811,203654,142475,83503.2,62135.2
94682.7,70989.3,74590.6,77749,157125,123505,69799.4,67811.3
96174,93780,71722,126164,145261,237940,59767.4,87119
105924,134914,70565.6,113669,181586,244478,79673.4,66617.1
117544,111188,108476,98275.8,206123,183389,76378.1,55990.9
92174.4,89633.7,68251.4,91693,131788,160794,58181.4,77247.4
100939,91217.7,82831,68026,179876,141992,67418.6,83444.3
94739.4,94199.4,72654.4,116129,144600,194426,62168.6,62353.5
100665,101671,83630.4,83977.6,177388,199434,72429.6,85058.5
101583,136942,82989.2,114629,182816,250859,55052.9,73436.7
92825.1,97321.5,60785.2,74428.2,142762,192808,71377.3,65813.3
90827.1,101053,63866.6,76760.6,176268,161487,79922.1,61357.8
93123,96545.7,82241.6,99408.4,172773,174982,76629,55712.8
96866.1,96892.2,78464.4,87484.6,163870,169793,70885.8,74141.8
93969.9,108753,73908.8,105315,122703,230317,53623.4,86289.3
99021.6,92303.1,70960.4,74740.4,144361,147715,68394.8,59396.8
100272,130989,85982.4,132609,156255,208177,61208.9,77061.5
98977.5,78149.7,86303,56029.4,166250,107356,70482.3,78734.5
90101.7,109580,94826.2,102600,152379,170629,67729.8,64148.1
112390,95854.5,90217.4,79896.6,162915,175204,61879.6,65297.9
107246,87435,78744.4,95963,179788,172698,87828,62344.1
96819.3,103065,75423.6,84474.6,159565,150965,57326.7,63791.1
120405,125862,119825,76872.6,194977,194768,67476.1,71939.1
45576,101290,17263.4,135852,64682.8,250111,79712.7,88506.6
114175,115846,101189,97350.4,184754,175801,81610.4,61346.9
102925,94222.8,76374.2,88842.6,153978,200745,80788.5,70806.9
94496.4,106577,78268.4,94004.4,167343,202483,70730.7,88945.3
75717.9,71595,66040.8,70931,129821,111805,64065.2,67126
102998,119874,77816.2,121821,126242,217916,53676.8,87417.2
79249.5,102506,55979,72270.8,121405,146411,55897.3,56639.5
98204.4,118025,82633.6,98014,146446,194387,60400.4,73711.4
100283,106858,90945.4,106172,150510,184926,58257.5,60083.9
47763.9,93791.7,22883,99435,78842.4,179543,89071,70734.8
99040.5,87763.5,69575.8,63378,152233,142218,63099.8,56639
99340.2,103661,84378,88219.6,152296,178822,60575.6,67352.4
118441,112394,76301.4,85383.2,146650,179089,54663.7,80937.1
56564.1,94238.1,28494.2,68853.4,78164.8,137144,71547.1,85396.7
111618,83513.7,96108.6,108534,197155,205817,84315.8,66449.9
105286,109248,82917.8,106014,161199,207897,75785.7,85789.4
94068.9,95789.7,68160.4,73479,148372,120036,76441.8,62590
73173.6,88557.3,93616.6,70714,183586,150643,66942.7,81045
75807.9,121714,50960,116074,119189,219569,67463.3,72319.6
93744,106923,97230,106329,150611,219579,60516.1,81909
80581.5,53437.5,70184.8,58443,127317,101340,57938.8,56510.3
81836.1,117968,71710.8,92365,129497,210724,57019.4,83284.4
97580.7,135051,74993.8,109568,149192,212155,72320.7,80061
111307,112595,82357.8,99303.4,158269,183301,71613.9,63069.6
66402.9,89540.1,54700.8,84457.8,104804,148971,73108.3,75782.1
111111,113058,83157.2,76228.6,193183,171094,75888.1,89051.4
94888.8,105791,65235.8,96306,165280,188191,71957.5,71258.8
87256.8,130816,59372.6,112766,117972,209146,64305.4,80492
90610.2,110101,64325.8,127438,152488,230187,69800.2,78028.1
95042.7,107959,64265.6,126231,139196,225312,60603,79685.4
116274,106087,95302.2,112967,175868,211670,73019.9,84223
113857,131031,106655,89068,172357,194383,67896.6,83350.7
103908,95667.3,77583.8,74534.6,166620,152148,53930.9,65118.6
116256,88065.9,102598,60197.2,188696,154235,53880.8,74258.7
121434,95568.3,94161.2,70651,193414,172432,59929.7,64380.5
117213,114218,113898,102654,195047,193749,85636.5,81141.4
104622,89946,99904,60197.2,155656,123999,59935.3,65932
102583,102770,84980,140818,152305,245039,54986.3,88124.6
103596,86634.9,90514.2,69113.8,172876,145692,55583,63199.7
104833,39382.2,93707.6,21634.2,180086,65081.8,82540.1,59690.2
103351,94397.4,83259.4,63940.8,146105,141515,82335.6,62629.8
95004.9,103876,91819,71036,158851,186542,62985,60069.7
102692,136534,84390.6,94061.8,172645,198929,81149.6,85324.3
84620.7,156896,68181.4,108767,122410,220469,56495.9,87516
96603.3,106270,73144.4,95300.8,127667,197424,61386.4,75556.4
99125.1,89397.9,87015.6,61007.8,162509,134898,60857.8,54210.1
86073.3,114203,84651,72742.6,139471,175795,85164.7,84786.1
95016.6,97145.1,70098,84219.8,156414,173212,69811.3,69509
91329.3,115124,72121,109465,162490,212092,70216.7,85239.6
92615.4,91947.6,89821.2,88181.8,198016,147668,77753.1,73686.9
88072.2,117289,76522.6,134250,141956,239656,58081.5,69554.7
63620.1,110777,49053.2,94176.6,100059,176677,70604.7,88540.1
105593,106964,88534.6,89602.8,172668,188548,78996.3,88036.6
80004.6,87069.6,47223.4,61398.4,104028,138425,62603.5,70392.4
84134.7,116713,56681.8,90242.6,120158,159754,56172.8,65705.8
98059.5,110631,78604.4,123841,141562,194818,61015.3,57539.6
122764,107123,75892.6,88641,167826,173933,53935.3,78172.2
100024,86227.2,71757,93865.8,152925,189976,76259,71129.8
98568,114534,73735.2,116885,150275,205850,56048.5,71364.5
119630,105341,114631,100226,213949,187365,78119.7,60664.9
96960.6,109038,67551.4,110419,134688,187809,53662.6,59762
118968,108963,105073,112064,177666,201341,64449.5,73770.5
98956.8,106686,65934.4,98203,149250,181790,55588.3,65378.5
107383,93504.6,87486,62379.8,174166,119332,83609.9,83989.3
102159,100592,99019.2,71960,218327,178693,89008.4,69003
113188,99907.2,108034,80701.6,189609,140715,88906,54349.8
120267,108405,112101,84813.4,197921,165354,83923.6,70160.6
100044,113332,83111,97634.6,136822,195616,73023.8,78212.5
83277,95732.1,37426.2,91487.2,122846,184913,88003.6,62618.7
98425.8,129459,77606.2,83133.4,141886,210785,59332.1,87561.6
90743.4,59248.8,62879.6,76853,125537,104558,63376.4,56008.2
95465.7,101591,96422.2,64904,196535,170790,83182.1,69685.6
100488,113098,83452.6,82797.4,155803,188569,71278.2,72680.1
92573.1,121600,72139.2,90888,144578,181464,55114.1,59879.8
108203,116105,112776,75196.8,200227,174783,76922.6,58089.1
108928,99270,62949.6,81417,164444,207257,86484.5,85858.2
111489,129262,94584,93289,187508,176375,89186.1,85352.7
100822,83693.7,74508,59137.4,179351,119902,62012.8,56520.1
97600.5,107721,90966.4,103512,158904,219972,66534.7,88912.4
101842,101599,91665,102799,177869,197526,69817.7,57373.5
89316,112730,60208.4,85285.2,125709,160271,73338.6,60231.3
123807,122962,77086.8,94598,190975,170803,88188.6,76393.6
101992,89538.3,97847.4,102248,207844,183023,88118.3,59167.9
96239.7,78624.9,70910,98936.6,134109,183672,53804.4,66255.3
94868.1,97470,62218.8,75100.2,145487,158999,60341.9,56214.6
60237,100617,72378.6,64101.8,116689,187828,53688.6,82538.7
105664,130198,84771.4,80284.4,171893,184688,59895.4,69552.4
87277.5,83505.6,66424.4,100477,147666,160510,62900,53727.9
112610,102872,116018,73089.8,190380,154869,66411.7,66630.2
82143.9,100083,56637,70135.8,112788,167020,55021.2,75386.1
119233,108613,74111.8,94494.4,157069,191566,76084.9,83382.6
94066.2,90468.9,72737,65522.8,145950,133388,57861.3,73575.2
92893.5,116585,105623,122419,190128,220150,54647.3,55254.5
90777.6,53431.2,78526,24908.8,162547,74698.4,59606.5,54084.1
102657,67606.2,92457.4,39582.2,158801,90168.4,67794.6,63208.9
102017,125676,79583,107001,148663,212569,67199.4,88586.2
104014,130910,82149.2,93333.8,192741,174292,89217.3,61688.8
102914,96737.4,85720.6,82040,171385,179102,57336.2,70240.3
60233.4,92871,50506.4,69494.6,93662.8,144787,57397.9,66263.9
73586.7,100154,65879.8,68622.4,116388,142456,84026.8,71477.3
79047.9,108076,56610.4,97773.2,146447,202576,76679.5,84516.6
102974,87419.7,78895.6,52753.4,161381,127175,82937.5,78645.9
96086.7,94178.7,77495.6,95261.6,154855,183851,54544.9,78710.4
86661.9,77095.8,61003.6,72216.2,169529,136653,73082.7,76225.5
100354,101484,68390,93493.4,149405,188594,59488.3,76030
90563.4,100163,55839,68688.2,121286,167826,61094.9,75528.9
87854.4,93917.7,86067.8,79972.2,143493,179353,57931.1,78416.5
107307,133419,90893.6,126780,196248,201299,67047.8,64352.7
97117.2,113460,94774.4,101794,155989,208690,64946.3,80564.1
96804,118156,69850.2,112116,155459,214977,79882.9,75655.1
72562.5,95689.8,37182.6,81887.4,90542.2,172074,54840.2,88754.3
98883,110328,79798.6,104684,183448,206352,78543.9,79758
93996,123304,88908.4,114538,153181,197445,75600.9,76985.8
85219.2,46740.6,78720.6,30548,141924,71271.2,58017.8,55661.3
105371,103406,72958.2,77344.4,186560,168812,84481.7,75365.8
96055.2,124807,69934.2,120067,131106,232609,72443.4,77927
97371.9,115896,72209.2,88334.4,156113,161417,79873.4,74789.9
111682,118194,110505,86485,214873,161925,82589.2,60526.7
100892,99759.6,83365.8,78108.8,142905,160325,60265.9,55532.1
104666,89022.6,74386.2,88461.8,168279,153705,85661.6,58363.1
102841,102568,88247.6,90094.2,185207,212734,84173.3,71535.9
94177.8,128207,61167.4,106634,154304,184240,64349.1,79489.8
50601.6,93796.2,40100.2,84121.8,93447.2,146360,54784.3,58629.4
97237.8,109141,69336.4,85661.8,161925,177622,61862.3,69210.9
88659,102511,77267.4,77697.2,194593,183722,74407.7,77641
86537.7,147310,66841.6,95200,133279,214441,56279.8,84280.9
106478,110672,72766.4,108010,159657,198087,54842.6,60608.2
108706,118324,72318.4,122339,153808,231822,63175.1,81522.4
106232,112318,111390,83147.4,176866,176033,64075.2,58324.4
83330.1,105203,64351,93321.2,145194,199699,56074.4,87012.3
94423.5,96119.1,80348.8,73943.8,173205,131621,79800.9,69428.8
85902.3,124137,57118.6,126181,107173,230892,59408.4,78496.7
113564,96190.2,97603.8,69689.2,222200,129077,86909,56515.1
116693,106053,143254,111987,230552,204004,87883.8,82472.1
,102040,,65681,,150387,,55114.3
,113449,,110327,,176176,,69128.6
,120050,,127260,,217095,,69675.9
,126807,,108213,,214411,,75720.5
,86250.6,,60876.2,,125425,,54432.2
,108151,,94249.4,,156895,,85770.3
,75736.8,,66770.2,,149765,,59874.7
,116883,,136865,,240820,,88884.7
,80856.9,,57166.2,,151983,,65676.9
,89779.5,,90491.8,,192793,,74646.9
,99420.3,,109953,,198107,,77366.3
,105425,,108378,,222354,,87842.5
,116752,,129010,,209574,,74872.1
,93265.2,,53135.6,,117361,,69762.4
,109007,,93458.4,,183084,,86552.1
,91742.4,,64516.2,,146944,,59491.1
,88356.6,,64541.4,,156687,,64837.3
,110862,,103331,,205818,,84130.4
,83052,,91165.2,,155796,,59935.8
,100686,,73458,,158686,,61527.3
,101011,,102026,,162316,,66880.7
,90232.2,,57195.6,,137411,,60429.6
,128992,,101366,,208923,,87879.1
,86137.2,,56660.8,,120943,,56263.8
,95499.9,,113784,,185233,,53920.4
,107477,,82266.8,,183508,,85546.9
,109956,,87943.8,,151955,,63508.8
,92628,,77065.8,,159135,,54535.5
,103471,,73784.2,,145277,,59766.3
,103763,,113560,,199697,,68354.6
,94591.8,,87733.8,,142114,,56514.3
,113138,,78628.2,,164258,,69934.8
,116428,,111922,,236919,,87221.3
,131265,,90564.6,,222125,,84134.9
,84558.6,,92979.6,,162841,,59248.3
,114052,,96240.2,,177568,,83588.3
,96706.8,,107860,,176828,,60590.3
,96609.6,,83966.4,,141660,,77068.2
,88659.9,,76102.6,,167818,,78265
,112776,,72692.2,,157569,,68867.1
,83517.3,,56231,,132416,,71077.3
,109011,,113666,,217493,,85143.5
,111041,,108259,,240983,,84525.5
,114860,,134068,,229478,,79743.6
,103887,,95678.8,,168337,,55342.1
,109867,,105298,,214578,,77777.2
,125830,,81912.6,,172206,,60924.8
,89343,,85514.8,,132072,,84198.5
,89874,,54749.8,,120198,,64535.1
,110144,,95170.6,,162992,,54399.9
,107244,,95832.8,,175239,,56660.4
,118666,,91058.8,,166842,,59573.6
,102560,,54976.6,,121226,,53802.1
,128533,,105819,,179336,,56114.2
,110284,,106866,,191761,,70306.4
,111268,,95396,,196407,,75507.3
,97785,,93037,,195535,,72997.3
,120745,,90717.2,,174234,,53741.9
,107835,,84933.8,,190309,,65467.2
,100928,,70616,,151085,,79324.6
,79031.7,,77798,,132184,,56952.7
,113099,,90251,,159522,,66669
,102026,,132301,,236862,,86295.5
,100420,,93585.8,,161326,,61284.5
,92444.4,,105395,,184661,,78246.8
,95631.3,,122942,,237889,,88124.7
