"FSC-A","FSC-A","SSC-A","SSC-A","FITC-A","FITC-A","Comp-PE-A","Comp-PE-A"
96425.1,58893.3,60792.2,39526.2,128148,91789.6,42722.1,46817.1
92006.1,106356,67736.2,106970,130453,170857,49723.9,49546.4
72096.3,67931.1,43475.6,39797.8,87739.4,88107.6,47188,49245.5
103476,89783.1,93191,75516,159557,127116,50694.1,45209.4
61223.4,88479,42128.8,62560.4,95797.8,118987,45327.5,49930.4
73976.4,64215,45203.2,50510.6,96873,104682,45218.8,47289.2
97294.5,69990.3,70135.8,38679.2,150105,96356.4,52675.9,49038.5
82278.9,76345.2,45624.6,70481.6,105540,133424,48841.1,48118
75404.7,72540.9,47223.4,45201.8,111184,92932,47516.7,49853.9
89883,132180,61028.8,100929,132275,184288,47303.5,46460.6
99525.6,87556.5,76381.2,42835.8,137948,109022,49531.7,49260.9
80968.5,68164.2,58324,32981.2,100603,92918,49927.2,49086.2
68916.6,63531.9,41435.8,35268.8,90505.8,89177.2,45889.6,49226.7
81798.3,73635.3,42985.6,43997.8,99089.2,111376,47925.7,45338.2
86938.2,76167,69897.8,62913.2,141028,123768,45321.6,49385.3
85353.3,85046.4,91351.4,64164.8,145235,122762,49123.5,50267.9
89721.9,63736.2,60074,37234.4,116971,87637.2,48270.1,45423.7
66164.4,70938.9,41379.8,38722.6,98061.6,88085.2,49438.3,50824.8
89864.1,79350.3,62574.4,81453.4,129153,145391,51122.9,46237.6
91225.8,118418,73143,100650,127443,176009,50619.7,49384.2
62490.6,95787.9,36503.6,101759,89156.2,180831,44412.1,47047.2
93617.1,85711.5,63522.2,77015.4,130148,122076,48880.2,46932.2
49645.8,87786.9,59192,48934.2,92948.8,104464,43841.2,48208
99635.4,108821,63819,95699.8,122850,179663,49598.5,50365.2
88701.3,91130.4,97414.8,75507.6,156464,139208,50926.2,43653.9
102311,70946.1,79965.2,53146.8,153581,116411,50669.8,43829.8
86252.4,71850.6,78789.2,38350.2,117037,91124.6,42312.9,48300.2
83878.2,116890,64670.2,107387,132406,181686,46967.2,46454.5
76660.2,73062.9,64290.8,43443.4,119346,107232,49183,50087.5
83658.6,108221,71262.8,62533.8,121003,142127,45187.2,52982.6
77638.5,71276.4,52334.8,58997.4,97741,114828,48182.7,49077.9
77969.7,106541,83274.8,94465,148642,178101,42611.2,50773.5
88482.6,79327.8,76823.6,48941.2,128702,116179,47493.1,50339.8
79074,89521.2,51443,63599.2,106302,130847,53385.7,50595.3
84821.4,92606.4,50885.8,48441.4,115311,109378,49828.7,47532.3
95903.1,51696,70628.6,38232.6,143875,88256,51296.4,47349.9
72804.6,95661,43244.6,56767.2,93534,120415,49161.8,46061.8
71248.5,85965.3,38830.4,60187.4,97241.2,115116,45464.7,50477.1
85786.2,89933.4,73243.8,63333.2,138820,134282,47199.1,46746.8
76642.2,86925.6,49949.2,60566.8,99122.8,140293,48071.9,46421.5
94306.5,90177.3,60383.4,61448.8,144423,136884,50686.3,50654.7
101203,104946,104544,82254.2,159309,163064,51588.2,48711.2
76817.7,72516.6,54628,46846.8,104595,114633,51539.7,49046
100885,105377,73886.4,80315.2,132675,165298,51099,47761.5
81355.5,67115.7,41505.8,37451.4,103111,97776,47313,47928.4
82075.5,109173,68150.6,60996.6,112325,138240,49376.2,51724.3
86831.1,68651.1,61766.6,49947.8,104959,95851,50510.5,49227.2
100009,64150.2,84043.4,60523.4,154314,111527,52770.5,46949.4
96519.6,80182.8,86146.2,62906.2,143630,123686,52810.6,45465.1
90303.3,73096.2,38841.6,54419.4,99092,123624,48960.1,49700
71852.4,72464.4,42989.8,49898.8,94780,101665,45333.1,47985.3
99148.5,97706.7,60319,75485.2,125390,163867,47960.9,49744.6
82196.1,61623,54731.6,40754,118252,88662,46533.5,49351.7
72544.5,95940.9,31262,65917.6,88053,126008,49674.7,50312.6
70111.8,83736,41470.8,47474,92989.4,119403,44402.7,49292.6
92738.7,70879.5,70859.6,46412.8,116341,99268.4,53243.9,50884.7
83729.7,76099.5,54457.2,66395,138293,110706,50465,46006.8
87480,69991.2,57831.2,33056.8,132917,87438.4,46330.1,53493.9
83434.5,96831.9,60671.8,51594.2,101865,122683,48694.5,49288.9
100146,76065.3,57436.4,45224.2,151826,95825.8,48115.9,48183.1
88398,97672.5,84137.2,67195.8,149022,143188,47210.4,48399
97091.1,92750.4,78255.8,70208.6,128344,135477,51356.9,49444.1
90652.5,59592.6,65179.8,49532,130183,107230,48611.9,45627.2
89862.3,95919.3,57793.4,67404.4,116428,150872,49031.1,49133.6
80364.6,70750.8,53328.8,40413.8,101037,90715.8,49439.4,46115.2
64469.7,75973.5,47891.2,46236.4,119256,112340,42590.7,44846.1
88293.6,110844,74949,72230.2,116991,163524,51211.6,51367.4
71463.6,80483.4,33245.8,46403,100671,103404,46039.1,50632.7
91901.7,77004.9,72657.2,60438,122704,109871,49988.9,46256.5
101470,93492,62578.6,63716.8,147434,131642,48876.2,49253.4
90552.6,66195,62774.6,45557.4,125926,108735,48505.1,47349.3
76666.5,98076.6,46841.2,66708.6,95270,136447,47374.2,50826.3
74706.3,73705.5,74459,43915.2,132653,97374.2,45858.9,50042.3
68817.6,73141.2,48696.2,32947.6,95426.8,107612,48700.8,50362
103594,55138.5,76347.6,45642.8,154623,91064.4,51711.3,49389.1
58848.3,70290.9,45577,57668.8,88128.6,118308,48069.5,47092.6
75034.8,91096.2,45707.2,66176.6,117139,141555,45545.8,51354.3
96688.8,98405.1,70165.2,74128.6,140206,164149,51071,48715.2
81133.2,134404,50792,100125,118793,183728,49051.5,48730.6
88384.5,122859,62662.6,93206.4,118334,181329,47847,44532.1
92571.3,59451.3,82923.4,46516.4,148036,102082,44467,45730.4
85035.6,87485.4,75962.6,87920,136625,147175,43058.6,50227.4
86500.8,101127,88772.6,63709.8,137976,144484,50565.8,48951.8
86571.9,78860.7,64911,56268.8,110167,109656,52189.8,49371.7
86004.9,94499.1,56289.8,65573.2,116725,136181,48955.5,48063.5
67747.5,100760,41305.6,76689.2,90545,138120,46857.2,53696.5
64294.2,87555.6,30433.2,53347,93297.4,118700,45193,49395
78985.8,75558.6,45494.4,44952.6,130227,95838.4,50893.8,49754.5
82605.6,119495,64772.4,67992.4,99339.8,140440,48501.4,50133
82082.7,79791.3,45781.4,50418.2,110606,97718.6,50107,44624
85730.4,61688.7,70978.6,46006.8,134382,89623.8,47149,46713.6
92592.9,92395.8,78640.8,81683,164350,137767,47177.3,47582.2
88857.9,92812.5,62648.6,74942,121926,148758,45770.3,45675.1
88030.8,72256.5,60656.4,37049.6,113462,90610.8,44969.5,48632.3
93550.5,51854.4,68447.4,15111.6,128954,112295,50818.2,45248.1
83057.4,88933.5,47675.6,60288.2,112129,117407,49071.3,52843.2
113488,62329.5,76554.8,44301.6,145575,97098.4,52647.3,42284.9
84955.5,72566.1,54266.8,48651.4,97869.8,110449,50750.2,47575
89320.5,80939.7,65921.8,48784.4,126410,96787.6,50452.7,46373.8
87631.2,112778,41697.6,86807,117421,151280,50621.8,51310.3
93735,65864.7,65746.8,40520.2,113807,95508,53703.7,45913.7
88616.7,61572.6,33168.8,27860,99297.8,87631.6,49387.5,49087.9
91959.3,84812.4,74655,73365.6,141355,129552,48816.8,48559.8
80826.3,105998,53838.4,79357.6,109120,153664,52919.7,49652.2
85194.9,96240.6,46695.6,90123.6,122864,162835,49575.2,48995.1
87787.8,88575.3,51662.8,67078.2,107804,131932,50608.3,48875.9
83822.4,89381.7,55570.2,75737.2,110369,131144,50677,50208.9
88623,75498.3,81704,34120.8,145594,110481,49036.8,49930.5
86043.6,92159.1,90468,84473.2,149775,179045,50604.7,47981.3
77115.6,111573,73416,53968.6,107101,126784,51875.5,50253.1
81450,72549.9,47133.8,53624.2,102466,118532,47012.6,43909.7
86511.6,116063,87801,98592.2,125943,160637,48068.6,51459.9
91557.9,70146.9,69203.4,54989.2,126672,115058,50782.6,47461.2
101462,122344,88120.2,81575.2,169443,165980,51076.1,50842.7
86561.1,82040.4,56847,53398.8,116325,130336,49740.8,49063.8
82362.6,108924,59402,79983.4,114890,170156,45183.3,47323.3
93097.8,83597.4,67216.8,51962.4,118152,116479,50551.2,47160.2
88079.4,79073.1,66253.6,61549.6,139990,113035,47310.8,48927.5
83620.8,86996.7,47468.4,59669.4,118922,115283,46511.8,49129.1
88000.2,98561.7,65559.2,59287.2,123862,131324,47797.1,49887.6
95163.3,97490.7,79517.2,76721.4,148960,152796,49636.4,49024.9
88067.7,80325,64530.2,57981,121974,104616,48548.9,48895.1
76086.9,75521.7,66598,53365.2,98578.2,115224,50192.4,48183.8
86776.2,80970.3,64772.4,48924.4,135552,103461,52736.2,49426.3
73576.8,84884.4,40117,83612.2,90396.6,152824,49458.4,44001.2
67593.6,101067,35756,91736.4,88825.8,151676,48538.7,49047
73811.7,110646,26457.2,106666,92766.8,168435,49520.4,49632.1
90929.7,95178.6,65410.8,67288.2,132110,123064,51389.8,50231.2
71996.4,56164.5,52882.2,44955.4,93816.8,103725,46872.3,43338.6
80521.2,72230.4,52670.8,46358.2,115060,107139,49274,47975.4
85274.1,86436.9,57344,64691.2,116445,110852,49305.8,50100.6
89143.2,67912.2,55795.6,38529.4,123808,90602.4,50379.5,48987
49577.4,99282.6,26177.2,111213,95345.6,183436,49256.4,44736
102838,72801,79566.2,42355.6,151085,98219.8,46497.4,48900.1
73923.3,115003,38309.6,80418.8,89275.2,183918,48633.6,44722.4
97483.5,71799.3,68189.8,61290.6,134821,122947,48364.6,49265.9
78084.9,114298,58375.8,84107.8,105812,156507,45064.2,50069.3
74415.6,89676.9,42515.2,71065.4,93294.6,128097,49509.4,48601.2
82967.4,87264.9,59862.6,62945.4,120021,112706,47788.8,46110
90453.6,63291.6,53488.4,59225.6,122002,110012,47956.3,50937.2
96012,99841.5,73565.8,99737.4,126640,184528,49603.2,48331.9
77322.6,66660.3,59921.4,32207,117111,97395.2,49838.6,50619.1
71219.7,91819.8,71076.6,56847,119162,115529,42762.1,48716.7
88249.5,80020.8,50024.8,54721.8,120168,104609,51414.9,50056.2
95377.5,99423,79174.2,71730.4,149605,133301,52986,50585.9
82739.7,103785,62525.4,86770.6,129381,158595,47344.7,48489.5
93649.5,98883,65639,89689.6,133542,177300,48843.8,48565.4
102297,88137,125030,82744.2,146525,152995,47628.5,48436.3
87851.7,78202.8,52477.6,49225.4,123750,102819,48956.7,50856.2
102431,80770.5,69342,61292,144645,115261,52490.2,47033.4
85098.6,70694.1,82387.2,58079,143508,108209,47420.2,48053.2
99565.2,101403,84799.4,67030.6,143553,136144,53204.9,52781.1
99948.6,65695.5,78341.2,32305,148875,104097,52747.3,47425.8
93144.6,95291.1,61012,82023.2,132031,155824,48037.7,49323.4
107235,67391.1,68938.8,51322.6,137570,106102,53683.8,48237.1
79203.6,74154.6,59206,47045.6,128248,110212,45222.8,43158.2
76303.8,82402.2,73087,49476,132832,116409,46673.1,48329.6
84582.9,82901.7,53403,57407,104052,127275,49884.4,48563
110647,83593.8,77285.6,50779.4,132871,100726,45920.1,51442.3
71548.2,76030.2,38207.4,60442.2,93760.8,127341,49074,46611.3
82310.4,102685,48647.2,106917,117569,169060,53176.8,48255.3
89705.7,100655,65563.4,84782.6,144098,154634,48614.7,50160.7
84557.7,89244.9,58223.2,85643.6,125173,157427,48615,51411.4
92769.3,93888.9,86629.2,57785,137334,129836,47747.9,51031.6
91960.2,79083.9,63572.6,53865,126735,114218,49118.1,49200.8
84452.4,98925.3,47801.6,73798.2,102829,147169,44323.1,46002.6
82124.1,75284.1,50653.4,33707.8,109812,100556,49836,47256.3
49795.2,109332,44021.6,73578.4,104723,142874,51268.1,48583.5
85813.2,109423,59662.4,92759.8,120505,185097,49434.1,51129.4
102243,59374.8,101591,30301.6,169813,87971.8,49224.7,46772.3
77070.6,67010.4,54845,55995.8,106263,110834,52877.3,45004.4
70914.6,66291.3,51742.6,58548,105335,106373,45116.7,44316
73795.5,98449.2,49917,76921.6,111975,166384,47929.3,49117.8
96705.9,100163,59694.6,94731,127973,159264,46001.2,52056
76941,95854.5,52141.6,80242.4,106763,146021,44853.1,50989.6
75413.7,71544.6,74009.6,43719.2,136158,101567,42043.5,46470
81279.9,65906.1,51870,37405.2,104808,126619,50514.9,49267.2
94686.3,77047.2,64953,40511.8,146691,109570,49255.6,49492.2
77542.2,79491.6,46247.6,43317.4,110461,102726,47053.3,50179.1
75015.9,70456.5,56673.4,33556.6,101767,92636.6,46388.2,49564
81279,90270.9,58573.2,61208,135897,127595,49249.8,48162.6
73286.1,59736.6,42303.8,45004.4,101752,96594.4,46737.8,46638.6
71258.4,92104.2,44223.2,53750.2,106001,151273,45134.3,44541.8
81722.7,95536.8,47576.2,64895.6,106800,140066,46249.2,50595.9
59251.5,62987.4,59808,50356.6,114003,99547,47826.2,47110.1
88629.3,107849,62332.2,73738,121827,171608,47413.4,48600.9
86301,122524,39550,95110.4,115231,162018,48576.7,49021
72891,74183.4,53522,41444.2,88174.8,89122.6,47653.5,51093.7
80761.5,78869.7,59966.2,66712.8,109834,125936,48031.3,48508.6
106169,71910.9,89163.2,45215.8,186599,94075.8,53215.7,45329.2
92378.7,89999.1,51835,77579.6,109486,133134,49682.5,47822.1
76712.4,98802,55615,106172,109059,153868,44838.7,53700.1
70538.4,67447.8,69248.2,32170.6,122550,94810.8,45684.3,46924.3
83729.7,76801.5,59341.8,49327.6,122079,126962,48892,47894.9
84700.8,77272.2,56491.4,38064.6,123150,93137.8,47306.5,49200.5
86607.9,91810.8,63252,79167.2,118199,143178,47386.9,51720.5
91995.3,100197,85251.6,61020.4,129714,136539,52372.5,50093.6
87344.1,44563.5,66976,8531.6,117547,117930,48663.3,43894.8
75487.5,92759.4,52120.6,76350.4,103774,139075,47431.7,53178.5
90090.9,74115.9,51598.4,38052,119508,100510,49063.1,45761.3
84953.7,74415.6,54311.6,58711.8,109757,112690,49590.4,46041
82932.3,83659.5,46209.8,54594.4,96868.8,111945,49626.3,52264.2
91600.2,102608,49211.4,51144.8,126319,123456,49750.3,50097.5
91347.3,74358.9,80684.8,52967.6,124247,94722.6,52194.3,49266.7
87049.8,91524.6,76158.6,71338.4,128654,163499,52093.8,53611.9
77744.7,96578.1,76475,92103.2,127182,165102,49693.4,50696.3
79250.4,117536,53655,68075,127739,155156,49506.8,53458.3
82123.2,91399.5,46506.6,68692.4,99523.2,141128,50365.3,46674.3
88084.8,75753.9,55406.4,42030.8,105812,109308,43300.2,50233.3
85945.5,93460.5,66788.4,70798,114596,151728,45668.9,51905.2
90973.8,96529.5,63411.6,66921.4,116892,156078,49819.6,48277.7
93457.8,61344,68056.8,32572.4,131151,117097,49515.5,47430.2
87729.3,109713,64010.8,85930.6,151900,167289,52658.2,52434.9
87752.7,54341.1,47723.2,51121,105241,96367.6,46647.5,48033.9
63233.1,93756.6,50087.8,67576.6,94981.6,139938,47401.6,48973.3
73950.3,85044.6,49869.4,52687.6,93277.8,114220,48240.7,47240.7
96896.7,81898.2,97686.4,53215.4,159886,126207,46735.6,46558.7
85255.2,104587,63877.8,91116.2,120456,151974,50585.3,50277.5
79075.8,75032.1,61090.4,60351.2,108914,117039,44093.6,48162.1
92674.8,100961,72976.4,81837,130953,147655,49713.3,50995.2
78442.2,111176,44024.4,93766.4,98418.6,175914,47240.6,50479.7
91487.7,63958.5,67533.2,50093.4,122507,105273,50385.5,46757.4
89852.4,77098.5,60015.2,46782.4,125601,105979,48509.7,44280.4
86420.7,96476.4,50052.8,85072.4,115440,147610,50600,50401.7
79856.1,69486.3,55395.2,66563,104331,113586,46311.4,46544.7
80970.3,81957.6,50282.4,61283.6,104724,143268,50052.8,46461.7
83304.9,81223.2,68287.8,49460.6,124289,118049,46221.9,48295.5
85376.7,86535.9,63058.8,51940,118776,109264,48463.2,49044.8
92961.9,103233,58948.4,74803.4,118373,142850,49650.4,51166.7
103630,67987.8,67363.8,37041.2,150935,89082,49886.9,50101
81646.2,61137.9,46078.2,55192.2,113859,104077,49603.9,49226.1
81834.3,92606.4,59353,64800.4,127334,125402,46961.7,50708.3
60573.6,96892.2,44648.8,74655,89262.6,146296,49180.5,50681.7
83258.1,51591.6,72051,47495,118524,102267,51177.6,47332.4
90668.7,78651,66957.8,43303.4,124615,99066.8,48528.6,49341.2
83781.9,76032,53488.4,66039.4,124449,123599,48664.2,43313.5
69979.5,95072.4,41039.6,70068.6,94458,139303,48036.8,51363
69700.5,88693.2,40367.6,59116.4,90183.8,133588,48800.5,51509.2
90715.5,61906.5,63774.2,32571,142827,90262.2,46985,46602.9
75096,99558,38568.6,86032.8,95968.6,156852,49202.7,49738.6
87724.8,73395,59239.6,68398.4,127638,128327,49715.1,41721.8
96530.4,74142.9,67351.2,44865.8,137750,102369,48743.9,50015
62420.4,96068.7,49005.6,74996.6,108521,138550,42996.8,46619.1
93727.8,73673.1,67809,40139.4,147945,109141,50708.6,50562.1
78532.2,94624.2,47125.4,75622.4,98232.4,159995,49908.7,52283.5
93366,72978.3,76167,35460.6,152901,88942,53489.5,49235.2
82719.9,65321.1,71303.4,40462.8,122038,88076.8,47160.1,48147.1
95801.4,64553.4,82076.4,33332.6,154022,92748.6,51995.9,49447.4
96351.3,76643.1,60265.8,58028.6,135633,95309.2,49883.2,46080.8
97831.8,64618.2,88995.2,32453.4,148316,101091,48705.9,48650.4
88973.1,94961.7,68297.6,70232.4,127735,138632,49007.3,47436.9
79749,75060,57531.6,48599.6,116781,114716,49980.9,49208.5
67077,106016,58756.6,81211.2,91204.4,153611,43060.3,50378.1
79191,82647,46919.6,76592.6,105116,152898,47826.1,48522.5
70054.2,80965.8,39306.4,47604.2,91680.4,107264,49838.5,49749.4
96358.5,55554.3,65035.6,40126.8,131629,86977.8,49273.9,49021.9
101090,93474.9,43551.2,76563.2,141280,149419,43846.1,46194.3
86031,72213.3,59442.6,38025.4,116449,90172.6,47324.6,47829.6
84807.9,109854,67902.8,66333.4,146002,145116,43169.1,48822
81421.2,103247,51416.4,63536.2,112935,145793,48473.5,51689.2
75898.8,73800,54164.6,42036.4,111412,102512,43039.8,49153
87115.5,94322.7,71229.2,77361.2,124022,143112,48492.2,51124.2
78872.4,65683.8,52103.8,35827.4,109458,89468.4,48035.2,48486.5
86138.1,72301.5,77740.6,39669,120014,103083,45297.3,47566.9
120146,67035.6,76335,41238.4,162109,100722,50354.8,48429.8
69236.1,81229.5,43027.6,48771.8,94866.8,109907,49555.4,50169.9
84319.2,110095,55515.6,73497.2,113327,178122,49493.4,49290.9
95526,80523.9,86889.6,45158.4,186320,101524,44237.7,49975.6
66306.6,67934.7,31298.4,38596.6,88482.8,97312.6,48928.1,49588.6
105377,85695.3,65097.2,68209.4,134799,125174,49848.7,47566.3
100274,90494.1,68460,68266.8,142765,145645,48680.3,49145.4
74361.6,112909,46456.2,82440.4,102903,166337,51510,46515.6
91348.2,91333.8,70917,69171.2,153223,145205,51534.9,50470.9
89994.6,85947.3,81302.2,86770.6,128271,154500,47473.9,45210.8
84037.5,76266.9,37815.4,68272.4,110848,115791,48933.2,51332.8
101167,69952.5,74240.6,59010,157322,107085,52381.5,48711.2
78255,116608,54150.6,110282,97350.4,173907,49311.7,49087.6
73019.7,66331.8,38204.6,41125,98166.6,93524.2,48177,47478.2
81721.8,89774.1,43582,69158.6,110104,128988,49400.9,49617.6
87658.2,61265.7,66327.8,34743.8,122104,86934.4,48769.9,49187.1
96971.4,117493,73602.2,71901.2,125761,161027,50054.6,49360.8
99122.4,110953,80878,84709.8,152151,185086,52566.1,52327.2
71987.4,100555,34091.4,90944,92153.6,178000,47963.5,51390.6
78223.5,113104,48973.4,85612.8,111908,153139,48107.3,49077.8
97437.6,65813.4,67988.2,64859.2,131421,113389,52749.8,45646.3
75149.1,63406.8,44991.8,43180.2,90934.2,92628.2,45936.9,49277.5
86530.5,73881.9,59824.8,46750.2,132703,87672.2,47978,49170.6
80537.4,73644.3,46508,67520.6,105288,135334,48149.4,42932.4
71282.7,68014.8,60713.8,57796.2,103993,113007,46017.2,47704.4
80637.3,73044.9,57481.2,52341.8,124755,100614,49976.7,48280.1
76736.7,77606.1,39641,43743,91907.2,121458,48375.9,50029.1
71199.9,109221,33311.6,106051,91821.8,185753,45716,48045.3
93109.5,88262.1,59746.4,101837,118341,141750,46167.9,47406.1
92745.9,67242.6,76552,44555,127904,95536,51027.5,49231.2
75449.7,75031.2,45686.2,45691.8,107344,102983,49431.9,50085.1
87341.4,70020,85895.6,82215,134259,152583,53160.3,45481.5
67687.2,71443.8,54822.6,40251.4,110292,86825.2,46155.9,44641.5
77677.2,63461.7,53341.4,45047.8,123838,87074.4,46897.1,47369.1
80443.8,60335.1,56606.2,34918.8,102145,87099.6,48363.8,46765.4
76606.2,69158.7,57461.6,53324.6,107894,98597.8,45856.4,45985.5
85378.5,55356.3,61943,41060.6,109700,87763.2,49602.6,47353
88254,77303.7,54734.4,57570.8,124834,115105,47983.6,46784.7
80670.6,126719,51818.2,91903,95972.8,184465,49408.2,49356.7
93951,73734.3,77802.2,34715.8,139212,94437,48472.4,48911.8
75718.8,96277.5,61006.4,67425.4,95097.8,141624,49071.1,48131.2
71272.8,82195.2,51879.8,81323.2,108097,155207,46713.8,42474.8
90454.5,75565.8,63322,59099.6,130908,129226,52776.6,46062.7
96147,92188.8,69960.8,79725.8,138519,152109,51993,47281
104267,87587.1,72289,81351.2,157060,149271,49519,41917.3
91823.4,58842.9,61370.4,50436.4,128737,114359,47451.6,44848.7
74844.9,64689.3,30767.8,36370.6,92996.4,92122.8,50546.8,49492.9
73948.5,56491.2,46788,37724.4,92934.8,89376,45909.9,47117.8
86796,85302.9,54467,89244.4,111236,177558,50040.2,46848.8
82008.9,64314.9,82503.4,50542.8,124156,91669.2,46198.5,46703.2
78333.3,93571.2,66033.8,97776,109379,162644,48993.8,49466.9
89356.5,57429.9,61863.2,43583.4,115816,92383.2,49259.1,46922.1
88712.1,61730.1,62322.4,32811.8,131263,91469,52030.9,49317.6
97223.4,102510,43825.6,62097,108830,146943,44620,48319.2
66308.4,91581.3,35532,61927.6,89798.8,144757,47882.3,50377.2
88392.6,68108.4,97441.4,35807.8,166711,99233.4,49120.1,51011.6
121449,67671.9,85948.8,35561.4,149467,95753,48575.4,46156.5
87647.4,114612,54072.2,90326.6,115125,164644,46146.4,51401.3
95289.3,88407,72045.4,57835.4,126658,132868,47077.8,47449.1
92928.6,89824.5,77893.2,65626.4,142169,119224,52432.5,50889.2
55865.7,105833,64412.6,76455.4,112441,156527,45974.9,45550.2
99940.5,71082,75030.2,34661.2,139982,104224,51538,49572
110095,56135.7,100089,45017,187313,86979.2,42665.7,48594.8
87523.2,49798.8,72181.2,37461.2,134799,93401,48898.1,46072.3
90198.9,102567,75675.6,53909.8,156128,125908,52898.6,50821.9
76864.5,76323.6,59420.2,54394.2,107666,110732,47457.7,50210.7
84329.1,80398.8,51896.6,56354.2,119227,110608,47578,49738.6
80303.4,90850.5,49483,60047.4,109614,145624,49513,47695
122885,68868.9,81085.2,45542,161281,97566,49192.8,49283.4
100663,89132.4,74447.8,66775.8,139203,123929,52741.6,47302.7
85619.7,84914.1,57520.4,53292.4,117566,110543,49703.6,49073.8
79101.9,87723.9,50876,63011.2,97452.6,122963,51024.1,49563
95200.2,88377.3,81316.2,51412.2,137589,135524,50326.7,52822
83636.1,90485.1,54091.8,63739.2,115625,131048,45526.8,48206.2
92324.7,67922.1,75089,72900.8,150864,120007,46197,48802
76441.5,73202.4,33006.4,51408,99446.2,96737.2,48282.9,48374.9
88288.2,45246.6,79898,38379.6,137077,89866,46517.5,46553.4
79773.3,106397,52346,68948.6,106515,133109,46409.4,48992.8
82142.1,102830,41469.4,90910.4,95501,129430,50851.9,48906.6
109462,75877.2,76808.2,45837.4,162925,100730,50764.3,50582.4
86786.1,67333.5,63278.6,39295.2,113455,96972.4,49864.4,46308.4
95696.1,88151.4,69039.6,77942.2,139541,132308,50158.7,50311.2
82467.9,68398.2,92622.6,37998.8,160898,92757,48450.9,47989.4
82379.7,64559.7,62995.8,37798.6,141491,90322.4,47914.6,47234.5
89924.4,104144,63386.4,84697.2,113771,179977,51375.1,48434.9
85742.1,76439.7,58665.6,33987.8,128110,97364.4,50532.4,46817.3
74339.1,99161.1,36411.2,68558,101930,144803,49318.8,48527.6
98442.9,73593,74632.6,38176.6,147428,97776,49467.3,47974.6
101501,68620.5,83840.4,62872.6,145650,120854,50592.7,46940.1
69752.7,67631.4,57024.8,41874,123011,100503,42516.5,48647.2
86240.7,88902,61569.2,66894.8,131967,137112,49442,47748.6
85583.7,100124,59889.2,68051.2,112906,141212,46976,49375
82436.4,73975.5,56211.4,55521.2,108214,105309,49375.9,46018.6
92632.5,84099.6,58276.4,55764.8,133974,124015,49712.7,48219.6
124811,102969,75902.4,112111,143343,169252,44190.1,46291
94067.1,101743,77502.6,86478,124750,178919,46260.1,48385.8
57781.8,95113.8,32082.4,83952.4,127243,176670,48570.8,49962.2
72669.6,92653.2,44549.4,69631.8,96206.6,124088,50137.6,48643.2
80071.2,77165.1,30511.6,34423.2,97477.8,99881.6,46154.7,45354.8
84659.4,75437.1,63785.4,67810.4,134408,110946,49885.6,51914.4
71010.9,84064.5,46131.4,59796.8,91378,120064,45976.2,47283.4
82016.1,80588.7,46698.4,72270.8,115898,149583,49265,46544.7
76248,72571.5,41248.2,54030.2,129821,91613.2,49550,48183.9
93415.5,105533,74774,91709.8,136653,183628,51263.5,46364.1
95707.8,88840.8,52441.2,70187.6,113389,170881,47673.5,45014.4
86806.8,93510,47012,75311.6,116967,152225,49429.6,46443.2
100634,88325.1,90592.6,74417,167492,135985,49519.3,52189.6
74712.6,90009.9,45710,56516.6,97606.6,128650,48475.8,49144.3
77325.3,98816.4,42970.2,108518,96472.6,177093,50272.6,44926.5
71258.4,89730.9,37984.8,62960.8,90727,126435,47209.2,51242.1
71447.4,69213.6,37746.8,49267.4,96402.6,93749.6,53074.4,48885.7
87600.6,84696.3,73577,56638.4,126668,117123,49018.9,50651.3
80245.8,67998.6,81963,39250.4,116670,88551.4,50565,50346
94755.6,62028.9,75175.8,61563.6,136332,128734,49387.7,42529.3
84075.3,89667.9,102187,76206.2,158421,121723,44725.2,47264.9
85419.9,87105.6,59007.2,67992.4,111098,137490,47910.1,46017.1
102200,85378.5,101935,58188.2,153821,116960,52894,48977.8
88561.8,90441,51126.6,99904,128374,160577,48946.9,51638.9
79218,96078.6,62021.4,54507.6,121562,129455,43725.1,49813.6
85160.7,71907.3,64019.2,37556.4,136384,101079,45966.9,50324.2
87989.4,60986.7,56589.4,47040,109502,97804,49544.2,48392.7
85252.5,85167.9,61906.6,57708,114320,118544,45673.1,48363.7
70453.8,115491,61772.2,66789.8,114993,156635,43464.2,53062.5
69472.8,103604,41689.2,83210.4,93692.2,149323,48563.3,50459.5
93237.3,78167.7,52252.2,41094.2,119742,97158.6,50304.8,44140.1
92073.6,103839,70592.2,66333.4,130516,136224,49593.7,48277.6
76113,64794.6,45719.8,34354.6,95116,89034.4,45529.3,48558.5
79622.1,78069.6,53719.4,50346.8,133066,116808,46359.5,46494.5
73577.7,69044.4,46230.8,52001.6,103153,104559,48818.1,46381.7
83235.6,60860.7,38876.6,61189.8,114139,108223,45784.4,44283.5
74414.7,57700.8,64764,54721.8,117695,105381,47529.3,44912.1
79600.5,82878.3,64577.8,57188.6,129121,112790,43780.6,49905.5
88324.2,73150.2,67873.4,47574.8,125443,111528,49360.2,47999.3
87681.6,113054,52022.6,91113.4,118209,169175,44860.6,52591.9
87186.6,107187,70210,110706,116068,179403,47423.9,51291
87695.1,60891.3,73043.6,54026,135978,93212,48883.3,48273
67061.7,61524.9,42789.6,66095.4,88186,126036,47362.9,47055.8
82735.2,84464.1,51451.4,43282.4,96178.6,110296,51099.8,48411
66853.8,92376.9,44269.4,64558.2,88387.6,124131,43816,43879
95536.8,91118.7,73988.6,63002.8,160045,145083,53202.8,46386.7
78780.6,92992.5,43510.6,77964.6,103681,132334,48196.6,41922.2
62836.2,79761.6,54581.8,47301.8,94115,94411.8,47229.2,50051.6
77647.5,101190,48469.4,67027.8,114299,130014,48736.3,48134.5
65020.5,103106,40007.8,80437,89517.4,154752,49744.7,52710.8
91952.1,36963,67299.4,34829.2,124165,104276,47057.5,45111
89137.8,66762,109953,40628,180557,89635,46670.5,46021.3
75157.2,103267,47489.4,93266.6,106203,154536,45213.4,48707
93597.3,99832.5,56480.2,75959.8,123931,149715,51075.6,47623.8
78484.5,108248,60394.6,85699.6,109343,176141,45846.2,49151.5
108352,99428.4,78206.8,71673,172729,155666,45133.3,47873.6
70200.9,71343,53706.8,68700.8,94599.4,102598,48692.4,46725.4
88745.4,108862,63621.6,95650.8,134226,153178,48633.5,49199.8
93676.5,108796,81597.6,80259.2,148326,160167,48673.1,50623
80544.6,67472.1,86710.4,29631,155009,89182.8,43228.4,49171.7
79635.6,72706.5,54005,44319.8,95998,102196,50525.1,50688.7
79725.6,91212.3,49800.8,65721.6,114005,151523,48485.5,49526.1
83176.2,68490,68324.2,51819.6,133134,102054,45751.5,47991.8
81736.2,64056.6,52159.8,41780.2,119179,101525,48145.4,49913.9
81167.4,70801.2,52385.2,38248,105273,88376.4,46568.4,49332.8
80326.8,87119.1,55185.2,65037,121426,124069,41846.9,51097.2
89939.7,87073.2,45208.8,55823.6,109323,126220,48415.1,49853.5
96645.6,88569,77196,63819,135083,106852,53310.3,50846.2
76726.8,99809.1,49942.2,89237.4,90220.2,147955,48722.5,47997.6
75117.6,51723.9,45785.6,14543.2,106149,102033,47554.9,46790.6
82462.5,57679.2,73721.2,81361,137361,124006,48621.2,52187.8
94873.5,73350,66022.6,44980.6,115776,90566,48108.2,47149.8
101295,60914.7,68961.2,33217.8,130659,89093.2,47431.1,49908.4
82206,92080.8,51450,48325.2,113928,125086,49669.4,47185.7
79353.9,99832.5,45326.4,75908,111072,147981,49295.1,49673
64892.7,91811.7,33919.2,55175.4,91014,135358,48441.9,48712.8
84955.5,78212.7,83700.4,54721.8,141326,94544.8,53371.5,52053.2
102753,112149,90182.4,106838,163909,168364,49774,50815.6
84372.3,76938.3,58676.8,39470.2,112935,96497.8,48820.7,48331.9
83031.3,112736,89902.4,125292,149164,178843,46313.3,52406
87849.9,75628.8,59623.2,52698.8,123735,106347,50683.9,48843.9
65384.1,74669.4,62756.4,42757.4,119542,101503,42450,48641.4
95319,102023,90482,104488,150952,148109,51364.2,49888.6
102141,53702.1,74904.2,35859.6,142008,88526.2,47975.7,48648.1
70223.4,71888.4,35701.4,37503.2,90629,106767,46613.7,46821.2
92636.1,84277.8,80059,55790,139916,123495,51389.7,48403.7
78838.2,85669.2,56788.2,62743.8,92692.6,135776,44789.1,49943.8
79060.5,72402.3,71887.2,63106.4,113221,118150,50445.4,48248.3
84596.4,65212.2,62088.6,53425.4,124799,95604.6,45286.7,52110.7
61986.6,87860.7,50135.4,92349.6,99654.8,184853,51618,50353.1
83607.3,104850,58731.4,108697,110302,178392,49898.9,51979.3
90897.3,69517.8,55930,46053,123992,92986.6,49919.3,47289.7
87464.7,95821.2,68357.8,92142.4,131803,158676,48667.4,47782.8
88181.1,105854,53775.4,91228.2,135498,186287,49746.6,44843.3
103583,71122.5,76508.6,40744.2,168287,97143.2,50008.7,48499.4
92723.4,86378.4,58380,53578,110618,115976,47776.6,49069.4
69445.8,77866.2,42609,54710.6,89049.8,102204,50878.7,46516.1
75092.4,65611.8,44266.6,34606.6,117418,96019,46965.2,48906.7
73864.8,80410.5,66780,66595.2,112671,146079,47368.1,48964.2
95166,80189.1,46678.8,61201,123045,110032,48304.7,47048.1
98673.3,72574.2,63432.6,65794.4,125986,124697,49656.1,45019
85230.9,80574.3,68465.6,54037.2,125014,109530,50487.4,50337.6
86783.4,56381.4,81747.4,52928.4,129520,105788,48531.1,47140.6
73277.1,74859.3,44480.8,35407.4,98186.2,88431,46011.3,49557.4
94782.6,94369.5,62760.6,70603.4,133463,130978,49936.8,51600.2
70351.2,67545,47801.6,39207,87480.4,88555.6,48026.9,49343.3
100026,92308.5,67704,57645,134151,114321,50569,46821
79378.2,81021.6,99078,62312.6,148323,106952,43043.9,49252
86616,104371,76013,62745.2,106099,131278,49546.3,49726.9
107438,120897,52577,74036.2,140823,152446,46151.3,48177.2
72441,79255.8,39155.2,54072.2,94565.8,107807,46428.1,49950.1
60588,104766,55851.6,58249.8,87514,150548,51696.9,51760.5
99467.1,83899.8,69003.2,54233.2,126381,109463,50850.9,50869.8
92503.8,84573.9,82124,76848.8,162180,151767,52553.7,48327
82854,96425.1,56179.2,59109.4,113599,126251,48076.9,48027.3
85059,113726,58893.8,98086.8,113515,184612,49503.4,50772.2
85416.3,85369.5,50499.4,74657.8,121157,134238,46022.6,47901.9
91257.3,80633.7,68307.4,47700.8,148179,107136,44363.8,49813.8
73879.2,62208.9,48647.2,46037.6,93244.2,94459.4,45949.7,48732.5
96151.5,88222.5,84957.6,76696.2,152424,133353,53718.4,51932.1
66582.9,85259.7,58095.8,54923.4,114327,110209,45934.4,47690.2
84342.6,93402,60996.6,77211.4,109771,158131,48209.1,48819.7
91892.7,116652,68600,98907.2,130560,183940,50171.9,47070.1
81270.9,61861.5,46505.2,48368.6,123878,135621,45967.7,49065
56250,72145.8,40188.4,40044.2,86840.6,100177,42879.3,46172.5
84828.6,93926.7,57076.6,55500.2,124508,131565,48791.9,47659.7
78108.3,98572.5,63306.6,99626.8,124057,174301,44967.4,53297.9
83158.2,74652.3,76899.2,40497.8,127053,97900.6,50785.5,46723.2
79424.1,50752.8,47294.8,42378,106310,88971.4,49801.1,48604.7
100859,109289,81853.8,88401.6,150118,185084,48783,46783.2
52625.7,90000,40455.8,62186.6,88009.6,118930,46778.2,49288.8
74367.9,75263.4,36220.8,55605.2,99887.2,110365,44018.8,48287.5
97505.1,62590.5,81986.8,35162.4,153231,93639,51314.5,50113.8
68492.7,54651.6,34941.2,48286,92731.8,98331.8,44558.3,47271.5
86579.1,132304,64106,76245.4,120793,174840,48001,49858.9
43709.4,77092.2,42400.4,53559.8,88935,109112,49127.9,49630.2
65677.5,63085.5,33990.6,57969.8,94059,104947,48588.1,48957.3
85486.5,73564.2,53951.8,52214.4,128076,101069,49178,47030.7
79357.5,95606.1,52164,67657.8,128036,139030,53114.6,47192.2
64648.8,76538.7,51203.6,32709.6,101094,101093,44122.6,51054.1
87238.8,90993.6,60837,83585.6,138289,175651,53429.1,48457.2
88820.1,113494,63334.6,93856,128188,176635,47620.8,48298.5
82131.3,48843,42939.4,34706,105000,92103.2,50071,42683.2
85197.6,93399.3,54682.6,73824.8,112209,125488,50025,49778.6
81950.4,86351.4,61292,84058.8,133241,153068,49000.9,44325.3
98335.8,68748.3,90728.4,34469.4,166893,102102,50424.1,49887.1
91743.3,73917.9,61042.8,37167.2,113845,95166.4,48468,46692.2
78802.2,79322.4,56455,46421.2,106896,106372,48030.7,47457.6
88698.6,60480.9,88774,23203.6,143462,86919,51616.3,49515.7
75623.4,33886.8,49092.4,41339.2,101251,107871,46992,48789.5
94661.1,95876.1,74349.8,88783.8,157942,145765,50426.8,49872.5
83692.8,111866,53788,93975,117523,166319,48737.7,45821
84361.5,52949.7,58989,45231.2,121747,87889.2,49105.7,49552.5
92695.5,88478.1,83692,105014,146377,182784,50726.7,48094.3
84534.3,78293.7,54178.6,62164.2,109743,104168,47555.8,49535.1
71497.8,92656.8,29919.4,83414.8,95950.4,133402,48701.3,48631.9
82313.1,123543,52171,95191.6,102836,160992,50611.4,49877
85737.6,99955.8,77814.8,80957.8,129305,160528,46456.4,51476.9
102618,76869.9,71695.4,47388.6,131606,96957,53016.2,49950.8
101238,92259.9,50533,83623.4,140014,142272,46092.7,47823.8
104520,81116.1,81526.2,62664,174969,115434,52507.6,50745.9
38249.1,75569.4,32925.2,84106.4,95099.2,118303,52048.9,45553
67472.1,64089.9,44636.2,90001.8,86896.6,155004,49268,49675.8
88908.3,61517.7,63842.8,48154.4,111069,114720,50096,47332.3
98567.1,52689.6,75174.4,29212.4,122486,92670.2,50945.5,48623.8
68955.3,90192.6,40304.6,61927.6,89964,129874,44410.6,49147.5
87024.6,72262.8,75761,43853.6,151865,98280,42457.3,48235.3
101998,55447.2,84532,33976.6,172703,88646.6,48147.8,46059.9
77673.6,60441.3,53145.4,47776.4,98382.2,98218.4,42191.8,45452
77450.4,47822.4,50134,18298,101340,91312.2,50283.1,49927.2
63329.4,97337.7,45061.8,64960,88795,121496,49771.3,49904.8
94994.1,100078,65984.8,77082.6,128220,166300,49249.7,49836
88631.1,115547,50934.8,73539.2,111803,167705,50022.4,50850.7
88784.1,58509,81309.2,41515.6,125006,87679.2,46929.2,47792.6
81715.5,77957.1,58046.8,51968,116364,99983.8,48798.8,47957.7
77523.3,77748.3,46965.8,53769.8,98232.4,102038,50107.5,48799.3
91422.9,76127.4,88478.6,42347.2,163353,96350.8,51010.5,48361.2
109211,69287.4,80990,28964.6,159047,91281.4,48126.5,49013.6
99192.6,112574,114160,84366.8,166016,161048,48625.5,51026.9
80228.7,68186.7,52693.2,33607,92702.4,94490.2,50286.2,49410.8
88398,98065.8,61073.6,69417.6,127666,140414,50799.6,49812.6
96948.9,52000.2,63646.8,43437.8,134215,97563.2,49176,45446.2
85861.8,57599.1,64913.8,27819.4,127289,86847.6,41931.7,47510.1
91113.3,74594.7,67617.2,52173.8,129632,117347,46371.9,50157.7
56421.9,48503.7,42723.8,39743.2,89497.8,87227,41873.7,45772.8
93211.2,48970.8,71579.2,41144.6,124905,142222,50986.1,48594.4
74540.7,111991,49569.8,86779,91296.8,168440,46503.8,49224.4
80358.3,66613.5,42016.8,56491.4,101500,121470,49876.4,48533.2
88821,80307,63179.2,44140.6,116339,95769.8,48664.7,50057.2
88340.4,80361,89091.8,54959.8,155260,100094,53426.2,48801.6
90336.6,66102.3,62199.2,46788,126157,87494.4,49817.1,49764.8
91824.3,107913,71241.8,93109.8,125878,150801,49339.8,52380.7
84725.1,59880.6,53621.4,31024,128316,86998.8,46341.2,49013.5
84332.7,87124.5,53877.6,54665.8,109424,105605,48720.6,49025.9
91050.3,74420.1,60984,34972,122367,91961.8,50084,48767.1
81007.2,61539.3,53858,41223,127669,93241.4,46469.3,50231.1
79005.6,65835,52000.2,35217,101968,88095,48913.1,48409.1
68860.8,100310,36429.4,107533,89580.4,178391,48754.9,42270.4
72665.1,79386.3,34739.6,44969.4,95209.8,93648.8,49327,49305.4
90386.1,106881,47201,77606.2,135321,149316,47617.6,48570
97100.1,102053,81439.4,128733,126690,184204,50444,50580.8
96134.4,94329,76588.4,63499.8,139063,131989,49715.6,49882.9
71490.6,66084.3,32400.2,30905,88625.6,91656.6,50297.7,49802.3
84368.7,68601.6,54573.4,39330.2,115804,91316.4,49331.3,48020.1
82127.7,100568,58058,67310.6,104051,124310,51092.6,49864.7
96183,93447.9,68611.2,99670.2,153381,161064,49221.4,45701.6
91746,93064.5,58787.4,105050,122128,173078,46812.6,52864.9
93114.9,77848.2,81176.2,46589.2,141161,93220.4,47027.8,50649.7
88658.1,80203.5,101629,60216.8,142572,116701,51561.7,46585.5
86780.7,99947.7,62780.2,62517,117769,122174,49555.8,45389.9
79367.4,64868.4,55272,48972,95876.2,99845.2,50501,47808.6
79438.5,57112.2,47034.4,53015.2,103498,114293,50247.1,46122.8
75721.5,80961.3,49074.2,39054.4,101424,91260.4,46634.8,49773.8
90383.4,65328.3,68455.8,77578.2,144784,162292,50914.5,52348.9
75375,93559.5,64687,97851.6,119714,185777,48695.3,46976.9
64297.8,77362.2,55826.4,60526.2,95683,126507,46219.9,48484.9
84274.2,109586,58632,87561.6,105150,160433,50628.1,49461.6
67522.5,95428.8,59024,88670.4,95100.6,172455,47809.6,46681.6
74540.7,68210.1,66668,41265,116782,92723.4,46888.2,48893.3
97322.4,71970.3,75933.2,37058,140756,93217.6,49141.9,49853.2
94651.2,93309.3,68675.6,60347,143549,121834,48729.4,49272.2
77227.2,86645.7,66070.2,105587,131897,148693,48354.6,48730.1
88625.7,64219.5,61504.8,59066,133259,100055,51315.3,52615
83072.7,86403.6,55738.2,41088.6,103692,125892,51515.3,50531.7
62108.1,62534.7,34034,31358.6,89646.2,158428,48450.9,46131.7
87837.3,97861.5,45789.8,92068.2,94700.2,176806,47910.2,48189.2
87378.3,99097.2,54268.2,64667.4,122576,138414,50000.2,49019.3
87585.3,77253.3,50493.8,56177.8,114524,98254.8,51388.4,50734.6
104210,93730.5,77231,66194.8,153216,125117,53687.1,48684.5
79484.4,73086.3,70400.4,41455.4,97476.4,98091,48926.8,46574.8
78476.4,87775.2,54110,75458.6,106400,139863,45057.6,50962.1
67776.3,98569.8,47352.2,60183.2,88400.2,123199,50608,48959.5
72305.1,68089.5,55427.4,31969,92009.4,100073,44876.2,49204.8
69104.7,118816,44770.6,86240,94470.6,181093,44885.9,46040.1
94003.2,72270.9,74592,44473.8,118021,98245,50725,50680.6
92890.8,95983.2,63005.6,82124,124478,172028,47958,48937.2
85459.5,68111.1,54292,51440.2,128841,100764,45808.1,48813.4
83643.3,113395,64667.4,83899.2,119532,160647,49061.5,51054.7
88327.8,57827.7,87824.8,50607.2,125604,93629.2,49902.5,47210.9
76488.3,70087.5,54780.6,56229.6,98644,105781,47768.9,44168.8
79662.6,99364.5,45764.6,111929,116479,161704,47836.4,51967.7
63972.9,90490.5,92362.2,62454,130826,118607,48463.1,51961.8
101174,94686.3,70938,106555,146237,166845,50710.8,46860
89598.6,59079.6,66050.6,27994.4,141124,93671.2,44476.6,50187.3
84411,78102,69532.4,30535.4,129107,91812,53032.8,50039.8
80943.3,109515,64880.2,70152.6,114639,139194,46147.6,47269.6
88865.1,118953,44608.2,100149,111462,181145,48705.1,50908.7
90125.1,72342.9,57902.6,39548.6,116210,90953.8,50900.6,50788.1
79338.6,79377.3,58713.2,48745.2,107276,94445.4,49038.8,48183.2
98588.7,47221.2,69776,35261.8,156794,90704.6,51295,46996.5
88562.7,65043.9,66922.8,38609.2,139126,89405.4,47906.9,49995.6
72679.5,67419.9,56284.2,32438,117727,89250,48218.8,48688.5
91879.2,74029.5,70075.6,47160.4,133539,103338,50525.4,49515.7
89344.8,102455,67320.4,89040,120754,173986,50910,50027.3
74815.2,56579.4,57176,48477.8,101573,99790.6,49110,47245.2
81713.7,80183.7,65738.4,48951,112130,108352,43310.2,45490.2
76630.5,100525,50036,100031,104520,170547,48001.3,46439.3
87596.1,45999.9,56751.8,38984.4,119773,87101,49987.8,48347.3
74367,80869.5,40982.2,76335,100902,157550,45872.7,47103.9
92280.6,76353.3,71115.8,43859.2,125994,106252,49930,46739
102703,75887.1,76374.2,69382.6,144822,127876,48165.2,51872.2
82006.2,96165.9,65359,73339,116033,161521,47998.8,52793.2
57119.4,58007.7,38207.4,36534.4,107019,87038,47528.4,48436.9
84535.2,73105.2,53701.2,56330.4,111275,95327.4,52372.9,48724.2
88331.4,101933,74214,99208.2,130578,177846,46880.7,48500
67332.6,76935.6,31875.2,43926.4,89171.6,113775,47542.9,48511.8
96072.3,86394.6,66963.4,89744.2,119673,135001,48916.4,48606.2
91137.6,85253.4,81263,52192,145720,122787,50236.7,48423.9
93517.2,105502,60943.4,88086.6,145013,156008,51784.1,51776.7
83596.5,75440.7,82062.4,49469,145319,97577.2,44593.2,49243.5
82606.5,68698.8,56579.6,42284.2,128360,93364.6,51771.6,48296.5
77288.4,107828,53461.8,67436.6,110979,139096,49612,49507.7
84045.6,77864.4,54163.2,63827.4,117408,114699,47758.3,48165.2
69378.3,70643.7,49914.2,51375.8,94361.4,96539.8,48660.5,46562.4
92181.6,88590.6,72240,92860.6,143732,155494,53016.7,44295.4
112054,93485.7,111912,108955,170195,171300,48520.5,47796.6
69246,79523.1,43066.8,44583,91519.4,102523,49041.3,48978.7
84967.2,94778.1,59854.2,71765.4,125124,169593,48699.4,47546.6
96021.9,70119.9,71654.8,39755.8,154119,90524,51555.5,50252.2
84057.3,78915.6,50096.2,46730.6,118143,106513,50176.6,49531.5
81314.1,109117,55892.2,98009.8,110755,185401,48345.7,52603.2
80999.1,59853.6,62608,49068.6,104832,91287,46605.9,45534.3
90123.3,91608.3,72199.4,76701.8,148964,139560,51933.6,48238
74303.1,91017.9,49635.6,53926.6,91967.4,108587,49109.8,49047.5
89512.2,100649,60718,79945.6,134939,148110,48186,47220.1
72387.9,75669.3,53855.2,63134.4,96303.2,105917,45115,46990.7
84067.2,120980,51399.6,92783.6,107474,173428,50231.1,49728.2
69026.4,97129.8,32478.6,51599.8,96586,117755,46279.3,46940.1
83795.4,77938.2,62028.4,45939.6,127711,105158,45678.3,49481
85630.5,75984.3,59959.2,53979.8,130094,102614,48806.8,48850.8
111187,66794.4,79790.2,40373.2,154617,102092,53433.7,49453.7
89371.8,89611.2,78849.4,47056.8,116430,116437,48865.8,47219
98186.4,68328.9,68160.4,33380.2,138219,103356,45891.9,48736.1
93971.7,66008.7,64891.4,39576.6,128561,96079.2,49004.6,50095.6
78975,106376,51030,65287.6,112190,146691,48160,51849.8
84013.2,70600.5,65665.6,33474,102298,92547,50779.9,48070.5
81617.4,115738,59795.4,77186.2,120319,158665,47592.8,48508.7
88364.7,111552,56908.6,85206.8,116710,152459,46239.2,49894.1
97971.3,61425.9,91505.4,55805.4,168767,99691.2,49719.4,47569.6
89773.2,102029,89446,91056,152564,182251,46238.8,51150.7
89389.8,91206.9,58261,62154.4,132490,116154,49791,49019.8
59742.9,80619.3,42210,49729.4,87217.2,110845,47904.3,50257.8
78885,70304.4,71689.8,56329,130245,95282.6,47900.8,48108.3
92853.9,77073.3,84814.8,56156.8,135601,120952,53719.9,47240.2
83401.2,98002.8,72053.8,60677.4,136200,139572,45476.4,49311.1
82559.7,91327.5,70984.2,57197,133819,128286,46323.7,47502.3
94735.8,58158,76098.4,43142.4,140382,89835.2,51266.6,47364.7
87468.3,62504.1,73593.8,35476,127068,99299.2,48771.3,48435.5
81149.4,100463,56502.6,54285,89727.4,117226,49765.8,49759.7
107740,83631.6,92304.8,60037.6,154871,124874,48201.9,47955.7
94631.4,81304.2,93303,62454,175223,121323,44160.9,44944.9
86096.7,84361.5,60583.6,50157.8,120427,110733,47700.4,50395.4
88289.1,109648,55132,76158.6,116178,162239,50925.1,44914.2
78852.6,89392.5,53443.6,53820.2,105424,122462,45927,50210.7
97802.1,76127.4,59234,36925,151564,89278,52684.6,45953.9
84338.1,90550.8,82294.8,71850.8,128327,135405,48989.2,49973.9
79239.6,76109.4,62342,63931,113606,113799,45297.4,46653.9
90622.8,78873.3,80189.2,48603.8,133934,125100,48384,48633.8
99018.9,91303.2,69993,67936.4,135079,134565,49182,50515.1
88023.6,67602.6,56127.4,40601.4,111903,106026,49866,47480.5
80104.5,75216.6,54503.4,49590.8,103806,109204,49141.8,48302.5
93926.7,95614.2,65800,45642.8,137833,124944,47544.2,49876.1
90476.1,62846.1,62304.2,52610.6,117459,104486,51092.5,42649.9
96960.6,93281.4,77254.8,73360,147021,135611,50643.6,50377.5
88995.6,104105,59689,78500.8,115493,156125,48030.3,50692.3
74535.3,97358.4,54651.8,71346.8,105778,126227,49137.6,47135.6
71077.5,91221.3,48631.8,66474.8,93494.8,133125,46522.5,49878
83688.3,71510.4,84877.8,35263.2,138285,94901.8,50545.4,49722.5
99993.6,116132,78751.4,104077,156593,169047,46191.3,48046.1
100922,93235.5,67744.6,64846.6,127982,140483,47567.2,50314.9
85825.8,101671,54881.4,108059,135310,173265,48318.3,48548.9
87471.9,89637.3,57811.6,77385,125196,135236,46848,49045.6
73487.7,53582.4,50677.2,52893.4,101213,93951.2,47133.1,50716.2
103656,84657.6,76707.4,91148.4,145832,159547,45893.5,43855.7
99726.3,90259.2,84677.6,59683.4,147664,149129,53276.6,49028.9
100870,103919,79923.2,62805.4,157751,138508,49732.5,47635.5
72941.4,89524.8,44265.2,60608.8,88988.2,137159,48612,47269.5
88388.1,82905.3,56883.4,58739.8,124548,139727,47737.8,46659
93174.3,68937.3,80498.6,42126,151437,98100.8,49743.2,49348.9
82358.1,67040.1,50974,65119.6,97725.6,132885,50611.3,46248.2
74341.8,106420,51692.2,88838.4,99064,170267,48943.8,50806.2
98762.4,100734,69521.2,51219,134833,135621,50214.6,50042.2
81972,74817,57024.8,57673,117467,110288,51677.2,47167
106325,48442.5,87063.2,55133.4,163310,93422,50505.1,42752.9
86492.7,75516.3,61649,45340.4,130651,94137.4,52075.4,49322.1
84871.8,83590.2,54390,44595.6,115606,93714.6,46529,50568
84627.9,74255.4,64548.4,71108.8,117183,114430,48572.5,53141.8
81643.5,86427.9,57828.4,59350.2,107954,113558,47164.2,49843.6
78477.3,96632.1,78271.2,98315,122424,153658,50109.6,45372.7
81549,92311.2,52557.4,53926.6,106754,113835,49676.6,48773.9
86962.5,93988.8,71240.4,79720.2,105468,148337,50597.3,47716.2
83947.5,102299,58668.4,86489.2,117488,157028,48996.2,51373.3
120963,71208.9,91497,54461.4,184510,154015,47879.5,43270.2
95604.3,112426,56247.8,80953.6,124177,182042,49205.7,50562.4
89029.8,79754.4,77184.8,65342.2,120285,113443,51499.6,51307.1
84432.6,88869.6,52620.4,71251.6,119970,139761,51684.2,49438.6
84599.1,77208.3,65185.4,42077,120670,110979,48833.8,46578.2
86391.9,109831,57090.6,81205.6,108713,169180,51207.8,51405.7
90927,76633.2,66831.8,39538.8,138558,112097,49203,50304
96302.7,78281.1,73976,40825.4,160258,98592.2,53468.8,47369.1
109436,39011.4,76414.8,37228.8,147337,88866.4,52631.7,47029.6
89653.5,80052.3,27281.8,63225.4,100080,136303,51582.9,49518.4
72322.2,109088,34781.6,63144.2,90868.4,153884,50860.9,48220.9
81747.9,92779.2,48384,63863.8,114842,138305,46474.4,48575.7
100739,116712,51609.6,87339,115206,178387,47935.8,48293.5
86499,65087.1,69602.4,50754.2,110905,109306,49397.1,48771.8
85257.9,72324.9,62928.6,39607.4,114670,87768.8,50543,50078.5
95945.4,125640,59980.2,107440,131300,184414,50379.2,48914.9
91193.4,86556.6,76288.8,63254.8,130081,110937,49607.1,48256.7
99267.3,107838,68020.4,101574,138800,175578,52622.6,48840
61788.6,64912.5,41300,31570,96990.6,88149.6,46892.4,48188.5
113216,74403.9,75583.2,52868.2,168071,90539.4,48698.5,47690.6
86098.5,68020.2,73868.2,35341.6,104408,88925.2,52127.5,51092.7
85670.1,89462.7,55722.8,80312.4,114783,154711,49527.5,49711.9
74769.3,96867.9,47013.4,85348.2,100481,142275,49992.7,44403.4
98691.3,84558.6,76211.8,64128.4,140147,133181,50626.9,47971.7
111576,123764,76598.2,105042,145897,156122,50498,49137.1
62174.7,102970,39391.8,81142.6,103884,166807,44428.4,48378.7
92422.8,116845,65133.6,97889.4,136100,183519,52964.6,49911.9
92993.4,58962.6,76088.6,45466.4,149073,100804,48041.4,43956.9
102945,108375,67691.4,76815.2,164248,163166,48253.6,50723.3
84240,110422,62286,77176.4,121332,168815,49802.3,49483.8
85116.6,80877.6,61087.6,56197.4,115877,121870,51105.9,48344.4
86259.6,83436.3,62812.4,43085,124352,114894,51770.2,48004
81866.7,114522,72426.2,81663.4,116232,171489,51480.1,49814.1
91525.5,96254.1,69137.6,74848.2,121864,137686,49642.5,47733.1
83038.5,91425.6,49554.4,60687.2,101468,155477,48033.3,45261.1
58842,107591,39764.2,71751.4,88551.4,166006,46749.4,45838.8
85882.5,85251.6,65597,63785.4,143490,119045,46161.4,50600
77650.2,94003.2,60530.4,76714.4,103242,155814,46313.3,49538.2
86264.1,93956.4,49816.2,60361,141144,141914,50716.5,47126.5
82958.4,72487.8,69136.2,70222.6,119116,133300,50340.5,48178
97382.7,91981.8,74715.2,50503.6,137238,137330,49477.7,49604.6
98752.5,97816.5,82688.2,75373.2,143668,135044,49914.3,48991.1
88466.4,62871.3,64430.8,59792.6,135012,107624,51427.8,47425.4
90308.7,75139.2,65566.2,63551.6,110935,126147,50243.5,42435.5
81688.5,81853.2,61891.2,56224,129571,103866,49026.1,48376.2
89855.1,65871,56998.2,34183.8,114832,94456.6,49709.1,46573.9
89033.4,89280.9,68079.2,69099.8,127252,146485,52630.2,49144.6
96682.5,78724.8,64290.8,41781.6,144924,113079,46793.4,49392.2
95588.1,81253.8,66011.4,62423.2,152193,121097,48920.5,49320.8
87154.2,90855,58898,70767.2,123614,125395,52163.2,53696.3
92584.8,95002.2,73976,66544.8,122888,151088,50619.4,50551.6
78555.6,68785.2,35243.6,57367.8,99220.8,104845,48755.6,43162.5
92328.3,82800,60916.8,55867,144652,99972.6,49568,52423
99523.8,114438,55690.6,83412,111888,177832,45833.6,46644.5
88183.8,71730.9,67270,66957.8,130393,134102,48700.2,46618.7
71716.5,31247.1,48720,12390,104455,100955,48510.9,42675.7
69881.4,106087,35963.2,83368.6,91649.6,170465,48976.7,47760.7
83370.6,66603.6,55897.8,67428.2,108787,108546,47978.7,46229.1
70271.1,66799.8,35898.8,34154.4,89761,87119.2,49261,49076.9
78805.8,79722,53617.2,58844.8,99218,103876,49185.6,48932.8
71519.4,90913.5,54759.6,99023.4,111279,152169,44839.2,49101.3
105303,91226.7,91326.2,64082.2,161609,132328,53679.2,49458.8
76374.9,89926.2,46736.2,66557.4,104861,142227,47302.5,49338.8
86534.1,93808.8,57460.2,69540.8,127765,116994,49416.9,48487
94466.7,116222,71941.8,81001.2,145296,182921,48796,47824.8
73017,87514.2,51303,61938.8,96048.4,119503,43573.6,49949.6
91654.2,99783.9,73365.6,75609.8,141455,140262,51109,47458.1
118382,86996.7,86413.6,46516.4,172474,103284,51258.3,49949.1
101122,117059,71628.2,94682,161354,185987,47226.6,48483.4
64882.8,102812,58184,85561,106203,164823,45221.8,49600.3
71940.6,70297.2,47560.8,45894.8,88316.2,108025,50234.1,41850.7
78369.3,60483.6,53708.2,34582.8,115382,87159.8,51567,50394.5
79254.9,92662.2,47590.2,84474.6,100331,149719,48724.4,49093.6
75644.1,125726,79765,102957,128393,184835,47260.1,49606.7
94018.5,51885,62640.2,54530,127957,92408.4,49331.4,49707.8
97126.2,97395.3,76407.8,84959,154301,154031,51185.1,49184.2
99552.6,75735,74971.4,43131.2,133780,115793,49302.7,48290.5
76381.2,91545.3,42091,48910.4,93300.2,114346,46479.4,47746.1
81034.2,87347.7,71786.4,54380.2,128804,111045,51862.7,48427.4
93904.2,92620.8,71348.2,72916.2,146835,133839,53021.9,45241.7
81786.6,88117.2,62874,61166,113838,126083,48261.3,49331.9
92343.6,60264,72290.4,31103.8,120089,91631.4,49643.5,46065.9
87342.3,68992.2,55416.2,54364.8,127016,100806,47142.3,46679.8
72649.8,102952,37116.8,73742.2,87077.2,160139,50051.3,48659.2
89597.7,55937.7,77183.4,53446.4,135430,95751.6,47088.2,48063.4
79124.4,110245,49462,110251,99579.2,182294,45941.8,48374.4
91440.9,95435.1,73567.2,93090.2,142773,163540,48555.2,48136.6
70539.3,139552,45882.2,91145.6,96661.6,176616,45855.7,43383
108102,93457.8,94981.6,57471.4,160899,126602,49362.2,51050.5
79531.2,68259.6,64632.4,45390.8,110387,97868.4,51956.8,49389.5
82177.2,92261.7,60372.2,64474.2,129531,145769,43916,48007.4
75072.6,81226.8,29646.4,53263,108034,116113,51777.6,46025.1
78866.1,80038.8,46652.2,94633,108997,136742,49464.2,41860.8
77980.5,100758,44798.6,70750.4,91165.2,165441,50964.5,50913.3
83711.7,91103.4,48242.6,62322.4,104398,129973,53206.1,47903.4
74556,70114.5,41379.8,33014.8,95053,96702.2,49501.1,47339.9
90741.6,58646.7,59670.8,24304,137556,91662.2,53562.9,48630.1
88236,97839.9,60538.8,70505.4,103135,131590,51413.5,49000.6
79632.9,69161.4,52445.4,51258.2,107366,97594,53151.6,45949.6
80007.3,113540,48234.2,76690.6,103530,144472,48817,49771.7
95382.9,69842.7,67671.8,33546.8,125339,100292,51552.4,50839.5
79037.1,77787,58135,77008.4,131167,142024,43103.8,45388.8
75888.9,94578.3,48445.6,70281.4,95257.4,179245,49428.8,45603.4
90207.9,85182.3,65339.4,48939.8,143167,107211,48439.6,46628.1
100858,109221,79195.2,72052.4,144246,165508,48624.6,47770.1
81016.2,108065,49228.2,57465.8,112426,140647,49247.7,49359.1
95679.9,83356.2,85976.8,42226.8,159557,122839,48686.5,48662.6
75837.6,86059.8,49730.8,72762.2,95214,126584,49746.7,49822.5
77802.3,77736.6,53278.4,69638.8,99848,138232,47311.4,46476.3
101999,90157.5,87438.4,65555,158509,138991,45030.2,47462.2
96398.1,95830.2,71523.2,75679.8,144133,163090,48394,50845.8
99744.3,107120,85622.6,67951.8,151673,159978,50972.2,51436.3
84824.1,91153.8,43751.4,102946,97759.2,163839,50065.9,49946.6
84655.8,82643.4,51658.6,53193,110303,108329,48316.8,50647.9
83781,100868,70550.2,87354.4,121814,144677,47858.1,51235.1
75388.5,98586.9,36181.6,101877,91084,160376,51178.5,49039.8
85442.4,63188.1,69608,30312.8,124445,87841.6,48492.3,47063.7
91386,106093,57647.8,82943,128372,154906,49773.1,45748.2
78226.2,70263.9,44734.2,39540.2,102950,96126.8,50538.1,49062
96727.5,96687,76851.6,66838.8,160579,143779,52574,49643.8
77963.4,69502.5,46760,26560.8,104322,89257,44140.5,49519.6
79687.8,82440.9,66173.8,48010.2,118486,97515.6,49032.5,49436.6
77028.3,70528.5,58231.6,25396,97851.6,88694.2,49028,49079.4
77899.5,79874.1,48091.4,44857.4,89112.8,113190,48129.2,49317.7
88201.8,58164.3,93801.4,35875,128288,98742,49392.2,42901.6
55992.6,61042.5,17966.2,55249.6,87682,94838.8,49991.8,48354.6
62920.8,82485,46223.8,40885.6,111731,117611,47381.1,49676.9
84817.8,101946,63282.8,81391.8,118535,169816,46408.5,47929.6
88353.9,103467,57419.6,71647.8,138370,139756,52158.2,49133.7
64139.4,97784.1,35449.4,71703.8,101521,143905,42037.8,48295.7
93425.4,100789,75187,86136.4,135838,175986,50295.3,46721.5
76918.5,58821.3,53166.4,47863.2,114990,91257.6,47551,51710.2
81852.3,55266.3,55116.6,25223.8,110278,88571,48095.9,49821.1
104270,97509.6,89936,69577.2,175652,137619,51143.7,48241.6
77795.1,78966,57747.2,35431.2,102088,97517,48509,49080.9
94844.7,68997.6,85484,34333.6,143620,90745.2,48759.7,48185.2
89048.7,70753.5,73906,32090.8,140564,93613.8,51484.2,50448.7
77189.4,88463.7,42831.6,63625.8,99556.8,132663,50062.1,50499.3
72413.1,100638,34920.2,68422.2,100862,138065,46971.5,48086.1
81582.3,100521,55318.2,88663.4,114036,164469,52466.4,49098.6
79595.1,59658.3,47490.8,44524.2,100761,100159,49587.8,45370.1
85444.2,63727.2,46958.8,84189,103636,139178,48910.8,43576
68370.3,63144.9,46803.4,29209.6,92853.6,88025,48559.9,50449.4
82951.2,72334.8,51317,41123.6,98758.8,97119.4,47552.7,49587.3
92089.8,85355.1,65317,57442,134460,121930,49980.2,46635.2
81635.4,90816.3,65210.6,71349.6,115573,128253,49852,48523.7
78952.5,91305.9,67981.2,70544.6,118959,127042,48560.3,48094.1
78309,79882.2,52374,63140,122928,108331,48705.7,47807.2
81421.2,82971.9,44459.8,50723.4,103090,119452,49184.8,48056
84293.1,69408.9,68623.8,44095.8,140904,91284.2,51201.3,48389
69439.5,69652.8,65633.4,32480,114653,87558.8,46762.7,47272.7
86686.2,91694.7,62346.2,45420.2,96299,112045,48014.7,47017.4
91372.5,90877.5,60530.4,60417,129088,133251,49832.2,47934.9
79561.8,100233,42680.4,70620.2,98578.2,132462,49565.2,48752.7
90626.4,111354,70323.4,90497.4,136546,142545,49509.3,49439.6
87822,108439,47447.4,80246.6,119465,148749,49700.1,49310.2
83978.1,87633,62414.8,64390.2,124971,130276,47775.7,52769.4
76266,106522,48637.4,69249.6,107549,145718,46112.9,49261
77469.3,97790.4,48988.8,83798.4,101531,157391,48575.2,47428
101029,51652.8,83526.8,43300.6,159435,95142.6,51332.1,48334.6
84014.1,97944.3,65535.4,58219,113676,124900,47885.6,48178
87524.1,64755.9,63282.8,37753.8,119790,91005.6,53706.5,49278.2
80663.4,84771,47334,77901.6,109119,133518,49809,48320.4
98957.7,128257,85036,118037,148989,181275,50548.7,49781.5
90411.3,85956.3,75227.6,60209.8,120498,120050,50140.1,49298.9
86402.7,73657.8,52596.6,45536.4,112909,98267.4,50026.4,47610.4
77844.6,55674.9,63763,51808.4,123651,97490.4,47759.2,50152.2
85023.9,102729,63492.8,96066.6,98371,157571,51947.7,51159.7
97574.4,90143.1,85650.6,53678.8,169599,127252,48127.3,51045.4
63944.1,102846,44013.2,76657,99638,146135,46658.9,48242.3
91791.9,55150.2,66942.4,37480.8,160518,93154.6,49325.8,43084.2
86265,69279.3,59052,37763.6,118296,88999.4,49627.5,48384.4
75123.9,76873.5,43818.6,49186.2,97057.8,97748,48100.4,49309.2
66283.2,70068.6,64409.8,50953,136304,106796,47342.7,44031.8
95839.2,70022.7,79230.2,36148,138594,111639,53045,49399
89713.8,73075.5,73490.2,46923.8,126050,101858,47983.1,49102.3
88724.7,74961.9,49684.6,54630.8,116581,114715,47586.1,46946.2
79127.1,119035,51458.4,93602.6,95629.8,171123,44764.6,52440.9
75297.6,81452.7,50932,51587.2,105440,122875,47849.6,48068
91050.3,80669.7,67292.4,67433.8,127196,136993,49306.1,50192.5
91098,73061.1,88268.6,47336.8,138580,104331,48890.7,47848.6
95653.8,80285.4,69713,59410.4,140340,116976,49925.3,50155.6
81737.1,69660,52623.2,51038.4,106770,97736.8,50277.6,48138.2
97802.1,67314.6,76010.2,30377.2,156297,99257.2,50598.4,48501.2
80875.8,78911.1,60559.8,60750.2,109470,135927,42225.8,47828.2
88738.2,86643.9,54546.8,67090.8,112498,121535,45070.9,49739.9
86407.2,90096.3,44679.6,74814.6,123390,143084,48293,48314.8
90852.3,101140,73511.2,73775.8,129412,168384,48093,47601.3
86956.2,110196,52787,99537.2,117005,185345,50401.5,47347.1
85034.7,65057.4,53988.2,31523.8,112144,95074,48417.9,47140.7
82536.3,99213.3,72986.2,72472.4,120956,144420,47230.1,48895.9
103083,75132,89024.6,59211.6,143038,105413,50989.1,48033.3
73123.2,53453.7,40688.2,37116.8,100509,95627,48113.4,46716.4
88098.3,57579.3,60117.4,47321.4,131170,87134.6,51251.6,49333.5
88992.9,111196,83897.8,106261,128122,184433,52905.9,50981.4
83982.6,103142,58256.8,64734.6,109491,146832,50130.2,49666.3
92566.8,101912,70600.6,91205.8,144600,176302,48739.8,46042.7
110221,81252.9,105522,53093.6,165204,113347,51512.7,48351.1
76658.4,93299.4,62321,74678.8,112553,149618,45427.1,51211.4
78638.4,82678.5,53716.6,73120.6,104100,140465,47221.2,48455.5
93490.2,77021.1,73890.6,33789,140713,102742,48510.6,48801.8
77239.8,70201.8,48987.4,40945.8,89819.8,92113,51065.9,49720.3
82167.3,73308.6,50929.2,58641.8,110107,120221,47909.7,45212.2
99264.6,93348.9,77917,63145.6,140164,141464,49909,48257.9
88701.3,106801,68797.4,84646.8,125656,152663,48004.9,48435.8
92641.5,94748.4,69944,69685,134924,121071,50887.6,44719.3
77499.9,76047.3,53986.8,67260.2,97783,116161,48590.1,47508.8
106359,54778.5,81432.4,41563.2,149579,87703,48509.2,46977.6
85663.8,100961,76392.4,86027.2,113404,183813,49530.3,48723.5
93160.8,97750.8,76958,82868.8,131281,160446,48615.1,49529.4
89720.1,62220.6,85454.6,46583.6,136265,97973.4,49959.1,48154.8
75375.9,58782.6,38662.4,28473.2,104455,87406.2,46758.1,48310.4
91757.7,90845.1,65007.6,92684.2,139699,149408,50589.3,50161.3
80954.1,125414,46146.8,83519.8,105826,180394,49970.3,52407.2
72117.9,76502.7,53358.2,53765.6,97220.2,106089,46273.9,48694.3
79969.5,66976.2,63959,36523.2,119357,88706.8,49070.2,49203.2
82474.2,54047.7,61639.2,39762.8,111675,99885.8,44810.2,45561.7
96119.1,85928.4,62795.6,71754.2,145095,148945,50045.6,45353.5
98676,86514.3,91645.4,75009.2,137213,143062,52510.4,46958.3
82257.3,83161.8,51361.8,53249,105224,119102,47061.6,48457.1
74591.1,76975.2,40252.8,62185.2,86842,134413,47840.8,44893
63394.2,85941.9,49021,81321.8,88930.8,135582,45580.6,49477.8
78915.6,68277.6,56354.2,36766.8,88883.2,92292.2,46863.3,46520.7
59657.4,99780.3,55858.6,80736.6,91208.6,161319,49283,49331.7
86049.9,94961.7,67292.4,52193.4,125887,125257,49407.9,47486.7
77936.4,83706.3,57295,53751.6,112836,121895,45691.2,50032.5
84948.3,105872,54265.4,110880,120754,170687,49284.6,50624.5
84941.1,96956.1,41895,74522,126141,145099,47268.7,47355.9
55669.5,94367.7,39431,80838.8,90605.2,142383,46695.1,49776.5
90976.5,99251.1,66507,78867.6,143662,162518,51351.1,46480.6
73700.1,89313.3,29055.6,81495.4,87312.4,145081,50313,52898.3
83068.2,71539.2,59364.2,37164.4,117044,92719.2,50460.5,50551.1
67174.2,100515,36349.6,78815.8,87161.2,138947,49527.8,46573.3
81183.6,114984,55031.2,77627.2,107321,163495,49384.4,50974.5
93663,104297,80414.6,93958.2,141460,176963,49560.2,47281.5
88238.7,54041.4,58167.2,43762.6,126099,93718.8,48380.2,44788.6
70453.8,68252.4,43687,63940.8,91043.4,103543,50328.5,43479.4
88923.6,92963.7,62734,67153.8,110635,139153,47517.9,53568.1
84417.3,65568.6,70826,35261.8,107633,91070,52078.4,48079.8
85023.9,70334.1,83707.4,42977.2,160045,91378,46526.2,50340.1
86443.2,75197.7,59931.2,32746,109725,96223.4,45592.7,44029.7
94052.7,87279.3,58865.8,76612.2,129525,128895,48179.3,47796.7
98024.4,90740.7,98561.4,82745.6,171812,150746,44898.4,51954.5
56909.7,97938,50745.8,58324,93842,167469,47618.2,44921.8
77901.3,60232.5,43219.4,45987.2,92947.4,100936,50482.9,46906.4
57840.3,79326.9,54020.4,54698,95076.8,104884,43367.5,48376.3
73104.3,85336.2,74446.4,88523.4,129142,155348,53108.9,50031
72392.4,94279.5,50990.8,56407.4,102407,116824,48373.1,48783.8
87160.5,76554.9,67601.8,59194.8,125399,113057,46425.8,50919.6
79893,103148,55056.4,82979.4,97736.8,156036,46286,52382.5
92002.5,77241.6,69827.8,45215.8,121979,99170.4,47808,49436.6
87460.2,93185.1,66523.8,58732.8,129910,137353,45584.9,45180.5
86014.8,100337,65361.8,58436,128269,152993,49070,48104.6
84730.5,63027,72149,36099,113084,90550.6,44133.5,45461.1
89353.8,125672,63371,88886,123364,179514,49613.6,50296.7
76631.4,91084.5,64717.8,77166.6,125604,148177,45999.3,45763.9
94641.3,113471,103011,84270.2,157906,164251,52644,53730.2
92258.1,109984,67918.2,95830,122534,185091,50150,51026.2
94041,72467.1,82111.4,36884.4,140202,91441,50446.9,50285.5
77969.7,65906.1,57267,45914.4,106684,105183,46576,52357.7
73501.2,60065.1,38532.2,59253.6,88565.4,104467,50356.3,42228.4
82979.1,73474.2,53148.2,42456.4,114285,102103,49781.6,49553.8
89449.2,80689.5,65021.6,59287.2,133427,107271,50010.6,44659.9
103151,73494,49865.2,43804.6,139693,97553.4,47533.4,48960.9
72252.9,53786.7,49032.2,51161.6,102151,94788.4,47776.8,50154.2
96530.4,81581.4,52574.2,52864,115401,115073,47806.8,44971
97143.3,91411.2,87936.8,79013.2,154970,135716,49897.8,49167.9
82305,92449.8,58996,65511.6,118346,135188,48355.8,48658.2
77344.2,70223.4,53842.6,45929.8,108934,108781,50729.8,47935.6
75503.7,85509.9,40076.4,79630.6,92349.6,131788,51958.7,47411.2
82633.5,114079,75741.4,111016,139364,188063,48073.1,49362.8
98625.6,62262,72772,31273.2,149674,87858.4,52890.5,49660.9
76414.5,70988.4,41648.6,40643.4,91015.4,107160,50362.6,47680
94307.4,80300.7,80224.2,43374.8,136143,105001,52816.2,50511.9
90239.4,93377.7,66397.8,48438.6,116095,125185,50087.7,49797.2
110102,113316,99775.2,66357.2,183502,165295,52664.1,46038.3
98609.4,103603,74422.6,71892.8,137932,152139,43896.3,49013.6
73622.7,91719,24201.8,60078.2,92659,130616,49477.1,52598.6
57830.4,73586.7,31005.8,43598.8,88433.8,97603.8,47111.4,49306.1
93716.1,92754,70028,79563.4,135149,154512,48312.2,47850.4
50893.2,70870.5,44524.2,43190,91144.2,93437.4,44962.7,48815.3
48114,94080.6,47650.4,53832.8,137880,115814,51298.7,49322.3
64113.3,93387.6,47117,59333.4,91729.4,129755,49230.5,48811
89411.4,55076.4,65588.6,44290.4,143931,93759.4,46944.3,42949.1
90785.7,66505.5,72602.6,51871.4,131627,105169,50291.8,47322.8
77402.7,94868.1,48356,69781.6,99811.6,128575,47183.6,51298.3
92611.8,75666.6,74558.4,51262.4,167285,100257,49079.4,47710.1
49218.3,78142.5,36397.2,40698,86889.6,105738,48842.9,48622.3
87863.4,67919.4,61954.2,38998.4,113656,87297,47714.7,50090
79557.3,65432.7,61042.8,44849,92884.4,98403.2,49238.2,45089.8
91945.8,73250.1,72555,80084.2,130042,146517,48429.4,47490.5
82360.8,84175.2,39866.4,50789.2,101493,112524,48562.3,49060.6
84771,74004.3,56144.2,64479.8,112059,124733,48573.3,43732.8
104687,98640.9,89429.2,84823.2,154729,150630,52598.9,48760.4
96453,68247,79977.8,34034,154475,93469.6,50505.9,48729.2
79617.6,91463.4,63081.2,64020.6,107178,137243,50529.2,48532.3
81066.6,68692.5,36534.4,36285.2,102864,87494.4,48494.2,49650
91081.8,97400.7,64936.2,93798.6,112251,157696,52591.3,48197.5
64143.9,68654.7,48283.2,39817.4,104569,88195.8,44698.3,45724.3
68477.4,65860.2,70861,29892.8,136791,111527,45536.8,47555.6
94725.9,74872.8,70610.4,43330,145375,95106.2,51964.7,49927.4
80003.7,84303,48568.8,72613.8,156419,143457,48570.1,46039.1
68062.5,60587.1,55252.4,40745.6,99450.4,95985.4,47673.7,48339.2
96519.6,69073.2,64680,45311,133643,98722.4,46262.6,49624.3
111130,71458.2,118881,42964.6,186683,92855,46891.9,51064.4
90811.8,88401.6,69521.2,68779.2,129913,126470,44988.3,44623.4
74925.9,80315.1,48144.6,48678,94273.2,123599,47489,48933.1
86425.2,70587,68328.4,70138.6,121106,132800,46488,42935.8
63171,71362.8,41021.4,60453.4,96147.8,94890.6,49372.8,46940
71365.5,109268,33409.6,73561.6,91945,152439,49674,49654.6
85770,107101,53002.6,80682,100208,170506,47137.9,48490.2
87164.1,83171.7,55241.2,50960,125749,110127,49869.1,49067.6
84466.8,83944.8,61796,54346.6,114677,117187,50242.9,53683.7
82510.2,98597.7,87099.6,76962.2,143952,175122,42527.4,52781.8
86166,67820.4,77613.2,49749,150478,110382,48608.1,47936.4
81191.7,89520.3,47252.8,89345.2,106865,144336,51056.7,44296.8
92532.6,83459.7,56053.2,65693.6,111371,131263,48488.5,47094.5
82279.8,57205.8,57353.8,43132.6,125509,108437,46959,46935
90450,78358.5,90095.6,42105,169301,117288,47764.8,48021
72060.3,92259.9,47240.2,70747.6,97461,144990,47999.6,49877.5
94083.3,86547.6,91620.2,57661.8,156416,125888,48098.5,50544.6
76726.8,84457.8,45192,65226,95825.8,129179,48787.9,48125.2
82033.2,73218.6,40103,47684,118754,90581.4,49014.9,50977.8
83775.6,99227.7,62491.8,79886.8,115282,130868,46284.4,51040.5
86876.1,81998.1,66668,47237.4,130269,103676,45900.1,48803.2
97824.6,96596.1,77420,70487.2,154490,125205,48854.3,50648.5
75986.1,68872.5,39583.6,57628.2,91861,98578.2,48311.8,51920
84078,69928.2,70744.8,58805.6,127681,107997,49989.4,47300
78802.2,72558.9,51601.2,66936.8,106324,133070,49182.8,46755.4
92418.3,81300.6,68114.2,79392.6,129846,133169,49510.6,45739.4
73269,76817.7,37606.8,50850.8,88193,101510,50074.3,47929.8
90691.2,77841.9,77779.8,40632.2,143616,95705.4,47075.7,47680
95201.1,100011,66192,91435.4,133515,157046,47456.8,48308.9
93815.1,109021,80276,89142.2,149069,162014,52600,48592.9
70468.2,93204.9,29479.8,63933.8,97820.8,142157,48311.8,47963
75798,105436,45802.4,88666.2,103792,185410,53146.7,53189.1
99010.8,90071.1,77196,63408.8,134345,129186,50435.8,49932.1
85093.2,89908.2,52609.2,73386.6,115014,137805,49120.3,44085.3
65566.8,76581,31564.4,36052.8,89139.4,126195,48214.2,48715.6
71457.3,51918.3,75828.2,40314.4,138240,90252.4,44255.3,43586.5
90415.8,91526.4,54196.8,64593.2,126200,113721,52541.4,49629.8
84707.1,74106.9,45064.6,35155.4,105938,91033.6,48627.3,48946
76427.1,77121,38113.6,72301.6,94533.6,135433,47481.6,48509
82571.4,87705.9,53151,69375.6,103359,137656,51428.1,49423.5
98397,81363.6,74008.2,43317.4,145669,109487,51609.3,47128.9
86115.6,81496.8,54649,44112.6,102952,94052,49339.6,47971.2
98840.7,90394.2,77512.4,64061.2,143452,139455,50461.9,49051.3
82033.2,84980.7,50841,78124.2,108256,149883,46444.3,44149.1
96746.4,84119.4,91715.4,62385.4,153913,114747,49322.1,48682.9
89879.4,72925.2,72888.2,46488.4,131772,102777,52728,47797.1
85383.9,87486.3,60846.8,64216.6,121491,143503,46626.4,45522.2
81157.5,71480.7,58332.4,56079.8,102620,102295,51380.3,49343.7
87925.5,61155.9,73332,44104.2,112844,91950.6,50159.5,49626.1
82542.6,103577,56361.2,116655,112064,151194,47724.6,50445.2
71622.9,87765.3,45262,48146,103331,113666,50064.9,49511.6
107361,80829.9,51458.4,45126.2,123073,100694,45281.6,50169
81261.9,89611.2,48323.8,98222.6,108119,137619,45817.7,50501.2
87463.8,103717,74771.2,84148.4,142167,171108,47188.2,50420.3
88579.8,70921.8,57969.8,56754.6,130558,101965,47013.5,44927.5
84658.5,107665,60508,65958.2,127358,150265,48988.8,48414.9
85095,80846.1,46251.8,45732.4,110513,114514,48630.5,44645.2
89464.5,81564.3,61341,33324.2,123136,91936.6,48356.1,49151
78246,111316,55150.2,68549.6,103163,160152,48618.6,53509.4
72583.2,66676.5,33754,56676.2,92988,114218,49371.4,46493.2
81150.3,100724,62564.6,71309,121785,145275,48466.2,49606.6
68878.8,74379.6,44947,39634,98012.6,97139,49076.2,44795.2
90979.2,106714,63613.2,87215.8,123343,169984,52345,50066.1
85653.9,78005.7,44709,56145.6,88334.4,113728,50316.9,47515.4
76625.1,97828.2,84011.2,78363.6,160272,143069,44309,48401.3
92484,100443,54390,85993.6,109050,175535,45455.3,48711.3
81066.6,117537,48071.8,91060.2,117187,168031,49354.9,50452.6
68547.6,97755.3,43877.4,77459.2,92404.2,153353,46640.7,50488.9
81462.6,59053.5,51105.6,50310.4,105657,118313,48434.5,47453.6
83011.5,77960.7,51238.6,54838,108881,111408,49056.1,50187.1
73021.5,71647.2,45998.4,42593.6,87687.6,102773,48277.8,49410.2
86917.5,47972.7,67253.2,50321.6,130355,104058,49773.7,46536.6
83051.1,99185.4,71520.4,98155.4,129151,178342,47534.8,50137.4
87583.5,107367,61254.2,101833,123186,160828,49615.5,52098.4
93554.1,107278,65416.4,82370.4,122991,166452,51008.8,49534.8
101945,100404,79601.2,66753.4,158554,123733,50243.6,49361
69802.2,93427.2,40156.2,77645.4,87134.6,142276,48970.9,48649.6
86256.9,73043.1,52756.2,53765.6,91429.8,118828,50209.2,47398.6
98604,70137.9,77509.6,42756,153737,88951.8,52346.6,49394.2
97097.4,80611.2,79977.8,43300.6,131415,94122,51238.2,50097.3
103509,87049.8,70609,65805.6,153549,131359,51303.4,48864.7
86972.4,89624.7,67524.8,57407,142234,116463,46541.1,48663.4
90499.5,62100,66035.2,34998.6,115654,87140.2,47542.2,49309.3
70951.5,86669.1,35910,100342,87899,158526,48440.3,42912.3
90470.7,70470.9,55984.6,35183.4,121922,91058.8,47764.2,49610.7
82818,91586.7,51954,62375.6,122753,124832,49200.3,48412.1
77883.3,67478.4,47188.4,54079.2,89208,109024,50036.7,49342
46328.4,101245,43436.4,66711.4,88971.4,136251,43589.9,49885.8
91824.3,98969.4,61773.6,63028,120807,133013,49926.5,51450.6
69312.6,91330.2,67382,69472.2,114101,145796,48005.9,48765.9
78665.4,64735.2,32296.6,37934.4,87049.2,91324.8,47768.4,44165.4
90479.7,76741.2,61798.8,100461,131208,167331,50262.1,42265.4
83310.3,100152,54310.2,84649.6,103061,162135,50619,52555.3
63214.2,62488.8,49135.8,26894,107649,97197.8,45909,48354.3
100884,97452.9,105834,69771.8,173824,137080,51117.4,52054.3
85841.1,84724.2,61531.4,63611.8,122322,123523,48251.5,48649.7
79516.8,78740.1,43846.6,49091,103744,112598,50855.3,49603.1
82443.6,79961.4,61328.4,47679.8,119305,93130.8,49443.3,49168.8
86391.9,109437,68588.8,98553,122511,160678,46834.9,49376.9
85067.1,91120.5,71177.4,81534.6,128402,141859,49446.2,49147.5
79017.3,77096.7,42945,61896.8,101469,134338,49256.8,44154.5
97813.8,80028,71975.4,44069.2,143629,93658.6,49435.3,49380.3
91297.8,69119.1,64971.2,41333.6,112071,87687.6,50451.3,42288.6
96369.3,60508.8,69385.4,43694,131246,94151.4,50406.6,41975.4
88506.9,100724,64495.2,81901.4,127765,147175,46682.7,51445.4
80604,84525.3,59742.2,65815.4,117531,119734,48143.5,50747.8
84103.2,98900.1,44007.6,78191.4,143613,144631,48566.9,46566.3
82886.4,82035.9,48675.2,41559,119325,113263,50874.2,50978.9
89273.7,49636.8,63684.6,50395.8,129408,100867,49304.3,46646.4
94262.4,65119.5,48165.6,38742.2,116333,87068.8,48980,46270.5
98766.9,87990.3,76244,59931.2,155751,120709,48526,49448.6
96587.1,69339.6,79767.8,33121.2,136550,87918.6,48967.3,49319.6
85041.9,109698,63323.4,79107,99146.6,145390,50910.9,50056.9
97546.5,96408.9,72710.4,48433,136902,129683,51858.9,49288.9
89204.4,89016.3,59878,66410.4,123854,133984,50708.2,49112.8
85008.6,114048,55099.8,76473.6,122832,145813,49242.7,46156.6
106564,86123.7,67545.8,60134.2,140689,147890,53308.5,49719.6
74142,74791.8,48358.8,43197,90811,97654.2,50103.1,48798.8
88109.1,85086.9,59581.2,44745.4,117939,104993,48441.4,46908.9
86902.2,83006.1,66194.8,77302.4,130322,175073,49458.2,47074.4
64773.9,70366.5,34032.6,34665.4,98991.2,88205.6,45345,48159.6
86579.1,74946.6,55139,39113.2,112865,92458.8,45204.9,47302.1
93884.4,74723.4,64328.6,43401.4,123053,100451,48763.3,48857.8
86337.9,86841.9,49925.4,68101.6,105510,125380,49768.6,51864.7
94676.4,81451.8,57632.4,100457,120051,154014,49867.2,44100.5
86633.1,86698.8,67027.8,52460.8,130113,108899,49151.3,50852.5
93465.9,71924.4,64766.8,54198.2,127982,117761,43148.8,47621.6
94635.9,110058,67947.6,81972.8,137694,146800,50413.6,51349.8
90206.1,69039.9,67293.8,60261.6,123488,128146,53064.8,47322.6
83657.7,58813.2,64940.4,34510,116486,87894.8,47733.8,48839.5
71874.9,77412.6,53963,41363,94812.2,96688.2,45713.2,47114
89399.7,78414.3,68327,53888.8,137143,108150,52130,48426.7
75879,66729.6,41185.2,71232,100696,130739,47951.2,44968.8
88132.5,77708.7,75896.8,80610.6,118041,125019,50335.9,50236.6
89000.1,65232,56583.8,37958.2,114913,87666.6,49110.1,48133.6
96076.8,95417.1,73922.8,93088.8,142038,141007,49369.5,49034.4
69056.1,52097.4,44406.6,42847,93643.2,97126.4,44489.8,46585.3
92303.1,88239.6,62944,58973.6,129536,111212,53514,50176.2
60778.8,56234.7,46193,41836.2,96885.6,86991.8,46097.1,45768.7
73854,67767.3,30448.6,56617.4,108310,118017,48689.2,41944.5
77908.5,59599.8,46999.4,29565.2,100453,93392.6,49609.5,46026.7
76210.2,75396.6,45021.2,37653,90546.4,100171,49609.5,47991.5
88365.6,85573.8,51731.4,46321.8,124284,135279,50800.3,49168.8
89031.6,99021.6,61993.4,79693.6,115172,146465,51813.2,50488.5
78227.1,62365.5,51879.8,35753.2,106680,87679.2,46978.1,47169.6
65651.4,82197.9,38735.2,45859.8,89264,132397,47843.4,49875.6
81971.1,93628.8,54745.6,82150.6,118818,136256,49384.4,50158.5
98133.3,79552.8,81713.8,48662.6,130721,108755,50514,50783.6
99711.9,60986.7,78941.8,31903.2,127695,88432.4,49693.1,48225.9
94959,77549.4,62349,43225,123165,114850,50421.9,47309.7
82389.6,97653.6,39715.2,86167.2,112344,142618,50028.7,47180.8
92659.5,83919.6,78255.8,60489.8,125217,128545,50584.7,50190
83279.7,125828,52927,76531,108242,162520,49269,46292.9
88316.1,55971.9,62825,44587.2,126130,92100.4,47478,49771.6
78761.7,115096,67097.8,117811,117187,175199,48412.7,48400.3
97366.5,89159.4,72933,76927.2,174873,133475,46603.2,50027.1
75528,119199,55188,91009.8,103830,172203,48319.8,50170.2
89906.4,101714,70809.2,100078,123634,176708,50399.4,51393.3
81015.3,89947.8,55006,54474,100815,114681,44562.4,51599.3
91928.7,65472.3,55952.4,45785.6,126046,87225.6,48599.3,51792.9
101096,81973.8,88968.6,63261.8,141134,108452,50059.2,49647.1
82023.3,108931,54733,135264,107996,182867,48372.5,49971.8
78690.6,120606,58665.6,92696.8,108667,185018,49095.4,45309.2
97157.7,93213,74281.2,90231.4,134585,152505,50940.8,45534.3
93402.9,77029.2,84009.8,55841.8,138424,112489,47555.6,50114.4
76536.9,119019,52061.8,69329.4,104881,148425,49808.7,50261.1
75969.9,104438,40912.2,84061.6,92257.2,174044,50149,44249.9
103926,109185,59187.8,80192,105519,157163,51463.3,49442.3
89730.9,98506.8,59103.8,75651.8,140949,140582,46550.4,51572.6
85053.6,98235.9,68598.6,64401.4,119720,125537,46702.7,52186.2
89320.5,69897.6,66364.2,42372.4,125616,88557,51184.1,47902.6
100519,117724,80171,77079.8,147388,169404,51808,46828.3
89906.4,106726,57937.6,101843,129095,150373,48633.3,50570.8
79961.4,94639.5,51394,68580.4,93627.8,145900,49833.2,49512.2
86541.3,89526.6,71471.4,76867,114754,135166,47114.4,47870.1
87125.4,86681.7,56991.2,52722.6,125707,117747,47759.3,47121.3
92166.3,91946.7,67547.2,59858.4,136699,131718,49041.5,47896
105678,86308.2,69042.4,60307.8,136914,130053,50334.8,49148.3
72500.4,80736.3,57516.2,45675,102374,109544,48239.5,46968.3
81177.3,100628,55238.4,70758.8,124781,172327,48712.3,48255.2
93222.9,96738.3,70697.2,76645.8,127322,150476,52601.8,48493.4
96973.2,118914,68492.2,62710.2,139131,138753,49571.2,49656.3
86854.5,64901.7,53730.6,37406.6,120229,86935.8,50535.9,48881.8
84445.2,67551.3,39354,55335,98200.2,108980,49408.2,51694.1
92175.3,95727.6,76302.8,47245.8,140168,110548,53229.5,49478
87281.1,78390.9,52266.2,45446.8,110209,108612,49339.4,48914.2
76501.8,103857,77421.4,97235.6,145085,184981,47894.4,50957.9
85212.9,83846.7,61147.8,51298.8,113271,95156.6,50135.5,48344.9
88602.3,104908,61129.6,96819.8,135201,180481,47584.9,47509.9
80496.9,90142.2,62351.8,59347.4,116616,117160,47749,49418.2
75918.6,82588.5,41965,48596.8,87246.6,100978,47039.9,48197.3
77984.1,73143.9,59221.4,40549.6,100288,97277.6,49955,49294.1
87995.7,110378,62619.2,96189.8,129312,170782,47993.2,50332.6
86076.9,92330.1,67795,83868.4,124925,133398,48205.8,47305
88632,77104.8,55060.6,77053.2,120802,137948,50695.5,48964.7
91530,117716,61191.2,80558.8,114712,173820,49413.2,50255.3
79350.3,76972.5,51643.2,60593.4,127814,120904,49842.1,47810.3
83262.6,71882.1,55021.4,37510.2,128040,94582.6,49235,49761.7
103684,60304.5,79777.6,35901.6,152205,91334.6,51583.9,46876.5
85610.7,84033,47506.2,81837,107394,141560,48329.6,50830.5
75570.3,,41699,,94108,,50173.9,,
87629.4,,70526.4,,116470,,49850.2,,
82012.5,,54194,,109270,,48750.4,,
85065.3,,89815.6,,113648,,48989.2,,
72834.3,,42120.4,,103197,,51704.8,,
88035.3,,63684.6,,117489,,48756.7,,
83093.4,,44049.6,,108399,,51036.7,,
84864.6,,99491,,142359,,50580.3,,
81921.6,,56774.2,,104880,,47970.5,,
96593.4,,67030.6,,139185,,48659,,
98910,,66690.4,,145221,,52182,,
79337.7,,62568.8,,103173,,48889.6,,
79305.3,,54114.2,,111745,,49939.4,,
84589.2,,62938.4,,106835,,51806.3,,
78710.4,,42669.2,,101926,,47665.7,,
66015,,48097,,97010.2,,46808.5,,
66006.9,,46688.6,,89357.8,,50242.4,,
80830.8,,60650.8,,110492,,49936.7,,
93978,,76515.6,,138141,,48950.5,,
77236.2,,62081.6,,120186,,44483.7,,
71993.7,,36321.6,,95233.6,,50369.8,,
78163.2,,44620.8,,91877.8,,48713.9,,
82367.1,,87192,,148453,,44949.1,,
89500.5,,62559,,118216,,50019.1,,
95613.3,,75380.2,,157312,,52940.8,,
73129.5,,37980.6,,89896.8,,49466.2,,
85995,,75497.8,,152986,,45664.9,,
89237.7,,80934,,161073,,48233.6,,
76480.2,,40790.4,,91448,,49132.8,,
96740.1,,79597,,152932,,45620.9,,
88865.1,,67050.2,,132394,,49997.6,,
99783,,63404.6,,137481,,49429.4,,
80832.6,,52889.2,,111957,,47223.5,,
88156.8,,55036.8,,108081,,48456.4,,
78152.4,,38813.6,,100640,,49499.1,,
77304.6,,40748.4,,92607.2,,49542.1,,
74766.6,,63729.4,,102795,,43488.1,,
100032,,73469.2,,147970,,51995,,
80786.7,,55456.8,,109585,,47553.6,,
93533.4,,70415.8,,146266,,52801.8,,
86622.3,,81460.4,,157968,,45424.3,,
78198.3,,64783.6,,107423,,47280.5,,
72959.4,,43253,,96437.6,,52647.9,,
98320.5,,71208.2,,139762,,50153.9,,
85726.8,,72220.4,,122949,,50030.1,,
71514,,50664.6,,97186.6,,48474.1,,
77503.5,,58385.6,,94246.6,,47947.1,,
85833.9,,58937.2,,104115,,48854,,
92043,,60930.8,,134688,,46909,,
77757.3,,60212.6,,119428,,49523.3,,
89199.9,,64457.4,,135866,,49158.1,,
92664.9,,64269.8,,134480,,49728.3,,
75455.1,,38099.6,,96731.6,,49555.5,,
92859.3,,62780.2,,134687,,50084.3,,
75861.9,,47867.4,,100415,,45722.8,,
96459.3,,76959.4,,161652,,47258.7,,
100191,,84714,,152706,,47471.2,,
78138.9,,50317.4,,114675,,47769.2,,
99995.4,,69829.2,,148056,,49467.9,,
88573.5,,67954.6,,140368,,52526.1,,
85226.4,,58882.6,,110321,,50121.6,,
52933.5,,21795.2,,88865,,46602.7,,
87282,,61919.2,,123108,,49056.5,,
68328.9,,42138.6,,98973,,43243.4,,
88127.1,,65895.2,,142114,,47375.1,,
67482,,33864.6,,89002.2,,47750.1,,
87479.1,,60767,,131992,,48674.5,,
73572.3,,49400.4,,87817.8,,47706.4,,
96940.8,,81340,,151493,,47533.1,,
91765.8,,76423.2,,128978,,51436.9,,
95208.3,,64429.4,,125208,,50203.1,,
70006.5,,34767.6,,95981.2,,48126.6,,
78624,,61768,,110263,,47004.9,,
102079,,68685.4,,134436,,52174.2,,
72964.8,,43107.4,,92498,,45108.5,,
64125,,49960.4,,103562,,47027.1,,
70303.5,,47203.8,,94187.8,,47819.4,,
88862.4,,50724.8,,115374,,47574.7,,
90073.8,,64703.8,,122655,,49868.9,,
82137.6,,74256,,110065,,48247.1,,
96237.9,,77077,,134991,,49509.8,,
86121.9,,51958.2,,115287,,49639.8,,
84916.8,,48286,,119602,,48508.1,,
71729.1,,46747.4,,92629.6,,49148.6,,
78129.9,,59710,,123402,,47193.3,,
114932,,73505.6,,152558,,49443.8,,
89041.5,,51725.8,,128430,,49095.8,,
104678,,77375.2,,157951,,51189.2,,
87759.9,,53166.4,,119560,,51728,,
100541,,66554.6,,136234,,51826,,
91460.7,,67999.4,,135883,,49658.1,,
87804.9,,70316.4,,120912,,50426.4,,
93939.3,,79577.4,,125328,,49005.2,,
85113.9,,56723.8,,110610,,48167.8,,
76113.9,,45850,,99234.8,,46755.5,,
73782,,65212,,100166,,47371.7,,
80909.1,,49938,,124326,,45924.1,,
70815.6,,42779.8,,89149.2,,47200,,
88809.3,,95326,,162453,,44653.7,,
80060.4,,49792.4,,111454,,43648.8,,
91132.2,,73411.8,,131053,,49605.9,,
97958.7,,81270,,156201,,44240.3,,
86256,,62183.8,,123057,,46826.8,,
75911.4,,48006,,118089,,50948.8,,
77331.6,,36281,,107999,,50806.9,,
83970.9,,59196.2,,120214,,45775.5,,
86880.6,,56659.4,,109813,,46208.5,,
82289.7,,56142.8,,121769,,48534.4,,
86480.1,,79256.8,,137389,,47782.1,,
93364.2,,59939.6,,121124,,50138,,
95332.5,,69696.2,,145305,,48805.3,,
88365.6,,38980.2,,153770,,45338.8,,
89219.7,,68815.6,,113964,,51727.8,,
71248.5,,49029.4,,97631.8,,50231.1,,
82766.7,,52805.2,,110354,,49689.7,,
71325,,45154.2,,94134.6,,47911.1,,
73414.8,,41003.2,,88912.6,,48996.4,,
66758.4,,33908,,88274.2,,49079.1,,
84015.9,,59474.8,,126251,,48129.5,,
71462.7,,41350.4,,91938,,50009.1,,
91246.5,,67956,,130494,,48251.2,,
84776.4,,47539.8,,117397,,48064.2,,
80415.9,,45719.8,,94465,,48768.5,,
76721.4,,62720,,115165,,48263.3,,
85663.8,,51867.2,,102617,,47242.1,,
93830.4,,62816.6,,131610,,50840.4,,
87818.4,,75583.2,,135920,,51864.9,,
90938.7,,78232,,145128,,52042.5,,
97123.5,,66274.6,,142255,,50812.5,,
92967.3,,67503.8,,140189,,44745.5,,
94180.5,,66628.8,,136098,,50068.1,,
63261,,56292.6,,104643,,42648,,
70107.3,,30906.4,,90028.4,,49555.5,,
73343.7,,47513.2,,98868,,50226.5,,
70245,,30104.2,,93564.8,,46531.9,,
94625.1,,60230.8,,145015,,50811,,
104638,,65322.6,,130194,,53269,,
71844.3,,33793.2,,90655.6,,50230.9,,
84763.8,,59844.4,,110998,,50340.2,,
85824,,70501.2,,110121,,49160.4,,
69571.8,,30998.8,,99484,,49883.5,,
85622.4,,57125.6,,124410,,50131.2,,
94526.1,,78013.6,,140762,,47483.9,,
87132.6,,60023.6,,149484,,46794.9,,
89831.7,,70687.4,,142222,,49314,,
73202.4,,49116.2,,113074,,45623.7,,
87060.6,,67114.6,,117158,,48103.8,,
76050,,55742.4,,131467,,51047.2,,
94212.9,,68682.6,,132202,,52502.3,,
58338,,45808,,94983,,49420.3,,
94839.3,,56060.2,,115867,,48336,,
87631.2,,62819.4,,141359,,53535.9,,
75336.3,,51034.2,,107286,,49176.7,,
97740.9,,89338.2,,161854,,48487.2,,
85461.3,,59522.4,,108898,,52023,,
92097.9,,73229.8,,161052,,51693,,
96750,,61238.8,,140514,,51257.9,,
85007.7,,43740.2,,110725,,49423,,
85959.9,,51909.2,,126816,,50752.1,,
99574.2,,69321,,140735,,49969.3,,
83709.9,,96779.2,,128290,,52815,,
89001,,55034,,123533,,50338.8,,
90547.2,,69700.4,,126339,,50589,,
94369.5,,77119,,150861,,49581,,
73261.8,,47734.4,,93707.6,,46242.5,,
88651.8,,57731.8,,114394,,48030,,
71480.7,,49669.2,,96020.4,,50130.2,,
76801.5,,51683.8,,98229.6,,47244.6,,
71940.6,,38707.2,,93413.6,,48835.1,,
87672.6,,74704,,134565,,44636.5,,
68290.2,,30577.4,,88284,,46092.3,,
95625.9,,84656.6,,150765,,52724.7,,
90996.3,,58308.6,,124307,,49895.7,,
82648.8,,49215.6,,111423,,46704.3,,
66927.6,,31495.8,,93314.2,,49599.1,,
72160.2,,40903.8,,93658.6,,48795.1,,
86292,,58647.4,,132398,,44388.9,,
99130.5,,76697.6,,144320,,50194.7,,
83326.5,,64086.4,,122556,,49822.3,,
70034.4,,52487.4,,100640,,46654.3,,
83106,,52049.2,,109458,,50587.4,,
86807.7,,47404,,114997,,51215.8,,
78498.9,,38978.8,,99744.4,,49254.5,,
69273,,37170,,95027.8,,47381.8,,
94525.2,,68948.6,,132108,,52159.9,,
92727.9,,75005,,127471,,51589.5,,
77752.8,,44370.2,,96705,,50149.5,,
107111,,86695,,163727,,52542.6,,
122225,,91505.4,,168161,,52429.2,,
90169.2,,69455.4,,129496,,49393.7,,
88406.1,,57118.6,,125363,,48811,,
80956.8,,49113.4,,107191,,50191,,
70802.1,,39918.2,,88757.2,,49646.4,,
81488.7,,41312.6,,110443,,49553.6,,
59604.3,,44672.6,,108766,,47868,,
87398.1,,52508.4,,114639,,49987.8,,
79173.9,,61230.4,,111131,,48290.2,,
79875,,51963.8,,104791,,49243.4,,
92600.1,,54483.8,,113921,,50805.2,,
93510.9,,63180.6,,123700,,47376.6,,
99680.4,,80281.6,,147802,,50701.3,,
88905.6,,57223.6,,108777,,50601.5,,
96130.8,,86284.8,,137935,,49018.7,,
88355.7,,57372,,124271,,52961.3,,
81832.5,,52179.4,,106666,,49329.6,,
78344.1,,47440.4,,99906.8,,45689.2,,
82917.9,,59511.2,,108994,,46399.8,,
83046.6,,70915.6,,131116,,53692.6,,
70178.4,,63715.4,,138473,,45584,,
66119.4,,53135.6,,97771.8,,47801.3,,
84901.5,,68810,,112298,,50488.1,,
90630.9,,52389.4,,128331,,50072.6,,
94099.5,,66234,,125919,,49690,,
84945.6,,66710,,117851,,49960.7,,
96511.5,,81842.6,,158095,,49823.1,,
79310.7,,83213.2,,132215,,46960.2,,
75521.7,,45360,,103142,,45516.2,,
105693,,90393.8,,176847,,52169.5,,
79616.7,,56021,,101501,,47560.7,,
99117,,81012.4,,148015,,49553.2,,
69171.3,,52463.6,,99960,,51642.6,,
82817.1,,67622.8,,108983,,51433.5,,
82818.9,,57155,,119169,,48897.8,,
78048.9,,72646,,117390,,48623.3,,
79137.9,,61909.4,,107475,,47148.2,,
70659,,41728.4,,99948.8,,44565,,
82388.7,,54467,,122119,,47753.9,,
74826,,55382.6,,105207,,43830.1,,
98060.4,,69760.6,,135825,,49454.7,,
90428.4,,48336.4,,104814,,52289.7,,
98091.9,,66292.8,,155313,,51065.1,,
88054.2,,62423.2,,135412,,50504,,
76114.8,,47730.2,,103169,,48615.5,,
98910,,93731.4,,144225,,53455.9,,
79840.8,,48925.8,,97531,,44812.8,,
82547.1,,36212.4,,132077,,48064.1,,
76290.3,,51667,,105391,,45800.4,,
82044,,55372.8,,108242,,45949.6,,
86523.3,,66938.2,,122396,,47837.8,,
84661.2,,63345.8,,109540,,49097.9,,
100039,,113338,,173446,,50761.6,,
86283.9,,69526.8,,139317,,50134.3,,
69783.3,,36509.2,,89385.8,,48970.7,,
81522.9,,63508.2,,102165,,47983.1,,
53850.6,,42295.4,,101203,,47587.4,,
97900.2,,71926.4,,130278,,48266.8,,
82161,,63095.2,,102641,,48692.3,,
90690.3,,61108.6,,116880,,50370.5,,
75957.3,,55577.2,,110523,,45117.3,,
92943,,75776.4,,154304,,46102.9,,
83964.6,,63743.4,,110016,,50180.9,,
78488.1,,47937.4,,107101,,49277.1,,
70477.2,,32494,,89461.4,,48923.7,,
80893.8,,52336.2,,109756,,47987.5,,
84573.9,,50297.8,,119326,,52247.5,,
83714.4,,76876.8,,113772,,51138.4,,
70865.1,,36797.6,,96671.4,,51530.7,,
68553,,30238.6,,89468.4,,49990.1,,
95043.6,,68656,,128786,,49692.5,,
69729.3,,36344,,101583,,43594.7,,
97410.6,,60366.6,,115294,,51810.8,,
91095.3,,60981.2,,121821,,51658.6,,
53599.5,,33888.4,,94907.4,,48355.7,,
76924.8,,42040.6,,96692.4,,46137.9,,
91728.9,,86626.4,,140626,,44765.7,,
98802.9,,62665.4,,137110,,51500.7,,
82148.4,,57710.8,,116301,,50489.9,,
82004.4,,41164.2,,102778,,47531,,
86188.5,,84225.4,,160103,,46859.8,,
98396.1,,69465.2,,141161,,48884.2,,
82985.4,,49539,,114131,,48200,,
82556.1,,49403.2,,113777,,50208.5,,
91391.4,,74779.6,,133363,,49520.7,,
69372,,74218.2,,109151,,42074.6,,
73516.5,,61920.6,,99500.8,,50421.3,,
84374.1,,77091,,129767,,53546.4,,
92412.9,,64650.6,,138002,,50662.1,,
87318,,59789.8,,125373,,48281.2,,
74005.2,,31385.2,,94138.8,,49070,,
77517.9,,55816.6,,110226,,46724.5,,
85056.3,,67492.6,,114775,,48294.7,,
65424.6,,34314,,102746,,45619.4,,
64914.3,,50568,,96237.4,,50905.5,,
119941,,114628,,183603,,48632.4,,
85213.8,,64103.2,,126749,,48613.2,,
76231.8,,50180.2,,106142,,46942.2,,
71601.3,,51522.8,,110121,,50414.8,,
82190.7,,50397.2,,120480,,52059.3,,
93043.8,,79580.2,,152635,,47443.7,,
96318.9,,81018,,154322,,52545.9,,
81004.5,,84604.8,,145261,,50758.4,,
62747.1,,41650,,96731.6,,48018.3,,
85066.2,,51375.8,,122216,,46699,,
95373,,81789.4,,147836,,47039.4,,
105208,,75002.2,,123228,,47865.6,,
73726.2,,49009.8,,90802.6,,48832.4,,
77408.1,,52745,,111959,,48453.9,,
79360.2,,55351.8,,119773,,51767.2,,
95935.5,,82216.4,,126566,,49347.7,,
70467.3,,30823.8,,89385.8,,48724.3,,
77969.7,,40091.8,,88561.2,,49345.8,,
87348.6,,75213.6,,150735,,50390.1,,
88344,,55739.6,,111822,,47284.1,,
60588,,37744,,86986.2,,45237.1,,
82431,,42999.6,,117110,,47163.3,,
85145.4,,61751.2,,104203,,51491.4,,
83886.3,,53377.8,,107747,,49321.3,,
79542,,44417.8,,99708,,48239.1,,
85466.7,,67011,,125751,,48845.6,,
96794.1,,78085,,151444,,46297.3,,
93727.8,,69218.8,,154547,,51637.9,,
76834.8,,53067,,115395,,49979.9,,
87468.3,,84617.4,,139105,,48269.4,,
81162,,52756.2,,111492,,50339.7,,
101704,,87606.4,,156737,,49919.8,,
112604,,102052,,179066,,50698.7,,
73665,,75730.2,,138019,,47559.9,,
80865,,63009.8,,107407,,50182.4,,
93035.7,,71092,,141128,,50035.7,,
93207.6,,67897.2,,127504,,51476.8,,
97658.1,,76811,,159284,,52084.1,,
94671.9,,65354.8,,130403,,50459.4,,
78640.2,,68706.4,,119930,,43036.2,,
82385.1,,61709.2,,127361,,50990.6,,
67607.1,,51391.2,,93105.6,,46646.2,,
87251.4,,56733.6,,129069,,52401.1,,
87306.3,,54695.2,,113662,,52808.9,,
86233.5,,55874,,121356,,49639.7,,
96057.9,,73925.6,,142611,,51412.1,,
59856.3,,37156,,86938.6,,49522.9,,
92490.3,,86290.4,,149274,,50179.9,,
78790.5,,61565,,151927,,49548.4,,
99389.7,,72164.4,,145842,,50496,,
76029.3,,50857.8,,110531,,44447.5,,
88858.8,,72154.6,,116973,,47312.4,,
81519.3,,73271.8,,121061,,47342.2,,
83426.4,,65445.8,,114850,,47011.5,,
87588,,53306.4,,117585,,46164.6,,
88371.9,,56128.8,,108637,,49949.9,,
88923.6,,72339.4,,138040,,48461.6,,
86562,,61919.2,,113456,,46096.9,,
88877.7,,48925.8,,110748,,49287,,
84904.2,,56301,,110677,,48103.1,,
56909.7,,42779.8,,102638,,45247.1,,
83746.8,,46858,,104136,,50704.8,,
81927.9,,47066.6,,109206,,52888.8,,
84878.1,,65025.8,,123946,,48208.8,,
88681.5,,49184.8,,109959,,48891.1,,
88813.8,,63901.6,,128541,,50552.9,,
81832.5,,54868.8,,107481,,48659.9,,
86591.7,,70851.2,,135306,,52396.8,,
78858.9,,83328,,126965,,46426.1,,
78660,,50997.8,,114800,,50080.8,,
82318.5,,67712.4,,118283,,46510.5,,
90963.9,,48141.8,,133368,,48645.3,,
93861,,78163.4,,148253,,50226.3,,
102298,,85498,,149905,,46729.3,,
72838.8,,39649.4,,91814.8,,50225.8,,
101132,,70683.2,,130432,,49344.5,,
88111.8,,71118.6,,145852,,48795.8,,
90985.5,,75066.6,,143959,,44902.7,,
71803.8,,38003,,100076,,49806.6,,
104113,,61199.6,,137131,,45687.9,,
92915.1,,52357.2,,116110,,49700.3,,
93920.4,,82650.4,,171261,,51348.2,,
81912.6,,49561.4,,99264.2,,49998.8,,
90392.4,,61997.6,,126525,,49033.9,,
88362.9,,73318,,112004,,51259.3,,
71352.9,,41526.8,,91039.2,,49677.8,,
79470,,46529,,105335,,47631.1,,
77833.8,,64696.8,,103946,,48869.4,,
90875.7,,81372.2,,151400,,49829.6,,
81864,,60086.6,,107404,,49635.1,,
89012.7,,59161.2,,120600,,48650.8,,
76880.7,,53494,,113546,,52157.2,,
77936.4,,72793,,116159,,46807.5,,
78381,,45925.6,,94830.4,,48395.8,,
104634,,81694.2,,144715,,52694.2,,
84729.6,,56449.4,,113812,,49874.4,,
88627.5,,52137.4,,116525,,49808.8,,
83478.6,,44438.8,,101864,,49270,,
96360.3,,69385.4,,158182,,51911.8,,
90855,,67519.2,,117103,,51502.4,,
78776.1,,37923.2,,100082,,47051,,
69192,,41252.4,,99251.6,,46708.2,,
79590.6,,62848.8,,108044,,49094.5,,
77058,,46146.8,,108647,,49123.3,,
97851.6,,70845.6,,126570,,50515,,
98051.4,,87414.6,,157837,,49704.3,,
72639.9,,41757.8,,92654.8,,49845.6,,
91211.4,,72416.4,,134005,,51225.5,,
78881.4,,71785,,132828,,49353,,
84746.7,,68454.4,,120662,,48124.5,,
83047.5,,48832,,106568,,50293.7,,
95985,,57222.2,,124002,,49194.9,,
92812.5,,76960.8,,124274,,53472.1,,
81264.6,,66637.2,,134410,,47192,,
53427.6,,42029.4,,93545.2,,47234.6,,
85355.1,,54084.8,,132492,,50866.1,,
73458,,45809.4,,106529,,46148.1,,
100079,,77742,,154875,,51151.4,,
88172.1,,65982,,116241,,50426.7,,
84575.7,,76427.4,,101094,,48157.4,,
74893.5,,56179.2,,97193.6,,47797.4,,
83515.5,,61679.8,,110398,,51281.3,,
82285.2,,52388,,94837.4,,47856.3,,
78731.1,,52133.2,,100677,,47459.7,,
86914.8,,43538.6,,106726,,49601.5,,
71192.7,,47747,,91518,,46734.2,,
91854.9,,74347,,117348,,50195.4,,
97507.8,,63070,,131487,,48996.3,,
86842.8,,57367.8,,137470,,46963.4,,
73194.3,,35127.4,,100118,,47887.2,,
67188.6,,50209.6,,107933,,46356.4,,
73004.4,,34920.2,,102658,,49751,,
103271,,94333.4,,166096,,53321.5,,
85556.7,,51234.4,,101774,,48410.7,,
87637.5,,54551,,109914,,51663.3,,
112276,,82642,,148065,,53455.9,,
81847.8,,53348.4,,130312,,46192.6,,
91770.3,,67676,,134704,,50363.1,,
84339.9,,49016.8,,122129,,50347.5,,
86648.4,,67286.8,,120177,,52542.7,,
79901.1,,43946,,105017,,49924.3,,
87033.6,,56093.8,,118873,,49431.2,,
92132.1,,83437.2,,147907,,52766.3,,
106313,,114142,,181609,,53094.2,,
97398.9,,75588.8,,136105,,50063.5,,
72556.2,,36744.4,,97913.2,,48703.3,,
87355.8,,86193.8,,138134,,47222,,
94310.1,,62584.2,,119890,,51202.2,,
91697.4,,86695,,141418,,49176.6,,
88180.2,,85342.6,,140371,,45496.5,,
85378.5,,63534.8,,113768,,49938.9,,
75771,,39986.8,,92192.8,,49339.9,,
62375.4,,58122.4,,99835.4,,44401.7,,
92395.8,,65739.8,,123617,,50666.5,,
71182.8,,50545.6,,99579.2,,49371.8,,
84165.3,,52143,,113191,,49984,,
80569.8,,42417.2,,105613,,51427.7,,
83068.2,,64829.8,,138979,,45057.8,,
67781.7,,35463.4,,87288.6,,49618.8,,
83793.6,,70075.6,,127852,,48617.4,,
111322,,108339,,169735,,51769.5,,
93631.5,,58073.4,,149068,,48584.9,,
79894.8,,60379.2,,108797,,47276.6,,
93447.9,,66493,,137276,,49265.2,,
83784.6,,51424.8,,118581,,45449.2,,
74172.6,,39821.6,,88160.8,,50376,,
82429.2,,76834.8,,126981,,47199.2,,
79639.2,,44928.8,,92649.2,,50904.4,,
73225.8,,75044.2,,110564,,49283.8,,
95706.9,,83987.4,,147736,,49295.8,,
70142.4,,36380.4,,93157.4,,50551.6,,
89177.4,,55890.8,,111875,,48746.4,,
75409.2,,35954.8,,92411.2,,49256.9,,
102686,,86380,,153643,,44815.2,,
86985.9,,59740.8,,104889,,49690.5,,
83024.1,,61177.2,,114792,,53108.2,,
76431.6,,47437.6,,98301,,47048.1,,
84537.9,,55703.2,,113386,,50662.7,,
67730.4,,45679.2,,90871.2,,49534.9,,
80937.9,,43780.8,,114785,,48946.4,,
82760.4,,70305.2,,137508,,44485.7,,
72141.3,,55717.2,,111217,,47318.5,,
97482.6,,77450.8,,141785,,52249.2,,
82716.3,,67736.2,,145449,,46820.4,,
91832.4,,76692,,120379,,50031.8,,
101390,,90745.2,,163008,,44741.7,,
84276,,59935.4,,128873,,50084.4,,
75441.6,,68427.8,,153104,,46068.7,,
83169.9,,58255.4,,144501,,47568.9,,
83465.1,,54251.4,,119246,,46483.3,,
93558.6,,89280.8,,176190,,44550.7,,
90005.4,,67974.2,,131813,,48722.8,,
85880.7,,69658.4,,123103,,47239.6,,
58283.1,,44053.8,,92202.6,,44447.6,,
82201.5,,53202.8,,114269,,48539.4,,
65489.4,,42735,,99218,,44639.8,,
81873,,85555.4,,154564,,47464.8,,
66524.4,,55301.4,,99094.8,,47606.1,,
82836,,57237.6,,104916,,47940.1,,
76347,,68306,,120922,,49715.9,,
81374.4,,50205.4,,119708,,48953.2,,
96019.2,,66508.4,,119931,,50506.6,,
88399.8,,53117.4,,119099,,52161.6,,
74168.1,,36835.4,,105874,,45729.3,,
76254.3,,45767.4,,118521,,49842.2,,
92564.1,,81935,,145583,,50037.1,,
91396.8,,73983,,129815,,51992,,
82360.8,,64464.4,,114423,,47897.9,,
81477,,48582.8,,109421,,50293,,
90030.6,,73515.4,,114477,,49010.1,,
70632,,38005.8,,103039,,47285.7,,
78526.8,,90477.8,,153252,,43659.3,,
107398,,60877.6,,156474,,49671.1,,
62627.4,,34480.6,,88270,,48266,,
70054.2,,40800.2,,87914.4,,48099,,
75311.1,,64699.6,,101976,,48382,,
90488.7,,72448.6,,129304,,49133.3,,
82121.4,,74543,,117652,,51754.6,,
79371.9,,58552.2,,114925,,44986.4,,
79146,,48885.2,,117180,,47854.5,,
82094.4,,46820.2,,111488,,48898,,
106084,,101361,,161067,,53183,,
88302.6,,47733,,124424,,51268.4,,
86437.8,,51018.8,,122212,,47504.2,,
98745.3,,77231,,160083,,49120.7,,
93969.9,,73908.8,,122703,,53623.4,,
96670.8,,67398.8,,121577,,49637.7,,
84582,,64642.2,,141190,,49342.9,,
64178.1,,52421.6,,92727.6,,45181.6,,
69562.8,,44809.8,,95018,,45076.6,,
90242.1,,88376.4,,135244,,50242.1,,
59342.4,,45890.6,,94060.4,,46698,,
94950,,63645.4,,136324,,48916.4,,
100218,,75887,,146635,,49117.9,,
86143.5,,69244,,119949,,51661.8,,
83217.6,,45430,,93307.2,,50912.7,,
77751.9,,48144.6,,96206.6,,49545.4,,
72690.3,,40791.8,,99773.8,,48493.7,,
70418.7,,38155.6,,89642,,48371.4,,
78926.4,,58616.6,,116742,,45437.6,,
102998,,77816.2,,126242,,53676.8,,
89526.6,,54791.8,,115861,,46232.2,,
73059.3,,35567,,99050,,48509.3,,
76347.9,,70823.2,,139724,,47252.8,,
66744.9,,51004.8,,100992,,48792.7,,
85171.5,,65312.8,,131543,,43417.8,,
80348.4,,49879.2,,101391,,49248,,
99934.2,,70231,,135167,,49120.2,,
93980.7,,68433.4,,132909,,47699.8,,
74259.9,,34251,,100519,,48257,,
86474.7,,68588.8,,129130,,51440.8,,
110933,,113091,,188002,,49312.3,,
82901.7,,61076.4,,106564,,46616.2,,
73074.6,,48837.6,,93938.6,,45394.2,,
81401.4,,53321.8,,108268,,50923.5,,
79591.5,,47000.8,,106170,,49263,,
65351.7,,33010.6,,88025,,47359.6,,
80596.8,,45638.6,,99156.4,,49741.3,,
77453.1,,48601,,96307.4,,46252.9,,
77402.7,,40713.4,,94852.8,,47369.5,,
86889.6,,61629.4,,114180,,50212.7,,
77247,,47098.8,,111434,,46753.9,,
79620.3,,43125.6,,118308,,48186,,
77535,,46863.6,,95730.6,,48868.4,,
82209.6,,53600.4,,116813,,50180.3,,
99864.9,,77144.2,,152334,,49783.4,,
71466.3,,42921.2,,94145.8,,47426,,
96280.2,,75283.6,,130641,,49452.5,,
89700.3,,66651.2,,138897,,52546.2,,
85306.5,,60765.6,,109861,,50097.4,,
72600.3,,45204.6,,116721,,47627.2,,
94068,,56156.8,,134040,,51120.9,,
91321.2,,66032.4,,131233,,48518.8,,
86740.2,,41267.8,,108340,,50837.5,,
120336,,75611.2,,180191,,50499.8,,
92664,,96656,,141781,,46321.9,,
76938.3,,41097,,112251,,48443.1,,
60381,,41493.2,,103128,,46135.9,,
98960.4,,79346.4,,142519,,52137.8,,
89450.1,,79328.2,,145005,,45236.9,,
82497.6,,72731.4,,127435,,47183.3,,
73339.2,,51413.6,,92923.6,,48650.4,,
62190,,47297.6,,93293.2,,45694.4,,
82059.3,,69673.8,,112736,,46710,,
108231,,102452,,171125,,49295,,
88983.9,,55487.6,,129361,,50260.7,,
65847.6,,34966.4,,87704.4,,45591.5,,
80975.7,,77303.8,,136249,,47455.5,,
80886.6,,42537.6,,112199,,46937.3,,
82955.7,,61997.6,,124496,,51599.6,,
87538.5,,70665,,147755,,48755.6,,
94245.3,,60765.6,,139951,,50067.2,,
65706.3,,35327.6,,96552.4,,46464.9,,
100769,,98624.4,,154449,,49702.5,,
59985.9,,43684.2,,90643,,47378.6,,
86784.3,,59822,,133678,,47048.5,,
86363.1,,42277.2,,112986,,49710.5,,
95475.6,,80521,,134407,,48058.7,,
83203.2,,53060,,110296,,50151.2,,
95609.7,,82308.8,,145839,,50303,,
84689.1,,56397.6,,127446,,46948.8,,
78090.3,,50870.4,,96275.2,,49304.2,,
90377.1,,72223.2,,122828,,50279,,
89217,,60939.2,,126956,,47298.9,,
95500.8,,59269,,140181,,50680.7,,
96960.6,,67551.4,,134688,,53662.6,,
79320.6,,62386.8,,103533,,47488.2,,
76155.3,,52470.6,,105277,,49496.9,,
90738,,84113.4,,137252,,48501,,
82399.5,,51790.2,,119613,,46544.5,,
79050.6,,58559.2,,94894.8,,48803.1,,
89997.3,,62574.4,,110625,,51512.7,,
75167.1,,60306.4,,109416,,51522.6,,
107950,,62221.6,,181623,,49951.7,,
82458.9,,46356.8,,99663.2,,47775.8,,
85036.5,,60792.2,,130841,,50668.5,,
86209.2,,70051.8,,131065,,53100.9,,
88381.8,,66063.2,,116729,,44521.5,,
73392.3,,39055.8,,91844.2,,49886.5,,
85453.2,,68567.8,,130215,,47953.2,,
79882.2,,57030.4,,100358,,51603.8,,
84683.7,,47593,,119405,,50173.1,,
74669.4,,44356.2,,101160,,47762.5,,
87650.1,,70616,,130010,,52865.4,,
102917,,75635,,149440,,50612.7,,
91671.3,,64426.6,,146695,,49580.1,,
92924.1,,70737.8,,159740,,48664.6,,
83368.8,,50614.2,,107162,,49148.5,,
82627.2,,52298.4,,106562,,47797.9,,
88521.3,,69505.8,,121339,,49576.4,,
97032.6,,74662,,137855,,50713.8,,
88362,,61675.6,,120830,,51077.2,,
88785.9,,75560.8,,112610,,49340.5,,
67905.9,,42831.6,,91193.2,,49407.2,,
76190.4,,37599.8,,101842,,50714.9,,
91629.9,,57464.4,,134123,,51955.5,,
89845.2,,54251.4,,121580,,51219.5,,
84794.4,,77114.8,,125254,,48594.2,,
95422.5,,73711.4,,142009,,45048.2,,
86401.8,,73851.4,,132082,,44971.2,,
81022.5,,74159.4,,136489,,47681.9,,
60237,,72378.6,,116689,,53688.6,,
115348,,104105,,160762,,49311.1,,
86455.8,,67191.6,,115424,,49653.2,,
100969,,67972.8,,153562,,49297.7,,
97362,,64863.4,,150328,,51475.4,,
94776.3,,83165.6,,156762,,49113.1,,
77301,,56567,,98781.2,,48290.4,,
89132.4,,61657.4,,140762,,50122.9,,
104833,,92929.2,,163507,,49029.1,,
82919.7,,72630.6,,128255,,44774.3,,
78153.3,,49901.6,,102194,,50478.8,,
91902.6,,68710.6,,142486,,48301.1,,
75834.9,,39613,,98098,,49101.3,,
109630,,71586.2,,142649,,51569.2,,
103358,,60435.2,,144529,,51263.1,,
96812.1,,75861.8,,144214,,49781.7,,
94162.5,,73542,,152669,,51743.7,,
73451.7,,43500.8,,100400,,49670.4,,
42430.5,,51205,,97161.4,,43703.1,,
90435.6,,44714.6,,113540,,50021.2,,
73918.8,,44506,,103783,,51346.9,,
66633.3,,53411.4,,115186,,41946.5,,
103882,,75754,,137647,,49375.1,,
89021.7,,48970.6,,132789,,47647.6,,
89290.8,,59729.6,,119318,,49264.6,,
90992.7,,63396.2,,129898,,49956.6,,
72057.6,,42322,,88674.6,,47082.9,,
87634.8,,66532.2,,133403,,42929.6,,
86799.6,,66929.8,,98585.2,,50742.2,,
73062.9,,60740.4,,108962,,49046.5,,
105679,,85030.4,,176046,,49779.4,,
79219.8,,62545,,127574,,47563.3,,
90747,,69143.2,,131684,,47222.1,,
60684.3,,38703,,92054.2,,46924.2,,
75092.4,,42968.8,,96819.8,,50911.9,,
92565.9,,75430.6,,138949,,45975.4,,
88517.7,,71821.4,,136557,,50021,,
90145.8,,53657.8,,126853,,49379.1,,
89020.8,,65500.4,,150206,,44182.4,,
92409.3,,74341.4,,112378,,49259.2,,
85304.7,,57920.8,,120988,,51352.4,,
87489.9,,34062,,87669.4,,48846,,
91503,,56298.2,,116504,,46896.8,,
80288.1,,52152.8,,130865,,53241.5,,
85579.2,,79496.2,,116382,,48184.4,,
82866.6,,49768.6,,112088,,50643.4,,
80887.5,,45687.6,,111847,,49092.7,,
93721.5,,73081.4,,124359,,52067.9,,
93967.2,,73809.4,,138891,,50037.8,,
81612.9,,52677.8,,107061,,46853.6,,
90452.7,,58919,,125755,,50042.4,,
88611.3,,75759.6,,130546,,46660.2,,
68274,,58410.8,,102483,,45029.1,,
88713,,77320.6,,130959,,46877.9,,
90468.9,,60565.4,,134714,,48605.5,,
91593,,51948.4,,121349,,49708.8,,
76210.2,,63291.2,,139800,,52217.8,,
63464.4,,51507.4,,98282.8,,48449.3,,
91634.4,,66227,,141159,,51335.7,,
83208.6,,48375.6,,125576,,49917,,
95884.2,,81342.8,,145963,,48652.7,,
99987.3,,42259,,103739,,47722.5,,
82277.1,,45270.4,,95907,,50449.9,,
93157.2,,64096.2,,145898,,53331.5,,
79838.1,,44412.2,,104273,,47762.8,,
81769.5,,52872.4,,122455,,49992.8,,
65214,,52766,,95446.4,,48378.9,,
84696.3,,50778,,121006,,50941,,
82017,,81925.2,,128780,,43626.7,,
88802.1,,80563,,130845,,48523.4,,
66978.9,,57201.2,,98159.6,,44824.5,,
103714,,84845.6,,140273,,51416.6,,
89437.5,,67064.2,,117165,,48657.7,,
77888.7,,47912.2,,104581,,46440.4,,
88138.8,,69792.8,,128377,,50847.9,,
96418.8,,66245.2,,116802,,49719.1,,
81776.7,,84756,,142377,,43742.9,,
110012,,80595.2,,142632,,51759.3,,
81753.3,,63618.8,,114948,,49515.2,,
90922.5,,64583.4,,126151,,52576.8,,
77291.1,,41526.8,,96056.8,,47572.8,,
79693.2,,61712,,102532,,48544.1,,
