"FSC-A","FSC-A","SSC-A","SSC-A","FITC-A","FITC-A","Comp-PE-A","Comp-PE-A"
104541,115535,68446,96712,165228,194173,89921.6,97623.6
113215,117978,81478.6,124894,168227,244871,89837,90314.1
110686,122678,95120.2,123871,183908,224098,92386.1,92875.1
105162,110464,80246.6,133199,181576,237446,100596,95149.8
121116,123528,111808,110830,233331,203356,89390.2,90266.7
117267,108704,112358,105451,212545,217690,98240.8,92140.2
86661,110864,115451,119363,160972,232586,97327,96863.5
115687,98061.3,134184,87382.4,234346,207766,99714,92943.7
117404,115672,76595.4,112708,191626,223300,94108.3,91954.8
123909,124052,121911,101483,228353,209411,95367.7,92416.5
119419,103265,114958,120809,208852,248424,97081.8,91520.2
67320.9,101588,55981.8,104909,112976,218786,100405,96214.7
103612,115115,106515,135153,203372,255447,90611.4,94216.5
107981,123571,74963,99846.6,170338,229263,95482.5,91949.1
114421,100960,95285.4,83228.6,223745,168378,98861,94986.1
113270,119751,111712,121118,237699,224785,98864.1,90662.6
120666,131761,116567,120912,213641,259298,96488.5,100211
109196,89983.8,87395,115653,213602,197296,97913.5,92042.8
124145,140456,105910,129174,242168,255317,100693,98691.1
118096,115606,86671.2,108942,186354,242332,99399.6,89507.3
112363,120604,87872.4,136293,197511,229432,99279.3,93707.5
73637.1,112941,59771.6,133336,133333,233471,99830.2,96347.3
117998,82937.7,115895,87617.6,221967,213366,98191.6,91869.9
123573,123177,131118,125523,208155,226607,99636.6,97833.6
121978,87163.2,117810,86763.6,235239,163911,95775.6,96412.1
109465,143800,92734.6,125411,229621,229342,94955,94202
107974,99105.3,76867,69612.2,196074,160345,94630.9,90812.2
109514,69630.3,92019.2,49292.6,219972,123500,93612.2,98594.8
119191,114179,105584,106371,205408,214130,99512.7,93239
118527,118170,100425,93209.2,203234,235586,97511.4,95495.1
116253,125442,103305,104444,201755,195434,92707.5,89837.5
116469,114414,115478,137511,244737,253900,90183,98090.2
93730.5,130392,58555,140524,153383,251227,96923.5,96249.2
112335,119150,85936.2,106679,203738,239155,90728.7,97873.4
109670,111848,95596.2,117824,221073,235217,98105,89804.7
75147.3,141700,64839.6,111135,105876,248541,93393.6,93832.3
113169,72486.9,97358.8,49252,196405,129478,95888.7,94074.5
111077,118070,107673,122062,200855,251429,96612.8,97861.3
134238,134186,120085,127509,242960,242516,98332,97259.5
115424,131558,109112,125831,202437,245235,98168.8,97078.7
117859,125183,106693,124641,252482,228189,97761,97996.5
64681.2,94434.3,39015.2,105395,111821,240734,91718.8,91375.3
105132,114162,91571.2,130528,190599,229768,94688.5,95593.5
106956,105494,90603.8,122137,209455,243494,95462.7,90881
102015,65302.2,71920.8,51641.8,182675,112510,92410.1,94032.4
124754,114876,121054,134345,229118,246404,96644.4,95560.9
108301,108238,102677,85093.4,211415,189840,91036.8,89721
118180,101374,110235,86147.6,225835,196834,97691.3,94867.7
110884,101792,112612,114394,233911,237068,93054.9,89808.5
105863,115659,100089,114828,215901,242203,90322.1,96051
121131,99766.8,132765,119486,250152,221473,95488.6,95768.6
120712,120730,66928.4,110407,151099,227578,91862.1,97093.2
128857,109276,133092,105437,254604,226502,93248.7,95438.1
110468,73987.2,82168.8,55903.4,187785,127555,93143.8,95550.9
128723,115681,117197,106854,253183,229681,97276.5,96878.8
111559,112523,86695,104574,182221,184716,95776.2,89573.3
106859,115546,108350,124494,254470,255121,91495,97172.4
122217,121877,96311.6,122454,194284,236723,93790.1,93903.9
109789,86803.2,100253,69150.2,192921,195083,94034,96309.1
122303,132692,121012,121673,226353,254701,90084.5,97218.4
113260,68907.6,98919.8,52243.8,213788,124326,94765.2,93287.5
126706,107392,133609,99286.6,229547,167779,91445.9,96883.4
106552,83619,91169.4,48077.4,177568,137893,99586.1,95204.7
120791,151487,114731,134953,225876,256978,95228.8,96306.4
115607,109456,113473,112482,225431,210123,91009.2,97525.7
106526,128822,91499.8,122885,173587,231469,89872.4,97795.4
122612,115150,132469,116112,237530,217161,92669,94196.8
115444,122207,109980,124741,215032,237810,95964.1,98453.6
113703,120215,109568,130698,182273,226632,91752,95831.3
110607,122247,125308,115023,201218,193180,96846.4,91114.7
115304,69704.1,101578,49947.8,221360,122667,94945.9,96890
124218,114769,61836.6,124971,175405,256700,90421.7,91762.2
129586,123108,129765,131341,236828,233449,95603.5,94255.8
112306,112425,103856,114408,213863,238312,96711.9,91119.4
98075.7,141460,92444.8,140108,234410,256613,95471.9,92435.7
55504.8,129443,40842.2,92852.2,98018.2,229783,94505.8,92310.9
105773,116033,89002.2,113788,188163,240657,92122.1,90844.2
114304,101627,82565,103391,194860,218015,98674.4,97867.2
131988,113921,140833,116962,246516,252643,98500.5,98745.8
71413.2,114096,59113.6,122711,125122,231294,99103.7,99989.6
58041,109937,47422.2,92684.2,116950,197211,93022.5,94110.7
129776,117231,132507,91761.6,241969,182199,98466,94629.7
117821,104154,78471.4,121989,176984,228386,93583.7,96463.1
129062,127231,119857,91105,254667,189962,97527.2,95994.7
117471,124270,111691,106865,210750,186554,94377.7,96247.6
114836,98635.5,116473,99738.8,224414,185357,95608,94543
112350,114441,105783,112767,188139,190189,98138,90930
90846,118643,76984.6,113604,134560,224249,98209.3,89573.8
103612,113557,67288.2,105493,157339,191905,96959.2,91768.7
122476,110344,132957,86480.8,236037,187113,93054.5,95242
119044,116146,97531,117865,206581,208174,94601,95019.5
112289,123552,110629,123070,217554,203398,90803.8,95760.4
105485,119207,90777.4,114845,180683,257503,91413.1,96245.2
100923,124431,89787.6,132476,174945,235365,94442,90847.7
119739,104823,107535,115478,231196,243795,95012.1,94569.8
100275,67174.2,123760,50605.8,222327,112687,91825.8,98128.2
109467,140926,97750.8,93112.6,189944,220823,90359.5,93529.5
102398,127156,64023.4,114107,155466,227402,96361.9,91509.1
102139,112216,83171.2,102200,198023,207756,94881.7,94429.7
110141,121927,117347,132878,244934,250335,97140.5,99613.5
107846,113483,80213,148364,172598,226696,92169.4,92345.2
116041,123495,68579,122664,194447,249584,89913.9,93052.3
117476,118513,78724.8,88433.8,182244,176568,99297.1,93000.7
104321,114231,89418,107717,205715,227329,94472,98089.7
130115,121468,137913,134744,257384,250205,93479.6,97071.2
51905.7,126124,37016,102840,102934,206172,91147.6,96033.6
102122,115330,96976.6,117806,210445,195678,92232,98865.4
124479,129402,142803,149251,251391,257230,96497.4,98983.4
107186,101858,79143.4,116229,163843,217048,97453.9,94641.1
93195,113170,88340,81804.8,169462,193939,92071.1,93812.8
110602,126934,109679,106231,195881,212947,91405.5,90696.3
133175,88335,125825,70221.2,240068,155438,94576.3,94664.1
106218,119570,78216.6,114996,161043,234496,96907.9,95630.1
123665,87372.9,127368,79300.2,237534,189846,97351.8,90244.2
123997,116859,120009,110111,234115,207845,99520.6,95326.8
117230,129382,114030,138100,204156,247666,95265.1,91025.7
119817,132293,117134,140930,209959,250769,89797.3,92607.2
101804,119322,111028,122594,229323,252924,93751.1,99701.6
114622,105446,102953,91756,222547,203057,93834.3,92540.4
100316,115693,60296.6,122069,177519,240632,94228.8,93120.9
70180.2,119930,83307,100589,129441,200836,96531.1,93885.5
105584,125443,68730.2,123941,184250,250037,98271.5,97689.9
111685,98602.2,89910.8,110314,179383,221647,91441.5,95405.7
116518,106239,120033,88671.8,202048,171735,97182.2,97110.9
116586,90320.4,104017,93009,219542,218922,95313.6,89562.7
110132,107848,94054.8,78281,230745,182077,92040.2,96047.5
110815,111843,94508.4,106869,199762,210986,96677.9,93946.4
114972,110568,89735.8,103303,187544,215257,92274.9,93199.6
100318,84657.6,76858.6,68992,180464,135093,89711.2,90853.5
108032,118591,96516,116155,204084,224907,93984.7,95026.7
103192,101870,74356.8,101030,169260,207955,92041,99406.2
141420,122213,109001,101307,229782,239464,97236.2,91639.8
123388,110719,106837,100184,214522,221131,100262,92025.1
126982,108290,123673,110797,248542,232046,100502,98156.4
62768.7,120164,43640.8,77067.2,104125,254271,98264.9,97787.1
111915,88893,125670,70988.4,214444,139069,93884.7,95677.2
105629,120798,84000,127204,190522,255090,90233.2,93334.3
112885,96529.5,114702,76889.4,227973,232396,89820.8,98050.7
94676.4,123758,53844,128232,145190,235529,89334.5,95228.7
102794,115650,84124.6,122535,186173,228742,94405.2,93870.6
116786,118169,107500,115483,217644,217689,99452.7,94992.1
119222,113316,121401,124764,216871,224813,95218.3,93128.9
107626,88551.9,86993.2,101612,208023,232007,96885.9,90974.2
110343,94349.7,99545.6,111293,176635,176959,89294.7,96390.9
111983,119362,110940,91159.6,219328,187379,94405.1,93412.8
108135,136903,91121.8,114178,195111,220930,91326.1,96171.2
107618,86314.5,81645.2,71516.2,187149,150252,93797.6,93246.5
114615,125011,100358,100719,217014,194274,91217.5,93484.1
102903,108786,104212,106427,181857,217783,101173,98491.5
115211,112208,99736,108766,213994,198232,91619.8,93595.3
101596,122635,65115.4,116025,162974,223096,96671.3,101308
67752,120848,50772.4,121164,122381,239520,99927.2,90979.5
70597.8,117418,47983.6,113869,113235,218719,91712.3,95853.7
104627,129786,112521,137900,184733,237898,94748,98488.3
102482,119187,77497,115178,170134,233303,94493.6,95123.6
94910.4,95237.1,64554,103799,145491,210563,95436.8,96687.5
97366.5,72664.2,61544,84971.6,138067,133867,90136.4,91372.6
101058,115532,70093.8,106774,172760,204751,91374.6,95951
90874.8,120598,89455.8,84838.6,179875,171868,98981.7,91745.7
111363,90596.7,99580.6,62225.8,207607,140077,98045.9,96761.5
125214,104854,106928,78863.4,202955,187015,93013.4,93439.6
126742,117888,100647,120942,196801,236032,92951.9,93717.1
125459,112766,110058,95601.8,241879,194536,101243,99570.8
73970.1,105397,47983.6,86636.2,123098,209065,100612,90398.1
112687,130364,129963,129499,221680,253859,94615.3,92770.1
99684.9,129092,82754,111343,227678,232949,95296.1,97944.2
114436,74148.3,95085.2,73589.6,205285,142709,99088.2,95836
109742,114100,100822,109239,174689,217715,90523.5,93321.6
116734,122990,114624,139096,241118,257562,99702.4,99116.9
114374,107644,101965,96955.6,198769,203721,97157.8,92583.4
112953,104816,96310.2,83526.8,199321,186598,97426.6,99155.4
127239,105046,116728,85353.8,238197,165903,100214,95020.6
117100,132260,95730.6,120974,203966,246788,97034.6,96844.6
114589,108622,131054,111055,216275,218254,94944.1,95265.6
86241.6,93120.3,84975.8,117971,156261,196095,99010,94048.5
115934,129030,119209,113761,227961,225036,94972.2,96954.4
92367,102533,82920.6,115315,180580,235011,94592.3,89714.7
114818,147959,96432,113074,198779,210610,93273.6,90046.9
119573,101902,117741,94929.8,213353,220424,89814.1,89775.8
112658,107858,95723.6,89110,213626,189805,91553.1,92975.5
111649,104779,93312.8,102880,166069,217486,90109.6,96198.3
123688,103128,134634,81618.6,220493,179292,97664.5,89963.5
107982,107654,87579.8,87498.6,198400,203994,94684.6,94941.2
119510,107247,96647.6,71215.2,202913,147286,100676,91756.8
141411,111519,106273,138583,230668,227937,94143.9,93804.8
112912,102031,87215.8,107488,188604,204588,90450.8,89443.4
103918,109967,70086.8,93286.2,167740,207838,93380.4,91254.7
112247,117639,103064,122249,221715,251343,92814,97554.7
62192.7,129737,41938.4,153962,102446,251734,93208.3,95941.4
109554,107303,96112.8,81970,192892,158105,91674.1,89568.5
105693,74372.4,72851.8,68892.6,159046,151082,91827.6,96402
86958.9,111968,55822.2,90011.6,117295,241605,97896.9,96637.9
105989,100476,98630,85314.6,203636,176819,90350.5,89971.4
104285,141037,61622.4,133407,159727,240981,98043.4,89736.5
126020,117249,109985,119069,212814,234752,98641.7,97846.2
112130,117540,124229,118047,205626,200707,99918.3,99907
148599,133772,154624,121293,235788,226737,93827,94855.6
114950,101795,73634.4,103894,168822,198131,96827.2,90841.2
72489.6,110349,62575.8,101364,122136,244969,97588.6,96217
103964,140495,76983.2,86982,182396,240702,90283.6,90382.1
112559,108931,88443.6,72793,179308,164805,90228.5,92578.7
63667.8,123155,61852,129479,120635,254393,98468.9,94504.5
113089,131300,58963.8,138125,180501,256379,95748.4,100270
113012,111705,120483,113743,191894,227801,97825.8,89773.3
104559,120250,75098.8,95054.4,164391,204729,92491.2,96394.9
123496,119452,113350,91260.4,246158,217126,92404.8,96472.7
122621,119367,118728,124012,200630,250617,96382.6,91070.3
118948,115720,103191,99141,202238,184848,101778,97457.9
65305.8,115152,50008,112374,122083,217050,97398.9,93138.7
122476,111366,115599,77814.8,216404,169848,95421.4,94182
115016,102358,114604,101622,219551,189069,92569,95444.7
106311,122430,100888,148936,175561,252882,97255.9,98241.4
124575,119055,134767,137927,227555,224671,98592.8,92449.5
117423,107225,87638.6,93476.6,202056,174416,93918.3,92451.1
106906,109064,75152,103970,167084,239190,96576.4,98041.9
117896,106354,115664,111791,208804,217470,97468.5,89480.8
112726,133044,108910,104692,228428,204652,92986.9,92433.8
114711,133866,106674,130285,197151,242616,91460.2,95746.6
123311,111913,113690,90827.8,221270,219694,100290,94326.4
99618.3,132283,112977,118076,192000,235067,90247.6,95931.2
115711,121116,112714,119839,202293,227587,96722.3,92870.3
113990,122692,118153,108968,225100,207848,95614.6,96889
114128,114018,116087,90318.2,234896,177772,96474.5,96666.2
95780.7,130920,50544.2,107050,121873,208746,93929.6,98375.4
97477.2,128352,71909.6,144862,145545,258489,92127.8,95461.9
114645,109800,112973,85230.6,212423,196655,99525.7,91393.6
113583,135955,124650,99089.2,243765,222832,98535.1,98905.9
115254,129081,92918,158714,196514,254199,100311,94826.6
58889.7,110254,48211.8,100033,111741,213086,94545.1,96934
109349,135991,84708.4,106380,192035,201246,90420.3,96269.2
74684.7,122808,55115.2,117648,123259,244609,97727.3,97575
99420.3,144939,64899.8,130652,154664,235497,93913,89282.2
105758,106407,94406.2,95067,188899,206535,98937.7,94378.7
113579,130234,90946.8,148905,199973,246368,94807.6,93634.1
111002,70240.5,85657.6,62791.4,190691,134322,100599,96637.4
110912,73100.7,104993,60757.2,211866,123371,95704,93374.3
73837.8,90030.6,71933.4,52535,125772,157534,98162.1,96376.6
122701,103599,119350,64806,209486,146038,94400.9,93502.3
106052,111690,84380.8,109747,196356,246063,95023.9,94082.7
110418,127582,89507.6,134863,211970,231725,93615.4,94873.5
100866,121310,78794.8,135957,148579,234037,100998,94484.4
59241.6,78956.1,37977.8,57454.6,103778,113000,95606.9,99080.6
133291,124411,77341.6,154742,195849,260105,94493.2,99020.5
111161,128314,98984.2,108203,191148,222195,94788.1,94043.7
121204,99531,106452,65391.2,213976,156159,97433.8,96169.1
107112,124347,103562,134320,211229,253263,99220.9,90695.5
77445,107096,54768,99558.2,125462,225980,92778.5,95714.7
105799,132520,102897,127214,182631,233740,92418.5,91725
98221.5,120512,64486.8,119911,155978,248027,95392.8,97465.6
110614,124132,94715.6,118688,196105,243684,92799.1,94532.3
96960.6,109956,74643.8,121132,195993,214486,94870.1,98282.1
107433,117533,107251,82301.8,225155,187228,96708.6,91076.4
58369.5,116869,42910,88046,98530.6,206150,97953.8,95759.3
110156,110099,87640,85250.2,177787,174486,92682.2,93374.7
107320,107483,79517.2,96014.8,182797,192632,90457.4,97603.5
110545,112390,96615.4,96860.4,195989,184743,97177.5,99590
109717,105316,89558,103489,238468,186663,96051.1,92776.8
119981,118379,73596.6,100442,163883,198383,97109.8,98357.9
122151,73153.8,113079,53523.4,217496,119581,90890.3,98997.7
117484,103378,118667,79217.6,221752,200920,94437,90865.7
108283,120899,72333.8,114577,176901,227520,97178.7,95347.1
96257.7,121404,72060.8,137893,158173,230027,93083.6,93738.2
121076,109436,82140.8,87158.4,179822,208632,93920,92259.3
109286,106009,79352,79153.2,198191,174133,98530.2,95365
125096,114974,118909,123602,234963,222965,100425,96346.3
75416.4,127450,31011.4,111660,101262,214841,95802.3,98229.3
95147.1,114058,52778.6,140386,143007,207113,94762.1,93109.9
121037,108811,104378,107667,212072,224344,89565.4,96351.9
105706,116564,91387.8,134800,195819,210897,93778.3,97723.8
109679,117099,86688,134593,228819,257590,91295.2,92679.2
109988,131585,89443.2,125006,202192,235435,98392.1,95631.1
95074.2,77457.6,103869,52490.2,179057,118891,90413,95217
106417,93357.9,86679.6,75845,175491,156489,92542.6,91429.3
107888,97459.2,112973,71982.4,207070,207812,90314.2,90815.4
110114,124490,100663,131106,213273,222664,94957.4,97789.9
116377,113577,116725,99790.6,233205,180211,94469.3,95122.1
93159.9,104386,57722,119694,146363,239463,92695.4,98450.8
115342,102100,106450,115121,201435,218513,94907.1,99472.3
107077,98925.3,77595,74407.2,179718,141891,98276.6,90816.4
107004,132571,92363.6,119655,221764,237948,93148.2,92330.6
60297.3,94750.2,43104.6,100856,102491,189879,96730.6,92508.6
102930,114058,89553.8,119137,191871,250580,90086.7,94642.7
109260,148320,114400,106827,220892,224372,98472.5,96964.6
101691,129633,87605,101422,186571,198786,95077.5,97102.1
113870,117306,82195.4,153999,191285,250722,99288.4,93880.2
108094,111693,83269.2,107591,179411,194401,89455.9,89480.1
102252,82584.9,75742.8,75685.4,148729,143774,100365,96593.1
128781,129946,133125,110008,237483,223656,91910.5,89306.3
100842,115680,64488.2,117839,175063,210323,90113.8,97690.3
120627,120838,124299,99139.6,222669,192108,98915.3,99766.1
112442,114296,107059,101174,200655,224671,97155.2,89690.1
116668,88559.1,131690,72104.2,248030,129434,89986.6,98338.9
140715,107749,114517,114849,226913,228021,91264.1,97573.6
80196.3,117533,95832.8,113613,178252,222435,89858.5,94905.7
116330,123889,118685,127736,244016,247458,92214.4,94864.1
61112.7,105199,32788,93919,111371,220671,98955.7,94613.3
109182,119849,87901.8,129573,185538,246659,93574.9,90291.3
104511,95219.1,73585.4,57241.8,168280,161872,100388,99901
118914,114091,135345,106345,225180,245224,93135.5,97472.8
140302,118953,139238,120653,258439,260673,99232.7,95347.2
88840.8,79335.9,77323.4,66705.8,202098,117723,95099.9,95529.3
119273,110879,101350,108374,187509,194397,92397.6,94369.2
114527,121701,105265,115762,214169,234590,94798.8,93329.3
119978,110287,122877,96258.4,241104,199373,97951.9,96955.6
111754,135929,91309.4,137103,198755,251070,92239.2,96403.8
70493.4,93882.6,43775.2,85674.4,98331.8,182020,99375.3,90105.5
108580,113800,90213.2,119479,209355,241429,94289.2,92996.9
110172,78475.5,87304,65909.2,177342,127499,93390.6,98508.6
109223,155722,90080.2,147615,187604,255952,98479.9,95065.2
114058,95848.2,92604.4,77681.8,204070,178749,95812.6,89995.2
118944,136527,116871,120169,240376,236019,92141,93736.1
124476,95061.6,109444,112816,235952,250330,97697,96468
101727,102896,74408.6,103611,164331,204893,95933.6,95017.7
116304,88172.1,90486.2,98709.8,200313,194656,95710.5,95782.9
62396.1,114487,38778.6,117176,108717,221603,94158.1,89384.4
71694,151307,58497.6,155203,112927,245216,98595.4,95863.4
112496,100847,108412,124134,215260,214613,89689.6,92718.5
119498,117483,100698,118083,181055,254075,91909.4,93667.3
96351.3,126868,112988,112630,201417,222998,89829.1,89747.4
104803,122572,105120,130742,204455,258973,96455,101670
118247,126626,109304,104506,219310,203056,98026.7,97751.3
118092,108095,116988,123911,200976,200523,95052.2,92109.9
127157,123054,159009,123995,225400,222551,96483.8,95059
102713,110937,74508,94095.4,157238,212709,96453.5,96950.4
68374.8,117378,55847.4,115889,123418,194057,94057.2,101344
125740,115602,119820,133088,230986,242054,99337.9,94023.8
108648,120935,96360.6,129080,181012,231389,98418,92118.1
136018,84852.9,102151,80903.2,224706,132185,90627.2,89705.6
124527,121911,125171,134569,256540,260740,98923.9,92079.3
112924,127110,118145,96945.8,260791,216101,93876.4,95350.3
109285,110410,100530,104321,230189,233293,98728.3,100331
115636,125901,118783,127557,224007,235277,90097.9,99627.3
114423,102699,103445,90738.2,209544,188243,89897.5,96386.8
129896,82400.4,120485,95429.6,247570,188349,96374.4,89428.8
111005,121024,92904,100859,223923,227587,89992.9,92919.3
121827,106733,117575,118107,254605,214614,99544.4,97092.1
108113,95406.3,95551.4,96255.6,212964,199647,98333.6,91275.9
113038,115420,94491.6,117432,189603,225575,94128.4,99402.4
118071,112198,129410,97706,233230,231053,92052.6,93383.5
55302.3,117146,40560.8,107524,100933,215419,92896.6,91556.5
79884.9,121123,95093.6,137175,154710,235346,96669.4,92085.2
115547,110890,123278,107696,228747,223317,97912.1,90790.3
128423,143078,130301,112783,257002,246252,95418.6,89601.4
89429.4,109014,57953,98414.4,131555,216733,92981.2,90243.4
96061.5,134614,79595.6,128850,158920,238379,95218.3,96576.4
112766,125989,82698,117814,193785,227417,89754.6,99607.1
113708,129208,103785,107678,219247,213802,90291.7,93983
103352,96966.9,117961,55010.2,197099,130546,96219.5,91985.2
120822,121642,113177,141019,219300,255191,90974.2,92109.6
81884.7,145109,70026.6,108384,143142,210550,99569.3,92990.9
106283,111406,90174,118188,176870,250739,91436.6,93778.2
108229,98601.3,110655,63369.6,197828,190266,96834.9,90278.1
105236,115063,115742,109679,211991,228928,95000,100041
105383,116352,87463.6,110674,194369,210204,90144.4,97061.1
114987,121980,102628,124043,213294,239592,91667.4,94148.5
111097,106339,79101.4,93560.6,178464,214152,97037.8,96145.3
115122,107792,114311,56138.6,216597,156422,92740.2,92231.8
102989,118876,62902,112648,173205,232642,92827.9,96796.8
97308,122495,111390,128869,206276,238454,91234.6,92948.3
111653,100894,101496,94637.2,183809,197550,93561.6,89919.1
78473.7,151708,52431.4,138648,122955,250526,97600.4,93827.3
115819,101285,97753.6,89104.4,209189,193004,98325.1,89969.9
100815,116908,76784.4,103555,176637,241605,91963,93294.7
99772.2,93942,61090.4,91701.4,150871,174175,93543.1,97182.2
111657,108454,90853,99351,191940,232940,95081.6,93573.9
115448,123601,117509,144273,237754,258695,93373.9,94870.1
110596,117419,100370,88445,188419,231654,94242.9,93938.9
98347.5,112468,67597.6,105188,158707,208074,100313,98701.1
121577,137203,144813,96752.6,253422,205254,97410.5,90151.2
111938,100929,81712.4,109759,214133,221894,98690.4,98115.2
114902,85741.2,105643,83500.2,179505,164317,93648.3,98853.5
108942,120132,82145,110767,190576,229006,96945.4,98679
118911,102259,129958,90644.4,220149,174096,91951.4,89288.7
111670,115834,102871,113068,180306,223185,94779.8,90096.2
120467,113969,129347,103984,239967,213818,99676.2,94672.2
91756.8,72709.2,36093.4,71283.8,114535,135108,95769.1,95130.8
123998,116901,123066,150877,219638,255373,95721.7,91617.4
103809,110888,77694.4,78810.2,202726,176294,99056.9,92545.6
107873,106675,121015,85176,222020,174765,92012.7,90956.7
98292.6,141472,71950.2,114822,147252,252704,95511,89654.3
121154,79249.5,145925,75356.4,236783,137166,98001.9,90410
113556,119154,112104,125964,223642,208741,99944.5,96074.1
80805.6,117451,59312.4,125973,129076,233850,89667.2,98800.3
110303,117823,107096,133540,208964,237947,89678.2,97055.7
115611,94918.5,124018,110982,214173,226754,92457.8,89849.4
109730,109809,76434.4,69298.6,178413,148992,99545.7,95505.3
101953,129441,71626.8,121351,159694,213832,97841.2,89671.9
115646,124747,113621,149397,202331,247068,98437.6,89662.3
114744,93454.2,100600,71289.4,219464,153203,100656,97582.2
108837,98387.1,94533.6,87256.4,201531,163576,89799.1,95151.8
84010.5,117320,61247.2,121237,126071,238186,90191.7,94578.7
103170,109319,77925.4,107121,156412,218306,94695,98605.4
78176.7,115274,62540.8,135346,119162,230454,94854.7,97022.4
130939,129498,125721,144743,237121,227219,92557.4,97712
110323,127169,100782,111104,239428,218632,98595.9,89579.1
74119.5,146611,70690.2,126228,132069,227006,91604.6,98738.2
131811,97735.5,113576,69487.6,223982,151078,94932.4,89707.4
119127,108766,115783,91588,238511,204074,100255,98575.9
110127,118350,94704.4,122786,203892,232894,98095.1,97553
132099,132008,139818,108524,228348,212804,94536.4,95017.7
116458,113916,113036,120348,228270,254615,95250,94510.8
99168.3,99950.4,105809,88466,198232,173712,94789.5,92196.6
61991.1,96186.6,39494,100843,102941,176193,99129.9,95810.1
100520,105008,74625.6,87542,165890,166103,101327,89936.6
100737,82173.6,121768,92213.8,222023,247442,97338.1,89471
120261,128577,99418.2,142570,217491,260438,100451,89337.1
123268,99703.8,126792,97557.6,218569,215338,93129.4,90005.1
131393,99057.6,73572.8,106905,180524,227716,97767,100766
125572,146739,116147,115184,251797,240138,98514.6,94906.3
124796,107577,135594,93762.2,231186,179782,97836.5,92760.6
107201,129460,112885,135797,226589,228046,92527.4,97416.6
112335,105419,110510,136416,214540,244166,97460.9,98896.5
115240,107032,111601,127676,211275,242224,100996,94809.2
125818,129190,114981,135730,223919,220032,96368.8,98105.1
110800,122682,81123,113582,198761,234597,96576,90828.4
120545,153868,119508,142514,229480,253473,91523.1,89728.2
117080,109970,107146,80519.6,221210,193924,100637,93046.6
103742,121054,86248.4,118524,195912,244828,97571.8,92715.2
80283.6,126703,62617.8,94306.8,131121,184492,97029.2,94650.5
112696,133402,100167,109817,203470,205108,94364,90972.8
111180,117812,74639.6,126106,178143,240968,98200,99981.1
117616,121900,107604,120438,224274,249472,93738.5,94643.1
119808,110284,102693,111061,214914,225431,89366.7,99710.2
124621,120704,91690.2,130869,201627,244020,92797.2,89773.9
113034,96155.1,103121,87252.2,177968,167930,89608.5,95320.8
125590,109344,145902,108686,251198,223553,92083.3,97266.5
115958,112867,98144.2,91939.4,209455,211931,100046,97237
120861,113305,113803,109473,248293,222004,91134.1,99846.8
123095,124036,113753,110754,252322,222061,98874.8,98833.6
112539,106728,92776.6,111122,195157,246910,93915.8,94850
124003,127257,112307,104317,220207,215548,96053.7,90800.4
112384,130569,98851.2,98616,218105,240391,94442.5,95810.8
131097,109208,95824.4,85024.8,216294,197721,99274.4,96991.8
125115,106710,146334,82793.2,244845,174373,98676.7,90681.6
105170,110717,87805.2,99206.8,202763,203932,98171,97290.3
124148,119814,111509,110232,232991,259811,91434.2,96890.9
133667,123463,141245,139363,255063,236214,93673.4,98648.5
108444,102134,112367,78240.4,220142,174542,97782.9,90141.2
118933,111633,98134.4,133878,207108,235355,95060.5,94197.1
121764,111118,112613,90640.2,220431,202741,94126.5,90644.7
113349,111394,92799,100873,194552,193252,95536.3,92759.2
123799,124061,104971,124440,187740,235651,99259.2,93053.4
104396,97401.6,75077.8,87670.8,173293,196270,97841,99267.4
110703,111773,98704.2,106074,208544,214861,90802.1,93820.8
103952,124473,129158,110289,215487,222884,92476.1,98084.8
96051.6,103489,67719.4,105441,146789,245722,96895.4,92805.9
117473,110712,113282,98175,203658,224123,95988.2,97105.7
97399.8,95864.4,82430.6,89171.6,187349,163281,97761.7,97663.3
118292,118811,130826,74029.2,252601,174049,97044.8,92870.1
124641,120511,108742,129935,210312,233778,92323.4,91891.9
112004,122764,84372.4,134785,172711,245836,90560.3,95713.2
105170,123212,79192.4,120567,171961,241896,97359.2,89880.5
113494,117230,120270,101606,224301,226489,93994.3,97387.7
102644,94825.8,98141.4,110363,185524,251199,95202.6,99590
102861,125390,70081.2,143993,166760,246350,100032,96247.7
101513,121918,93765,118150,159243,213273,91513.6,97723.8
113612,116563,92512,137480,174583,228740,91896.9,99123.5
113418,112086,99300.6,118625,210539,227773,99476.4,94756.4
116711,104943,93623.6,87570,212226,184741,92786.5,90816.3
119704,60530.4,105462,42639.8,227301,99017.8,98022.9,96812.8
66317.4,112112,38476.2,93913.4,105052,175955,98674.2,92908.2
116897,116061,116274,140813,247619,257177,98430.5,92786.3
121805,117123,128164,106641,221052,200326,100538,92580.7
114219,118524,100479,125545,190595,235691,97834.6,98614.4
116924,78208.2,117730,62665.4,226605,133371,95999.6,92742.3
130534,127792,131274,117576,250755,210533,100258,89976.4
116770,114224,102123,122777,187551,218812,97828.2,91157.6
117714,112409,90617.8,103233,220206,194320,100313,96080.9
114610,128562,108805,128533,226226,237308,95866.5,93141.4
106304,115307,98295.4,116652,165211,230532,98231.7,90979.1
120065,125404,126213,126648,238074,259997,90792.1,95512.2
117105,118768,131838,88278.4,229825,199174,93926.5,90906.7
106668,107554,86244.2,107904,200010,205355,95545.8,98378
88810.2,100271,80906,88821.6,137558,184899,90832.1,94125.2
106514,111884,96474,94551.8,200556,177330,92719.5,97077.6
108960,114830,98708.4,147837,192898,241233,92772.8,95277.8
104880,77670.9,96840.8,91005.6,212096,149104,95029.5,92977.9
114122,114693,85829.8,107510,188378,212874,97150.6,97185.9
96769.8,110267,116927,128384,177436,250177,90476.6,92108.7
114461,111273,66584,79122.4,157588,180662,93470.8,92666.1
110440,107166,85152.2,99383.2,218039,234496,97027,93013.5
107744,114162,88246.2,121524,181744,213819,90014.5,89678.3
61901.1,115636,44930.2,119211,109129,225793,98608.1,91123.8
108119,107770,78458.8,88393.2,171494,164051,97783.4,93226.3
121293,127596,138054,129508,245501,227009,94669.9,101405
137592,72072.9,116490,42032.2,218491,101601,95324.2,97993.3
103301,76428.9,110433,67827.2,244055,122998,96120.6,97310.5
114362,111536,100955,85139.6,210365,196454,91471.5,92451.3
58059,117722,35676.2,96226.2,99097.6,193549,94648.8,96687.6
121384,131123,116547,121195,251161,227665,89511.1,96654.9
113200,108372,88470.2,131425,182977,257467,97563.1,91421.8
122654,66115.8,81186,49834.4,206569,100600,91730.5,91419.2
105099,104944,80514,94964.8,147144,214350,98623.3,92513.3
108825,138016,97361.6,127210,196953,252472,97335.1,93266.3
106068,128281,71366.4,105382,185234,221707,91923.4,92358.1
121766,120380,103779,119386,226947,221318,99694.1,97544.2
121551,122828,133148,110046,222463,197435,94490.9,90682.7
70617.6,110030,46121.6,107666,98837.2,209657,98979.3,92491.2
107575,154545,86129.4,135778,195259,216891,97675.1,96524.6
65602.8,101227,55421.8,105699,103942,200605,91645.2,98274.3
120220,120637,118455,108704,243131,223747,93511.8,93018.7
81318.6,125890,43446.2,115975,120348,234674,97083.6,95222.1
106831,158825,106688,130822,223434,257524,95842.1,98262.6
127891,105495,138137,98922.6,238384,196041,96791.7,91036.5
113670,100741,90283.2,83276.2,170496,163738,91006,98779.7
106686,121610,91964.6,126449,179399,251279,91394.3,94900.4
117050,105464,108164,114831,230695,246918,94528.5,96742.2
136904,112307,124254,115044,240793,201904,97770.9,99720.1
118390,108626,123483,60936.4,218226,159803,99314.9,95112.4
94628.7,118056,73900.4,126225,166127,234830,93323,92893.4
117293,123638,98582.4,106513,226255,198143,92946.9,95061.3
99324,77273.1,96048.4,56088.2,209572,126197,96178.9,95618.2
102405,93498.3,82395.6,92379,204842,165178,94981.8,96479.7
137528,111985,134310,115210,244122,221921,91932.9,93084.6
120986,73987.2,63817.6,66946.6,178462,136678,97618.9,93329.1
119165,102822,143646,102623,242679,224545,98357.6,91960.9
112767,103379,81908.4,136829,180342,255926,98010,96909.3
116197,119634,96748.4,86485,212971,217368,90438.5,94138.3
66335.4,123039,52082.8,116970,117025,216173,94224.4,91000
106592,117387,89469.8,120103,166533,213751,95280,92862.3
101696,78718.5,83707.4,60816,164714,138832,90354.5,98070.1
128196,114474,117901,114523,249101,259584,99115.4,91514.5
109706,107197,110572,95611.6,213167,184988,96203.4,91598
112909,129966,116166,114442,186070,231326,99302.2,92183.9
103618,124837,89404,123390,138167,230642,97645,97896.3
105942,78500.7,79346.4,59011.4,166627,123197,94208.4,99621.4
67946.4,119128,40538.4,136458,100407,223635,95031.4,94547.9
113840,110336,109522,88005.4,194204,213976,95804.3,92825
117154,95884.2,78912.4,95963,192506,191639,95915,96715.6
127576,107493,110813,73445.4,232100,176081,99743.2,96334.1
122553,107789,109952,83729.8,195471,192462,100157,99230.3
118419,126525,93660,139513,194383,253543,91210.3,90453
111020,118498,80854.2,97286,179865,214756,93107.9,94386.3
121347,104790,112055,94389.4,233722,230126,96087.2,100968
120294,107046,96296.2,124736,224458,225183,90463,89446.3
58963.5,107989,49077,135115,110568,226899,91884.1,94039.8
73642.5,134781,57804.6,145830,100106,259385,90999.6,95520.4
110206,149975,104105,143723,233594,260414,96174,100869
125784,158782,118061,103216,240615,219923,95940.2,90286.3
92100.6,144215,105972,102798,214381,211912,93977.1,91597.6
73649.7,124014,48099.8,104598,116346,196260,96673,96319.6
94450.5,111156,53071.2,99045.8,143739,198295,91957.2,100178
117704,115182,113361,106502,210244,214911,92556.1,95689.3
112078,90381.6,93765,86923.2,210993,237164,94601.1,100066
111182,113042,89108.6,115167,195119,204392,96320.7,96631.4
118078,122030,98380.8,153761,225100,250851,95463.4,92235.1
129275,113883,115031,98982.8,234986,172913,98120.5,95314
157559,129045,144455,82503.4,243764,207914,96499.6,97425.1
101245,115988,109820,121911,196015,246483,91172.6,89871.8
99938.7,121296,72011.8,101550,146003,231805,93646,91299.7
106910,117793,77929.6,119028,178857,236564,93089,98481.2
115015,137754,77700,120680,158493,242896,96226.5,95723.9
108549,103676,82985,90104,179847,193621,98093.1,100631
119476,82788.3,117268,74135.6,214960,126841,98127.6,99390.7
118415,70413.3,123792,56837.2,221312,123311,98115.8,94048.9
104556,118344,97388.2,119095,166650,206305,96158.5,94725.6
134408,111640,126203,103814,248427,237416,100630,96039.3
112169,111452,120382,119832,243040,235668,95032.6,91478.7
118858,105340,112122,89273.8,208351,212131,97117.6,98037.2
99727.2,96730.2,82798.8,108382,200141,218065,98751.5,92048.3
106376,99954.9,108742,99306.2,218121,204789,90611,92965.1
94577.4,107577,65223.2,85687,145167,177419,89840,89536.9
120838,127473,130964,130581,223292,233838,97442,95994.1
114716,115888,105630,102040,219838,222902,94081.7,96470.8
104696,118328,71873.2,113600,171718,225184,96741,94284.6
119434,133930,141368,123509,242005,254901,99046,94504.5
99441.9,108943,71946,101056,161084,186225,96677.1,98834.1
98602.2,126059,58234.4,137088,166223,249606,89729.9,98764.2
100051,109638,70998.2,91460.6,145562,170552,100895,94793.6
115200,116026,122371,134613,235815,229950,99699.6,98627.9
73727.1,113051,42791,133566,150156,228694,90133.7,89697.6
114755,121898,102087,90609.4,183123,189224,93696.5,94985
113840,103540,92919.4,105843,234147,211985,98352.3,92227
99770.4,96337.8,65221.8,86475.2,210084,211665,98198.9,91982.1
114297,123171,83920.2,115716,197455,207246,96312.2,95779.4
107295,112893,105442,117201,219806,241415,98706.6,97333.6
92836.8,127487,74779.6,135899,169313,235424,95751.7,94971
120475,99674.1,118006,53657.8,243195,147224,94901.9,93495.4
112439,123430,102103,87123.4,205405,211110,91541.3,93225.5
117089,110590,99912.4,117810,197161,232593,97891.2,95626.9
103822,101169,77287,72504.6,169008,160577,89316.5,92861.9
107662,114813,79899.4,88433.8,174107,220532,97503.1,96231.1
110036,102527,97676.6,84404.6,182374,179145,97465.7,93046.2
114390,130786,92650.6,132954,208369,247026,97640,96954.9
123862,115491,121029,100155,229330,226120,98036,96128.3
114652,116140,125672,117032,249805,240646,94412.5,93737.4
100061,124876,67020.8,132040,156124,244864,93766.2,90393
130682,81618.3,121642,82227.6,249743,180670,98382.7,91166.2
110563,141287,101132,114387,203664,251608,96172.6,91823.9
112500,113925,96906.6,114352,203098,211466,90175.9,96104.3
98849.7,114089,55679.4,116000,155708,202349,100465,93959.2
115070,103375,110648,122434,218023,250803,94285.5,89611.8
118224,119745,109299,105384,223716,217253,94236,95536.1
91664.1,117671,82686.8,87081.4,169151,178972,92882.6,95223.5
132811,97772.4,154969,108636,251531,189490,97171.4,89636.3
100696,129316,97925.8,104856,219513,260777,92740.9,93647.7
113299,129442,128127,122828,224487,230801,90189.4,89592.1
132930,135004,104881,106396,204432,224393,97895.7,92956.4
111718,116306,96899.6,109668,171791,205069,94175.6,93480
130944,84754.8,131337,99359.4,240019,177701,94502.6,92311.4
113875,97573.5,98947.8,45598,210365,139523,99084.7,95536.7
73372.5,113613,41353.2,121061,102536,223840,98318,93904.3
125350,126900,96233.2,120883,201940,251334,91438.1,94378.8
101300,107755,91637,96735.8,181518,211179,96944,95304.2
126332,137543,116341,114443,218411,221068,99749.3,95515.3
129575,119092,69977.6,126718,164235,257410,94467.1,96665.8
120655,79895.7,103005,67102,209416,141399,96817.7,93723.1
112241,106071,107268,111439,209530,238657,93434.8,95664.9
117695,132292,128180,96412.4,211623,230392,94579.1,93975.9
105342,136263,129298,110327,246057,243153,97688,96762.5
126008,122114,121358,107920,242819,251602,98949,95888.4
110935,132026,101417,111415,211365,229561,99456.9,93000.4
117345,100639,96174.4,133658,210157,244481,95713.2,95217.5
94206.6,107793,63105,83221.6,157119,184338,90731.1,89588.5
104053,122271,56049,133071,154671,248520,89534.7,90197.9
104631,89206.2,97115.2,83463.8,207845,172306,91231.8,89528.6
108870,119585,114902,117617,251511,260197,95135.6,98041.4
118005,94176,108898,96895.4,203283,227115,94831.3,93584.6
115006,100214,96899.6,121057,201998,214805,98571.6,94895.5
94800.6,157218,92023.4,123523,190550,230136,90047.9,92293.2
110874,111077,64225,120315,187888,215863,90857.8,97586.4
91321.2,100826,54989.2,101632,130320,225634,90826.9,95737.6
125740,112717,121953,122102,237082,240855,97093.2,94517.4
124009,106950,125670,122675,214505,244164,96106.7,98850.4
113614,123009,119547,123452,225795,213013,93834.1,91406
107098,109105,74804.8,117095,167661,216894,90493.2,98282.8
98193.6,116167,85533,99472.8,202926,201421,90103.3,92624.6
77301.9,126076,58276.4,148578,136128,244412,90638.2,96846
140742,134430,123728,140409,244789,246676,96535.6,98841.4
53905.5,107456,54990.6,116628,127180,220063,96643.9,89831.8
110107,132152,85734.6,150389,194967,256581,97523.6,94322.3
112015,117918,106058,102133,226232,229128,96739.7,97623.7
117466,116028,122735,107383,199522,236044,95117.3,92617.3
109260,120334,89658.8,84313.6,197338,218918,95898.5,96823.4
113422,114892,120175,111517,223667,234342,95706.4,96057.4
119897,,114783,,237416,,95722.9,,
101279,,94731,,163927,,97539.4,,
112962,,105808,,232403,,92664.4,,
114034,,142950,,187643,,91800.7,,
114878,,103516,,187856,,95363.7,,
109657,,85678.6,,180772,,96261,,
110927,,91709.8,,204547,,91709.9,,
108542,,113869,,218733,,93142.4,,
64152,,42785.4,,109684,,93153.4,,
117182,,110422,,215845,,90792,,
60649.2,,39648,,100723,,99378.5,,
126788,,117842,,240204,,95448,,
92450.7,,104719,,185660,,95294.5,,
116439,,113826,,255168,,92336.5,,
96617.7,,101793,,205874,,98525.7,,
80932.5,,62088.6,,133312,,99523.6,,
104589,,83248.2,,198437,,96405.5,,
111750,,93216.2,,190844,,89737.3,,
115894,,93158.8,,178877,,98514.1,,
130945,,133547,,242344,,94207.7,,
113768,,107087,,210203,,99316.6,,
103311,,79854.6,,161006,,91002.4,,
103517,,80784.2,,177499,,90563.5,,
104205,,105890,,231164,,97719,,
131241,,118874,,244744,,101132,,
116111,,100202,,188367,,93882.4,,
127587,,125245,,214406,,93720.6,,
108508,,54314.4,,163374,,91211.5,,
107754,,96318.6,,209598,,95617.1,,
126968,,92598.8,,215025,,93588.8,,
112740,,96269.6,,197936,,94726.4,,
110394,,73011.4,,186071,,98413.1,,
108183,,51038.4,,135762,,92489.3,,
129776,,134946,,251380,,99160.9,,
99976.5,,86774.8,,170145,,97522.4,,
109138,,131152,,236211,,94200.9,,
96577.2,,103447,,195370,,90176.4,,
90714.6,,124127,,176858,,90925,,
100787,,89744.2,,169954,,95906.8,,
108467,,100051,,190448,,93953.7,,
125285,,117849,,250065,,99939.3,,
115516,,118861,,213097,,94855.6,,
108595,,95670.4,,172109,,93370.6,,
115844,,121561,,230693,,98721.6,,
97971.3,,60894.4,,153730,,100146,,
110814,,91799.4,,178525,,95153.5,,
115893,,125136,,248312,,94225.4,,
104675,,96084.8,,176219,,92299.9,,
