"FSC-A", "FSC-H", "FSC-W", "SSC-A", "SSC-H", "SSC-W", "FITC-A", "FITC-H", "FITC-W", "PE-A", "PE-H", "PE-W", "Time", "Event #", "Comp-FITC-A", "Comp-PE-A"
76333.5,57832,86502.1,97744.8,55790,114820,141774,92335,100626,98787.3,73455,88137.3,0.009,8,141774,89997.3
83304.9,54044,101019,79344,48155,107982,114772,71624,105017,89019.8,62158,93857.6,0.104,71,114772,81903.9
114376,68432,109535,132253,77729,111507,221578,135239,107376,99364.1,69564,93610.6,0.498,402,221578,85626.3
72744.3,46431,102676,146491,83101,115527,190894,113992,109748,97882.4,67614,94874.2,0.501,408,190894,86047
51947.1,36850,92385.5,61642.3,36611,110344,87335.1,57135,100177,90600.2,58952,100719,0.618,517,87335.1,85185.4
58352.4,51098,74840.2,31154.1,25348,80547.3,68925.9,59095,76438.4,86420.5,72392,78235.9,0.693,580,68925.9,82147.1
102749,56803,118546,209266,86186,159126,222123,99965,145622,95383.2,64042,97608.3,0.74,628,222123,81611.5
63293.4,46298,89593.4,134420,86067,102355,153487,105421,95416.4,95611.1,68322,91712.4,0.826,692,153487,86095
58693.5,41934,91728.4,88288.6,52298,110637,179329,112657,104321,94645.1,71147,87180.9,0.94,778,179329,83526.7
78982.2,54791,94471.3,91107.5,52272,114226,155187,95237,106789,92913.2,67489,90224.4,0.986,817,155187,83291.6
95191.2,53935,115666,139602,81950,111641,157052,94453,108970,98352.2,69642,92553.5,1.191,974,157052,88615
45535.5,30643,97386.5,69572.3,34427,132439,86622,54081,104970,92031.9,59140,101985,1.334,1083,86622,86661.3
102912,56673,119007,118835,48322,161169,137143,64343,139686,91291,65628,91163.1,1.348,1091,137143,82788.2
85176,54651,102141,118564,72314,107451,151425,92780,106961,90976.9,66340,89874.3,1.489,1201,151425,81588.5
82624.5,53046,102079,95841.9,61758,101705,140504,87445,105301,92875.6,68565,88772.7,1.568,1260,140504,84164.4
79401.6,51761,100533,83647.4,47626,115103,166949,98042,111597,92565.7,68802,88171.6,1.65,1325,166949,82214.8
85442.4,62613,89431.2,119666,64545,121504,190342,94469,132046,108047,76730,92284.6,1.751,1397,190342,96246.2
63872.1,39984,104690,123222,53545,150817,201646,108905,121345,100001,66816,98085,1.917,1522,201646,87498.7
94686.3,55795,111217,143688,78371,120156,156101,81344,125765,97548.8,65653,97375,1.994,1573,156101,87870.5
107438,61641,114227,174569,88604,129120,190443,109045,114456,99043.1,62670,103572,2.023,1588,190443,87235.6
89723.7,57233,102740,118005,68905,112236,154220,90583,111577,98170.1,69662,92355.6,2.13,1675,154220,88608.5
93022.2,57698,105659,102729,62579,107584,153293,97788,102735,92262.6,64427,93850.8,2.195,1728,153293,82758.5
74174.4,53717,90494.5,101038,67620,97923.8,149992,99402,98890.2,97426.5,70440,90643.7,2.648,2030,149992,88127
77100.3,56190,89924.3,80539.4,49963,105643,140546,91975,100145,94406,67979,91013.3,2.709,2066,140546,85692.2
57580.2,39835,94730.2,113805,63988,116558,156578,71583,143351,96529.9,68888,91832.9,2.778,2113,156578,86822.1
73810.8,45214,106986,102247,66167,101272,132901,81102,107393,98435.6,65647,98269.2,2.784,2119,132901,90195.8
69210,52011,87207.4,122128,82068,97526.3,171880,117999,95461.5,96509.1,68623,92167.6,2.912,2202,171880,85852.5
100524,60765,108416,161646,80583,131462,206252,119160,113435,101125,69186,95790.3,3.048,2297,206252,88337.6
96567.3,54272,116610,132393,75093,115544,157721,108013,95695.6,96649.5,65491,96715.9,3.12,2347,157721,86870.8
77728.5,48237,105604,100443,64561,101960,134546,92933,94881.7,92038.9,67563,89277.5,3.513,2614,134546,83697
96947.1,57833,109860,104578,59285,115605,163866,97095,110604,94419.9,69355,89220.8,3.629,2696,163866,84260.2
77628.6,58469,87011.4,107815,64307,109876,200078,139836,93769.2,97405.6,66083,96599.4,3.639,2704,200078,85000.8
89895.6,55966,105267,143933,76680,123015,172823,90910,124586,93280.1,65426,93437,3.823,2822,172823,82565.1
66430.8,49251,88396.4,108496,72749,97739.1,185487,123808,98185,100263,65324,100589,3.845,2838,185487,88763.3
98188.2,58177,110608,122748,55613,144650,160577,92026,114354,94332.4,62257,99300.7,3.918,2901,160577,84376.6
90168.3,41741,141570,115458,43375,174447,134292,55275,159221,103993,65008,104838,3.986,2947,134292,95666.7
156516,41817,245294,188470,60786,203198,239447,99555,157625,99725.5,66742,97923.6,4.001,2957,239447,84879.8
62726.4,51069,80495.7,127595,80762,103540,174171,121824,93696.5,97186,71487,89095.7,4.03,2980,174171,86387.4
78895.8,53806,96095.5,132912,84303,103324,156062,98098,104260,97286.1,68292,93360,4.246,3139,156062,87610.2
60413.4,41628,95110.3,67152.3,45627,96453.7,116774,76070,100603,95933.6,71142,88374,4.336,3196,116774,88693.6
99608.4,46033,141810,151375,51808,191486,174584,67565,169341,97553,64500,99119.9,4.337,3197,174584,86728.8
67257,38912,113275,119661,66117,118609,194792,99361,128480,101945,64754,103177,4.575,3356,194792,89868.3
83642.4,54735,100148,106641,61607,113442,124365,72534,112366,90404.2,61602,96177.6,4.662,3412,124365,82693.6
66428.1,49289,88324.6,45669.8,35070,85344.1,79613.6,59548,87619.4,92800.6,71618,84919.7,4.724,3458,79613.6,87864.5
55601.1,34815,104664,110912,71855,101159,177725,113796,102353,95417.9,66867,93518.6,4.776,3492,177725,84399
59859,40910,95891.5,89532.7,63416,92525.8,155440,94527,107767,95481.9,65377,95714.1,4.879,3564,155440,85844.6
91080.9,48505,123061,163001,75357,141758,210825,103697,133241,104019,69523,98054,4.937,3598,210825,90948.1
81223.2,60970,87305.9,124178,79806,101974,185028,117066,103583,96999.8,68717,92509.5,4.966,3620,185028,85528
75064.5,47886,102732,107585,60495,116550,137326,85587,105154,90850.4,65595,90768.7,5.077,3685,137326,82336.2
73269.9,47116,101915,131199,75278,114220,188517,105007,117656,99578.2,68184,95711,5.194,3733,188517,87890.1
53121.6,42676,81576.9,63347.9,44892,92479,87927.2,56964,101159,87640.9,55802,102929,5.215,3745,87927.2,82189.4
63549,49407,84294.7,60833.3,30075,132561,78229.2,45269,113253,90761.4,61379,96908.4,5.291,3788,78229.2,85911.2
67743,37518,118333,110968,63244,114989,130365,72238,118270,94214.2,61574,100276,5.322,3804,130365,86131.5
77389.2,46722,108552,106699,58644,119239,129370,67634,125357,92283.5,66868,90445.2,5.665,4026,129370,84262.5
74372.4,47718,102143,110764,63739,113886,142601,86437,108120,97710,67076,95466.7,5.833,4127,142601,88868.8
96635.7,53554,118257,120877,68316,115958,155374,81911,124313,92259.9,60507,99928,6.082,4291,155374,82626.7
55527.3,33371,109048,109433,60948,117671,147632,92381,104732,94429.6,73606,84076.6,6.122,4322,147632,85276.5
72261.9,45212,104746,88978.1,55121,105790,137577,87413,103145,93763.8,68020,90339.7,6.169,4348,137577,85234.1
53685,37764,93165.5,116108,69842,108950,156296,105208,97359.5,93706.9,71075,86404.1,6.172,4352,156296,84016.5
55808.1,34561,105826,76976.8,49438,102042,126863,78138,106402,91423.1,67628,88595,6.416,4524,126863,83557.6
56171.7,34981,105236,86214.8,42162,134011,143214,68194,137632,94501.9,70921,87326.5,6.494,4580,143214,85622.6
44753.4,33790,86799.6,44860.9,22527,130510,71594.7,41540,112952,96295,69157,91253.1,6.762,4746,71594.7,91856.2
76806,43845,114803,81851.5,48757,110020,109098,70514,101396,89996.9,68481,86126.7,6.827,4792,109098,83232.8
75015,47347,103833,109576,69139,103866,160487,99787,105401,98791.5,69914,92605.2,6.833,4799,160487,88841.3
84373.2,52399,105526,181470,99901,119046,237747,133945,116324,104087,67017,101787,6.907,4851,237747,89347.1
87531.3,52306,109671,103502,61109,111000,171418,96720,116150,93590.1,64820,94623.9,6.912,4855,171418,82962.2
55023.3,37099,97199.6,131251,80171,107291,197190,131134,98548.2,101139,71948,92125.7,7.288,5112,197190,88913.4
92388.6,62265,97242.1,162501,90133,118155,180503,103261,114558,95330.4,62755,99554.9,7.454,5230,180503,84139.2
78076.8,48274,105996,97786.5,59210,108234,175519,107320,107183,97811.5,69374,92400.3,7.668,5390,175519,86929.3
51232.5,42067,79814.9,116274,74722,101979,205061,144963,92705.6,96386.8,67909,93018.6,7.758,5456,205061,83673
72519.3,41820,113645,86870.8,56312,101100,134275,90087,97681.9,101318,65001,102152,7.781,5466,134275,92993.4
90921.6,54865,108605,102906,61616,109453,146128,90331,106017,103149,71572,94450.1,7.816,5480,146128,94089.2
77354.1,45606,111158,133995,66831,131398,133671,69940,125254,95737.6,62441,100483,7.85,5507,133671,87450.1
93195,59431,102768,67916.8,41983,106019,110301,66795,108222,91835.9,61140,98439,8.007,5621,110301,84997.3
108878,62278,114573,123866,73078,111082,171611,100958,111400,93348.2,67931,90057.1,8.493,5962,171611,82708.4
74437.2,47175,103409,87692.3,55496,103557,115230,71059,106273,91880.4,65832,91467.3,8.624,6062,115230,84736.2
62931.6,43491,94830.8,139764,83551,109629,211170,123496,112062,102173,75563,88615.2,8.686,6110,211170,89080.8
82025.1,45673,117697,103726,61478,110573,144716,88867,106722,92690.8,65943,92118.7,8.726,6140,144716,83718.4
94469.4,37575,164768,94337.9,41505,148959,158792,81652,127451,93680.4,67842,90496.2,8.791,6187,158792,83835.3
88847.1,53468,108900,138083,83722,108088,175647,100234,114844,97400.1,61890,103138,8.89,6252,175647,86509.9
80962.2,51705,102619,107304,67121,104770,127086,79006,105419,93490,67649,90569.9,8.954,6291,127086,85610.7
59233.5,38880,99843.8,99526.8,61529,106008,175706,112668,102203,92454.5,62879,96361.2,9.342,6567,175706,81560.7
69738.3,46493,98302.3,130707,76951,111318,199012,118145,110394,96365.9,69300,91131.9,9.407,6599,199012,84027.2
69283.8,52256,86891.1,109322,73208,97865.5,158671,100776,103186,96585.5,66657,94961.2,9.64,6715,158671,86747.9
65711.7,39594,108766,94344.9,58391,105889,142077,82427,112963,91377.2,63958,93631.7,9.721,6761,142077,82568.4
96810.3,52688,120418,124213,66579,122267,167908,91008,120913,97079,67316,94512,9.959,6932,167908,86668.7
73650.6,52799,91417.8,99739.4,60205,108571,146733,97839,98286.6,92899.3,67628,90025.5,10.146,7053,146733,83801.8
64523.7,45585,92763.5,85754.7,58100,96730.1,130123,89176,95628.5,90230.5,70421,83971.3,10.18,7077,130123,82162.8
80935.2,44664,118757,194209,99918,127382,201781,101593,130165,96420.1,61763,102310,10.491,7259,201781,83909.7
87354.9,52972,108074,125602,72312,113832,178739,101338,115592,95577.8,66972,93528.4,10.527,7282,178739,84496
77461.2,47781,106245,128992,67110,125967,145165,87484,108746,96756.5,64946,97635.5,11.099,7657,145165,87756.3
71815.5,43895,107222,118018,68371,113124,199300,115336,113246,101809,69119,96531.6,11.302,7775,199300,89452.6
113801,67222,110947,76985.1,38256,131883,105921,57961,119764,90251.3,63167,93636.1,11.439,7867,105921,83684.2
78931.8,45158,114551,106546,59963,116449,158589,96068,108187,93274.6,62316,98094.2,11.577,7957,158589,83442
74641.5,44338,110328,100294,61633,106645,178561,101758,115000,96185.2,72076,87457.6,11.615,7981,178561,85114.5
76191.3,48118,103771,82999.7,53503,101667,118592,82786,93881.2,92461.4,68258,88774.2,11.648,8010,118592,85108.7
52803,38391,90138.2,45685.1,34335,87200.2,67194,50018,88040.8,90737.8,64468,92241,12.003,8252,67194,86571.8
63794.7,47189,88598,112657,62965,117257,181577,125051,95159.9,96935.8,70997,89479.6,12.071,8306,181577,85678
88173.9,58662,98506.1,100426,65128,101055,116848,76177,100525,98339.7,65410,98529.2,12.399,8532,116848,91095.2
73830.6,44680,108294,106531,56912,122674,157183,86106,119633,94296.2,68967,89605.1,12.625,8674,157183,84550.9
67626,37031,119682,79120.2,48700,106473,150160,94813,103793,95227.5,68313,91356.4,12.639,8681,150160,85917.6
54103.5,37833,93720.5,50279.1,30449,108217,66428.1,36695,118638,89871.8,65782,89535.8,12.654,8689,66428.1,85753.3
76802.4,53674,93775.8,84788.6,57930,95921.1,107083,67383,104148,102425,74434,90180.8,12.82,8796,107083,95785.8
72911.7,46194,103441,129969,82816,102850,152348,94854,105260,93312.1,71108,86000.2,12.881,8823,152348,83866.5
79988.4,51520,101749,157041,88461,116343,189659,101038,123018,100345,68826,95548.8,12.881,8824,189659,88586.7
91244.7,55873,107025,145532,84289,113153,195035,104928,121815,97184.6,65854,96715.3,13.056,8953,195035,85092.5
84306.6,60957,90639.6,81134.3,51665,102917,118614,74903,103781,93994.6,63700,96703.7,13.239,9072,118614,86640.5
67822.2,45422,97855.6,74185.7,51285,94800.3,116497,80817,94469.8,90843.4,64791,91888,13.285,9093,116497,83620.6
88806.6,50766,114644,95536.1,55335,113148,124850,71772,114002,94197.5,70043,88136.3,13.286,9094,124850,86456.8
41530.5,26779,101637,39414.8,22484,114886,65708.1,49236,87461.3,89930.2,77129,76413.1,13.393,9161,65708.1,85856.3
58786.2,34238,112524,115868,68121,111471,202107,120386,110024,95391.5,66527,93970.6,13.876,9487,202107,82860.9
63868.5,45374,92248.6,103504,64795,104687,141908,84210,110439,98788.7,64145,100931,14.003,9568,141908,89990.4
87857.1,44371,129765,184548,91251,132541,174498,81883,139661,104902,66408,103524,14.109,9644,174498,94083
72562.5,46095,103166,107295,66558,105648,143098,90594,103517,98022.8,66130,97142.3,14.264,9766,143098,89150.7
76036.5,45866,108645,121959,71001,112571,168068,101489,108529,96385.4,66647,94778.6,14.459,9889,168068,85965.2
82043.1,53885,99782.4,109871,69337,103848,163934,103028,104278,95390.1,66497,94011.6,14.652,10025,163934,85226.2
70883.1,40507,114681,136398,78748,113514,213223,124939,111845,100731,70364,93818.9,14.678,10047,213223,87510.7
75145.5,47894,102826,71398.7,41505,112738,143940,88966,106032,91247.9,67146,89060,14.872,10167,143940,82323.7
71903.7,44421,106082,107462,68368,103011,149344,93361,104834,96290.9,66090,95483.7,14.873,10168,149344,87031.5
49871.7,28255,115675,106316,68753,101341,219455,126273,113897,98920.7,67801,95616.1,15.002,10244,219455,85314.6
72315,47718,99317.6,107783,62310,113364,167273,100191,109415,95987.8,68975,91202,15.058,10279,167273,85616.9
61679.7,35763,113029,98092.3,66494,96679.1,147624,100769,96008.3,91249.3,68052,87875.7,15.093,10293,147624,82096.7
71748,39876,117917,75442.2,46191,107038,107985,67397,105003,101766,79556,83832,15.117,10307,107985,95071
55614.6,39953,91226.2,36780.8,25385,94956.3,63168.6,48454,85438,90797.6,72554,82014.9,15.323,10433,63168.6,86881.1
51869.7,43541,78072,91122.8,58328,102384,151303,110027,90121.4,98530.1,75768,85224.3,15.482,10528,151303,89149.4
90372.6,49009,120848,133768,67192,130471,169073,79687,139048,92034.7,62544,96437.5,15.598,10615,169073,81552.2
73208.7,52003,92260.2,99649.1,52723,123866,156083,88773,115227,104524,79205,86485.4,15.618,10635,156083,94846.7
77850,43296,117839,177147,88344,131413,227747,109478,136335,101432,66054,100637,15.851,10781,227747,87312.1
126012,61667,133918,206141,92242,146459,224623,97445,151068,100375,68757,95672.5,15.919,10829,224623,86448.1
72145.8,46379,101946,125727,70148,117461,196312,106490,120814,96396.5,69522,90869.7,16.221,11031,196312,84225.1
85968.9,52807,106691,104215,60382,113111,160831,88353,119297,92234.8,66017,91562.8,16.273,11072,160831,82263.3
77318.1,45712,110849,108302,64663,109764,149653,86426,113480,96712,70034,90500.6,16.37,11146,149653,87433.5
47641.5,35411,88171.3,92631,60455,100416,171183,120615,93011.9,92782.5,64979,93577.8,16.393,11166,171183,82169.2
70769.7,48182,96259.2,121347,73801,107757,177121,112275,103387,97330.6,67976,93836.9,17.143,11673,177121,86349.1
77813.1,42611,119677,144484,81422,116294,204156,125098,106953,99201.5,65510,99240.9,17.188,11705,204156,86543.8
70594.2,39907,115931,118108,69679,111086,156852,94132,109202,96610.6,64349,98392.7,17.29,11767,156852,86885.8
66102.3,38769,111741,130534,81525,104933,163091,102911,103860,99279.4,70400,92420.1,17.292,11768,163091,89167.7
76002.3,44409,112159,129170,77708,108937,187248,119650,102562,95891.9,66644,94297.7,17.546,11923,187248,84282.5
82692.9,52372,103478,109428,67181,106748,158859,92441,112623,94046,66766,92313.4,17.569,11941,158859,84196.8
75763.8,48773,101803,93775,53582,114696,140649,77799,118479,95587.5,70052,89425.3,17.682,12010,140649,86867.3
57152.7,43288,86526.5,121337,74278,107057,171935,106843,105462,95366.5,69663,89716.8,17.93,12214,171935,84706.6
69401.7,45944,98996.8,89375.6,58433,100240,125122,83094,98683.6,89857.9,67038,87844.6,17.981,12248,125122,82100.4
72234,40649,116459,110622,63819,113598,121644,69321,115003,89981.6,63398,93016.1,18.007,12269,121644,82439.7
80291.7,54388,96749.2,93091.1,61655,98950.9,130315,84196,101434,97194.4,70926,89808.1,18.056,12300,130315,89114.8
68508,49929,89922.5,31491.8,21706,95082,65296.6,45462,94128.7,89860.7,67120,87740,18.06,12302,65296.6,85812.3
64216.8,37186,113175,104812,65638,104649,140255,91658,100283,97116.5,70235,90619,18.132,12354,140255,88420.7
58088.7,36655,103858,104527,61268,111808,192985,111349,113584,99070.9,66460,97693.5,18.244,12432,192985,87105.8
78381,54340,94530.3,124814,78691,103948,154936,95200,106659,94055.7,60085,102589,18.387,12533,154936,84449.7
70002,43354,105818,112329,67383,109250,180947,109126,108669,96521.6,65037,97262.2,18.424,12560,180947,85302.9
51432.3,33993,99157.7,75185.1,51116,96395.1,119110,76661,101825,99309.9,74231,87677.3,18.515,12619,119110,91925.1
86192.1,54252,104119,139999,82909,110664,191067,103557,120916,95645.9,67219,93251.2,18.834,12834,191067,83799.8
46833.3,36364,84404,46916.7,22346,137596,63974.8,45060,93045.9,91874.8,79128,76093.3,19.092,13020,63974.8,87908.4
50818.5,38257,87054.4,37927.5,19172,129648,73127.9,44576,107513,92915.9,61449,99095.8,19.233,13103,73127.9,88382
59207.4,33914,114413,78801.9,48193,107160,122294,88057,91016.4,89489.6,69373,84539.9,19.59,13324,122294,81907.4
50733.9,32665,101788,116146,80745,94268.6,167034,112723,97111.6,92540.6,69463,87309,19.692,13396,167034,82184.6
83430,53837,101560,134179,78301,112305,191018,113917,109892,100650,69863,94416.1,19.759,13443,191018,88806.8
94051.8,57940,106382,116602,61598,124056,175586,93482,123096,95704.3,69795,89864.3,19.824,13478,175586,84817.9
50844.6,40504,82267.2,31947.8,21673,96605.4,69507,43628,104410,88487.4,60955,95137.6,19.926,13562,69507,84178
75172.5,47915,102818,125196,69599,117887,163812,100254,107084,94804.9,62852,98853.5,20.009,13614,163812,84648.6
61608.6,42510,94979.6,89392.3,61774,94836.2,122565,85548,93893.4,89632.8,63599,92362.7,20.091,13676,122565,82033.8
43994.7,33869,85129.1,46324.5,25746,117918,85906.2,55353,101710,93048,65033,93767.7,20.368,13866,85906.2,87721.8
72231.3,35796,132242,131936,79073,109349,170724,97783,114422,98563.5,65544,98551.5,20.535,13976,170724,87978.6
73372.5,42063,114318,125385,74852,109780,171106,93256,120246,100123,70558,92996.8,20.539,13979,171106,89514.5
81061.2,48565,109388,100230,56320,116631,159946,88606,118301,95758.5,65078,96432.4,20.54,13980,159946,85841.8
70829.1,47519,97684.2,131237,79944,107585,176214,95382,121075,92487.8,65114,93087.2,20.568,14005,176214,81562.5
111052,52648,138237,153571,75530,133251,159443,85906,121636,95167.7,68595,90923.7,20.611,14039,159443,85282.3
90029.7,55811,105717,109763,65330,110109,156190,91684,111645,94461.6,69090,89602.5,20.659,14070,156190,84777.8
69627.6,42327,107806,96570.2,52963,119495,117159,81021,94767.1,92152.8,72419,83394.2,20.826,14185,117159,84889
76993.2,45260,111485,92813.1,56503,107651,120184,71039,110874,89855.2,67553,87172.3,21.034,14333,120184,82403.8
57503.7,45180,83412.2,111983,67795,108251,181515,105532,112722,96773.2,67721,93650.8,21.044,14346,181515,85519.3
69330.6,41996,108192,123086,74211,108698,169542,89158,124623,99685.2,68385,95532.2,21.127,14415,169542,89173.6
79853.4,49237,106287,106569,61102,114302,155194,90758,112065,92471.1,64273,94288.2,21.134,14420,155194,82849.1
86247.9,47283,119543,163674,87294,122878,203161,103861,128194,101790,68657,97162.6,21.606,14711,203161,89193.7
46432.8,34250,88847.3,50675.2,37647,88215.6,123802,88651,91521.5,95370.7,67793,92195.5,21.674,14751,123802,87695
68316.3,44454,100715,117087,76322,100540,168594,105264,104965,98506.5,70422,91672,21.728,14794,168594,88053.7
72875.7,39710,120272,115652,67859,111693,186232,108687,112294,94796.6,61298,101351,21.943,14954,186232,83250.2
63766.8,36836,113449,100215,49867,131704,163449,87344,122639,93484.4,58594,104560,22.173,15095,163449,83350.6
80346.6,49851,105627,123864,68826,117943,157491,90371,114211,96766.2,71327,88909.8,22.328,15191,157491,87001.8
81116.1,50439,105395,111256,70195,103871,158926,89953,115787,94868.9,69198,89848.4,22.34,15200,158926,85015.5
50398.2,29785,110891,100846,51363,128673,173162,89881,126260,102550,63421,105970,22.524,15327,173162,91814
66507.3,51846,84068.6,105580,68623,100831,180635,130997,90369,97803.2,67938,94345.3,22.634,15410,180635,86603.8
83394.9,49285,110893,149319,86761,112790,206592,121325,111594,98210.4,66685,96518.2,22.738,15489,206592,85401.8
66699,41477,105388,100683,64924,101632,170460,99363,112429,95409.6,68683,91038,22.742,15492,170460,84841.1
55503.9,39772,91458.9,112881,73319,100898,170471,112466,99336.6,99742.2,73841,88524.1,22.818,15551,170471,89173
63597.6,42493,98085.1,107070,64723,108415,183152,120268,99802.5,96442.4,69355,91131.8,23.135,15743,183152,85086.9
83515.5,49849,109797,121758,65362,122083,182262,104404,114409,96206.1,71862,87737.1,23.143,15751,182262,84905.8
96050.7,56456,111499,120442,68295,115576,198318,108271,120041,100033,68131,96222.7,23.403,15909,198318,87737
67633.2,39842,111250,137855,86617,104303,178782,113449,103277,95434.6,68631,91130.9,23.419,15916,178782,84350.1
75146.4,48243,102083,107992,66935,105735,149200,87262,112053,95101,68260,91305.9,23.432,15926,149200,85850.6
60912.9,37104,107589,112429,69743,105647,172625,102997,109840,95516.6,66759,93766.8,23.45,15939,172625,84813.9
56201.4,34416,107020,101843,57300,116481,168120,93044,118416,96263.1,69699,90513.4,23.461,15947,168120,85839.6
71105.4,38767,120204,102105,56011,119469,176433,90018,128449,109214,67563,105937,23.634,16056,176433,98274.9
69122.7,40010,113222,115502,72065,105038,177517,111092,104722,98667.8,75015,86200,23.771,16180,177517,87661.7
77367.6,45474,111500,127388,68281,122267,161373,93296,113357,92519.8,64595,93867.6,24.038,16338,161373,82514.6
79605,50092,104148,109068,71222,100360,155506,96304,105824,95918.3,68563,91683.6,24.281,16507,155506,86276.9
82207.8,52321,102971,108103,67359,105177,178069,105908,110189,94248.9,64687,95485.9,24.281,16508,178069,83208.7
73286.1,50883,94390.6,109611,65523,109633,95411,60671,103062,88612.5,71862,80811.9,24.488,16654,95411,82697
62290.8,42028,97132.6,72925,38294,124803,136356,88444,101038,92075,69181,87223.8,24.543,16690,136356,83620.9
61378.2,40225,99999.5,89200.5,50547,115652,167366,85462,128343,96792.6,70451,90039.9,24.594,16725,167366,86416
99785.7,60290,108468,146502,85178,112719,203496,117637,113368,95547.2,63218,99050.6,24.633,16755,203496,82930.5
77258.7,48496,104405,65956.9,42243,102326,107824,69551,101599,91740,71166,84482.4,24.666,16779,107824,85054.9
62777.7,43470,94644.6,115569,73584,102929,156310,104772,97773.4,99621.3,68871,94797.2,24.74,16823,156310,89930.1
79254,53975,96229.5,104132,67301,101401,136466,86254,103687,95650.1,68389,91659.8,24.99,16992,136466,87189.2
77372.1,55750,90953.5,101344,63155,105164,173511,113611,100089,97451.5,70370,90757.2,25.04,17013,173511,86693.8
107478,57878,121699,142034,77290,120434,182122,86241,138398,93503.9,59994,102141,25.103,17070,182122,82212.3
72325.8,46376,102207,105523,69314,99771.6,130155,91344,93381.8,92204.3,65003,92960.3,25.536,17367,130155,84134.6
83258.1,46922,116287,107614,61111,115406,148050,82688,117340,97843.5,63264,101357,25.9,17611,148050,88664.4
59399.1,47935,81209.5,94696.5,58206,106622,161164,100015,105604,94041.8,73236,84154.3,25.923,17624,161164,84049.7
86837.4,50395,112927,135166,68921,128528,174530,101312,112899,95851.6,68722,91407.9,26.004,17684,174530,85030.8
78012,47430,107792,95290.1,42381,147352,139963,61213,149848,98004.7,61197,104953,26.057,17726,139963,89327
77887.8,43727,116735,138287,80061,113198,161942,91509,115978,96955.3,62982,100887,26.118,17769,161942,86914.9
84924,49185,113156,157426,79302,130098,188945,100084,123723,99275.2,70926,91730.8,26.162,17792,188945,87560.6
86963.4,50705,112400,119151,62134,125675,152928,82526,121444,91285.5,64268,93086.5,26.189,17814,152928,81803.9
56030.4,35926,102210,60437.2,29331,135038,88045.4,49199,117282,94856.4,61462,101144,26.501,18041,88045.4,89397.6
78471,53942,95337.1,101861,66578,100266,138109,92569,97776.9,92631,70341,86303.4,26.525,18066,138109,84068.2
79409.7,47433,109717,124409,61603,132352,154611,76434,132567,96236.6,60392,104434,26.567,18097,154611,86650.8
140615,69454,132683,150440,76898,128212,200784,101130,130116,95676.5,60300,103984,26.615,18143,200784,83227.9
72304.2,44296,106974,112906,68926,107352,180582,104418,113339,97793.4,68288,93852.4,26.709,18215,180582,86597.4
59766.3,37954,103200,130567,84878,100813,176506,98720,117175,95373.5,61524,101593,26.743,18248,176506,84430.1
74057.4,47880,101366,121764,55464,143876,202844,108072,123007,98514.9,64947,99408.3,26.748,18252,202844,85938.5
64767.6,41222,102970,86294,55255,102350,123859,84464,96102.5,94062.7,72402,85142.6,27.013,18432,123859,86383.4
60219,38822,101657,95026,60346,103199,145272,93286,102057,97099.8,67191,94708.1,27.061,18469,145272,88093
63783.9,48791,85674.5,121118,73581,107875,182829,120239,99650.8,99606,69269,94238.1,27.095,18492,182829,88270.6
62087.4,43056,94503.9,118977,68443,113924,157348,103228,99895,95716.8,70726,88692.9,28.166,19213,157348,85961.2
80909.1,48736,108800,102019,56987,117324,146714,73704,130455,91043.6,63539,93905.1,28.396,19385,146714,81947.3
76314.6,48232,103694,88658.4,56776,102338,135066,86780,102002,95865.5,66293,94770.8,28.407,19391,135066,87491.4
76798.8,48976,102766,112204,68204,107814,143334,83014,113156,94506.1,67408,91881.6,28.568,19483,143334,85619.4
64524.6,40193,105209,117474,66829,115202,210675,118090,116918,98257.7,74316,86649.1,28.759,19595,210675,85195.8
57807.9,44037,86029.9,35953.7,23071,102131,61275.4,40720,98618.4,93383,68712,89066.6,28.845,19646,61275.4,89583.9
67597.2,45159,98098.9,95876.6,59739,105180,155466,93025,109526,96578.6,66682,94918.8,28.96,19730,155466,86939.7
72166.5,50091,94418.2,117565,71092,108377,158531,93178,111501,96352,65940,95761.7,29.023,19780,158531,86523.1
74595.6,46643,104811,119847,72156,108852,164883,95197,113510,96509.1,63631,99398.4,29.233,19891,164883,86286.3
75633.3,45181,109708,118845,70231,110900,173295,104936,108229,95903,66138,95030.1,29.336,19960,173295,85158.7
79641.9,48191,108307,110452,67886,106629,123318,74783,108070,90712.8,61253,97055.7,29.413,20015,123318,83067.1
57954.6,42607,89142.9,82246.3,55329,97419,149721,95113,103163,95908.6,69966,89836,29.62,20151,149721,86625.9
74214,37918,128269,138247,70448,128607,247843,120833,134422,109403,70700,101412,29.659,20182,247843,94036.5
89676.9,52972,110947,130717,77725,110218,163435,95041,112697,98671.9,66901,96658.7,29.773,20249,163435,88539
85715.1,42713,131516,159222,78498,132930,234254,117180,131013,98318.9,65406,98514.3,29.873,20318,234254,83795.1
75328.2,50799,97181.2,96475.7,59868,105610,162264,95262,111631,99118.1,66273,98015.9,29.887,20324,162264,89057.7
84240.9,50910,108443,122674,69354,115921,162055,86723,122464,97835.1,68987,92941,29.928,20354,162055,87787.8
81117.9,55534,95727.7,152593,91532,109255,204376,115771,115694,98089.5,67615,95073.5,30.007,20398,204376,85418.2
75765.6,56020,88635.7,124629,77431,105483,194222,116770,109005,96470.2,63795,99102.9,30.137,20473,194222,84428.4
77740.2,47493,107274,139015,76827,118585,174580,101954,112220,97112.4,68089,93471.1,30.509,20731,174580,86288.4
90917.1,53291,111808,125930,75058,109954,171324,99122,113274,97091.5,70272,90548,30.538,20758,171324,86469.4
83432.7,45141,121128,157073,79922,128800,219334,112541,127725,101546,68761,96783.8,30.615,20814,219334,87947.8
80463.6,53299,98937.4,83575.1,43605,125609,124708,66875,122211,95513.9,61354,102024,30.702,20866,124708,87782
90963,53923,110553,189262,104379,118831,226353,117986,125729,100746,66675,99024.8,30.966,21045,226353,86711.9
59049.9,46012,84106.2,90912.9,62843,94808.8,159275,109715,95139.4,92111.1,67251,89762.2,30.99,21058,159275,82236.1
76845.6,42489,118528,155644,89718,113693,195374,112441,113873,97949.1,65751,97628.9,31.036,21103,195374,85835.9
89003.7,52325,111475,147059,83128,115938,186380,100966,120977,98018.6,65948,97406.3,31.15,21175,186380,86463.1
102399,54945,122137,102588,55675,120758,170803,80174,139618,97843.5,67893,94446.7,31.161,21186,170803,87253.7
81453.6,50470,105769,111935,66775,109858,145526,84284,113155,90842.1,61397,96966.1,31.405,21359,145526,81819.4
91467,50994,117551,124053,66630,122016,171778,100934,111534,98275.8,73136,88063.4,31.583,21463,171778,87625.6
73622.7,44137,109317,98506.5,57148,112965,162385,92772,114712,108598,68741,103535,31.656,21509,162385,98530
89653.5,47367,124043,113881,61604,121150,170699,71996,155383,97173.5,66289,96069.7,31.775,21611,170699,86590.2
73898.1,46766,103558,115300,69990,107963,161451,90316,117154,97661.4,71101,90017.6,31.869,21668,161451,87651.4
45357.3,30081,98817.7,78029,50526,101209,122915,82487,97656,94846.6,70247,88485.9,31.885,21679,122915,87225.9
88098.3,53192,108543,110926,58771,123695,200513,109211,120325,99804.8,65416,99987.9,31.907,21688,200513,87373
99101.7,46244,140445,154129,78296,129010,195045,94986,134572,97926.9,63344,101316,31.925,21705,195045,85834.1
91638,50173,119698,149253,76758,127432,169238,84444,131344,97555.8,65249,97984.9,31.972,21734,169238,87063
75882.6,46470,107016,143479,83216,112995,186392,103762,117725,97309.7,67735,94150.6,32.574,22163,186392,85753.4
60233.4,37206,106097,116171,74465,102241,140767,89655,102898,97618.3,67165,95250.7,32.59,22178,140767,88890.8
67265.1,44579,98887,87664.5,52980,108441,155857,92144,110851,96606.4,72678,87113,32.618,22205,155857,86943.3
52855.2,40095,86392.8,44247.9,25643,113085,65762.3,40517,106370,89578.5,59640,98434.3,32.799,22316,65762.3,85501.3
60669,43085,92282.8,111057,74576,97594.7,213728,136616,102527,95711.2,70192,89362.5,32.918,22403,213728,82460.1
57554.1,34766,108493,84698.3,51624,107523,140038,92135,99609.8,93704.1,64373,95397,33.032,22469,140038,85021.7
69411.6,43024,105731,107714,67727,104229,177428,107311,108357,93127.2,62996,96882.1,33.098,22519,177428,82126.7
87322.5,51892,110282,129922,63183,134760,155559,86934,117270,92328,67216,90020.3,33.195,22579,155559,82683.3
66636.9,45015,97014.7,83514,48565,112698,156280,93477,109567,94809.1,71952,86354.9,33.398,22728,156280,85119.7
67345.2,44405,99392.7,117583,76295,101002,171368,98320,114226,97736.5,73017,87722.8,33.76,22972,171368,87111.7
62715.6,44286,92808.8,79321.7,53695,96814,114900,77881,96687.2,93591.5,72183,84973.1,33.782,22987,114900,86467.7
64868.4,50094,84864.8,136374,84986,105164,167284,104968,104442,97612.8,71317,89700.2,33.943,23105,167284,87241.2
83360.7,52209,104640,135582,85314,104151,188970,110242,112338,100921,66530,99413.1,34.147,23240,188970,89204.8
73580.4,44391,108629,76607.1,49446,101535,116255,65000,117214,95297,61831,101007,34.287,23333,116255,88089.2
75350.7,44766,110311,74618,41259,118524,115895,77273,98292.1,91425.9,69585,86106,34.365,23385,115895,84240.3
60520.5,41943,94563.4,40645,23555,113085,80018.1,45440,115406,93850,60566,101551,34.394,23407,80018.1,88888.9
53381.7,39408,88774.4,84617.6,53349,103948,159498,96142,108723,98961,74366,87210.7,34.741,23620,159498,89072.1
72026.1,49460,95436.8,125720,72751,113252,174680,113812,100585,98979.1,70344,92213.9,34.744,23624,174680,88149
93027.6,55828,109204,156599,99025,103639,191598,122043,102886,99757.5,66619,98135.8,34.891,23716,191598,87878.5
71947.8,44151,106796,112750,69496,106325,131106,79485,108098,94356,67360,91801,35.132,23905,131106,86227.4
60718.5,46063,86387.1,35050.2,21857,105095,78621.2,43623,118115,101980,67545,98946.9,35.398,24095,78621.2,97105.6
67254.3,37609,117195,78626.7,52580,98000.8,103373,66529,101830,89807.9,66311,88758.3,35.425,24114,103373,83398.8
59367.6,39043,99652,87507.4,53955,106290,147836,90581,106961,106621,70374,99291.4,35.664,24289,147836,97455.5
77796,45713,111531,160640,83111,126670,174495,94366,121185,94025.2,65586,93953.5,35.705,24316,174495,83206.5
84944.7,54183,102743,97509.9,57285,111555,129458,83434,101687,90942.1,65922,90409.6,35.814,24371,129458,82915.8
98822.7,58732,110271,217777,107794,132403,202253,108876,121743,94267,73873,83628.4,35.818,24375,202253,81727.3
68236.2,43942,101769,138591,81431,111539,185555,107282,113351,103574,69406,97799.3,36.016,24494,185555,92070
84024,51378,107178,100069,46951,139680,121508,62598,127211,100568,67448,97717,36.051,24512,121508,93034.4
67183.2,42942,102532,124247,83045,98050.7,160503,97074,108358,97493.2,73895,86464.8,36.121,24563,160503,87542
60387.3,51163,77351.6,100307,61200,107413,172813,110515,102479,99297.4,74834,86959.9,36.464,24800,172813,88583
60625.8,41555,95612.4,66758.9,40321,108507,92489.2,59331,102162,99847.9,74900,87364.9,36.519,24830,92489.2,94113.5
53693.1,33045,106486,110000,65730,109676,182960,102526,116951,96409,68973,91604.8,36.69,24942,182960,85065.5
66054.6,36473,118689,102943,54717,123298,157009,88658,116061,95087.1,64953,95940.6,36.902,25096,157009,85352.6
90185.4,43607,135538,168105,75156,146588,184452,87111,138768,102829,64877,103874,37.052,25202,184452,91393.4
54854.1,32482,110674,134043,80413,109244,175916,108421,106334,98298,69149,93162,37.125,25253,175916,87391.2
70561.8,43832,105501,105680,57274,120925,142101,75645,123111,91844.2,64237,93701.5,37.139,25264,142101,83034
62919,39303,104915,106327,67592,103092,169491,98023,113318,97226.3,70066,90940.3,37.148,25270,169491,86717.9
59004,36024,107342,101980,62523,106895,146350,91466,104861,97714.2,65912,97156.8,37.62,25554,146350,88640.5
84380.4,55165,100244,128118,75562,111118,176891,107138,108204,94621.5,63547,97583.1,37.666,25583,176891,83654.2
79047,50417,102752,60078.6,36751,107135,85444.7,60334,92811.7,90491.8,73585,80593.5,37.75,25650,85444.7,85194.2
61039.8,37201,107532,89203.2,55019,106255,157356,97730,105520,96589.7,64451,98215.8,37.761,25658,157356,86833.6
63965.7,34905,120099,108613,66127,107642,181627,97330,122296,93970.9,65646,93813.5,38.051,25843,181627,82710.1
59004.9,42787,90376.6,139068,92493,98536.8,190551,114604,108966,96076.8,64580,97499.1,38.053,25845,190551,84262.6
65510.1,45380,94607.1,67492.8,44103,100293,133933,89345,98242.4,91498.1,66952,89563,38.147,25920,133933,83194.3
69849.9,42353,108084,74199.6,44643,108925,126123,72626,113810,94178.1,68825,89677.5,38.169,25933,126123,86358.4
52668.9,37525,91984.2,59315.5,42585,91283.3,114384,80351,93294.5,103752,86074,78996.2,38.785,26337,114384,96660.5
60933.6,46722,85470.3,71322.3,40493,115432,118684,57057,136321,100546,62855,104834,38.828,26364,118684,93187.3
64300.5,34114,123527,96959.4,61429,103442,155492,85872,118669,93150.9,64245,95022.7,38.87,26392,155492,83510.3
63383.4,41738,99523.1,90409.8,57325,103360,144217,91885,102861,94132.2,72466,85130.2,39.097,26534,144217,85190.8
73268.1,50013,96009,105290,67252,102603,133715,82437,106301,93580.4,66282,92527.1,39.197,26623,133715,85290
67681.8,52183,85000.8,101918,62603,106692,187936,118989,103510,96232.5,71451,88266,39.455,26793,187936,84580.4
80416.8,51460,102413,133885,81463,107709,153469,92393,108858,93800,64077,95935.8,39.645,26929,153469,84284.9
71769.6,48044,97899.7,90179,59219,99798.6,174184,102379,111500,96104.6,71998,87479,39.681,26956,174184,85305.2
71660.7,47750,98353,90092.9,53306,110763,187346,115336,106453,99387.8,68241,95448.2,39.689,26962,187346,87772.4
79845.3,50394,103837,90954.6,57224,104166,133632,86040,101786,91630.2,68142,88125.9,39.707,26973,133632,83345
81796.5,50271,106634,97528,54123,118094,134852,78953,111936,95487.4,68076,91924.7,40.05,27203,134852,87126.6
70752.6,41336,112174,109279,61261,116905,181006,100562,117961,96436.8,66088,95631.3,40.079,27231,181006,85214.5
62129.7,38638,105382,91927.6,61174,98482.5,160688,105024,100271,98121.5,70062,91782.9,40.128,27276,160688,88158.8
47888.1,37842,82934.2,80246.1,56192,93590,145302,91856,103668,90640.5,69455,85526.1,40.295,27384,145302,81631.8
61745.4,38985,103798,106068,63265,109876,144357,85692,110402,95602.8,69337,90361.9,40.51,27528,144357,86652.7
96209.1,52379,120376,109118,44586,160390,153684,72111,139671,98027,65797,97638.1,40.583,27591,153684,88498.6
88811.1,47752,121886,145867,84315,113379,188445,110456,111809,97130.4,66511,95706.6,40.725,27692,188445,85446.8
58523.4,43296,88585.3,87315.6,50752,112751,155534,95014,107280,97815.7,76798,83471.6,40.742,27708,155534,88172.6
64314,42874,98308.6,64454.3,37944,111324,91520.4,57208,104843,96372.9,65438,96517.2,40.914,27824,91520.4,90698.6
56951.1,37778,98796.9,86074.4,51955,108574,155387,94719,107512,93547,65031,94273.4,41.078,27947,155387,83913
74893.5,55162,88978.3,90010.8,56917,103641,151534,89048,111523,94394.9,70760,87426,41.182,28010,151534,84999.8
62725.5,45515,90317,98797,61300,105624,166769,108989,100280,100138,71802,91399.5,41.306,28093,166769,89798.7
86286.6,48351,116955,160330,81693,128620,196824,102332,126051,100993,67431,98155,41.695,28351,196824,88790.1
80040.6,52162,100562,112031,68800,106716,163414,93662,114342,99109.8,73361,88538.3,41.704,28361,163414,88978.1
62166.6,33402,121973,113088,62603,118386,180094,88256,133732,98323,72174,89280.1,41.814,28431,180094,87157.2
85345.2,53102,105329,106714,58370,119816,143235,77568,121017,91646.9,57440,104564,41.872,28479,143235,82766.3
52354.8,38733,88584,43518.1,28416,100366,74358,48932,99589.8,90890.7,57187,104160,41.898,28494,74358,86280.5
69237,43154,105147,110088,69635,103608,156443,102928,99610,94896.7,69271,89780,41.929,28517,156443,85197.2
102712,62785,107212,143317,77560,121099,147624,82736,116934,91270.2,57522,103986,42.238,28742,147624,82117.5
90133.2,55434,106559,129378,82285,103044,183032,114942,104359,99348.9,70240,92695.4,42.427,28919,183032,88000.9
100418,62013,106122,142187,81065,114950,226216,121933,121585,95958.6,63392,99204.1,42.435,28928,226216,81933.3
59632.2,41029,95251.1,105711,69923,99078.5,166169,108198,100649,95144.1,66019,94448,42.473,28968,166169,84841.6
91847.7,57351,104956,103801,62888,108172,164537,103881,103802,93704.1,67042,91599.1,42.491,28988,164537,83502.8
93461.4,60575,101116,74149.5,45700,106334,136430,85174,104974,92663,65368,92901.1,42.729,29233,136430,84204.3
95307.3,65384,95528.9,153532,84955,118438,218650,123403,116119,99945.2,65433,100102,42.736,29238,218650,86388.9
93363.3,58565,104476,110367,67838,106622,135831,81780,108851,96845.5,66180,95903.1,42.851,29339,135831,88424
84994.2,57458,96943.5,134573,92750,95087.5,162175,104664,101547,92967.4,69880,87188.2,42.868,29349,162175,82912.5
83483.1,50932,107421,200056,111933,117131,191878,115365,109001,94725.7,70986,87453.1,42.897,29372,191878,82829.3
65768.4,46464,92764.2,126277,78475,105457,157469,97353,106005,104425,77121,88738.6,42.974,29452,157469,94662.1
96987.6,57718,110125,130590,77905,109857,154069,86411,116849,96553.6,65619,96431.4,43.127,29590,154069,87001.3
67022.1,42936,102300,89477.1,55406,105836,181945,114795,103872,96046.2,74054,84998.6,43.177,29628,181945,84765.6
91079.1,54664,109194,140674,75067,122813,187992,101035,121940,95900.3,65733,95612.9,43.194,29635,187992,84244.8
81092.7,52679,100884,139179,82169,111006,197728,129701,99908.8,100536,67079,98223.3,43.21,29650,197728,88276.8
76453.2,46421,107935,138776,88616,102632,183843,112861,106754,102013,70881,94320.9,43.585,29965,183843,90615.2
65727.9,49672,86719.8,113765,70841,105245,195328,137353,93198.1,99115.3,72855,89158.2,43.619,29995,195328,87005
67518.9,45644,96944.1,88515.2,55192,105105,160455,98384,106883,93170.3,66052,92442.5,43.785,30133,160455,83222.1
94832.1,56328,110334,128839,75173,112322,167330,93789,116923,96721.8,65461,96832.6,43.868,30194,167330,86347.3
87299.1,54756,104486,99529.6,60008,108698,145647,83706,114032,92661.6,67722,89670.6,43.912,30226,145647,83631.5
100688,52852,124853,121443,67017,118759,170478,97056,115113,93095.2,64665,94349.2,43.961,30271,170478,82525.6
60543,41637,95293.8,96609.2,63034,100444,160970,109885,96003.6,92460,65706,92220.8,44.171,30416,160970,82479.9
63171.9,38934,106335,89225.5,54175,107937,145739,86016,111039,91343.9,67645,88496,44.271,30486,145739,82308.1
100251,61375,107048,151873,81351,122348,185052,101656,119300,99084.8,68601,94657.8,44.328,30531,185052,87611.5
90944.1,57356,103914,123261,78020,103538,156054,97347,105059,96429.9,70531,89600.7,44.437,30633,156054,86754.5
79066.8,54001,95956,85270.9,55305,101045,168945,103755,106713,94629.8,70765,87637.4,44.502,30684,168945,84155.2
72520.2,51009,93173.4,103462,64775,104677,169886,98814,112673,93601.2,68939,88980.8,44.536,30723,169886,83068.3
91166.4,59461,100481,127663,69858,119765,172072,99206,113672,95109.4,62774,99294.1,44.541,30729,172072,84440.9
86783.4,51865,109658,136691,79489,112697,194141,113375,112223,99715.8,72660,89939.1,44.809,30914,194141,87679.1
71190.9,43341,107648,104004,59056,115416,169630,92643,119997,98956.9,64406,100693,44.871,30956,169630,88439.8
93150.9,56020,108974,139235,84543,107932,168204,90277,122107,95003.7,63390,98220,44.879,30960,168204,84575.1
51845.4,40843,83190.3,109713,71276,100877,174738,118305,96797.7,97728.1,77395,82753.5,45.026,31074,174738,86894.3
87903,54390,105917,83010.8,49884,109057,156588,98029,104685,95240,72065,86611.4,45.07,31106,156588,85531.6
83347.2,48417,112817,123828,72176,112436,171896,93790,120113,98211.8,63462,101421,45.446,31376,171896,87554.3
64818.9,47741,88979.5,44795.5,28248,103927,72211.9,48560,97456.3,87510.2,65270,87866.9,45.453,31383,72211.9,83033.1
121004,58299,136025,185597,91529,132890,207039,98248,138105,103146,64153,105370,45.515,31440,207039,90309.9
79621.2,50047,104263,93787.5,59780,102818,158124,97680,106089,95659.8,71035,88254.5,45.566,31462,158124,85856.1
81351.9,49115,108551,131587,81640,105631,171065,97682,114769,97646.1,66038,96903.8,45.643,31517,171065,87040.1
103518,60187,112718,114935,61274,122929,156628,84627,121294,92914.5,62632,97222.6,45.721,31559,156628,83203.6
60871.5,49701,80265.5,77592.6,51460,98816.7,161658,113205,93586.4,97459.9,71958,88761.9,45.738,31573,161658,87437
76489.2,52449,95574.7,130962,83926,102265,165165,99116,109208,94621.5,63288,97982.4,45.819,31624,165165,84381.2
75424.5,49509,99840.8,95953.1,62849,100055,143018,83402,112382,96677.3,73120,86649.9,46.061,31789,143018,87810.1
62441.1,37858,108092,92522.6,53331,113697,154277,85506,118246,94390.7,69049,89588.4,46.145,31850,154277,84825.5
46591.2,32759,93208,62729.3,34848,117970,95109.4,45378,137359,94638.1,61997,100040,46.905,32357,95109.4,88741.4
43538.4,33776,84478.1,72369,47423,100010,142051,101742,91500.6,91566.2,69378,86495.5,46.96,32392,142051,82759.1
59559.3,44846,87037.4,53634.5,24681,142417,82432.6,57946,93229.9,98944.4,78326,82787.6,47.182,32542,82432.6,93833.5
53177.4,33244,104832,97040.1,58367,108959,169802,107052,103951,98388.4,73246,88031.8,47.298,32618,169802,87860.6
66516.3,44285,98435.4,81932.2,49181,109178,145818,90609,105468,98841.5,63376,102210,47.303,32622,145818,89800.8
88698.6,53278,109106,90698.9,57818,102806,140981,91890,100548,92708.8,60896,99772.8,47.414,32683,140981,83968
109028,60743,117631,188613,97592,126660,234810,107981,142511,106870,66666,105059,47.628,32832,234810,92311.9
63010.8,38721,106647,113974,70291,106264,183045,111910,107194,93534.5,67629,90639.8,47.807,32946,183045,82185.7
82003.5,50748,105899,116048,71662,106128,149913,85616,114753,91523.2,60025,99926.1,47.909,33008,149913,82228.6
87021.9,53655,106291,134988,79924,110688,149551,89422,109604,96810.7,66943,94776,48.071,33121,149551,87538.5
71921.7,40267,117055,100632,56459,116811,139260,82597,110495,92838.1,66525,91457.9,48.231,33220,139260,84204
87807.6,51666,111380,136451,74146,120606,192281,101063,124688,99953.5,68310,95894.5,48.318,33280,192281,88032.1
74929.5,44928,109299,117490,78256,98392.6,160040,94676,110782,95258.1,68555,91063.1,48.346,33288,160040,85335.6
59494.5,48087,81082.9,50843.4,36244,91934.5,77259,56333,89880.6,88771,76118,76429.9,48.358,33297,77259,83980.9
103435,56582,119804,117178,57075,134549,152961,65899,152119,94596.4,63700,97323,48.384,33314,152961,85112.9
96440.4,50478,125209,143145,69749,134499,183066,90431,132669,99920.1,66317,98743.4,48.513,33389,183066,88570.1
76011.3,51452,96817.9,106449,69781,99973.4,124637,78833,103614,92353,64646,93624.4,48.546,33413,124637,84625.5
57497.4,35468,106241,108916,65634,108754,150452,91902,107289,94614.5,68677,90287.2,48.613,33469,150452,85286.5
85784.4,51516,109130,138736,81973,110917,180251,110898,106521,99207.1,66475,97805.7,48.638,33484,180251,88031.5
85536,53727,104337,88805.7,50029,116332,133892,83500,105087,94132.2,81344,75839,48.707,33524,133892,85830.9
80644.5,51336,102952,151659,95118,104492,191138,113336,110524,97397.3,65455,97517.8,48.76,33552,191138,85546.8
65203.2,34453,124029,115724,67516,112331,180975,92000,128917,98473.2,70147,92000.2,48.792,33577,180975,87252.7
91186.2,55300,108065,123656,68724,117920,150367,80193,122885,95690.4,67315,93161.5,48.867,33636,150367,86367.6
64385.1,39646,106430,110657,69787,103916,159471,87890,118911,91516.2,68301,87811.4,48.874,33638,159471,81629
84263.4,60266,91631.9,104642,62382,109933,140672,87199,105725,106007,79059,87874.5,48.953,33677,140672,97285.3
87651.9,54950,104538,110456,66818,108337,143804,85534,110182,96374.3,67832,93112.1,48.955,33679,143804,87458.4
87628.5,55531,103417,94393.5,60068,102986,142122,88385,105381,97682.2,71795,89166.4,49.072,33757,142122,88870.7
81467.1,51769,103132,113944,70903,105319,166195,108498,100387,96652.3,68522,92440.4,49.118,33785,166195,86348.1
104170,61665,110710,181109,99447,119351,183269,107204,112036,95170.5,69929,89191.8,49.181,33828,183269,83807.9
81028.8,51024,104075,63826,38317,109166,81459.6,47913,111421,95388.8,77058,81125.9,49.251,33865,81459.6,90338.3
68350.5,46799,95716.1,113851,70392,105997,182429,114017,104859,98453.7,70057,92100.2,49.32,33908,182429,87143.1
108619,56037,127032,139534,67734,135006,195926,90633,141673,99721.4,68993,94724.7,49.363,33940,195926,87574
88834.5,48356,120396,161988,90350,117499,199173,102616,127202,99956.3,65006,100771,49.527,34055,199173,87607.6
54103.5,36410,97383.3,86178.6,55932,100976,140665,97253,94790.2,90393.1,66014,89738.6,49.664,34147,140665,81671.8
63510.3,44035,94520.5,30849.7,19701,102622,69812.8,41097,111328,100188,65009,101001,49.735,34196,69812.8,95860
63257.4,35433,116999,87825.8,57016,100950,135285,84915,104410,93042.4,66806,91273.7,49.877,34284,135285,84654.8
101843,54906,121560,105222,45651,151055,129399,70529,120239,93148.1,62594,97526.1,50.063,34392,129399,85125.3
76846.5,53436,94247.5,77717.7,52479,97054.2,118000,79283,97539.7,89389.5,67855,86334.5,50.108,34422,118000,82073.5
117987,68871,112274,140674,76203,120982,205635,116445,115733,101439,66999,99224.4,50.169,34466,205635,88690
62856,43800,94048.6,44096.4,23040,125430,76718.3,49237,102114,89969.1,74163,79503.5,50.209,34499,76718.3,85212.6
84883.5,55100,100961,101993,62784,106463,150992,94359,104870,95972.5,66364,94775.1,50.214,34501,150992,86611.1
79337.7,49256,105560,97133.2,58267,109251,154418,93098,108702,95776.6,71639,87617.3,50.253,34521,154418,86202.7
91041.3,56904,104852,108965,63816,111902,144825,82052,115674,91285.5,65229,91715.1,50.27,34529,144825,82306.3
66284.1,47523,91408.3,80570,43496,121396,105415,52386,131876,94906.4,59212,105043,50.287,34543,105415,88370.7
85472.1,50497,110927,119120,70347,110974,138269,82182,110262,93177.3,67707,90189.6,50.353,34574,138269,84604.6
83394.9,49888,109553,113188,71520,103717,151509,85412,116251,91085.3,62662,95263,50.539,34688,151509,81691.8
76092.3,52243,95453.7,88034.3,53013,108830,135203,83975,105515,90251.3,68727,86060.9,50.556,34700,135203,81868.8
93094.2,56715,107573,112186,66369,110777,155345,95664,106421,96222.8,68751,91723.1,50.562,34705,155345,86591.4
81583.2,52383,102068,98136.8,61547,104497,124312,71405,114094,91423.1,65689,91210.1,50.617,34741,124312,83715.7
74522.7,50992,95778.1,70242.3,37837,121664,115562,62289,121586,97368.1,65316,97696.1,50.705,34792,115562,90203.3
69884.1,40021,114438,144221,73255,129024,199263,111498,117123,102475,75782,88620,50.955,34933,199263,90120.6
93132.9,55451,110071,134370,79180,111216,190983,106065,118006,99086.1,71513,90804.6,51.078,35006,190983,87245.2
92097.9,56136,107520,109709,65798,109272,187594,108142,113686,95216.4,69878,89300,51.15,35057,187594,83585.5
66191.4,42264,102639,87529.7,56722,101131,145444,82897,114984,98684.4,67888,95265.5,51.357,35191,145444,89666.9
69705.9,41942,108918,95860,64936,96745.7,131633,84723,101822,95644.5,72651,86277.7,51.413,35233,131633,87483.3
91557,54687,109720,124174,71195,114304,171641,103461,108724,94079.4,71695,85997.4,51.592,35353,171641,83437.6
126022,60454,136616,167598,89162,123188,209591,107571,127690,96051.8,67218,93648.3,51.638,35385,209591,83057.1
83559.6,48966,111836,132076,71340,121331,164334,93151,115617,93141.1,62483,97692.1,51.907,35534,164334,82952.4
63583.2,41393,100669,133033,77276,112822,161457,84007,125957,95816.9,68653,91466.6,51.944,35557,161457,85806.5
59399.1,41560,93666.5,89908,52348,112558,135614,86128,103191,95980.9,76616,82100.4,51.945,35558,135614,87572.8
103565,54165,125306,172562,79050,143061,177246,78724,147553,99233.5,61369,105972,51.996,35590,177246,88244.2
60742.8,34536,115266,150187,80909,121651,240512,122162,129027,97012.3,65707,96759.8,52.028,35606,240512,82100.5
55779.3,35992,101566,90226.3,57551,102745,164024,95203,112911,93491.4,62287,98368.1,52.028,35607,164024,83321.9
77104.8,49717,101638,100112,62149,105568,135282,81912,108236,91627.4,61250,98039.1,52.261,35740,135282,83239.9
68799.6,49797,90544.6,77125.5,48642,103912,122833,83053,96925.8,99749.2,76320,85654.6,52.302,35765,122833,92133.5
90783,48956,121529,166073,90289,120544,201571,114843,115028,94727.1,64510,96233.7,52.325,35781,201571,82229.7
82966.5,54031,100633,146008,85109,112430,211217,133292,103850,103142,72660,93029.5,52.389,35824,211217,90046.7
83765.7,49146,111701,91984.6,50379,119659,128941,78115,108177,94276.8,66789,92508.1,52.48,35890,128941,86282.4
58397.4,36745,104154,113880,75183,99267.6,159840,109835,95373,97127.6,72098,88287.6,52.508,35899,159840,87217.5
81085.5,52842,100564,102070,60434,110688,141327,74489,124340,91329.9,64356,93004.5,52.614,35974,141327,82567.7
71616.6,45224,103783,117615,67615,113998,170064,103354,107836,99521.2,68693,94947.4,52.619,35978,170064,88977.3
73296,45357,105905,97733.7,64060,99985.6,146441,89493,107239,97913,72636,88342.2,52.707,36027,146441,88833.7
60561,38484,103132,104001,66289,102820,172733,103179,109714,98649.7,69548,92958.9,52.757,36072,172733,87940.3
97611.3,56710,112803,162549,92193,115549,191024,108303,115592,102260,67312,99561.4,52.886,36161,191024,90416.1
74760.3,46669,104984,114400,69122,108465,163671,93533,114680,94861.9,64135,96934.2,52.918,36183,163671,84714.3
66834,42896,102108,96788.5,58438,108545,177397,104362,111400,98031.1,79071,81250.6,53.036,36259,177397,87032.5
89221.5,54555,107180,98997.2,63241,102590,137201,86127,104400,95511.1,70099,89293.9,53.27,36400,137201,87004.6
84006,53173,103538,112849,69075,107067,175275,104472,109951,99625.5,69133,94441.9,53.353,36446,175275,88758.4
83721.6,48378,113415,125133,59229,138458,157399,79122,130372,96071.2,66700,94394.7,53.395,36471,157399,86312.5
93032.1,51259,118944,117498,59259,129944,155121,75133,135307,94834.1,70320,88382.4,53.541,36544,155121,85216.6
67024.8,39016,112583,76947.6,47539,106078,147899,87264,111073,100680,70594,93466.8,53.567,36561,147899,91510.8
62840.7,37536,109717,114540,70116,107058,196504,115290,111702,97817.1,69799,91842.9,53.704,36651,196504,85633.8
100503,62047,106154,117299,70238,109447,154821,91965,110328,97144.3,65991,96474.5,53.807,36742,154821,87545.4
88353,60307,96013.8,91859.5,56228,107066,137818,86555,104351,90454.2,67147,88284.1,53.871,36781,137818,81909.5
81954,51806,103674,122912,67582,119191,185373,106770,113783,100141,69168,94882.8,53.937,36808,185373,88648
79022.7,59981,86341.2,47821.6,35183,89078.1,84111.7,58220,94681.3,90326.4,66930,88445.1,54.451,37131,84111.7,85111.4
63855,32726,127874,123030,73867,109154,197020,118260,109182,99884,64416,101621,54.51,37161,197020,87668.8
78439.5,56862,90405,108979,63179,113044,195989,135764,94607.6,93800,63699,96505.1,54.563,37202,195989,81648.7
78120,49015,104451,110743,63189,114856,155498,88780,114786,93704.1,69545,88302.4,54.731,37308,155498,84063.2
80041.5,48700,107713,112338,66325,111002,157804,100190,103222,97258.3,67945,93810,54.76,37325,157804,87474.5
61896.6,41472,97811.9,71721.2,45886,102435,96214.4,62929,100200,93993.2,62203,99029.6,54.799,37341,96214.4,88027.9
51312.6,26204,128332,119951,67468,116517,197437,107185,120719,97300,65980,96645.2,54.865,37381,197437,85058.9
69962.4,44747,102466,82767.5,52678,102970,135407,86518,102569,90609.9,65661,90437.4,54.917,37414,135407,82214.7
63607.5,38911,107131,112554,73860,99869.1,161938,108992,97371.9,98797,71570,90467.5,55.095,37537,161938,88756.9
80872.2,53609,98864.7,103538,69174,98093,153530,96633,104123,95804.4,67931,92426.6,55.312,37680,153530,86285.5
70493.4,45743,100996,127913,70706,118560,164573,99023,108919,96434,69128,91423.2,55.461,37789,164573,86230.5
80247.6,54763,96034,118161,70914,109200,169701,98211,113241,94463,66881,92563.3,55.661,37905,169701,83941.6
79519.5,50386,103429,95144.1,55998,111350,177648,124509,93505.8,100190,70503,93131.4,55.793,37979,177648,89175.7
53020.8,35135,98897.7,79634.5,29287,178199,97701.7,53462,119767,91425.9,74944,79948.8,55.802,37988,97701.7,85368.4
67127.4,44808,98180.3,117477,70391,109375,181933,109405,108982,99212.6,64851,100261,56.076,38167,181933,87932.8
69714,55970,81629,127641,73930,113149,144509,84874,111583,97266.6,75446,84490.5,56.147,38218,144509,88307.1
85639.5,54905,102221,144627,76999,123096,207135,110140,123250,96838.5,61676,102899,56.175,38239,207135,83996.1
65439,50122,85563.4,110342,67688,106834,163304,102601,104310,96684.2,67368,94055,56.386,38367,163304,86559.4
88953.3,53026,109939,133989,75833,115795,248005,134479,120861,97579.4,61727,103601,56.507,38448,248005,82203.1
90021.6,58377,101061,115876,67668,112225,170058,99406,112115,92978.5,64238,94857.2,56.622,38519,170058,82434.9
79404.3,43512,119596,113163,59481,124682,145764,76563,124770,92344.6,66030,91653.8,56.669,38537,145764,83307.3
67956.3,47933,92912.7,89873.2,59285,99349.4,129182,84205,100542,91612.1,65236,92033.4,56.744,38587,129182,83602.8
74620.8,51654,94675.1,151061,89946,110065,212751,130150,107129,99511.5,65538,99508.5,56.951,38721,212751,86321
82018.8,51062,105268,119793,72553,108207,159086,92937,112182,104146,67922,100487,57.017,38758,159086,94282.4
119212,51500,151703,108036,47085,150372,133978,70411,124702,91908.2,68282,88212,57.168,38877,133978,83601.6
50637.6,36360,91270.2,117426,64324,119638,178771,119923,97695.3,99048.6,72568,89450.6,57.336,38994,178771,87964.8
79305.3,51305,101303,123878,78492,103431,143948,87859,107374,96627.2,68246,92790.2,57.747,39253,143948,87702.4
62864.1,45949,89661.6,59404.4,30138,129177,87843.8,52889,108849,90230.5,61209,96609,57.909,39353,87843.8,84784.1
55746.9,31956,114327,92504.5,60702,99871.1,162188,100772,105477,92750.5,64735,93898.2,58.1,39484,162188,82694.9
63525.6,37434,111215,94860.5,58673,105956,130917,85164,100744,98125.7,70749,90895.5,58.655,39899,130917,90008.8
75547.8,47281,104716,117112,67811,113183,151903,89188,111620,96689.8,67976,93219.1,58.751,39955,151903,87271.8
75954.6,48984,101620,116021,68509,110986,159487,91677,114011,92893.7,71033,85705,58.931,40063,159487,83005.5
73017.9,38725,123571,114580,60367,124392,173179,71198,159407,94671.5,66975,92637.4,58.966,40085,173179,83934.4
57474,45775,82285.4,89659.2,60694,96811.9,212252,148178,93874.4,99596.3,76891,84888.2,58.986,40099,212252,86436.7
67113.9,37741,116541,105345,58330,118360,204188,104919,127543,96347.9,70799,89185.6,58.989,40102,204188,83688.2
112752,51984,142146,104988,51948,132450,182294,84376,141591,104111,67797,100639,59.096,40189,182294,92808.8
91665,54507,110213,128139,74748,112347,192607,100979,125003,102453,65324,102785,59.22,40257,192607,90511.1
56795.4,35916,103635,106575,59279,117825,133562,73346,119340,89955.2,67205,87721.2,59.433,40391,133562,81674.4
85689,47306,118710,106905,58112,120562,191331,102401,122450,96211.6,69232,91075.3,59.493,40433,191331,84349.1
70222.5,42565,108119,82996.9,50747,107184,139626,84792,107917,91421.7,72055,83150.5,59.519,40447,139626,82764.9
64079.1,47551,88315.4,126297,80308,103066,158542,101850,102015,101640,67721,98360.2,59.603,40508,158542,91810
73337.4,40264,119368,86077.1,41216,136868,88337.3,50598,114417,92426.7,63176,95879.3,59.757,40614,88337.3,86949.7
79057.8,57608,89937.7,99244.6,59579,109168,155534,100558,101365,94735.4,70519,88041.3,59.764,40623,155534,85092.3
60795.9,42631,93460.6,94071,66066,93316.4,106778,71214,98264.8,89577.2,65835,89170.3,59.773,40628,106778,82956.9
58467.6,35680,107392,108546,69962,101680,168696,101057,109400,96763.5,67874,93430.3,59.776,40632,168696,86304.3
78633,45390,113534,101666,51194,130148,99929.9,54079,121101,100622,63003,104668,59.969,40753,99929.9,94426.4
60923.7,43716,91332.6,94185,67340,91661.9,136812,101045,88733.9,97787.9,77031,83195.4,60.009,40771,136812,89305.5
82748.7,50780,106794,131847,74484,116008,159979,90092,116374,96770.4,68107,93117.4,60.092,40817,159979,86851.7
87980.4,45435,126904,178608,90352,129552,231340,128713,117790,107498,71605,98387.2,60.393,41013,231340,93155.3
54402.3,39097,91191.4,85004.1,54481,102253,130153,91459,93262.4,102091,68589,97547.1,60.457,41059,130153,94021.9
58566.6,36570,104955,76209.5,51286,97384.6,88335.9,53593,108021,93084.1,67043,90991.8,60.469,41063,88335.9,87607.3
76372.2,52256,95780.9,115291,72384,104384,146329,81689,117395,96643.9,64087,98829,60.564,41131,146329,87571.5
55593.9,34878,104461,86566.4,57140,99286.3,142279,88021,105934,93736,65467,93834.8,60.602,41160,142279,84914.7
63400.5,43327,95899,103088,63991,105577,164780,105410,102448,97899.1,69335,92535,60.608,41164,164780,87682.7
83901.6,56080,98048.8,131384,79430,108402,177293,107752,107832,96374.3,69084,91424.7,60.62,41174,177293,85382.1
88260.3,45130,128168,152251,79631,125302,221348,110424,131369,99763.1,65825,99325.1,60.625,41177,221348,86039.5
101842,65004,102676,141559,71300,130115,168353,89667,123046,92129.2,62760,96204.3,60.733,41244,168353,81691.3
67131.9,41293,106545,122939,70705,113951,150176,88301,111459,97637.8,66055,96870.6,60.735,41247,150176,88326.9
69131.7,43631,103839,133286,78822,110819,183160,101248,118556,98791.5,68909,93955.8,61.074,41451,183160,87435.5
88824.6,49962,116513,121087,63463,125042,200370,103829,126472,96343.7,61968,101891,61.115,41482,200370,83920.8
63927.9,42593,98363.1,72698.4,48360,98518.6,110555,71116,101881,92690.8,69077,87939.3,61.234,41563,110555,85836.3
76832.1,50172,100360,150291,84811,116134,206077,118375,114091,99596.3,65908,99034.1,61.453,41711,206077,86819.5
73680.3,48280,100015,76343,48401,103370,137186,81825,109876,93128.6,69186,88215.5,61.852,41944,137186,84623.1
57706.2,37577,100642,110345,65785,109927,187119,122096,100438,94734.1,66165,93833.5,61.896,41975,187119,83132.7
75035.7,47298,103969,128301,76895,109348,157637,95842,107791,97509.9,69976,91322.9,61.901,41980,157637,87736.4
58909.5,44490,86776.7,52647.6,35936,96012.8,96945.5,62457,101725,92604.6,65591,92526.9,61.976,42031,96945.5,86594
66596.4,36460,119705,96488.2,55700,113527,137183,71606,125554,97553,64759,98723.5,62.004,42061,137183,89047.6
72474.3,45400,104618,120402,78914,99990.5,167345,105083,104366,97964.4,69243,92719.8,62.069,42112,167345,87589
70309.8,48518,94971.4,85836.7,53070,105999,126900,83145,100024,93741.6,65432,93890.6,62.279,42252,126900,85873.8
58908.6,33803,114210,93990.4,52666,116959,174502,97470,117330,97166.6,70179,90738.1,62.339,42285,174502,86347.4
60030.9,37003,106321,94362.9,57889,106828,168771,98245,112582,95387.4,73312,85269.9,62.464,42359,168771,84923.6
68521.5,44260,101460,129444,72235,117439,159986,94067,111462,94989.8,66181,94064,62.47,42364,159986,85070.7
71044.2,41326,112664,101388,60705,109457,137941,84418,107087,96021.2,67919,92652.2,62.969,42707,137941,87468.9
87355.8,54833,104407,141741,80415,115515,193459,110700,114530,97212.4,68545,92945,63.025,42737,193459,85218
76959.9,47426,106348,85129.2,41929,133059,143337,70527,133193,96616.1,68325,92672.3,63.097,42780,143337,87729.2
60759.9,44512,89458.1,121714,72154,110550,182789,129072,92810.8,99660.2,65255,100089,63.288,42909,182789,88327.3
60210,35519,111093,121229,70017,113470,201528,119395,110619,98659.4,63992,101040,63.291,42912,201528,86164.7
47948.4,30936,101576,94325.4,52260,118288,157473,91136,113239,91947.1,66054,91226.1,63.326,42932,157473,82183.8
121218,65817,120701,151260,66909,148156,221307,108839,133257,99379.4,68269,95401,63.378,42985,221307,85658.4
