"FSC-A", "FSC-H", "FSC-W", "SSC-A", "SSC-H", "SSC-W", "FITC-A", "FITC-H", "FITC-W", "PE-A", "PE-H", "PE-W", "Time", "Event #", "Comp-FITC-A", "Comp-PE-A"
58290.3,43539,87740,69194.2,47166,96143.6,75967.7,52373,95060.8,85756,73457,76508.8,0.064,13,75967.7,81046.1
50481,38043,86962.7,20606.8,12243,110307,44125.6,31043,93155.1,56112.9,41717,88151.5,0.428,84,44125.6,53377.1
73752.3,47506,101744,70317.3,47846,96315.6,135878,96702,92086,66271,52591,82583.3,0.441,86,135878,57846.6
75317.4,48240,102322,104250,75977,89923.6,138735,83855,108427,58751.1,46391,82997,1.321,250,138735,50149.6
82619.1,46512,116411,105091,65776,104707,153663,89846,112086,78284.8,59175,86700,1.717,323,153663,68757.7
58784.4,41411,93030.7,24470.9,16194,99032.2,54868.9,33593,107043,63649.5,43107,96767,3.073,557,54868.9,60247.6
72680.4,49205,96802.8,76103.9,52756,94539.9,153948,105405,95717.9,59817.3,44822,87461.2,3.273,593,153948,50272.5
74007.9,45185,107341,43323.5,26307,107928,68924.5,48245,93627.1,57480.7,39835,94566.4,3.581,651,68924.5,53207.3
60918.3,40682,98135.3,65767.9,48547,88783.3,124530,87909,92837,57882.4,45078,84151.5,3.619,655,124530,50161.5
60039.9,44733,87961.3,28946.8,19523,97170.2,49243.5,38713,83362.8,53396.8,39924,87651.9,3.799,689,49243.5,50343.8
57344.4,37488,100249,22379,16414,89352.4,46150.8,27043,111842,51637.1,38498,87903,3.87,704,46150.8,48775.8
49277.7,32109,100578,19764.4,14259,90839.5,45404.3,29364,101336,58455.1,39361,97327.6,4.176,760,45404.3,55640
68676.3,50396,89308.1,79617.8,53207,98066.7,145411,99587,95691.5,58727.5,45253,85050,5.512,1001,145411,49712
76217.4,45563,109628,94884.2,51576,120566,135126,81908,108117,57730.9,44355,85299.3,5.751,1037,135126,49353.1
72533.7,47629,99804.1,85917.3,59630,94426.9,133466,86017,101688,65029.8,48486,87897.3,6.199,1110,133466,56754.8
71438.4,45979,101824,123842,77635,104542,212243,140421,99056.2,92959,58178,104716,6.266,1116,212243,79799.9
49366.8,34857,92816.4,16382.5,11806,90940.7,47859.1,35183,89148,61535.3,43514,92677.7,6.365,1129,47859.1,58568
100524,62034,106199,81675,42739,125240,157002,78950,130326,85889.5,57870,97267.2,6.813,1212,157002,76155.4
103494,49963,135752,78131.9,34007,150571,73089,34669,138163,59230.7,39531,98194.9,7.271,1284,73089,54699.2
41896.8,30742,89315.9,26587.9,17150,101602,47740.9,34529,90612.2,54449.1,41434,86121.9,7.305,1293,47740.9,51489.1
58048.2,44602,85293.2,73461.5,48864,98526,93816.7,71114,86457.9,54633.9,45327,78992.4,7.739,1370,93816.7,48817.3
58232.7,37930,100615,28632.6,14800,126788,68438,38404,116789,83601.5,63714,85992.3,8.137,1453,68438,79358.4
60499.8,37235,106484,80257.2,33853,155370,93647.1,45958,133541,79801.3,54963,95152.3,8.149,1454,93647.1,73995.2
81087.3,47524,111820,108416,63181,112457,154615,88788,114124,60894.5,42887,93053.4,9.229,1665,154615,51308.4
78380.1,51768,99225.7,137711,89329,101032,155380,98355,103533,63617.5,48385,86168,9.652,1727,155380,53984
83828.7,52826,103998,106042,67634,102752,172129,108899,103588,80115.4,58898,89144.7,9.77,1748,172129,69443.4
63342,45718,90799.7,26330.8,15413,111958,56659.2,33785,109907,77278.4,49364,102595,10.93,1929,56659.2,73765.6
55469.7,39322,92448.6,25645.5,17233,97528.2,49566,29787,109053,52006.8,37420,91082.9,10.991,1940,49566,48933.8
72486,54551,87082.6,45829.7,32196,93287.8,70930.3,46278,100447,79970.9,60740,86285.3,11.813,2082,70930.3,75573.2
51209.1,37338,89882.7,31471,23083,89350.7,46295.3,34880,86984.3,51010.2,39301,85061.6,11.918,2100,46295.3,48139.9
70865.1,49560,93708.9,93759.7,67851,90560.7,117769,88715,86999,57293,45131,83196.8,13.27,2338,117769,49991.3
75536.1,45128,109695,87091.8,56191,101576,126090,79926,103388,71739.3,52967,88762.9,13.401,2363,126090,63921.7
51111.9,33094,101217,22205.2,16063,90596,47625.6,28188,110728,63064.3,41172,100383,13.643,2403,47625.6,60111.5
68311.8,46039,97241.1,100006,64658,101364,166612,107162,101893,78458.5,58030,88606.9,13.792,2429,166612,68128.6
46088.1,34434,87716.5,52568.4,33957,101455,79320.4,49805,104374,75597.9,53990,91764.9,14.104,2488,79320.4,70680.1
71307,51960,89937.9,73600.5,55455,86980.1,112120,77178,95207.3,56855.2,43568,85522.9,14.151,2494,112120,49903.7
55388.7,38042,95419.6,90566.8,56668,104740,137121,82520,108899,63235.3,44385,93369.1,14.433,2553,137121,54733.8
78948,53926,95945.1,116278,76446,99683.1,164500,102257,105427,89193.5,67350,86791.2,14.681,2593,164500,78994.5
101235,48484,136839,47536.6,17708,175929,67851.5,31652,140488,54928.6,36839,97717.2,15.195,2672,67851.5,50721.8
102319,71524,93753,102405,47378,141653,107273,60636,115942,87293.4,60918,93910.8,15.482,2722,107273,80642.5
71525.7,46509,100787,62563.9,43757,93703.6,125100,82232,99700.3,58050.6,45536,83547.1,15.698,2762,125100,50294.4
45768.6,36947,81183.6,27838.9,23602,77300.7,44455,28387,102632,51170.1,39883,84083,15.748,2768,44455,48413.9
63963,47191,88827.9,50530.7,28708,115354,75586.8,56956,86973.4,79988.9,69993,74895.4,16.385,2894,75586.8,75302.6
65815.2,45086,95667.5,31225,22961,89123.2,53859.7,35467,99522.1,56007.3,36768,99828.5,16.705,2951,53859.7,52668
71856,46651,100944,79064.6,57335,90373.7,120822,85723,92369.2,56573,43873,84506.8,16.986,3001,120822,49082.1
71347.5,49914,93677.7,72230,51778,91422.3,93747.2,66190,92820.9,56409,44567,82949.7,17.47,3086,93747.2,50596.7
63290.7,43383,95609.3,79313.4,58703,88545.4,118913,78337,99481.6,64471,48499,87118.7,17.648,3115,118913,57098.4
121884,50473,158259,75596.5,37973,130469,101854,49260,135507,64035.9,41831,100324,17.66,3116,101854,57721
71882.1,49293,95568.6,62825.2,43169,95376.6,108056,80349,88134.8,80578.3,61402,86003.4,17.734,3127,108056,73878.8
42868.8,35826,78419.3,20139.7,15352,85974.2,43862.8,29247,98286.8,56425.7,40133,92141.4,17.755,3134,43862.8,53706.2
66622.5,41087,106267,94436.6,58476,105838,172095,119998,93988.1,78600.3,58113,88640.3,17.873,3161,172095,67930.5
60569.1,42924,92476.4,82146.2,56782,94810.6,124680,84786,96372.5,60943.2,47733,83673.2,18.404,3266,124680,53213
72068.4,47598,99228.4,96188,69175,91128,146609,99413,96648.9,63614.7,49177,84776.5,18.585,3310,146609,54525
77835.6,50220,101574,99529.6,64616,100947,148872,103894,93907.8,86649.8,62143,91380.9,19.351,3428,148872,77419.8
72549,48160,98724.5,74636,52736,92751.6,137165,97790,91924.1,57137.3,43961,85179,19.472,3447,137165,48633.1
74754,40016,122428,23339.5,16711,91531.1,54343.4,30928,115153,58854,43413,88845.6,19.652,3477,54343.4,55484.7
80719.2,48956,108056,101218,53546,123883,153157,81537,123101,69570.9,51673,88235.6,20.315,3601,153157,60075.1
58843.8,43063,89552.2,19090.3,12448,100506,46952.8,31335,98200.1,64446,45425,92978.1,21.757,3863,46952.8,61534.9
83001.6,54111,100527,83931,55742,98677.9,136088,89936,99166.8,62274.8,47069,86707.6,22.543,4012,136088,53837.3
59092.2,46410,83444.6,47853.5,36346,86285.4,82529.9,64068,84420.9,54597.8,44061,81208.4,22.658,4033,82529.9,49481
93792.6,51476,119411,101591,63373,105058,135506,84164,105514,71568.3,54780,85620.7,22.801,4061,135506,63167
95056.2,53719,115966,114811,65073,115628,196988,119446,108081,75005.8,55699,88252.6,24.118,4259,196988,62792.5
77706.9,49283,103334,80431,52958,99534,118115,77949,99306,57957.4,45768,82990.3,25.067,4422,118115,50634.3
73896.3,48108,100667,88751.5,65524,88767.8,126961,88790,93710.2,60173.1,45121,87398.4,25.103,4431,126961,52301.5
74553.3,52899,92363.3,79777.7,55232,94660.9,112728,82766,89260.3,56199.1,41833,88042.1,25.188,4443,112728,49210
63879.3,44377,94337,27649.9,18715,96824.1,62277.6,42300,96487.5,55625,41391,88073.3,25.648,4536,62277.6,51763.8
72460.8,43080,110232,47834.1,25073,125029,76197,40674,122772,79171.6,50399,102950,25.728,4551,76197,74447.4
68993.1,44319,102022,77050.5,53683,94062.9,116563,78270,97598.7,56742.6,45810,81176.2,26.086,4597,116563,49515.7
51566.4,40217,84030.5,68685.5,42387,106197,81779.3,51463,104142,78301.5,66382,77303.6,26.251,4630,81779.3,73231.2
89682.3,55001,106860,98824.8,61664,105030,131178,78163,109987,61424.1,45038,89379.9,27.092,4782,131178,53291
90781.2,52270,113821,126705,75372,110170,195341,114761,111552,80503.2,57155,92307.9,27.766,4903,195341,68392.1
81618.3,56629,94455.8,85687.9,54363,103299,156917,107232,95901.6,68283.8,51081,87606.8,28.835,5097,156917,58554.9
64226.7,44115,95413.4,100889,58260,113489,134038,91947,95536.5,68349.1,54518,82162.3,29.741,5261,134038,60038.7
59521.5,40584,96116.7,42041.9,19178,143668,56060.1,31551,116445,53686,40160,87608.7,30.361,5370,56060.1,50210.2
75599.1,49766,99555.2,86020.1,60673,92914.8,141965,96322,96590.7,57387.5,42673,88134.2,30.612,5419,141965,48585.7
64060.2,48613,86360.6,83551.5,56217,97401.7,158630,107485,96720,59953.5,46075,85276.4,30.715,5444,158630,50118.4
67289.4,42822,102982,88025.9,60807,94871.8,119646,74804,104822,64888,44891,94729.4,31.081,5517,119646,57469.9
66665.7,46988,92981.2,85004.1,56791,98093.5,130460,93698,91248.6,56039.2,44022,83426.2,31.182,5535,130460,47950.7
76110.3,46917,106315,106071,70990,97921.7,127859,76150,110038,58548.2,44095,87017,31.484,5587,127859,50620.9
70326,50407,91433.4,31541.9,19235,107467,62351.2,39373,103783,81362.3,51159,104227,32.243,5723,62351.2,77496.5
60521.4,40192,98684.6,95797.4,65145,96372.4,146580,96787,99251.4,64063.7,49044,85606.4,32.269,5733,146580,54975.8
65393.1,42955,99769.6,85307.1,63394,88189.5,140587,100678,91514.9,60855.6,49011,81374.2,32.307,5739,140587,52139.2
81277.2,47916,111165,90359.7,58855,100617,145658,92610,103076,74362.2,54762,88992.4,32.648,5791,145658,65331.4
67451.4,46815,94424.8,19439.2,11491,110866,53046.6,33563,103580,59172.3,41896,92560.5,33.489,5931,53046.6,55883.4
60730.2,47516,83761.6,25553.8,19037,87970.3,44689.9,37501,78099.2,59533.7,49163,79360.5,34.566,6116,44689.9,56762.9
72041.4,45432,103920,72011.7,48263,97784.2,164235,97994,109837,67130,50919,86400.6,34.685,6145,164235,56947.4
57431.7,42535,88488.2,69115,50353,89955.3,105042,71598,96148.7,56987.2,45552,81987.9,34.79,6164,105042,50474.6
77569.2,55096,92267.6,99859,67063,97585.2,119158,87245,89508,65002,47765,89186,34.85,6175,119158,57614.2
68001.3,46047,96782.3,80312.8,49766,105763,100875,61322,107807,82036.4,57592,93352.2,35.36,6251,100875,75782.1
76001.4,47066,105826,91681.6,63331,94873.7,141088,89072,103807,65125.7,50747,84105,35.807,6357,141088,56378.2
48060.9,39842,79055.2,18580.1,16194,75192.5,50896.2,40628,82099.4,69419.4,59720,76180,35.841,6360,50896.2,66263.8
60034.5,42389,92817,18528.7,10957,110824,44574.5,28595,102159,61392.1,45605,88222.7,36.077,6400,44574.5,58628.5
61475.4,43807,91968.2,72323.1,55573,85289,135283,100838,87922.4,58496.8,45288,84650.3,36.204,6421,135283,50109.2
67770.9,46820,94861.9,93647.1,70304,87296,117234,84199,91248.7,60811.1,45869,86884.8,36.354,6443,117234,53542.6
84096.9,31130,177044,65395.3,29819,143725,95818.3,42047,149346,62027.4,40620,100074,37.072,6544,95818.3,56086.6
76101.3,41680,119659,67162,35767,123061,78475.2,41245,124693,72637.2,50351,94543.4,37.132,6558,78475.2,67771.8
82329.3,50454,106940,96842.7,64302,98701.2,159151,101219,103045,68742.5,50920,88474.2,37.347,6591,159151,58875.1
60465.6,40503,97836.5,77703.8,52957,96160.9,139908,94500,97026.3,58810.9,46290,83262.7,37.391,6603,139908,50136.6
82583.1,53203,101727,90865.7,50073,118926,149387,91983,106436,60244,46879,84220,37.937,6689,149387,50982
62634.6,41274,99452.9,26037.5,14995,113797,49802.3,26575,122816,60228.7,39574,99740.9,38.277,6749,49802.3,57141
60735.6,44074,90311,68830,51582,87450,122791,92326,87161.2,60560.9,45711,86826.4,39.398,6947,122791,52947.9
67552.2,46524,95157.4,47664.5,30756,101565,75150.4,51302,96001.2,63600.8,47274,88169.9,41.983,7385,75150.4,58941.5
48996.9,30460,105419,87923.1,49970,115312,75700.8,34358,144395,63049,41095,100547,42.399,7463,75700.8,58355.6
84365.1,45614,121212,41334.4,17686,153166,65797,35748,120624,52441.9,41552,82711.6,43.372,7640,65797,48362.5
75185.1,48277,102064,25941.6,17342,98034.1,61570.1,39066,103288,59198.7,41368,93783.8,44.297,7808,61570.1,55381.4
66625.2,43754,99793.1,96068.5,66498,94678.7,119466,79058,99032.9,72181.3,55022,85974.2,44.47,7838,119466,64774.4
55115.1,37079,97414.3,114276,62025,120745,150908,85960,115053,59334.9,45318,85806.4,44.57,7859,150908,49978.6
70425.9,49471,93295.7,64237.5,29744,141537,84006,45833,120119,78511.4,62154,82783.4,44.601,7865,84006,73303
66969.9,46766,93848.9,75210.1,55180,89325.3,132774,91511,95086.8,59161.2,46288,83762.3,44.981,7920,132774,50929.2
66420.9,46259,94099.7,94889.7,48844,127317,124670,73800,110710,64012.3,50954,82331.3,45.824,8055,124670,56282.7
84362.4,53312,103706,87098.8,57309,99602.3,150633,105217,93824,80487.9,62385,84553.3,46.95,8252,150633,71148.7
62612.1,33920,120971,99013.9,36739,176624,109460,56339,127328,77749.6,50389,101121,47.716,8383,109460,70963.1
60658.2,43306,91795.5,19403,14203,89530.1,48032.8,32177,97830.1,63785.7,43250,96653.4,48.125,8461,48032.8,60807.7
71529.3,48030,97600.3,73091.8,53559,89436.7,110480,79234,91380.2,55755.7,42004,86991.8,48.156,8467,110480,48905.9
65478.6,44085,97339.4,54971.7,36992,97389.3,115123,70633,106815,57094.2,44186,84681.3,48.249,8484,115123,49956.6
60735.6,37937,104920,113888,68450,109040,202883,119648,111127,79259.2,59875,86752.9,48.383,8498,202883,66680.4
59199.3,38024,102033,21080.7,12595,109690,44343.8,27799,104540,55524.9,36158,100638,48.408,8503,44343.8,52775.6
58941.9,40070,96401.7,69247,27843,162992,91749.7,49216,122174,83236,70709,77146.5,49.425,8670,91749.7,77547.5
50866.2,38365,86890.8,26757.5,18626,94146.9,53032.7,37531,92604.8,53856.9,41707,84627.7,50.315,8843,53032.7,50568.9
150650,56553,174580,121262,72191,110084,207930,113596,119959,78965.9,57740,89627.8,50.42,8863,207930,66074.2
83361.6,56087,97405.6,79894.4,53278,98276.2,126247,88049,93967.1,56685.6,43956,84515.1,50.462,8873,126247,48858.3
69424.2,43438,104742,34844.5,21528,106074,48455.4,31811,99826.2,51338.3,40695,82676.1,50.92,8978,48455.4,48334
71460.9,47257,99102,82721.7,57171,94825.1,131281,92516,92996.4,59738,44280,88414.4,51.568,9094,131281,51598.6
76730.4,46986,107023,90247.1,60050,98491.9,136167,84698,105361,57939.4,44329,85657.6,51.703,9115,136167,49497
80580.6,54445,96995.7,109073,74550,95885,166541,116597,93608.4,73604.7,53804,89654.2,52.185,9183,166541,63279.1
56421,36267,101955,103509,73279,92571.9,128752,90580,93153.7,59015.2,46314,83508.7,52.263,9196,128752,51032.6
78648.3,50143,102792,129914,84201,101115,194578,120388,105923,79653.9,55547,93978.1,52.408,9221,194578,67590.1
87487.2,55710,102918,104395,69285,98745.8,132667,91135,95402.1,60010.5,45565,86312.9,52.866,9303,132667,51785.1
58878,38658,99814.5,24045.6,17557,89756.4,50785,35369,94100.7,53770.8,42406,83099.6,53.622,9432,50785,50622.1
62577.9,47671,86029.4,45924.2,30675,98115.4,78198.6,50962,100562,75290.7,54997,89718.6,54.298,9563,78198.6,70442.4
62288.1,33577,121575,27659.6,11805,153554,47507.4,23366,133247,53848.6,40380,87395.3,54.568,9601,47507.4,50903.1
70862.4,51400,90350.9,59699.1,42872,91258.6,95896.1,71257,88196.9,54160,45474,78054,54.648,9616,95896.1,48214.4
64154.7,44219,95082.3,85141.7,61408,90865.1,151007,101779,97234,64290.3,49157,85711.7,54.657,9619,151007,54927.9
80452.8,55371,95222.3,51249.3,32228,104216,79559.4,47937,108768,78365.4,50194,102318,55.056,9691,79559.4,73432.7
89928,57594,102329,112245,71760,102510,162074,104347,101792,80096,59005,88961.4,56.713,9956,162074,70047.4
72967.5,49013,97565.9,70210.3,46774,98373.1,119169,75599,103306,63874.7,48972,85479.3,57.119,10034,119169,56486.2
72106.2,48604,97225.6,77567.6,55504,91587.4,119621,78964,99278.9,58923.5,44854,86092.9,57.503,10100,119621,51507
76363.2,47106,106240,110543,74149,97702.1,186790,116020,105511,66107,49015,88389,59.24,10362,186790,54526.1
54878.4,39312,91486.3,17956,11782,99878.3,55219.1,32255,112195,57320.8,41625,90248.1,59.269,10363,55219.1,53897.2
95214.6,54516,114462,137793,80680,111929,190743,118017,105921,73018.1,52479,91185.3,59.402,10387,190743,61192
78719.4,48034,107402,69424.9,41000,110972,102147,59946,111672,56703.7,39179,94850.1,59.886,10477,102147,50370.6
91385.1,43263,138433,54736.8,25055,143174,67302.4,34385,128275,57566.8,42843,88058.8,59.937,10488,67302.4,53394.1
59712.3,37440,104522,107646,48268,146156,113728,47329,157479,64559.9,41256,102555,60.452,10573,113728,57508.8
117321,47859,160655,61711.8,28648,141174,92276.5,45993,131486,57725.3,41783,90541.3,60.567,10597,92276.5,52004.2
74764.8,50301,97409.3,69894.8,47467,96501.2,97988,66551,96493.6,63621.7,49128,84870.4,61.617,10769,97988,57546.4
63585,45925,90737.2,30008.7,23463,83819.2,59590.7,41406,94318.1,73221,48259,99434.6,62.033,10840,59590.7,69526.4
74565.9,46059,106098,82189.3,54031,99690.1,140202,96260,95453,68246.2,56092,79736.6,62.427,10904,140202,59553.7
70922.7,50650,91766.8,96322.8,60744,103922,155157,104358,97437.6,64571.1,52053,81296.5,63.257,11036,155157,54951.3
56096.1,40413,90968.6,47285,32810,94449,73788.1,44967,107541,69162.2,52993,85532.4,63.308,11041,73788.1,64587.4
78361.2,49923,102868,84040.8,51697,106538,125182,85954,95445.6,65402.3,51177,83752.5,63.444,11068,125182,57641
55066.5,42083,85755.2,34276,21288,105520,54866.1,36410,98755.9,61382.4,45968,87512.1,63.477,11073,54866.1,57980.7
84382.2,54851,100820,65293.9,36943,115830,99701.9,57177,114278,70256.2,56250,81854.4,65.058,11303,99701.9,64074.6
66338.1,44631,97410.6,60609.6,40564,97922,98752.5,65904,98201.1,65541.3,51548,83326.5,65.097,11310,98752.5,59418.6
63100.8,43677,94680.8,70224.2,50483,91163.6,116823,83565,91618.3,57290.2,45740,82085.1,66.279,11518,116823,50047.2
85464.9,48862,114630,123218,68083,118608,202782,115073,115487,71679.5,52334,89761.7,67.028,11637,202782,59107.1
81261,54653,97442.4,71674,48864,96128.5,104315,65516,104347,55472.1,43089,84370,67.822,11780,104315,49004.6
70945.2,38673,120225,61754.9,29465,137355,55645.9,33812,107855,53193.9,42962,81144.2,67.962,11805,55645.9,49743.9
51204.6,36742,91332.7,78069.4,48426,105653,137161,88801,101226,58747,43969,87562.6,68.371,11856,137161,50243
68337.9,49482,90509.5,40953.6,27167,98793.9,57889.3,34757,109153,73432.3,52610,91474.2,68.554,11902,57889.3,69843.2
49258.8,36264,89020.1,36384.6,24695,96558.2,67252.4,51254,85992.3,81328.9,70657,75434.4,68.872,11952,67252.4,77159.2
91720.8,47290,127110,74123.1,33401,145437,85102.8,43510,128184,55448.5,37229,97608.6,69.687,12073,85102.8,50172.1
72199.8,49023,96519.7,79581.7,54316,96020.8,123463,86700,93324.6,79159.1,63043,82289.4,70.216,12171,123463,71504.4
82237.5,51548,104553,100293,62166,105730,151668,96124,103405,73521.3,55811,86332.3,71.619,12367,151668,64117.8
88037.1,53815,107212,123361,77907,103772,166718,100400,108825,66362.8,47616,91338,71.982,12438,166718,56026.2
75335.4,48292,102236,97705.9,67212,95269.5,136711,92971,96368.4,63193.6,48356,85645.1,72.909,12566,136711,54717.5
73144.8,45529,105287,113042,79490,93197.9,130678,81550,105017,61816.1,48270,83927.5,74.111,12768,130678,53714
61431.3,46267,87015.8,67466.4,36863,119944,71220.8,41957,111246,81148.2,60854,87391.6,74.21,12789,71220.8,76732.5
75654.9,43577,113778,134528,89216,98821.4,152874,99822,100366,81844.6,60006,89387.2,75.607,13040,152874,72366.4
66603.6,47375,92135.8,93852.8,67383,91280.2,163777,111325,96413.9,69900.3,52383,87451.8,75.647,13044,163777,59746.2
72153.9,44129,107156,68143.4,49325,90539.1,82542.4,48082,112506,54511.6,41467,86152.2,75.65,13048,82542.4,49394
124926,62954,130050,121751,60362,132188,127841,78621,106564,55929.4,38244,95842.2,75.657,13049,127841,48003.3
122121,59354,134840,117527,63807,120712,154195,83564,120930,60175.9,39011,101092,77.493,13353,154195,50615.8
114538,44375,169158,125253,46946,174851,94044.6,43527,141597,58905.4,39724,97181.2,77.856,13432,94044.6,53074.7
69624.9,47584,95892.3,68518.7,50170,89504.5,101590,74829,88973.1,54796.6,43868,81862.6,78.227,13488,101590,48498
59382,45601,85341.5,76580.7,56808,88346.5,140779,103815,88870.6,62422.1,47820,85547.8,78.291,13498,140779,53693.8
50398.2,36470,90564.8,19336.3,13617,93061.8,49891.3,28719,113851,59535.1,42261,92323.7,78.575,13542,49891.3,56441.8
62292.6,44707,91314.7,77257.6,57331,88314.4,120296,83371,94562,58124.2,45987,82832.8,79.461,13686,120296,50665.9
71533.8,48334,96992.6,71813,51015,92253.9,136574,82679,108257,56837.1,44893,82972.3,79.83,13750,136574,48369.5
60480.9,37648,105283,22908.6,11636,129025,43716.9,25864,110773,59273.8,39945,97247.9,80.237,13820,43716.9,56563.3
54779.4,41104,87340,22818.2,11748,127291,64540.5,39487,107117,70125.5,48483,94790.9,80.63,13878,64540.5,66124
85970.7,50688,111154,91013,60642,98358.1,135364,88181,100602,68096.1,49975,89299.6,81.351,14003,135364,59703.5
76783.5,47673,105554,88251.1,58735,98469.8,124171,72586,112111,65712.2,47350,90950.8,82.55,14240,124171,58013.6
91625.4,58830,102070,117869,71600,107887,148020,98954,98031.6,65877.7,48982,88141.7,82.764,14276,148020,56700.4
55846.8,38149,95939,62223.3,41637,97938.6,105570,70745,97797.3,61536.7,46622,86501.4,83.356,14385,105570,54991.3
59430.6,42506,91630.4,49834.3,27143,120323,50867.1,30076,110840,52169.5,42430,80579.3,84.396,14558,50867.1,49015.7
64038.6,46492,90270,25644.1,18560,90550.2,44425.8,31710,91816.1,53363.5,42534,82222,84.46,14573,44425.8,50609.1
79723.8,39585,131989,41547.1,13538,201125,52838.1,22163,156242,51113.1,40923,81854.9,84.839,14633,52838.1,47837.1
57146.4,40555,92347.3,64473.8,47029,89845.7,104228,72359,94399.7,56233.8,44198,83382.5,84.867,14639,104228,49771.7
75766.5,46811,106074,94982.9,65185,95494.3,148210,94292,103011,69381.9,52751,86197.6,85.763,14797,148210,60192.8
67333.5,40780,108209,25071.4,19344,84940.1,62323.4,39524,103340,69841.9,44179,103605,86.035,14847,62323.4,65977.9
103784,50314,135182,76159.5,40977,121805,79385.7,43495,119614,58984.6,44089,87677.6,86.264,14884,79385.7,54062.7
51515.1,39145,86245.8,27802.8,20080,90741.2,49817.6,37202,87760,51177,41425,80964.1,86.647,14961,49817.6,48088.3
65185.2,45047,94833.8,67747.2,45856,96822.2,116938,80796,94851.8,69837.8,57044,80234.3,87.427,15082,116938,62587.6
54873.9,40200,89458.1,13606.7,9519,93678.9,42998.3,24864,113334,54963.4,39920,90232.5,89.784,15460,42998.3,52297.5
62467.2,36071,113494,21695.1,15140,93910.9,51890.1,29954,113530,57666.9,41427,91227,90.382,15553,51890.1,54449.7
85312.8,42919,130270,59430.8,26796,145352,76115,41303,120773,75692.5,55720,89026.9,91.58,15746,76115,70973.3
74339.1,45631,106767,73795.1,49154,98389.5,117401,77159,99715.9,62640.3,50353,81528.4,92.035,15824,117401,55361.5
70340.4,48722,94614.9,38674,22153,114411,65909.6,44419,97243.4,60566.5,41095,96588,92.166,15845,65909.6,56480.1
76464,48071,104245,87696.5,61196,93915.9,132934,94370,92317.1,68878.7,49486,91218.4,92.501,15895,132934,60636.8
63992.7,45813,91542.3,28849.4,19773,95619.1,47905,35554,88302.3,50885.1,39134,85215.1,93.651,16094,47905,47915
53360.1,39194,89223,97648.9,60361,106021,124445,80488,101328,57625.2,45802,82453.3,93.965,16136,124445,49909.6
68832.9,53495,84326.2,129427,86665,97872.6,168464,110662,99767.3,75203.2,54964,89668.1,94.135,16162,168464,64758.4
70887.6,44119,105299,108314,70323,100941,200242,125291,104741,77033.8,58689,86021,94.258,16183,200242,64618.8
64751.4,47279,89755.5,73177.9,52817,90800.1,120879,83812,94519.9,60380.2,47127,83966.3,94.79,16275,120879,52885.7
63179.1,38528,107467,24637.8,15712,102766,53458,27782,126104,57547.4,38441,98109.5,95.408,16393,53458,54233
55272.6,44627,81169.4,29722.4,25188,77333.9,51842.8,43968,77273.7,59361.3,48626,80004.6,95.76,16463,51842.8,56147.1
71348.4,44137,105940,82920.4,43709,124329,115848,64129,118390,66191.8,48965,88592.8,96.096,16504,115848,59009.2
51516,38185,88415.7,26679.7,18588,94064.9,58591.3,44030,87209.6,83676.6,59315,92452.7,96.541,16570,58591.3,80044
62379.9,45920,89027.2,28902.3,17452,108534,58216,30965,123211,72859.6,49189,97073.1,96.901,16636,58216,69250.2
60644.7,41966,94705.5,24871.3,18205,89533.8,54130.8,34743,102107,60332.9,43168,91595.2,97.039,16662,54130.8,56976.8
48773.7,38266,83531.9,19245.9,15473,81516.3,51203.4,38195,87856.2,57023.4,43933,85063.2,97.085,16670,51203.4,53848.7
67518,33738,131154,52462.8,38706,88828.6,105634,74068,93466.3,85985.4,64822,86932.5,97.508,16734,105634,79436.1
82982.7,43775,124234,76044.1,46581,106988,117588,72801,105854,58252.1,40773,93630.9,97.698,16763,117588,50961.6
102118,39345,170096,85226.5,28147,198437,74084.2,27484,176655,61044.6,45472,87979.9,97.934,16805,74084.2,56451.4
90207.9,56034,105505,73087.6,49926,95939.3,132660,82379,105537,73368.4,46891,102541,98.059,16820,132660,65143.4
97878.6,41503,154557,36525,13206,181259,66804.8,30745,142401,56194.9,45921,80198.4,99.89,17123,66804.8,52053
78298.2,49708,103230,91367.5,62630,95606.9,124031,85550,95014.6,70631.5,52726,87791.7,100.032,17145,124031,62941.5
84786.3,47246,117609,38311.2,19439,129161,57981.1,30131,126111,58209,39257,97174.7,100.48,17217,57981.1,54614.2
59829.3,38639,101477,35999.6,21679,108827,65908.2,36925,116977,83678,54156,101262,100.843,17280,65908.2,79591.7
80929.8,52872,100314,88531.9,54233,106983,164006,102443,104920,59038.9,45648,84761,101.71,17445,164006,48870.5
77265,50909,99464.5,62648.7,40826,100567,106114,68674,101265,73738.1,54952,87940.4,102.926,17659,106114,67159
67163.4,41051,107223,57405.6,28538,131829,80033.4,50563,103733,86274.5,56440,100179,103.096,17685,80033.4,81312.4
62753.4,37420,109904,111481,59452,122889,143808,96515,97649.1,78391.8,65193,78804.3,103.643,17778,143808,69475.7
60725.7,36213,109898,84259,48058,114903,91851.2,48811,123324,66540.7,44491,98015.6,104.456,17909,91851.2,60845.9
77175,57636,87753.2,55358.1,33811,107301,79473.2,47655,109293,80582.5,54264,97321.5,104.519,17919,79473.2,75655.1
58352.4,38091,100396,27944.6,17774,103037,53975.1,37204,95078.8,57705.8,41950,90150.4,104.523,17921,53975.1,54359.4
83531.7,55249,99084.8,59241.8,35351,109826,82189.3,50885,105854,80574.1,51366,102802,104.839,17981,82189.3,75478.4
65132.1,43311,98554.6,67759.7,47162,94158.5,109827,73137,98412.6,69623.7,54853,83183.4,104.903,17993,109827,62814.5
64843.2,44047,96477.9,31484.9,22693,90926.5,48490.1,32806,96868,60977.9,39261,101787,105.109,18028,48490.1,57971.5
60291.9,45114,87584.6,25890.1,19567,86714.2,43333.2,32863,86416,55980.9,39654,92519.3,105.521,18094,43333.2,53294.2
73176.3,48597,98682.7,89417.3,59843,97923.8,148412,97351,99909.7,58132.6,43873,86836.5,105.814,18143,148412,48931.1
77809.5,51074,99841.9,56012.8,29896,122788,100430,48195,136566,78821.3,56011,92225.4,106.114,18209,100430,72594.7
84726.9,51310,108218,122438,74261,108053,212671,116683,119449,92750.5,61051,99564.3,106.26,18237,212671,79564.9
56092.5,36771,99972.2,105636,69804,99177,207774,128233,106187,88044,64406,89588.7,106.452,18267,207774,75162
75124.8,46028,106965,27955.7,14070,130213,46064.6,27187,111042,59397.5,41136,94629.4,107.234,18402,46064.6,56541.5
73170.9,53036,90416.5,99768.6,69696,93813.7,138063,91791,98572.9,63263.1,44829,92485,107.552,18461,138063,54703.2
72240.3,54656,86620.7,46638.7,36798,83061.9,77053.3,59902,84300.4,78284.8,65598,78210.8,108.483,18626,77053.3,73507.5
67313.7,49171,89716.9,65706.7,36258,118764,92109.7,57037,105835,80164.1,64668,81240.1,108.511,18632,92109.7,74453.3
75670.2,48643,101949,50673.8,26752,124139,64808.8,36653,115879,78615.6,54287,94905.8,109.355,18798,64808.8,74597.5
56871,42561,87570.7,27099.4,17674,100486,55427.6,36014,100864,73576.9,46891,102833,110.141,18907,55427.6,70140.4
94158.9,53527,115284,126672,68664,120902,173289,100109,113443,89161.5,57844,101018,110.588,18993,173289,78417.7
73689.3,48706,99152.1,86196.7,57797,97738.4,144226,99950,94567.5,76444.4,55877,89658.8,111.18,19090,144226,67502.4
64186.2,47845,87919.5,68083.6,37075,120349,86319,59223,95520.4,85902,75077,74985.3,112.634,19369,86319,80550.2
72537.3,49390,96250.3,77778.8,51838,98331.6,124636,83116,98273.8,56700.9,43485,85453.6,112.985,19423,124636,48973.5
61959.6,46741,86874.1,76873.9,53915,93443.6,148862,106678,91451.1,65911,49921,86527.6,113.725,19565,148862,56681.6
66177,45864,94561.7,85938.1,60392,93258.1,133642,87047,100616,73262.7,56069,85632.8,114.831,19736,133642,64976.9
79004.7,46736,110785,83854.5,43323,126849,123753,74779,108457,58670.5,46415,82840.3,115.441,19842,123753,50997.8
46469.7,37903,80348.2,20548.4,18158,74163.3,46979.2,36435,84502,74915.4,50790,96665.8,115.532,19856,46979.2,72002.7
70222.5,49168,93599.5,70703.7,50945,90953.8,108588,76294,93276.5,58705.3,48429,79442.2,117.402,20141,108588,51972.8
48103.2,32379,97362.2,45967.3,27977,107678,71382.1,39141,119519,65434.2,43972,97523.4,117.867,20225,71382.1,61008.6
67689,42666,103972,106719,71517,97793.7,167350,108824,100782,68222.6,52645,84928,118.322,20311,167350,57846.9
53531.1,40657,86288.1,22928,17812,84359.6,47025.1,41024,75122.8,52309.9,41302,83002.8,118.618,20363,47025.1,49394.3
73053,46220,103583,107543,73129,96376.7,168895,110656,100028,69269.3,52658,86209.7,119.257,20449,168895,58797.8
67147.2,45379,96973.5,79653.9,57318,91074.4,142658,101856,91789.1,60216.2,46525,84821.7,119.381,20470,142658,51371.4
55111.5,40993,88107.4,23256.1,14253,106933,60866.7,39007,102263,78225,51985,98616.1,120.222,20630,60866.7,74451.3
82063.8,50020,107520,91666.3,60339,99561.6,144053,95168,99199.7,60783.3,45088,88349.3,121.133,20804,144053,51852
56800.8,40826,91179.6,16186.5,11175,94926.3,45090.2,31320,94349.7,65993,47048,91925.7,121.265,20824,45090.2,63197.4
112318,49512,148669,132446,43850,197947,118238,53374,145180,85682.4,59292,94705.5,121.353,20838,118238,78351.7
69028.2,40296,112265,77254.8,52518,96404.5,114330,82867,90419,55562.5,45294,80393.5,121.594,20877,114330,48474
65697.3,47874,89934.8,22158,14589,99537,48919.7,27097,118316,65017.2,44216,96367.2,122.659,21076,48919.7,61984.2
75070.8,46796,105134,92943.7,61456,99114.2,206525,127590,106080,60841.7,44418,89768.1,123.93,21284,206525,48037.1
64815.3,42973,98846.6,98114.5,70784,90840.2,151382,102645,96653.3,67998.8,50165,88834.2,123.986,21292,151382,58613.1
80732.7,47186,112129,75428.4,45629,108336,116379,67066,113724,60321.8,45983,85972,124.511,21402,116379,53106.3
73314,50305,95511.5,54682.6,35214,101769,81470.7,54940,97183.5,86263.4,55269,102288,124.606,21418,81470.7,81212.2
58578.3,39699,96702.4,41476.2,28958,93866.5,68812,39674,113668,80622.8,53013,99667.9,125.289,21525,68812,76356.4
69493.5,38091,119564,21781.3,12358,115509,48645.8,24872,128178,54959.2,39141,92021.3,125.481,21546,48645.8,51943.2
66652.2,46126,94699.7,77311.8,52709,96126,104283,72955,93678.5,60783.3,47130,84521.4,126.013,21619,104283,54317.7
60274.8,40707,97039.1,24748.9,16481,98413.2,45821.3,28948,103736,57151.2,39904,93861.9,126.034,21624,45821.3,54310.3
77800.5,49699,102592,89851,50254,117174,114236,61225,122279,61086.3,44311,90346.7,126.397,21681,114236,54003.7
59010.3,42425,91156.1,30809.3,21275,94905.8,45098.6,32863,89936.4,50637.7,41755,79477.7,127.409,21845,45098.6,47841.6
52155,28560,119679,102392,60214,111441,131903,82214,105145,68183.7,59558,75027.5,127.444,21850,131903,60005.7
63332.1,40562,102326,31504.3,15531,132939,70979,39632,117372,85687.9,55281,101584,127.558,21877,70979,81287.2
107179,47584,147615,43651.6,22397,127729,74506.8,38430,127059,53387.1,43271,80857.4,127.562,21879,74506.8,48767.7
80289,35734,147250,69084.4,37188,121747,57757.3,22654,167087,57843.5,42216,89796,128.499,22020,57757.3,54262.5
44447.4,33801,86178.1,72616.4,55632,85544.1,134089,97386,90235.4,62754.3,50559,81343.9,128.97,22096,134089,54440.8
49885.2,36839,88745,79968.1,61215,85612.8,127305,92928,89779.5,56306.1,43580,84673.7,130.516,22349,127305,48413.2
67531.5,44105,100346,49607.7,32257,100787,68322.7,45353,98727.6,56301.9,40665,90736.6,131.671,22541,68322.7,52065.9
58341.6,40352,94753,95335.9,54888,113831,163910,113147,94938.6,64181.9,51378,81868.2,133.57,22867,163910,54019.4
62145,51052,79776.2,25931.8,20229,84011.5,65922.1,50866,84934.4,84990.2,72609,76711.1,135.069,23109,65922.1,80903
83459.7,38301,142806,64921.3,17996,236424,72491.3,26691,177992,53120.2,40942,85029.7,135.258,23147,72491.3,48625.8
66176.1,44661,97107.5,72613.6,53761,88517.8,117561,86786,88775.3,65734.5,51732,83274.9,135.387,23161,117561,58445.7
88466.4,43737,132559,51411.9,26668,126344,55434.6,28266,128528,52525.3,41045,83866.5,136.805,23398,55434.6,49088.4
67698.9,51046,86916,37902.5,23634,105102,66718.6,40109,109015,81937.7,57912,92724.7,137.494,23512,66718.6,77801.2
69236.1,45129,100544,79135.5,56426,91911.9,113456,79522,93501.8,67547,51495,85964.9,137.764,23554,113456,60512.8
64088.1,47056,89257,83059.4,58168,93580.4,121954,85176,93834,63548,50565,82363,137.879,23567,121954,55986.8
69451.2,48753,93359.5,75015.5,52489,93661.9,129342,86939,97500.3,57113.7,45303,82621.5,137.968,23585,129342,49094.5
51023.7,35603,93921.6,21094.6,15409,89717.6,47047.3,30923,99708.8,56421.5,41625,88832.2,138.133,23614,47047.3,53504.6
85123.8,55929,99745.6,71148.5,44856,103950,116357,72214,105597,60502.5,47283,83858.8,138.58,23682,116357,53288.4
78755.4,44817,115164,32211.9,23812,88654.3,67396.9,40107,110129,54988.4,38794,92893.7,138.811,23734,67396.9,50809.8
59269.5,41141,94414,74989.1,49701,98881,117879,76601,100851,60214.8,46771,84373.6,138.968,23755,117879,52906.3
69368.4,41825,108694,128439,87357,96355.9,201116,134453,98029.5,86920.9,65545,86908.9,139.204,23794,201116,74451.7
50508,38911,85068.3,21267,14581,95587,44056.1,29575,97624.9,55003.7,38839,92811.9,140.148,23953,44056.1,52272.2
66547.8,46441,93910.1,76233.2,53477,93423.7,134705,91956,96002.7,56983.1,44803,83352.5,140.651,24035,134705,48631.3
65453.4,45549,94174.5,86531.7,62194,91181.5,123610,79158,102338,64983.9,49162,86627.6,141.189,24122,123610,57320.1
58911.3,45061,85679.7,33457.3,20994,104442,61018.2,40185,99512,69103.9,50912,88953.3,141.655,24195,61018.2,65320.7
74564.1,50566,96638.7,91360.5,62557,95711.2,148214,97148,99985.3,57447.3,44712,84202.6,142.284,24304,148214,48258
76525.2,47463,105665,53495.5,27859,125844,65049.2,43863,97190.5,58656.6,40573,94745.8,142.421,24327,65049.2,54623.6
53477.1,38818,90284.8,17331.9,12413,91506,48916.9,32813,97699.6,55787.6,41956,87141.3,142.685,24364,48916.9,52754.8
49451.4,35652,90902.2,20865.3,13674,100002,48241.3,30579,103389,52022.1,42161,80864.4,142.811,24393,48241.3,49031.2
130794,41002,209057,117597,48800,157927,121874,50064,159538,59052.8,41175,93991.1,143.285,24487,121874,51496.6
90146.7,50107,117905,116507,68245,111882,182963,102444,117046,83020.5,58576,92885,144.059,24615,182963,71676.8
59041.8,37627,102835,31833.8,21078,98978,51687.1,30882,109687,53111.9,38196,91128.4,144.997,24750,51687.1,49907.3
77432.4,45987,110349,85719.9,54633,102827,134977,85083,103968,72995.9,55734,85833.7,145.594,24849,134977,64627.3
68509.8,41617,107885,93331.5,63948,95649.2,172264,107684,104839,77096.4,58719,86046.9,146.279,24953,172264,66416
85575.6,55227,101550,78507.2,52890,97278.3,135863,91515,97294.5,60025.8,46862,83945.4,147.904,25250,135863,51602.3
62407.8,38247,106935,96026.8,69240,90889.8,135476,97977,90619,79669.2,55956,93309.1,147.924,25255,135476,71269.7
62613.9,36581,112175,107398,74982,93868.6,162709,101554,105001,74469.2,54419,89682.2,148.029,25274,162709,64381.3
84701.7,53518,103722,92479.5,59460,101930,148199,100478,96661.7,61880,46954,86369,148.132,25299,148199,52691.7
105811,50570,137126,90320.8,53227,111208,147699,90023,107523,59970.2,45154,87040,148.193,25309,147699,50812.8
58216.5,36426,104740,86599.8,62743,90454.8,117601,83007,92848.7,58745.6,45984,83723.7,149.564,25545,117601,51454.3
60013.8,41177,95516,69183.1,53442,84839.3,109079,79492,89928.5,60996,48321,82726.6,149.741,25569,109079,54233.1
74495.7,44004,110948,90215.2,59859,98771.1,167920,110305,99767.3,71922.8,51388,91724.3,150.369,25671,167920,61511.7
50850.9,39850,83627.7,27740.2,18456,98503.7,51537,33464,100930,55864.1,37738,97013.9,150.457,25687,51537,52668.8
51371.1,40777,82562.6,25519,21744,76913.8,45202.8,36201,81832.3,70039.3,49020,93637.2,151.337,25833,45202.8,67236.8
60820.2,44070,90445,77252,52868,95762.8,154526,109722,92297.2,70324.3,52812,87267.5,151.667,25882,154526,60743.6
77598.9,50774,100160,87417.1,58424,98058.5,119564,76758,102083,58990.2,44626,86630.7,152.197,25956,119564,51577.3
54988.2,42112,85574.3,24548.8,18673,86158.1,55474.9,39413,92243.8,78879.7,61140,84551.2,152.263,25964,55474.9,75440.3
63699.3,43792,95327.9,27844.5,20854,87504.4,42927.4,31165,90270.8,53332.9,40787,85694.6,152.433,25992,42927.4,50671.4
68006.7,48590,91724.4,75019.7,53005,92755.2,119198,83536,93513.8,56090.7,42917,85652.7,154.265,26285,119198,48700.4
67455.9,46036,96029,76548.7,55537,90330.7,109521,74661,96135.3,61471.4,47146,85449.2,154.615,26340,109521,54681.1
82664.1,44646,121343,29815.5,18536,105416,65331.4,36240,118145,63094.9,41092,100628,155.853,26544,65331.4,59044.3
82151.1,54396,98975.2,60823.6,34444,115728,115907,64313,118111,80738.1,55908,94642.2,156.357,26615,115907,73551.9
58224.6,39127,97523.6,27638.8,15217,119034,48693.1,29354,108713,58872.1,39177,98482.3,156.794,26674,48693.1,55853.1
61705.8,42726,94648.5,29962.8,23399,83920,59658.8,38125,102552,55961.4,37006,99105.2,156.812,26677,59658.8,52262.6
98613.9,60746,106390,115883,71768,105820,192718,119100,106045,83572.4,60334,90778,156.901,26691,192718,71623.8
65659.5,44899,95838.7,104828,62186,110475,131854,84237,102582,60948.7,47952,83298.6,157.17,26741,131854,52773.8
77652.9,50674,100427,80772.9,54821,96560.3,111399,70628,103367,58136.8,45241,84216.8,157.65,26817,111399,51230
65951.1,46567,92816.2,93754.1,55464,110779,93542.8,56120,109238,73114,59083,81099.5,157.822,26840,93542.8,67314.3
78193.8,48662,105308,78485,50998,100859,154643,98866,102509,58737.2,42967,89589.8,157.853,26846,154643,49149.4
66808.8,46668,93819.8,61126.6,45729,87603,88334.5,70527,82083.3,58790.1,47505,81104.4,158.303,26915,88334.5,53313.3
76023,51231,97250.6,92455.9,64780,93534.8,129947,91112,93469.6,63967.8,47610,88052.8,159.419,27086,129947,55911.1
70872.3,45341,102439,100590,67753,97298.6,157679,103793,99560.1,68750.8,51488,87508.8,160.142,27206,157679,58974.7
75402.9,48995,100859,85069.4,55389,100654,118599,78410,99126.4,57129,43756,85565.6,160.576,27266,118599,49775.9
81255.6,50041,106416,99161.2,66264,98071.8,155316,99433,102368,87371.2,62388,91779.8,160.602,27270,155316,77741.6
83120.4,45731,119118,43907.3,29814,96515.4,68969,41143,109860,57236,39485,94998.6,161.171,27366,68969,52960
89299.8,59882,97731.4,57963,28171,134843,76551.5,42376,118390,85526.7,57252,97901.9,161.314,27397,76551.5,80780.5
63810.9,45102,92721.2,77523.1,47313,107382,129203,71371,118640,81829.3,70780,75766.7,162.438,27577,129203,73818.7
61884,43366,93521,71257,51363,90919.5,135146,95258,92978,67530.4,53651,82490,162.742,27629,135146,59151.3
75288.6,46495,106121,88796,59227,98254.7,140494,88853,103625,59582.3,42714,91417.1,163.248,27711,140494,50871.7
58481.1,46989,81564.1,43092.8,29328,96294.6,75674.4,56267,88140.4,75458.9,63439,77953.3,163.575,27765,75674.4,70767.1
70390.8,48425,95263.4,71033.2,51192,90936.7,116885,83614,91613.6,58138.1,45530,83684.2,164.257,27865,116885,50891.3
57181.5,35156,106595,92233.4,63359,95402.6,157217,103660,99396.1,83042.8,64024,85003.9,164.682,27931,157217,73295.3
53883.9,42037,84005.4,61032.1,43625,91686,114536,88608,84712.8,55000.9,44025,81874.8,166.853,28268,114536,47899.7
64690.2,44553,95157.2,36099.7,24243,97588.1,55609.7,34601,105328,51778.9,40622,83535.6,167.104,28297,55609.7,48331.1
51600.6,27566,122676,31291.7,16863,121611,74184.3,35012,138859,59159.8,37885,102339,168.194,28437,74184.3,54560.4
60221.7,44311,89067.9,30920.5,21276,95243.9,59400.3,46775,83225.1,80039,70212,74708.5,169.376,28628,59400.3,76356.2
75086.1,48933,100563,80553.3,54323,97180.6,127706,81896,102195,59703.3,45080,86794.9,169.481,28640,127706,51785.5
66108.6,42156,102773,88921.1,65235,89331.4,135051,95773,92413.4,58576,45245,84845.5,169.828,28696,135051,50202.8
61025.4,42062,95082.5,85733.8,59327,94706.5,119711,80220,97798.3,58218.8,46050,82854,170.115,28731,119711,50796.7
45568.8,35827,83356,14671.5,10141,94813.9,44696.8,27685,105806,59482.3,42889,90891.1,170.404,28766,44696.8,56711.1
68166,47781,93495.9,66846.5,49763,88034.3,98772,68331,94731.9,58366.1,45479,84106.5,170.731,28819,98772,52242.2
76438.8,50025,100140,85415.5,56014,99935.6,174002,106857,106716,71555.8,54396,86210,170.932,28855,174002,60767.7
70026.3,47989,95631.2,30393.7,18179,109571,57509.9,35579,105932,52471.1,39210,87700.8,172.197,29037,57509.9,48905.5
55980,45668,80334.3,90056.7,64218,91905,128642,89948,93728.2,61426.9,47647,84489.5,174.255,29379,128642,53451.1
75467.7,48199,102613,53542.8,33680,104186,76912.9,43342,116297,85126.4,53398,104477,175.097,29507,76912.9,80357.8
64219.5,44049,95545.6,37906.7,18126,137055,58278.5,36611,104322,60941.8,42113,94837.2,177.552,29874,58278.5,57328.5
58031.1,45898,82860.4,55502.7,29962,121401,77856.7,44440,114816,73797.9,53729,90015,178.567,30033,77856.7,68970.8
61692.3,41851,96606.2,72628.9,51445,92522.2,114492,80394,93331.8,65772,52048,82816.5,180.088,30256,114492,58673.5
49912.2,30362,107735,52158.4,23213,147256,65134,33006,129329,63188,43226,95800.9,181.571,30461,65134,59149.7
57776.4,37520,100918,80364.2,55052,95668.7,167836,117182,93864.8,77610.6,56831,89498.5,182.079,30520,167836,67204.8
59587.2,46531,83924.8,25913.8,14949,113605,69757.1,42562,107410,72897.2,54390,87835.8,182.11,30522,69757.1,68572.2
67852.8,44507,99912.4,30365.9,17170,115903,49671.6,29698,109613,59783.9,39460,99290.4,182.571,30599,49671.6,56704.3
84090.6,55344,99576.5,49214.3,27605,116838,74540.1,45402,107596,80592.2,50484,104621,182.719,30620,74540.1,75970.7
61919.1,41464,97866.3,79506.6,57299,90936.1,162445,108843,97810.6,68411.6,52261,85789.1,182.734,30625,162445,58340
64083.6,39994,105010,93053.5,62082,98230.7,146776,92674,103795,57965.8,46659,81417.2,183.093,30679,146776,48865.7
69709.5,44426,102834,89866.3,62065,94892.1,146977,102464,94006.7,62707.1,47216,87037.7,183.829,30796,146977,53594.5
111093,48491,150144,73553.2,30564,157714,92981.3,38526,158169,74285.8,50425,96547.2,183.856,30802,92981.3,68520.9
103402,43391,156174,49206,15921,202548,64907.4,28691,148262,60084.1,41394,95126.7,184.711,30941,64907.4,56059.9
46872.9,38537,79712,18527.3,14046,86445,53419.1,41697,83959.8,73732.5,61226,78922.9,185.056,30995,53419.1,70420.6
85039.2,58243,95687.5,81900.2,55732,96307.5,137140,89040,100939,58306.3,45324,84307.7,185.857,31114,137140,49803.6
61409.7,41134,97839.9,85126.4,54160,103007,124597,78181,104445,57944.9,45965,82616.7,185.907,31123,124597,50219.9
62862.3,38178,107909,26333.5,13984,123412,49689.7,24871,130934,53114.7,41052,84793,186.118,31160,49689.7,50033.9
49525.2,31324,103616,67206.5,45903,95951.1,138422,101710,89190.9,57473.7,45171,83385.3,187.232,31342,138422,48891.6
53610.3,39154,89733,21360.1,17948,77995.2,50886.5,33199,100452,71081.8,45634,102082,187.911,31453,50886.5,67926.9
67026.6,44992,97631.9,81574.9,58169,91906.2,140952,91141,101353,56630,43280,85751,189.055,31638,140952,47891
57281.4,39720,94511.4,74595.7,53344,91644.9,150265,98406,100073,59482.3,46176,84421.1,191.046,31928,150265,50165.9
53672.4,40703,86418.1,43272.1,24712,114757,64591.9,41575,101818,74099.5,62202,78071.2,191.102,31946,64591.9,70094.8
47717.1,34887,89637.6,24430.6,19190,83433.4,49655,34522,94264.2,52653.2,39080,88297.9,191.151,31951,49655,49574.6
107134,36782,190885,36516.7,8421,262143,70760.7,25246,183688,63984.5,45519,92121.7,192.976,32255,70760.7,59597.3
70441.2,52738,87535.3,100350,69080,95201.4,158663,113923,91273.4,65973.6,48824,88555.7,193.056,32266,158663,56136.5
102730,46488,144823,74331.6,34726,140281,121396,62463,127368,58085.3,39746,95775.2,193.619,32350,121396,50558.8
79820.1,52724,99216.5,91102,60980,97908.5,141767,98670,94161.1,63602.2,48208,86463.6,194.172,32432,141767,54812.6
108384,50681,140153,106203,56435,123330,165773,82764,131266,71829.6,50537,93148.1,194.253,32442,165773,61551.7
56627.1,39578,93767.1,21381,16078,87151.6,56673.1,34556,107481,64779.6,42872,99024.8,194.461,32478,56673.1,61265.8
55323,41978,86370.2,17804.5,13723,85027.8,43652.9,28565,100152,58185.4,46330,82306,194.49,32482,43652.9,55478.9
59822.1,38091,102925,27829.2,14132,129056,51160.3,28043,119561,58720.6,38494,99971.7,195.254,32602,51160.3,55548.6
69313.5,46681,97310,79562.2,56703,91956.1,114262,78205,95752,75732.8,60756,81691.1,195.511,32642,114262,68648.5
78117.3,49920,102554,93412.2,55576,110153,139035,83664,108909,66639.4,48596,89869.1,195.836,32697,139035,58019.2
41095.8,32046,84043.4,14114.1,10227,90444.8,47601.9,32742,95279.5,53132.8,37186,93640.3,195.99,32725,47601.9,50181.4
62874,43424,94890.2,43957.4,32135,89646.5,64446,46865,90121.2,52148.6,39201,87181.8,196.26,32772,64446,48153
72572.4,45834,103768,104175,70706,96557.7,163885,109857,97766.9,65259.1,49565,86287.1,196.443,32800,163885,55098.2
89352.9,36430,160742,49167.1,23047,139811,61347.6,32080,125327,51767.8,41807,81150.4,196.71,32843,61347.6,47964.2
58857.3,37963,101606,25482.9,17129,97498.1,45576.7,31421,95061.1,53498.3,40119,87391.7,196.851,32867,45576.7,50672.6
74190.6,48022,101248,77051.9,51803,97478.4,130559,83225,102809,56967.8,43876,85090.7,197.468,32943,130559,48873.1
64395,44164,95557.3,73792.3,50966,94887.8,107144,71537,98156,58448.1,45285,84585.5,198.538,33108,107144,51805.2
60045.3,42365,92886.3,57621.1,30481,123889,67929.3,29434,151247,59170.9,42208,91874.2,199.274,33230,67929.3,54959.3
78278.4,52370,97957.9,92811.7,59424,102358,144097,94346,100095,57468.2,42087,89486.9,199.279,33231,144097,48534.1
