"FSC-A", "FSC-H", "FSC-W", "SSC-A", "SSC-H", "SSC-W", "FITC-A", "FITC-H", "FITC-W", "PE-A", "PE-H", "PE-W", "Time", "Event #", "Comp-FITC-A", "Comp-PE-A"
70635.6,35763,129440,36344.3,12621,188722,55777.9,24586,148681,54472.7,39634,90072.2,3.562,222,55777.9,51014.5
70956,50429,92212.3,55937.8,40393,90756.8,95078.8,68432,91055.1,65327.2,50792,84290.5,4.279,309,95078.8,59432.3
91488.6,50813,117997,83665.5,52866,103717,134516,82640,106675,70837.2,53682,86479.4,5.984,551,134516,62497.2
69124.5,50157,90319.3,61592.3,44599,90506.8,104249,74370,91865.5,58466.2,46033,83236.8,10.126,984,104249,52002.8
41835.6,30845,88887.6,34530.4,19220,117741,50376.4,28236,116924,53852.8,40716,86680.8,10.207,994,50376.4,50729.4
59239.8,32567,119211,19362.7,11859,107003,49926,26020,125748,62297,44358,92039.7,10.957,1066,49926,59201.6
73969.2,51748,93677.9,66269.6,46842,92716.9,96475.7,69718,90688.7,54093.2,42578,83260.2,11.008,1070,96475.7,48111.7
61342.2,47447,84728.7,32248,20200,104624,61229.5,45224,88730.2,84979,73963,75296.9,11.456,1119,61229.5,81182.8
66685.5,43032,101559,16769,10069,109144,47544.9,31493,98939.6,62145.5,43941,92687.2,11.741,1147,47544.9,59197.7
50161.5,37246,88261.4,16792.6,13362,82361.9,48189.9,32866,96092.4,57245.8,43857,85543,13.365,1313,48189.9,54258
62343.9,42185,96853.6,57626.6,29870,126435,61885.6,34290,118277,55597.2,39704,91769.6,15.166,1512,61885.6,51760.3
68598,45786,98188.1,42653.5,30478,91716.7,62700.1,43574,94302,56375.6,40418,91410.6,17.743,1772,62700.1,52488.2
113110,44536,166445,83869.8,28305,194188,74815.4,33909,144596,59275.2,45077,86178.2,17.999,1799,74815.4,54636.6
81586.8,36269,147423,56264.4,20909,176352,59828.4,27748,141304,56447.9,42929,86174.1,20.637,2058,59828.4,52738.5
68218.2,47213,94693.1,72676.1,53884,88391.8,124351,90480,90069.1,66396.1,51458,84560.9,21.641,2165,124351,58686.4
52509.6,30727,111995,49706.4,31230,104309,99572.6,59315,110016,54314.2,43288,82229.2,23.316,2348,99572.6,48140.7
63469.8,48184,86326.5,64320.9,42960,98122.2,85315.4,58616,95387.5,55985,45087,81376.8,26.649,2665,85315.4,50695.5
61206.3,47229,84931.2,54613.1,42279,84654.9,82500.7,57097,94694.4,54130.8,44720,79327.2,27.233,2710,82500.7,49015.7
59622.3,38217,102243,21535.3,11448,123282,50134.5,29268,112260,60163.4,42773,92181.2,27.945,2791,50134.5,57055
54254.7,38113,93292,36532,24096,99359.2,64305.6,35221,119654,72131.3,46777,101058,29.81,2966,64305.6,68144.3
72296.1,53814,88044,30200.5,20258,97700.8,69062.1,39508,114561,84983.2,54328,102515,30.533,3064,69062.1,80701.4
51811.2,40259,84341.4,22416.5,17716,82924.5,43722.4,34417,83255.2,51114.5,44448,75365.3,31.463,3165,43722.4,48403.7
144836,46328,204886,105558,30162,229356,114603,38998,192589,61486.6,40654,99119.1,31.541,3181,114603,54381.3
64107,45104,93147.3,62331.8,47368,86239.1,91958.2,64108,94006.6,54763.2,41558,86360.3,31.749,3206,91958.2,49061.8
61821,38054,106467,23281.1,11868,128560,46745.7,28495,107511,54134.9,40737,87090,35.007,3523,46745.7,51236.7
66283.2,43902,98946.2,44203.4,21486,134828,70739.9,37006,125277,64251.4,44226,95210.4,35.081,3538,70739.9,59865.5
69289.2,48803,93046.3,64047,48375,86767.7,97245.8,68741,92711.8,62124.7,49151,82834.6,36.149,3632,97245.8,56095.4
51609.6,38019,88963.1,42089.2,27944,98710.2,58767.8,38217,100777,54346.2,41432,85963.4,38.139,3848,58767.8,50702.6
68058,52104,85602.8,69451.4,45284,100512,90501.5,63345,93631.8,65410.6,51177,83763.2,38.685,3907,90501.5,59799.5
51630.3,34108,99203.8,111999,44283,165752,104910,47124,145900,71118,45906,101529,39.783,4009,104910,64613.5
70725.6,48847,94889.6,70869.1,49177,94444.2,88424.9,64601,89704.7,54011.2,41903,84473.2,40.045,4041,88424.9,48528.9
70475.4,53849,85770.9,77400.8,52988,95729.9,103358,72451,93492.8,57849,45625,83094.6,44.434,4481,103358,51440.8
73896.3,47154,102703,32467.6,20596,103311,63621.7,36620,113859,55228.9,40622,89101.5,44.614,4503,63621.7,51284.3
58617.9,41686,92155.2,24575.2,17530,91874.5,51031.1,34677,96443.5,56427.1,41087,90004.2,47.203,4749,51031.1,53263.1
56147.4,45864,80230.2,37331.2,29488,82967.3,58781.7,47685,80786.8,54650.6,44152,81119.4,47.971,4829,58781.7,51006.2
58891.5,42933,89896.2,17810.1,14061,83009.8,53697.1,34907,100813,84178.4,63436,86965.1,52.092,5260,53697.1,80849.2
150784,54917,179941,97569.7,42903,149041,160072,70084,149685,60492.8,42138,94082.7,57.275,5793,160072,50568.3
68760,29643,152018,23468.8,11556,133095,56290.8,24698,149367,61357.4,41134,97756.5,59.011,5977,56290.8,57867.3
63985.5,44353,94545,34137,22312,100269,66234.9,42180,102911,78113.8,50555,101261,61.046,6196,66234.9,74007.3
51676.2,36697,92286.9,15986.4,11140,94047,53360.7,31098,112452,66604.6,45767,95374.4,62.175,6340,53360.7,63296.3
71823.6,50676,92884.8,62305.4,43484,93902.2,108456,79100,89858.2,60936.2,48653,82081.6,63.124,6450,108456,54211.9
70887.6,43955,105692,30119.9,21970,89847,62513.9,37829,108301,66104.2,44357,97666.8,63.933,6543,62513.9,62228.4
69617.7,43408,105107,74957.1,50567,97146.2,99661.6,70834,92207.5,68554.8,54502,82433.8,65.764,6717,99661.6,62375.8
74179.8,48400,100443,73993.9,51471,94213.5,103123,69869,96727.4,66202.9,52150,83196.1,66.361,6790,103123,59809.3
84989.7,45828,121539,87414.3,43684,131141,116196,62895,121075,70952.5,51397,90471.2,66.582,6815,116196,63748.4
122162,33144,241551,114066,35563,210203,109073,32610,219204,58702.5,38833,99068.5,67.762,6935,109073,51939.9
83637.9,43571,125801,51193.7,22966,146087,61824.4,29154,138977,57541.8,38550,97822.6,69.593,7163,61824.4,53708.7
78847.2,51060,101201,76532,40934,122529,113517,72646,102407,63311.7,49595,83661.6,69.886,7201,113517,56273.7
58785.3,38652,99672.8,33041.7,19617,110385,56018.4,26734,137324,83216.5,54971,99210.1,70.574,7275,56018.4,79743.4
64575,47866,88413.2,32289.7,20551,102970,54772.9,33256,107938,70461.9,45008,102599,72.691,7493,54772.9,67066
74133,50126,96923.4,64051.2,44492,94346.4,99307.2,69490,93656.6,55491.6,41884,86827.8,73.779,7626,99307.2,49334.5
68644.8,49901,90152.6,57357,42312,88838.8,82721.7,60866,89068.6,56454.8,44863,82469.4,73.925,7649,82721.7,51326.1
72944.1,53289,89708.3,35860.6,26454,88839.5,81320.6,58932,90433.5,81776.5,68033,78775.1,75.742,7838,81320.6,76734.6
88602.3,41568,139690,43543.1,21888,130375,61007.1,27969,142950,61271.2,42344,94829.7,75.81,7850,61007.1,57488.8
96854.4,29693,213769,62673.7,13932,262143,87089.1,31335,182144,65659.4,42706,100760,76.029,7869,87089.1,60259.9
55691.1,40172,90853.6,72710.9,46524,102424,102050,62410,107161,60624.8,48257,82332.3,76.492,7915,102050,54297.8
73182.6,52957,90565.8,62411,44925,91044.3,115987,88176,86206.4,64038.7,50886,82475.3,77.013,7972,115987,56847.5
63131.4,40563,101999,29540.3,17863,108378,48547.1,31616,100632,53339.9,41461,84312.5,77.426,8015,48547.1,50329.9
56530.8,35786,103527,77899.8,34593,147580,78225,37589,136384,61071,42128,95004.5,82.096,8503,78225,56221.1
117154,53246,144195,120744,51348,154107,159480,57425,182006,87978.7,60796,94838,82.466,8534,159480,78090.9
65162.7,45228,94421.7,59166.7,42371,91514.3,101298,70863,93682.8,56037.8,44073,83327.6,83.97,8677,101298,49757.4
83009.7,52997,102650,59398.9,39740,97955.8,86544.2,53218,106576,65991.6,47847,90388.7,84.29,8702,86544.2,60625.9
67839.3,48819,91069.4,58639.9,43389,88571.4,91623.2,67624,88794.2,54264.2,42671,83341.4,84.372,8710,91623.2,48583.6
75895.2,45112,110256,87022.3,39058,146016,96801,58274,108864,86305.1,60374,93684.2,84.732,8746,96801,80303.4
61613.1,37267,108350,21329.5,15266,91566.4,61125.2,41346,96887.4,54468.5,39993,89256.9,84.861,8760,61125.2,50678.8
95432.4,51531,121369,51317.4,28332,118705,88520.8,42388,136862,66511.5,50017,87148.3,85.652,8849,88520.8,61023.2
58748.4,37526,102599,22547.2,13601,108643,43381.9,28659,99203.6,59247.4,39040,99457.9,86.525,8946,43381.9,56557.7
80459.1,55951,94242.6,68274,46738,95733.8,105060,74887,91941.7,55174.7,44104,81986.4,89.511,9254,105060,48660.9
63378,45124,92047.3,51624.6,39489,85676.2,76076.1,58620,85051.6,54036.2,43529,81355.4,91.651,9471,76076.1,49319.5
67283.1,44468,99160.4,62979.5,45559,90595.2,95676.5,67355,93092.6,57258.3,43820,85633.9,92.718,9596,95676.5,51326.3
60254.1,40356,97849.5,91859.5,51272,117415,93720.8,48319,127115,72897.2,48977,97543.5,94.864,9792,93720.8,67086.5
71830.8,48766,96532.5,68504.8,49215,91222.8,111991,81921,89591.6,66023.6,50961,84906.6,95.934,9905,111991,59080.2
82840.5,37201,145938,25423.1,9162,181852,50372.2,26933,122571,53691.5,39832,88339.2,96.591,9979,50372.2,50568.5
72485.1,45470,104473,55718.1,34901,104626,98095.1,64200,100136,60794.4,43119,92400.7,97.524,10072,98095.1,54712.5
78231.6,44396,115483,30364.5,19051,104455,65246.6,35943,118966,58999.9,40132,96347.6,97.57,10077,65246.6,54954.6
65703.6,39280,109622,87072.4,49756,114687,116871,68533,111760,64792.1,49633,85552.2,97.744,10101,116871,57546.1
86269.5,46704,121055,56660.6,37218,99771.8,94101.6,59528,103599,61304.6,43448,92470.4,100.002,10333,94101.6,55470.3
73434.6,52330,91966.6,60178.7,41372,95327,115424,78533,96321.8,56962.2,45615,81838.8,100.375,10392,115424,49805.9
83843.1,49350,111342,79437.1,34727,149912,111249,59223,123107,60221.8,47820,82532.3,103.502,10688,111249,53324.3
59897.7,38989,100681,89110.1,58903,99144.7,111991,76474,95973,64158.2,51559,81550.7,104.309,10778,111991,57214.8
76106.7,45812,108874,28004.3,15833,115916,57031.7,38031,98278.5,56050.4,45650,80467,104.548,10806,57031.7,52514.4
106196,48769,142706,86016,28800,195734,110167,43116,167453,82666.1,55030,98448.2,105.175,10870,110167,75835.7
62391.6,44471,91945.2,21474.1,12779,110128,45101.3,30255,97694.9,52947.9,41433,83749.5,106.381,10983,45101.3,50151.6
53866.8,34586,102071,73290.5,53081,90487.5,89193.5,63720,91735.5,57965.8,47145,80577.9,107.568,11092,89193.5,52435.8
52516.8,24182,142327,24515.4,12202,131670,51730.2,27623,122731,63434,46195,89992.7,110.139,11324,51730.2,60226.8
74730.6,51715,94702.6,69715.5,36942,123677,92996.6,59778,101954,79716.5,61957,84321.4,110.25,11334,92996.6,73950.7
69673.5,49128,92943.4,55847.4,41118,89012.5,99129.2,72307,89846.5,56610.5,45439,81648.5,110.808,11387,99129.2,50464.5
67773.6,44995,98713.4,78949.2,57837,89458.6,117992,84668,91329.6,56463.2,43680,84715.5,112.858,11585,117992,49147.7
60731.1,45781,86937.2,65014.5,46499,91631.8,91457.8,65309,91775.7,56143.5,44516,82653.9,113.034,11598,91457.8,50473.1
71032.5,50145,92834.5,58705.3,43552,88338.3,95227.5,69266,90099.5,56075.4,43466,84547.8,113.412,11637,95227.5,50171.3
61423.2,40292,99906.5,21782.7,11403,125191,55221.9,30568,118393,67652.7,42642,103975,115.559,11842,55221.9,64228.9
84674.7,60070,92379.6,34762.5,24903,91482.8,76348.5,53921,92794.6,85761.6,58154,96648.1,117.19,12014,76348.5,81028
61560.9,39811,101340,29498.6,16992,113772,43618.2,26163,109260,58741.4,37800,101843,119.581,12254,43618.2,56037.1
68495.4,47175,95154.5,73519.9,52151,92389.4,122909,85859,93816.5,58211.8,46094,82765,120.688,12376,122909,50591.4
72045.9,49317,95739.8,66578.2,46787,93258.2,105084,74645,92260.5,77934.5,56890,89778.8,121.353,12442,105084,71419.3
104332,41355,165338,35713.3,11227,208471,74327.5,25308,192474,66414.2,44387,98058.5,121.681,12471,74327.5,61805.9
71218.8,51164,91224.2,58239.6,43499,87744.4,81455.4,63505,84060.5,53601.2,42965,81759.7,122.221,12532,81455.4,48550.9
86486.4,45694,124042,40500.4,25691,103314,72093.7,36705,128722,59893.7,46569,84287.7,124.648,12770,72093.7,55423.9
68191.2,47392,94298.2,37632.9,25514,96664.9,65295.2,46633,91763.1,52950.7,41475,83669.1,125.28,12823,65295.2,48902.4
72061.2,49931,94582.6,60951.5,44545,89673.8,125612,86214,95484.2,66219.6,50398,86109.9,126.396,12931,125612,58431.7
86332.5,49494,114315,61375.4,25760,156145,72770.7,32891,144997,56272.8,37959,97154.6,126.421,12935,72770.7,51761
63306,33565,123606,30675.9,15985,125766,52947.9,31842,108975,61186.4,45888,87384.8,126.93,12985,52947.9,57903.6
60980.4,36195,110413,26473.9,14315,121201,49579.9,24566,132267,53410.8,36822,95060.8,127.579,13044,49579.9,50336.8
77040.9,51492,98053.1,51500.9,35102,96153,100504,69796,94369.7,54137.7,41824,84830.9,127.895,13075,100504,47906.5
59587.2,38318,101913,65204.9,32562,131235,70014.3,35082,130792,70441,45484,101496,128.55,13140,70014.3,66100.1
69200.1,48746,93035.3,66572.7,26650,163711,87419.9,45196,126762,78800.5,62642,82441,130.097,13277,87419.9,73380.5
85587.3,52690,106454,59945.1,36981,106232,85322.4,51822,107902,55762.6,43149,84694,130.621,13326,85322.4,50472.6
55147.5,41927,86200.9,24226.3,18092,87756.8,42845.4,30115,93239.7,50805.9,40007,83225.8,135.692,13822,42845.4,48149.5
65895.3,44854,96279.4,90331.9,42848,138163,81130.1,47528,111870,61568.7,44555,90561.4,138.175,14050,81130.1,56538.6
68126.4,47234,94523.7,65184.1,46161,92543.5,117206,83531,91956.6,67665.2,52892,83840.8,139.099,14168,117206,60398.4
60696,41242,96449.6,19478.1,11905,107225,43634.9,28688,99681.2,52770,41962,82415.8,140.643,14302,43634.9,50064.6
74521.8,52694,92683.4,67324.6,47600,92693,108744,75505,94386.3,65738.7,51499,83656.9,140.99,14329,108744,58996.5
95671.8,41761,150139,43071.9,12455,226637,73422.6,25460,188995,53060.5,40673,85495.8,141.014,14332,73422.6,48508.3
63045.9,42506,97204.5,66366.9,47463,91638.2,113772,79323,93997.1,65121.5,53250,80146.5,141.17,14345,113772,58067.7
49320.9,36241,89188.9,106926,48885,143346,104190,54868,124448,79713.7,67924,76911.2,141.405,14363,104190,73253.9
83570.4,54126,101187,67405.3,33538,131715,84321.6,40790,135477,82720.3,52570,103123,141.878,14421,84321.6,77492.4
84750.3,59617,93164.6,60720.8,38833,102475,114685,71227,105521,82475.6,53122,101749,142.965,14531,114685,75365.2
60994.8,47698,83805.5,65448.1,44720,95912.6,84416.1,60893,90852.7,57241.6,47549,78895.1,143.149,14551,84416.1,52007.8
69332.4,43346,104826,18359.1,11395,105589,55670.9,31311,116523,65323.1,42954,99665,144.941,14715,55670.9,61871.5
76535.1,49921,100475,56075.4,36840,99754.5,102806,68447,98433.5,62595.9,46771,87710,145.073,14731,102806,56221.9
78202.8,49327,103900,49838.4,25583,127671,71358.4,35090,133273,61732.7,39560,102268,145.933,14807,71358.4,57308.5
66874.5,36660,119550,42935.7,25650,109701,43949,22064,130540,52895.1,38126,90923,146.99,14907,43949,50170.2
48742.2,39575,80716.8,24932.4,19539,83626.2,46388.5,33619,90428.5,52187.6,38610,88582.3,147.652,14978,46388.5,49311.5
53258.4,39209,89018.9,28122.5,17334,106325,43990.7,26018,110807,60113.3,41676,94528.9,147.799,14986,43990.7,57385.9
79651.8,52068,100255,61999.6,44985,90323.5,102978,72627,92923.8,59467,43138,90343.3,147.942,14999,102978,53082.3
73562.4,50473,95516.1,49851,37023,88243.3,109796,77433,92926.8,69306.8,51534,88137.7,153.744,15592,109796,62499.4
71462.7,49925,93808.3,60141.1,37417,105337,89251.9,60494,96690.8,62430.5,50281,81371.5,154.562,15684,89251.9,56896.8
70317,47385,97252.2,76103.9,51401,97032.1,130310,89639,95270.8,64205.5,51862,81134,155.571,15776,130310,56126.3
73875.6,50016,96799.2,53581.7,37711,93116.9,102330,75114,89282,57680.8,46760,80842,156.289,15849,102330,51336.3
53442.9,41105,85207,25678.9,14159,118857,56851,35364,105355,74757,53301,91917.1,162.512,16467,56851,71232.2
59928.3,37955,103477,113291,48005,154663,99304.4,45887,141827,62009.3,39688,102395,164.493,16668,99304.4,55852.4
95640.3,50015,125320,50441.7,23678,139613,114188,60525,123642,58227.1,45760,83391,165.645,16771,114188,51147.4
133681,63994,136902,142725,54173,172662,222330,78191,186347,67895.9,44531,99922,169.447,17126,222330,54111.4
54057.6,38646,91671,39647,26010,99896.4,50956,28156,118605,52435,36721,93580.7,172.56,17428,50956,49275.7
79002.9,48250,107306,56920.5,27029,138013,77954,46493,109883,56443.7,40474,91394.4,173.06,17462,77954,51610.6
59283,45782,84862.4,19778.3,11176,115980,53997.3,32575,108635,81173.2,55152,96456.5,175.373,17686,53997.3,77825.4
68291.1,46935,95355.8,46248.1,31704,95600.4,89799.6,56556,104058,53806.9,43701,80691.3,176.206,17772,89799.6,48239.3
80432.1,52971,99511,41424.8,27560,98505.6,70407.7,47805,96522.1,59002.7,39556,97755.1,177.086,17848,70407.7,54637.4
103280,49183,137620,141833,71882,129311,127880,67200,124713,80064,55435,94652.7,178.993,18042,127880,72135.4
76450.5,44534,112504,25958.2,12696,133995,59656,31971,122286,59421.1,39498,98592.9,183.185,18428,59656,55722.4
81219.6,47607,111807,61426.9,46820,85981.9,97266.6,69578,91616.1,59592.1,46858,83346,184.618,18578,97266.6,53561.5
76019.4,54057,92162.1,63652.3,44725,93270.3,94358.8,67758,91264.4,58983.3,46668,82830.3,184.681,18586,94358.8,53133
70153.2,49071,93692,55045.4,37270,96792.5,105443,67195,102839,55540.2,41939,86790,186.315,18735,105443,49002.8
122653,36773,218589,65459.3,17217,249169,102907,29498,228630,54242,40645,87459.8,186.427,18746,102907,47861.7
44741.7,35105,83526.3,22233,14189,102690,55522.2,35776,101708,71030.4,57136,81473.1,187.1,18800,55522.2,67588
62236.8,38886,104890,18167.3,13376,89011.1,54985.6,33785,106661,62615.3,41163,99690.5,187.394,18840,54985.6,59206.2
61806.6,39260,103173,23446.5,10737,143112,45895,29782,100993,52115.3,42720,79949.1,189.124,19015,45895,49269.8
67174.2,45900,95911.3,67132.8,49334,89180.2,121098,76917,103180,57376.4,45834,82040,189.306,19032,121098,49868.3
52041.6,42565,80126.8,15379,12830,78556.2,46687.3,38104,80298.7,81939.1,67957,79020,190.217,19123,46687.3,79044.5
76429.8,51492,97275.4,75652.1,55934,88639.1,110201,74355,97130.1,67602.6,48985,90444.2,190.789,19176,110201,60770.2
78219,51266,99991.4,101038,55637,119014,117494,70752,108832,57825.4,45427,83422.7,191.786,19253,117494,50540.8
81252.9,53514,99506.5,76839.2,54539,92332.7,112176,83318,88234.9,68232.3,51058,87580.3,192.841,19345,112176,61277.4
65236.5,36979,115615,36017.7,23628,99900.7,50552.9,27046,122496,64245.8,51032,82505.3,194.72,19511,50552.9,61111.5
61120.8,36931,108462,22907.2,12210,122952,42863.4,27271,103007,56959.4,39576,94322.1,197.315,19730,42863.4,54301.9
80911.8,54827,96715.8,50764.2,24411,136286,79299.5,43539,119364,80139.1,50813,103359,197.413,19737,79299.5,75222.5
77212.8,50450,100302,88964.2,60761,95955.6,132104,90907,95235.6,67987.7,51707,86170.9,198.452,19834,132104,59797.2
67585.5,48692,90965.3,65416.2,27664,154971,96211.6,55734,113132,84899.8,71049,78312.1,203.92,20312,96211.6,78934.7
44262,29024,99943.3,55745.9,39514,92457.5,67604,40208,110189,61882.8,40584,99929.8,205.206,20427,67604,57691.4
80493.3,53842,97975.7,69254,49876,90998.2,114685,80628,93218,64051.2,49558,84702,206.696,20564,114685,56940.7
80572.5,34903,151288,38130.5,14954,167107,58477.3,26880,142573,61577,44898,89881.7,208.927,20765,58477.3,57951.4
59436,38979,99930.7,32754,18858,113828,76144.2,42165,118349,54664.5,42367,84558.6,208.983,20773,76144.2,49943.6
56952.9,33930,110005,19622.6,11716,109763,45929.8,22400,134377,51462,34077,98970.3,213.327,21149,45929.8,48614.3
51759,37269,91016.1,23447.9,17269,88985,42831.5,31870,88076.6,51296.6,39624,84841.8,215.508,21342,42831.5,48641
72846.9,48038,99381.6,64546,44277,95536.9,120541,78734,100335,63410.4,48856,85059.5,216.282,21408,120541,55936.9
53136.9,32010,108790,45771.3,31714,94585,60588.7,39228,101222,52376.6,34985,98115,218.339,21578,60588.7,48620.1
79719.3,34124,153103,37334,16466,148592,58610.7,27778,138279,60355.2,40473,97730.3,219.513,21682,58610.7,56721.3
82494.9,51008,105991,82735.6,57260,94693.7,131791,86072,100347,80132.1,59203,88703.9,220.828,21795,131791,71961
53689.5,38395,91642,25701.1,17878,94213.4,42691.1,26733,104657,53255.1,39780,87735.7,223.068,21986,42691.1,50608.2
80946,28850,183878,43811.4,22186,129416,65128.4,25417,167929,63353.4,44917,92435.6,223.14,21995,65128.4,59315.5
53571.6,36071,97332.2,17992.2,12920,91264.2,44708,25451,115122,54649.2,37345,95902.9,224.053,22084,44708,51877.3
