"FSC-A", "FSC-H", "FSC-W", "SSC-A", "SSC-H", "SSC-W", "FITC-A", "FITC-H", "FITC-W", "PE-A", "PE-H", "PE-W", "Time", "Event #", "Comp-FITC-A", "Comp-PE-A"
78435,56114,91604.9,88002.3,53922,106957,130522,86232,99196.5,92760.3,65332,93049.9,11.515,1123,130522,84667.9
75330.9,54365,90810,28613.2,16758,111898,62370.7,40475,100989,87312.9,68186,83919.5,13.971,1382,62370.7,83445.9
111458,70541,103550,83783.6,52657,104276,133122,85673,101832,95049.6,66195,94103.3,15.123,1506,133122,86796
63466.2,45728,90957.9,35332.4,27441,84382.7,68308.8,50114,89330,94365.7,71621,86348.3,18.028,1803,68308.8,90130.6
44048.7,29331,98420.6,52714.4,29894,115565,89552.1,61868,94861.5,93673.5,77077,79647.4,18.054,1808,89552.1,88121.3
134388,55849,157698,123000,37565,214586,148277,65017,149460,105415,78122,88431.8,28.389,2842,148277,96221.7
89154.9,57548,101530,42217.1,26934,102723,85489.2,48542,115418,88562.5,56047,103556,30.678,3081,85489.2,83262.1
75624.3,56106,88334.8,40378.1,27741,95390.2,69761.3,43282,105630,89154.6,57116,102298,34.862,3504,69761.3,84829.4
108351,65029,109196,57211,25947,144502,97297.2,46472,137211,88918.3,61050,95452.1,41.879,4215,97297.2,82885.9
111948,58531,125346,63983.1,39943,104979,99562.9,61726,105708,94393.5,78123,79185,42.317,4255,99562.9,88220.6
64706.4,44306,95711.6,66218.2,41167,105416,116592,89454,85417.8,90205.4,69302,85303.5,56.843,5755,116592,82976.7
46833.3,31233,98270,44916.5,22882,128645,79054.9,56982,90922.4,97582.2,81056,78897.9,62.685,6405,79054.9,92680.8
67488.3,49126,90032,68315.7,27971,160064,100095,61294,107023,102158,79508,84205.7,80.457,8332,100095,95952.1
135709,53455,166380,93111.9,45801,133233,124515,61746,132158,92614.3,70084,86604.2,87.686,9060,124515,84894.4
52650,36496,94543.8,107340,45381,155013,106260,62687,111089,89599.4,74464,78856.7,97.044,10023,106260,83011.3
103471,61015,111138,94361.5,36904,167572,124894,61674,132715,90850.4,66851,89063.3,100.41,10397,124894,83107
51171.3,33154,101151,50024.7,33871,96791.3,90746.1,58056,102438,91418.9,60216,99495.6,100.976,10448,90746.1,85792.6
65440.8,50340,85195.2,33608.8,26133,84283.7,73026.4,48967,97736.4,99344.7,67915,95864.7,107.569,11094,73026.4,94817
75209.4,54043,91203.7,88947.5,39029,149357,102955,53072,127133,88776.5,66158,87941.9,110.442,11358,102955,82393.3
102293,57521,116547,42773.1,21979,127539,86410.7,48704,116274,96563.3,61872,102282,110.817,11388,86410.7,91205.8
83379.6,55111,99152,65177.1,39044,109401,87864.7,42485,135537,89285.3,61244,95542.4,116.112,11898,87864.7,83837.6
105546,67832,101973,73973,35109,138081,102974,59482,113455,93038.3,62128,98141.8,116.362,11917,102974,86653.9
66895.2,45495,96363.2,23967.8,16899,92949.4,61717.4,36517,110762,86762.4,58382,97394.1,126.647,12961,61717.4,82935.9
94006.8,58477,105355,61012.7,20463,195403,96364.5,43913,143815,92296,60986,99182,139.472,14211,96364.5,86321.4
60190.2,51786,76171.6,32489.9,26181,81328.3,68693.8,56475,79715.2,90867.1,79135,75252,180.813,18217,68693.8,86608.1
69670.8,45985,99292.1,46327.3,23414,129671,82520.1,38241,141420,92592.1,60178,100836,180.879,18227,82520.1,87475.8
69753.6,54017,84628.4,50230.4,23669,139081,91336.9,59061,101350,89725.9,74987,78417.3,219.994,21720,91336.9,84063
97551.9,60266,106082,58780.3,37447,102871,97626.6,64438,99290.2,92557.3,62082,97706.8,224.333,22110,97626.6,86504.5
