"FSC-A", "FSC-H", "FSC-W", "SSC-A", "SSC-H", "SSC-W", "FITC-A", "FITC-H", "FITC-W", "PE-A", "PE-H", "PE-W", "Time", "Event #", "Comp-FITC-A", "Comp-PE-A"
64130.4,49568,84789.6,70386.8,47359,97402.2,144746,95359,99477.7,92302.9,70047,86358.7,0.267,123,144746,83328.7
77779.8,48887,104269,100227,58223,112816,226842,129814,114520,103124,67810,99665.9,0.459,195,226842,89059.9
97922.7,65699,97679.8,138266,77535,116869,258368,147414,114863,103146,73107,92464.5,0.647,284,258368,87127.5
76581.9,51452,97544.7,81137.1,47977,110832,136993,83396,107655,94998.2,64759,96138,0.782,361,136993,86504.6
98540.1,59723,108131,109439,67942,105563,244046,156039,102499,97746.2,74595,85875.7,0.788,368,244046,82615.3
78703.2,56167,91831.4,87604.8,60339,95150.2,123775,85388,94998.6,90917.1,68864,86523.4,1.102,503,123775,83243
111658,56403,129738,110950,49770,146096,253162,105476,157299,98035.3,68299,94069.3,1.408,627,253162,82339.3
70976.7,47659,97600.2,111301,68124,107073,219942,130915,110103,98652.5,69847,92563.6,1.64,709,219942,85016
72465.3,42019,113022,132145,75295,115017,236136,133085,116282,101417,70361,94462.5,1.668,728,236136,86776.8
82630.8,52237,103668,109043,59594,119915,126004,74533,110793,94207.2,63825,96732.7,2.255,948,126004,86395
85811.4,49261,114162,138972,76992,118294,245078,157832,101763,98613.5,74425,86835.6,2.264,954,245078,83418.7
94076.1,55049,111998,123125,74113,108876,224567,128663,114386,99090.3,63425,102388,2.989,1231,224567,85167.2
91084.5,56841,105018,81530.4,43825,121921,160186,90814,115599,94991.2,67979,91577.5,3.739,1464,160186,85059.7
87470.1,50961,112487,127022,54107,153853,176693,102664,112792,102882,64954,103804,3.815,1491,176693,91927.3
57441.6,32137,117139,109905,60298,119452,228021,120422,124094,95989.2,66419,94713.1,4.136,1601,228021,81851.9
82027.8,52736,101937,102950,57663,117007,181619,98112,121316,93830.6,64480,95367.2,4.973,1891,181619,82570.2
67802.4,49333,90071.5,86759.6,66811,85103.9,151648,116463,85335.1,102286,74991,89389.5,4.978,1895,151648,92883.8
53464.5,39798,88040.8,28274,19970,92787.4,64943.6,48801,87214.2,88976.7,70831,82325.2,5.058,1938,64943.6,84950.2
93987,51490,119626,127695,53986,155015,153562,75065,134068,96156,61362,102697,5.352,2036,153562,86635.2
74019.6,47083,103030,114378,66772,112260,206708,124641,108687,99450.3,67493,96566.7,5.419,2058,206708,86634.4
56461.5,40055,92379.5,69479.1,36221,125711,111439,56329,129654,91867.9,59484,101215,5.426,2065,111439,84958.7
70187.4,45479,101141,80098.8,35081,149635,141555,64106,144712,92628.2,62194,97605.6,5.795,2177,141555,83851.8
107814,56968,124029,153243,87956,114182,211437,105142,131791,97963,65484,98040.8,5.853,2198,211437,84853.9
52919.1,34262,101223,103647,64572,105194,257649,161540,104527,102767,78966,85289,6.19,2302,257649,86792.6
72391.5,43751,108438,67082.8,35886,122508,118845,60392,128968,89007.3,69809,83559.1,6.981,2578,118845,81638.9
97901.1,60414,106201,165899,86811,125242,237219,130433,119190,105135,76204,90417.2,7.111,2628,237219,90427.9
68625.9,46989,95713.2,38925.6,22464,113561,81777.9,46232,115924,89809.3,56118,104882,7.331,2697,81777.9,84739.1
53651.7,37469,93840.7,37987.3,23676,105150,85845,62908,89431.2,88493,73076,79362.2,7.401,2717,85845,83170.6
76806,49440,101811,114643,72371,103816,179863,109522,107627,97572.4,73281,87260.1,7.721,2805,179863,86420.9
76469.4,49078,102113,79951.4,43226,121216,162537,85167,125072,96756.5,63038,100591,7.73,2813,162537,86679.2
103701,54828,123954,171662,81747,137620,240153,118581,132725,97361.2,60821,104909,7.981,2879,240153,82471.7
58201.2,41672,91530.9,76591.8,53785,93325.6,112480,77716,94851.8,93239.8,69092,88441,8.019,2891,112480,86266
75393,47551,103909,124260,74910,108711,209620,116757,117660,94667.3,64417,96311.8,8.629,3082,209620,81670.9
66557.7,40354,108092,86013.2,53070,106217,183473,111199,108131,97614.1,73968,86486.6,8.969,3204,183473,86238.8
107522,45996,153200,130185,40231,212070,198741,67298,193537,97491.8,60911,104894,9.169,3260,198741,85169.9
127135,60957,136685,166736,73260,149157,249762,98892,165518,100212,65125,100844,9.307,3297,249762,84726.8
61374.6,43998,91418.8,118728,79394,98004.6,196510,121565,105939,100083,66483,98657.2,9.368,3314,196510,87899.2
51749.1,39114,86706.3,50397.2,35394,93316.2,92311.3,62976,96063.8,92236.2,67621,89392.3,9.525,3360,92311.3,86512.9
71008.2,44066,105605,103031,63091,107024,159897,92388,113424,95474.9,68347,91548.2,9.94,3477,159897,85561.3
60309.9,41808,94538.6,56885.8,34327,108604,97778.2,68303,93817.1,87617.3,64653,88813.9,10.001,3501,97778.2,81555
62389.8,43614,93749.2,59444.7,36066,108018,113064,76065,97413.6,93638.7,74799,82042.7,10.124,3528,113064,86628.8
52313.4,42895,79925.6,44563.4,30270,96481.9,90878.2,62654,95058.5,94975.9,73819,84319,10.125,3530,90878.2,89341.5
161564,52270,202569,214096,45169,262143,208957,66672,205397,95640.3,65151,96205.5,10.534,3666,208957,82685
62419.5,39958,102376,65072.8,45696,93325.8,111902,74967,97824.5,92796.4,64626,94103.1,10.938,3815,111902,85858.5
63625.5,43688,95444.1,89894.1,52735,111715,211180,115729,119589,98416.2,67495,95559.7,10.964,3828,211180,85323
68222.7,44862,99662.1,46271.7,28118,107848,88666.7,57714,100684,88164.9,71147,81211.8,11.355,3947,88666.7,82667.6
77076,53447,94509.6,110982,67133,108342,225889,132046,112111,96523,71953,87914.8,11.586,4010,225889,82517.9
54255.6,41842,84979.1,131230,66860,128631,231938,129296,117562,101246,72557,91449.1,12.031,4165,231938,86866
120459,60274,130975,167840,82622,133131,244241,121249,132014,99715.8,63973,102152,12.08,4180,244241,84572.9
91908,51672,116568,134499,74247,118719,231296,121706,124548,97949.1,63263,101468,12.111,4185,231296,83608.8
63623.7,48300,86328,40336.4,31900,82867.9,77256.2,52954,95612.5,99373.9,66683,97664.6,12.874,4447,77256.2,94584
82180.8,43744,123121,130036,63244,134748,227856,113257,131848,100329,64319,102227,13.153,4521,227856,86201.8
61569.9,40698,99146,88864.1,47715,122054,123193,70788,114053,98498.2,69217,93260,13.425,4608,123193,90860.2
83537.1,50916,107524,108255,62321,113839,197434,106648,121325,96755.1,65530,96764,13.515,4636,197434,84514.2
96219,56039,112525,117326,70127,109645,170427,101699,109825,93592.9,65516,93621.4,13.543,4648,170427,83026.4
85152.6,53107,105081,119204,62522,124950,134990,73203,120852,92549,70389,86168.1,13.592,4667,134990,84179.6
63234.9,40127,103276,106147,61153,113755,202570,126296,105115,94182.2,67777,91068.2,14.192,4853,202570,81622.9
91265.4,42156,141882,131986,57417,150649,239623,118053,133025,101474,67413,98648.8,14.236,4866,239623,86617.5
76347.9,42943,116516,170054,60252,184967,251539,98325,167657,97667,68643,93246.2,14.334,4896,251539,82071.6
80267.4,54140,97163,53948.7,29660,119204,112785,67035,110263,100899,67065,98598.3,14.749,5036,112785,93906.1
60606,38778,102426,103056,61920,109074,179808,111663,105531,96258.9,71139,88677.4,14.799,5051,179808,85110.8
56400.3,38882,95063.3,85453,59147,94683.6,123609,80987,100026,89385.3,63495,92258.6,15.214,5183,123609,81721.6
107187,61058,115048,100341,50936,129103,163552,83712,128040,94447.7,72249,85672.1,15.424,5243,163552,84307.5
74032.2,48182,100697,53617.9,31978,109885,86558.1,54401,104275,86995.9,62883,90666.2,15.728,5357,86558.1,81629.3
78243.3,47390,108203,114813,69976,107528,216497,131979,107504,98378.6,66641,96747.4,16.087,5471,216497,84955.8
89968.5,53919,109352,149374,91302,107219,224018,134805,108907,97918.5,66248,96866.2,16.106,5480,224018,84029.4
76769.1,42834,117457,110725,61338,118303,222397,116092,125547,100194,70428,93234.4,16.174,5508,222397,86405.4
89662.5,56718,103602,87699.3,46838,122709,134987,80095,110450,93007.7,69849,87264.7,16.547,5601,134987,84638.5
83081.7,50530,107755,91071.4,59444,100405,125940,74026,111496,93057.7,69735,87454.4,16.773,5654,125940,85249.5
98251.2,49470,130160,109585,50916,141051,198051,111357,116558,94356,64696,95581.1,16.951,5700,198051,82076.8
63144.9,48175,85900.7,74780.6,42148,116276,140127,86578,106071,94987,71240,87381.7,17.482,5861,140127,86299.1
107122,62989,111453,125427,73154,112365,199806,115440,113431,107920,81094,87215.1,17.513,5873,199806,95531.7
122829,40037,201058,91382.8,28482,210268,134213,55953,157199,90676.6,64060,92765.9,17.951,6022,134213,82355.5
62509.5,44960,91117,90780.9,50317,118239,138566,74021,122682,91377.2,59746,100233,18.17,6086,138566,82786.1
60249.6,38762,101866,89543.8,56930,103080,201614,114651,115245,97329.2,66516,95895.2,18.24,6104,201614,84829.1
58327.2,42233,90510.5,49538.2,29160,111335,85113.9,55464,100570,90415.3,73540,80574.6,18.609,6205,85113.9,85138.3
83999.7,56883,96777.7,92457.2,61030,99283.6,165019,103112,104883,95910,66090,95106,19.093,6362,165019,85678.8
92004.3,53104,113543,139195,79104,115320,234177,133770,114727,98249.4,65060,98968.2,19.275,6412,234177,83730.4
47707.2,34308,91131.5,103459,66899,101351,211187,140949,98194,96479.9,68662,92087.4,19.44,6469,211187,83386.3
98890.2,54383,119171,138145,63156,143351,189962,92785,134174,97183.2,62074,102603,19.675,6556,189962,85405.6
95820.3,53609,117139,118207,65956,117454,182579,103784,115292,93387.1,68872,88863.7,20.353,6752,182579,82067.2
64007.1,36110,116166,133252,75679,115393,253861,141256,117779,106983,70120,99988.9,20.384,6764,253861,91243.3
60660,34013,116879,50914.3,23009,145018,97737.9,52247,122597,93317.6,62670,97585.2,21.827,7171,97737.9,87257.9
100836,46333,142628,121364,48889,162689,187316,80196,153075,107159,67589,103904,22.275,7295,187316,95545.6
77449.5,41074,123575,130445,69408,123168,239922,135084,116398,98760.9,66130,97873.8,22.436,7338,239922,83885.7
62070.3,41242,98633.4,67844.5,41460,107242,101302,65076,102018,89578.5,59158,99236.3,22.559,7381,101302,83297.8
52098.3,29532,115614,117355,52544,146372,203838,99630,134083,100813,67243,98253.4,22.632,7406,203838,88174.6
59235.3,33147,117116,92612.9,49634,122285,217053,114485,124250,96889.9,62374,101802,23.31,7631,217053,83432.7
65277,49839,85836.3,107148,65075,107907,194747,125792,101461,96436.8,72926,86664.3,23.505,7701,194747,84362.5
79447.5,47845,108824,140742,79982,115322,243983,135151,118309,97722.6,66566,96210.5,24.875,8100,243983,82595.6
107885,59861,118113,193592,97557,130050,246421,125875,128297,102549,66860,100518,24.964,8129,246421,87270.6
102892,54086,124674,97883.8,46192,138875,212067,94028,147807,95458.2,66687,93810.7,25.378,8245,212067,82310.1
62931.6,34706,118835,160805,80399,131078,207619,108333,125599,104449,67952,100735,25.785,8392,207619,91576.4
85483.8,48704,115027,119188,71796,108796,213396,118728,117791,99686.6,65006,100499,25.813,8402,213396,86456.1
65973.6,44262,97683,68475.6,38323,117100,97027.6,57385,110809,93288.5,64942,94141.7,25.825,8404,97027.6,87272.8
128248,59838,140460,127270,69613,119816,231314,101670,149104,103648,65158,104249,26.009,8469,231314,89306.7
78613.2,43150,119397,128223,62113,135290,209380,104730,131022,96485.5,64497,98039.8,26.21,8535,209380,83503.9
85169.7,52203,106923,116579,76231,100224,160984,96883,108897,95643.1,66417,94374.4,26.382,8598,160984,85662.1
89328.6,53067,110318,137632,74750,120667,249677,133648,122432,106979,68994,101617,26.433,8614,249677,91498.6
49073.4,36159,88942.6,99745,66802,97854.7,126140,71522,115583,104128,76327,89406.3,26.489,8631,126140,96307
95681.7,62156,100885,103194,58588,115431,163342,91920,116457,98259.1,68278,94313.1,27.061,8800,163342,88131.9
52187.4,38876,87976,54286.4,34042,104510,110815,72706,99886.8,90908.8,76253,78132,27.14,8825,110815,84038.2
94382.1,52011,118925,142365,77286,120721,206158,109321,123588,95858.6,60261,104250,27.142,8827,206158,83076.8
94314.6,65560,94280.1,112241,69837,105329,208729,134683,101567,97740.6,67570,94798.4,27.63,8989,208729,84799.4
102208,60216,111238,129434,71374,118847,192968,111780,113136,93624.8,59908,102420,27.635,8994,192968,81660.8
53010,39738,87424.2,80383.7,51296,102699,161291,95137,111107,91894.3,66728,90252.7,27.639,8997,161291,81894.2
66658.5,47282,92393.1,85237.6,41614,134237,143348,77829,120706,100209,69134,94994,27.651,9001,143348,91321.7
79515.9,42277,123262,140250,80213,114587,245353,138828,115823,98610.8,65150,99195,27.91,9078,245353,83398.9
118228,62045,124881,163884,74830,143529,247451,99861,162395,99038.9,64174,101141,28.18,9162,247451,83697
69414.3,36969,123053,96525.8,47989,131820,194720,86864,146909,94285.1,65467,94384.5,29.061,9444,194720,82212.5
80835.3,52167,101551,158275,89395,116032,218630,124910,114708,96371.5,67947,92951.9,29.186,9479,218630,82816.4
52435.8,39698,86564.4,87033.5,53797,106025,149731,94957,103339,96641.1,61964,102212,29.187,9480,149731,87357.8
62464.5,44156,92709.3,68574.3,43342,103689,99708.9,66789,97838.3,94407.4,58662,105470,29.518,9588,99708.9,88225.5
85290.3,50069,111638,119069,72295,107937,191410,117121,107105,95798.8,65398,96000.9,29.616,9625,191410,83931.4
77437.8,49705,102102,74636,43623,112128,112172,66599,110381,90554.3,61457,96564.6,29.89,9706,112172,83599.7
81736.2,45654,117332,155455,58599,173858,236104,107906,143396,97614.1,64464,99237.4,30.058,9756,236104,82975.7
57663.9,41555,90941.2,42290.8,29419,94210.1,86730.4,54860,103609,91564.9,73635,81493.8,30.243,9815,86730.4,86187.6
68937.3,44279,102032,71990.9,35801,131784,106154,58736,118444,90343,64286,92099.7,30.334,9841,106154,83761.5
74095.2,57049,85118.1,128468,73988,113792,228902,135113,111028,99222.4,68141,95429.1,30.831,9990,228902,85030.4
74525.4,37975,128613,168871,91225,121317,245263,126624,126939,103720,72571,93665.8,31.518,10198,245263,88514.1
79924.5,43589,120166,89723.1,44594,131858,113538,61198,121586,93672.1,69045,88911.5,31.535,10204,113538,86632.8
103076,48288,139894,144267,66683,141785,211976,94976,146269,95973.9,64793,97074.5,31.632,10238,211976,82831.4
55992.6,41640,88125.1,43163.7,27791,101787,82217.1,50625,106433,91721.9,65245,92131,31.648,10244,82217.1,86624.5
73762.2,42768,113030,139222,86030,106057,226623,126872,117062,101659,65313,102006,31.905,10313,226623,87608.4
88987.5,53084,109861,74227.4,42820,113605,165691,80101,135563,94716,65886,94212.9,32.36,10455,165691,84443.2
66116.7,40521,106933,86096.6,55883,100969,190978,107121,116839,95891.9,65434,96041.4,32.641,10551,190978,84051.3
119962,55300,142167,143608,44285,212521,155349,60173,169195,92960.4,60257,101105,32.691,10565,155349,83328.8
105790,46600,148777,113163,41821,177333,203593,72957,182884,94898.1,61860,100537,32.799,10599,203593,82275.3
64548,43552,97130.3,68150.3,46805,95423.5,132926,98431,88502.8,90052.5,72874,80984.8,32.923,10636,132926,81811.1
62077.5,42667,95350.3,109005,53648,133160,220995,107882,134250,96634.2,64493,98197,33.116,10710,220995,82932.5
58281.3,30978,123298,112204,62453,117743,236793,127052,122143,98111.8,66535,96638.6,33.823,10924,236793,83430.6
81293.4,53293,99968.9,83960.2,46856,117432,174349,94847,120469,94228.1,67980,90840.4,33.891,10942,174349,83418.5
66232.8,49555,87592.2,55868.3,35143,104185,113952,71089,105051,94009.9,68537,89893.5,34.216,11037,113952,86944.8
57718.8,44260,85464.5,44778.8,28655,102412,90012.2,60551,97422.7,99339.1,67775,96057.4,34.936,11256,90012.2,93758.4
72103.5,49872,94750.1,73443.4,46476,103563,133993,88892,98787.1,94604.8,71588,86607,35.235,11347,133993,86297.2
69498.9,39706,114710,132377,81948,105865,212560,138916,100279,103381,71093,95300.4,35.509,11415,212560,90202.5
70005.6,49178,93291.5,120246,62436,126216,204262,109447,122310,107272,75535,93071.7,36.236,11627,204262,94607.6
80941.5,51356,103290,99240.4,58119,111905,153642,91338,110240,98421.7,63459,101643,36.271,11637,153642,88895.9
55258.2,30320,119439,88483.2,51659,112252,185170,108408,111941,97774,71790,89256.4,36.37,11666,185170,86293.4
99729.9,53463,122251,161371,81608,129590,229408,118294,127094,102845,64929,103806,36.601,11722,229408,88621.4
76434.3,44894,111578,143904,83909,112394,220555,124886,115740,98305,66713,96570.6,36.677,11745,220555,84630.5
61906.5,41960,96689.8,95395.7,56092,111457,163375,106824,100230,94331,76252,81074.3,36.834,11785,163375,84201.7
83169.9,49431,110267,145761,83059,115010,206783,111110,121967,97176.3,64977,98012.3,36.961,11823,206783,84355.7
89319.6,42893,136471,84328.5,45836,120572,179866,95736,123127,95879.4,70846,88693.1,37.056,11851,179866,84727.7
64238.4,44777,94019.9,47932.8,33429,93969.9,75941.3,51785,96106.7,87311.5,62892,90982.1,37.327,11929,75941.3,82603.1
71683.2,45329,103639,109082,72837,98147.6,184542,119486,101218,96183.8,69513,90680.9,37.415,11965,184542,84742.2
106350,59933,116293,161633,87759,120703,238739,128217,122028,100361,65394,100579,37.804,12091,238739,85558.9
63159.3,36746,112644,95367.9,52170,119801,186574,114090,107173,98805.4,70713,91571.7,37.826,12105,186574,87237.8
82752.3,50867,106616,96370.1,59357,106402,152498,96568,103493,92551.8,67209,90247.9,37.987,12140,152498,83096.9
69078.6,41209,109858,117581,69737,110498,171860,107704,104574,95748.8,65312,96077.1,38.177,12191,171860,85093.5
80393.4,45989,114564,143248,77698,120825,219028,124199,115574,96632.8,64817,97704.7,38.581,12317,219028,83053.1
61677.9,43256,93446.5,117965,63074,122570,184892,110491,109666,98715,70478,91793,38.616,12334,184892,87251.7
68427.9,32849,136518,179299,69436,169228,213074,92109,151604,107330,76708,91698.3,38.869,12412,213074,94119.6
59709.6,33183,117926,140772,75092,122858,153189,95545,105075,91557.9,62744,95632.1,38.888,12419,153189,82060.2
69689.7,45157,101140,90183.2,52458,112666,93363.5,54969,111311,94998.2,63509,98030.2,39.496,12608,93363.5,89209.6
59872.5,43472,90260.5,34071.7,23094,96688.4,67437.2,52560,84086.1,91658,76753,78262.7,39.577,12642,67437.2,87476.9
79102.8,43058,120398,138035,72047,125561,249786,118805,137788,99550.4,66027,98810.1,39.66,12659,249786,84063.7
71608.5,42658,110013,99843.7,63436,103149,200278,115359,113779,95508.3,63456,98638.9,39.853,12709,200278,83091
75325.5,49496,99736,151913,73608,135254,214968,95346,147758,95226.1,60120,103805,39.995,12757,214968,81898.1
76595.4,51585,97310.4,63791.3,31235,133844,101127,57812,114638,93421.9,68150,89838.6,40.198,12816,101127,87152
68301,52130,85865.6,125988,74223,111243,232692,139311,109465,97780.9,67376,95110.6,40.351,12855,232692,83354.1
74925,49424,99350.2,130408,65442,130596,243518,132987,120006,97284.7,64924,98201.8,40.565,12926,243518,82186.6
73391.4,41935,114696,87741,46344,124076,109667,64628,111208,94864.7,60921,102051,40.674,12957,109667,88065.4
105850,49849,139160,118457,38345,202457,178135,51872,225060,95445.7,59871,104477,40.875,13010,178135,84401.3
73782.9,49962,96782.3,113203,74017,100232,136262,88100,101363,92319.6,71145,85041.2,40.954,13034,136262,83871.4
71073,45832,101629,80829.9,54736,96778.5,124869,85312,95923.6,92277.9,64909,93169.3,41.492,13208,124869,84536
71802,49147,95745.7,105687,62039,111645,171786,101672,110730,97329.2,71635,89042.6,41.497,13210,171786,86678.5
98928,50455,128498,165830,81507,133336,240540,124485,126634,101594,67286,98951.4,41.624,13252,240540,86680.3
62514.9,39050,104916,78726.8,52198,98843.6,99015.3,64566,100503,91072.8,62567,95394.5,41.808,13303,99015.3,84933.9
82218.6,49898,107986,87964.8,53264,108232,118987,74564,104580,90129,63084,93632.2,42.547,13541,118987,82751.8
66015.9,37934,114051,96008.7,44415,141664,195502,99291,129039,109084,69472,102904,42.577,13552,195502,96963.3
86852.7,60993,93321.8,123447,75340,107383,185429,118213,102800,97654.4,69359,92271.8,43.628,13858,185429,86157.9
89878.5,51768,113782,134413,76854,114619,198534,111982,116189,96706.5,66500,95304.6,44.065,13990,198534,84397.4
77118.3,48173,104914,62206.7,37711,108106,105156,55286,124652,88575,60700,95631.8,44.139,14011,105156,82055.3
71621.1,48942,95904.6,58963.8,33603,114997,99599.1,57224,114066,88397,59892,96727.3,44.627,14158,99599.1,82221.9
122308,59070,135696,142382,55144,169214,218824,92792,154548,96794,65482,96873.9,44.787,14207,218824,83227
96979.5,58341,108940,64689.2,23520,180250,98819.3,50153,129129,88572.2,63176,91880.9,44.983,14272,98819.3,82445.4
75186,48735,101106,110031,71890,100306,187761,122222,100678,97750.4,64959,98618.6,45.401,14392,187761,86109.2
97875.9,57054,112427,121704,73590,108384,228282,126142,118602,99927.1,68487,95621.4,45.551,14439,228282,85773.6
68567.4,44488,101008,126924,75173,110652,226406,121771,121850,96093.5,63759,98771.7,45.631,14458,226406,82056.3
70761.6,42029,110339,118635,71639,108528,188502,113131,109198,94196.1,63556,97130.7,45.987,14568,188502,82509
74824.2,47473,103294,125450,74938,109711,202036,118100,112114,99095.9,63582,102141,46.825,14824,202036,86569.6
86667.3,56012,101404,85397.4,54445,102794,183315,121210,99114.8,97718.4,68874,92982.4,46.933,14865,183315,86352.9
78750,52992,97391.3,133311,77075,113353,254160,138444,120313,102501,70600,95149.2,46.985,14877,254160,86743.5
55858.5,35939,101860,127420,75746,110245,245253,138389,116143,101954,69272,96455.1,47.046,14898,245253,86748
82823.4,54255,100044,123823,68723,118080,169480,102758,108089,94540.9,65148,95103.9,47.459,15003,169480,84033.1
67376.7,44158,99995.4,94987,58196,106967,171760,111764,100716,97281.9,73134,87175.2,48.275,15249,171760,86632.8
91152.9,54737,109136,113938,64376,115991,167819,94245,116698,95513.9,63523,98540.6,48.286,15256,167819,85109.1
64503.9,35002,120774,94428.3,39694,155904,140589,59992,153581,92211.2,63799,94721.8,48.593,15358,140589,83494.7
58204.8,30725,124150,74105.1,33966,142983,112015,55218,132946,93469.2,61878,98994.7,48.653,15382,112015,86524.3
87381,53319,107403,95023.2,51575,120745,145108,77208,123171,92845,68422,88928.9,48.885,15455,145108,83848.4
58907.7,38315,100759,136627,84088,106484,193368,110488,114697,100829,72977,90548.3,48.941,15472,193368,88840.4
84987,54669,101881,132243,84628,102409,191172,113714,110177,95347,64785,96452.3,49.151,15528,191172,83494.4
62961.3,53410,77255.8,58359.1,43202,88528.9,96791.3,72905,87007.9,95823.8,79422,79070.2,49.961,15770,96791.3,89822.8
87755.4,52794,108935,135357,74890,118450,167275,84067,130403,95469.4,60673,103121,49.967,15771,167275,85098.3
87122.7,47446,120340,76423.6,40152,124738,129087,80474,105125,96525.8,67189,94151,50.007,15785,129087,88522.4
91847.7,58765,102431,81668.1,46977,113932,165909,98677,110188,95691.8,70916,88432.2,50.19,15860,165909,85405.4
73778.4,50775,95226.8,84883.1,53900,103208,135860,84205,105739,92824.2,67451,90188.8,50.611,15981,135860,84400.9
86497.2,48884,115962,89022.5,47521,122771,169702,92642,120049,101724,70967,93939.6,50.961,16076,169702,91202.8
74879.1,49995,98155.4,114879,70674,106528,199618,116612,112185,101531,70709,94103.2,51.009,16096,199618,89154.8
93868.2,53147,115750,176577,105204,109997,248522,139326,116900,105972,67384,103066,51.011,16097,248522,90563.8
71432.1,39926,117251,142797,76808,121841,219157,121420,118289,95957.3,65203,96447.3,51.131,16133,219157,82369.5
66613.5,42475,102780,94739.6,61094,101628,166825,98260,111266,95520.8,69157,90519.4,51.592,16278,166825,85177.6
47336.4,31805,97539.3,84221.5,38704,142609,122077,68742,116383,95267.8,68134,91635.2,51.738,16326,122077,87699.1
78940.8,55421,93348.4,96978.9,60151,105661,177140,110700,104870,93926.5,68448,89930.5,51.958,16404,177140,82943.8
90752.4,54762,108607,118125,67553,114598,209488,111386,123256,98139.6,69190,92956.7,52.092,16455,209488,85151.3
49143.6,39466,81606.3,57660,30629,123373,84589.8,42339,130936,94130.8,59852,103070,52.192,16496,84589.8,88886.2
115373,58451,129357,115478,53540,141352,177379,82445,141000,92853.4,58598,103847,52.36,16547,177379,81855.9
107498,58500,120427,113760,49289,151259,183057,103995,115360,93843.1,67492,91123.4,52.477,16592,183057,82493.5
99188.1,43092,150849,161861,50847,208621,245466,96187,167245,96782.9,62530,101436,52.547,16612,245466,81564.1
81242.1,47742,111522,153089,87023,115290,234013,125962,121753,98770.6,68682,94246.4,52.665,16646,234013,84261.8
50420.7,34033,97093.1,107156,64815,108348,211365,122291,113271,103103,78539,86033.4,52.727,16664,211365,89998.6
86182.2,52237,108123,110087,65771,109693,203616,103007,129546,102190,74113,90363.7,53.49,16897,203616,89565.9
63750.6,40148,104064,102383,68064,98580.6,195605,124226,103192,98969.4,67991,95395.8,53.562,16916,195605,86841.9
87525,48829,117472,126951,77556,107276,198343,111636,116438,97800.4,65502,97851.2,53.612,16934,198343,85503.1
66638.7,43481,100440,87123.8,53601,106523,107119,65047,107924,91787.3,61053,98527,53.865,17012,107119,85145.9
49985.1,37939,86344.5,57943.5,40119,94653.1,88829.3,68691,84749.4,89621.6,77957,75342.1,54.265,17135,88829.3,84114.2
92914.2,62068,98105.7,99286.3,61495,105811,183159,107304,111864,104572,75604,90646.8,54.855,17330,183159,93216.6
59788.8,46658,83979.6,73864.6,57023,84891.9,91131.2,72096,82839.2,93852.8,67773,90755,55.326,17488,91131.2,88202.7
68065.2,52586,84827.1,37088,26412,92026.3,77835.8,58896,86611.1,88522.1,73231,79220.4,55.651,17598,77835.8,83696.3
56290.5,41156,89635.9,35778.6,27391,85604.3,72830.4,51160,93295.9,90862.9,69533,85639.8,55.663,17604,72830.4,86347.4
65273.4,44219,96740.3,101588,61180,108821,122626,73668,109089,91352.2,57527,104070,55.758,17636,122626,83749.4
88622.1,55701,104270,107615,66967,105316,164650,103300,104458,96243.6,65553,96218.6,55.928,17691,164650,86035.3
67262.4,54119,81452.1,147915,96999,99937,223038,133559,109442,97889.4,71935,89181.6,56.124,17758,223038,84061
91020.6,52631,113339,119055,67695,115258,227430,118545,125732,98631.6,67945,95134.6,56.286,17818,227430,84530.9
66684.6,37866,115413,125033,68962,118822,245249,133393,120491,105740,68489,101181,56.744,17952,245249,90534.6
101276,58499,113459,116642,61308,124686,194315,101274,125744,97142.9,66068,96360.7,56.946,18010,194315,85095.4
84967.2,50355,110583,105259,52907,130385,187800,95231,129240,99478.1,68093,95742.6,57.05,18033,187800,87834.5
63221.4,44946,92183.5,55169.1,39881,90658.8,119049,80678,96705.6,93217.6,75111,81334.4,57.255,18101,119049,85836.5
81747.9,52027,102974,98863.8,55963,115775,181210,94993,125018,104313,69190,98803.7,57.823,18250,181210,93077.5
77632.2,46974,108309,173002,112741,100566,216376,112409,126150,98584.4,61970,104257,57.837,18255,216376,85169.1
65312.1,46909,91246.7,75762,45030,110263,116905,73685,103976,97573.8,74410,85937.4,58.07,18320,116905,90325.7
73985.4,36576,132565,132581,62314,139436,244326,124155,128969,104527,70234,97534.8,58.426,18419,244326,89378.4
84985.2,50795,109648,101844,58207,114667,183260,110912,108285,98919.4,64241,100913,59.129,18634,183260,87557.2
110534,54172,133722,142992,54592,171658,241918,136531,116123,100801,70696,93444.1,59.488,18741,241918,85802.5
98155.8,58639,109701,88131.6,44833,128829,165581,88850,122133,95238.6,69002,90454.8,59.784,18838,165581,84972.6
112736,59098,125017,125774,54449,151384,213952,96260,145663,99429.5,67185,96989.1,59.845,18864,213952,86164.5
66546.9,46212,94374.1,78900.6,52643,98224.4,138115,81948,110454,101485,62893,105750,59.929,18894,138115,92922.2
56334.6,37118,99465.1,116476,67357,113327,215863,138530,102121,95283.1,67617,92350.7,60.008,18916,215863,81899.6
88929,53320,109303,122768,70683,113828,171304,100759,111420,92537.9,65454,92653.8,60.16,18950,171304,81917
58140,42589,89465.9,32541.3,18076,117981,75233.8,51595,95562,88641.7,68947,84256.3,60.383,19034,75233.8,83977.2
67422.6,48349,91389.9,102902,59797,112778,170703,96215,116273,97711.4,71075,90096.6,60.776,19162,170703,87127.8
58510.8,38286,100156,105026,61296,112291,118036,68494,112938,93677.7,61345,100078,61.249,19317,118036,86359.4
66271.5,40142,108195,91199.3,52045,114840,214070,120939,116003,96033.7,71572,87934.7,61.271,19324,214070,82761.4
65399.4,44489,96338.8,83059.4,45170,120509,102089,55837,119822,92373.8,69187,87499.3,61.375,19358,102089,86044.3
101640,43220,154120,93510.9,27061,226463,135739,42003,211790,91703.9,63430,94748.6,62.217,19610,135739,83288
82637.1,53026,102133,161896,87239,121620,257984,136655,123722,101783,69747,95637.6,62.4,19666,257984,85787.7
57639.6,32640,115731,99316.9,52033,125090,230861,112628,134333,100204,65670,99999.2,62.599,19731,230861,85890.3
63540.9,45495,91531.3,127742,74697,112076,230251,141420,106701,97707.3,68934,92890.9,62.666,19756,230251,83431.7
63383.4,36768,112976,70949.8,31310,148507,122410,60157,133356,94718.8,68160,91072.3,62.676,19761,122410,87129.3
59510.7,37905,102891,93694.3,58541,104890,184710,109452,110598,99346.1,75151,86635.5,62.788,19799,184710,87894
62894.7,43478,94803.5,73945.2,47247,102569,126530,75347,110055,94271.2,60363,102350,63.093,19895,126530,86426.3
102465,46260,145161,120188,43389,181535,154585,55362,182993,93868.1,63863,96327.1,63.324,19970,154585,84283.8
89425.8,58179,100734,151396,74535,133117,230142,110119,136966,108544,69634,102156,64.046,20190,230142,94274.9
78299.1,44014,116586,143611,77216,121888,250083,143513,114202,102191,69962,95726.5,64.53,20336,250083,86686.2
76591.8,53441,93926.4,44040.8,31368,92012.7,74854.3,53869,91066.3,89995.5,61262,96274.2,65.593,20652,74854.3,85354.6
108430,58095,122318,168268,80572,136866,248614,113991,142934,98709.5,62589,103357,66.78,20975,248614,83295.4
53217.9,43102,80917.1,110818,79887,90910.3,191400,129857,96595.5,98261.9,84724,76007.9,67.105,21066,191400,86395.1
89212.5,46069,126910,133762,54203,161730,146969,64998,148185,97208.3,64570,98662.6,67.345,21150,146969,88096.2
97845.3,60302,106338,97194.4,52715,120833,185418,104525,116255,94874.4,69111,89966.7,67.59,21222,185418,83378.6
56700.9,37255,99743.7,98695.6,63395,102029,166218,105071,103675,92678.2,70186,86538.1,67.674,21251,166218,82372.8
125330,67389,121883,204380,77245,173400,199737,88066,148638,104707,65821,104254,67.722,21270,199737,92323.6
89442.9,50440,116212,122266,46842,171060,126142,62978,131266,99428.1,77566,84007.4,68.056,21361,126142,91607.2
73636.2,48374,99760.6,127495,68011,122855,211251,124509,111193,94994,68822,90458.4,68.235,21415,211251,81896.4
69902.1,48400,94650.9,61261.5,41375,97035.2,99843.7,64174,101963,93939,63432,97054.9,68.273,21428,99843.7,87748.7
107987,56121,126104,129390,66440,127629,235670,126510,122084,96395.1,63553,99402.9,68.327,21444,235670,81783.5
71415.9,46469,100719,121343,75213,105731,221773,126100,115259,95725.1,62059,101088,68.712,21555,221773,81975.2
72405,42212,112412,56165.7,25094,146684,84017.2,46289,118952,93244,63691,95945.1,68.737,21566,84017.2,88034.9
110550,64971,111511,158561,85353,121747,190658,95315,131091,101273,68024,97568.5,69.409,21784,190658,89451.8
81158.4,43258,122955,113178,59503,124653,197258,109991,117532,99298.8,63008,103283,69.829,21912,197258,87068.8
64722.6,44321,95703.2,77739.9,52163,97670.1,127298,85930,97085.7,97444.6,67454,94673.8,69.915,21945,127298,89552.1
108960,54232,131672,132204,58378,148414,189735,79329,156746,94777.1,59635,104156,70.061,22000,189735,83013.6
109866,61008,118020,146609,81960,117230,207234,113461,119700,98812.3,64727,100047,70.09,22010,207234,85963.8
114176,53913,138791,125407,46462,176890,214338,79178,177409,98270.2,65997,97583.8,70.46,22127,214338,84981.3
87174,57659,99083.1,109414,60350,118816,189520,101982,121790,106922,76128,92045.1,70.508,22143,189520,95171.4
68796,45850,98334,66201.5,41374,104863,97123.5,60572,105083,96315.9,69123,91317.8,70.603,22178,97123.5,90294.2
71632.8,43312,108389,51432.8,19214,175429,89477.1,51067,114829,88156.6,64547,89507.3,70.837,22242,89477.1,82609
82611.9,48608,111382,111791,66092,110850,223744,122849,119360,98968,65779,98602.4,71.375,22394,223744,85095.9
56434.5,46152,80137.2,42044.7,23900,115290,74737.5,55087,88913.9,90322.2,73908,80090.9,71.604,22455,74737.5,85688.5
64365.3,42875,98384.7,64394.5,38818,108717,100782,58505,112894,91042.2,60335,98890.2,72.011,22578,100782,84793.7
101071,58868,112519,136620,79274,112944,236171,123958,124862,98154.9,64616,99552.4,72.046,22589,236171,83512.3
66680.1,48081,90887.2,85233.4,54537,102423,194954,130859,97635.9,98138.2,77421,83072.9,72.28,22672,194954,86051
63475.2,41186,101003,84580.1,50301,110197,153182,92751,108235,92836.7,67621,89974.2,72.609,22766,153182,83339.4
64212.3,42249,99605.1,113417,51400,144609,174025,92412,123414,104146,78549,86892.2,72.991,22908,174025,93356.2
82318.5,47314,114022,186157,101392,120325,243490,123801,128896,99839.5,64039,102173,73.217,22982,243490,84743.1
54287.1,35638,99830.5,37902.5,26362,94225.8,87700.7,67284,85422.2,91275.7,76068,78638.2,73.996,23180,87700.7,85838.3
82620,51265,105620,107383,65665,107172,178354,99710,117226,92902,66870,91048.7,74.688,23415,178354,81844.1
91113.3,58269,102476,123280,76350,105819,187043,109560,111884,94859.2,63134,98468.2,74.7,23420,187043,83262.5
72058.5,45887,102914,104710,65393,104939,163703,102509,104659,91891.5,62506,96346,74.983,23497,163703,81741.9
69580.8,42411,107520,47836.8,22833,137303,87009.8,42726,133462,93841.7,59330,103658,75.498,23656,87009.8,88447.1
85163.4,54841,101772,85567,46601,120335,165795,93514,116192,97618.3,65008,98411.2,75.566,23668,165795,87339
59819.4,35756,109641,127338,84001,99346.6,181769,104015,114526,100294,64693,101601,75.64,23689,181769,89024.4
54766.8,34234,104843,94767.4,49839,124615,190961,105334,118811,96128.2,70354,89545.1,76.019,23802,190961,84288.6
80517.6,48609,108556,100646,50722,130041,186078,96249,126701,106599,74568,93687.4,76.563,23960,186078,95062.3
51497.1,35791,94295,58289.6,33887,112730,104410,70038,97698.5,94596.4,76082,81484.1,76.587,23972,104410,88123
61859.7,47715,84963.6,102344,53278,125891,203396,109457,121781,107904,80718,87608.9,78.119,24459,203396,95293.8
57763.8,36649,103294,120563,76314,103536,240874,155403,101581,98281.3,79615,80901.4,78.26,24494,240874,83347.1
64462.5,53979,78264,126286,79282,104390,229582,151174,99527,100419,73355,89715.3,78.318,24510,229582,86185.1
81609.3,51937,102978,135367,83780,105889,212335,122073,113994,99422.5,66641,97774,79.158,24780,212335,86257.8
99896.4,48115,136066,110707,57834,125450,193100,86199,146812,95487.4,65188,95997.2,79.215,24802,193100,83515.2
74166.3,43558,111588,134777,72977,121035,186001,109126,111704,99340.5,66370,98092.2,79.865,24998,186001,87808.4
107710,62303,113299,184035,95746,125968,246902,126040,128379,97696.1,62236,102876,80.255,25117,246902,82388.2
61152.3,44698,89661.2,76537.6,44771,112036,146149,84549,113283,99341.9,73926,88067.4,80.99,25351,146149,90280.7
73078.2,44055,108711,129918,73310,116141,180162,101743,116048,96946.9,64276,98847.4,81.062,25368,180162,85776.9
100289,43613,150701,169109,74129,149506,257093,123689,136219,103982,66008,103238,81.088,25377,257093,88042
115096,60861,123938,185266,103687,117099,240471,128536,122608,97664.2,63094,101444,81.255,25436,240471,82755
88169.4,58140,99385.5,91357.8,50950,117512,218123,120948,118191,95088.5,70223,88741.9,82.334,25772,218123,81564.9
80145,58115,90379.1,68350.5,36733,121945,113033,63559,116549,94215.6,60404,102220,82.359,25784,113033,87207.5
77887.8,51121,99850.4,60834.7,40073,99490.1,96028.1,61667,102053,92561.5,66791,90822.3,82.667,25878,96028.1,86607.8
77553.9,48186,105478,147415,101392,95283.6,196805,123155,104728,97919.9,71753,89435.7,82.879,25966,196805,85718.1
52803.9,41796,82796.4,36284.6,28214,84282.4,60424.7,47116,84047.7,85826.9,74374,75628,83.404,26112,60424.7,82080.6
79299,45703,113711,84763.6,45747,121430,130962,73294,117100,93783.3,65441,93919.4,83.641,26184,130962,85663.7
70540.2,42455,108890,100661,65659,100472,222290,122947,118490,95840.5,70663,88886.7,83.777,26241,222290,82058.5
44010.9,32879,87724.6,30232.5,18919,104726,78861.6,36924,139971,88313.6,59783,96812.2,83.956,26297,78861.6,83424.2
71561.7,46860,100083,108712,61252,116315,203923,107587,124218,102229,69107,96946.4,84.042,26319,203923,89585.7
104238,53866,126821,127844,53136,157678,183743,81333,148055,109100,70309,101693,84.39,26418,183743,97707.7
72666.9,42130,113038,135872,75251,118331,224999,118844,124075,95808.5,67080,93603.3,84.842,26559,224999,81858.6
73487.7,48108,100110,84078.3,49095,112235,138345,69163,131090,93314.9,66650,91755.2,85.381,26741,138345,84737.5
72142.2,48629,97224.1,72549.7,48565,97902.1,132573,82348,105507,94230.9,65008,94996.2,86.684,27116,132573,86011.4
94523.4,63012,98309.6,163294,93389,114592,229084,136749,109787,102642,66384,101331,86.779,27148,229084,88438.5
81447.3,50059,106629,93629,51214,119812,159293,90635,115181,92385,64883,93314.8,87.128,27259,159293,82508.8
68788.8,39981,112757,92742.2,52947,114793,155929,93271,109562,93024.4,70376,86626.8,87.159,27268,155929,83356.8
91842.3,54509,110422,92208.4,49645,121724,142193,75455,123501,94639.5,68222,90913.4,87.195,27287,142193,85823.6
108201,60321,117555,154172,77878,129739,255614,113296,147860,101185,65623,101051,87.392,27350,255614,85337
63109.8,41882,98752.8,95401.3,61882,101034,162873,104063,102573,92433.6,67212,90128.7,87.423,27359,162873,82335.5
105447,63628,108609,139523,79292,115318,233653,129515,118231,100275,70668,92992.5,89.078,27854,233653,85788.1
54026.1,37543,94309.3,46834.7,24549,125030,87743.8,51752,111114,95857.2,61093,102828,89.498,27982,87743.8,90417.1
93258,59242,103166,135607,76377,116359,223896,131143,111887,97893.5,66430,96576.1,89.703,28053,223896,84012
88716.6,54506,106670,116916,72550,105612,205247,119766,112311,97429.3,67224,94982.8,89.922,28118,205247,84703.9
76153.5,47207,105722,110745,71903,100939,184891,116843,103703,97244.4,67862,93911.3,90.495,28285,184891,85781.2
69855.3,42244,108371,139739,54672,167507,186909,83257,147126,95691.8,63421,98882.9,90.616,28307,186909,84103.4
85252.5,54457,102597,133832,80960,108335,201304,108138,121998,94269.8,67371,91702.1,91.448,28566,201304,81789
65939.4,53067,81433,105195,71748,96087.3,169497,106775,104033,92109.7,65237,92531.9,91.613,28615,169497,81601
61277.4,48764,82353.3,61989.8,40335,100721,118873,80302,97014.4,101595,79463,83789.1,91.838,28681,118873,94225
88595.1,50875,114126,88533.3,57520,100871,149190,84978,115057,97105.4,65871,96611.5,91.96,28720,149190,87855.6
60938.1,40641,98266.3,102497,71040,94556,167256,117234,93499.2,96826,68461,92689.1,92.358,28827,167256,86456.1
68774.4,45887,98223.9,73532.4,46646,103310,171614,106246,105857,93337.1,68355,89487.8,92.423,28846,171614,82697.1
61626.6,43941,91913.3,108310,62996,112677,219416,139167,103326,96400.7,70515,89593.9,92.783,28952,219416,82796.9
86297.4,53926,104877,72253.6,41229,114851,132418,72796,119212,93918.1,62124,99076.3,92.787,28953,132418,85708.2
76555.8,47201,106294,82509,46408,116517,110765,67634,107329,90498.7,67684,87626.7,92.84,28967,110765,83631.3
79568.1,55081,94671,119161,59237,131832,213964,122415,114548,96272.8,68544,92047.9,92.878,28972,213964,83007
98249.4,56137,114699,107002,52963,132404,236561,113226,136923,96454.9,69454,91013.7,93.014,29010,236561,81788.1
80065.8,51108,102669,130114,69700,122340,208938,110901,123470,98627.4,66957,96534.3,93.035,29019,208938,85673.3
46724.4,31090,98492.5,55139.9,32823,110095,78655.9,50829,101414,95612.5,75902,82554.7,93.525,29174,78655.9,90735.9
69407.1,43514,104533,147942,92274,105073,202795,120081,110679,99910.4,68204,96002.1,93.649,29215,202795,87337.1
75294.9,55534,88856,66207.1,47185,91956.1,127102,82439,101041,94189.2,71281,86597.9,93.856,29279,127102,86308.9
85903.2,55530,101382,134430,82215,107158,181298,112211,105886,93467.8,62725,97656.5,93.861,29283,181298,82227.3
92664.9,57482,105648,126758,53854,154255,131059,64955,132231,101252,64980,102118,94.328,29439,131059,93126.1
73844.1,55214,87648.9,71596.1,32033,146478,115202,66587,113383,94346.2,70318,87930.2,94.551,29500,115202,87203.7
74734.2,37568,130371,138961,73042,124681,253753,144795,114852,102300,68814,97426.7,94.608,29523,253753,86567.1
72598.5,46544,102222,64676.7,35677,118806,105356,63125,109380,93277.3,63618,96089.5,95.271,29716,105356,86745.2
76891.5,52910,95240.2,63395.1,35595,116720,122750,71584,112379,91961,65627,91833.5,95.59,29822,122750,84350.5
94070.7,50912,121092,124449,67680,120507,212409,110883,125541,97507.1,65922,96936.2,96.053,29968,212409,84337.8
85535.1,51693,108441,119372,71516,109390,207699,115140,118219,96336.7,70002,90190.6,96.22,30022,207699,83459.4
69776.1,43780,104451,88880.8,49695,117213,216228,124724,113617,99889.6,71852,91109,96.303,30044,216228,86483.4
67931.1,40864,108945,104282,63229,108087,221049,125762,115191,98521.8,63031,102437,96.372,30070,221049,84816.8
117670,48516,158950,154458,36798,262143,146145,46877,204316,96504.9,63172,100116,96.626,30140,146145,87444
71066.7,47339,98384.6,88221.9,62413,92636.3,132367,90403,95957,99069.5,66654,97407.8,96.996,30248,132367,90862.7
67495.5,46637,94847.1,86670.7,62360,91084.8,146855,96220,100024,90764.2,66453,89511.7,97.031,30263,146855,81659.2
115368,54362,139082,140365,55767,164953,234935,118466,129967,98118.7,68627,93699.4,97.351,30359,234935,83552.7
75677.4,41889,118398,120328,69795,112986,251073,139421,118019,101118,65234,101586,97.751,30477,251073,85551.8
84151.8,49631,111120,106407,67854,102772,157579,93913,109964,94517.2,66126,93673.9,97.825,30493,157579,84747.3
103820,55434,122739,116255,44156,172545,169948,76858,144913,93330.2,62440,97957.8,98.055,30573,169948,82793.4
66709.8,46719,93578.5,91103.4,57566,103717,114660,75720,99238.5,94166.9,61383,100538,98.724,30753,114660,87058
122854,59315,135740,116558,49251,155099,154220,74538,135595,94873.1,67134,92614.8,99.201,30941,154220,85311.4
69962.4,38667,118578,126386,68660,120635,230930,123243,122800,98952.7,68746,94332.3,99.271,30961,230930,84635
49515.3,34817,93202.6,37863.6,21079,117720,70238.1,40878,112606,87207.2,69209,82579,99.36,30989,70238.1,82852.5
96674.4,52329,121073,138130,72022,125690,228616,114791,130521,99656,65830,99211,99.482,31025,228616,85481.9
64404,45763,92231.3,48178.8,22901,137874,73386.4,40253,119481,92177.9,59050,102303,99.901,31129,73386.4,87627.9
60312.6,42475,93058.2,50067.8,30326,108199,93032.7,64507,94516.7,92800.6,68784,88418.5,99.921,31135,93032.7,87032.5
118309,53648,144525,168065,56384,195344,167740,63423,173328,92872.9,61025,99738.1,100.108,31187,167740,82473
90783,58221,102189,93162,55049,110910,142581,89208,104746,94499.1,73148,84665.3,100.472,31291,142581,85659.1
106625,61462,113692,130646,72187,118609,218942,126860,113105,96424.3,63741,99139.7,100.499,31299,218942,82849.9
80034.3,52856,99234.3,96623.1,63493,99732.1,166216,111143,98010.2,92063.9,66175,91174.9,100.955,31440,166216,81758.5
71726.4,52023,90357.4,93830.6,47327,129932,138621,77277,117559,100254,65521,100277,101.573,31602,138621,91659.3
95078.7,49709,125351,161679,72248,146659,244964,114350,140393,103948,65207,104473,101.578,31603,244964,88760.6
69763.5,42491,107600,109574,67688,106090,184974,110706,109502,95543,69282,90377.1,101.687,31631,184974,84074.6
66304.8,39152,110987,85018,51544,108097,183629,112997,106501,94018.2,65350,94285.8,102.117,31740,183629,82633.2
62701.2,42748,96125.8,104147,50804,134347,139374,77535,117805,96990,74755,85028.9,102.265,31783,139374,88348.9
56444.4,42151,87759.2,82696.7,53434,101426,155612,95969,106265,93403.8,66451,92117.7,103.018,32011,155612,83755.9
80122.5,51313,102331,98652.5,62060,104178,163796,99104,108316,96240.8,66026,95526.6,103.081,32036,163796,86085.5
56206.8,39383,93532,85701.8,54432,103185,138703,85090,106828,93341.3,71340,85747.3,103.223,32090,138703,84741.7
83647.8,60745,90245.2,45583.7,29206,102286,86635.9,50562,112293,88619.4,57230,101481,103.314,32114,86635.9,83248
90008.1,51010,115639,113111,59815,123930,255141,125545,133187,101345,66893,99289,103.676,32220,255141,85526.1
119913,59863,131277,120302,55704,141536,243535,107530,148427,96910.8,68457,92775.7,104.38,32407,243535,81811.6
49859.1,26870,121606,70190.8,37973,121139,142930,86112,108777,98551,70927,91060.4,104.385,32408,142930,89689.4
76377.6,52615,95134.1,123339,78972,102354,163520,109732,97659.9,98140.9,69614,92391.8,104.468,32430,163520,88002.7
86715,50274,113040,180439,95002,124473,225623,120843,122361,99665.8,66276,98553,104.508,32448,225623,85677.1
74175.3,50341,96564.5,90181.8,60307,98001.1,170599,95335,117275,96807.9,68454,92681.3,104.802,32553,170599,86230.8
71151.3,39344,118518,97610,49947,128075,203592,111169,120021,102753,69889,96353.1,105.387,32730,203592,90130.3
53655.3,37166,94612.1,59450.3,39003,99893.2,87817.4,58229,98837.4,93975.1,67298,91514.7,105.432,32744,87817.4,88530.4
65577.6,37746,113858,121713,69071,115483,233773,118281,129527,96789.9,63399,100052,105.449,32747,233773,82295.9
80760.6,46116,114770,86284.2,51720,109333,137484,83575,107809,90573.8,62000,95739.4,105.685,32831,137484,82049.8
71543.7,42333,110757,127752,65180,128450,209184,126809,108108,99048.6,65351,99329,105.967,32909,209184,86079.2
63016.2,40248,102610,87913.3,53038,108629,164729,97162,111110,94645.1,69681,89015.1,106.695,33102,164729,84431.9
48204.9,39639,79698.2,45515.6,33006,90374.7,90327.8,65226,90757.1,97515.4,68747,92960.7,106.754,33121,90327.8,91915.1
85181.4,47836,116700,176804,101608,114036,238450,130397,119842,98937.4,64645,100301,107.041,33193,238450,84153.5
100896,61192,108059,113395,62593,118726,171833,91745,122745,94724.3,62555,99238.3,107.696,33370,171833,84070.7
96239.7,62818,100404,140650,86264,106854,215579,125565,112517,96422.9,65195,96927.2,108.033,33479,215579,83057
69315.3,44048,103129,71066.5,41733,111600,116094,62959,120846,92108.4,62384,96762.2,108.041,33481,116094,84910.5
104338,63891,107024,144976,83863,113293,212172,129511,107365,99906.2,65639,99749.5,108.184,33523,212172,86751.6
53969.4,31055,113893,121835,72181,110619,133732,80223,109249,91282.7,66437,90044.7,108.227,33542,133732,82991.3
77654.7,58267,87342.4,68624.3,39854,112846,97504.3,61871,103280,91584.3,73648,81496.7,108.779,33710,97504.3,85539.1
99157.5,53757,120884,169634,89012,124895,198764,104566,124574,95551.4,63343,98859.5,108.926,33760,198764,83228
55672.2,43530,83816.5,38783.8,29662,85689.9,68857.8,50099,90075,85950.6,67068,83987.3,108.938,33764,68857.8,81681.5
54720,34305,104537,39070.1,21469,119265,86266.2,61519,91899.1,88752.9,74002,78599.4,108.958,33775,86266.2,83404.4
101791,58204,114614,119054,64870,120276,228994,125405,119671,110042,74539,96751,109.088,33808,228994,95844.5
73340.1,41883,114758,74520.7,32980,148083,127082,67141,124044,100771,64708,102060,109.53,33923,127082,92891.7
103144,42110,160524,129951,51031,166888,188438,81245,152003,94254.5,63718,96943.8,109.722,33975,188438,82571.3
99327.6,57007,114188,110490,57541,125842,174406,86537,132081,96617.5,69441,91184.2,109.778,33997,174406,85804.3
67933.8,45433,97992.9,68306,34498,129761,89499.3,52593,111525,88526.3,70224,82616.5,109.832,34018,89499.3,82977.4
98811,55516,116645,201859,104683,126372,255710,124104,135034,100637,64369,102462,110.051,34077,255710,84783.4
58653.9,44521,86340,38622.5,28956,87414.2,92132,69475,86908.4,91320.2,73407,81528.5,110.057,34078,92132,85608
68314.5,41260,108508,109602,48661,147610,143605,77578,121314,98856.8,64029,101184,110.066,34082,143605,89953.3
61092.9,46089,86870.7,96302,65018,97069.2,161971,103452,102607,99907.6,62764,104320,110.282,34149,161971,89865.4
60833.7,35661,111797,112327,62130,118485,206970,113819,119171,101954,69400,96277.2,110.434,34193,206970,89121.6
78876.9,47932,107846,131636,76646,112555,208108,124384,109649,101590,68227,97582.7,110.47,34200,208108,88686.8
56289.6,29806,123767,70745.4,39685,116829,112609,74718,98771,91278.5,69677,85853.7,111.036,34356,112609,84296.7
59576.4,36406,107246,97971.4,52074,123299,190576,102744,121560,94796.6,66487,93440.7,111.439,34466,190576,82980.9
79803,43765,119501,84448.1,49978,110736,183559,96094,125187,95518,63863,98020.3,112.245,34671,183559,84137.3
58606.2,45187,84998.2,99601.8,67268,97037.3,195064,126807,100813,96699.5,70337,90099.1,112.468,34729,195064,84605.5
52131.6,30336,112622,119287,72556,107746,252854,143786,115248,103937,70322,96863.4,113.214,34920,252854,88260.3
67959,42517,104752,96168.5,58526,107687,239985,137345,114512,99070.9,70065,92666.9,113.503,34991,239985,84191.8
86991.3,48830,116753,168503,95497,115637,207769,109380,124487,97230.5,65190,97746.6,113.505,34993,207769,84348.8
71115.3,40118,116173,146367,71997,133232,243393,112853,141343,99688,63297,103214,114.48,35274,243393,84597.6
65416.5,46415,92365.3,45026.3,29500,100029,79205,51324,101137,94065.5,73005,84441.8,114.714,35326,79205,89154.8
74711.7,45548,107498,121173,62986,126079,200204,113559,115540,102827,66077,101985,114.933,35391,200204,90414
53090.1,30805,112946,85960.4,53513,105273,184215,122372,98656,95748.8,71049,88319.2,115.002,35401,184215,84327.4
74917.8,49421,99346.7,67388.6,42870,103018,137795,89880,100473,90735,65069,91386.2,115.135,35445,137795,82191.8
74856.6,50577,96996.7,39542.7,22263,116403,86177.2,53204,106152,90849,66880,89023.3,115.466,35541,86177.2,85506
70741.8,49878,92949.5,41932.1,21686,126721,83248.5,46832,116497,94981.5,60021,103709,115.616,35583,83248.5,89820.1
64953.9,40637,104752,88910,51365,113439,133326,87060,100364,97596.1,66443,96263.8,115.678,35598,133326,89329.9
75575.7,49082,100911,87232.2,55770,102508,151707,93012,106893,96753.7,76856,82503,115.699,35604,151707,87347.9
77690.7,37774,134789,89634.1,40109,146457,181520,91313,130278,94446.3,66600,92937.4,115.844,35645,181520,83192.1
66006.9,41818,103444,88687.6,54735,106189,182119,107132,111408,94119.7,69391,88890.9,115.939,35672,182119,82828.3
66384.9,45608,95391.2,63416,44230,93964,83037.2,57417,94779,90083.1,62815,93985.3,116.363,35809,83037.2,84934.8
88141.5,49404,116923,161273,88318,119672,249191,132671,123094,99408.6,66819,97499.9,116.429,35833,249191,83958.8
79712.1,52868,98812.4,106464,64434,108285,180002,115802,101869,92992.4,64255,94846.3,116.465,35847,180002,81832.2
79062.3,50127,103366,122966,64473,124994,248457,120265,135392,101498,66818,99550.4,117.08,36023,248457,86093.5
88182,44972,128504,151165,78377,126399,200104,100137,130961,94150.3,62058,99426.9,117.375,36107,200104,81743.8
85518.9,64940,86303.8,109283,68080,105200,257985,169858,99538,99180.7,77490,83880.6,117.504,36142,257985,83185.6
79961.4,57085,91799.1,58735.8,41141,93563.9,104293,71481,95619.1,91578.8,69776,86013.9,118.056,36286,104293,85112.6
129696,63268,134346,109343,47618,150487,210980,87407,158188,98191,66370,96957.1,118.214,36336,210980,85110.2
56246.4,31536,116887,100188,60537,108462,245360,140384,114542,99232.1,73632,88321.3,118.839,36493,245360,84019.8
65825.1,45302,95225.7,64780.9,40671,104386,100551,61987,106308,91467.6,66028,90786,119.005,36537,100551,85233.4
90616.5,48212,123178,157423,88438,116657,253945,131302,126750,101095,66199,100082,119.252,36613,253945,85350.1
96716.7,39749,159461,105305,41788,165150,138971,56661,160738,91078.4,65820,90685.4,119.372,36655,138971,82462.2
68091.3,39104,114117,122353,67698,118446,217460,125262,113773,95173.3,60415,103241,120.162,36869,217460,81690.8
56038.5,35706,102855,63474.3,38539,107939,94806.3,63426,97960.3,95194.1,74263,84007.4,120.452,36940,94806.3,89316.2
59430.6,43478,89581.9,95153.8,63425,98320.9,149896,96867,101413,92444.7,71609,84604.7,120.464,36945,149896,83151.2
91405.8,53205,112590,118539,62389,124518,196225,113961,112844,95575,65803,95187.2,120.55,36967,196225,83409.1
55633.5,37890,96225.8,83946.3,52314,105163,166668,104978,104048,95126,66488,93764,121.032,37092,166668,84792.6
73199.7,44857,106945,92544.8,45881,132190,123998,62528,129963,95618.1,70478,88913.2,121.579,37248,123998,87930.2
102415,62098,108085,133578,72895,120092,214952,117178,120220,96261.7,66709,94569,121.82,37306,214952,82934.6
87021,56607,100747,72068.7,40831,115674,145683,82169,116193,102430,77080,87089.8,121.959,37354,145683,93398.1
65795.4,48269,89332,94635.4,64080,96785.6,166565,110468,98816,97996.4,66142,97098.5,122.179,37420,166565,87669.4
83565.9,52077,105163,92421.1,61525,98446.3,156906,89149,115346,94424.1,65786,94065.3,122.644,37563,156906,84695.9
86262.3,55395,102054,74441.5,40521,120397,115788,65378,116068,93414.9,70659,86642.1,122.729,37590,115788,86236.1
73018.8,44076,108571,111927,64906,113013,245771,140868,114340,97402.9,62121,102757,122.899,37638,245771,82165
96170.4,55484,113594,118452,54315,142923,186664,85757,142650,93919.5,63198,97394.1,123.154,37709,186664,82346.3
73305.9,39276,122318,134095,73159,120122,225764,119997,123300,99550.4,65055,100286,123.922,37892,225764,85553.1
76253.4,53798,92890.9,39378.7,25296,102021,79303.7,54869,94721,87449.1,70992,80728.3,125.071,38206,79303.7,82532.2
72864,50993,93644.5,62012.1,30273,134246,85619.8,52752,106369,90430.6,70670,83861.1,125.474,38309,85619.8,85122.2
83101.5,53871,101096,149098,78156,125023,243698,136795,116751,96753.7,66367,95542.2,126.618,38620,243698,81644.5
87906.6,50079,115039,97639.2,47404,134986,114248,55204,135631,93192.5,65671,93001,127.002,38722,114248,86109.2
124078,60992,133322,144431,70212,134812,203746,65776,203003,100498,67374,97756.7,127.305,38802,203746,87866.1
68200.2,41168,108569,130153,67434,126489,219562,114840,125298,97972.8,66914,95955.1,127.306,38803,219562,84359.9
59834.7,44534,88052.4,34622.1,26657,85118.2,68211.5,43318,103197,88811.3,60318,96494.2,127.445,38848,68211.5,84582.2
88834.5,39162,148661,119066,33260,234609,121494,49475,160935,104247,66958,102033,128.036,39002,121494,96714.6
100608,57779,114115,130452,63150,135380,186877,92616,132236,95280.3,65430,95434.7,128.101,39014,186877,83693.9
58752.9,42844,89870.9,43637.7,33882,84405.8,73850.7,49865,97059.6,86335.7,63250,89456,128.785,39214,73850.7,81756.9
71958.6,48107,98029,78459.9,50436,101950,115052,75367,100044,92187.6,61910,97586.9,129.231,39330,115052,85054.4
62140.5,42563,95680.3,48987.8,35777,89735.4,96624.5,68340,92660,91787.3,70228,85654.9,129.836,39490,96624.5,85796.5
60525.9,41806,94881.7,92493.4,62105,97603.2,148413,100865,96429.9,90783.7,65883,90305.5,130.301,39637,148413,81582.1
60255,38973,101323,107757,62573,112860,211894,131726,105421,95230.3,69288,90073.5,131.711,40051,211894,82092.8
62832.6,39182,105094,104329,65547,104312,227408,118494,125774,97983.9,72115,89044.9,131.802,40082,227408,83884.6
73990.8,51669,93848.6,73417,49621,96964.1,142357,101516,91901.8,100045,62501,104903,132.081,40168,142357,91219.1
129717,48277,176091,170496,59043,189246,153630,58863,171046,101742,67712,98472.8,132.373,40255,153630,92217.4
63856.8,46339,90310.9,119783,64272,122139,178639,101863,114931,93666.5,69522,88296.2,132.899,40400,178639,82590.9
92169.9,54954,109918,117160,59785,128431,212831,106314,131197,97808.7,68342,93792.9,132.967,40417,212831,84613.2
74165.4,53195,91371.4,132125,86099,100570,178548,119098,98249.7,101716,71242,93569.3,133.075,40456,178548,90646
85595.4,55969,100227,111385,63181,115537,195548,113760,112653,101633,72632,91703.3,133.345,40533,195548,89508.7
92364.3,61331,98697,122957,63828,126247,184275,108623,111180,93224.5,74143,82402.4,133.361,40543,184275,81799.5
100778,54341,121539,139790,68221,134288,214171,108221,129697,97628,64371,99394.9,133.476,40573,214171,84349.4
54163.8,39517,89826.6,116457,80761,94502.6,201089,135883,96984.4,96000.4,63507,99067.5,134.436,40852,201089,83532.9
63025.2,38444,107440,72587.2,40108,118607,104325,59158,115573,95994.8,63286,99407.7,134.71,40922,104325,89526.6
89976.6,41555,141901,143581,66883,140690,246665,119065,135770,98260.5,62802,102538,135.272,41100,246665,82967.2
117080,51994,147574,198802,62020,210072,235175,90200,170870,96778.8,61545,103055,136.401,41389,235175,82197.9
56249.1,39166,94120.9,52358.5,31574,108677,109740,70108,102584,100939,67398,98150.4,136.516,41421,109740,94135.1
86871.6,58082,98020.4,53180,31220,111634,88768.2,56863,102308,91281.3,62910,95091.6,136.658,41454,88768.2,85777.7
75434.4,46211,106980,66863.2,29555,148264,110444,55103,131355,93751.3,70637,86981.1,137.454,41672,110444,86903.8
57440.7,34701,108482,76885.1,53000,95070.6,136424,90521,98769.4,93922.3,68807,89457.3,137.86,41797,136424,85464
63216.9,45028,92009,99724.2,60118,108712,166758,102721,106392,105304,71441,96599.7,137.998,41833,166758,94964.6
97974,53679,119615,134303,71361,123340,192653,95590,132082,99608.8,62020,105256,138.085,41852,192653,87664.3
47760.3,40218,77826.3,47241.9,33070,93621,95893.3,72522,86656,94934.2,66578,93448.4,138.812,42029,95893.3,88988.8
59338.8,40885,95116.2,61713.2,28953,139690,96546.6,48084,131588,93761.1,63864,96215.8,140.356,42448,96546.6,87775.2
62039.7,43630,93188.9,90890.7,51624,115385,134049,88485,99282.6,95135.8,75990,82047.9,140.641,42528,134049,86824.7
70114.5,46316,99210.3,37766.3,25385,97500.6,87283.7,55141,103738,101724,68974,96653.9,141.134,42657,87283.7,96312.8
60830.1,43654,91321.8,49457.6,31459,103031,88073.2,55892,103270,92453.1,69164,87603.4,141.342,42719,88073.2,86992.5
62186.4,43290,94142.9,108533,65771,108145,197598,112193,115424,97308.3,69065,92336.2,141.582,42785,197598,85057.2
