"FSC-A", "FSC-H", "FSC-W", "SSC-A", "SSC-H", "SSC-W", "FITC-A", "FITC-H", "FITC-W", "PE-A", "PE-H", "PE-W", "Time", "Event #", "Comp-FITC-A", "Comp-PE-A"
84234.6,56420,97844.7,114122,82012,91195,127609,81467,102655,93501.1,68331,89676.6,0.142,96,127609,85589.4
102758,65207,103277,142684,79021,118334,199482,108910,120037,109759,70229,102424,0.262,181,199482,97390.7
98217,57069,112789,107639,66733,105708,183846,114813,104940,98649.7,67980,95103.1,0.363,265,183846,87251.3
84309.3,53970,102377,127812,70397,118986,195584,109237,117339,94418.5,64296,96239.5,0.886,638,195584,82292.3
94746.6,56263,110362,87528.3,43792,130989,108558,63741,111615,88370.6,65752,88080.3,1.205,826,108558,81640.1
92737.8,51481,118056,110829,53140,136682,176694,89762,129006,93355.2,62791,97436.3,1.337,926,176694,82400.1
75780.9,44503,111596,109519,67821,105830,173416,101205,112297,93631.8,69679,88064.6,1.625,1124,173416,82880
67264.2,39044,112904,83476.4,47521,115122,133562,85713,102121,97751.8,76442,83805.5,1.809,1236,133562,89470.9
82742.4,49634,109252,114115,74972,99752.3,155111,94969,107039,93933.4,68013,90512.4,1.863,1272,155111,84316.5
86424.3,47819,118445,162727,96110,110961,211436,118589,116846,98716.4,68909,93884.4,2.065,1400,211436,85607.4
75098.7,50043,98348.8,105042,67223,102406,134524,79682,110642,94114.1,63317,97412.4,2.101,1420,134524,85773.6
63819.9,38650,108215,94684,62839,98747.8,147270,96707,99801.7,96927.5,69257,91719.8,2.119,1429,147270,87796.7
98394.3,59126,109061,191306,104438,120046,216020,125821,112518,96015.6,72064,87318,2.158,1466,216020,82622.4
75965.4,45310,109876,96292.2,61944,101876,126497,76540,108311,94185,66683,92565,2.305,1563,126497,86342.2
58500,33417,114728,72238.3,35006,135240,110477,53020,136557,91188.2,62996,94864.9,2.669,1766,110477,84338.6
57244.5,42726,87805.4,114815,76963,97768.3,175157,114178,100537,97985.3,74179,86568.5,3.01,1981,175157,87125.6
67680,42213,105074,130956,85122,100824,161601,91570,115657,98149.3,69729,92247.3,3.018,1986,161601,88130
82011.6,50516,106396,50281.9,28755,114598,102278,66236,101197,88365.1,65978,87773.1,3.102,2051,102278,82023.9
107190,51918,135306,136558,57621,155316,214192,83589,167932,109034,77165,92602.6,3.259,2127,214192,95754.5
56965.5,41078,90883,46598.4,35780,85351.3,79063.2,60454,85709.6,87069.6,68340,83497.1,3.374,2213,79063.2,82167.7
129486,55795,152092,212812,88031,158431,223322,110274,132720,96308.9,68514,92122.8,3.468,2265,223322,82463
64574.1,43225,97904.6,66672.7,43734,99910,102611,63034,106684,87949.5,64403,89496.7,4.04,2616,102611,81587.6
64136.7,43514,96595.6,67385.8,42530,103837,88973.9,56155,103837,93452.5,68419,89514.6,4.53,2894,88973.9,87936.1
50733,36680,90644.4,20565,11748,114722,60612.3,38549,103045,87005.7,68485,83259.1,4.611,2942,60612.3,83247.7
63636.3,44590,93529.2,105985,75512,91982.9,156677,101308,101354,92532.3,66802,90778.7,5.413,3372,156677,82818.3
53372.7,38839,90059.8,36747.4,31440,76599.2,69657.1,43050,106041,87358.7,54885,104312,5.518,3444,69657.1,83040
66033.9,49291,87796.9,43436.1,23228,122552,89546.6,57759,101604,97726.7,66614,96145.2,5.534,3455,89546.6,92174.8
115187,53520,141049,82229.6,31941,168717,137196,62600,143630,93231.5,61248,99758.6,5.535,3456,137196,84725.3
55475.1,38034,95588.6,80375.4,55117,95569.1,160168,102269,102639,92041.6,68643,87875.5,5.545,3463,160168,82111.2
76050.9,41830,119151,53342.6,28709,121769,99575.4,52521,124251,92029.1,61300,98388.6,5.882,3648,99575.4,85855.4
73081.8,41793,114600,72977.8,36340,131609,105002,53320,129059,91025.5,62606,95285.6,6.163,3825,105002,84515.4
75295.8,52165,94595.7,55498.5,28523,127516,83455.6,49205,111154,89952.5,63635,92639.7,6.813,4177,83455.6,84778.2
46067.4,30067,100412,54365.7,32632,109185,80904.9,50248,105520,90615.5,63769,93126.4,6.839,4191,80904.9,85599.4
87320.7,41035,139458,153577,68828,146231,195662,83183,154153,95615.3,60174,104135,7.126,4374,195662,83484.3
56982.6,33595,111160,105395,66064,104553,174791,101627,112717,95967,66835,94101.8,7.151,4390,174791,85129.9
68738.4,42030,107182,113664,66701,111679,147532,89427,108118,93306.5,69528,87949.3,7.43,4546,147532,84159.6
63909.9,44587,93937.7,52137.5,35491,96274.7,79267.5,54139,95954.4,91284.1,57713,103658,7.458,4559,79267.5,86369.5
84398.4,45737,120933,131087,66396,129389,176600,87881,131697,97698.9,63951,100120,7.875,4775,176600,86749.8
63549.9,38420,108402,58026.9,29719,127960,98813.7,52145,124189,92297.4,66379,91125.2,8.134,4912,98813.7,86170.9
44475.3,35010,83254.3,83730.8,59518,92197,135881,90918,97946.4,91159,72397,82519.9,8.319,5024,135881,82734.4
78849.9,46796,110426,146505,72134,133104,185251,97284,124795,95461,68750,90998.3,8.388,5059,185251,83975.5
61830.9,39769,101892,94053,57443,107304,169773,95427,116594,94258.7,66537,92840.6,8.415,5072,169773,83732.7
57168,30475,122939,82502.1,38011,142244,175226,84297,136228,95937.8,72009,87313.8,9.319,5560,175226,85073.8
59384.7,38907,100029,108662,52111,136656,168675,83497,132391,105580,70100,98706.2,9.721,5780,168675,95122.4
64977.3,38969,109275,102290,60809,110242,139815,81421,112537,93631.8,68671,89357.3,10.194,6021,139815,84963.3
68381.1,35549,126063,133149,83688,104269,196161,108949,117997,96418.7,67616,93452.7,10.234,6044,196161,84256.8
53418.6,35614,98299.6,52567,27089,127175,91473.1,48591,123372,98965.2,65022,99747.5,10.846,6382,91473.1,93293.9
56688.3,38851,95624.9,52052.7,23665,144151,95979.5,49862,126150,97009.5,60818,104535,10.86,6393,95979.5,91058.8
68265.9,32567,137374,100140,57918,113311,146423,84256,113890,105067,80541,85493,10.863,6395,146423,95989.1
48842.1,35628,89842.7,80204.4,57815,90915.4,139980,97771,93828.7,90418.1,65145,90960.8,11.729,6880,139980,81739.4
79861.5,50832,102963,129331,78923,107394,198826,115021,113286,96803.8,65958,96184.4,12.246,7164,198826,84476.6
60477.3,42878,92435.3,82071.2,57942,92827.6,118524,81663,95117.5,91371.6,68837,86990,12.672,7419,118524,84023.2
81371.7,46587,114469,94759.1,57180,108607,186052,109179,111680,93662.4,66519,92278.3,12.685,7430,186052,82127.2
82923.3,39984,135916,134377,74325,118487,225857,119351,124019,97494.6,66830,95606.9,12.864,7531,225857,83491.5
90548.1,59184,100266,155171,74767,136013,256171,131158,128002,108277,76312,92987.1,12.873,7536,256171,92394.2
55479.6,30329,119882,95295.6,60907,102538,132336,86619,100126,89756.5,67704,86882.3,12.937,7585,132336,81551.6
69681.6,40518,112707,142628,84256,110939,176672,105627,109616,98368.9,66941,96304.3,13.458,7836,176672,87415.3
124931,60834,134587,145493,63106,151095,211440,85414,162232,98772,62168,104123,14.075,8192,211440,85662.7
74384.1,44468,109626,136373,71982,124161,196543,105035,122632,109696,68701,104642,14.359,8350,196543,97510.3
75156.3,47981,102654,132320,84793,102269,162112,95316,111462,98275.8,68656,93809.7,14.47,8413,162112,88224.9
71446.5,44963,104137,128368,82274,102252,183077,108024,111069,93915.4,66527,92516.4,14.728,8553,183077,82564.6
52993.8,35926,96671,101763,59881,111374,156354,89852,114041,102842,68029,99073.2,15.097,8778,156354,93148
69365.7,45497,99917.6,112664,72008,102538,158463,97024,107036,93093.9,62396,97778.7,15.314,8894,158463,83269.2
92796.3,50767,119792,121699,64301,124036,189258,99699,124407,99733.9,68670,95182.2,15.907,9210,189258,87999.9
67693.5,45366,97790.4,45115.2,28123,105134,72945.8,49004,97554.8,86181.4,63308,89214.4,15.958,9247,72945.8,81658.8
69936.3,45601,100510,57465.4,42414,88792.6,84310.4,55342,99840.4,90758.7,63279,93995.8,16.137,9343,84310.4,85531.4
78984.9,49735,104079,67713.9,36825,120508,130026,75057,113532,90840.7,71406,83373,16.146,9349,130026,82779
70365.6,33453,137850,117053,64441,119042,200552,93643,140356,98651.1,65905,98098.7,16.316,9446,200552,86216.9
77422.5,43275,117249,118703,74521,104391,212000,121263,114574,105455,65504,105507,17.07,9869,212000,92311.1
71396.1,48103,97270.8,148409,86238,112782,225423,139642,105794,97793.4,66455,96441.1,17.284,9966,225423,83817.2
61015.5,35743,111874,138461,75449,120269,218609,120613,118783,97655.8,79646,80355.2,17.463,10097,218609,84102
63166.5,42576,97230.4,110189,66595,108437,159505,103608,100893,95449.9,75902,82414.2,18.041,10407,159505,85560.6
91153.8,53388,111895,87891.1,51367,112135,115146,64985,116123,91962.4,58303,103371,18.181,10481,115146,84823.3
93356.1,49867,122690,97575.2,51326,124590,153279,88524,113476,105469,79467,86979.7,18.265,10527,153279,95965.7
68172.3,46486,96109.4,92510.1,63826,94988.6,129731,84093,101103,94625.6,70345,88156.7,18.543,10678,129731,86582.3
88747.2,54894,105952,89955.2,59251,99497.2,159539,106674,98013.8,101060,73766,89784.8,18.609,10713,159539,91168.5
96690.6,44119,143628,84274.3,34363,160725,129686,67493,125925,92567,64973,93369.2,18.864,10818,129686,84526.5
50158.8,33504,98113.9,90990.8,60288,98911.4,157362,103819,99335.1,91525.9,66015,90861.8,18.871,10821,157362,81769.5
66663,45090,96891.2,108079,68289,103722,176106,114919,100430,96956.7,71130,89331.5,19.295,11087,176106,86038.1
65008.8,38262,111349,86255.1,56337,100339,116663,72671,105208,89453.4,65444,89579.2,19.96,11418,116663,82220.4
87313.5,57234,99978.6,125983,73176,112829,199236,125020,104440,95077.4,66521,93669.6,20.104,11497,199236,82724.8
58661.1,37561,102351,56556.3,40089,92456.2,96774.6,63501,99875.9,90509.9,69023,85937.4,20.84,11914,96774.6,84509.8
71894.7,39141,120377,75029.4,37783,130141,115734,66268,114456,94602,73364,84507.9,21.555,12293,115734,87426.5
67685.4,44132,100513,119582,71436,109705,189927,114310,108888,97083.2,70011,90877.8,21.939,12491,189927,85307.7
65245.5,46111,92731.2,34338.6,24941,90229.4,65934.6,43418,99523.1,86701.2,60109,94529.2,22.167,12633,65934.6,82613.3
64883.7,42603,99810.3,46003.4,30419,99111.8,68450.5,44836,100053,89666.1,70012,83933.6,22.657,12906,68450.5,85422.2
70226.1,43438,105952,74433.1,44621,109322,109079,69252,103226,88665.3,62303,93266.3,22.753,12965,109079,81902.4
66945.6,37484,117046,155541,91111,111880,197847,125479,103333,95851.6,67912,92498.1,23.1,13131,197847,83585.1
47538.9,32374,96234.9,56322.8,32183,114693,105244,63267,109018,94014,76922,80098.1,23.205,13196,105244,87488.9
54260.1,33044,107614,113500,68315,108883,146168,102568,93394.4,91528.7,68114,88064.5,23.308,13255,146168,82466.3
64101.6,37612,111692,113061,71259,103981,196249,130375,98648.8,96874.7,70047,90636,23.479,13358,196249,84707.2
79955.1,48887,107185,164676,94684,113981,174516,96004,119131,105632,68501,101060,23.633,13437,174516,94811.7
71140.5,48381,96365.6,124413,73688,110650,238170,137038,113900,97195.8,71725,88808.9,23.664,13454,238170,82429.2
80774.1,47566,111290,109866,65148,110520,157166,97494,105648,91797,66191,90888.6,23.713,13480,157166,82052.7
95897.7,57737,108851,125339,64147,128053,174704,83833,136574,96820.4,63995,99151.9,23.884,13569,174704,85988.8
61326,39451,101875,94094.7,66156,93212.8,124812,81106,100852,91831.7,64572,93202.7,23.953,13605,124812,84093.4
76681.8,44751,112297,170667,93200,120009,231228,108680,139435,100152,64657,101514,24.327,13819,231228,85816.1
66638.7,42546,102647,111300,70903,102875,164833,102543,105346,96553.6,71824,88100.6,24.613,13964,164833,86333.9
66690,37919,115261,99378,56658,114950,152184,87269,114285,93048,61486,99176.9,24.857,14093,152184,83612.6
102167,45527,147069,113271,47050,157775,172190,62675,180051,94171.1,59597,103556,24.863,14098,172190,83495.3
64832.4,40659,104500,139827,58685,156151,177967,77474,150544,94552,65564,94511.6,24.918,14144,177967,83518
56970,38536,96885.7,84478.6,59328,93318.4,129914,89190,95459.3,91095,68045,87736.1,25.119,14236,129914,83040.4
77166.9,40192,125826,98323,52320,123159,147173,67021,143912,94465.8,59299,104402,25.226,14293,147173,85341
73085.4,51050,93824.2,143134,83150,112813,197797,116057,111694,96189.4,72104,87427.4,25.423,14386,197797,83926
92458.8,51572,117494,149873,79896,122935,196375,108318,118813,98374.5,62518,103123,26.14,14769,196375,86199.2
83679.3,52205,105048,81531.8,46780,114221,131340,80064,107507,90348.6,58985,100383,27.258,15395,131340,82205.5
142811,58965,158726,186829,89953,136115,161284,76953,137356,103834,73615,92438.9,27.284,15424,161284,93834.8
70789.5,48957,94761.9,121818,77029,103642,189824,108296,114873,107828,66655,106018,27.703,15644,189824,96058.8
80339.4,50817,103609,44480,23514,123970,70252,42160,109204,88644.5,58573,99182.3,27.881,15748,70252,84288.8
57437.1,44199,85164.8,77923.4,52405,97448.5,137322,94714,95018.2,96014.2,64790,97119.8,28.081,15856,137322,87500.3
77695.2,53952,94377.1,71756,40251,116832,102895,55286,121971,95053.8,64351,96804.1,28.125,15882,102895,88674.3
75066.3,49436,99513.4,32480.1,18665,114043,78275.1,49338,103973,90461.2,68030,87144.9,28.159,15897,78275.1,85608.1
58302.9,36312,105225,108515,65173,109119,217908,127407,112088,96346.5,72969,86532.1,28.201,15928,217908,82836.2
58950.9,38483,100393,93588.7,65639,93441.8,163183,105288,101573,96315.9,69242,91160.8,28.452,16041,163183,86198.5
49425.3,37470,86446.1,65740,35454,121519,127765,68389,122435,99875.7,76317,85766.6,28.869,16262,127765,91954.3
47818.8,35558,88133.5,34520.6,25546,88559.7,71361.2,49056,95334.5,86324.6,66794,84698.7,29.037,16357,71361.2,81900.2
64129.5,39355,106792,152525,88841,112514,204811,120548,111346,97810.1,71640,89476.3,29.408,16590,204811,85111.9
72866.7,46888,101847,66590.7,38397,113657,98139.6,55399,116097,101612,66123,100710,29.808,16803,98139.6,95527.1
51640.2,35387,95636.6,50741.9,30227,110015,80091.8,50826,103272,89529.9,63492,92412.1,29.85,16834,80091.8,84564.2
87747.3,55123,104323,51678.8,28816,117533,85227.9,47713,117064,89860.7,61108,96372.2,30.264,17041,85227.9,84576.6
61534.8,40449,99699.5,83302.7,53751,101567,129120,81995,103201,90105.4,67013,88119.4,30.307,17057,129120,82099.9
70164.9,48934,93970,98798.4,52780,122676,131748,66901,129060,92961.8,73118,83322.1,30.568,17229,131748,84793.4
77056.2,46662,108224,103012,50637,133321,137927,83362,108433,103419,82072,82581.8,30.606,17259,137927,94867.3
115390,50539,149631,133320,67628,129196,200555,94396,139238,99486.5,63695,102362,30.623,17275,200555,87052.1
117821,47839,161406,102382,35030,191541,143605,62054,151663,90527.9,60903,97414.5,30.626,17279,143605,81624.4
72130.5,43999,107438,108341,64197,110601,153680,99171,101558,94239.2,72339,85376.6,30.708,17322,153680,84711.1
71451,49328,94928.1,37288.1,22769,107326,70360.4,49153,93812,86830.5,66180,85985.6,31.197,17595,70360.4,82468.2
91613.7,49076,122341,80383.7,38091,138301,127362,65628,127183,92243.2,69937,86438.5,31.269,17639,127362,84346.8
69246.9,41468,109438,79784.6,44961,116296,114765,69447,108302,89457.6,61176,95833.2,31.28,17646,114765,82342.2
57720.6,37595,100619,103890,68815,98939.7,147610,87813,110163,94260.1,68101,90709.8,31.343,17686,147610,85108.3
101005,57246,115632,179783,79889,147483,130421,65284,130924,99642.1,71050,91909.2,32.119,18124,130421,91556.1
66228.3,43110,100681,109503,71380,100538,151638,92645,107267,93547,67697,90560.8,32.152,18141,151638,84145.5
55442.7,30096,120730,33233.5,14838,146785,107979,65172,108582,101039,79440,83354.7,32.928,18535,107979,94344.4
51569.1,31250,108148,121726,78297,101887,191828,108058,116342,98032.5,66396,96762.8,33.164,18661,191828,86139.2
74928.6,45159,108738,142287,77548,120247,174017,92215,123672,95782.1,60802,103240,33.333,18746,174017,84993.1
60485.4,44159,89765.9,109570,72483,99068,159272,106558,97956.4,96147.7,68890,91466.6,33.482,18819,159272,86272.8
74299.5,40613,119895,141998,74272,125296,176969,83489,138915,94679.9,63341,97960.9,33.527,18847,176969,83707.8
61854.3,41379,97964.8,121872,75168,106256,187100,102670,119429,93880.6,63860,96344.5,33.822,18992,187100,82280.4
61794,43120,93917.7,102383,66222,101323,148641,101451,96020.1,95355.4,76806,81363.6,34.211,19179,148641,86139.6
81180.9,45563,116767,100245,55249,118910,166133,100998,107801,93306.5,71551,85462.6,34.401,19267,166133,83006.3
117693,59785,129014,153653,67199,149851,241132,98765,160004,104028,68203,99959.7,34.5,19318,241132,89077.4
101458,59923,110961,130796,75060,114200,173993,101317,112546,99011.1,69745,93035.9,34.775,19456,173993,88223.5
66449.7,42256,103059,110224,66835,108082,148569,90499,107588,94852.2,70950,87614.3,35.174,19670,148569,85640.9
67735.8,44196,100442,103114,62414,108272,152094,99336,100342,95747.4,77690,80768.4,35.255,19702,152094,86317.6
56165.4,41144,89462.8,58163.2,40168,94896,93120.3,71729,85080.4,91538.4,72906,82284.9,35.358,19773,93120.3,85765
101046,55504,119309,138479,63953,141906,193150,86138,146954,100131,73112,89755.6,35.792,20007,193150,88156.1
94807.8,55800,111350,164201,89622,120072,210899,110202,125420,100967,67065,98664.9,35.915,20091,210899,87891.1
83900.7,51430,106913,99733.9,57507,113659,171103,99949,112192,103925,76902,88564.8,36.079,20178,171103,93316.3
59699.7,38333,102066,66204.3,41121,105512,98555.2,63472,101760,91072.8,69912,85372.3,36.265,20288,98555.2,84962.4
72213.3,48611,97356,98439.8,60927,105887,142642,98685,94727.4,95761.3,73495,85391,36.275,20293,142642,86917.5
70901.1,47479,97865.9,84350.8,53559,103213,127396,83867,99551,95352.6,74565,83806.5,36.482,20407,127396,87454
86472,52381,108189,99272.4,53329,121996,138149,74426,121648,91617.7,58564,102525,37.265,20859,138149,83052.4
60900.3,36468,109443,110702,71762,101098,156977,98069,104902,92884,67919,89625.1,38.186,21338,156977,83151.4
62925.3,34848,118339,132033,86960,99504.8,214541,125490,112042,98360.6,66795,96506.6,38.362,21423,214541,85059
95050.8,56913,109452,158862,80514,129309,195484,103472,123814,98867.9,75564,85747.3,39.159,21833,195484,86747.9
72882,50539,94509.1,134587,76565,115200,165076,95375,113431,96479.9,60608,104325,39.346,21936,165076,86245.2
63443.7,38830,107078,141220,88588,104472,179457,108356,108540,96125.4,69442,90718.5,40.079,22313,179457,84999.1
62015.4,52692,77132,109475,71176,100800,148230,98551,98572.1,92133.4,71314,84668.5,40.168,22355,148230,82943.1
85774.5,47296,118854,100776,58326,113234,181667,98928,120348,99248.8,74666,87112.9,40.317,22427,181667,87985.4
91027.8,44994,132587,89592.4,62486,93965.5,148029,94946,102177,94208.6,69199,89221.8,40.331,22444,148029,85030.8
85509.9,51325,109186,112690,68091,108462,145648,83244,114665,92583.7,61232,99091.4,41.003,22814,145648,83553.5
69327,49900,91050.4,132012,76935,112453,179457,101504,115867,99889.6,71595,91436,41.044,22839,179457,88763.2
81851.4,43203,124163,200225,102589,127908,258407,132852,127472,102646,65428,102815,41.339,22979,258407,86624.7
144110,54056,174715,199539,77591,168537,211611,101425,136733,97430.7,62112,102802,41.517,23090,211611,84310.8
59247.9,32012,121294,126140,78022,105953,230226,135537,111321,96058.7,68369,92078.4,41.606,23144,230226,81784.7
80643.6,43220,122283,53612.3,25721,136602,85194.5,50549,110453,89285.3,62890,93041.8,41.738,23218,85194.5,84003.2
60714,40553,98117.3,145051,95351,99695.2,182212,110741,107832,98000.6,66997,95863.5,41.912,23324,182212,86703.4
63768.6,46262,90336.3,100439,68833,95627.8,152971,99744,100508,91605.2,67358,89127.3,42.238,23515,152971,82121
107879,57444,123076,114194,65203,114777,185982,91683,132942,94938.4,60275,103225,42.271,23534,185982,83407.5
74177.1,48629,99966.5,129655,76466,111122,147981,96987,99993.5,91813.7,69924,86052,42.31,23552,147981,82638.9
73521,44264,108853,109795,59300,121341,165079,71603,151092,93238.4,64200,95178.7,42.326,23565,165079,83003.5
65299.5,44470,96232.7,49472.9,33760,96038.4,81337.2,52288,101945,88833.5,71215,81749.5,42.41,23614,81337.2,83790.6
110751,47763,151963,173568,71280,159581,195911,69384,185046,102597,65995,101884,42.832,23844,195911,90450.8
84661.2,48502,114394,133605,79001,110834,192250,100835,124949,97868.5,63240,101422,42.964,23918,192250,85949
71175.6,39529,118004,109219,64048,111757,156276,85652,119574,94718.8,68823,90195,43.069,23977,156276,85029.6
64861.2,40520,104905,97348.6,53354,119576,150000,82107,119727,94084.9,64343,95829.4,43.394,24171,150000,84784.9
60507.9,37225,106526,104963,70985,96905.8,145921,90152,106077,94394.9,66054,93654.6,43.686,24322,145921,85347.8
70488.9,41164,112223,139125,79452,114757,233292,124266,123035,96555,68619,92216.8,43.779,24376,233292,82090.9
95506.2,60363,103691,163151,91838,116425,238500,129746,120469,97842.1,71424,89776.3,44.066,24523,238500,83055.1
74811.6,46477,105490,131577,80925,106556,145825,91236,104748,95483.3,70862,88306.7,44.069,24525,145825,86442.1
96015.6,51116,123102,104057,43709,156020,133243,62534,139639,96642.5,70694,89591.3,44.21,24608,133243,88381.5
73366.2,50998,94280.7,73045.9,45256,105779,126551,82183,100917,93816.7,64953,94658.7,44.305,24665,126551,85970.5
45830.7,31421,95590.9,48855.7,30387,105368,90676.6,53219,111663,98740,66722,96984.9,44.404,24729,90676.6,93118.1
70152.3,48644,94513.2,101220,51422,129002,143178,73285,128039,94920.3,69567,89420.2,44.541,24799,143178,86043.3
62785.8,41208,99852.7,45104.1,30212,97840,102166,62435,107241,103734,64583,105265,44.845,24959,102166,97400
50960.7,38530,86679.5,52874.2,36588,94707.7,71312.6,53424,87480.2,86605.3,70665,80319.4,44.908,24993,71312.6,82184
59778,38373,102093,110676,74805,96962.2,157551,97349,106064,93035.5,63471,96062.3,45.453,25295,157551,83267.3
85260.6,53725,104004,75660.5,42895,115596,122798,66743,120577,91505.1,59084,101497,45.839,25483,122798,83891.6
58432.5,40606,94307.1,130575,78208,109418,197932,121675,106609,97858.8,69859,91803.1,45.842,25487,197932,85587
92832.3,49746,122298,142973,65296,143498,253746,112637,147638,109772,72180,99668.2,46.348,25725,253746,94040.2
86204.7,46022,122757,132229,49777,174092,143481,64242,146371,95067.7,64734,96245.5,46.421,25767,143481,86171.8
68819.4,40114,112433,110904,64782,112195,183587,101591,118431,94419.9,67270,91986.1,47.151,26169,183587,83037.5
87737.4,56319,102096,46772.1,26995,113549,86802.7,51041,111454,88598.6,60190,96467.8,47.73,26513,86802.7,83216.8
65512.8,44734,95977.3,83274.9,43071,126709,153260,78124,128565,91242.4,59130,101127,48.031,26680,153260,81740.3
70777.8,41352,112171,175813,76711,150201,197074,94238,137051,94614.5,62782,98764.9,48.099,26717,197074,82395.9
106861,57160,122520,101804,44427,150174,140785,61772,149363,99398.9,62121,104863,48.767,27059,140785,90670.2
85782.6,54136,103847,65842.9,39900,108147,110032,72184,99898.6,92650.4,75449,80477.4,49.857,27654,110032,85828.4
59183.1,41826,92732.4,51199.3,24131,139049,72063.2,42414,111348,100461,68212,96519.7,50.054,27766,72063.2,95992.9
67302.9,50650,87083.2,151529,93061,106711,199856,126064,103898,99294.6,74855,86933.1,50.422,27957,199856,86903.6
65062.8,36410,117109,134812,87830,100592,166590,106762,102262,107810,67350,104906,50.554,28038,166590,97481.2
79560,49144,106097,83373.6,43456,125736,130843,77680,110388,92075,73722,81851.1,50.737,28128,130843,83962.7
70590.6,42988,107617,90541.8,59213,100210,133596,84902,103123,90893.5,66012,90238.1,51.304,28461,133596,82610.6
44007.3,36599,78801.7,32698.4,25047,85555.9,78336.2,53202,96497.2,92906.2,77172,78897.8,51.416,28527,78336.2,88049.4
91977.3,46338,130084,84389.7,40543,136412,130386,60950,140197,92439.2,66517,91075.9,52.927,29341,130386,84355.2
56196.9,41912,87872.7,35411.6,26080,88985.3,62158,44493,91555.7,85489.2,69798,80269,53.535,29663,62158,81635.4
88226.1,61197,94481.5,132197,76674,112994,180957,102387,115827,94966.2,72811,85477.5,53.59,29694,180957,83746.8
92216.7,54231,111440,175927,93420,123416,220346,104732,137881,100592,63538,103755,53.922,29884,220346,86930.1
65574,44555,96452.9,80244.7,54871,95841.5,121525,86678,91883.3,90373.6,73801,80252.7,53.926,29889,121525,82839.1
68157,54888,81379.1,148581,70449,138219,223889,110439,132859,109400,78786,91001.4,54.787,30345,223889,95518.8
79374.6,45222,115030,127159,71276,116918,204538,111812,119885,99992.4,66139,99080.8,55.375,30666,204538,87311
70037.1,51219,89614.2,62716.8,40196,102254,91634.4,56562,106173,99747.8,66385,98472.1,55.506,30739,91634.4,94066.5
77774.4,44244,115203,94560.3,45952,134860,145602,80049,119205,93174.5,70099,87109.4,55.592,30789,145602,84147.1
80521.2,53121,99339.9,131662,76486,112813,154739,99241,102185,93894.5,64765,95012.3,56.122,31075,154739,84300.7
101876,49565,134703,101717,51168,130280,123882,67867,119627,101217,70032,94719,56.188,31113,123882,93536.3
66070.8,40429,107102,87098.8,47558,120024,157306,79292,130016,100516,79596,82761,56.726,31389,157306,90763.5
74007,38232,126860,116560,60257,126771,180005,92793,127130,95028.7,67183,92699.1,56.745,31393,180005,83868.4
78054.3,51176,99956.4,149689,83987,116804,200366,117822,111449,95704.3,68051,92167.3,56.974,31532,200366,83281.6
55348.2,36392,99673,139325,84058,108625,200071,133538,98188.2,95091.3,74776,83341,57.25,31679,200071,82686.9
45047.7,29063,101581,52252.9,29611,115648,102134,69957,95679.9,90023.4,74623,79061,57.347,31726,102134,83691
77652,49705,102384,121339,73688,107915,147669,94902,101975,92726.9,61426,98931.2,57.583,31857,147669,83571.4
62079.3,37140,109543,96748.2,61890,102448,125846,70974,116204,99549,68258,95579.2,57.655,31893,125846,91746.5
87366.6,46869,122163,132021,69220,124994,180797,118147,100288,93150.9,71140,85813,57.748,31936,180797,81941.4
62323.2,34625,117961,117359,73226,105034,170814,100480,111410,95005.1,65659,94827.1,57.992,32070,170814,84414.6
64253.7,42215,99749.6,87411.5,54225,105645,125916,84469,97693,94424.1,76411,80985.4,58.052,32096,125916,86617.3
49813.2,37882,86177,41037,28645,93887.2,98464.8,60720,106275,93848.6,66062,93101.4,58.127,32148,98464.8,87743.8
48335.4,30822,102774,84136.7,59656,92429.6,146157,97541,98200.3,92219.5,68335,88442.2,58.838,32478,146157,83157.8
78713.1,50376,102401,73407.3,43696,110098,139808,82301,111328,92297.4,61609,98180.5,59.144,32657,139808,83629.3
132687,68926,126161,142753,63348,147684,244739,108187,148254,101698,65518,101726,59.454,32816,244739,86524.2
56326.5,37043,99652.1,137076,92075,97566.4,193109,113553,111451,93857,62912,97771.7,59.493,32837,193109,81884.2
88723.8,52289,111201,141295,79005,117207,183608,97966,122828,97091.5,67150,94757.8,59.5,32839,183608,85707.8
75207.6,43815,112491,136580,64737,138266,216789,109577,129657,101022,75230,88004.9,59.772,33002,216789,87581.5
80332.2,43134,122053,156186,89574,114272,192764,103388,122190,100382,66257,99289.3,60.075,33151,192764,88430.3
63956.7,43540,96267,96456.3,62826,100617,158093,102326,101253,94707.6,71321,87025.7,60.269,33273,158093,84905.9
79514.1,41909,124342,138598,69978,129800,205613,106102,127001,95266.4,62159,100442,60.393,33314,205613,82518.4
108712,64245,110896,116314,62346,122265,169830,96524,115308,94349,68968,89654,60.732,33502,169830,83819.6
76581.9,53456,93887.9,83744.7,49198,111555,136933,78631,114129,96021.2,71863,87567.2,60.912,33614,136933,87531.3
81756.9,42524,126000,123970,64856,125270,165210,89001,121652,96042,65941,95452.2,61.062,33694,165210,85799
62287.2,35345,115492,43284.6,23836,119009,80757.6,43850,120696,91805.3,57345,104919,61.185,33759,80757.6,86798.4
71082,42276,110191,113576,63194,117785,172053,101487,111104,96498,67122,94217.9,61.916,34172,172053,85830.7
53777.7,42303,83312.6,29070.5,19657,96920.3,63186.6,45733,90547.3,85838.1,71963,78171.9,62.018,34224,63186.6,81920.5
61261.2,34611,115998,50258.2,25374,129807,100086,52635,124617,93145.3,58145,104985,62.065,34251,100086,86940
64742.4,47388,89536.5,84150.6,52122,105807,137175,88498,101583,92767.2,62985,96524.4,62.087,34260,137175,84262.4
83655.9,51368,106729,172189,97731,115466,218693,118238,121215,100537,64855,101593,62.291,34382,218693,86978.4
53536.5,41194,85171.8,50465.3,39040,84715.6,95755.7,65990,95096.9,97660,72333,88483.1,62.623,34556,95755.7,91723.2
59098.5,44780,86491.3,122666,78324,102638,167930,116238,94680.4,93394.1,70927,86295.4,62.638,34565,167930,82982.4
59038.2,40091,96508.6,87689.5,57939,99187.5,119892,82682,95029.4,96988.6,75808,83846.7,62.758,34630,119892,89555.4
75818.7,47119,105453,62388.8,38927,105035,123260,80258,100650,91388.3,73208,81811.1,63.358,34980,123260,83746.2
62938.8,39718,103851,65663.6,35611,120843,114255,60682,123395,91872,60267,99904.2,63.39,34994,114255,84788.2
64868.4,38295,111012,104053,60569,112586,170472,104328,107086,93402.4,65883,92910.5,64.317,35501,170472,82833.1
69412.5,41567,109438,153691,88719,113530,185851,118593,102704,98474.5,75242,85771.6,64.322,35507,185851,86951.8
61963.2,42893,94673.3,117308,78212,98295.3,174608,111235,102873,98042.3,71477,89893.2,64.465,35573,174608,87216.6
74476.8,38584,126501,83388.9,39732,137546,142930,76173,122970,90769.8,67863,87657.3,64.676,35681,142930,81908.1
75661.2,49968,99234.2,120193,61387,128317,152094,88238,112963,98417.6,75305,85650.3,64.684,35684,152094,88987.8
64977.3,42806,99480.3,52393.3,27967,122775,76472.2,45532,110070,87034.9,64907,87878.3,64.837,35781,76472.2,82293.6
64197.9,48202,87284.2,96229.7,60980,103419,155524,105663,96461.8,92396.1,69101,87629.3,65.097,35933,155524,82753.6
140969,53202,173650,128045,44846,187120,174958,64871,176751,94444.9,61760,100219,65.175,35973,174958,83597.5
72532.8,47613,99836.4,119309,68825,113608,173858,107111,106376,98015.9,72890,88126.9,65.593,36220,173858,87236.6
59628.6,34147,114441,109966,67868,106187,188487,102551,120454,96517.4,66469,95162.7,66.277,36590,188487,84831.2
61982.1,38620,105180,97996.4,63123,101742,143677,93780,100406,95244.2,68876,90625.5,66.42,36672,143677,86336.2
59963.4,46470,84565.5,105223,67599,102012,143252,88358,106251,92546.2,63056,96186,66.552,36734,143252,83664.6
63310.5,42205,98308.7,56557.7,34215,108332,107712,65508,107759,98011.7,66140,97116.6,66.571,36740,107712,91333.5
105869,51034,135953,108558,51765,137437,163433,80095,133726,94408.8,67419,91772,66.94,36934,163433,84275.9
104597,60871,112613,75686.9,33306,148929,142091,62426,149170,95657,69155,90651.1,67.344,37161,142091,86847.4
66936.6,47283,92776.6,138990,88642,102760,204260,129637,103261,100535,68851,95694.1,67.395,37193,204260,87870.4
63981,39213,106930,166459,91528,119189,190511,113675,109833,100573,70032,94116.7,67.5,37241,190511,88761.8
59667.3,35858,109051,65893,39390,109631,114715,76736,97972.1,92011,65340,92287.1,67.533,37257,114715,84898.7
73531.8,38451,125328,46763.8,28514,107481,83584.9,53656,102091,87205.8,60086,95115.7,67.75,37383,83584.9,82023.6
60755.4,43171,92230.1,103480,61334,110569,123657,78846,102783,94746.6,71793,86489.1,67.902,37465,123657,87079.8
64488.6,48250,87592.2,127442,82308,101473,160537,93634,112362,98368.9,66306,97226.6,67.992,37511,160537,88415.6
57372.3,42231,89033,83705.8,59508,92185,144666,99496,95288.3,92129.2,73667,81960.4,68.375,37726,144666,83159.9
71926.2,54123,87093.4,114966,56188,134092,178191,101974,114519,101738,77239,86323.2,68.412,37739,178191,90690.4
64966.5,37568,113332,146206,85151,112526,194824,110897,115134,99337.7,71274,91340.4,68.416,37742,194824,87258.7
70837.2,46435,99976,110627,71509,101387,194885,125016,102163,98666.4,68377,94566.9,68.804,37964,194885,86583.5
66846.6,40336,108609,76197,42212,118299,118953,66426,117360,91203.5,69222,86347,68.985,38044,118953,83828.4
66662.1,44910,97278.3,100052,67074,97758,127944,86098,97388.2,90963,69639,85603.6,68.997,38052,127944,83030.5
74342.7,52251,93244.6,149943,91268,107669,209633,133876,102621,96953.9,65040,97693.3,69.179,38141,209633,83956.7
65586.6,48353,88893.8,101735,62128,107316,145037,85766,110826,92770,66463,91476.1,69.431,38274,145037,83777.7
76985.1,49053,102854,91698.3,55486,108307,149738,92025,106636,91639.9,66940,89717.9,69.779,38458,149738,82356.2
72672.3,52293,91076.3,75534,34778,142337,139744,66840,137017,99875.7,62425,104853,70.14,38655,139744,91211.6
95521.5,43253,144732,144219,58913,160433,208407,85186,160333,97272.2,66940,95232,70.219,38698,208407,84351
71431.2,42599,109893,120284,53094,148471,139688,77781,117697,93818,68677,89527.2,70.473,38848,139688,85157.4
71993.7,48249,97788.1,134122,55749,157668,169719,66086,168307,95947.5,66783,94156,70.476,38850,169719,85425
65424.6,49699,86272.7,36607,26322,91143.5,72330,49995,94813.9,90571,67748,87613.8,70.601,38925,72330,86086.5
67313.7,45822,96274.1,69369.3,42592,106738,106616,62029,112644,96306.1,61681,102325,70.89,39084,106616,89696
71341.2,50258,93028.3,141209,89511,103387,204490,125599,106700,103303,70137,96526.7,70.984,39136,204490,90625
118931,59151,131769,96164.4,44549,141467,147678,68716,140844,94692.4,68605,90456.4,71.742,39538,147678,85536.3
67570.2,45298,97758.9,68919,35122,128600,89304.7,60241,97154.3,91606.6,71844,83563.4,72.016,39669,89304.7,86069.7
60984.9,37290,107179,112222,69081,106463,168936,93148,118858,98605.2,69887,92466.3,72.203,39798,168936,88131.2
75690.9,49909,99390.5,115328,65915,114665,152701,93401,107145,95569.4,74173,84441,72.327,39843,152701,86102
56116.8,33730,109033,79362,51724,100554,142068,95707,97281.8,97006.7,73265,86773.1,72.38,39882,142068,88198.5
59848.2,38404,102130,59087.5,31464,123073,91253.5,53699,111369,89236.6,72100,81112.5,72.447,39924,91253.5,83578.9
68239.8,40329,110892,152650,109253,91567.8,224051,144538,101589,96638.4,71097,89079.6,72.651,40000,224051,82747.2
76483.8,42163,118882,126027,70127,117777,194052,117201,108509,99777,71874,90978.4,72.716,40038,194052,87745.7
80955.9,49877,106372,104417,58581,116814,154936,96581,105134,92422.5,66261,91411.2,73.099,40247,154936,82816.4
123727,47116,172098,132425,68531,126638,204552,95975,139677,101224,67487,98297.7,73.115,40260,204552,88541.7
80125.2,46176,113719,109867,62452,115292,164576,93980,114765,97020.6,68571,92726.4,73.223,40320,164576,86816.9
56923.2,36513,102170,77463.3,46687,108738,111945,69720,105227,92279.3,77277,78259,73.319,40375,111945,85338.7
62282.7,43920,92936.2,94442.2,60084,103012,118246,78723,98438.4,93359.4,72988,83827.5,74.189,40810,118246,86028.1
52656.3,32541,106047,81801.5,57549,93154.4,123839,93372,86920.4,90091.5,66985,88142.6,74.405,40925,123839,82413.4
53472.6,41267,84919.7,34481.7,26226,86166.2,68581.2,52468,85662.5,89413.1,71944,81449.2,74.723,41101,68581.2,85161.1
61631.1,37880,106628,75709.1,44913,110473,88395.7,57129,101404,93870.9,64850,94863.9,74.756,41123,88395.7,88390.3
79321.5,54347,95652.3,143818,89262,105591,195431,117875,108656,98703.9,69783,92696.8,75.006,41249,195431,86587.2
69327.9,46921,96832.4,125207,81412,100791,177364,101838,114139,94103,64906,95016.4,75.289,41389,177364,83106.4
57363.3,34514,108923,46213.3,23146,130849,78143,45724,112002,93786.1,64655,95064,75.429,41460,78143,88941.2
61434.9,40479,99463.9,101849,71814,92945.8,140553,93780,98222,93330.2,71598,85428.2,76.163,41836,140553,84615.9
71307,43567,107264,99412.8,53626,121492,197098,113995,113312,95187.2,64745,96350.1,76.358,41960,197098,82967.1
89615.7,62825,93482.8,110124,72638,99357,162409,108281,98296.4,97836.5,79428,80724.9,77.112,42383,162409,87767.2
109614,51456,139607,97038.7,40526,156925,154383,62787,161142,93818,64027,96029.2,77.39,42521,154383,84246.3
61371.9,47394,84864.5,89775.9,55919,105216,126774,80342,103411,92642.1,66402,91433.9,77.541,42608,126774,84782.1
60141.6,46737,84332.3,81844.6,55068,97402.6,130987,84240,101903,94948.1,72580,85733.3,77.995,42842,130987,86826.9
53807.4,30851,114302,112685,70475,104787,193616,111409,113894,93890.3,66368,92713.3,77.996,42843,193616,81886.1
71207.1,47027,99233,100689,67049,98416.7,154225,93840,107707,93017.4,63957,95313.9,78.215,42960,154225,83455.5
60270.3,34167,115605,112701,73605,100346,160402,93438,112503,95679.3,71982,87111.2,78.405,43066,160402,85734.3
97406.1,51211,124653,99022.2,52647,123265,168305,81969,134564,92579.6,62396,97238.5,78.726,43236,168305,82144.6
91817.1,45367,132637,136619,62164,144030,170244,68949,161817,97597.5,65678,97386.5,78.926,43346,170244,87042.3
67869.9,44380,100224,98449.5,50377,128074,148185,70567,137620,97184.6,62929,101211,78.953,43367,148185,87997.2
110287,45994,157146,149464,51856,188894,172078,62854,179420,93481.7,61311,99923.6,79.286,43540,172078,82812.8
62199.9,36540,111558,147309,89090,108363,180343,105776,111736,100658,69394,95062.1,79.494,43641,180343,89477
62349.3,29088,140475,112117,44052,166797,169424,83270,133342,93626.2,65961,93023,79.573,43687,169424,83121.9
71882.1,41009,114874,147068,82509,116814,208040,112636,121046,98931.9,62779,103277,80.812,44346,208040,86033.4
73767.6,47428,101932,109903,62119,115949,175490,99496,115592,109843,68534,105038,80.913,44395,175490,98963
79679.7,52780,98936.9,123439,72625,111390,149387,77280,126686,106302,68803,101254,81.011,44444,149387,97039.6
101345,48816,136057,132424,46613,186183,140351,57593,159708,104124,73548,92780.8,81.243,44564,140351,95421.7
73374.3,46896,102539,61722.9,34933,115795,114715,86275,87139.8,92546.2,77184,78579.9,82.215,45085,114715,85433.8
93742.2,53591,114637,141994,79803,116609,243595,131924,121011,99850.6,66416,98527.6,82.598,45268,243595,84747.8
90873,49004,121530,104346,53563,127670,149964,81219,121007,93517.8,68339,89682.1,83.008,45458,149964,84220
60018.3,38228,102892,119799,80463,97574.2,203243,128932,103308,99726.9,70675,92475.5,83.126,45515,203243,87125.9
64557,33248,127250,63534.1,26308,158270,89071.2,51331,113720,93594.3,75264,81497,83.138,45527,89071.2,88071.8
66288.6,46971,92488.8,115320,72139,104765,175845,109795,104961,99234.9,71399,91086.1,83.263,45589,175845,88332.5
97303.5,53288,119668,133883,61170,143439,223484,101327,144545,100116,67958,96548,83.422,45675,223484,86260.1
61249.5,37176,107974,151873,94987,104784,209005,120243,113914,98581.6,65469,98682.5,83.537,45728,209005,85623.3
45771.3,26087,114987,89709.2,57664,101956,138718,91834,98994,90571,66751,88922.4,83.921,45943,138718,81970.5
91962,52035,115822,104598,45895,149361,157897,65054,159067,101057,64893,102059,83.968,45965,157897,91267.6
54449.1,33318,107101,106435,57799,120683,174948,106687,107468,94836.9,70225,88504.6,84.023,45999,174948,83990.1
61348.5,36719,109495,125271,67855,120990,184895,92221,131394,96600.8,66066,95825.9,84.133,46055,184895,85137.3
56693.7,41109,90381.1,82674.4,53136,101968,156877,97316,105646,106737,78187,89466.2,84.575,46281,156877,97010.4
60349.5,38722,102140,127246,77076,108195,205856,120557,111906,98659.4,68381,94554.7,85.08,46567,205856,85896.3
67385.7,36811,119969,103933,64568,105491,156356,89406,114611,91877.6,60553,99438.4,85.1,46579,156356,82183.6
64902.6,38707,109889,74191.2,40685,119508,94891.1,55002,113065,92373.8,65943,91803.7,85.374,46716,94891.1,86490.6
56025,36282,101198,79925,53586,97748.8,108014,68115,103924,93808.3,68389,89894.9,85.438,46751,108014,87111.4
69006.6,41414,109200,101121,53634,123561,139509,71810,127320,95019,68640,90722.1,85.513,46777,139509,86369.5
85970.7,56985,98871.2,157258,93628,110074,231339,142567,106343,97907.4,67200,95483.1,85.868,46956,231339,83564.4
76932.9,46050,109487,71767.1,43633,107793,95082.9,60561,102894,92237.6,67030,90181.8,86.256,47161,95082.9,86342.5
79308,51842,100257,57462.6,34649,108686,87964.8,57797,99743.2,87988.4,61569,93657.6,86.461,47276,87964.8,82534.6
70040.7,45848,100118,60893.1,30090,132625,103922,61803,110199,91885.9,62384,96528.6,86.83,47452,103922,85442.8
68586.3,43414,103535,122697,79227,101494,160602,94553,111315,96201.9,66636,94613.8,87.136,47609,160602,86244.6
67536,51540,85875.8,45091.6,25710,114941,89371.4,50348,116331,98918,61667,105124,87.164,47625,89371.4,93376.9
81720,52212,102574,99524,57508,113417,238670,129879,120431,107828,70065,100858,87.17,47628,238670,93030.3
59650.2,40886,95613.1,67504,41988,105362,104073,60630,112495,89571.6,57029,102933,87.302,47705,104073,83119
60114.6,37669,104587,125246,81103,101206,166569,99894,109279,97277.8,69690,91479.4,87.324,47718,166569,86950.5
57265.2,45478,82521.9,118792,70532,110378,184131,102902,117269,99896.5,67831,96516.6,87.551,47820,184131,88480.4
40898.7,32993,81239.6,38728.2,23166,109561,76267.9,45203,110574,91270.2,60391,99045.9,87.757,47953,76267.9,86541.6
63883.8,38874,107699,158054,93567,110704,232352,122831,123971,99137.6,69634,93303.3,87.989,48068,232352,84731.7
62460,42189,97024.8,65242.4,32333,132240,87931.4,54508,105722,90404.2,69349,85433.5,88.002,48074,87931.4,84952.5
86592.6,58623,96803.9,185423,94538,128540,185154,112258,108092,96206.1,65126,96811.7,88.252,48197,185154,84726.5
53775,38032,92664,41100.9,31673,85043.7,70474.4,54389,84918.1,85991,74310,75837.8,88.259,48200,70474.4,81621.5
70165.8,45032,102114,148127,83474,116295,239889,135877,115703,102699,65993,101988,88.331,48234,239889,87825.6
74273.4,47231,103059,155395,89757,113462,212790,121785,114508,96368.7,68577,92095.3,88.637,48391,212790,83175.7
61878.6,47137,86031.7,134387,80569,109312,210728,128689,107315,101501,76312,87167.7,88.804,48482,210728,88435.4
65869.2,46107,93625.8,112680,69349,106485,153602,82323,122280,91831.7,64079,93919.8,88.886,48522,153602,82308.4
61591.5,39988,100942,75375.5,47053,104984,96049,55780,112848,91904,62237,96775.6,89.371,48767,96049,85949
88933.5,50880,114551,87900.8,44194,130350,123105,58627,137613,91159,65757,90852.6,89.435,48813,123105,83526.4
63938.7,41524,100912,93512.2,54544,112357,144200,77669,121674,104730,65351,105026,89.512,48864,144200,95789.1
95371.2,53367,117118,87414.3,31461,182092,136741,60107,149092,90466.8,60496,98003.7,89.589,48904,136741,81988.8
68908.5,43965,102718,90558.5,56533,104980,122217,78041,102634,91182.6,68469,87276.6,89.696,48963,122217,83605.1
80114.4,49842,105340,150205,84511,116480,180733,107780,109896,93387.1,76744,79748.5,90.04,49141,180733,82181.7
58014.9,45047,84402.2,133072,83416,104548,216223,129693,109261,96524.4,66906,94547.9,90.213,49221,216223,83118.6
64953,39979,106475,93945.9,57345,107365,136428,76401,117027,95208,70284,88776.3,90.746,49493,136428,86749.5
73591.2,44767,107733,60270.4,35501,111261,92250.1,48961,123480,87978.7,65430,88121.2,91.311,49760,92250.1,82259.1
62709.3,39520,103991,115082,75047,100497,158603,90976,114252,93206.4,67172,90936.4,91.96,50061,158603,83373
70327.8,36966,124682,79851.3,37433,139800,119223,59181,132026,95454.1,67304,92946.6,93.035,50608,119223,88062.2
56503.8,43234,85650.9,56436.8,31665,116805,100006,53518,122464,90525.1,63283,93748,93.612,50898,100006,84324.8
59883.3,39496,99364.8,121839,78629,101551,163312,100598,106392,92261.2,62844,96213.4,93.714,50942,163312,82135.9
70913.7,45940,101162,98211.8,61357,104901,164305,88858,121181,92517,65899,92007.4,93.73,50952,164305,82330.1
73239.3,49076,97803.6,71833.8,42609,110486,132307,77636,111686,93064.7,65531,93071.8,94.465,51323,132307,84861.6
86659.2,50411,112660,102474,57950,115888,153688,82349,122310,94653.4,61037,101630,94.695,51448,153688,85124.8
65400.3,41514,103244,99268.2,62975,103305,146531,90019,106678,94053,69931,88141.9,95.103,51637,146531,84968
83638.8,52162,105083,126172,66123,125052,172138,87960,128254,95982.3,66423,94700.6,95.23,51704,172138,85309.8
79290.9,54541,95275.3,101213,59564,111361,162647,92083,115757,105480,72757,95011.4,95.421,51807,162647,95396.1
87749.1,56863,101133,131433,75241,114480,193139,127830,99018.7,93972.3,75726,81327,95.622,51905,193139,81997.7
73010.7,52131,91784.7,115463,76697,98660.8,179427,115062,102196,105530,73470,94134,96.22,52214,179427,94405.7
62014.5,49189,82623.8,81619.4,53833,99363,136570,89521,99979.6,93376,65417,93545.9,96.295,52258,136570,84908.7
81132.3,48341,109991,93743,54595,112529,122951,64825,124300,92468.4,61985,97765.7,97.149,52678,122951,84845.4
77316.3,43722,115891,132952,78292,111290,224422,131138,112155,96671.7,70120,90351.9,97.347,52766,224422,82757.5
86889.6,39760,143219,148948,73355,133072,167448,90741,120936,101961,68170,98021.1,97.475,52821,167448,91578.9
97924.5,50262,127683,144301,82553,114556,213662,122015,114761,104757,71486,96038.1,97.691,52945,213662,91510.3
68998.5,40166,112580,163376,100598,106434,220408,133764,107986,105031,72025,95568.5,98.24,53236,220408,91365.9
62816.4,42985,95771.4,134220,83638,105170,210470,129517,106498,99827,71735,91200.4,99.218,53744,210470,86777.9
62901,44068,93543.6,74064.8,45562,106534,129641,79821,106440,99658.8,69857,93494.4,99.636,53968,129641,91621.1
90558.9,41732,142214,145090,58366,162913,154696,74385,136293,95978.1,66217,94991,99.841,54044,154696,86387
81943.2,44036,121951,120324,70893,111232,204839,89102,150662,96069.9,64868,97059.2,100.015,54121,204839,83369.9
63864.9,43403,96432.3,57404.2,33173,113407,88139.9,65149,88663.5,93687.4,75741,81064.4,100.129,54173,88139.9,88222.7
81844.2,54418,98565.6,55413.7,32172,112881,96635.6,52149,121443,90016.4,57271,103007,100.398,54313,96635.6,84025
98541.9,55997,115328,129986,72871,116902,190459,99161,125875,98681.7,68141,94909.1,100.607,54401,190459,86873.2
65826,45142,95564.5,109285,68213,104996,147786,91495,105856,98132.6,68980,93233.1,100.67,54436,147786,88969.9
62105.4,41753,97481.4,82992.7,55815,97447.1,120908,76832,103132,94190.6,66538,92772.1,100.983,54592,120908,86694.3
72939.6,51170,93417.4,123101,66197,121872,153969,83087,121445,103732,66558,102139,101.34,54780,153969,94185.5
80532.9,54659,96558.7,133882,77552,113138,197192,109979,117506,97010.9,67064,94800.6,101.395,54800,197192,84785
75299.4,49148,100407,114927,74125,101610,200627,118279,111163,97515.4,67421,94789.1,101.715,54957,200627,85076.6
82451.7,52137,103641,103502,63387,107011,132705,85832,101325,96370.1,66471,95014.5,102.116,55146,132705,88142.4
63811.8,40892,102269,122103,76012,105275,174872,106584,107525,99169.5,71331,91112.9,102.247,55218,174872,88327.5
74947.5,44417,110583,140637,71602,128723,113683,47855,155685,88982.2,70156,83122.5,102.435,55310,113683,81933.9
80146.8,37961,138366,113562,65357,113873,182775,100989,118611,103512,76925,88186.6,103.067,55628,182775,92179.8
60876,50719,78660.3,75588.2,44475,111383,98387,60218,107076,88462.4,62125,93319.5,103.109,55650,98387,82362.4
49401,30240,107062,103487,70315,96453.4,172478,106976,105664,98071.4,69036,93099.4,103.226,55701,172478,87377.8
53120.7,35447,98211.9,74861.2,52418,93595.8,137411,93186,96638.8,94855,67806,91679.5,103.574,55861,137411,86335.5
84421.8,51669,107079,124462,72036,113231,147865,76168,127225,97586.3,61392,104173,103.699,55926,147865,88418.7
79853.4,45394,115286,95545.8,55968,111880,145024,98995,96008,91603.8,71121,84410.3,103.817,55978,145024,82612.3
69386.4,36274,125360,120767,49791,158957,163381,89274,119938,91876.2,66586,90427.4,103.858,56013,163381,81746.6
60348.6,39890,99147.8,97733.7,57427,111534,129515,77317,109780,95798.8,70592,88937.4,103.894,56028,129515,87768.9
58575.6,40194,95507,63352,45542,91165.1,120253,80842,97485.3,89154.6,66846,87407.4,104.058,56115,120253,81698.9
62798.4,43384,94863.5,107672,65717,107376,175184,103969,110426,93755.5,74334,82658.8,104.901,56592,175184,82894.1
54216.9,38685,91848.5,66938.2,43211,101522,118144,77579,99804.2,93198.1,71907,84940.7,105.436,56860,118144,85873.2
91191.6,40951,145939,131493,53465,161180,180369,64863,182241,95422.1,61077,102389,105.572,56950,180369,84239.2
61534.8,41142,98020.1,117016,62896,121927,151984,84137,118383,92904.8,68752,88559,106.07,57199,151984,83481.8
73959.3,49099,98718.9,172421,89735,125924,225347,130034,113573,95712.6,74989,83647.2,106.334,57342,225347,81741.1
57622.5,39888,94673.8,122466,69053,116229,161335,96169,109944,95417.9,72179,86636.1,106.987,57656,161335,85415.2
60433.2,43385,91288.5,71193,49919,93465.5,134987,92740,95390.5,92154.2,67691,89220.4,107.713,58056,134987,83785
68310,42551,105209,166793,98311,111187,204237,109506,122230,97318.1,68144,93593.5,108.262,58282,204237,84655.4
101380,43241,153652,127300,66582,125300,217832,114535,124642,99472.6,74764,87194.8,108.806,58555,217832,85967
50176.8,36374,90404.9,82053.1,50251,107011,135939,84118,105910,91359.1,57575,103992,109.564,58947,135939,82930.9
75789.9,47518,104528,131707,77633,111184,148434,91253,106602,95819.6,74155,84682.6,110.306,59286,148434,86616.7
65973.6,45246,95558.6,159922,97715,107258,197034,115163,112126,100728,66248,99645.2,110.46,59364,197034,88511.6
55207.8,32776,110389,131103,85451,100549,183016,118923,100856,94365.7,63807,96922.8,111.012,59647,183016,83018.7
50652,38517,86183.5,47411.5,28578,108726,83363.9,57756,94593.4,88146.9,76315,75696.7,111.19,59728,83363.9,82978.3
88638.3,57338,101312,104816,56656,121244,160152,94304,111296,98043.6,69930,91883.1,111.523,59905,160152,88114.2
75292.2,45788,107765,119308,73507,106370,147511,88241,109555,96005.9,64756,97162.3,111.997,60128,147511,86860.2
85861.8,51799,108632,79968.1,43923,119318,131875,75205,114920,90779.5,67016,88774.7,112.175,60230,131875,82603.3
98220.6,41486,155160,95882.2,35665,176188,101727,41896,159127,98211.8,69865,92126.4,112.552,60420,101727,91904.8
57564.9,40126,94018.2,86635.9,59546,95351,155007,95315,106579,96670.3,69639,90974.7,112.808,60553,155007,87059.9
83641.5,42023,130441,99512.9,38237,170559,122695,52607,152850,91767.8,59777,100609,113.654,60974,122695,84160.7
71489.7,43445,107841,151024,86382,114578,254173,135799,122663,98557.9,66004,97859.1,113.756,61036,254173,82799.2
61772.4,39567,102315,122333,79859,100392,181975,112301,106196,99814.5,72889,89745.3,114.147,61211,181975,88532.1
