"FSC-A", "FSC-H", "FSC-W", "SSC-A", "SSC-H", "SSC-W", "FITC-A", "FITC-H", "FITC-W", "PE-A", "PE-H", "PE-W", "Time", "Event #", "Comp-FITC-A", "Comp-PE-A"
73159.2,54278,88333.4,38447.4,24965,100929,80675.6,50346,105016,93376,66865,91520.1,0.209,71,80675.6,88374.1
64507.5,44135,95787.1,32338.3,17087,124032,67627.7,38313,115680,97270.8,63276,100745,0.585,255,67627.7,93077.9
108035,66800,105991,56553.5,36286,102141,112384,71498,103013,92532.3,59710,101561,0.705,313,112384,85564.5
69335.1,44996,100986,83087.2,53472,101833,236458,159471,97174.7,105154,76394,90207.9,1.882,972,236458,90493.1
54124.2,44064,80498.5,96039.3,44315,142029,102732,44741,150481,98393.9,63472,101594,2.014,1051,102732,92024.5
71037.9,42376,109863,65934.6,30801,140291,105548,68823,100507,89748.1,69739,84339.2,2.45,1252,105548,83204.1
70715.7,51007,90858.6,82003,46127,116508,134292,83221,105754,90947.7,74501,80003.6,2.541,1299,134292,82621.6
55377,43014,84372.2,27736.1,19807,91771.1,68007.1,52257,85288.4,86548.4,70604,80335.9,2.923,1482,68007.1,82331.9
81031.5,54375,97664,74381.7,50688,96170.2,142628,98880,94531.4,104566,65587,104484,3.065,1548,142628,95722.6
66964.5,45498,96456.7,67395.5,44612,99005.5,139841,93773,97731.9,105486,69974,98795.4,3.136,1577,139841,96815.6
60748.2,37207,107001,52753.3,34856,99186.3,79399.6,51155,101721,88866.9,63357,91923.2,3.89,1925,79399.6,83944.1
67527,51698,85601.9,58867.9,39829,96863.2,106518,70699,98739.7,92166.7,62925,95991.1,5.092,2501,106518,85562.6
67872.6,51303,86702.5,38152.7,23652,105715,73400.3,46295,103907,89364.5,69038,84831.4,6.166,3013,73400.3,84813.7
55651.5,36732,99291.5,89182.4,53879,108477,103915,68499,99420,94831.4,65250,95247,7.251,3477,103915,88388.6
47846.7,36448,86031.6,57671.1,26210,144202,96303.4,47974,131557,94804.9,58875,105531,8.365,3958,96303.4,88834.1
60478.2,42002,94364.5,72378.7,46363,102310,144990,93550,101572,104666,75073,91369.3,9.09,4259,144990,95676.3
55140.3,32932,109731,76746.1,41124,122304,130962,79481,107984,98791.5,73029,88655.2,10.425,4832,130962,90671.9
87059.7,54848,104025,84427.2,42899,128978,147483,89122,108452,95652.9,70171,89334.7,12.564,5719,147483,86508.9
49507.2,37726,86001.8,80652,47143,112119,145760,93515,102149,104061,81110,84080.1,15.209,6880,145760,95023.9
50063.4,41326,79392,40072.3,27694,94828.4,95320.6,61835,101026,90779.5,62900,94583.9,15.368,6928,95320.6,84869.6
58250.7,46962,81289.5,24318,18165,87735.1,61577,44610,90462,86505.3,59294,95611.8,16.528,7415,61577,82687.5
79720.2,50465,103528,111958,69698,105272,206717,114711,118100,104785,68883,99693.7,16.559,7432,206717,91968.7
57827.7,37876,100058,29705.7,20114,96787.9,72877.7,42539,112276,90329.1,60794,97374.9,17.175,7669,72877.7,85810.7
83176.2,57061,95530,79929.2,53145,98565,144378,102366,92432.6,91050.6,70982,84064.8,18.321,8166,144378,82099.1
64071.9,46140,91006,40216.9,22425,117532,88840.5,54673,106492,93779.1,65118,94381.1,18.342,8172,88840.5,88271
65735.1,46594,92458.6,44449.4,25961,112208,80005.6,46836,111949,86715.1,64700,87835.6,19.893,8821,80005.6,81754.8
84879,47197,117860,87069.6,36066,158215,150316,71954,136908,96997,66061,96226.1,20.624,9100,150316,87677.4
88710.3,54313,107041,84520.3,45638,121371,150433,82557,119418,93453.9,60827,100689,21.154,9301,150433,84127
51427.8,41575,81067.3,41410.9,32999,82242,78277.9,62736,81771.5,89213,78114,74847.8,21.651,9533,78277.9,84359.8
56325.6,40137,91968.9,45432.1,24864,119749,78095.8,47111,108639,92050,62780,96090.9,25.213,11057,78095.8,87208
90415.8,58381,101497,79755.4,48983,106707,164696,98097,110029,94411.6,62163,99534.4,26.358,11542,164696,84200.5
49862.7,33255,98265,67864,34841,127652,108786,68674,103815,91944.3,66009,91285.5,26.562,11644,108786,85199.6
61647.3,47274,85461.7,63770.4,35167,118840,85650.4,54403,103178,91514.8,64952,92337.7,26.845,11748,85650.4,86204.5
77668.2,49013,103851,40086.2,20848,126012,90195.7,51720,114290,102924,65566,102877,27.644,12074,90195.7,97331.8
61701.3,45529,88815,60408,37871,104536,123518,69143,117075,95889.1,64122,98003.7,27.854,12186,123518,88231
58095,44262,86017.7,38635.1,23725,106722,71592,51109,91800.9,86038.2,66996,84163.2,27.961,12229,71592,81599.5
111581,51054,143232,74433.1,19873,245461,131625,43222,199578,100465,71505,92078.5,28.734,12539,131625,92304.3
79947,53661,97639,65259.1,39380,108604,124249,80626,100995,99339.1,63341,102782,29.316,12803,124249,91635.7
82192.5,57397,93847.5,58013,36239,104913,129555,73145,116078,107896,66517,106305,29.713,12970,129555,99863.6
83709,56037,97898.8,91103.4,57647,103571,156739,101682,101021,106872,79980,87571.1,30.218,13185,156739,97153.7
63141.3,43894,94273.2,28306,18321,101253,73018.1,54727,87439.7,94543.6,70321,88110.4,31.204,13619,73018.1,90016.5
49587.3,34954,92972.3,53615.1,31604,111180,90261,59023,100221,88073.2,61472,93895.8,32.231,14067,90261,82477
53343,41155,84944.4,36907.3,23754,101825,67331.6,44149,99948.9,86553.9,67404,84155.2,32.613,14236,67331.6,82379.3
82064.7,51284,104871,86969.5,56184,101446,171626,107178,104944,100782,66237,99715.4,33.955,14731,171626,90141.1
41793.3,30931,88550.8,49598,37740,86127.5,95044,74200,83946.2,92660.2,76239,79651.9,34.62,15045,95044,86767.5
78873.3,55531,93083.9,88283.1,59603,97070.9,154144,97548,103559,99112.6,71012,91469.6,34.805,15127,154144,89555.6
47575.8,37900,82267.2,49140.7,38991,82595.5,98298,74841,86076.6,88747.3,70380,82639.2,34.868,15152,98298,82652.9
86064.3,50270,112200,84916.5,41921,132752,140059,67019,136960,105333,70706,97630.9,35.946,15608,140059,96649.1
67099.5,47045,93472.9,29712.6,15803,123220,65013.1,44442,95871,91541.2,62629,95790.2,35.955,15611,65013.1,87510.4
84833.1,52464,105970,168738,87736,126042,247111,119834,135143,101400,65537,101399,37.194,16167,247111,86079.6
59547.6,47160,82750.4,55153.8,40134,90062.3,99264.1,67463,96428.7,96673.1,65462,96782.4,37.58,16313,99264.1,90518.7
59384.7,43877,88698.8,30757.9,22781,88483.9,75338,51109,96604.3,91847,69010,87223.4,38.097,16536,75338,87176.1
84723.3,49900,111271,59105.6,34905,110974,131019,75103,114329,93110.5,58968,103481,38.135,16551,131019,84987.4
70173.9,49014,93828.6,30215.8,17014,116388,65039.5,39386,108222,87504.7,61328,93508.8,38.466,16700,65039.5,83472.2
53327.7,39707,88016.8,53232.8,35298,98834.7,81563.8,51326,104145,89449.3,60203,97373,39.301,17052,81563.8,84392.3
79803.9,54155,96575.2,94044.6,52076,118352,183772,97768,123186,106723,66121,105779,43.881,18998,183772,95329
68168.7,46985,95083.6,54581.1,36223,98750.2,106962,73237,95714.7,100015,63813,102715,43.885,19001,106962,93383
65806.2,44878,96097.8,74741.7,41922,116842,141630,89239,104011,101826,75307,88614.1,44.983,19437,141630,93044.8
59504.4,41146,94776.6,48226.1,26476,119374,88665.3,44025,131988,92782.5,57933,104959,45.397,19611,88665.3,87285.2
45514.8,32978,90449.9,39640,31265,83091.3,74573.5,44331,110244,87629.8,55259,103927,46.057,19885,74573.5,83006.2
64085.4,51204,82022.9,78197.2,55002,93173.6,131422,95154,90514.9,94126.6,67334,91613.2,46.314,19991,131422,85978.5
48893.4,41518,77178,54722.9,26098,137417,98446.8,55071,117154,91279.9,76483,78215,46.743,20175,98446.8,85176.2
49931.1,39098,83694.4,50616.8,34286,96751.6,107197,74769,93959.4,100462,80895,81388.1,49.879,21487,107197,93816
59755.5,40753,96094.4,35677.1,19996,116930,67302.4,40504,108896,91844.2,63183,95264.6,50.101,21558,67302.4,87671.5
50831.1,39112,85172.5,99446.2,41527,156941,109556,61623,116512,93520.6,62619,97877.1,51.282,22071,109556,86728.1
65193.3,47527,89896.4,94443.5,68308,90610.9,181534,125279,94964.1,106716,86317,81023.8,52.913,22776,181534,95460.8
44372.7,31492,92341.2,52918.7,24744,140158,82728.6,52447,103375,87486.6,65699,87269.6,55.054,23735,82728.6,82357.4
58315.5,41083,93025.5,55790.4,29066,125792,85483.6,36868,151954,88680.6,55934,103904,56.525,24370,85483.6,83380.6
61035.3,36135,110696,52244.5,32590,105060,89181,50961,114687,99314.1,61865,105207,56.844,24515,89181,93784.9
44724.6,37424,78320.6,47011.2,36070,85415.2,110954,79763,91163.6,98242.4,83144,77436.9,56.972,24571,110954,91363.3
54901.8,43292,83111.1,27779.2,18047,100877,76958.7,49079,102764,94636.8,67414,92000.4,58.536,25234,76958.7,89865.3
40865.4,30055,89108.5,38022.1,29654,84029.6,82094.8,58796,91505.6,98392.5,72207,89302.3,61.657,26523,82094.8,93302.7
64659.6,46397,91332,31733.7,16943,122747,83626.6,50542,108436,97964.4,62687,102417,62.797,27031,83626.6,92779.6
63074.7,41735,99045.5,33480.9,22737,96503.8,79374.6,51129,101741,88572.2,56969,101892,63.071,27144,79374.6,83651
49323.6,37391,86450.5,50369.4,23134,142691,83220.7,48635,112140,89837.1,74343,79194.6,63.447,27302,83220.7,84677.4
78521.4,55770,92271.4,37663.4,28091,87868.4,93143.9,65334,93431.9,88552.7,57840,100335,63.475,27317,93143.9,82777.8
67483.8,50863,86951.6,21718.8,16371,86944,63061.5,48386,85413.1,86043.8,59014,95553,63.83,27485,63061.5,82134
58187.7,38205,99813.9,72453.8,47260,100472,152313,95258,104789,95005.1,74680,83372.5,63.932,27527,152313,85561.7
74208.6,45407,107105,73000,42216,113325,144511,89166,106214,105533,77921,88759.2,64.748,27848,144511,96573.3
44050.5,34705,83183.8,44916.5,31473,93529.2,76726.6,54674,91969.8,87597.8,70196,81782.6,65.537,28165,76726.6,82840.8
65843.1,46620,92558.8,76967.1,54909,91863.2,143195,100038,93808.6,95252.5,69534,89775.8,65.622,28193,143195,86374.4
41839.2,35102,78114.5,47703.4,33284,93927.7,78207,52003,98559.2,95141.3,61969,100618,66.96,28783,78207,90292.5
77954.4,53627,95265.8,28361.6,16960,109593,67747.2,40144,110599,87237.8,58714,97374,67.197,28864,67747.2,83037.5
67824,43273,102718,51641.3,31813,106383,107212,72142,97394.7,88918.3,55973,104110,67.439,28978,107212,82271.1
67230.9,50362,87487.5,66058.4,46991,92128.3,108553,79517,89467.1,88498.5,71142,81524.8,67.51,29013,108553,81768.2
69867,49469,92559.1,61169.7,38737,103488,117915,76180,101440,102703,64458,104421,68.314,29348,117915,95392.2
74220.3,40660,119629,84557.9,48599,114027,140220,85119,107960,93698.5,63040,97408.4,68.358,29364,140220,85004.8
69633,47867,95336.4,58591.3,34004,112923,110852,63870,113744,105276,66763,103341,69.151,29707,110852,98403
52731,33564,102961,90935.2,38070,156541,117312,60818,126412,97352.8,73421,86897.7,69.236,29744,117312,90079.5
50427,40383,81836,28809.1,23107,81708.4,61927.3,52671,77053.1,88937.8,73926,78844.1,69.7,29952,61927.3,85098.3
41152.5,28554,94451.6,44179.8,22343,129587,83294.4,46617,117098,92241.8,64268,94061.7,71.017,30505,83294.4,87077.5
59355,42001,92614.2,42338,20310,136616,82360.3,50562,106751,88524.9,62672,92570.4,72.477,31108,82360.3,83418.6
49609.8,37366,87010.3,46189.7,26114,115918,76152.5,48655,102574,86970.9,68334,83409.8,73.574,31550,76152.5,82249.4
73769.4,51567,93752.8,71729.6,36687,128134,128442,68389,123083,92492,63207,95900.1,74.286,31857,128442,84528.6
50975.1,39256,85100.5,83675.2,42653,128566,105508,54601,126638,104507,65514,104542,74.492,31941,105508,97965.7
54395.1,40429,88175.2,43338.8,28893,98302.4,76911.5,47872,105291,94517.2,63514,97526.2,75.961,32551,76911.5,89748.7
