"FSC-A", "FSC-H", "FSC-W", "SSC-A", "SSC-H", "SSC-W", "FITC-A", "FITC-H", "FITC-W", "PE-A", "PE-H", "PE-W", "Time", "Event #", "Comp-FITC-A", "Comp-PE-A"
53987.4,44651,79239.4,42269.9,27448,100925,51730.2,40744,83207.2,54465.8,42763,83471,1.117,31,51730.2,51258.5
85076.1,61452,90730.1,67374.7,47258,93433.2,147232,99166,97301.2,70000.4,54873,83603,1.686,96,147232,60872
73797.3,53335,90679.3,57459.8,43405,86757,127482,89741,93097.8,56735.6,45133,82383.8,2.225,199,127482,48831.7
84088.8,53689,102644,85505.9,53818,104123,154202,108742,92933.8,72211.9,56551,83685.1,2.359,224,154202,62651.3
61728.3,47278,85566.8,50115.1,37723,87064.7,111301,81878,89086.9,56075.4,48454,75844.2,4.213,508,111301,49174.7
84385.8,49041,112769,49190.7,28256,114091,77512,44379,114465,53218.9,43455,80261.3,4.233,512,77512,48413.2
70173.9,48535,94754.6,83219.3,60982,89433.9,117891,87206,88596.4,60941.8,48098,83036.3,4.99,638,117891,53632.5
80150.4,52168,100689,85715.7,57492,97708.7,174289,111238,102683,80724.2,62327,84880.5,6.332,824,174289,69918.3
59994,40828,96300.8,69733.5,53546,85348.2,161978,108826,97544.7,63192.2,47735,86757.4,6.572,879,161978,53149.5
63454.5,45343,91713.2,37869.2,28026,88553.2,78322.3,52006,98698.8,59428.1,43943,88630.2,9.197,1249,78322.3,54572.1
68137.2,46672,95677,74124.5,42846,113379,153630,104848,96027.4,61707.7,48682,83071.2,9.35,1273,153630,52182.6
69682.5,47990,95159.7,75211.5,55437,88912.8,143502,104843,89701.4,61183.6,48201,83187.7,9.908,1363,143502,52286.5
98995.5,53021,122362,70755.2,49370,93923.7,154151,88182,114564,58131.2,42706,89207.3,10.342,1420,154151,48573.8
43628.4,30609,93411.4,18952.7,9262,134105,46947.2,25580,120279,57569.6,43007,87727.2,10.995,1517,46947.2,54658.9
92315.7,28296,213811,40804.8,12571,212727,77409.1,26167,193873,55260.8,37542,96467.3,11.583,1617,77409.1,50461.5
62156.7,39584,102908,69055.2,41767,108354,120036,71038,110739,58057.5,48971,77696.1,11.896,1655,120036,50615.3
58461.3,33988,112726,48378.9,22780,139182,63969.2,36154,115956,53797.2,42531,82896,12.511,1728,63969.2,49831.1
54615.6,28688,124766,20547,11090,121422,55119.1,24884,145165,61898.1,44740,90669.5,15.379,2108,55119.1,58480.7
64488.6,41993,100644,87328.1,62046,92240.2,144810,92203,102928,73572.7,54663,88207,15.927,2197,144810,64594.5
74709.9,47690,102667,89104.6,58114,100485,200014,133716,98029.6,61527,48433,83253.8,16.878,2370,200014,49126.1
52036.2,37487,90971.4,91715,46183,130148,92219.5,54864,110158,54948.1,42137,85461.2,17.813,2516,92219.5,49230.5
62343.9,34630,117984,32559.4,17829,119682,45692.1,23249,128800,61753.5,41895,96600.5,22.267,3159,45692.1,58920.6
165010,47337,228450,157423,34657,262143,122768,33346,241279,59423.9,39952,97477.1,22.632,3215,122768,51812.3
64809,46201,91931.4,31169.4,16881,121007,67162,38061,115644,66166.8,43063,100697,23.404,3330,67162,62002.7
70982.1,47396,98149.3,92123.6,60333,100068,153822,95807,105220,62334.6,46680,87514.1,23.6,3354,153822,52797.6
60410.7,41973,94324.3,66649.1,49444,88340.7,135241,99399,89167.7,57350,44884,83737.9,23.878,3409,135241,48965
79929.9,49506,105811,74705.5,48662,100610,112306,68030,108189,61399.1,41118,97861,24.116,3441,112306,54436.1
76329,52499,95283.7,99219.6,71521,90916.7,190615,131702,94851.5,91285.5,67799,88238.5,24.728,3531,190615,79467.3
72820.8,50502,94498.9,55690.3,28923,126188,79178.6,51136,101475,80732.6,63672,83096,27.191,3884,79178.6,75823.5
74209.5,50899,95549.9,74041.1,55095,88072.6,145544,100612,94803.6,59494.8,46253,84298.3,27.744,3952,145544,50471
75423.6,55209,89531.8,55365.1,32800,110622,71712.9,46202,101722,83554.3,52406,104488,28.034,3994,71712.9,79108.1
60465.6,44987,88084.9,52222.3,38791,88227.7,77047.7,55787,90512.1,62083,46285,87904.7,29.199,4176,77047.7,57306
60800.4,39059,102015,89920.5,45281,130144,164766,108193,99804.4,60777.8,49637,80245.2,30.477,4351,164766,50562.2
86476.5,55405,102289,86437.1,56531,100206,141485,92800,99917.9,87153,60064,95092.9,31.386,4503,141485,78380.9
94248,42515,145281,66515.7,23979,181791,89112.9,39720,147032,62904.4,42615,96738.4,33.333,4767,89112.9,57379.4
126977,47740,174311,92603.2,30937,196168,81209.4,35089,151675,57226.3,41045,91372.5,33.525,4800,81209.4,52191.3
71109,46559,100092,107494,50028,140816,119363,64260,121734,62908.6,41051,100431,33.614,4818,119363,55508.1
63808.2,45299,92314.1,53588.7,41045,85564.3,102426,77181,86972.3,63891.3,51540,81241.4,33.756,4845,102426,57540.9
74142,48767,99636.4,69323.5,47379,95890.2,132315,83369,104013,63930.3,50880,82345.4,33.903,4864,132315,55726.7
62507.7,25955,157831,29601.4,10159,190960,49197.7,21333,151138,62063.5,40287,100960,34.686,4964,49197.7,59013.2
58736.7,43063,89389.2,32419,21420,99188.1,53547,35771,98103.3,53285.6,40729,85740.6,35.429,5076,53547,49965.7
66006,40057,107990,104390,59799,114405,163720,104027,103142,74834.8,56853,86264.1,37.096,5308,163720,64684.2
68615.1,47741,94190.7,79053.5,56009,92500.3,155694,107468,94945.1,73821.5,59452,81376,39.213,5606,155694,64168.5
70598.7,49315,93820.5,58619.1,42339,90735.7,128729,95690,88163.9,59825.6,47499,82543.4,39.42,5631,128729,51844.4
98050.5,44434,144615,26600.4,16518,105539,86205,36579,154447,54019.6,39605,89388.4,40.168,5728,86205,48674.9
71507.7,48080,97469.4,71985.3,47289,99761.7,124144,79027,102951,62815.5,46730,88094.9,41.912,5997,124144,55118.6
80368.2,51332,102607,51598.2,25389,133189,78333.4,43552,117874,85689.3,58247,96412.4,42.067,6021,78333.4,80832.7
65878.2,44662,96668.2,68856.4,48977,92136.6,141325,97706,94793.6,66683.9,52399,83402.2,42.703,6133,141325,57921.7
75001.5,54951,89448.8,43782.2,26617,107800,69639,47511,96059,84393.9,53708,102980,43.235,6211,69639,80076.2
55524.6,41118,88498,13723.5,10584,84975.6,42699.4,30414,92008.6,54899.4,41281,87156.1,43.242,6212,42699.4,52252.1
67209.3,46137,95468.5,84937.3,62358,89266.1,159414,106173,98399.1,59458.6,46951,82994.6,43.324,6227,159414,49575
48231.9,32434,97457.2,84393.9,42261,130873,100136,57835,113469,74353.9,63847,76320.8,43.843,6300,100136,68145.5
73417.5,48938,98318.1,85289,57434,97320.4,170197,115875,96259.2,71215.3,54716,85298,44.341,6365,170197,60663
68965.2,49040,92163.6,75645.2,52710,94052,145880,96901,98661.8,57961.6,44421,85513,45.406,6502,145880,48917
68936.4,48015,94091.8,63289.5,47752,86860,92291.8,66294,91236.6,53934.8,40776,86685.1,46.85,6685,92291.8,48212.7
83721.6,50641,108347,82638.3,44744,121039,100131,60235,108944,69505.6,45351,100441,50.627,7241,100131,63297.4
66327.3,49986,86960.9,97603,61754,103581,173789,113067,100732,81087,60172,88315.5,50.709,7260,173789,70312.1
68921.1,44908,100579,90484.8,63197,93833.8,162975,112731,94745.1,74862.6,57568,85224.4,52.708,7523,162975,64758.2
106654,46805,149337,54198.9,23534,150930,82137.9,31426,171291,55459.6,37820,96102.6,53.707,7635,82137.9,50367.1
66581.1,45008,96948.5,65142.3,44184,96622.5,147922,99600,97331.8,70596.7,54909,84259.9,53.804,7649,147922,61425.5
66112.2,44768,96781.8,36671,22693,105904,63160.2,40942,101101,61571.4,45772,88157.5,56.126,7957,63160.2,57655.5
65165.4,47869,89216,66120.9,50506,85797.7,124041,85624,94940,56147.7,44647,82417.5,56.437,7988,124041,48457.1
67095.9,46753,94051.6,60670.7,34004,116931,96356.2,54566,115728,75870.4,49257,100945,56.771,8034,96356.2,69896.3
86165.1,46882,120450,59170.9,39517,98130.5,120475,70479,112026,56883,41320,90219.8,56.834,8044,120475,49413.5
77921.1,50556,101010,87369.8,61470,93149,187119,121035,101318,68055.8,52799,84473.3,57.529,8129,187119,56454.4
68370.3,49770,90028.5,78952,56757,91164.1,169901,122683,90759.4,69522.2,54339,83847.9,59.595,8381,169901,58988.4
70388.1,52284,88228.8,47411.5,35461,87621.9,100676,71652,92082.9,56852.4,47365,78663.1,59.762,8398,100676,50610.5
47031.3,31180,98853.2,89806.5,46756,125878,77637.1,43425,117168,62028.8,40995,99161.3,61.454,8614,77637.1,57215.3
53600.4,37577,93481.5,19197.3,13858,90786.1,43718.3,31238,91719.1,51794.2,41585,81625.2,62.7,8779,43718.3,49083.6
75504.6,52296,94620.4,70072.7,46817,98090.1,134659,90180,97860,63814.9,48127,86898.7,63.288,8850,134659,55466
100272,47025,139743,105861,49285,140767,116264,58752,129689,64052.6,50862,82532.2,63.748,8910,116264,56844.2
74571.3,47891,102046,47355.9,27672,112154,73917.4,46490,104200,76634.9,54203,92658,65.196,9106,73917.4,72052
96027.3,36523,172309,59993.8,21080,186516,115642,48183,157291,78066.6,53487,95652.6,65.587,9180,115642,70896.7
128902,52259,161651,65869.3,29623,145725,126098,57861,142824,72848.5,47091,101382,68.133,9525,126098,65030.4
74884.5,46186,106258,44664.9,31018,94369.6,80204.4,47910,109711,58530.1,38151,100543,74.415,10375,80204.4,53557.4
73242.9,51865,92548.9,52599,39357,87586.1,101078,68900,96142.9,62320.6,45535,89694.7,74.768,10419,101078,56053.8
69073.2,46573,97197.5,63022.6,45712,90353.7,144460,101148,93598.8,62969.8,47917,86123.7,75.567,10530,144460,54013.3
63815.4,45072,92789.4,22488.8,14709,100199,52450.3,28554,120382,65227.1,44319,96453.6,76.445,10654,52450.3,61975.2
83489.4,38599,141754,45832.5,20267,148205,74155.1,27911,174119,57447.3,38806,97017.7,76.654,10690,74155.1,52849.7
82299.6,52344,103041,89949.7,59469,99126.3,183940,118616,101628,73868.8,56032,86398.2,77.623,10842,183940,62464.5
44286.3,37066,78302.1,19205.6,16686,75432.1,43722.4,39913,71791,51019.9,45609,73311,77.686,10853,43722.4,48309.2
59518.8,45630,85483.8,17912.9,12497,93937.9,59341.9,42450,91614.4,80588,53552,98622.2,78.008,10890,59341.9,76908.8
66231.9,46778,92790.9,90810.1,58862,101106,153328,104106,96521.9,74772.3,58490,83779.7,78.709,10985,153328,65265.9
72156.6,47849,98828.7,78946.4,52860,97878.1,146606,90669,105968,70297.9,52227,88211.9,78.881,11012,146606,61208.3
62544.6,42491,96465.7,90274.9,42405,139518,122383,62388,128558,69614,45231,100865,79.073,11037,122383,62026.3
69113.7,47880,94599.7,88479.1,64868,89390.2,163207,118251,90451,80725.6,59793,88479.2,79.091,11042,163207,70606.8
86054.4,46408,121523,82561.8,41939,129015,159350,92411,113008,88608.3,63331,91693.4,80.105,11177,159350,78728.7
57462.3,35755,105324,100240,60822,108009,185778,120424,101102,92865.9,68211,89224,80.825,11266,185778,81347.7
63314.1,46932,88412,54923.1,42270,85153.5,117922,86373,89474,57180.4,46519,80555.8,84.816,11798,117922,49869.3
56778.3,37095,100311,97908.8,49500,129627,84158.9,44924,122773,63575.8,47543,87636.6,85.017,11826,84158.9,58358
71093.7,49337,94436.1,75913.5,49928,99644.8,118463,77557,100102,78701.8,53231,96894.7,85.442,11878,118463,71357.1
104481,51808,132166,40638,30733,86657.8,114863,60841,123726,56436.8,41385,89371.5,86.097,11953,114863,49315.3
64549.8,39717,106512,79904.1,39409,132878,93027.1,46410,131364,68905.1,46404,97314.1,86.583,12004,93027.1,63137.4
49305.6,37536,86085.1,12900.6,11139,75900.3,43073.3,32318,87346.2,51537,44861,75288.8,86.69,12021,43073.3,48866.5
68462.1,47072,95316.4,84264.6,58010,95196.8,118878,79444,98066.7,59480.9,46154,84459.4,86.877,12050,118878,52110.4
64974.6,42974,99087.2,75044.7,54079,90943.4,136469,92722,96456.3,61390.7,44842,89721.8,87.392,12131,136469,52929.7
83159.1,41352,131793,76131.7,30696,162541,68458.9,34932,128436,53460.8,37854,92555.8,87.431,12139,68458.9,49216.3
56986.2,34000,109843,30356.2,14781,134593,44377.1,29840,97463.1,53313.4,42473,82262.9,87.913,12207,44377.1,50562.1
86050.8,43174,130621,36986.5,19218,126129,60444.1,29314,135132,53303.7,42291,82601.8,88.235,12253,60444.1,49556.2
65722.5,45404,94863.7,71250,54665,85419.2,122747,88523,90872.8,65382.8,52243,82019.2,88.629,12304,122747,57772.5
67126.5,48204,91262.2,79199.4,57089,90917.9,142468,96824,96430.5,67287.1,52132,84587.8,88.874,12342,142468,58454.1
71169.3,51530,90513.3,54218.3,29124,122004,79754,47673,109638,67769.5,44598,99586.1,89.479,12413,79754,62824.7
86430.6,43111,131389,60936.2,24976,159894,84979,36063,154429,64569.7,41776,101294,89.898,12475,84979,59301
51013.8,35946,93007.3,20843,11945,114355,46894.4,28361,108363,56813.5,41845,88979,91.501,12716,46894.4,53906
73129.5,48369,99084.4,66897.9,48673,90075,146154,100537,95272.1,64194.4,48164,87348.3,92.162,12816,146154,55132.8
45734.4,35731,83883.7,28097.5,22309,82540.5,65150.7,48990,87154.8,77320.1,61551,82326.1,92.166,12817,65150.7,73280.8
68031.9,46276,96346.7,65820.7,47578,90664.2,127683,84644,98858.9,56636.9,43497,85333.7,92.303,12835,127683,48720.6
72693.9,54122,88024.6,58388.3,31050,123238,78074.9,44059,116133,83237.4,52976,102972,92.363,12845,78074.9,78396.7
68949.9,49302,91653.5,71159.7,52483,88857.7,133988,95562,91888.1,56705.1,46909,79221.9,93.145,12948,133988,48397.8
86000.4,50502,111602,79478.8,51071,101990,147587,86475,111851,61019.6,46060,86821.1,94.835,13177,147587,51869.2
60562.8,45650,86945.1,24186,17050,92965,53552.5,38149,91997.7,70482.7,52068,88713.9,96.051,13345,53552.5,67162.5
71723.7,49900,94198.1,64505.7,47613,88787.7,111803,83357,87900.7,54895.3,41792,86083.9,96.987,13481,111803,47963.5
76144.5,54435,91672.8,57964.4,33432,113626,105843,59786,116023,80519.9,51928,101621,97.001,13486,105843,73957.7
66968.1,46309,94772.5,67339.9,51475,85734.6,113146,80040,92642.9,62219.2,50529,80698.1,97.062,13497,113146,55204.1
113939,36126,206696,38191.6,10401,240643,87813.2,28698,200534,55716.8,39515,92406.8,97.631,13588,87813.2,50272.3
96690.6,52655,120344,56869.1,41703,89369.4,65834.6,40092,107616,54029.3,47210,75002.4,98.269,13680,65834.6,49947.6
67012.2,38729,113396,36486.1,15012,159283,53346.8,32572,107336,51567.6,42486,79544.7,98.286,13683,53346.8,48260.1
72207.9,38295,123573,37302,15191,160926,61083.6,28900,138518,57942.1,44016,86270.8,99.732,13921,61083.6,54155
64090.8,48008,87490.7,65206.3,51741,82591.4,137563,102961,87560.4,79288.4,66419,78234.3,101.513,14200,137563,70759.5
68286.6,44231,101179,17017.8,11543,96619.3,60510.9,33169,119559,57860.1,40315,94057.3,101.751,14230,60510.9,54108.5
53359.2,41816,83627,21590.9,15258,92736.9,46990.3,34258,89893.1,74267.7,49987,97369.5,102.874,14369,46990.3,71354.3
75347.1,54032,91389.3,59896.5,27308,143745,101084,48712,135996,76045.5,50160,99356.4,103.717,14482,101084,69778.3
50365.8,33170,99510.8,38813,17027,149389,55412.3,32923,110303,52453,34973,98291.9,105.089,14646,55412.3,49017.5
102100,37838,176840,75315.8,22195,222388,92098.6,41692,144771,85151.4,62298,89577.2,105.193,14657,92098.6,79441.3
102130,48023,139375,48686.1,18396,173445,69780.8,34543,132390,53973.7,40873,86541.7,106.007,14762,69780.8,49647.3
66586.5,47095,92659.8,61945.3,46935,86495.2,130249,92078,92703.7,56687,44369,83730.5,108.02,15028,130249,48611.6
63308.7,43835,94650.4,74848.7,57956,84638.1,115528,82645,91612,58819.2,47786,80667.5,109.059,15172,115528,51656.5
60048.9,40124,98080.1,29358.2,15260,126082,61029.3,32401,123441,51945.7,41246,82536.8,110.579,15379,61029.3,48161.9
72588.6,23977,198405,18603.8,10695,113999,64073.4,22422,187277,59319.6,38532,100892,110.88,15417,64073.4,55347.1
87229.8,58680,97421.5,91199.3,43550,137241,134786,82281,107355,79152.2,59460,87240.4,110.883,15418,134786,70795.5
102218,53950,124169,76654.3,34477,145709,115619,47415,159806,73354.5,46711,102917,113.602,15780,115619,66186.1
62829.9,45998,89517.4,55719.5,39786,91781.9,72925,42842,111554,78686.5,49652,103859,113.728,15805,72925,74165.2
93741.3,45028,136436,85329.3,37545,148945,84163.1,39675,139022,64001.2,42993,97559.6,114.49,15896,84163.1,58783
76255.2,32326,154596,43127.5,17782,158948,67167.6,23932,183933,59442,38560,101027,114.622,15920,67167.6,55277.6
65481.3,47320,90688.6,67801.4,52741,84250.1,115469,85731,88268.6,58225.7,43139,88455.5,114.669,15925,115469,51066.7
81314.1,50708,105092,100810,64703,102108,145192,90614,105010,72426,56364,84211.7,116.442,16170,145192,63424
62325,44414,91965,48162.1,33122,95294.7,88189.9,55336,104446,54071,37407,94730.9,117.6,16321,88189.9,48603.2
84601.8,57158,97002.4,52173.6,30137,113457,89378.4,49745,117751,81298.3,52182,102104,118.442,16425,89378.4,75756.9
71100,46323,100590,80939.7,51207,103589,142775,104299,89712.4,60948.7,45929,86967.6,119.13,16508,142775,52096.7
69987.6,50347,91101.9,72635.8,54650,87104.5,164128,120405,89334.5,65478.7,49971,85874.1,120.046,16650,164128,55302.8
79258.5,56816,91422.9,43598.7,25308,112901,90654.4,52739,112652,77505,51605,98427.8,120.181,16669,90654.4,71884.4
66932.1,48143,91113.2,50090,40851,80357.9,86941.7,67497,84415.8,53210.6,42937,81216.9,120.977,16792,86941.7,47820.2
68187.6,52341,85377.5,70277,40524,113653,110502,77182,93828.5,81694.5,69148,77427.1,122.445,16986,110502,74843.3
76777.2,52830,95242.7,61440.8,42183,95455.1,118999,83296,93626.8,55855.8,43165,84804,122.808,17035,118999,48477.8
71799.3,51242,91827.8,55401.2,39666,91533.7,140208,104994,87516.1,62834.9,48127,85564.3,123.375,17103,140208,54142.1
55353.6,31225,116178,38637.8,21104,119985,49471.5,26127,124092,51658,34084,99326.8,125.022,17333,49471.5,48590.7
89578.8,40653,144408,62091.3,23828,170775,58838.7,22917,168262,51841.4,40981,82903.8,126.168,17478,58838.7,48193.4
65907.9,47789,90383.6,38101.3,27138,92011.4,75443.6,54312,91034.7,55898.8,44311,82674.4,126.47,17520,75443.6,51221.3
81564.3,48821,109490,102239,65294,102618,209310,121506,112895,92953.5,70666,86205.5,130.88,18102,209310,79976.2
69983.1,49216,93189.5,57325,40834,92003,122245,89075,89940.4,55830.7,45086,81154.3,132.244,18293,122245,48251.6
68062.5,47943,93038.5,80098.8,57602,91131.4,138526,93966,96614.1,66884,53126,82507.8,132.352,18307,138526,58295.4
120221,49098,160471,65406.4,25106,170735,102374,47899,140069,63883,40842,102508,134.553,18587,102374,57535.9
71726.4,50715,92687.8,70871.9,52181,89010.6,130900,88825,96579.7,56548,42989,86206.4,134.808,18617,130900,48432.2
98095.5,57576,111657,68322.7,40417,110785,131972,71703,120622,62405.4,44862,91164.1,136.691,18851,131972,54223.2
51642.9,35329,95798.6,45230.6,31168,95105,61196.1,31158,128717,53904.2,36882,95782.9,136.89,18883,61196.1,50110
72818.1,49533,96344,74611,52489,93156.8,230336,172250,87635.8,69892,54238,84450.8,137.708,19007,230336,55611.2
86747.4,55840,101810,65382.8,44658,95949.9,117123,73011,105132,60494.2,44862,88372.1,139.93,19323,117123,53232.6
77471.1,47116,107758,87212.8,55442,103091,160512,103912,101233,63190.8,49366,83889.1,140.206,19366,160512,53239.1
42011.1,28820,95532.2,19394.7,12763,99588.6,43261,22476,126141,59870.1,41938,93558.2,140.843,19458,43261,57187.9
81083.7,51151,103887,63261.7,46205,89728.8,117726,76762,100509,57929.6,42241,89876.6,141.237,19508,117726,50630.6
52650,39365,87653.3,65203.5,43933,97265.8,106955,79235,88463.4,56057.3,46757,78571.6,143.349,19801,106955,49426.1
71896.5,56967,82711.2,54642.3,41597,86088.8,103039,76796,87931.5,57070.6,45914,81460.6,144.274,19908,103039,50682.2
77348.7,42670,118798,33582.4,15439,142552,66351.6,36126,120368,52101.4,40938,83407,144.623,19951,66351.6,47987.6
68868.9,49873,90497.7,61497.8,45226,89115.1,113239,84786,87529.1,56586.9,44700,82963.7,145.384,20061,113239,49566.1
75437.1,47676,103697,91766.4,60793,98925.9,188105,125749,98033.5,81031.4,59830,88759.4,145.526,20078,188105,69369
61168.5,46038,87074.6,30217.2,22498,88021.8,60046.6,44175,89082.4,85088.9,77988,71503.1,146.25,20171,60046.6,81366
54907.2,39280,91608.9,23663.4,17672,87754.8,46637.3,35195,86842.5,56320,45680,80801,146.721,20244,46637.3,53428.5
65954.7,44804,96473.7,62759.9,46544,88368.7,129141,92986,91017.6,58909.6,47432,81394.4,147.032,20294,129141,50902.9
66573.9,35114,124252,31122.1,13103,155660,56525.7,32232,114931,57925.5,42469,89387.6,148.98,20580,56525.7,54420.9
89935.2,51230,115050,161058,46024,229339,158902,64148,162340,84912.3,69078,80558.4,149.94,20723,158902,75060.4
51921,33046,102968,43138.6,28208,100225,73229.4,51223,93691.5,66012.5,44745,96685.5,150.362,20780,73229.4,61472.3
76833.9,51515,97746,62285.9,41606,98110.1,114778,71790,104779,68235.1,52976,84412.9,151.874,20985,114778,61118.9
72266.4,51776,91471.9,71749,36127,130156,93601.2,60067,102123,83992.1,65482,84061.4,152.435,21058,93601.2,78188.9
52834.5,38432,90095.8,86774.9,47010,120972,102822,69548,96891,59553.2,47540,82096.7,153.33,21182,102822,53178.2
92812.5,54215,112193,80777.1,53597,98770.6,177604,105404,110427,78529.4,55232,93179.8,154.124,21296,177604,67518
101192,50932,130208,59457.2,26004,149846,90312.5,46118,128339,58377.2,41272,92697.5,154.744,21371,90312.5,52777.8
64445.4,43302,97535.8,78863,54204,95350.3,128885,77986,108309,55823.8,41457,88247.3,155.091,21416,128885,47832.9
73560.6,48740,98909.9,67649.9,46637,95064.1,151481,102852,96521.7,75243.5,57055,86428.1,155.848,21507,151481,65851.7
67105.8,53050,82900,59258.5,28106,138176,76308.2,49660,100703,85483.6,65959,84935.4,157.071,21679,76308.2,80752.5
67296.6,46113,95642.2,79640,56287,92726.4,144720,97875,96902.8,61657.6,48127,83961.1,157.577,21743,144720,52685
67239.9,45313,97248.8,71222.2,52201,89416.3,114068,86901,86023.6,55764,45092,81046.6,157.811,21775,114068,48691.8
78810.3,50681,101910,78022.1,57997,88164.1,152066,100845,98822.9,57935.2,43938,86413.6,157.878,21782,152066,48507.1
65430,43184,99296.5,61265.6,41944,95725.4,116560,71315,107114,59341.9,40223,96686.7,158.053,21803,116560,52115.2
70529.4,48549,95207.2,73278,52496,91480.3,146738,102460,93857.4,62670.9,49252,83391.6,158.239,21831,146738,53573.2
73781.1,52782,91609.2,79025.7,52669,98331.6,145019,103000,92271.3,66517.1,51770,84204.4,163.29,22464,145019,57525.9
89058.6,46840,124606,49410.3,26915,120310,63459.1,33925,122590,60631.8,45767,86821.6,163.917,22549,63459.1,56697.3
86634.9,48176,117853,79223,41616,124759,123863,71396,113697,59336.3,39540,98347.6,164.471,22611,123863,51656.8
76743.9,48374,103971,32562.1,22706,93983.6,68331,40352,110977,56012.8,37584,97670.7,164.521,22619,68331,51776.3
72960.3,50604,94489.1,25355,18444,90092.4,54725.7,38042,94277.5,83497.3,63280,86474.1,165.384,22716,54725.7,80104.3
51804.9,36169,93867.3,46277.3,34371,88238,72667.8,46672,102039,68974.6,44754,101004,168.313,23084,72667.8,64469.2
55480.5,39294,92532.4,12953.4,9243,91844.1,45582.3,30668,97407.1,63257.5,44559,93037.2,168.686,23134,45582.3,60431.4
52051.5,38582,88415.5,16710.6,12667,86456.5,44741.3,32314,90739.8,55128.8,41430,87205.4,169.159,23187,44741.3,52354.8
58085.1,42889,88756.2,57547.4,45094,83634.8,115923,89822,84580,59654.6,48106,81269,169.273,23203,115923,52467.4
67970.7,47792,93206.5,55141.3,40995,88150.8,121920,89705,89071.2,57657.2,45974,82190.4,170.177,23308,121920,50098.2
64876.5,47527,89459.6,61111.3,45175,88655.1,124732,87415,93512.7,60508.1,48608,81580.4,170.782,23383,124732,52774.7
45329.4,30680,96828.8,63289.5,34167,121396,109678,61316,117226,69544.5,46006,99066.8,170.943,23406,109678,62744.4
73711.8,53481,90327,76308.2,46292,108030,109575,74170,96819.6,84627.4,64175,86422.1,172.379,23590,109575,77833.7
66508.2,44304,98381.2,34506.8,25076,90183.2,60958.4,41910,95322.7,53092.4,39030,89148.5,173.113,23668,60958.4,49313
82564.2,50267,107644,78187.5,43168,118701,119148,70563,110660,58385.6,44736,85531.9,175.427,23945,119148,50998.4
79862.4,53408,97997.7,80396.2,55736,94532.2,161253,115860,91212.2,67402.5,52682,83848.2,175.855,23990,161253,57404.8
77820.3,42374,120358,33214.1,21142,102957,62565.3,40933,100170,53773.5,44876,78529.8,175.985,24015,62565.3,49894.5
62535.6,41604,98508.2,80988.4,58902,90109.9,144207,96368,98069.3,59771.4,45483,86124,177.204,24158,144207,50830.6
70137,44934,102294,67982.1,46958,94877.9,98388.4,63267,101917,81939.1,54473,98580.2,180.132,24520,98388.4,75839
126514,41165,201414,89541,17057,262143,104781,30764,223213,59911.8,39402,99649.2,182.159,24740,104781,53415.4
56604.6,42419,87452.3,25462,19484,85643.5,47481,30491,102054,78918.6,53438,96785.3,185.115,25117,47481,75974.8
101899,51438,129827,74298.3,29158,166994,87148.8,43119,132456,56472.9,40956,90365.5,186.369,25284,87148.8,51069.7
76751.1,50936,98750.6,87642.3,62819,91432.9,190847,131656,95000.2,66849.3,49931,87741.8,186.839,25347,190847,55016.8
58317.3,39238,97402.6,65623.3,50027,85967.3,117291,90214,85206.1,56531.3,46689,79351.4,187.324,25412,117291,49259.3
98765.1,63361,102155,70707.9,32573,142262,97978.3,54347,118150,86673.4,54489,104245,187.375,25418,97978.3,80598.8
52856.1,42241,82005.1,14375.4,11900,79168.5,46736,32422,94469.5,64861.6,52882,80382.1,189.351,25669,46736,61963.9
60340.5,43265,91401.2,60762.5,44312,89865.7,120273,90267,87320.7,56710.6,46497,79931.8,189.394,25673,120273,49253.7
44137.8,33905,85315.3,23286.7,17739,86031.6,52643.5,34124,101103,71686.5,48511,96844.9,189.711,25715,52643.5,68422.6
76414.5,49120,101952,39027,29040,88074.2,88857.1,64630,90102.8,63656.4,40736,102410,190.757,25842,88857.1,58147.3
64774.8,45108,94109.3,79745.7,58027,90065.2,154747,106405,95310.6,58261.8,46095,82834.3,191.014,25879,154747,48667.5
79512.3,56682,91932.5,54139.1,35757,99227,122270,84670,94639,60533.1,47621,83305.6,191.517,25940,122270,52952.4
77268.6,56669,89358.8,28600.6,16824,111411,75510.4,43835,112893,81420.6,52992,100694,191.714,25968,75510.4,76739
79742.7,54484,95918.4,83911.5,37093,148255,94325.4,49639,124533,69055.2,50014,90486.7,191.958,25994,94325.4,63207
85884.3,51644,108987,63281.1,39353,105384,135034,80352,110136,60815.3,45934,86767.8,192.083,26013,135034,52443.2
72187.2,48900,96745.6,78945,55275,93600,159818,107341,97575.3,71026.2,51231,90858.5,193.889,26230,159818,61117.5
70229.7,46278,99454.9,79477.4,57676,90308.5,142029,101552,91657.5,67405.3,50531,87421,195.402,26408,142029,58599.5
86352.3,55684,101630,69173.4,43602,103971,102740,58050,115990,61746.6,42614,94960,196.71,26562,102740,55376.7
81649.8,58627,91272,48629.1,29177,109228,81604.1,49102,108916,86186.9,56489,99990.2,198.845,26824,81604.1,81127.5
73667.7,51592,93578.2,74851.5,53227,92161.3,141873,100277,92721.1,66607.4,52030,83897.4,200.868,27051,141873,57811.3
57815.1,44564,85023.1,67223.2,31150,141430,96115.7,52693,119542,78238.9,65859,77855.2,201.712,27159,96115.7,72279.8
49599.9,39551,82187,21408.8,16989,82585.6,47196.1,33857,91356,56340.9,45354,81411.9,201.782,27168,47196.1,53414.7
58063.5,40767,93341.4,14722.9,9714,99328.7,58149.3,32547,117088,55983.6,40905,89694.3,203.655,27418,58149.3,52378.4
67308.3,34578,127570,52252.9,22129,154749,62569.5,29575,138649,68852.3,46372,97306.6,204.287,27508,62569.5,64973
67775.4,52020,85385,28524.2,18924,98782.6,61510.3,39201,102833,80615.8,60227,87722.1,205.71,27687,61510.3,76802.2
69756.3,48153,94938,69302.6,52300,86841.6,129155,94957,89138,65292.5,49182,87003.5,208.586,28035,129155,57284.9
44226,36133,80214.6,27114.7,19091,93080,43276.3,33956,83524.4,59425.3,45873,84897.3,211.105,28329,43276.3,56742.2
50202,33196,99109.5,25920.7,21600,78645.4,49789.8,28286,115358,64365.3,41212,102355,211.869,28420,49789.8,61278.4
53139.6,38170,91238.1,20897.3,14906,91877.3,43871.2,28198,101963,50868.4,44831,74361.8,212.768,28513,43871.2,48148.4
76839.3,54203,92905.2,74131.5,52185,93097.3,132428,96814,89644.1,57660,46333,81557.5,213.026,28547,132428,49449.4
77434.2,46317,109565,63796.8,26348,158683,84124.2,37340,147648,73159.9,52079,92064.1,214.436,28709,84124.2,67944.2
76914.9,45381,111075,34399.7,25312,89065.3,88295.6,49269,117448,54161.3,37725,94089.3,214.57,28724,88295.6,48687
78726.6,54922,93941,68862,45131,99996.4,98236.9,59273,108617,84920.7,56535,98441,214.626,28736,98236.9,78830
69677.1,46769,97636.4,65688.6,47128,91346.3,129786,90823,93650.7,58366.1,46511,82240.4,218.489,29188,129786,50319.4
71634.6,48788,96225.4,74098.1,53628,90551.5,138493,90458,100337,61907.8,49593,81809.8,218.509,29191,138493,53321.3
64230.3,49906,84346.5,25702.5,20180,83470.7,63228.3,47597,87058.7,81032.8,66430,79942.3,219.797,29330,63228.3,77112.7
64987.2,39284,108416,30456.3,18548,107612,48643.1,26154,121888,51263.2,42475,79095.6,220.046,29362,48643.1,48247.3
74907,50735,96759.7,86224.5,60309,93697.6,148891,91558,106574,65441.2,48580,88282.3,220.304,29382,148891,56209.9
80285.4,54065,97319.6,79403.8,57015,91270.8,148570,104904,92815.3,60132.8,45602,86418.6,220.604,29407,148570,50921.4
57495.6,41181,91499.3,28255.9,16953,109230,61180.8,35188,113946,58074.2,37927,100349,221.445,29511,61180.8,54281
48487.5,33797,94022.5,23315.9,15330,99675.7,49099,31467,102258,62215,44453,91722.1,221.974,29567,49099,59170.9
74784.6,49859,98298.9,80169.6,59810,87844.8,143944,103797,90884.4,62721,47697,86179,222.227,29603,143944,53796.4
65789.1,48614,88689.6,57354.2,43228,86952.1,100714,75880,86984.5,54668.7,44516,80482.7,222.918,29680,100714,48424.4
66284.1,53181,81683.2,47369.8,38534,80563.3,86576.1,73127,77589.1,83612.7,72559,75519.8,224.413,29851,86576.1,78245
65586.6,48748,88173.5,60029.9,47764,82365.8,106935,84328,83105.5,54784.1,44799,80143.1,226.163,30035,106935,48154.1
81697.5,55625,96254,65685.8,38825,110877,105926,72509,95739.7,75539.5,49577,99856,232.397,30777,105926,68972.1
75011.4,29364,167414,21051.5,10095,136665,75645.2,28713,172656,56040.6,36751,99934.1,232.414,30781,75645.2,51350.6
76705.2,56337,89230,55983.6,40705,90135,107421,76484,92044.3,70890,56330,82475.5,233.709,30932,107421,64229.9
63923.4,41905,99971,62725.1,47376,86768.7,111489,80528,90733,55630.6,44102,82667.6,233.759,30943,111489,48718.3
56522.7,41100,90128.3,39819.3,29446,88623.2,76395.8,48541,103143,82503.4,54939,98417.3,234.741,31052,76395.8,77766.9
81441.9,51154,104339,61620.1,45897,87986.9,116429,81309,93843.3,59863.1,48207,81382.2,234.946,31076,116429,52644.5
83213.1,37893,143917,52649,21018,164164,72710.9,30995,153740,62975.3,40218,102620,234.994,31083,72710.9,58467.3
68477.4,47808,93870,52526.7,32841,104820,65642.8,45805,93919.1,56260.2,48318,76308.5,237.421,31383,65642.8,52190.4
80922.6,50833,104329,52289,35915,95414.5,88484.6,52340,110793,64597.5,46233,91567.9,237.744,31419,88484.6,59111.4
66611.7,47909,91119.9,68410.2,48882,91717.5,131028,98481,87195.2,62284.5,47901,85214.9,238.014,31461,131028,54160.8
77085.9,52247,96692.7,70317.3,47036,97974.2,144771,96912,97900.5,69060.8,55652,81326.2,238.166,31474,144771,60084.9
104002,68060,100145,85838.1,44815,125527,150879,84195,117442,90152.6,73769,80091.1,240.697,31754,150879,80798.1
83240.1,47614,114572,44196.4,22353,129578,59522.6,34697,112427,59225.1,44589,87047.9,240.718,31757,59522.6,55534.7
54473.4,35634,100184,21305.9,11275,123841,48990.6,27847,115296,64363.9,45742,92216.3,241.694,31863,48990.6,61326.5
68258.7,52612,85026.3,68093.3,47536,93877.6,112407,82545,89244.3,55459.6,45397,80062.6,243.147,32034,112407,48490.4
53236.8,38867,89765.8,32589.9,23439,91122.2,53381.6,36012,97145.8,68944,51168,88303.5,243.463,32065,53381.6,65634.3
80736.3,58135,91014.6,45323.7,28969,102535,84630.1,56698,97822.2,81049.5,54434,97579.8,243.674,32084,84630.1,75802.4
73368,47390,101461,69316.5,50494,89965.7,129337,88513,95762.3,65368.9,51959,82450,245.081,32255,129337,57350
68683.5,47119,95529.2,27551.2,18106,99723.6,47308.6,33270,93189.6,53150.8,41196,84554.1,245.458,32301,47308.6,50217.7
103807,43536,156264,49775.9,23894,136524,82402,32841,164438,58277.1,41760,91457.1,246.035,32370,82402,53168.2
64579.5,44761,94552.9,54547.8,39360,90824.3,110494,78860,91825.1,55306.7,44569,81325.2,247.708,32533,110494,48456.1
66096.9,23920,181092,109431,37925,189101,123246,61057,132287,78710.1,64836,79559.9,249.946,32775,123246,71068.9
68094,54350,82108.7,25036.7,17731,92538.7,53624.8,42293,83095.4,79961.1,58596,89431.6,250.853,32886,53624.8,76636.4
55247.4,43960,82363.4,30916.4,22812,88818.9,61311.5,48613,82655.1,74844.5,62693,78238.6,252.776,33080,61311.5,71043.2
