"FSC-A", "FSC-H", "FSC-W", "SSC-A", "SSC-H", "SSC-W", "FITC-A", "FITC-H", "FITC-W", "PE-A", "PE-H", "PE-W", "Time", "Event #", "Comp-FITC-A", "Comp-PE-A"
55641.6,34268,106412,90272.2,45217,130837,124790,69517,117644,98606.6,75735,85327.6,6.319,920,124790,90869.6
100354,57545,114290,78893.6,52474,98532.1,163153,102608,104206,93173.1,74357,82119.9,6.72,990,163153,83057.6
68869.8,51908,86951,45063.8,21162,139557,80240.5,46598,112851,90900.4,73993,80511,7.708,1158,80240.5,85925.5
75414.6,51298,96346.3,41472,22072,123138,78404.3,40739,126127,90181.8,70118,84288.7,26.185,4102,78404.3,85320.7
82200.6,47861,112557,61236.4,32661,122874,84645.4,46473,119367,94748,63653,97550.8,30.299,4788,84645.4,89499.9
73831.5,47357,102173,50811.4,29936,111237,104700,65519,104728,94471.4,70371,87980.5,31.883,5046,104700,87979.9
82823.4,56076,96795.7,31914.4,20854,100295,75871.8,45480,109330,92343.3,58012,104320,36.244,5734,75871.8,87639.2
72919.8,57917,82512.4,29217.8,21373,89590.5,69092.7,57372,78924.6,90711.4,77368,76838.8,42.111,6661,69092.7,86427.6
74112.3,53964,90004.9,53257.8,26810,130187,88255.3,52901,109334,93349.6,76023,80472.5,44.01,6946,88255.3,87877.8
89590.5,63042,93134.8,44350.7,28941,100431,89422.9,62003,94518.3,92507.3,68887,88007.3,53.351,8356,89422.9,86963.1
76375.8,55906,89531.8,38405.7,23199,108494,76703,47152,106609,88750.1,64585,90056.9,58.717,9181,76703,83994.5
86683.5,60286,94232.3,47176.6,19053,162272,78922.8,50154,103128,89649.4,59699,98414.8,59.103,9232,78922.8,84756.2
83663.1,54593,100433,69174.7,27498,164864,100657,54706,120584,91167.3,73539,81245.9,59.437,9291,100657,84926.6
103265,67861,99727.1,52316.8,35455,96703.8,123613,71733,112934,94468.6,64458,96048.5,60.048,9386,123613,86804.6
94242.6,67638,91313.8,59775.6,31404,124744,84146.4,52959,104130,92711.6,62447,97297.7,63.963,10018,84146.4,87494.5
66915,43085,101783,31765.7,18199,114391,79602.5,56765,91902.2,92895.1,75471,80666.4,65.303,10249,79602.5,87959.7
94674.6,66205,93717.9,67224.6,38973,113043,146624,87734,109526,94011.3,65592,93931,68.803,10776,146624,84920.6
78713.1,55858,92351,34784.8,24940,91405.5,75932.9,52960,93964.1,86480.2,64694,87605.8,70.007,10967,75932.9,81772.4
69071.4,50142,90276.9,45856.1,32896,91355.3,79035.4,48968,105777,94143.3,62761,98305.9,81.305,12661,79035.4,89243.1
66024,49401,87588.3,30242.2,22446,88298.8,69928.1,52420,87424.8,90152.6,73716,80148.7,82.869,12903,69928.1,85817.1
78421.5,57298,89696.5,44074.1,23181,124604,81235.8,51667,103042,86994.5,62519,91192.7,84.572,13171,81235.8,81957.9
104003,69112,98621.8,85719.9,50129,112066,159597,95950,109008,93634.6,63757,96247.2,89.161,13850,159597,83739.6
61398.9,46894,85807.1,20180,15608,84733.3,65623.3,50888,84512.8,86053.5,67429,83637.6,94.811,14748,65623.3,81984.9
74257.2,43292,112412,65179.9,33685,126811,99341.9,53550,121577,89011.4,57568,101332,96.552,15004,99341.9,82852.2
63919.8,52999,79040.1,36841.9,27443,87981.4,75616,56426,87824.2,97280.5,71727,88883.9,102.87,16003,75616,92592.3
87255.9,54379,105158,51385.5,27383,122981,88712.6,45433,127966,91577.4,61847,97039.7,110.228,17164,88712.6,86077.2
62805.6,45244,90974,30997,23580,86150.1,62180.3,49029,83115,92198.7,77985,77480.7,110.498,17201,62180.3,88343.5
75701.7,54507,91019.3,44122.8,25582,113034,84969.3,50620,110007,92120.9,62553,96513.9,112.428,17484,84969.3,86852.8
97298.1,54869,116214,53344,26106,133914,104671,58314,117634,89126.8,72141,80966.6,115.829,18038,104671,82637.2
71424,55804,83880.1,44842.8,31342,93766.1,86688.7,53662,105871,89246.3,59500,98300,117.061,18241,86688.7,83871.6
70812,40244,115315,72341.2,51531,92001.9,128895,80593,104814,90662.8,63687,93294.9,119.309,18745,128895,82671.3
57528.9,46267,81488.2,53263.4,33506,104180,89634.1,61550,95438.9,90864.3,68093,87452.2,120.246,18958,89634.1,85307
86094.9,60161,93786.9,57515.4,37327,100981,97799,57100,112248,87824.4,54958,104728,121.037,19132,97799,81760.8
63486.9,41015,101443,112779,56580,130631,137956,79192,114167,92344.6,64589,93698.6,122.529,19505,137956,83791.4
45486.9,39800,74900.2,23924.7,18276,85791.6,61917.6,45034,90105.9,86719.3,63095,90074.3,122.757,19542,61917.6,82880.4
71601.3,51158,91724.9,52262.6,38208,89643.1,108754,78916,90314.7,101558,68330,97404.9,123.527,19728,108754,94814.8
68540.4,50865,88309.5,73354.5,39867,120585,122356,74564,107542,93143.9,69179,88238.9,123.837,19796,122356,85557.8
74629.8,51208,95511.2,52387.7,24068,142649,100486,64545,102029,89249.1,72250,80955.4,132.887,21775,100486,83019
70729.2,43838,105737,89365.9,43924,133337,151529,77009,128954,99695,64013,102067,133.009,21795,151529,90300.1
74875.5,56688,86562.2,56110.1,36999,99387.4,64718.4,42868,98940.6,89510.4,59161,99155.8,134.521,22131,64718.4,85497.9
50687.1,39945,83160.1,43273.5,34646,81855.6,83102.5,60457,90084,100771,68957,95771.5,135.084,22252,83102.5,95618.5
50975.1,41665,80180.1,32528.8,23769,89688.5,79738.7,60634,86185.3,92518.4,72158,84027.9,135.127,22266,79738.7,87574.6
66643.2,52595,83040.8,41424.8,26394,102857,89921.9,57046,103305,98621.9,63229,102220,135.509,22357,89921.9,93046.7
80703,45552,116108,74146.8,32125,151262,135870,74512,119502,99065.3,62111,104528,138.584,23066,135870,90641.4
75548.7,54075,91561,63347.9,37651,110264,90504.3,39543,149996,91566.2,61867,96996.6,139.719,23297,90504.3,85955
72187.2,43565,108593,91314.7,55324,108170,164679,95175,113395,103569,67936,99910.1,139.726,23298,164679,93358.8
58718.7,41951,91730.6,69848.9,41559,110147,127799,71665,116870,96926.1,62922,100953,139.764,23312,127799,89002.5
97055.1,58701,108356,164315,75053,143479,244729,133768,119898,103398,71378,94935.2,149.084,25324,244729,88224.7
79751.7,45930,113795,54317,32191,110581,108291,64444,110126,99451.7,70959,91851.2,151.512,25863,108291,92737.7
68868.9,43103,104712,54043.2,22011,160909,94486.6,50345,122997,91421.7,60438,99133.2,159.88,27554,94486.6,85563.5
62335.8,49612,82343.8,27876.4,20123,90787.2,67070.3,37663,116707,89125.4,56714,102989,162.331,28111,67070.3,84967
59647.5,37993,102889,52269.6,29010,118081,95445.7,58947,106115,87700.7,61893,92862.7,163.829,28429,95445.7,81783
98024.4,61459,104527,63065.7,36885,112053,122736,72969,110233,95512.5,60110,104134,164.651,28588,122736,87902.9
52816.5,39083,88564.9,26996.6,18487,95702.3,65266.1,43730,97811,92227.9,59004,102438,164.652,28590,65266.1,88181.4
77436.9,54785,92633.1,38294.5,23859,105188,86837.5,56009,101608,87091.8,61958,92121.3,166.358,28970,86837.5,81707.9
48131.1,37219,84750.3,35435.3,23258,99848.9,62359.6,36955,110588,88629.2,60982,95247.8,169.422,29597,62359.6,84762.9
57653.1,24344,155207,62782.1,19677,209101,87888.3,40684,141575,90536.3,73579,80639.6,170.637,29853,87888.3,85087.2
48585.6,36962,86145.4,41260.8,29514,91619.7,93669.3,65874,93188.7,93801.4,71768,85656.1,171.202,29969,93669.3,87993.9
66592.8,46946,92962.7,38804.6,27357,92959.8,81855.7,55966,95852.8,97540.5,69944,91393.3,174.825,30687,81855.7,92465.4
66811.5,51495,85028.8,36814.1,25608,94214.8,72321.7,47295,100215,90105.4,63368,93188.1,177.265,31179,72321.7,85621.4
63271.8,44097,94033.2,42482.6,31442,88548.4,92109.7,62286,96915.9,90758.7,67555,88046.2,182.241,32142,92109.7,85047.9
67860.9,48741,91244.2,30852.4,22102,91482.5,71334.8,48247,96897.2,90199.9,61873,95539.9,183.605,32399,71334.8,85777.1
76927.5,53293,94600.1,88850.2,49983,116497,174633,99972,114479,108045,72047,98280.5,184.026,32481,174633,97217.5
46388.7,36634,82986.6,38678.1,25498,99412.1,76420.8,54034,92688.2,92751.9,73266,82966,186.887,33082,76420.8,88013.8
72396.9,55091,86123,45878.3,31614,95106.1,90701.7,65392,90901.4,90849,70537,84407.9,188.507,33420,90701.7,85225.5
