"FSC-A", "FSC-H", "FSC-W", "SSC-A", "SSC-H", "SSC-W", "FITC-A", "FITC-H", "FITC-W", "PE-A", "PE-H", "PE-W", "Time", "Comp-FITC-A", "Comp-PE-A", "Event #"
100356,71021,92605,55520.4,37308,97528.3,212147,150741,92232.8,105465,82302,83980.5,0.186,212147,92099.8,53
121256,76484,103900,70051.8,44926,102188,196063,122264,105094,111699,78680,93038.6,0.472,196063,99346.6,141
124757,76744,106537,67076.1,41818,105120,200408,124827,105217,112637,77571,95161.7,0.749,200408,100011,208
103026,69012,97837.2,58874.4,36099,106884,158629,97416,106716,108537,69430,102450,1.313,158629,98543.4,368
119512,77457,101118,68841.5,44470,101453,242087,160194,99038.9,116979,83029,92333.4,1.644,242087,101728,468
79732.4,57014,91650.2,30271.8,18891,105018,112378,77035,95603.8,109773,85221,84417,1.905,112378,102693,540
80181,61230,85819.7,22392.5,17111,85764.4,114213,93922,79694.3,108152,89206,79455,2.357,114213,100957,683
116185,76853,99076.2,56035.2,39893,92054.3,179167,125050,93897.7,113867,78335,95262.5,2.399,179167,102579,701
81539.1,65451,81645,25465.7,18090,92256.5,114141,86670,86308.6,107774,91105,77526.7,2.425,114141,100583,707
107679,73111,96522.7,57258.5,33957,110507,156416,104127,98445.9,111974,81654,89871.2,2.542,156416,102120,742
97201.4,70492,90367.5,45908.2,29833,100849,142789,92738,100906,104081,86104,79218.5,2.876,142789,95084.9,845
97926.7,64627,99304.1,50784.5,26762,124363,173611,89765,126751,104121,73229,93182.6,2.966,173611,93183.4,872
98372.6,65623,98242.2,59051.2,38099,101577,202442,132827,99883.9,109123,79005,90519.6,3.015,202442,96369.4,893
67114,51153,85984.9,15453.1,10014,101132,92951.3,68478,88957.9,99992.1,75431,86875.2,3.414,92951.3,94136.2,1015
145463,82191,115987,86108.1,40225,140290,256953,132828,126778,124420,77991,104551,3.716,256953,108232,1101
122214,80112,99977.7,67226.9,43185,102021,234785,150486,102248,117954,84037,91986.2,3.992,234785,103163,1175
126539,80194,103410,71494.8,46153,101521,207262,125044,108627,115090,68815,109606,4.075,207262,102033,1195
105783,69871,99219.7,56868.5,31056,120007,166387,108937,100098,110669,80760,89806.9,4.42,166387,100187,1286
114311,77374,96821.5,54477.8,37924,94142.4,170754,118925,94097.2,111345,80319,90851.5,4.441,170754,100588,1291
112662,70359,104940,69366.7,39774,114296,183076,124392,96453.9,110530,80147,90380,4.763,183076,98996.1,1376
83521.2,57669,94914.8,32969.3,23617,91488.2,131980,84653,102175,108031,72178,98090,4.822,131980,99716.6,1390
133976,79757,110088,98654.4,55829,115807,259956,136779,124555,112659,77378,95417.8,5.561,259956,96282.1,1584
105445,61077,113143,55759.6,26663,137054,173200,90713,125129,113439,76516,97160.8,6.267,173200,102528,1799
93193.7,64915,94085.2,47868.6,31606,99257,207737,148176,91879.1,108477,86114,82555.2,6.341,207737,95389.7,1831
132324,79360,109274,80666.3,49385,107048,254513,153956,108341,117064,79797,96142.5,6.458,254513,101029,1862
97025.1,68137,93321.4,37489.4,23566,104256,142834,91658,102127,107069,79446,88322.8,6.654,142834,98070.8,1930
137168,84425,106478,65989.3,40462,106882,227314,145915,102095,118646,81869,94975.8,7.048,227314,104325,2040
115853,78384,96863.5,51220,35609,94267,209124,151455,90490.1,108681,79298,89819.9,7.087,209124,95506.5,2050
137344,86038,104616,61258.6,36017,111465,196479,131237,98116.2,109843,90662,79401.5,7.108,196479,97465.3,2056
158047,66528,155690,104983,42614,161453,260533,126023,135486,129259,80708,104960,7.167,260533,112845,2075
86105.7,62767,89904.3,36429.9,22925,104143,135548,89327,99447,103947,76849,88644.6,7.296,135548,95407.1,2109
105170,69253,99524.8,61022,38204,104679,165260,99535,108811,115002,75708,99550.4,7.317,165260,104591,2113
101605,68467,97255.5,62561.2,42276,96982,216338,166323,85243.4,106126,81851,84972,7.514,216338,92496.2,2189
72977.3,48122,99385.8,47989.5,26139,120320,139112,81348,112072,105292,61892,111491,7.644,139112,96528.2,2228
129609,79052,107449,80467.4,51039,103323,234234,153013,100323,113825,81221,91844,7.682,234234,99068.7,2239
128140,79298,105901,78679.9,49264,104668,246375,153810,104976,118881,83351,93472.1,7.72,246375,103359,2246
89226.1,61820,94589.4,34639.8,21405,106057,104954,77471,88785.2,106961,84614,82844.7,8.271,104954,100349,2402
95182.8,66825,93346.8,43197.7,31408,90136.4,142762,107841,86757.9,107700,82300,85762,8.546,142762,98705.8,2489
115191,70674,106817,62748.4,39995,102820,186134,117408,103898,106123,68971,100838,9.115,186134,94396.5,2656
123630,86060,94146,64741.3,46644,90963.2,247173,184760,87674.4,109771,83741,85906.9,9.12,247173,94198.8,2660
117029,74788,102551,64837.5,40233,105615,195978,124285,103340,105846,74363,93281.9,9.157,195978,93499.4,2668
125162,81266,100935,69981.6,44256,103631,221273,147941,98021.1,114283,79930,93702.6,9.251,221273,100343,2702
101111,70410,94111.9,50386.7,35216,93768.2,176349,137638,83968.1,112211,90825,80967.2,10.058,176349,101101,2944
118586,78501,99000.9,53753.7,36726,95921.2,183540,120194,100076,117092,79531,96487.7,10.149,183540,105529,2970
77573.3,51065,99556.3,36010,20027,117838,138605,70552,128750,106887,61630,113662,10.469,138605,98155.2,3074
116085,75043,101379,61509.5,35929,112196,170685,109656,102010,113793,80875,92210.6,10.508,170685,103040,3092
113138,77439,95747.5,66168.7,42931,101009,222715,145313,100444,114547,91846,81734,10.579,222715,100516,3116
127407,83472,100031,70304,47411,97180.9,218968,136320,105269,115107,77612,97197.2,10.74,218968,101312,3169
110035,77433,93129.1,43826.9,30973,92733.7,174938,121099,94672.6,108892,80138,89050.6,11.25,174938,97870.8,3321
85505,65418,85659.2,35226.1,24678,93548,124329,96834,84144.5,107614,90243,78151.1,11.577,124329,99781.2,3421
139697,84692,108100,98495.8,55346,116630,250497,164772,99632,114284,84788,88334.9,11.661,250497,98503,3436
129583,71831,118227,78754,39746,129855,228201,110125,135804,108144,69523,101943,11.931,228201,93767.8,3516
113415,72563,102432,60729.5,41806,95200.9,230715,162569,93007.5,117525,80818,95302.2,12.337,230715,102990,3646
90130.3,53199,111032,42259.1,18082,153163,132743,77012,112962,104312,75263,90830.7,12.369,132743,95949.2,3658
79275,58419,88932.8,32700.2,22799,93997.1,98875.4,78141,82925.7,98601.1,76413,84565.7,12.44,98875.4,92371.9,3676
119993,80355,97864.3,61824.1,40643,99690.1,192611,125330,100718,109070,78819,90688.9,12.589,192611,96935.5,3720
108645,71630,99401.9,55298.1,37095,97695.5,188026,133542,92273.9,104094,78177,87261.9,12.775,188026,92248,3764
120446,70055,112677,73905,30643,158060,177716,93631,124391,122096,91328,87614.8,12.777,177716,110900,3766
85808.5,63591,88433,34604.7,26488,85618.2,124884,88956,92005.4,103297,76208,88831.2,13.072,124884,95429,3854
124591,74251,109968,70675.8,40997,112979,225044,133298,110643,113220,79865,92906.3,13.248,225044,99041.8,3905
126735,79802,104079,86145.8,54024,104503,256955,174034,96761.7,113834,79168,94233.2,13.315,256955,97646.3,3920
110371,71850,100672,59218.9,38226,101527,207311,137602,98736.5,110102,80221,89947.2,13.544,207311,97041.6,3997
80509.4,52775,99976.6,46918.3,25661,119825,140687,86607,106459,105097,77901,88415.4,13.819,140687,96233.9,4070
115762,74484,101855,62635.3,40343,101749,232264,150052,101443,119538,85894,91205.6,14.485,232264,104905,4275
91514.2,57452,104391,40118,22195,118458,139552,92812,98540.1,110894,71831,101176,14.642,139552,102102,4317
75426.6,56794,87036.6,21732.1,14384,99015.2,114128,78135,95725.5,99156.2,79126,82126,15.594,114128,91966.1,4589
80231.7,56628,92852.8,30178.2,20067,98557.8,118459,78662,98691.9,106500,77635,89902.5,15.828,118459,99037,4659
106474,71754,97247.5,51845.3,34309,99033.3,200114,132510,98971.3,110558,82272,88068.4,16.353,200114,97951.3,4809
125538,77224,106538,83831.8,51014,107696,235750,136800,112939,110023,77138,93474.8,16.384,235750,95170.7,4820
65566.3,48005,89510.5,27554.8,12688,142326,111114,63015,115559,112564,68660,107443,16.399,111114,105564,4830
108477,68514,103762,64975.3,41189,103382,206794,124139,109171,111227,78281,93117.8,16.428,206794,98198.7,4841
92665,61508,98733.4,30321.2,18430,107820,122244,78373,102221,109817,71365,100848,16.428,122244,102116,4842
74457.4,49731,98120.7,32626.1,19452,109921,125147,79592,103046,104697,69671,98483,16.498,125147,96812.5,4867
115837,75711,100269,63432.2,40033,103842,229909,152723,98657.8,109405,78374,91484.3,16.532,229909,94921.1,4875
144331,78977,119768,91627.9,50024,120041,260481,155951,109463,117242,76891,99927.9,16.848,260481,100831,4964
128671,83466,101030,72742.8,46682,102122,206924,134159,101081,112593,77391,95345.6,16.992,206924,99556.8,5007
137986,83507,108291,72423,42206,112456,245280,150334,106926,115476,85245,88777.8,17.021,245280,100024,5015
119539,75712,103472,45789.9,27344,109746,175958,108289,106489,106007,80923,85850.6,18.163,175958,94921.9,5345
102808,67746,99454.6,52894.4,29315,118250,154786,94079,107825,115267,89024,84855.1,18.407,154786,105516,5437
73951.9,54057,89655.6,18608.2,10966,111208,97991.4,71782,89464.8,103356,88019,76955.8,18.7,97991.4,97183,5531
120046,76183,103269,68052.4,41897,106449,223671,136133,107678,112911,78612,94130.3,18.753,223671,98820.2,5542
123611,78835,102759,49611.9,28880,112582,170105,92761,120180,104230,62083,110027,18.816,170105,93513.5,5568
108857,74121,96248.6,47360.3,32016,96945.4,166647,103735,105282,105963,85121,81582.6,19.452,166647,95464.2,5796
94440.6,65762,94116,39317.2,26902,95780.7,155717,110760,92136.5,112029,80380,91340.1,19.677,155717,102219,5846
109584,74948,95822.3,46736.3,30289,101123,154678,110060,92104,105949,78226,88761.5,19.752,154678,96204,5865
125200,81130,101135,76551.8,49306,101750,247664,163615,99202,116072,82387,92331.1,20.24,247664,100469,6018
89064.1,65472,89151.1,41902.9,25915,105968,163621,87418,122664,124305,69583,117075,20.495,163621,113997,6104
119178,76255,102426,59263.1,36074,107664,173218,113345,100155,107561,81215,86795.5,20.658,173218,96647.9,6154
116344,78212,97488.2,66210.3,40869,106172,229359,148170,101446,114470,86855,86372.9,21.081,229359,100021,6285
125695,79994,102977,72347.6,46818,101272,217831,147269,96936.5,116492,76372,99963.3,21.088,217831,102768,6288
107594,73099,96462,53177.8,37297,93440.8,185741,127819,95234.3,103831,76864,88528.7,21.398,185741,92129.3,6380
110491,74727,96901.1,58162,38187,99816.8,173478,119752,94938.6,104644,78094,87816.2,21.458,173478,93714.4,6395
81989.5,54468,98649.9,48543.3,24757,128502,140997,84775,108999,106289,70968,98153.8,21.761,140997,97406.5,6486
154671,86932,116603,59612.8,28510,137032,200719,85881,153169,113911,64924,114985,23.2,200719,101266,6921
69266,54051,83984,29510,18824,102739,95582.5,64538,97060.6,103162,75880,89098.5,23.21,95582.5,97139.8,6927
110476,70120,103254,76843,47358,106339,210002,142489,96587.7,106236,76131,91451.3,23.768,210002,93005.9,7101
109795,72964,98617.3,63918.4,43058,97286.4,211610,138430,100181,110620,85792,84501.6,24.102,211610,97288.2,7193
121629,74519,106967,83812.3,36226,151624,200478,96948,135522,117112,81243,94470.2,24.193,200478,104482,7226
119421,73590,106351,80427.1,43907,120046,255407,158551,105571,109327,85759,83546.7,24.39,255407,93236.8,7272
123926,79232,102504,70211.7,46701,98528.8,207306,130774,103889,114439,81379,92159.8,24.496,207306,101379,7309
87596.5,64560,88920.7,25548.9,18679,89639.3,115028,86873,86775.7,108662,81113,87794.3,25.064,115028,101415,7511
111110,72466,100485,59645.3,36008,108557,198189,150348,86389.6,112022,90397,81213.9,25.137,198189,99536.4,7536
107767,65468,107878,66446.9,32126,135550,196418,109947,117079,114159,76258,98108.5,25.161,196418,101785,7545
125123,80966,101278,64942.8,40199,105876,213048,144807,96420.1,114206,83904,89204.6,25.738,213048,100784,7727
77213.7,60108,84186.4,29459.3,22436,86051.2,152451,112584,88742.9,121365,92767,85739.6,26.124,152451,111761,7848
70568.1,42613,108529,28624.7,18605,100830,113057,72929,101596,99932.3,62817,104258,26.255,113057,92809.7,7879
103694,70848,95919.2,46186.4,32372,93502.8,171276,114303,98201.8,106209,74546,93371.8,26.3,171276,95418.3,7896
125744,72312,113961,53566.5,29378,119495,165047,97762,110641,104580,73888,92758.5,26.582,165047,94181.9,7976
146263,88105,108797,87682.4,48719,117949,243031,145681,109330,118087,82813,93450.7,26.723,243031,102776,8016
83177.6,60950,89436.1,30072.9,22296,88395.1,127690,94885,88194,101768,77709,85826.1,27.106,127690,93723.4,8130
74099.6,46023,105517,42849.3,22809,123117,127045,79164,105174,107841,66144,106850,27.424,127045,99837.6,8225
128057,85381,98292.7,69629.3,47805,95455,216297,148303,95582.8,110443,76535,94570.8,27.464,216297,96816.1,8246
115486,75858,99771.4,62275.2,39582,103109,223560,150589,97292.7,117062,84201,91112.9,27.488,223560,102978,8252
111094,73956,98446,63372.4,41150,100928,184826,116784,103719,115540,78462,96505.8,28.173,184826,103896,8467
107095,71589,98039.5,58344,38820,98496.5,190688,133173,93839.8,112044,89757,81809.1,28.236,190688,100031,8486
104525,70685,96911.1,58030.7,41144,92433.9,183483,129105,93139.4,108062,82640,85696.8,28.266,183483,96503,8495
125383,81036,101401,55779.1,35271,103641,199532,115455,113261,116834,80911,94632.5,28.414,199532,104263,8540
121503,72019,110565,63321.7,37492,110686,221870,142578,101982,108087,76642,92424.6,28.679,221870,94109.4,8606
97143.5,69288,91883.1,49930.4,35792,91423.8,166638,120824,90385.9,105667,82802,83632.8,28.986,166638,95168.4,8704
116525,73978,103228,70202.6,44249,103975,218709,137065,104573,110361,76683,94318.3,29.152,218709,96582.2,8750
118752,79311,98126.6,55486.6,36612,99321.8,171570,118628,94783.9,109412,84427,84930.4,29.312,171570,98603,8798
103259,68974,98111.8,57864.3,36153,104893,174097,95134,119932,107873,68040,103903,29.429,174097,96904.6,8837
136028,44334,201082,124523,44048,185269,245955,73378,219669,110790,70487,103008,29.629,245955,95294.7,8907
81108.4,57499,92445.4,40645.8,28894,92190.9,178270,95878,121854,118404,79732,97322.6,30.017,178270,107173,9039
138550,71025,127842,90916.8,45619,130611,242109,129032,122969,120761,78327,101040,30.155,242109,105508,9081
117923,74505,103727,66605.5,36832,118513,222232,123799,117644,111944,80861,90728.3,30.321,222232,97943.7,9135
133276,81921,106619,75545.6,45921,107815,234391,150366,102158,118066,80355,96292.4,30.438,234391,103299,9178
92112.3,61637,97939.1,43761.9,25204,113791,131845,83442,103552,110972,75908,95808.8,30.889,131845,102666,9321
94205.6,57671,107053,38157.6,18560,134736,146337,80185,119603,110721,81465,89071.5,30.995,146337,101502,9353
123774,79002,102677,72520.5,45013,105585,230001,135982,110848,114188,80628,92814.3,31.23,230001,99698,9422
125604,78964,104245,81542.5,50808,105180,261084,160125,106857,112778,75197,98288.4,31.302,261084,96329.3,9445
129638,75525,112492,73180.9,39090,122691,221248,122048,118803,112460,78464,93931,31.406,221248,98521.8,9479
108090,71293,99361.2,59320.3,36408,106779,192474,120103,105026,113538,78482,94809.4,31.473,192474,101412,9492
119300,82345,94947.5,31021.9,19119,106337,133667,79838,109722,103524,64153,105756,31.806,133667,95103.2,9612
106677,68348,102288,64441,39845,105991,215722,142161,99447.5,105473,72215,95717.9,31.962,215722,91882.4,9674
84460.1,57582,96126.9,49635.3,33330,97596.7,207184,155526,87303.6,108803,82944,85968.2,31.991,207184,95750.9,9682
110226,55273,130692,60470.8,23933,165588,217359,91402,155848,124290,71501,113921,32.072,217359,110597,9700
155469,82032,124205,65248.3,32156,132980,221928,137029,106140,115541,86495,87544,32.129,221928,101560,9716
108103,74654,94899.6,52596.7,37295,92424.6,211648,153385,90429.6,106983,80057,87578.5,32.434,211648,93649.7,9811
117550,77719,99123.5,63967.8,42510,98616.6,212523,151308,92049.9,106908,78806,88906,32.535,212523,93519.2,9843
120280,67581,116640,74201.4,43672,111350,257274,147814,114067,111663,88675,82525.8,32.612,257274,95455.2,9871
73956.3,53296,90941.2,31391.1,19426,105902,114032,73913,101108,104419,77729,88038.9,32.68,114032,97234.6,9892
118634,76372,101802,59650.5,39997,97738.7,185264,126564,95931.6,108862,70984,100507,32.779,185264,97190.3,9914
125793,69637,118385,72428.2,38376,123688,213391,113749,122944,111998,72012,101926,33.608,213391,98554,10160
115732,69018,109893,66420.9,35293,123338,161283,89417,118209,103748,62336,109074,33.719,161283,93587,10189
90123.2,63942,92369.9,44456.1,28138,103542,134020,84464,103986,112451,85828,85864.9,33.905,134020,104008,10252
92912.4,64117,94968.7,49818.6,32624,100077,202497,130190,101934,108243,79803,88891.7,34.758,202497,95485.9,10511
115534,75878,99787.4,61963.2,41891,96937.8,212941,147642,94521.3,108202,79638,89041.7,34.958,212941,94786.3,10569
133523,85879,101894,84844.5,49963,111290,198594,144263,90217.8,116420,96799,78820.2,35.029,198594,103909,10593
114089,73249,102076,73658,45323,106508,198892,118765,109751,109895,69366,103828,35.187,198892,97365.3,10648
121408,78044,101950,76076,47862,104169,232644,141625,107654,109398,78627,91183.5,35.864,232644,94741,10864
109037,59717,119661,51333.1,22210,151471,144491,94587,100113,112670,83659,88262.1,35.965,144491,103567,10894
98085.1,71667,89694.1,56279.6,38049,96936.6,240937,177902,88756.9,110942,90052,80738.8,36.366,240937,95763,11013
121259,76767,103519,73118.5,46387,103303,204906,129561,103648,114516,78770,95276.1,36.765,204906,101607,11152
97314.4,65933,96728.4,31423.6,18951,108669,126775,84410,98428,111994,88145,83267.6,37.817,126775,104007,11470
121860,81646,97814.9,63243.7,42439,97663.5,190334,130114,95867.8,115275,83545,90426.2,37.915,190334,103284,11503
117500,74893,102819,79857.7,50055,104556,245151,147062,109248,119566,87403,89652.4,38.151,245151,104122,11574
112293,77005,95568.3,53735.5,37120,94871,166768,117358,93127.9,114783,83316,90288.2,38.195,166768,104277,11591
131397,81825,105240,79964.3,47860,109497,224025,146058,100520,106956,72432,96773.3,38.35,224025,92842.6,11627
118707,78205,99477,59731.1,40857,95810.7,225150,148903,99094.1,111574,80903,90381.1,38.37,225150,97389.4,11632
109257,76029,94178.4,57327.4,37795,99404.9,181637,123173,96642.8,113409,83036,89508.1,38.893,181637,101966,11796
130552,85053,100595,82244.5,51614,104429,217079,147907,96185.5,112121,82674,88878.8,39.159,217079,98445.1,11894
87224.4,53525,106798,36424.7,20722,115198,128955,76646,110263,106178,67565,102989,39.178,128955,98053.4,11901
79769.8,52488,99599.8,35418.5,20268,114525,136929,74280,120810,101383,70918,93689.1,39.408,136929,92756.6,11969
102483,65912,101898,67804.1,39781,111702,203654,124342,107338,105305,74008,93250.5,39.496,203654,92475,12000
132474,78287,110897,82617.6,46207,117178,249463,138178,118317,109853,72564,99213.1,39.683,249463,94136.4,12062
111691,76453,95741.9,48902.1,33592,95405.1,197048,131093,98508,110464,83681,86511.2,39.712,197048,98049.6,12072
120776,81965,96567.5,67615.6,45000,98472.3,188900,128402,96414.2,105080,79023,87146,39.728,188900,93179.6,12080
109280,70455,101651,40813.5,24195,110550,148035,95772,101299,104890,79977,85951,39.855,148035,95564.3,12116
100175,64869,101205,48357.4,28458,111362,153790,84685,119015,114525,72058,104159,40.222,153790,104836,12234
105200,66930,103009,60931,28936,138000,145379,92604,102885,112974,84288,87840,40.74,145379,103815,12392
116126,74277,102460,65084.5,41445,102917,202898,137539,96678.7,105838,77786,89170.4,40.994,202898,93055.7,12462
108992,69355,102990,71186.7,44836,104052,207528,137224,99112.1,111260,81472,89497.8,41.01,207528,98186.2,12466
115717,70679,107297,78660.4,48209,106932,213434,132066,105914,107362,75918,92679.8,41.076,213434,93915.5,12483
120879,81373,97353.2,58416.8,37431,102279,192100,117211,107408,106176,76506,90951.9,41.267,192100,94073.9,12553
101564,69985,95107.6,61149.4,41888,95671.5,205748,126738,106392,106512,85073,82051.2,41.298,205748,93549.4,12560
133197,83461,104590,70470.4,43672,105751,220184,142180,101491,113872,75089,99385.1,41.884,220184,100001,12733
113738,74570,99958.5,58360.9,38593,99104.5,212287,134723,103267,116514,84218,90667.7,42.072,212287,103140,12804
74300.8,48281,100855,36951.2,20779,116542,101616,63978,104090,99248.5,61378,105972,42.246,101616,92846.7,12865
68667.9,48552,92688.7,34347.3,19887,113189,134637,95138,92745,100606,71411,92328.8,42.744,134637,92123.6,13004
78843.3,58314,88607.8,28705.3,20386,92280.5,104264,77182,88531.5,102742,80721,83414.1,42.878,104264,96173,13041
121408,80605,98710.6,64454,43004,98224.8,179890,118936,99122.9,105660,71580,96738.5,43.321,179890,94327,13168
96969.9,65379,97202.8,62084.1,40906,99465.7,206558,144070,93961.3,112883,83737,88346.8,43.712,206558,99869.7,13277
110274,66645,108439,83374.2,48363,112979,258644,145274,116680,115020,80554,93576.5,44.592,258644,98725.5,13535
109157,77048,92847.2,50979.5,36729,90963.3,172819,118432,95632,112559,83176,88687.6,44.772,172819,101672,13583
125370,79492,103359,81975.4,52319,102684,218596,145012,98791.3,115040,84934,88765.8,45.362,218596,101268,13765
106167,67480,103109,73326.5,48994,98084,255358,156038,107250,111051,79185,91909.5,45.584,255358,94963.7,13826
103658,72496,93706.5,46381.4,31306,97094.8,185760,134386,90589.4,104945,85191,80732.5,45.671,185760,93242.2,13854
121837,79174,100851,51849.2,30884,110024,217802,132771,107507,109053,76187,93807.4,45.744,217802,95331.6,13887
85014.6,46999,118545,38369.5,18755,134075,119682,67845,115609,107190,75251,93351.8,46.532,119682,99650.2,14122
116636,79991,95559.2,61103.9,41228,97130.7,191576,124767,100628,111292,81081,89954.6,46.669,191576,99222.4,14161
90342.1,58622,100997,54284.1,28752,123733,166046,92510,117631,120138,81179,96987.9,46.675,166046,109677,14163
126508,79567,104199,80835.3,49810,106357,238696,153798,101712,120078,87548,89887.4,46.693,238696,105041,14172
100890,69899,94593,43860.7,31559,91081.9,147904,102835,94257.9,109050,78991,90475.3,46.704,147904,99732.6,14174
97262.8,66020,96549.7,35603.1,23921,97541.3,149552,105598,92814.6,109814,92621,77701,47.188,149552,100392,14329
107324,76261,92230.6,51539.8,36059,93671.8,156333,107013,95740,104815,86498,79414.1,47.384,156333,94966.1,14388
94369.4,59553,103850,39869.7,21050,124128,162785,85509,124762,103514,75862,89424,47.842,162785,93258.4,14543
117325,68641,112018,72168.2,36761,128658,206531,110807,122151,105061,68064,101159,48.038,206531,92049.3,14598
134673,81363,108476,97809.4,59580,107587,241855,148458,106765,119509,80470,97330,48.212,241855,104272,14666
121531,76238,104471,66946.1,42438,103383,204064,132486,100943,111036,76148,95561.6,48.377,204064,98179.6,14716
88295.1,52194,110865,51966.2,19232,177083,143562,67592,139195,114408,78703,95267.4,50.001,143562,105363,15261
118891,76024,102489,68516.5,44751,100340,221022,139551,103796,109507,75355,95237.7,50.277,221022,95582.4,15353
113133,70407,105306,67519.4,43758,101123,224117,151989,96637,109732,76032,94583.5,50.742,224117,95612.3,15499
114787,76745,98021.6,73933.6,47170,102720,227246,156000,95466.8,115937,91930,82650.1,50.855,227246,101620,15538
80468.5,53520,98534.8,39998.4,18556,141266,133871,73471,119413,107515,73589,95749.6,51.102,133871,99081.3,15620
112193,74096,99231.4,56843.8,39054,95388.8,190368,126733,98442.9,113573,83316,89336.2,51.478,190368,101580,15727
118459,74189,104643,76767.6,45535,110487,228748,128341,116808,106781,75679,92469.2,51.492,228748,92369.6,15732
117275,76732,100164,71825,41870,112422,216160,123498,114708,105878,83324,83275.6,51.803,216160,92260.4,15825
106915,70934,98778.7,61947.6,42217,96165,210929,143171,96551.9,115458,82214,92036.2,51.83,210929,102170,15838
78430.4,52234,98403.6,29485.3,18913,102170,100224,67745,96955.5,104748,73439,93475.3,52.081,100224,98433.4,15910
71168,52875,88209.2,26399.1,16893,102415,96847.4,61588,103056,108441,71056,100017,52.291,96847.4,102339,15974
98618.2,68335,94578.8,52351,34103,100603,204264,140213,95473.6,112102,88161,83332.6,52.373,204264,99233,16000
130663,83585,102448,59397,37866,102800,187252,113440,108178,117621,76914,100221,52.701,187252,105825,16111
102252,53903,124320,45947.2,23007,130882,151104,73672,134417,110571,67008,108143,52.725,151104,101052,16123
127282,80292,103891,80554.5,50668,104192,242473,154858,102615,112521,78831,93544.5,52.905,242473,97245.7,16174
67335.6,46054,95820.3,34468.2,21862,103326,125416,76336,107672,100704,69302,95232,53.218,125416,92803.3,16270
119725,71989,108993,87386,51756,110652,259304,166917,101810,115294,82277,91835.3,53.289,259304,98958.2,16291
112614,73229,100784,57168.8,37500,99909.7,176210,119433,96690.9,114339,83161,90106.1,53.336,176210,103238,16302
113299,72051,103054,60060,38405,102489,229668,155872,96563.5,107672,78196,90240.2,53.619,229668,93203.4,16385
87333,59047,96930.5,33954.7,20678,107615,130825,78220,109611,105407,70655,97769.8,53.634,130825,97164.6,16393
111334,74124,98434.6,55195.4,36414,99337.8,183008,110324,108712,108150,77094,91935.7,53.838,183008,96620.1,16464
82450.5,62516,86433.5,42577.6,33452,83414,143378,104825,89639.3,108186,74698,94916.6,54.196,143378,99153.2,16582
160508,75595,139150,75013.9,37564,130873,229620,110252,136491,111388,66722,109408,54.996,229620,96921.8,16835
140756,82194,112230,89901.5,53190,110769,249921,155205,105530,117729,72927,105798,55.27,249921,101984,16933
99629.3,72689,89825.2,43100.2,22930,123184,140036,81862,112108,115627,83373,90889.7,55.795,140036,106805,17081
92539.5,63410,95642.2,47850.4,30447,102996,137427,96286,93538.1,102437,65126,103082,56.58,137427,93779.5,17316
123783,78081,103895,67793.7,40725,109096,176059,109025,105831,114977,81327,92652.5,56.599,176059,103885,17321
80233.5,54377,96698.6,29788.2,18074,108011,104432,74663,91665.6,104566,79235,86487.1,56.73,104432,97986.3,17363
128660,82181,102601,73193.9,46073,104114,250409,166302,98680.6,115150,81501,92593.7,57.201,250409,99374.4,17542
117431,78962,97464.1,63798.8,42868,97534.7,176810,127865,90622.5,107648,81577,86480.3,57.501,176810,96508.7,17626
91305.1,63684,93960.4,39456.3,24946,103656,126741,88185,94189.4,106483,84835,82259.3,57.722,126741,98498.3,17690
111386,73385,99472.7,51355.2,33861,99395,177948,117104,99586.6,107559,73664,95691.4,58.121,177948,96348.7,17803
75783.5,49391,100556,33085,19970,108576,109697,68176,105449,101202,67364,98456.2,58.611,109697,94291.5,17968
130962,81308,105558,77872.6,40825,125008,213564,129162,108361,105275,73278,94152.7,58.632,213564,91820.8,17975
119593,74016,105891,88615.8,52561,110491,224732,147570,99803.9,110555,79736,90866.2,58.671,224732,96396.5,17988
114595,70257,106894,70523.7,43602,106001,216885,146892,96763.7,106521,72106,96815,60.097,216885,92856.9,18425
80165,55192,95189.4,31931.9,21580,96973.5,114162,80020,93498.2,103919,66761,102013,60.397,114162,96727.2,18508
77399.7,60195,84267.3,32502.6,22744,93655,118767,85645,90880.9,105933,94653,73346.1,61.044,118767,98450.8,18713
122091,75633,105792,67251.6,40430,109013,204797,123448,108722,111189,80116,90954.1,61.891,204797,98286.8,18991
98838.1,70187,92288.5,40773.2,28220,94688.6,126144,86533,95535.6,99828.3,76659,85343.5,61.988,126144,91881.2,19038
147234,80174,120353,72055.1,27696,170501,175488,87481,131466,108098,60860,116403,62.075,175488,97041.8,19061
119843,78517,100030,62853.7,41667,98859.5,183284,114509,104898,108111,76737,92330.1,62.359,183284,96563.7,19149
107961,69532,101756,58425.9,35793,106976,205439,142205,94677.8,111483,82887,88145.8,62.718,205439,98540.1,19250
91333.6,66146,90491.3,46716.8,23661,129396,126035,86450,95544.6,109182,87660,81626,62.733,126035,101242,19253
122544,78420,102411,74704.5,47810,102402,246960,168462,96073.6,119981,86086,91339.7,63.726,246960,104422,19596
106705,66441,105251,67142.4,36293,121242,181450,89042,133550,110323,65233,110836,64.323,181450,98891.8,19783
120650,69238,114199,85224.1,42305,132023,252768,134724,122958,107815,64440,109649,64.414,252768,91891.1,19818
126379,76089,108851,85445.1,45144,124042,239936,138921,113190,111402,80704,90464.6,65.136,239936,96286.2,20034
122767,75361,106762,77500.8,47504,106919,222225,128663,113193,108780,66241,107622,65.214,222225,94779.9,20061
96047,63646,98899.2,56540.9,33644,110137,171895,99985,112670,119019,79717,97846.4,65.429,171895,108190,20111
121157,79693,99633.8,66246.7,39747,109229,194484,127384,100057,116483,85400,89388.8,65.838,194484,104230,20227
121874,74727,106884,65042.9,29289,145538,219374,110016,130680,114937,79782,94413.6,65.977,219374,101116,20276
117965,75654,102188,66079,40572,106738,219266,139698,102863,112596,80404,91774.9,66.134,219266,98781.9,20311
124378,77727,104870,84081.4,50130,109921,251532,163087,101077,118299,85238,90955,66.22,251532,102452,20337
84545.5,53926,102748,44552.3,21137,138136,137370,88193,102079,109219,80645,88757,66.426,137370,100565,20392
121275,75547,105204,73357.7,43632,110184,214198,137881,101810,116801,81335,94112.9,66.456,214198,103307,20401
129475,80298,105672,79795.3,49054,106606,230537,139883,108008,117348,81896,93906.2,66.524,230537,102825,20423
128023,76323,109929,76502.4,46360,108146,243906,157206,101679,120446,84050,93915.2,66.537,243906,105080,20429
119016,81045,96240.9,60495.5,38038,104228,186322,126136,96806.9,111688,87219,83922.1,66.7,186322,99949.9,20481
87649.9,58721,97822.3,52994.5,27420,126661,160749,88822,118606,114673,72431,103757,66.875,160749,104546,20534
116253,74244,102618,63072.1,39697,104126,223847,136224,107691,115172,84610,89208.4,67.131,223847,101070,20610
99709.4,68252,95741.6,37148.8,23428,103918,168375,116570,94660.8,106008,87035,79822.8,67.486,168375,95400.9,20702
123457,77412,104517,66797.9,42228,103667,228385,153364,97594.3,113914,82404,90595.8,67.716,228385,99525.5,20773
121749,78085,102183,58532.5,36020,106496,213113,136781,102109,113775,83644,89143.7,67.837,213113,100349,20819
105495,70587,97946.3,65876.2,42686,101140,194620,127140,100320,104274,81012,84354.4,68.198,194620,92013.2,20941
129309,78123,108475,60417.5,33486,118244,209682,125306,109665,113251,83001,89420.7,68.668,209682,100041,21098
86334.4,59648,94856.7,49128.3,26109,123317,126673,86983,95440,105911,71587,96958.7,68.949,126673,97930.6,21177
124550,82986,98360.2,61891.7,39313,103175,178070,111512,104652,109674,80524,89260.7,69.152,178070,98456.1,21241
78486.4,49064,104836,36505.3,21606,110729,123249,71405,113119,109356,69668,102870,69.171,123249,101591,21245
107334,72674,96791.7,59920.9,41268,95157.9,183934,139155,86625.2,109690,85617,83962.9,69.4,183934,98102.2,21323
123020,77695,103768,69560.4,35428,128675,207073,104397,129992,114605,68475,109686,69.458,207073,101560,21343
116037,76579,99304.3,59854.6,39124,100262,206462,136530,99104.2,113565,86961,85585.8,70.072,206462,100558,21533
108378,74356,95522.3,48673.3,32786,97293.1,184718,119584,101232,104939,77758,88444.3,70.21,184718,93301.3,21576
82943.5,55425,98074.7,32324.5,18440,114882,123777,79299,102294,104428,76881,89017.8,70.437,123777,96629.8,21659
111265,72002,101273,58389.5,38478,99449.4,198894,122482,106421,104608,77396,88578.4,70.782,198894,92078.1,21776
111254,76247,95625.7,53514.5,36285,96655,188539,141827,87120.9,112094,89835,81774.1,70.823,188539,100216,21793
93917.2,68790,89474.6,43611.1,21508,132885,169178,107027,103593,108966,89570,79727.5,71.348,169178,98307.8,21974
121218,79830,99513.3,61907.3,40054,101292,229480,137863,109088,108585,84181,84534.9,71.582,229480,94127.9,22056
120102,80218,98120.1,50992.5,31711,105384,175442,121400,94709.5,105121,85121,80934,71.857,175442,94067.8,22134
111473,71090,102764,69270.5,45992,98706.5,184488,114507,105588,104644,72432,94680.8,72.053,184488,93020.7,22201
109255,73176,97847.8,55905.2,37654,97301.8,188227,122914,100360,115311,85075,88828,72.688,188227,103453,22401
114802,71333,105472,69767.1,42617,107287,212970,146156,95495.2,109950,81876,88007.4,73.047,212970,96533,22524
97281.4,60604,105198,66939.6,39593,110801,195356,110138,116244,104398,63999,106905,73.435,195356,92090.4,22651
114344,71961,104135,81656.9,43554,122870,254544,127725,130607,113663,72546,102680,73.801,254544,97626.6,22765
103413,70954,95516.1,50308.7,35355,93255,186683,118926,102874,103873,79599,85521.1,73.901,186683,92111.6,22796
96160.9,61406,102628,86871.2,38043,149651,175729,87754,131237,117324,83098,92528.4,73.916,175729,106253,22804
58873.5,41556,92846.6,25851.8,16323,103794,101119,69978,94700.4,100688,67884,97205,74.038,101119,94317.1,22843
126139,81092,101941,64781.6,40569,104650,205249,125948,106800,105784,75915,91321,74.682,205249,92852.9,23081
74964.7,57723,85111.4,19605.3,16012,80243.1,108248,81181,87387,100525,87142,75600.9,75.391,108248,93705.4,23333
84152.2,54632,100948,44526.3,27326,106788,145417,82374,115692,103701,71315,95297.6,75.519,145417,94539.8,23382
96699.4,57996,109271,44354.7,20396,142520,144297,80251,117839,105477,71550,96611.1,75.769,144297,96386.1,23458
116187,73672,103356,74257.3,46221,105288,258146,162891,103860,116728,82262,92994.4,75.872,258146,100465,23483
127681,78966,105966,93104.7,57115,106832,249228,161075,101403,119861,89951,87327.9,76.53,249228,104160,23686
113989,77795,96026.9,60858.2,42397,94072.8,189060,143518,86332.4,116433,85417,89333.1,76.543,189060,104522,23694
125147,80095,102399,76559.6,50718,98927.6,234364,140344,109440,116059,72851,104405,76.563,234364,101294,23704
102910,69506,97031.9,50824.8,32847,101405,200417,133613,98302.8,105417,76853,89893.8,76.663,200417,92790.7,23733
133429,80432,108718,91159.9,51370,116299,238228,130704,119449,117356,69868,110080,77.082,238228,102348,23866
84694.2,62303,89089.1,43505.8,30292,94123.7,195087,147897,86446.8,106427,88698,78635.4,77.322,195087,94136.6,23939
119193,79022,98851.6,71480.5,46216,101362,246148,165326,97574.4,110418,78514,92166.5,77.525,246148,94910.7,24001
112381,72040,102235,61991.8,40327,100744,167149,99649,109928,108143,76780,92306.1,77.593,167149,97612.7,24023
83194.5,55367,98474.5,42487.9,24195,115085,133047,82721,105407,107093,71506,98151.6,78.068,133047,98710.7,24161
126322,85722,96575.5,61802,39537,102442,210480,140611,98100.7,116882,84770,90361.7,78.384,210480,103621,24251
80669.6,60124,87931,19637.8,12229,105240,109684,73434,97886.9,108875,88251,80851.6,78.482,109684,101965,24279
113800,73193,101895,62675.6,39167,104872,208034,127642,106812,113155,82806,89555.1,78.671,208034,100048,24336
116757,76085,100569,66939.6,42766,102580,203562,133958,99588.1,112265,82702,88963.1,78.689,203562,99441,24350
70387.4,54497,84645.2,26945.1,19881,88822.2,111549,78113,93588.5,99959.6,81113,80763.3,78.769,111549,92932,24376
107487,71220,98908.6,67401.1,45664,96732.6,196422,149359,86186.5,119717,92975,84385.8,78.803,196422,107342,24391
125947,80566,102451,81087.5,47544,111773,261212,166285,102948,114507,88122,85158.1,79.191,261212,98050.3,24506
111069,78126,93170.5,53644.5,36282,96897.8,218213,154266,92702.2,118266,91764,84463.3,79.298,218213,104519,24542
128844,85836,98372.4,70916.3,46072,100876,210590,145440,94892.8,115638,85376,88765.3,79.693,210590,102370,24663
79344.4,50217,103549,39158.6,16577,154811,127058,68384,121766,100170,69838,93999.7,79.732,127058,92165.5,24679
98304.1,61181,105302,80744.3,28793,183783,184951,91816,132013,106505,61557,113390,80.01,184951,94853.2,24764
80187.2,52092,100882,31639.4,18357,112955,118906,68640,113529,106323,78490,88775.5,80.317,118906,98832,24881
123403,76058,106331,70874.7,42590,109060,209395,144046,95267.5,115319,82352,91771.3,80.518,209395,102127,24939
74923.8,52845,92917.1,13520,7182,123370,81142.1,43903,121124,98285.2,55946,115133,80.635,81142.1,93173.2,24974
105489,63948,108109,45912.1,21321,141124,170346,92411,120806,113616,81682,91157.7,80.948,170346,102884,25081
119149,78207,99844.4,61103.9,39959,100215,204039,127270,105067,112987,80913,91514.5,81.473,204039,100132,25228
108455,75558,94069.1,56530.5,37542,98683.7,187734,121814,101001,106935,84358,83075.9,81.679,187734,95108.1,25298
87239.6,64697,88370.9,24789.7,16544,98199.8,126090,100035,82605.2,112014,90943,80720.7,81.738,126090,104071,25317
91853.3,62553,96233.6,37533.6,23712,103737,107999,74872,94532.1,107186,77771,90323.6,82.006,107999,100382,25394
126609,79221,104738,71050.2,41171,113098,233871,139584,109805,112876,80732,91629.9,82.502,233871,98142.5,25547
80330.5,59080,89108.7,44718.7,33481,87532.8,167696,128005,85857,104143,80654,84622.2,82.983,167696,93578.1,25685
102202,67564,99134.6,44774.6,29084,100892,145244,96774,98360.1,102059,71275,93841.4,83.034,145244,92908.7,25706
115700,72158,105082,73895.9,40469,119668,180316,100776,117262,112701,69907,105654,83.937,180316,101341,25973
133071,79909,109136,79960.4,45675,114730,227653,128793,115841,117915,76726,100718,84.14,227653,103573,26050
136042,80140,111251,75422.1,42006,117670,242372,136213,116612,113073,81142,91325.5,84.606,242372,97803.3,26200
84898.9,55610,100053,54995.2,38869,92726,219770,152731,94302.1,113182,81663,90830.5,84.766,219770,99336.4,26245
129473,79403,106862,74428.9,47926,101777,252743,150289,110213,119385,80064,97722.4,84.886,252743,103463,26283
115469,75360,100416,60019.7,38759,101485,201820,133060,99402.2,111865,79632,92063.3,84.934,201820,99150.3,26296
122238,80512,99500.5,68819.4,42856,105240,194713,128495,99308.9,115950,83971,90494,84.958,194713,103683,26302
117264,79950,96122.5,64195.3,43589,96517.5,219927,148761,96888.1,112165,83484,88051.2,85.173,219927,98309.9,26363
117311,66618,115406,66566.5,33061,131953,183696,104561,115136,105499,76780,90049.2,85.654,183696,93926,26524
111922,75359,97333,59416.5,35597,109389,203849,140570,95037.7,121675,96252,82845.9,85.885,203849,108832,26588
117322,74062,103816,59733.7,38293,102230,221638,143410,101285,108231,87423,81134.9,86.134,221638,94268.3,26681
81804.4,62451,85845.4,22391.2,15524,94526.5,111227,83948,86831.8,106478,84981,82114,86.647,111227,99470.5,26838
86150.2,56721,99538.8,48612.2,22218,143390,146081,83202,115064,108199,74499,95181.5,86.661,146081,98995.9,26843
112391,69428,106091,69698.2,44139,103485,256915,161579,104204,111939,80562,91060.8,86.756,256915,95753.4,26871
97984.5,69533,92352.1,44855.2,31602,93020.4,160048,118499,88514.8,104367,81968,83444.4,86.926,160048,94283.6,26930
