"FSC-A", "FSC-H", "FSC-W", "SSC-A", "SSC-H", "SSC-W", "FITC-A", "FITC-H", "FITC-W", "PE-A", "PE-H", "PE-W", "Time", "Event #", "Comp-FITC-A", "Comp-PE-A"
96296.2,67620,93328.4,49298.6,35637,90659.5,183242,119284,100675,104982,80363,85612.4,0.253,127,183242,93437.3
89744.9,63831,92142.1,54488.2,33846,105505,143832,98248,95942.6,116005,81491,93293,0.4,206,143832,106944
125927,78009,105792,46606.3,24601,124157,173316,103762,109466,107086,79668,88090.6,0.688,334,173316,96167.3
66842.6,51372,85272,10571.6,6899,100423,84722.3,63414,87557.3,101862,75832,88031.4,0.707,342,84722.3,96524
96579.2,62749,100869,57681,28678,131815,152630,86522,115610,112818,74753,98907.5,1.198,589,152630,103202
99308,68313,95271,48920.3,35470,90387.4,170483,114058,97957.1,108556,80651,88211.7,1.216,599,170483,97816
95791.6,60750,103338,114579,52621,142701,243660,123908,128874,122799,75645,106389,1.391,679,243660,107449
122135,77722,102985,69604.6,43106,105823,239490,145245,108060,107727,81011,87148.7,1.647,802,239490,92639.2
104512,70968,96512.3,45133.4,32104,92133.8,174936,124200,92307.5,105704,78320,88450.4,2.283,1112,174936,94683.3
81065.6,61222,86777.9,40730.3,30514,87477.9,119249,90749,86117.8,105482,72888,94842.3,2.356,1151,119249,97969.3
121912,72214,110638,66883.7,35841,122298,242287,134970,117645,108715,72308,98533.4,2.504,1223,242287,93451
107278,70443,99805,66649.7,45559,95874.7,204420,149862,89394.6,110291,77069,93786.2,2.52,1229,204420,97412.2
140149,65068,141157,80778.1,30812,171812,202245,91947,144152,119189,79366,98419.8,2.522,1231,202245,106448
94253.7,64689,95487.8,47125,32814,94117.9,165897,111061,97894.1,104012,70506,96679.9,2.586,1260,165897,93560.2
127595,74877,111677,81968.9,48908,109837,220691,131112,110312,110691,68679,105625,2.844,1371,220691,96787.6
99886.5,58264,112353,66116.7,41199,105173,234472,149429,102834,116559,83251,91756.6,2.874,1383,234472,101788
88697.4,54318,107016,73366.8,37097,129611,147417,76757,125867,102462,59546,112769,3.043,1468,147417,93174.8
129328,82165,103154,85014.8,48916,113900,256500,162499,103447,116986,83234,92111.1,3.454,1664,256500,100826
112824,65424,113017,78084.5,42672,119923,196005,101997,125939,109513,63741,112597,3.614,1747,196005,97165
83943.9,52726,104338,40771.9,19402,137719,123440,65910,122740,106271,70610,98634.5,3.748,1804,123440,98494.4
109927,72959,98743.2,52391.3,36823,93243.8,195486,139851,91607.4,110597,80970,89516.1,4.01,1926,195486,98281.9
122047,77353,103402,70731.7,43377,106865,206592,139942,96748.8,110313,83041,87058.9,4.265,2057,206592,97297.5
111499,73470,99458.4,54522,35710,100060,226065,155888,95038.6,116767,80534,95021.5,4.409,2127,226065,102525
73038.7,52717,90799.3,48183.2,31499,100249,137010,92441,97132.9,101370,71218,93282.5,4.59,2216,137010,92738.5
100937,68082,97162,41323.1,27154,99733,150526,94478,104414,111901,81551,89926.2,4.722,2281,150526,102418
99500.2,53785,121239,81419,42008,127020,180948,90324,131290,112900,66619,111064,4.895,2367,180948,101500
90154.3,63799,92608.9,36890.1,24364,99229.6,132360,99006,87614,108152,75620,93730,4.903,2369,132360,99813.5
108862,77438,92130.3,53528.8,36697,95595.4,185743,127751,95285.6,103866,80993,84043.9,4.97,2396,185743,92164.3
92568,54161,112009,63346.4,30834,134639,163465,82913,129206,105034,62072,110895,5.537,2657,163465,94735.2
113410,68859,107937,97233.5,58249,109397,251062,162653,101158,113142,81490,90990.9,5.612,2689,251062,97324.7
117404,73092,105267,78848.9,48827,105832,248218,154727,105135,116919,81963,93486.5,5.792,2775,248218,101282
122130,70022,114306,67601.3,30684,144385,232054,110526,137596,111488,81354,89810.9,5.97,2859,232054,96868.6
87244.9,56573,101067,48579.7,21570,147599,136656,74153,120776,105045,72962,94353.8,6.128,2931,136656,96435.9
91078.1,58389,102226,63024,31450,131330,204061,113480,117848,109521,69403,103419,6.236,2971,204061,96665.2
78172.3,49256,104010,37293.1,18539,131832,115528,73478,103041,107513,71391,98695.2,6.287,2997,115528,100234
77339.2,44872,112955,67684.5,35531,124842,181726,98172,121313,105502,66762,103564,6.297,3000,181726,94052.8
116833,70315,108892,98126.6,45576,141101,211701,110428,125639,126889,70342,118220,6.316,3007,211701,113552
118694,77530,100332,58698.9,37557,102428,171460,111365,100900,105652,79984,86567.7,6.436,3069,171460,94850.3
84103.2,47031,117195,52894.4,29317,118242,153561,80150,125562,116376,71273,107008,6.465,3080,153561,106702
88900.3,60417,96432.7,46085,28661,105378,148470,99577,97714.9,103068,67352,100289,6.616,3158,148470,93714.3
109620,74758,96097.1,66310.4,44656,97315.4,167075,100245,109226,105078,78694,87508.2,6.773,3248,167075,94552
89033.8,58464,99803.6,45184.1,31946,92693.5,175136,126010,91085.7,103338,74760,90588.3,6.806,3264,175136,92304.7
91502.7,61005,98298.8,60781.5,33649,118380,152217,99515,100243,107325,67883,103615,7.164,3461,152217,97735.7
105417,67364,102556,72172.1,46018,102783,222388,142557,102236,113499,86147,86344,7.208,3479,222388,99488.6
115670,78289,96827.5,55526.9,37281,97610.3,200351,136202,96402.3,105126,77373,89043,7.646,3682,200351,92503.7
119547,72825,107582,71910.8,45673,103185,213508,143620,97427,116687,83700,91364.1,7.87,3791,213508,103236
95694.6,64985,96506,53233.7,28740,121389,144962,78247,121413,105499,64632,106974,8.007,3854,144962,96366.3
85876.1,54074,104079,58665.1,33760,113883,165954,100166,108579,103302,67470,100341,8.012,3859,165954,92846.8
83494.5,60591,90308.7,46698.6,30879,99110.7,185210,128611,94376.9,107041,90680,77360.2,8.103,3913,185210,95372.5
102844,71929,93703.3,50898.9,36730,90817,158868,105045,99115.2,103834,81261,83740.5,8.172,3943,158868,93824.9
73143.8,49997,95876.7,34490.3,22651,99790.6,125025,89802,91241.1,112408,76947,95738.6,8.261,3985,125025,104532
107155,64097,109561,38049.7,19893,125352,148646,85222,114309,101176,75707,87583.7,8.378,4043,148646,91811.7
92786.9,53615,113418,50486.8,26139,126581,141160,67771,136505,108329,72068,98510.4,8.407,4059,141160,99435.9
64619.3,48003,88221.4,22738.3,14365,103737,98662.2,68633,94210.2,109000,80090,89192.3,9.215,4445,98662.2,102784
96250.8,68300,92355.7,42701.1,29968,93381.6,153466,106020,94864.8,106965,76930,91122.8,9.461,4565,153466,97296.9
115766,76646,98985.4,65084.5,43865,97238.7,205510,141665,95071.7,107250,76780,91543.8,9.5,4580,205510,94302.8
94846.4,55569,111858,76515.4,31760,157888,168661,86573,127677,104502,68272,100314,9.579,4621,168661,93876.2
123810,67684,119880,65718.9,29940,143853,199239,96080,135901,120024,68847,114252,9.994,4804,199239,107472
99214.5,64643,100585,56841.2,36688,101536,183004,133093,90112.3,110421,81136,89190.1,10.31,4967,183004,98891.5
87151.5,60674,94135.2,40574.3,28675,92731.6,173542,121324,93742.9,105265,80878,85296.9,10.34,4979,173542,94331.7
102534,69794,96278.8,36059.4,22375,105617,141809,94255,98600.7,109750,85007,84611.5,10.357,4987,141809,100816
110211,72565,99535.8,63232,41988,98694.2,196147,139875,91901.1,105962,78409,88565.2,10.435,5026,196147,93604.5
136079,78646,113395,71370,31455,148698,224177,96279,152595,109307,73442,97539.8,10.925,5252,224177,95183.4
73867.3,42323,114382,46143.5,21830,138528,129563,73631,115319,103282,64876,104333,11.208,5352,129563,95119.9
113208,67614,109729,76986,30690,164397,168728,94571,116926,109742,68640,104779,11.72,5604,168728,99112.2
112438,72575,101533,71492.2,44564,105137,207462,128524,105787,109366,79716,89912.1,11.746,5619,207462,96296.3
111781,72010,101732,70081.7,49038,93659.5,201464,131228,100612,114932,71035,106035,11.909,5705,201464,102239
81810.6,60076,89245.9,38385.1,26410,95252,125407,78953,104096,109252,69165,103520,11.98,5741,125407,101351
80142.7,62226,84405.8,28276.3,20012,92600.2,108909,95680,74597.1,108880,90819,78569.2,12.088,5793,108909,102019
74776,57848,84713.8,29786.9,23728,82270.5,135520,107859,82342.9,110231,88207,81899.3,12.161,5824,135520,101693
97810.1,63401,101104,48452.3,32762,96922.3,197822,140567,92229.9,106986,75877,92405.4,12.175,5834,197822,94523.3
112982,64496,114804,81836.3,46658,114948,250566,153050,107292,112650,84788,87071.8,12.46,5975,250566,96864.5
106382,66810,104353,20511.4,11615,115733,113480,70001,106241,110652,72038,100665,13.454,6430,113480,103503
84999.4,58367,95439.6,47885.5,33205,94510.6,188714,135606,91202.4,107640,80005,88173.2,13.536,6474,188714,95751
127052,74620,111585,58446.7,28998,132091,182096,99736,119654,103559,78965,85947.7,13.81,6574,182096,92087.2
108018,64271,110144,79548.3,37182,140210,156838,83644,122885,110960,73200,99342.7,13.819,6579,156838,101079
108286,74090,95784.2,56020.9,38630,95039.8,179079,124725,94095.9,107598,80400,87706.1,14.178,6744,179079,96316.4
122396,83071,96560.4,60339.5,39963,98951.8,180248,121535,97195.9,115020,82842,90992,14.208,6759,180248,103664
114676,76549,98178.2,62814.7,41801,98481.5,203070,128212,103800,106449,70774,98570.9,14.597,6947,203070,93655.8
97422.1,56319,113366,46241,26178,115763,145809,75421,126699,107116,69575,100898,14.936,7114,145809,97930.1
102616,66818,100647,66977.3,30978,141695,255469,122596,136566,113612,69155,107667,14.936,7115,255469,97517.6
93220.4,67837,90058.4,39418.6,30100,85825.2,163263,120695,88650,105327,83311,82855,15.012,7144,163263,95041.7
100409,64023,102782,63436.1,43340,95924,245898,177579,90749.2,118839,87579,88928.5,15.434,7362,245898,103348
84080.1,54294,101490,57791.5,32551,116354,143276,79619,117933,112412,65486,112498,15.759,7509,143276,103386
104664,65699,104404,38015.9,24637,101125,166978,109280,100138,107034,80996,86604.2,15.917,7583,166978,96514.5
73449.9,53610,89789.5,37525.8,27800,88463.7,181961,128408,92868,108371,84911,83642.6,16.336,7754,181961,96907
79961.2,55075,95149.1,26815.1,17346,101312,112791,74261,99538.7,99985.6,78728,83231.6,16.581,7870,112791,92879.8
125540,80267,102500,78652.6,48599,106063,257054,166932,100917,117290,84883,90556.5,16.644,7898,257054,101095
103354,62614,108177,51776.4,29261,115964,187797,115742,106335,106824,77919,89847,17.077,8069,187797,94992.4
112591,66797,110466,78195,39926,128352,164737,102727,105096,116241,75820,100474,17.471,8266,164737,105862
42131.7,26879,102725,23150.4,9979,152038,120958,65911,120270,107415,61677,114136,17.565,8315,120958,99794.7
104409,66364,103106,62305.1,35231,115899,186922,118617,103274,104378,83690,81736.6,17.727,8385,186922,92602.2
80690.1,55589,95128.6,42368.3,23796,116686,141591,80358,115474,112443,75180,98019.4,17.731,8390,141591,103523
94259,66916,92315.1,56327.7,30867,119593,175711,105907,108731,104454,78458,87250.2,17.758,8403,175711,93383.9
105246,70747,97494,80195.7,49500,106176,251294,164688,100000,111740,83874,87309.6,17.895,8459,251294,95908.7
128265,78033,107723,94309.8,59053,104663,244013,155203,103037,117793,79742,96808.2,18.272,8636,244013,102420
132836,85653,101637,76839.1,47675,105626,246624,158016,102286,108278,80683,87950.7,18.327,8667,246624,92741
102060,67998,98364.6,48870.9,35363,90569.3,201510,131323,100563,117554,86027,89553.4,18.686,8824,201510,104859
94674.6,62214,99729.9,54138.5,35545,99817.7,218932,151022,95005.4,111912,82931,88438,19.087,9007,218932,98119.1
115215,76610,98560.6,59776.6,41728,93882.3,186186,122058,99967.9,113478,83596,88962.6,19.128,9021,186186,101749
92017.1,61123,98660.6,54462.2,37980,93976.7,192209,140583,89602.6,112668,84768,87106.4,19.157,9035,192209,100559
101123,68932,96140.8,66913.6,44265,99068.1,246731,169818,95218.1,114546,84311,89037.7,20.512,9635,246731,99001.5
140176,85053,108010,110467,59174,122344,257507,135921,124160,117363,69159,111214,21.049,9877,257507,101140
125217,84469,97150.5,44530.2,26731,109174,181509,102933,115564,118020,79080,97807.2,21.165,9936,181509,106585
83323.6,63276,86299.6,36856.3,26867,89902.6,135671,94708,93881.3,110785,86508,83927.3,21.302,10014,135671,102237
133561,64597,135502,76986,32329,156063,204581,108330,123765,113054,71124,104172,21.534,10105,204581,100166
119750,71842,109239,81684.2,43614,122742,211214,126872,109103,110919,66582,109176,21.562,10120,211214,97612.1
107934,70785,99930.1,50732.5,35064,94821,158384,98805,105054,110283,74518,96990,21.759,10230,158384,100305
119653,77228,101538,72217.6,49300,96001.1,217945,138589,103062,108983,74740,95562,21.968,10324,217945,95252.4
108598,67367,105646,78513.5,47983,107235,259237,168903,100586,116177,81967,92888.4,23.125,10870,259237,99845.2
71693.9,43778,107326,42928.6,24095,116762,113259,65228,113793,101572,63465,104886,23.293,10950,113259,94436.3
132878,77059,113008,74509.5,43240,112929,254266,141504,117760,112947,84504,87594.3,24.013,11265,254266,96927.9
111376,74380,98133.4,54259.4,37037,96010.6,164479,95229,113193,111488,70733,103297,24.13,11324,164479,101126
69050.6,51328,88164.4,21871.2,13079,109592,107507,70495,99944.8,106749,71785,97456.8,24.358,11438,107507,99976.5
99971,63999,102372,45871.8,28072,107091,157422,93384,110477,110278,73258,98653.5,24.646,11596,157422,100360
118340,78102,99299.8,66866.8,43080,101722,215198,143062,98581.2,116940,83235,92074.2,24.782,11643,215198,103383
112256,61367,119882,67549.3,33774,131074,220312,108615,132932,120050,70055,112306,25.022,11751,220312,106170
92892,62637,97191.2,44604.3,26280,111232,146013,101197,94559.5,104671,70953,96679.6,25.153,11825,146013,95472
98821.1,63908,101339,61123.4,37718,106203,162791,97691,109208,110579,74384,97425.9,25.463,11972,162791,100323
126465,74035,111947,90993.5,47175,126409,230911,128990,117319,113603,64190,115985,25.468,11976,230911,99055.7
123705,77407,104734,76828.7,48411,104006,209118,140962,97223.1,108282,75914,93479.2,25.565,12020,209118,95107.8
106431,72390,96353.6,52595.4,35138,98095.9,192453,130276,96814.6,114063,82144,91001.8,25.694,12088,192453,101939
97784.3,66058,97011.6,66359.8,42987,101169,223605,142824,102603,119402,84722,92362.7,25.873,12172,223605,105315
52016.9,38051,89589.8,36468.9,16691,143192,116142,59409,128120,101672,62169,107178,26.142,12298,116142,94354.8
78579.9,59111,87121,25200.5,18160,90943.8,114375,85003,88181.6,99620.3,80443,81159.5,26.175,12319,114375,92414.7
110067,62346,115699,75907,34376,144713,180045,96924,121739,111561,65244,112060,26.217,12341,180045,100218
76626.3,53430,93988.1,56447.3,28616,129275,128553,78711,107035,115467,72529,104334,26.656,12522,128553,107368
131714,73930,116759,60975.2,29984,133273,179261,91179,128846,110184,74804,96532.6,27.251,12807,179261,98890.7
119840,72147,108859,69600.7,42107,108328,240591,153514,102710,117497,85267,90307.6,27.509,12930,240591,102339
99300,65060,100026,69088.5,45818,98821.1,195374,134486,95207.4,104131,70829,96349.6,27.527,12947,195374,91822.7
96391.4,59670,105867,51275.9,29824,112675,161526,86441,122463,110997,63484,114584,27.662,13010,161526,100820
133055,82657,105495,83674.5,52006,105443,226918,146022,101843,111149,74329,98000,28.031,13183,226918,96852.9
100113,60513,108423,59312.5,26394,147272,163644,80329,133508,112583,74842,98583.9,28.288,13304,163644,102273
116706,76778,99617.4,65254.8,42462,100714,213505,134609,103948,110727,80506,90137.8,28.297,13307,213505,97276.6
110819,68108,106634,47646.3,24639,126732,140191,86570,106128,112242,84613,86935.7,28.559,13422,140191,103410
143697,70281,133995,100684,47541,138794,241478,111591,141817,113771,64260,116030,28.684,13487,241478,98557.7
113908,72877,102433,72087.6,44096,107137,206638,141901,95434.1,114098,81584,91654.6,28.872,13565,206638,101080
69810.7,50790,90079,31669.3,20045,103541,124838,81418,100486,109626,75961,94581.1,29.227,13718,124838,101762
106127,67814,102562,53654.9,36348,96740.6,202608,141579,93785.7,114182,80769,92647,29.423,13829,202608,101417
96036.3,58229,108088,48055.8,24421,128962,162705,84681,125920,107154,65875,106602,29.657,13933,162705,96903.4
114264,66884,111962,73158.8,41710,114949,199289,108144,120770,104803,62554,109799,29.758,13973,199289,92248.2
142195,66528,140075,119450,40397,193784,242880,97396,163430,125679,73826,111566,29.784,13982,242880,110377
117510,75564,101916,68006.9,44575,99986.5,212389,149646,93013.6,118928,83010,93893,29.861,14006,212389,105547
128800,69921,120722,100784,47121,140170,200177,86435,151776,113195,63281,117229,29.941,14047,200177,100584
109122,71928,99424.7,61995.7,40266,100903,201737,127697,103534,111514,84950,86029.2,29.988,14072,201737,98804.6
132145,79479,108962,61618.7,38966,103635,195967,118031,108810,106266,74442,93552.6,30.223,14167,195967,93920
90818.3,50487,117889,58948.5,22433,172213,172487,86176,131174,108345,74319,95540.5,30.286,14203,172487,97477.9
123103,82967,97239.6,49120.5,28715,112107,187668,108061,113815,115695,72408,104715,30.576,14349,187668,103872
109647,75797,94803.7,46325.5,32787,92597.3,176159,127372,90638.2,115114,82662,91264.3,30.81,14451,176159,104016
130829,79794,107452,68255.2,40924,109304,212779,129336,107817,115159,73152,103170,31.191,14629,212779,101754
124102,78249,103939,81425.5,48597,109807,258944,160880,105483,115779,85031,89234.7,31.813,14948,258944,99465.8
117200,76006,101055,71900.4,49712,94787.3,242436,173108,91782.4,117227,79669,96431.7,32.329,15187,242436,101954
87463.9,63469,90312.3,50636.3,38253,86751.4,198761,142126,91651,115335,81648,92575.1,32.579,15301,198761,102813
120425,75993,103854,82655.3,50439,107395,255368,166036,100796,118032,89386,86538.8,32.746,15379,255368,101944
102314,67053,99998.8,61629.1,42225,95652.4,209764,138895,98974.8,110961,81532,89191.6,33.277,15629,209764,97746.4
73141.1,45079,106333,38260.3,19086,131375,136889,78768,113893,106037,64034,108524,34.049,16004,136889,97413.1
107018,73384,95573.1,50575.2,37030,89508.4,163641,114944,93301.1,110149,74547,96834.5,34.146,16054,163641,99839.6
96277.5,67588,93354.5,70652.4,44131,104921,219329,143908,99883.1,111068,85044,85590.5,34.279,16140,219329,97250.3
112597,70491,104682,65822.9,41589,103724,195100,129834,98480.2,106736,78556,89045.8,34.401,16191,195100,94445.2
141309,83603,110771,90942.8,52230,114111,241865,152426,103991,114202,85259,87783.9,34.625,16278,241865,98964.9
81051.4,53563,99168.9,44824,25140,116849,147914,87939,110232,117985,73075,105813,34.746,16338,147914,108667
79251.8,57021,91086.6,45078.8,29800,99137.1,162591,105288,101204,107558,67361,104644,34.868,16404,162591,97314.9
122916,71872,112080,93741.7,35598,172579,177170,83029,139843,112655,73358,100643,35.226,16581,177170,101494
85014.6,54753,101757,47333,31033,99958.6,142639,89609,104319,112650,66488,111037,35.389,16672,142639,103664
93950.2,56371,109225,45418.1,21940,135666,132164,70469,122913,100262,63296,103811,35.405,16680,132164,91936.1
129596,81331,104428,73443.5,43533,110564,201356,118741,111133,110267,78869,91626.3,35.641,16804,201356,97581.9
137349,66846,134658,82547.4,34395,157285,230621,116944,129241,112242,65426,112431,36.862,17345,230621,97712.9
120076,66185,118899,81923.4,37698,142420,191720,95695,131298,115289,66944,112864,37.353,17578,191720,103211
103088,72338,93394.4,54770.3,29559,121433,152387,81625,122350,115141,74820,100854,37.667,17707,152387,105541
47430.8,24204,128426,79305.2,30268,171711,159221,59868,174296,107432,60495,116384,37.827,17782,159221,97401
110549,74539,97196.3,72165.6,27036,174931,172966,83807,135257,116767,72644,105342,37.914,17825,172966,105870
112605,72806,101361,69482.4,34306,132735,233277,129498,118056,106699,82068,85205.1,38.337,18078,233277,92002.3
107200,70364,99845,51888.2,33048,102897,166276,107766,101118,111448,81608,89499,38.402,18112,166276,100972
70846.7,51912,89440,51314.9,27110,124049,147868,74494,130087,105226,70123,98342.7,39.103,18424,147868,95910.2
102162,69913,95766.2,44210.4,27598,104985,177723,112400,103623,115784,71372,106317,39.152,18440,177723,104588
75530.7,48297,102490,44530.2,23033,126702,119635,75399,103986,99611.2,59484,109746,39.495,18650,119635,92074.2
133721,74285,117972,58879.6,23898,161467,190345,80800,154387,106018,67041,103638,39.579,18697,190345,94025.9
122847,75839,106158,88371.4,53623,108004,236713,145448,106658,108290,73339,96768.3,39.744,18787,236713,93377.1
88302.2,55977,103381,47858.2,29839,105112,137368,76524,117644,103797,61277,111012,39.795,18808,137368,95143
108025,63605,111304,82412.2,38278,141098,180775,108126,109569,116154,71945,105806,39.819,18824,180775,104765
109258,65747,108908,57272.8,32057,117086,168271,98276,112212,108417,71339,99598.3,39.894,18873,168271,97816.3
78708,48863,105565,35647.3,19153,121975,106298,70554,98738.2,103879,74279,91652,39.904,18875,106298,97182.3
83522,56365,97111.7,38949.3,22568,113106,120652,79553,99393.2,110841,74055,98089.9,39.934,18890,120652,103240
97222.7,64713,98459.2,57907.2,36869,102932,161974,91633,115844,106180,62842,110732,40.036,18931,161974,95975.8
110194,62495,115557,79398.8,35931,144819,205115,97279,138184,110733,64403,112681,40.503,19161,205115,97810.4
125915,79145,104264,72787,45125,105710,224195,135693,108280,114760,88336,85139.9,40.765,19294,224195,100636
101674,68879,96738.9,44779.8,28511,102932,147056,95610,100800,103301,77660,87173.7,41.016,19393,147056,94036.1
100412,72941,90218.6,40539.2,30007,88538.6,138352,96332,94123.1,104296,72386,94426.7,41.212,19499,138352,95580.2
111536,71485,102254,70365.1,45697,100914,179683,125441,93874.6,111115,83886,86808.6,41.241,19512,179683,99794.8
99433.5,64873,100450,58320.6,37776,101178,201170,136482,96597.8,105981,82614,84072.7,41.269,19525,201170,93307.5
99476.2,65443,99617.6,51896,33314,102091,170632,94315,118566,113066,73027,101468,41.714,19747,170632,102316
114912,73201,102880,79231.1,51249,101319,241277,145171,108922,116767,80679,94850.7,41.98,19870,241277,101567
86688.7,62864,90373.3,37492,22735,108075,148665,102363,95180.2,103341,89068,76038,42.505,20098,148665,93975
66381.5,44505,97750.4,36866.7,17558,137607,121234,76491,103871,101158,74830,88594.2,42.807,20240,121234,93520.4
113509,69567,106932,66514.5,40510,107605,209039,124080,110409,109921,70512,102164,43.217,20450,209039,96752.1
111495,59007,123831,57890.3,23665,160317,154131,83652,120751,119678,74066,105895,43.304,20492,154131,109968
84036.5,55111,99933.1,37945.7,20743,119887,126227,76201,108561,101054,67891,97548.8,43.419,20547,126227,93101.9
149469,62723,156173,106340,32382,215215,231951,92564,164223,120735,80630,98133.2,43.963,20762,231951,106122
117833,72824,106041,84376.5,51508,107356,222885,133412,109488,110942,71797,101267,44.223,20896,222885,96900.2
116394,76506,99704.7,63278.8,40865,101481,185219,132594,91546.4,103994,74358,91655.5,44.503,21034,185219,92324.7
110760,73135,99251.3,75901.8,50221,99048.2,202518,129800,102251,109009,78921,90521,44.612,21088,202518,96250.3
108490,72252,98405.7,66730.3,43453,100643,227699,146095,102142,110995,81335,89434.9,44.765,21173,227699,96650.3
101191,70399,94201.2,64415,42145,100166,237955,165761,94078.8,108974,77952,91616.7,44.782,21185,237955,93982.7
113505,71434,104134,54128.1,29321,120983,166959,102595,106651,108087,79631,88955.3,45.362,21469,166959,97568.8
108846,73621,96892.7,66511.9,44273,98455.6,231526,144894,104720,117433,88121,87335.4,45.482,21512,231526,102847
136460,66823,133832,82456.4,31129,173596,213512,99086,141218,112781,65772,112377,45.97,21722,213512,99330.2
116509,75880,100626,57681,36846,102594,169256,105813,104830,117136,79971,95993,46.176,21807,169256,106473
136993,79030,113602,59776.6,34223,114470,215561,105841,133474,110785,74181,97873.9,46.368,21895,215561,97204.4
87166.6,59854,95441.4,47206.9,32674,94685.4,172717,121757,92965.2,104425,78657,87005.6,46.413,21916,172717,93543.9
83116.2,59211,91994.8,56595.5,36551,101476,193492,126803,100003,110674,87069,83303.4,46.632,22017,193492,98484.2
108129,75426,93950.7,52902.2,37042,93596.4,176475,125563,92108.9,115189,87023,86747.6,46.637,22020,176475,104071
111323,76613,95227.5,47576.1,34607,90095.9,183609,131389,91583.2,113500,80836,92017.9,46.844,22116,183609,101933
89695.1,65026,90398.6,38392.9,26884,93591.6,140642,92731,99396.1,104437,78788,86870.7,46.931,22160,140642,95576.4
130997,73970,116061,55864.9,29299,124959,162494,88737,120008,111166,76217,95586.9,46.994,22187,162494,100928
101090,60556,109403,58527.3,25157,152468,139642,83743,109282,105613,76267,90753.2,47.196,22277,139642,96815.8
94376.5,65085,95030.5,66142.7,36954,117301,149651,98216,99856.6,117738,73532,104935,47.416,22379,149651,108310
138024,87117,103832,66788.8,42994,101807,215520,139360,101352,111454,75174,97164.7,47.747,22523,215520,97876.4
117372,67597,113794,69901,37482,122220,188812,97175,127337,113204,64594,114855,47.777,22536,188812,101309
106765,71056,98471.2,49916.1,31290,104548,165568,106691,101702,114091,77526,96445.6,47.793,22545,165568,103660
138521,66382,136756,92661.4,36974,164241,220294,98802,146122,112726,65628,112568,47.986,22633,220294,98847.1
100734,67165,98290.6,53205.1,33887,102896,165205,110284,98172.9,102457,71242,94250.8,48.288,22776,165205,92049
108290,65539,108285,64530.7,30895,136886,162071,92251,115137,119556,72751,107699,48.3,22784,162071,109345
115624,74012,102383,69330.3,48163,94338.6,229152,157046,95626.3,116017,79540,95590.9,48.619,22918,229152,101581
98127.8,60982,105456,47669.7,25747,121338,147374,84388,114452,104238,71603,95405.7,48.712,22965,147374,94953.3
103893,63568,107110,50124.1,26586,123559,152049,72437,137564,104581,71310,96113.1,48.963,23081,152049,95002
76786.5,52606,95659.8,39998.4,27501,95317.8,127687,87036,96145.4,106293,63798,109189,49.244,23199,127687,98248.9
96169.8,63282,99595.2,57049.2,40989,91214.1,205971,141053,95698,108008,76544,92475,49.397,23266,205971,95031.7
100363,62605,105061,41548,22594,120514,126143,70809,116749,111654,77857,93984.9,50.89,23953,126143,103707
137355,74673,120549,89022.7,48310,120766,242417,130114,122101,116844,81681,93748.7,50.91,23963,242417,101572
85278,45463,122930,40309.1,13387,197333,132331,64104,135287,115758,72070,105264,51.111,24066,132331,107422
114539,73656,101912,68000.4,46539,95757.8,219792,167710,85888.2,115192,82476,91532.1,51.357,24183,219792,101345
104143,70767,96445.2,57054.4,38280,97678.1,193544,147007,86282.3,111818,85435,85774.2,51.399,24198,193544,99624.9
125164,79870,102701,37936.6,16682,149036,160646,83698,125787,111429,67900,107550,51.761,24349,160646,101309
134349,78324,112414,84471.4,43313,127812,217265,114555,124296,108205,71029,99837.5,51.812,24377,217265,94517.8
88238.2,58534,98793.4,73669.7,39236,123051,176401,104005,111154,123661,70067,115664,52.031,24497,176401,112548
146093,78672,121699,77730.9,41005,124233,228054,115770,129098,108215,70703,100306,52.328,24657,228054,93847.2
91145.8,57316,104218,38567.1,17150,147378,137164,85228,105472,110158,73923,97660,52.49,24734,137164,101517
150236,77297,127377,97930.3,47394,135417,229490,110040,136676,111795,66006,110999,52.774,24889,229490,97336.9
119754,78190,100373,66010.1,41620,103941,233314,146799,104159,119387,89301,87615.3,52.788,24897,233314,104688
97782.5,63855,100357,63757.2,38691,107994,229472,160803,93522.4,113199,82025,90443.1,52.814,24913,229472,98742.1
115711,64225,118073,77654.2,43992,115683,235286,132362,116496,108558,74251,95816.1,53.05,25014,235286,93734.8
67712.1,45196,98185.2,38365.6,23288,107967,125394,81951,100277,101275,65655,101092,53.301,25126,125394,93375.4
114022,73043,102304,64680.2,41852,101283,196412,130059,98970.8,109855,77722,92631,53.378,25163,196412,97481.2
119071,67172,116171,78049.4,42301,120920,209803,103386,132993,111389,81183,89920.3,53.54,25238,209803,98171.6
87484.3,58441,98105.3,61976.2,38570,105307,233327,152367,100358,117396,93130,82612.4,53.653,25282,233327,102697
92249.4,62568,96625.4,43053.4,27279,103433,144933,103110,92118.5,104164,79292,86092.9,54.209,25542,144933,95033
93909.2,59128,104087,60005.4,30593,128543,143113,74335,126173,108714,74910,95109.7,54.707,25771,143113,99697.7
108938,65821,108466,66742,27606,158444,164003,76432,140623,102610,77846,86384.2,54.832,25830,164003,92278.1
95548.6,68331,91640.3,34602.1,25962,87346.2,137822,113608,79504.2,107375,76841,91577.6,54.951,25887,137822,98692
145968,81295,117672,71700.2,32414,144966,216016,108247,130782,113162,76576,96847.7,54.956,25889,216016,99553.4
109039,71134,100458,63729.9,43371,96299.4,198461,127738,101820,109261,74722,95829,55.065,25941,198461,96758.1
125176,79104,103706,95654,57273,109454,241359,142848,110731,110679,74271,97662.4,55.249,26036,241359,95473.8
91144.9,60849,98165.5,38598.3,25514,99144.7,121675,80318,99281.4,114435,76916,97504,55.313,26071,121675,106770
120807,71015,111486,93134.6,44312,137743,247512,133727,121299,111068,64613,112655,55.365,26091,247512,95474.8
133265,78454,111322,62572.9,37516,109307,180157,106995,110349,114534,77693,96612.2,55.741,26268,180157,103184
131022,82434,104164,76802.7,50394,99879.8,241146,167025,94619.1,112319,76262,96521.4,56.297,26512,241146,97126.5
84993.2,60616,91891.8,35841,26788,87683.9,145613,114292,83495.7,108412,86095,82524,56.325,26522,145613,99238.6
85605.5,58214,96372.8,42549,29635,94094.5,166362,116481,93600.8,105633,81829,84600.2,56.342,26530,166362,95152
99944.3,57290,114330,51074.4,29765,112455,143370,77356,121463,105167,72783,94695.9,56.542,26636,143370,96135.1
98120.7,68989,93209.6,65737.1,32024,134529,139586,90844,100699,117851,88844,86933.4,57.444,27073,139586,109058
120019,66061,119065,71663.8,38517,121935,209819,112022,122750,108129,64540,109797,57.522,27114,209819,94910.2
110299,67069,107777,67818.4,38413,115704,212939,133792,104305,119539,91249,85854.1,57.631,27172,212939,106124
114615,72975,102931,68286.4,44406,100780,220973,146207,99049.1,106283,76247,91352.4,57.797,27270,220973,92361.5
85930.4,58664,95996.4,33702.5,22656,97489.7,118543,88325,87957.4,110811,75351,96376.8,57.806,27273,118543,103342
117768,78784,97964.9,64441,40724,103703,202627,135072,98313.3,108733,81006,87968.1,57.866,27301,202627,95967.8
73607.4,48610,99237.6,48068.8,22394,140673,138182,78859,114837,104265,64637,105715,57.893,27322,138182,95559.7
94703.1,57177,108548,67693.6,42646,104028,234383,152150,100957,109190,75697,94532.8,58.532,27649,234383,94423.4
121271,73014,108850,88089.3,53221,108473,254301,159607,104418,119164,77721,100482,58.582,27675,254301,103144
101197,67787,97837,53015.3,35369,98233.2,160879,103904,101472,106389,74716,93317.8,60.452,28521,160879,96254
93418.9,63460,96474.9,64543.7,44195,95710.7,199602,139727,93619.1,110579,86162,84108.1,60.662,28631,199602,98004.4
117845,77655,99453.8,63663.6,41669,100129,216749,140272,101267,117612,91206,84510.2,60.702,28651,216749,103957
94150.4,65052,94850.9,68109.6,42043,106168,184118,110816,108886,111322,74417,98036.4,60.777,28687,184118,99722.2
92680.1,66751,90993.2,42656.9,25638,109040,141825,91933,101102,121055,86481,91736.2,60.842,28718,141825,112120
120927,78091,101485,69962.1,40252,113908,238270,136016,114805,117355,88303,87097.5,61.135,28868,238270,102344
130996,79651,107782,78176.8,47912,106933,222512,135363,107729,116319,81451,93590.9,61.302,28945,222512,102301
99362.3,63017,103334,57627.7,31423,120189,147936,84466,114782,108294,70904,100095,61.357,28970,147936,98973.9
100822,64461,102503,63250.2,41619,99597.9,204253,128507,104165,112395,82131,89685.3,61.509,29045,204253,99527.4
134859,83830,105429,66133.6,38826,111630,216315,126892,111720,108930,78860,90525.1,61.68,29117,216315,95301.8
84776.1,57894,95966.5,40723.8,24367,109528,108776,69187,103036,102908,65823,102459,62.081,29306,108776,96055.1
102385,67593,99268.9,61114.3,39952,100250,196348,133227,96586,112531,88217,83598.5,62.262,29391,196348,100161
142630,79102,118169,91725.4,45180,133053,240709,115754,136281,115211,71888,105031,62.302,29408,240709,100047
102461,66662,100731,61878.7,42735,94893.7,168498,111945,98644,104926,64348,106863,62.347,29421,168498,94310.2
98128.7,63456,101345,49515.7,32279,100532,141743,82571,112500,109342,64490,111115,62.397,29446,141743,100412
133351,84487,103440,79297.4,51111,101677,223203,137475,106404,112602,78293,94254.8,62.536,29531,223203,98540.3
121119,79379,99997.1,54012.4,37201,95152.2,185007,124142,97667.3,113162,72726,101975,63.255,29847,185007,101507
89024,62058,94013.3,42607.5,26954,103596,142262,91329,102084,102810,67979,99115.7,63.342,29894,142262,93848
51724.1,33775,100364,30755.4,17865,112823,115803,72208,105103,101186,60177,110196,63.377,29915,115803,93889.9
126810,60063,138365,106220,32273,215699,191519,81939,153179,119510,77933,100499,64.071,30249,191519,107445
84589.2,57406,96568.9,44006.3,25584,112727,163019,69594,153513,114955,72563,103823,64.206,30316,163019,104685
