"FSC-A","FSC-A","SSC-A","SSC-A","FITC-A","FITC-A","Comp-PE-A","Comp-PE-A"
81302.4,77459.4,86733,138733,178849,211555,95330.6,87444.5
80445.6,63297.9,125459,151796,251421,229762,97282.8,88521.8
87876,96761.7,176761,196017,262143,262143,96948.5,95841.8
128931,98019,145466,174386,202486,262143,93146.3,93454.4
111179,61816.5,199693,135374,262143,251851,100335,87420.2
86224.5,80028,171240,179291,204186,262143,87819.7,94726.7
78693.3,70998.3,64252.8,152693,84080.6,257316,88717.1,89437.1
85496.4,77204.7,156986,151677,262143,236433,92578.1,90405.9
92528.1,69376.5,200099,139242,262143,262143,96938.9,91518.2
94178.7,72957.6,148367,135574,206158,239637,90773.9,90474.6
90326.7,77914.8,148723,126299,262143,262143,92640.2,96357.9
77841,74572.2,102836,64294.2,236233,105217,88071.7,93068.2
93259.8,73985.4,176939,163493,262143,262143,88418.8,96813.3
80850.6,90275.4,142188,164967,247900,262143,92174,96925.1
85977.9,84380.4,177675,173456,262143,262143,94381.7,94398.3
99964.8,80395.2,201120,138731,259971,232999,95155.7,90881.4
88885.8,62789.4,107256,90442.4,152585,155211,94482.2,93900.8
78093,87710.4,206586,142304,247369,262143,100344,90967.6
99733.5,80057.7,185359,164014,261910,262143,97345.2,96378.6
102493,84914.1,170442,136269,262143,262143,97119.7,91108.4
101643,54403.2,165247,114232,243442,180463,87752.2,96516.8
91773,78492.6,132557,151179,186504,262143,92224.5,93342.6
88281,82850.4,179005,160132,254124,262143,96367.3,95852.8
82585.8,77049.9,121256,131565,181714,225648,91542.7,90608.7
71824.5,78168.6,114312,101229,235254,163941,98435.4,99264.3
113178,46320.3,167696,137442,241617,262143,92509.4,91935
78362.1,52586.1,145441,111788,253484,237912,90932.4,95167.3
71234.1,76662,114369,92235.1,184741,127501,88627.7,95635.5
92021.4,76215.6,164739,131386,214678,221569,93567.5,95272.2
87195.6,75108.6,126844,37664.3,215266,69957.7,87993.5,87492.9
152065,81260.1,195552,118523,234465,229476,93128.9,94361.8
67163.4,75948.3,52968.5,156027,115093,256583,95618.5,96137.2
93852.9,77510.7,137429,166485,241394,262143,101085,94413.5
91511.1,77562.9,191086,153820,246486,262143,99613.5,93653.1
77328,71683.2,165128,144831,238526,259817,93846.8,89460.7
72964.8,70530.3,53446,184654,84186.9,262143,95662.7,98788.1
109038,57159,149257,151959,200954,262143,92104.6,99955.6
95106.6,67257.9,149593,132118,217373,238587,100155,98123.8
67056.3,85214.7,172977,142573,262143,250703,91638.3,92309
69170.4,72429.3,174319,136888,262143,253441,99376,91600.5
67743.9,94230,180366,155482,262143,262143,93036.2,95197.3
81761.4,68219.1,206986,156050,262143,262143,101785,96920.9
112302,53041.5,62864.5,140990,92075,233085,90690.3,94700.7
78080.4,93332.7,131807,172875,262143,251722,92144.8,96425.5
74147.4,65067.3,134473,104460,202344,182090,94854.6,96575.1
94257.9,79758.9,211830,137489,262143,262143,89881.6,96050.2
69334.2,72982.8,125094,165981,238498,235162,93128.8,92122.6
60908.4,68307.3,46628.8,162310,86937.2,262143,97414.3,96624.2
90820.8,89283.6,174436,90508.7,262143,147463,99573.3,93858.5
78522.3,94223.7,161416,165042,227845,262143,97095.4,93265.3
113973,81329.4,164725,135073,197118,183093,96968.6,96233.4
73177.2,74986.2,143600,168212,214931,262143,92020.6,96740.2
77049,69503.4,143287,119082,248918,215751,90769.2,97203.1
74561.4,65043.9,100068,137084,124718,253633,93195.2,90570.6
74995.2,78945.3,160134,167474,234288,262143,97958.7,95480.2
86997.6,109217,143169,124121,262143,262143,98349.2,95623.7
68783.4,76560.3,122428,158326,191279,262143,96955.9,93095.6
83850.3,56254.5,105334,167880,144336,262143,92669.1,89034.2
63288.9,71996.4,83730.1,153141,149284,262143,93295.3,99265.6
55798.2,73832.4,161354,187492,233074,262143,100123,99217.3
69799.5,60814.8,124880,117184,192725,220143,95570.6,95196.7
79654.5,69648.3,113844,88346.2,180831,139605,89910.6,88662
70987.5,81426.6,128343,107012,194327,150170,88230.2,91641.5
78765.3,63487.8,149983,131522,246726,184249,93219.1,94184.3
70151.4,83145.6,117161,143535,200675,262143,88176.7,93480.6
89388.9,50898.6,186729,125460,262143,258239,101808,99698.2
65963.7,67824.9,129429,134845,220828,227701,87974,89940.1
70685.1,90451.8,107851,182170,177320,262143,99186.5,99939
75286.8,68081.4,109568,130418,212171,245853,101965,87995.9
79846.2,64377.9,85422,108683,117951,178434,96994.8,96555.3
78389.1,80028,146998,145405,223310,262143,93450.7,92383.5
117351,65752.2,151705,171323,251028,262143,94804.1,95380.9
97917.3,82117.8,142053,154165,205568,262143,99200.5,92942.4
89199,84868.2,152026,158380,251853,239662,96168,92382.2
73054.8,68470.2,135840,133561,229756,262143,89576.3,94180.3
88764.3,80941.5,215913,146798,262143,262143,99836.9,98220.9
116619,82710.9,141178,168452,139837,262143,96555,92509.1
80145.9,68735.7,161453,186370,252620,262143,92575.6,96458.6
84111.3,67576.5,145233,148644,223940,262143,98158.8,92006.8
69533.1,93121.2,136759,127729,231306,262143,97195.8,94188.5
84609,57369.6,146194,124161,229875,240087,88473.3,92574.4
99621.9,59282.1,193726,76496.2,219212,210475,95608.8,88236.2
97584.3,62161.2,151651,117902,212557,195804,91619.5,92431.4
81561.6,74319.3,189569,138541,247175,245698,97956.2,98075.8
103132,88949.7,147355,150032,255686,216780,97153.9,98964.9
94660.2,139021,153118,183042,215090,237468,91738.6,90568.1
112801,45234.9,197103,99950.6,262143,262143,99330.4,102640
55657.8,100923,80884.6,150005,165114,185066,95252.3,94144.9
64368,86409,100468,142137,198193,235580,90077.5,89989.8
87429.6,72576,117645,117623,163981,225377,92107.5,92615.9
70794,72367.2,113746,180119,203092,262143,89478.7,99061.3
88196.4,74152.8,168817,96673.1,256647,188969,97197.4,94421.7
55746.9,95265.9,130983,177042,198327,262143,87526.3,99053
89461.8,59877.9,202612,141910,262143,234541,103196,89478.7
75828.6,77505.3,172864,121757,262143,200466,95727.2,92706.9
88340.4,73633.5,95494.6,159550,157095,262143,92860.5,99031
70810.2,88135.2,41749.1,119598,71242.5,262143,97200.6,95814.2
79500.6,76099.5,161742,150097,246592,234899,95698.6,89598.9
109331,74753.1,106359,144892,151616,262143,89835.3,96500
65377.8,90508.5,68428.7,137249,112266,206712,90876.6,87769.3
77553.9,54129.6,149188,93608.2,262143,183612,90746.8,90659.1
81836.1,87202.8,211002,122712,262143,233762,98654.2,88789.3
75915,56640.6,133427,156205,237839,262143,93566.5,95351.9
68344.2,71351.1,129001,133856,176811,262143,97692,95724.5
50079.6,82198.8,131140,91636.1,217963,128428,95526.5,93875.3
78501.6,79218.9,156669,109506,197801,198116,97302.8,94950.4
84360.6,105339,191832,212543,262143,262143,91814.9,99294.5
77949.9,65551.5,135993,151665,214935,262143,91018.6,99123.4
83327.4,74573.1,186301,142950,262143,189088,100763,98699.3
63481.5,71748.9,151680,158685,243095,262143,100708,88508.5
98716.5,97353.9,154262,157828,254008,262143,98760.5,99707.2
68175.9,106680,64775.8,128430,158650,195409,92744.8,97462.7
93951,85299.3,116715,83211.2,177817,131586,92452.5,98516.3
86176.8,86956.2,182556,127407,255708,218148,102300,93848.3
73296.9,100347,127352,140187,171161,262143,89180.9,98429.3
66637.8,55403.1,105864,144926,204428,249704,97819.7,95076.6
72624.6,82448.1,144304,185210,236636,262143,99943.7,99308.3
88541.1,80782.2,144111,123434,200783,188538,96222.1,90840.4
70090.2,80018.1,111603,153635,158349,262143,99358.1,90679.2
98476.2,85739.4,115688,107027,205479,214158,88816.6,88500.6
86755.5,73407.6,147605,139587,248840,262143,92265.2,88174.5
83991.6,63927.9,169067,86847.5,262143,145522,99997,97604.4
84444.3,85202.1,174054,158754,243821,254019,95748.7,88356.2
77870.7,65938.5,192056,115531,262143,228078,102531,88338.8
69723.9,65690.1,55520.2,148131,75556.4,252960,91432.5,102513
54945.9,76002.3,67591,128307,104129,195452,87385.3,94483.1
79877.7,70970.4,40839.7,121980,78956.7,232108,95316.4,90435
97724.7,69187.5,203753,118623,262143,203815,91696.3,87684.8
106702,72132.3,165989,108538,262143,253375,96599.4,89355
79969.5,64937.7,175492,118201,262143,177962,98416.9,91170.5
66575.7,72673.2,152578,110575,199841,199744,91120.2,88806.9
104749,65619.9,130730,170696,211103,248154,91093.8,89779.7
74557.8,80937.9,169221,123452,231781,238922,94308.7,88981
70864.2,84631.5,151949,110320,214649,235572,90507.8,87880.1
72829.8,58844.7,133342,64633.7,210122,137527,94586.6,89229.5
85550.4,74514.6,197772,153484,230646,262143,95771.8,97588.9
60205.5,59773.5,136544,109164,221709,207577,90043.6,94958
97784.1,69166.8,147085,101815,262143,205358,96185.4,89864.5
67888.8,70799.4,127449,170187,204192,262143,100100,99977.6
54956.7,58695.3,47365.7,139297,104419,262143,92445.8,95687.2
76616.1,61299,171684,181366,242939,262143,99602,98850.2
70569,84684.6,98628.6,157643,155435,262143,95756.7,87545.2
69796.8,78337.8,69745.2,151488,115707,262143,87643.6,87680.5
95094.9,92091.6,173234,157361,214369,257968,94728.8,88031
93661.2,59539.5,169781,124851,261321,204724,88617,91096.1
144766,72263.7,205282,135239,262143,255293,91439.6,94575.8
79185.6,72638.1,185120,146811,262143,262143,95060.7,88347
68022,90032.4,183595,148774,245535,255435,92720.7,102498
56592.9,70208.1,112992,125736,175445,199468,95963.7,93367.2
98845.2,66065.4,167023,124978,262143,215010,92665,91515.3
69562.8,91326.6,139668,74085.3,204985,114214,95797.5,95243.4
76660.2,86636.7,168018,162194,247993,245655,90642.8,97195.6
91824.3,74016.9,142475,147013,238665,231226,94593.5,99517.2
79404.3,67567.5,144617,122322,244528,262143,95800.5,87519
89485.2,76596.3,171541,166474,227857,262143,97744.9,94220.3
85805.1,64449.9,133634,144144,220753,225100,97319.4,98807.4
92673,62154.9,80346.4,160440,123222,262143,98755.5,96509.7
98141.4,61540.2,137837,84729.2,216004,172855,94539.7,96451.3
95436,72662.4,169016,101568,225242,175292,88330.6,89776.1
68002.2,72064.8,111759,156945,142319,262143,94681.9,99650.6
78337.8,63616.5,201248,165023,249641,262143,96864.7,93976
75684.6,69707.7,125323,112749,216374,230464,94084.1,98864.4
86522.4,98821.8,167408,218359,208477,262143,91898.8,98846
56876.4,40130.1,185127,80615.5,262143,165314,102467,90958.4
84035.7,47092.5,137332,152073,207872,262143,94886,99249
76559.4,73171.8,58774.2,144827,113470,232965,93483.2,90879.9
68179.5,120415,56720.8,184634,80346.4,262143,87995.1,96364.8
60390.9,53682.3,144000,121474,212443,243073,98747.5,88585.9
82095.3,80193.6,133596,123343,212991,248922,94538.3,95340.9
92340,70463.7,131223,147133,246305,256708,88116.7,98739.3
74751.3,65580.3,147551,139172,243963,225165,91022.3,91362.6
75547.8,70664.4,140066,150845,204769,251563,93250,91743.6
87047.1,72630.9,130145,137356,207624,262143,92152,98100.8
68975.1,65713.5,126961,110247,193719,224623,94755.9,98839.4
61006.5,78984,151534,176425,262143,262143,93268.1,91217.4
109889,76239.9,135150,198513,202837,262143,96767.9,101839
84588.3,75504.6,190205,153764,262143,262143,91396.8,98077.4
74254.5,59990.4,97894.4,135782,191534,262143,92194.9,89634.5
65349.9,67275,56149.4,116244,90352.7,249142,96045.3,92175.1
99125.1,77801.4,129109,133664,245317,235947,90340.2,93563.9
82497.6,56554.2,156500,89969.1,201288,143244,90753.3,89303.4
84267.9,69503.4,130068,54383,171316,109608,91428.6,94088.1
77938.2,89345.7,53135.5,155598,81687.7,256578,89350.3,87890.6
73940.4,59306.4,151492,125061,239099,199732,99321.5,94181.1
63522,68076.9,77176.5,115046,108053,198219,93458.6,99261.7
56860.2,61307.1,117984,132545,206881,203651,89049,96213.9
80872.2,95450.4,119868,183100,210545,262143,88462.7,98031.8
113802,59639.4,192155,148183,262143,216126,92543.6,92211.2
78043.5,79686,135041,121860,211998,230802,102421,96451.8
73412.1,102381,160927,140227,262143,238788,97568.2,94508.8
82825.2,75297.6,135200,81573.2,183022,157052,87768.4,91515.2
87597,65310.3,174933,120950,231859,223230,98332.5,98804
109847,58595.4,165721,185769,244427,262143,91789.9,98127.1
92645.1,84637.8,72496.9,91988,136846,162654,93759.6,94880.7
78408,98103.6,74259.2,151890,133573,240357,96361.1,93036.1
52893.9,59326.2,86047.1,40004.8,133826,76416.1,90089.1,89407.1
100734,64890.9,72140.9,168007,115425,262143,93723.6,94430
99813.6,84302.1,197154,111795,262143,226385,99271.1,89204.9
102224,67061.7,167660,105879,241592,157602,88794,93004.1
82250.1,62061.3,118121,152937,139831,262143,92458,102339
70650.9,76114.8,129934,126799,213733,243759,99726.5,90163.4
107922,100432,108173,148307,196980,257210,100689,92123.8
84033.9,91526.4,74077,190686,126219,262143,92180.4,90510.8
61504.2,79043.4,164642,140806,234593,245750,89331.8,97532.8
70151.4,60021,121803,102319,208978,174070,97682.7,89434.7
93222.9,79797.6,118610,79483.9,213791,151278,96755.9,95110.1
85478.4,84728.7,195075,105375,237599,170253,96495.7,93414.8
67699.8,67451.4,128717,121893,208732,179328,88298.3,88848.5
86484.6,81217.8,205614,156368,262143,262143,97707.5,97772.4
71415.9,80290.8,106409,71482.6,166304,120689,90832.5,94641.3
87290.1,92183.4,160403,149317,262143,262143,90799.3,89554.5
48915,68588.1,55923.1,116461,128456,187479,100480,90709.5
79394.4,61857,123019,83567.3,253483,185466,91191.8,89940.1
73867.5,80957.7,107157,167728,150623,262143,88327.5,97525.4
69939.9,83025,123052,167865,197880,249032,98673,87582.5
82898.1,63960.3,137528,93682.7,213990,176237,92689.8,88902.5
59181.3,86061.6,135653,69796.3,239230,159633,96861.5,93661
74196.9,58599,125283,145150,197979,262143,87934.2,91676.9
68692.5,66186.9,44706.5,48650.5,76599.7,79177.5,90834,87421.3
63167.4,103064,107803,177409,201466,262143,98055,92292.4
45509.4,73701.9,96217.7,125926,154259,262143,92141.6,93977.4
80053.2,76584.6,159956,135059,262143,229120,89071.5,94884.5
74050.2,54486.9,103681,93849.7,196308,164601,96539.9,94314
91740.6,72343.8,131827,175990,187433,247667,99536.4,91426.6
70583.4,64269,125100,110502,254153,254338,92234.5,95104.8
97236.9,47285.1,154332,112687,194265,183839,93362.1,96243.6
74367.9,84378.6,181212,109395,262143,211576,97630.3,88844.4
101801,89508.6,154973,171088,232602,262143,98460.3,94194.1
88492.5,81531.9,115029,131201,132728,262143,88165.7,94500.4
82033.2,61956.9,170154,145268,262143,260645,94294.8,91420.6
93898.8,90051.3,188414,170823,262143,262143,98422.4,96914
81202.5,66393.9,167880,119115,262143,185773,96255.8,87585.2
83057.4,66769.2,167260,123782,220147,247950,97600.5,87765.8
87607.8,92322,149163,130679,262143,262143,93851.8,94503.2
79450.2,73899,135749,135882,209269,237644,101675,97825.7
69319.8,71784,169975,120629,229586,210162,101092,87538.8
96939.9,74442.6,205271,117994,262143,236627,92883.1,89596.7
103883,88096.5,211227,152918,262143,251799,91832.9,89529.4
73943.1,57432.6,142990,98300.2,262143,155410,96086,91196.7
76527.9,61332.3,54116.7,132753,86770.3,219283,96832.8,96043.5
89054.1,74524.5,153869,102324,262143,189918,97955.9,101654
80027.1,79220.7,139772,150961,212073,262143,96695.7,92060.6
81395.1,69921,169834,117081,219957,227176,100093,98149
82919.7,80300.7,150790,179694,241726,262143,94842.9,101004
58441.5,117045,169232,128564,249798,216033,93338.4,93520.2
79200.9,86191.2,166922,219290,213409,262143,93210.1,93257
80478,99229.5,142346,134691,260937,262143,94742.2,89949.2
78743.7,90879.3,124108,196995,164880,262143,90456,105361
83443.5,76323.6,214872,113393,262143,142100,92219.3,89088.8
67767.3,73959.3,88753.3,140445,139455,262143,87690.6,90261.1
61429.5,75958.2,149291,158569,242067,250571,93367.2,97691.9
78077.7,62613,114642,152618,206091,228095,90926.9,89513.9
77844.6,67816.8,149339,138333,246921,262143,100058,93535.8
99322.2,95063.4,212164,192851,262143,262143,89571.1,97139
93130.2,70347.6,140085,199727,184295,262143,96531.3,98931.6
85425.3,97186.5,171538,166841,251908,262143,99867,97477.1
92357.1,57831.3,159031,138497,226084,245434,93619.9,94068.6
92292.3,79627.5,101551,181008,154183,262143,92604,99057.2
71500.5,80432.1,103278,175027,155697,262143,98650.2,94806.8
54324,95211,143175,167388,228469,262143,103658,96981.7
84251.7,98028,198985,165461,262143,261620,110306,94364.3
94771.8,66339,171196,133834,241017,218319,89620.4,96433.5
83535.3,89143.2,161355,142722,262143,262143,101262,97285.3
56229.3,71436.6,149585,171339,238107,262143,96988.4,102052
60119.1,72523.8,140666,148400,252467,261932,97880.7,95651.1
69606.9,65345.4,133559,161799,244561,262143,102863,95592
79070.4,83747.7,130824,168999,227300,262143,89533,101385
82007.1,66743.1,141444,143243,192205,262143,97596.9,94609.4
91273.5,82266.3,166572,135831,262143,238860,101896,91601.2
72326.7,67653.9,146345,146919,230470,262143,87626.9,96885.1
73967.4,81487.8,182415,133877,262143,219042,88864.5,90955
74339.1,64849.5,149283,186692,255420,262143,94805.6,98941.3
65619.9,66673.8,94901.2,158654,130657,248937,90088.1,97770.5
73181.7,64747.8,146658,130987,225379,254244,93129.2,90591.6
87946.2,77591.7,151698,126122,210950,244183,90165.4,88677.6
80862.3,63207,128408,157768,228343,242117,89354,89447.5
69971.4,62365.5,105890,122729,153504,219145,92990,89851.2
63511.2,81509.4,153597,124526,226836,217673,99802.7,91044.3
92660.4,75769.2,141680,122090,243200,214128,97324.8,99396.9
80191.8,55478.7,130493,148970,222090,262143,98449.9,98011.1
78790.5,70546.5,142326,118357,237215,180984,92582.8,89969.6
78750.9,68028.3,112841,123113,203227,243892,98222.7,92983.2
81719.1,68700.6,165430,148173,260286,256087,97593.2,96147.8
85173.3,85577.4,139017,125058,159139,231923,87382.9,93206.2
117982,73857.6,200137,149480,262143,262143,99487.7,88734.8
84285.9,66564.9,163491,127478,262143,219166,97090.7,90768.1
92763.9,81831.6,45871.2,124124,85227.4,197085,91014,88558.8
86086.8,66730.5,140583,154078,217936,262143,95629.7,95382.2
60160.5,81729,188788,178775,242389,262143,102388,95812.8
92279.7,60672.6,185646,67076.3,262143,131362,97122.4,91490.9
95864.4,72783.9,182344,127974,262143,165158,100346,87962.8
73161.9,67581,140603,101884,212302,201673,87700.4,88343
88525.8,82851.3,144337,139071,199442,262143,96126.8,89358.5
85175.1,90640.8,151630,101688,235134,212891,99183.8,95934.5
66601.8,76893.3,127319,115807,187207,223744,99259.3,89564.7
82084.5,78939.9,129928,136675,232882,215825,95323.9,97074.7
72940.5,80129.7,119868,152600,230989,262143,95446.9,93419.9
63874.8,93346.2,132447,166770,187007,250382,97466,96876.6
71688.6,75375,121109,177022,181783,262143,101724,91899.1
57498.3,53747.1,158995,163538,221019,262143,96074.2,87916.4
106449,58591.8,178934,116647,262143,177828,95906.6,87571.1
74116.8,66523.5,95403.5,168240,190684,262143,90233.1,90683.3
80323.2,135201,161027,176855,242679,262143,92079.9,88667.2
69021.9,75186.9,194443,152233,262143,226077,90495.7,87608.9
83549.7,74515.5,176752,173233,244212,262143,99009.9,98909.5
88962.3,86270.4,162833,189391,241085,262143,88508.3,87421
71862.3,74956.5,133635,172826,229171,262143,98298.1,99443.6
90152.1,74721.6,153482,169247,238122,257574,87781.8,95128.1
76264.2,86348.7,126402,61087.1,176180,110067,98637.8,91389.3
81612.9,87784.2,116099,161530,237090,202236,97587.3,93154.4
51995.7,78210.9,156412,111678,190644,190585,90129.7,99096.4
92322,46833.3,137816,101107,255517,152117,99455.3,91843.5
75537,97457.4,186192,151935,222263,262143,99321,89286.8
67539.6,75443.4,155145,109514,221740,204419,91818.5,90757.2
61008.3,69135.3,113604,178108,182798,262143,96464,99548.5
69866.1,49603.5,105007,155213,186797,262143,95209.4,96284.8
77940.9,76091.4,170286,149613,262143,262143,98647.3,87382.4
67402.8,78391.8,193117,145406,258969,262143,99950.6,94507.3
80278.2,74021.4,125523,176931,198734,262143,96749.9,99940.4
77291.1,70617.6,164150,98439.5,243799,173625,98310.8,89143.9
57820.5,69216.3,122369,196196,202879,262143,89997.3,89271.6
55252.8,75462.3,131434,206618,189453,262143,98809.6,99273.8
82683.9,69009.3,55579.5,121198,96219.1,227674,96839.4,95393.5
86252.4,65958.3,187331,174755,262143,262143,98495.5,93273.6
70209.9,51819.3,103325,176568,159204,262143,97022.5,93564.8
80500.5,67643.1,187113,143120,262143,262143,96190.9,99464.3
78397.2,97321.5,134656,133964,259296,262143,93355.6,93713.8
113435,75130.2,144312,133652,245310,257907,89635.2,95383.1
64233.9,69294.6,139075,95082,219010,164927,100220,93124.5
37401.3,60120,101458,153039,176946,262143,98423.8,89924.3
76842.9,63369.9,169660,145191,261630,236441,98080.3,92214.8
77161.5,57442.5,58020.7,142384,81834,262143,93411.6,87750.8
87745.5,46755.9,143657,141446,231520,262143,89578.3,98629.4
124296,64548,142807,129167,197435,214569,92256.3,89619.4
82011.6,60188.4,115982,148946,143826,247877,97713.1,88406.1
70887.6,78807.6,129692,155224,210737,250546,96035.7,88146
69542.1,63215.1,81073.6,88041.2,118648,153268,98613.2,98098.1
77931.9,71115.3,153686,133848,233075,223007,94129.8,95192.7
90515.7,73882.8,123389,151520,210438,262143,94744.4,97006.5
101591,85268.7,179621,177418,215167,262143,93335.1,97180.4
94903.2,78274.8,136203,147788,226338,241598,92990.6,90387.7
75427.2,84555.9,131894,146274,182458,260344,90834.1,91103.6
76376.7,79033.5,151309,169093,236003,262143,99219.7,97684.1
50230.8,77724.9,136817,132926,222013,219835,87647.4,97216.3
77991.3,83256.3,146723,111661,239111,174335,93284.9,92963
70311.6,61943.4,163856,150845,202209,262143,98850.7,101257
38076.3,93171.6,61644.6,163676,103064,256463,88484.2,101013
91175.4,71397.9,186855,53124.5,262143,96199.8,97797.2,89857.3
91642.5,86162.4,177578,193182,243326,262143,96963.9,99184.1
64584,55281.6,129169,139434,250171,262143,94552.4,93937.4
89820,63168.3,185533,89907,262143,162371,95641.7,90309.8
112593,62948.7,170723,150840,262143,261124,100842,97394.4
90896.4,68590.8,109016,128471,237815,236640,97181.6,95494.4
81339.3,57978.9,140899,99794.7,236656,150986,97830.1,87891.4
73140.3,87023.7,119200,170177,202170,262143,95127.5,102159
93267,140162,191790,220491,262143,262143,97253.5,94024.3
70364.7,87003,149163,147514,240164,262143,94121.2,97697.9
94664.7,81743.4,134906,180352,230783,262143,90602.7,89638.7
78174,84612.6,141508,172039,205283,262143,93728.6,100201
92793.6,73937.7,174333,52640.1,262143,87550,90150.7,89384.3
59231.7,71117.1,132614,141780,204384,228603,91124.2,88393.3
71773.2,66295.8,127051,121212,214373,163282,95455.9,90048.9
69523.2,64157.4,106365,125597,175376,214600,92280.3,87763.5
71811.9,75147.3,81574.6,158154,124229,262143,95806.8,100589
82577.7,84168,164557,138185,262143,262143,97188.7,88362.2
85736.7,66825,164627,183274,233111,262143,98336,96981.7
72640.8,77986.8,99398.6,120318,135472,251940,97121.1,89119.8
88668.9,83295.9,170658,45683.5,261085,82420.5,93592.6,88947.1
75001.5,64819.8,133999,106470,224434,176189,94226.3,91518
75101.4,77036.4,142974,57414.9,200457,114661,87679.9,89939.6
142670,79901.1,114040,129739,141438,262143,111782,96949.9
78427.8,84340.8,161630,178913,172304,262143,94367.7,93308.1
72187.2,88944.3,139620,192493,224605,262143,92872.9,99180
56964.6,63104.4,120172,134652,237241,220397,92602.5,88731.4
76084.2,65404.8,131020,150624,224664,252155,90571.6,94744.7
69617.7,79863.3,128558,138476,196272,239216,89016.1,92802.1
83128.5,71008.2,191198,163080,262143,260733,99814.8,87964.5
89645.4,75927.6,152889,148092,223877,231663,92206.4,90879.7
96335.1,63527.4,99057.8,125642,143822,262143,95599.1,93770.4
71149.5,69766.2,133050,123876,222119,246496,90371.6,98124.1
70184.7,94527.9,175079,121637,241031,232729,92965,97758.6
66702.6,66157.2,106851,108511,191664,215654,93040,99447.9
95903.1,72181.8,172224,33999.1,223408,92247.5,97352.4,89781.2
112625,83713.5,182258,132534,262143,244831,99754.1,89232.6
121685,74164.5,138618,161550,262143,262143,89170.9,99910
79602.3,83849.4,213765,141669,262143,262143,99469.8,92841.7
92987.1,65011.5,176590,134350,262143,197902,100695,90283.1
94188.6,91656,148829,183497,262143,262143,100681,89921.6
83148.3,72971.1,179773,120684,246839,240229,99549,91114.5
51615.9,90126,129349,165731,159373,262143,91105.5,94943.4
81016.2,70139.7,163553,118378,262143,199344,96675.3,100035
79545.6,69694.2,150448,137888,227863,254806,90146.5,96333.1
69210.9,90179.1,152714,159282,262143,259637,98329.9,93702.8
71457.3,63909,186893,147354,262143,262143,100288,97706.2
67653.9,74025,132637,123705,224830,194355,94908.2,93350.4
59110.2,67564.8,69556.1,47589.3,110520,85257.8,100708,92775.1
75017.7,66525.3,66580.9,162828,102517,251098,93444,96000.7
105379,71721.9,135722,111741,230816,189049,92523.8,87659.4
60238.8,74659.5,108632,140064,158275,262143,95948.2,89456.5
62630.1,77374.8,161632,161587,241690,223062,100776,93311.1
74304.9,79141.5,109416,143158,162960,262143,94497.8,92389
85336.2,79785,110186,144108,150501,227976,98706.9,93847.5
67650.3,69073.2,106903,136772,187516,259632,92569.7,88921.3
68420.7,98103.6,149117,158369,252496,235217,98671.7,93071.4
74782.8,76503.6,151242,143036,245778,262143,91430.8,99250.4
72921.6,70894.8,124355,118541,208581,238792,93312.1,89562.8
84780,76668.3,154626,154382,262143,262143,99003.4,95178
65050.2,80067.6,167170,176484,225366,262143,91964.9,97361.2
78221.7,70117.2,124050,122921,185262,227867,89335.1,87495.3
85285.8,57812.4,177994,74253.7,262143,134169,98023.6,91358
71426.7,59134.5,146575,97251.4,220919,177345,88650.8,87866.8
89320.5,70652.7,109642,167704,139713,261952,91297.8,92697.1
95899.5,75966.3,167043,166736,262143,262143,99391.1,93843.5
98190.9,62120.7,144624,163556,232545,245744,92016.4,92071
94007.7,75713.4,128953,147018,173948,262143,88419.6,93163.2
49744.8,87482.7,134108,91307.7,212861,132688,94935.2,88244.5
65635.2,68748.3,103489,109520,162574,165951,91177.1,97222.9
55846.8,65124,125485,128933,223563,262143,89262.4,90273.5
39121.2,70153.2,68587.4,168544,100650,262143,89874.5,97786.2
62136.9,97798.5,115418,131513,199108,205401,93037.3,100689
68687.1,58851,130560,77368.3,204206,108791,103207,93311.9
79498.8,54632.7,97632.2,180360,131842,262143,89180.5,89740.8
78147.9,96966.9,67338.5,167446,110156,262143,97165.4,89887.1
75138.3,76617.9,187116,133494,262143,243874,102032,89398.7
92700.9,81476.1,187273,121063,262143,203118,101123,87627.1
74697.3,76500.9,151182,168632,259626,262143,99680,88809.3
75405.6,81335.7,147042,147942,246411,247095,95917.9,90496.2
77317.2,67119.3,83988.2,137480,158043,236059,88263.5,92956.6
100015,76958.1,140811,168157,200177,262143,92734.4,92615.3
81943.2,72207.9,144850,123284,219036,223530,89644.2,95188
61407,72502.2,160196,115836,231728,210025,93936.7,96480.9
52594.2,67443.3,128852,121599,252270,208500,94445.1,94105.9
78965.1,72392.4,100788,123975,157163,215113,95965.7,93626.9
75714.3,71877.6,133831,149577,172046,262143,97043.7,103130
71307.9,75359.7,156967,48566.3,253876,88086.8,97461.4,93581.1
57997.8,82462.5,114424,125701,184205,184560,98021,88669
71151.3,50332.5,98591.3,50428,199560,97803.4,93427.2,99021.7
55103.4,82614.6,142166,87385.7,202032,150010,93254.6,94563.5
45900.9,72504,80280.1,140743,122068,262143,94092.1,97942.1
98801.1,63114.3,155341,93448.1,239827,200067,87612.1,87483.6
66686.4,56175.3,110629,117246,175739,178231,94833.3,90620.7
69149.7,67699.8,142615,139949,217209,246628,99201.1,100599
70349.4,63828,140080,118020,238465,195572,92376.6,96051.7
67877.1,98580.6,77939.6,146494,103122,227587,94888,94824.1
87143.4,75879.9,150660,145122,229700,250235,87589.9,90640.4
92624.4,74348.1,119994,154819,184843,262143,95861.9,96495.9
112941,58305.6,123909,156769,186791,252939,89456.4,97223.8
87318,62889.3,157190,179974,262143,262143,98923.3,102994
102316,102431,152086,135270,237134,262143,87798.7,90469.4
78858.9,61047.9,168762,106470,258317,168150,93739.2,94535.2
100922,90981.9,154731,170887,223426,262143,99696.3,91058.7
79659.9,62860.5,111343,155290,170626,262143,93569,99077.9
88152.3,85172.4,181997,109786,248146,200502,94764.6,93485.3
104241,91532.7,200698,186695,262143,262143,99536,95616.8
123650,95610.6,131300,176015,168553,262143,95541.1,91475.5
88118.1,59724.9,59386.9,110134,103900,161123,91053.8,89856.3
81862.2,67749.3,139249,122562,225768,206803,90253.6,88253
78972.3,71073,156898,125710,224573,215274,90188.7,91129.9
72189.9,86471.1,142332,118752,229764,176088,99786.6,98090.7
85920.3,75015.9,148280,129910,260643,245091,89521.8,89650.5
75741.3,85126.5,92410.3,62185.6,157610,103599,93039.6,89837
68653.8,67951.8,154968,126796,226178,262143,102196,94122.3
77756.4,91107.9,131368,130431,132879,233005,91840.4,89320.4
78966,77494.5,155950,133142,218758,230646,99647.4,98276.5
83844.9,72864,149520,107194,244308,181153,95036,96900.5
113519,56210.4,150013,111497,257268,230380,99667.5,89340.1
86074.2,57329.1,161352,152170,237011,259426,93887.8,90702.4
85939.2,70533.9,135737,185032,262143,262143,96133,100294
75986.1,62380.8,133131,167769,198687,262143,93268.6,94454.9
81887.4,77354.1,161419,158893,222143,223408,91071.8,100197
76855.5,60072.3,130460,55118.6,195241,83440.3,89029,91022.5
75513.6,73245.6,108751,128791,198251,225299,88152.9,93057.7
68652.9,96777.9,131368,116559,158407,212542,97981.5,90742.4
92922.3,93757.5,139435,168690,213681,262143,96720.1,91138.7
85503.6,80496.9,155224,98689.3,227642,173905,87628.1,88499.8
75726,78533.1,152420,46715.8,262143,95500.1,102869,94625.6
120142,67156.2,143960,142325,241576,262143,90308.5,94471.4
82264.5,68123.7,117304,161242,218182,262143,91463.8,89709.1
63063.9,62384.4,151759,128764,188414,228398,98845,96476.9
77465.7,56338.2,137879,130928,181095,238251,95318.4,94566.5
98930.7,76594.5,172363,113483,262143,220403,88801,94818.3
102391,83313.9,140588,181022,208833,262143,93345.3,98087
74590.2,68193.9,190317,160004,262143,262143,96425.5,93806.3
58405.5,77730.3,98297.4,66103.4,142261,103408,96146.9,90853.1
93562.2,73164.6,190477,129447,262143,231850,96602.2,93347
67521.6,64253.7,149182,161641,245582,262143,92393.2,96693.2
86787.9,76636.8,145348,105283,235716,202376,100125,94289
73593,96816.6,62676.8,151427,98031.1,200398,95510.6,93921.1
78463.8,58231.8,192794,111947,262143,223999,92654,93777.8
62629.2,64350.9,126703,151724,208725,262143,90744,100705
94701.6,75675.6,217985,150685,262143,262143,98443.1,96236.5
74585.7,66478.5,134872,138382,222228,246162,97720.1,92942.5
69197.4,69224.4,126696,169177,123652,235852,95908.7,87772.9
64101.6,54327.6,143066,69365.7,210269,99325.5,94004.2,87705.8
79255.8,77998.5,50179.6,154477,85452.4,262143,93555.7,94007.8
90829.8,73979.1,190262,175061,262143,262143,90439.1,98019.4
80695.8,99352.8,152600,228861,239611,262143,102422,98231.9
84878.1,46767.6,155870,122032,253812,262143,93035.4,90636.4
88392.6,74451.6,191133,146813,259219,250763,89214.4,87529.2
67275.9,51559.2,154410,119580,210647,192027,90665.4,98198.5
64766.7,72509.4,123427,114158,225841,218726,92955.7,89636.7
81513.9,69202.8,158775,139459,262143,218515,99435.3,88960.2
92246.4,59635.8,131776,151926,187283,233778,95370.3,88055.9
63904.5,63354.6,84745.8,103750,108645,122319,92737.8,96002.2
88893.9,76694.4,124143,138800,234432,221795,91806.8,92423.6
76201.2,66370.5,163276,135335,230318,215375,88463.4,97062.8
66308.4,75694.5,112122,138614,163006,242487,94875.6,91666.3
77752.8,77498.1,147264,131550,262143,242295,97288,87714.3
81052.2,57536.1,167205,172703,221066,262143,92590.6,88998.4
69609.6,63812.7,147641,144472,242817,229036,93033.7,94101.1
111965,103489,158195,141861,262143,222746,92696.8,99286.1
83966.4,79510.5,150065,153873,201716,256520,99923.7,90459.6
57656.7,97969.5,120865,195803,214891,262143,99715.6,90632.3
72848.7,94043.7,137016,122341,247440,253099,87836.2,98407.3
83808,59807.7,124984,76402.3,191543,127529,87850.3,88742.8
69362.1,81075.6,49005.2,153678,77063.3,262143,93842.7,99792.7
81193.5,71161.2,143683,127548,251222,216308,93932.9,93243.4
69264.9,59169.6,146085,115651,220303,233663,101551,94257.9
71811.9,92257.2,185578,178175,262143,262143,93505.4,95801.8
104098,65790.9,135671,117685,218506,228220,87421.8,92702.4
72108,65180.7,64585.4,94928.8,99173.7,151597,87826.1,89060.5
77175,87388.2,138702,126567,227171,237713,92517.3,93685.8
53059.5,61200.9,142855,78310.9,247150,119613,97079.5,89554.1
67037.4,41938.2,131028,86463.9,206023,203139,98581.5,91236.4
96446.7,73191.6,71168,136735,76319.5,241822,102198,92108.3
77226.3,74915.1,182614,134433,262143,254344,100922,89210.6
57098.7,74553.3,136988,126307,248826,262143,97820.3,90599.2
76869.9,67228.2,179411,162127,262143,249166,97758.6,90595.5
71733.6,80495.1,105166,142956,177403,262143,89422.6,97606.8
74854.8,75930.3,140441,140876,218636,247918,97718.6,92456.2
78522.3,85870.8,117448,174048,205180,262143,95766.6,98371.3
78264.9,75278.7,177734,170521,262143,151840,94409.3,87926.6
92748.6,57015.9,84051.7,141062,150817,254522,94393.5,99450.3
120654,86003.1,153112,148960,239133,250404,96474.7,94760.2
58133.7,69295.5,103391,119157,175965,231984,89423.4,94973
90746.1,66022.2,159264,170320,262143,262143,94562.5,90629.5
74205.9,71523.9,146085,158228,158223,262143,92514,92996.2
88996.5,55688.4,168464,93591.6,253625,157945,98474.2,89554.8
57604.5,83707.2,53688.9,187716,91139.3,262143,91989.9,93011.4
78939.9,68713.2,120264,169445,208152,262143,98451,97924.2
73655.1,60094.8,144211,156965,240600,259483,95135.5,99010.6
68948.1,71330.4,133416,109237,203460,199138,92210.9,96744.2
77683.5,66530.7,153798,130015,211864,227940,96925.8,94134.5
63566.1,69319.8,139859,105440,154094,163496,93271.2,91986.6
79882.2,103666,211929,181314,243337,262143,98258,100774
78256.8,70191.9,193466,127486,216417,232686,98824.1,93284.8
103100,69750,158637,124327,233946,237375,90889.6,93923.6
98890.2,60838.2,135378,146832,240904,262143,99219.8,92579.5
71537.4,80235.9,131453,165677,225348,262143,90022.6,106515
83623.5,80634.6,156039,179411,236849,262143,93170.8,98386.5
91808.1,84471.3,117337,157658,225837,262143,87804.3,101460
76375.8,83862.9,147359,71924.2,245236,128954,104430,88361.5
79056,67759.2,165715,115739,218488,215855,91076.8,92507.1
85383,65795.4,103461,135101,174645,262143,91939.7,95785.2
78185.7,62314.2,149302,104746,232247,161535,97053.7,95109.5
65802.6,79940.7,152105,76832.9,260221,104667,95903.8,92290.1
80006.4,100184,154172,167148,242691,262143,99305.1,97962.8
107663,89914.5,130686,159553,166460,247641,92888.2,94129.7
60528.6,68600.7,145416,125152,225636,215574,100260,98910
117158,63161.1,106846,110261,136067,161888,92409.3,92159.5
64405.8,91043.1,101242,150217,188889,262143,91421.8,94944.8
97695,74677.5,207518,144360,262143,262143,98185,92803
83201.4,69501.6,164384,107374,227837,258399,98776.6,90014.2
66217.5,70902,84849.3,120736,134822,215810,98488.5,98912.1
89567.1,76389.3,158332,128239,259043,233951,93399.7,90258.7
60561.9,79524.9,118879,162924,174226,219993,88048.8,90554.5
69736.5,80514.9,164217,198020,262143,262143,91205,96371.7
79803.9,56332.8,188650,121935,262143,222808,102176,96319.5
79240.5,78806.7,138886,199705,236495,262143,91030.1,100548
74705.4,82838.7,137191,164795,262143,262143,97871.8,96497.3
90421.2,78517.8,200561,136028,262143,237178,97591.6,90994.5
71583.3,86521.5,112193,157299,201853,223623,87388.1,92816.4
76950.9,85473.9,130221,103190,173909,207555,89543,93095.8
102811,68566.5,208441,169697,262143,253037,98136.7,87981
114024,84149.1,190227,164874,241361,262143,92154.8,98618.3
68706,129707,110589,151513,262143,260508,91242.2,91289.2
94242.6,72212.4,156380,154560,216970,236693,103397,88036.2
76159.8,60244.2,121791,127767,194315,208267,98071.5,88801.8
70755.3,72394.2,135793,134809,243604,262143,96307.5,100520
76222.8,67599.9,119961,128016,255267,191218,93207.8,92409.7
95580.9,64592.1,145888,160965,262143,262143,96756.7,98233.3
124259,71062.2,208428,142289,262143,262143,98705.3,100635
58617,75942,125918,158198,204208,262143,94594.7,95162.8
71494.2,71078.4,133930,134539,197395,262143,98524.4,89417.9
43322.4,89263.8,80767.3,148794,187143,250095,93908.7,100776
75298.5,74634.3,155885,164731,262143,262143,99740.3,96232.3
68987.7,62101.8,155236,116643,221001,227736,91500.1,95624.4
87644.7,78930.9,159023,105062,241107,190041,99318.4,94629.3
146857,88781.4,125402,144446,136325,258176,92592.7,88587.5
99661.5,66163.5,130046,120246,165790,231328,97620.9,88284.3
77142.6,81373.5,119262,118458,226443,233667,92669.2,95744
51253.2,71948.7,143675,160872,221076,262143,94607.8,101816
69831,73293.3,166291,165325,262143,232682,90585.4,97921.8
86625.9,81144.9,115621,156958,196355,262143,95399.6,96386.9
79641.9,62937,78966.4,145296,122722,262143,91419.1,95742.4
85472.1,86258.7,124418,114630,148794,192925,89081.4,88784.5
79298.1,83477.7,51287.7,132989,84583,248981,94794.8,95104.1
74068.2,64370.7,160787,139726,235653,234634,91155.9,91058
67500,70658.1,132175,173979,162154,262143,101021,94613.6
79325.1,71788.5,123480,144268,213144,236607,89534.2,88540.5
110901,74538.9,195200,93885.5,262143,142365,90439.1,89044.2
79027.2,88980.3,139550,213810,207065,262143,96347.8,94628.8
79868.7,73728,163755,166498,222833,244841,98711.4,94760.5
100264,99017.1,169879,147802,246269,262143,88087.7,88381.5
80312.4,55919.7,189931,70987.2,262143,140794,95536.8,90214.8
96903.9,78308.1,157428,83105,226185,206982,103370,88956.9
74731.5,59704.2,157389,153753,240243,247230,99643.8,98343.2
89791.2,72668.7,142967,117736,214180,228522,92250.6,92627.5
98602.2,82532.7,171868,144705,253905,223001,96121.7,93986.8
77214.6,81733.5,85295,195750,139086,262143,89075,95757.6
57436.2,58975.2,128192,123601,214210,260025,97381.7,99833.2
74042.1,82541.7,99077.1,132338,146931,262143,89224,97761.4
113277,66908.7,94770.1,179628,157575,261738,88191.6,96068.3
99940.5,70038,118626,57566.7,165502,87577.6,93588.4,95968.6
74849.4,70686,145132,73933.5,209710,138204,99062.4,87395.9
90435.6,71476.2,188733,161943,224258,224733,97415.3,96899
75840.3,77433.3,125184,119625,184360,199828,100441,91893.5
97994.7,92321.1,156086,188933,200569,262143,89713.9,100037
70630.2,72507.6,128438,74790.5,254400,113795,89363,90018.1
94994.1,70307.1,168324,114660,199175,230013,88511.1,91217
72379.8,57452.4,133020,153195,195665,262143,99754.9,96304.1
91026,79766.1,162434,146523,218222,262143,96105.9,88054.4
80765.1,64780.2,120223,109598,194580,207811,94688.7,88261.6
82719,86352.3,113281,159705,200521,262143,97156.7,95690
108267,71547.3,142903,137614,218236,248101,98727.4,88945.5
71621.1,61127.1,125873,129785,202385,223833,100496,93200.3
81154.8,67568.4,172395,166017,230700,259876,95822.2,92749.8
72295.2,53494.2,169874,94589.3,262143,123332,97038.2,98584.3
56329.2,92259.9,159416,183368,262143,262143,101725,102435
65722.5,79433.1,74972.6,169344,95010.2,262143,94765.7,98305.1
129542,85711.5,151792,143371,226000,226690,92635,98150.9
108634,71639.1,93452.2,113297,132324,262143,96942.6,92026.1
105282,68830.2,148011,130791,216765,245879,94582.6,91954.1
67279.5,101199,147308,173721,262143,262143,96115,90974.5
111745,68900.4,195276,173955,262143,262143,87524.5,96389.6
80903.7,95549.4,166979,169035,249969,262143,93458.8,94388.6
65467.8,57458.7,159950,161572,231734,262143,98472.6,87848.8
78221.7,64231.2,84271.1,124495,153744,255017,89308.7,89432
73561.5,56755.8,144145,140127,207242,251929,87768.5,96703.3
79320.6,60818.4,143996,136225,234200,262143,93641.3,97064.5
70284.6,74153.7,54079.4,188395,94782.5,256828,98399.6,91507.7
55551.6,65594.7,125924,107715,166304,245178,88525.1,94030.1
96504.3,77437.8,153442,131568,262143,243693,99708.5,90424
66600.9,77887.8,103172,129663,178953,167669,92345.9,89353.7
82928.7,74338.2,123248,138762,184953,262143,97773.1,88424.3
84184.2,66821.4,150813,166940,258422,262143,93097.6,97755.8
69989.4,93684.6,139500,192743,249042,262143,90738.2,100425
86172.3,104198,153121,184630,250343,262143,95970,88174.5
85930.2,63385.2,123201,134187,244347,262143,88563.7,98349.2
90547.2,138601,129828,230587,195943,262143,97424.5,88273.9
89806.5,87039.9,118830,134609,175267,243593,94053.6,94857.5
76209.3,80629.2,164187,171907,262143,236653,110450,92086.6
74337.3,49522.5,119733,95605,183183,206578,90537.4,88275.3
74942.1,60854.4,160718,116651,262143,192371,98905.4,95639.3
52035.3,59073.3,145503,103984,250066,222082,98557,90996.8
99619.2,81139.5,172087,143136,257062,262143,94850.8,92808.5
82905.3,83737.8,152809,193099,238316,262143,87716.5,100323
98548.2,79594.2,74606.9,69260.8,99946.5,88892.7,97489.9,93936.9
61138.8,89640,125815,136102,196559,251029,90241.7,96558.1
76529.7,104423,127649,188182,205648,259818,89810.7,96566.3
99613.8,81846.9,154134,168400,257992,262143,91840.2,93019.7
81692.1,87840.9,118877,200714,212285,262143,88609.1,97657.9
71757,82486.8,133065,165317,219289,245479,91504.5,96150.7
76686.3,83480.4,180061,167493,250395,262143,87761.2,96478
93733.2,63766.8,150623,145438,200722,262143,91957.5,89041.1
80920.8,85470.3,107512,119068,123368,210926,96188.6,94390.5
72857.7,93114.9,111889,132960,187154,241281,89646.8,91324.3
87043.5,60215.4,138882,100805,194982,180200,91740.9,89134.1
63067.5,80036.1,128232,58231.9,192343,82250.8,99149.7,93246.8
62726.4,73903.5,125726,161848,230775,262143,87831.9,97668.9
85599,68421.6,200482,150067,255296,262143,91430.7,94138.9
85759.2,98776.8,98485.1,82797.2,174323,146084,90914.1,94592.6
77530.5,104354,166959,170171,256208,262143,96943.6,95507.8
83230.2,69229.8,142920,157818,244263,262143,100002,100766
105409,56739.6,226626,147076,262143,239459,93168.7,89984.6
78410.7,66356.1,141461,103550,212657,230305,100165,90157.1
75360.6,74893.5,133213,118528,180300,218933,95129.2,96038.9
90423,78429.6,177156,62334.6,234828,99318.6,89075.9,92743.1
107685,95114.7,197365,160596,262143,262143,99805.1,95586.5
81765,67874.4,105036,157148,164739,262143,88405.2,87766
75608.1,72134.1,75179.6,118260,110034,237818,96972.7,95281.2
116152,70893,187416,140196,249875,200223,100713,91845.4
88597.8,103391,134478,160003,221192,262143,95806.8,95471.9
56187.9,69221.7,69847.3,140285,118782,247482,92003.5,93856.9
104080,73485,181343,137005,243667,241035,96741.2,94848.5
75222.9,76415.4,101386,128388,157977,197725,87552.6,89610.9
69789.6,76617.9,158479,166090,252406,262143,100938,96035
57030.3,84911.4,134738,80757.6,211281,122872,90493.7,97962.8
91738.8,110342,107038,104411,173444,160487,91400.2,94220.6
70272,71769.6,176901,101978,215148,183225,93311,89303.5
70016.4,66646.8,170157,128290,262143,224576,98502.4,92391
84083.4,82541.7,162567,138480,225217,217369,95972.6,88702.9
75484.8,75534.3,138842,135952,209604,241243,97540.2,90668.9
83276.1,58689,181277,114100,262143,208339,93815.9,92301.5
73196.1,47742.3,142525,140690,219328,251886,98513.4,96670.4
134524,80334,148865,174024,259706,262143,105165,96851.9
86511.6,82804.5,201466,154365,262143,254062,90261.1,89051.5
68056.2,70790.4,174146,119904,231905,245009,91767.5,90037.2
83056.5,70308.9,158875,192503,262143,262143,95698.3,99011.6
71462.7,69804.9,149618,116102,230532,207192,91426.4,91906.2
68715.9,126568,36993.7,177721,69876.3,262143,92088.6,96574.6
105271,75945.6,140866,139953,243346,251769,89654.7,99410
83763,68552.1,168284,134767,255537,244148,92154.3,89766.3
107545,71192.7,158122,112590,198564,193890,98123.9,90668.8
79293.6,81852.3,120464,68866.1,199928,98094.5,96423,91003.9
78133.5,51968.7,100144,168299,221369,262143,93285.7,87427.9
79836.3,71229.6,141469,127087,235838,241401,99575.2,98560.6
75118.5,65800.8,154732,136947,239651,262143,95189.5,96251.6
94299.3,78831.9,157233,151542,256283,262143,100635,90988.3
81127.8,76111.2,158188,71863.5,191826,104558,92375.6,88063.1
76820.4,68609.7,79957.2,161383,118902,262143,94604.4,90964.9
81929.7,77668.2,120802,161009,207972,262143,97944.5,97627.5
55076.4,64440,87906,156992,163189,262143,95026,98734.3
59205.6,79680.6,138458,136773,220716,209912,96336.9,94736.8
81639.9,157698,139787,125180,211838,261598,95085.8,88180
138052,87336,189027,198768,260417,262143,99874.9,98320.3
135167,68090.4,76827.4,152276,113077,262143,92576.3,91661.8
57826.8,56592,70794,134422,108268,261907,89665.1,91626.6
95299.2,76998.6,167193,120355,235115,212034,96463.1,93356.1
73155.6,55878.3,111646,166203,177126,258232,93842.2,93983.9
113229,81211.5,145549,162668,220916,262143,94903.7,87564.5
82880.1,57988.8,163029,112469,217048,244285,99607.5,95272.9
73047.6,70110,142681,61145,178504,86869.6,97368.2,98490.5
97215.3,126494,136657,153822,207247,262143,100256,92852.7
78055.2,76847.4,130436,161715,196836,262143,98377.3,94759.9
97330.5,77983.2,190789,159346,231449,262143,96874.3,96161.9
63960.3,66015,185284,169907,262143,262143,91954.3,87745.3
94496.4,61699.5,96568.3,131140,161624,229108,97656.4,93053.7
82306.8,66277.8,78596.5,131435,129236,221991,95415,90463.4
96804.9,83559.6,135410,165698,229985,262143,87790.2,94478.3
80946.9,63776.7,171123,94717.7,240306,198912,93243.7,93736.1
67071.6,65683.8,109295,122917,184264,166813,89653.2,96282
62385.3,73671.3,119236,165290,201457,256492,88915.7,97798.1
78546.6,62777.7,138091,103256,233431,213701,98301.8,89627.5
73630.8,75885.3,174705,182528,262143,262143,90450.1,98349.2
71693.1,79081.2,149822,142849,214728,262143,92475.5,96254.4
98741.7,65804.4,97145.1,146066,156170,230121,94314.2,87473.2
72354.6,72912.6,144824,153612,225924,262143,96525.4,94336.2
87757.2,79246.8,144213,96314.3,229730,200169,101240,89189.5
77099.4,70966.8,123409,198154,168218,262143,89575.7,92238.6
65466,84274.2,126289,153540,192564,262143,87506.5,100946
79345.8,67386.6,127533,140971,222722,262143,95643.8,99275.2
110101,73905.3,188000,128860,262143,237462,103868,96189
84025.8,71358.3,74965.7,122191,88884.4,219965,91055.8,90138.8
63420.3,57248.1,135266,96711.8,209190,185291,90193.6,87480.7
84589.2,83322,175392,169944,262143,253694,94819.2,98197
78903,53584.2,119086,134620,172305,225348,90164.2,95854.5
63837.9,101174,150212,177762,217340,262143,92078.1,96133
58500,63346.5,146775,41975.5,262143,76929.5,97773.8,87810.3
84708.9,69882.3,99308.9,132185,160083,262143,100559,92128.2
71241.3,88648.2,135908,138415,190164,241388,99358.1,92025.4
75850.2,56436.3,190886,103438,242132,196355,92616.8,96509.1
109007,76783.5,166235,155585,262143,255576,100933,95264.7
70191,94064.4,52510.4,176812,74491,262143,89271.9,96218.5
69878.7,79288.2,126712,137908,207455,243066,90385.1,90670
67988.7,58747.5,178034,131996,255882,240101,96809.7,88577.4
64710.9,51327,146577,115415,262143,210973,96248.9,87971.7
104602,81844.2,169272,144823,262143,225384,101893,97496.7
62354.7,70539.3,109175,181132,171045,262143,95185.6,97090.7
74716.2,63625.5,160166,117249,213939,235392,90664.5,93342.1
68202.9,72428.4,122170,155861,196905,219103,95980.3,92507.9
89827.2,60875.1,128508,129801,262143,202163,88791.4,89551.2
59453.1,95376.6,126379,161519,197101,262143,94867.5,96246.1
124487,74613.6,212922,149494,262143,227507,92355.9,91524.8
62040.6,64359.9,130741,73162.1,214455,123585,97495.2,96471.6
77718.6,71708.4,150978,89036.2,206114,140988,99392.3,87483.4
135716,107723,186085,153986,262143,262143,98680.4,91429.9
60468.3,67824.9,61510.7,124374,89355,210363,89088,92611
78255.9,77433.3,146334,142776,234109,232407,87386.5,94075.1
75781.8,73938.6,128929,173260,237741,262143,88105.4,93607.6
75672.9,103398,135477,162416,204349,262143,91235.9,91527.9
78528.6,68250.6,122901,144238,178159,258761,97145.3,96224.2
74955.6,92664.9,121578,164917,175057,254141,90711,88176.4
77726.7,64896.3,160153,99747.8,239027,166649,92491.9,98330.7
68940,115769,130555,139573,190136,220886,90398.8,98426.6
91893.6,49176,156384,108733,226618,203761,89461,91930.3
73263.6,74592,182228,167263,262143,247187,91639.7,96139.6
75664.8,119219,101938,193007,139122,262143,90881.4,95757.6
76221.9,80815.5,158261,136641,262143,257404,92516,91018
79409.7,85463.1,66718.9,184488,122921,262143,95926.9,101325
102131,66128.4,169729,60097.6,228360,118669,104419,87707.7
55786.5,70623.9,88800.2,121008,146668,168378,92472.9,94928.1
83522.7,71367.3,64741.3,161790,110338,262143,91512.9,98165.7
81014.4,66102.3,114962,147881,215651,236758,89934.3,90560.5
73707.3,57298.5,141954,96760.1,223898,191461,94651,91812.6
87453.9,63996.3,137732,143857,200042,262143,97456.4,95557.5
65070,78732.9,103105,132274,182483,213151,94644.7,88995.7
71271.9,82998,127036,170677,196671,262143,99276.4,99669.9
61202.7,62280,167889,28433.5,244889,72875,95988.2,93452.6
109500,113216,175299,141904,252617,213290,90044.8,90653.3
62482.5,77349.6,184122,187542,262143,262143,100869,100513
68113.8,71748.9,121940,122584,179510,225086,96426.1,91075.8
66186,77916.6,80427.8,179019,136238,262143,91253.2,97904.9
112210,87428.7,189052,154421,253799,215611,99847.6,90827.3
59731.2,70731,142453,127600,227007,211561,95947.4,94158
87525,57970.8,166370,154321,225896,262143,96146.9,99010.3
76546.8,59023.8,155824,108264,235387,204858,93973,100065
79563.6,91285.2,123391,165193,192907,262143,88270.4,100194
92831.4,53323.2,157094,163755,237377,249757,95899.7,94227.3
58932,59265.9,130983,116840,216999,212847,90032.1,90071.2
92608.2,61462.8,134168,121261,159002,190597,97910.6,97660.8
85638.6,73138.5,216932,125425,262143,214424,97328,92509.1
72795.6,110172,153408,169552,213474,262143,99196.8,99715.4
75916.8,79680.6,168744,70475.2,262143,106929,93193.6,96255.8
84343.5,95510.7,119667,159936,189555,262143,98445.5,93350.9
63298.8,68059.8,69336.7,164718,262143,262143,91780.4,92502.2
86869.8,72592.2,168004,132243,262143,233633,97243.9,98163
100347,60723.9,91307.7,145335,172755,232251,88114.3,89807.2
70210.8,71821.8,59566.3,165410,104948,262143,95726.6,97141.7
79347.6,59322.6,157920,126917,209839,224685,92935.9,96591.8
80821.8,69402.6,179523,177805,253077,262143,98482.6,92133.7
70205.4,61304.4,148506,160991,262143,223640,95273.2,93298.8
81438.3,61623,150642,121516,254937,248305,98035.2,93977.5
96137.1,89207.1,166957,125511,261013,255311,101786,87774.5
70209.9,70688.7,142569,156528,243686,262143,94739.5,91301.6
79055.1,62802,162449,62472.6,239108,139016,94028.9,90768.2
100637,69558.3,141240,173712,262143,262143,96483.5,87650.1
75549.6,62219.7,92814.7,155750,126734,262143,92550,98706.7
57605.4,99704.7,97619.8,202976,175031,262143,91464.1,101915
64258.2,71038.8,150673,173236,224617,262143,93657.7,94274.1
90937.8,62504.1,133748,105730,195862,194217,89663.7,93111.4
65526.3,122694,121194,179807,180770,262143,92903.3,96366.2
78329.7,66138.3,119573,181798,191274,262143,88801.7,88021.3
77188.5,73737.9,140241,110000,242339,202636,87698.9,97152.2
105955,73549.8,148925,152876,173807,262143,88666.4,94922.7
66258.9,60076.8,134829,134858,208045,253074,89406.4,93020.7
76386.6,98502.3,142449,146740,213097,244475,91876.4,91985.4
78598.8,79036.2,138615,187779,192070,262143,92124.8,90980
63409.5,98869.5,138756,148206,212960,262143,91641.5,97017.5
68149.8,72279.9,127984,145190,134521,253576,94544.9,99973.4
84000.6,69550.2,168207,100603,226022,208791,98652.3,97713.2
61362,63284.4,136621,126618,212975,241605,87476.1,94345.2
113615,71030.7,165127,117867,262143,195638,90984.2,91986.5
119005,78726.6,165732,124691,239865,254170,92864.4,95238.1
83223,71725.5,170433,166221,238065,262143,94463.2,98764.6
75838.5,71526.6,130676,134740,239142,262143,89662.7,99482.2
101492,71294.4,174057,144592,236248,239935,102590,98515.6
95952.6,68545.8,153862,146161,224133,262143,88400.4,97735.1
71072.1,64492.2,109616,152450,148712,262143,93271.5,99042
93596.4,103309,118745,139246,186277,229817,100055,90113.6
80553.6,53415.9,107928,121909,142133,221938,96974.2,92463.7
79771.5,77145.3,86491.5,140169,163208,248154,88913.2,97277.2
70986.6,84691.8,186253,182891,262143,262143,98982.7,91649.3
78075.9,79557.3,186272,176207,262143,258667,93430.9,99314.9
59386.5,64338.3,59327.6,113675,114467,217222,89328.8,87487.2
62236.8,76822.2,114002,166145,172503,262143,87827.2,89100.5
68312.7,60787.8,87327.8,181368,116963,262143,94428.3,93959.5
132927,74593.8,203353,178882,262143,262143,91717,98396.2
78754.5,72096.3,157004,150078,216075,262143,98431.4,98868.1
61986.6,101917,109264,96136.3,183260,141358,92058,95095.2
62556.3,80631,95124.8,147537,170981,228753,98421.4,94040.1
96685.2,86028.3,188599,173745,262143,262143,97805.5,92401.4
72950.4,65113.2,176663,109300,244219,193753,90340.5,98931.9
75141,76634.1,159270,106885,240716,179101,100080,94851.9
79988.4,87140.7,119874,219492,174516,262143,96345.4,92280
74721.6,74600.1,148405,154474,228593,262143,94940.4,101733
72776.7,59487.3,127320,111354,204593,197420,96673.5,93744.5
68103,66961.8,126554,138970,190720,262143,101103,92968.6
96726.6,68078.7,166685,129883,262143,232083,102876,97251.8
70961.4,127170,157178,134735,242289,251604,96122.9,95363.2
64973.7,65702.7,120499,138473,189480,262143,92300.5,95376.7
63217.8,80185.5,115405,75295.6,192665,80581,99443.8,90372.2
64394.1,65784.6,118368,88642.9,262143,156044,97924.2,90119.7
119928,88192.8,173959,165023,233340,261892,97412.4,98296.7
55660.5,71726.4,37362.1,73705.8,72278.9,100893,92560.3,95401.9
76738.5,71967.6,50002.9,138938,83992.3,261752,95441,98765.7
94527,67031.1,116770,140158,180374,206205,93313.1,88583.4
89728.2,76656.6,127224,168497,171955,262143,88738.1,88340.1
67391.1,82945.8,53197.6,140045,83564.5,249703,98384.3,93348.9
50075.1,72946.8,84086.2,117016,142468,233760,93627.4,100067
85798.8,71555.4,177522,135651,256978,223323,96597,99088.9
66328.2,69792.3,97463.9,126852,182922,247862,92035,87734.6
65752.2,47508.3,140284,115748,242248,213841,90593.4,98125.8
92202.3,50518.8,169301,111621,249831,169523,98361.7,89023.8
61027.2,62433.9,131834,127251,198062,262143,98225.8,99534.7
94647.6,80628.3,121047,148634,236375,262143,91205.8,97075.5
101464,61038.9,184318,129596,255301,241991,99932.6,88000.5
82874.7,85711.5,112067,141705,164075,241755,97851.6,95065.4
82165.5,69723,131093,134471,207664,251241,90381.3,92142.3
62748.9,70739.1,57394.2,129801,76870.1,208878,88548.1,88981.4
108355,81802.8,165604,175099,257744,262143,89903.8,96484.9
56925,55493.1,44205.5,170832,78079,262143,96451,97598.5
77496.3,76675.5,136383,189037,207803,262143,89699.8,94710.2
81552.6,55119.6,150312,120111,244205,206776,90811.6,99080.1
80742.6,79326,192441,166262,262143,262143,97166.6,96879.5
119860,72282.6,140564,144474,211608,244638,97580,94259
83528.1,135051,152417,188185,243972,262143,101780,108197
55523.7,70044.3,131514,160167,193861,232127,88496.4,96829.2
71487,55877.4,161506,164576,262143,262143,97241.1,99471.2
64544.4,67671.9,158603,109635,243039,192416,99903.2,87952.3
66506.4,72406.8,133620,146682,262143,262143,97332.2,93557.9
94607.1,65268.9,171149,107875,262143,199026,94652.2,93317.8
71397.9,92700,152970,154785,231937,262143,88051.4,105082
78783.3,67103.1,153740,170117,236896,262143,99624.6,102173
58973.4,62244,125730,158374,222006,262143,93417.4,93259.8
90314.1,59785.2,144536,92235.1,213058,141675,92946,88083.8
78781.5,74667.6,80966,98781.8,127781,176948,95725.6,93258.4
89815.5,157238,96496.5,186140,155541,262143,97964.8,93981.5
63593.1,79147.8,122556,117070,156629,170950,100209,96381.5
86337.9,72830.7,171980,74560,262143,133570,94448,97902.7
90633.6,89459.1,133958,150757,203571,262143,99297.1,96534.5
56172.6,83139.3,174900,150706,242345,262143,102313,89756
60630.3,70285.5,102413,126131,202803,262143,94114,95582.3
78431.4,86170.5,96800.1,161398,165180,251766,96606.3,90041.3
42548.4,69653.7,94760.5,129546,162674,262143,88360.8,89569.7
51792.3,67440.6,85555.9,122380,155458,249153,88799.2,94486.2
74529,81242.1,102856,142757,131413,223726,101527,100538
73318.5,172689,170311,146915,262143,254751,94122.3,96659.5
94267.8,74166.3,160867,148524,262143,262143,99803.8,99551.2
72902.7,89391.6,169492,143665,235540,262143,98497.7,94046.4
82485.9,85436.1,84414.6,133060,152892,238071,94367.1,87426.4
75124.8,72591.3,136686,162434,257043,262143,95598.1,93843.5
89758.8,77557.5,166169,139441,251292,244619,91715.3,96533.9
67029.3,76246.2,109664,87392.6,155004,165806,94758.8,95271.5
78091.2,59670,121760,98908.7,185392,151484,99591.9,96864.5
78423.3,88065.9,136332,167689,183205,248889,99354.8,90000.2
57515.4,91138.5,151374,129789,262143,229447,98527.3,93022.9
61581.6,58913.1,152640,102455,244336,137532,91707.8,90014.5
71631,66089.7,117862,117163,186450,217594,98665.7,93803.1
91435.5,71808.3,155994,124683,260151,187171,94721,95661.6
64395.9,72250.2,150267,145837,226879,262143,97393,89402.7
63963,77627.7,116149,191911,207044,262143,93373.3,102651
94271.4,68616.9,117510,143312,177250,243693,95379,89108.8
76482,64317.6,105283,74165.3,160893,113769,87694.3,94135.7
70563.6,62915.4,144708,154848,211858,215052,95910.3,89400.9
81203.4,81333.9,168515,58213.9,262143,106093,98836.4,89001.2
87084.9,81477,122308,123876,208877,223364,99080.3,94694.8
97286.4,75855.6,184714,161260,238202,258938,96062.9,97844.5
58581.9,68605.2,83796.4,127867,124781,262143,87507.2,102586
79041.6,54771.3,139732,129984,262143,235824,93524.8,98115.6
97191,61785.9,174052,113683,262143,186136,93208.7,94500.4
110030,78831,204647,119198,262143,232000,99391.1,89324.1
75914.1,95506.2,111130,166244,155638,262143,93717.6,91779.1
84824.1,66616.2,75408.7,112467,115187,191028,98830.3,91880.1
98785.8,65793.6,156424,133246,244577,198610,90843,96342
100572,86111.1,170689,146116,240562,238191,93841.2,89345.5
85256.1,60344.1,137643,165952,211575,216559,90076.8,89585.1
73132.2,84483.9,52811.2,139449,69342.2,257395,87488.6,92875.8
64918.8,71937.9,41081.2,159902,72385.1,262143,90182.7,93617.2
77879.7,51002.1,202511,115288,260188,237077,96429.4,88176.2
91670.4,63053.1,188790,106645,250373,199036,91043.6,92332.1
73730.7,75711.6,123503,136123,217458,251359,88743.7,97111.3
86219.1,70772.4,168940,130195,247264,212225,100459,90478.5
70058.7,71678.7,137975,162454,231131,262143,95325.6,89960.2
92432.7,65491.2,170389,139656,261427,262143,97887.9,88122.1
77889.6,59292.9,111819,126550,191849,220814,92207.7,88616.2
100922,79161.3,205409,148242,262143,233046,88709.9,98346.8
77309.1,81607.5,137826,158067,199653,262143,98691.1,95503.7
97650,69750.9,125804,176283,214089,262143,90927.9,90066.5
91892.7,57135.6,158625,175833,216707,262143,96042.1,92297.9
75991.5,78300.9,124884,167529,194071,262143,91129.7,92901
78624.9,69777,130958,173854,210937,262143,90585.4,97635.8
89971.2,87831.9,150098,149591,236332,262143,101079,97929.7
104018,72971.1,152064,118412,161729,258307,100390,91070.6
61510.5,66663,165499,91086.9,262143,192924,91794.2,99158
74640.6,83093.4,51509.9,180298,96307.4,262143,95632.7,101427
69178.5,74079,140074,146731,236993,246376,98307.2,92325.8
81154.8,52493.4,137892,138665,255823,257393,88083.5,95747.6
58543.2,60939.9,119196,135378,202718,229967,99484.1,89453.8
92379.6,75329.1,128765,162821,173996,262143,92394.9,95048.3
67274.1,100111,148931,122685,218700,209680,91310.2,100128
57856.5,59387.4,168712,135995,262143,248546,91159.4,95585.7
101614,88109.1,176561,39913.7,262143,94466.5,98846,90236.5
84285.9,62776.8,151222,111694,227376,227533,97981.3,97337.7
67018.5,67374.9,147984,141825,244242,254357,87777,94462.3
66090.6,75990.6,134840,172713,207473,262143,95304.1,98880.5
53955,58950.9,149094,158152,224700,232715,96547,88600
68648.4,83629.8,102442,156543,181238,262143,89706.1,93114.9
80090.1,104882,165895,168613,260556,262143,93779.6,99773.4
99849.6,68822.1,152744,141809,224776,250422,87814.3,94656
46857.6,76856.4,104866,156975,189426,262143,88097.7,97381.9
79777.8,78804.9,129978,100413,229840,191467,90628.8,92121.5
82733.4,86476.5,165676,152467,256194,262143,96639.2,93916.7
70270.2,84109.5,127781,177554,218566,262143,90715,92191.7
73840.5,108922,150492,131344,200619,206481,88830.2,99541.2
83591.1,75287.7,145132,138235,245611,225633,90932.1,95120.5
58085.1,83502.9,128566,144054,219732,237436,94478.1,93696.4
71147.7,70997.4,147563,140901,209238,262143,92125.2,96084.7
81533.7,88741.8,156655,154367,253750,262143,88388.6,97333.6
79135.2,72630,139700,134390,211956,204145,91997.1,89721.6
62390.7,75012.3,47731.4,191217,79370.7,262143,97493.5,100012
103906,56789.1,161034,153312,261731,262143,88123.9,96512.5
99612.9,74560.5,148850,106888,220935,207108,94243.3,93099
89451,82474.2,141184,131702,231454,210683,100742,90715.1
73112.4,73959.3,126011,129321,241591,227859,97755.7,93898.8
62489.7,93182.4,120975,149708,195131,262143,91554.5,96265.4
90648,61374.6,137718,113469,234962,220808,101707,89757.6
53293.5,76163.4,72977.2,126713,106510,262143,101392,100156
87750.9,101764,152776,142969,237784,187995,99223.8,97403.6
71467.2,69414.3,77964.5,140160,130160,242201,91780.9,92295.4
75591,94711.5,139090,169296,209875,262143,89912.3,101641
135078,72629.1,230485,137528,262143,223632,97047.9,94042.9
101139,65223.9,93881.4,170379,194573,262143,93952,95874.9
87071.4,70159.5,103256,171090,128943,262143,95600,88411.9
107147,92770.2,183086,181437,262143,262143,98485.9,101493
82054.8,83016,166852,95302.8,262143,158391,90197.6,94322.3
68554.8,89233.2,134187,165383,225793,255604,91923.9,92538.2
85540.5,91081.8,164361,130560,242854,219133,99007.7,98116.5
67664.7,77349.6,152696,132807,238579,212735,98073.1,97350.8
87504.3,73507.5,175751,145607,235385,233743,97788.7,93321.9
89315.1,89370,139863,199457,222148,262143,88511.6,101638
99226.8,72198.9,104465,154065,179937,249668,92073.9,98766.7
62648.1,72253.8,45476.5,124357,92339.9,217400,90938.3,98941.4
71179.2,72190.8,120809,136159,200002,254403,95107.8,88289.2
65151.9,55843.2,150000,132517,203771,231919,87612,87872.7
95412.6,63859.5,176001,167554,262143,262143,91122.2,96685
62165.7,61165.8,155613,130436,259989,247885,94585,101742
60250.5,67993.2,103454,121200,141559,262143,94576.9,88095.8
86244.3,81790.2,149522,196821,247380,262143,99015.1,101380
80415.9,70550.1,102662,154633,173385,262143,89620.8,92582.2
92381.4,92643.3,148304,80811.4,226134,127736,92943.2,90941.5
91588.5,65924.1,150621,116475,262143,224853,100287,97779.1
82390.5,81132.3,136014,135842,231601,228227,88882.4,91200.7
78115.5,71001.9,64308,145946,112615,240290,95583,91883.6
88852.5,70157.7,176169,119612,262143,239012,101087,89674.5
72464.4,64969.2,152331,140357,222134,236285,89258.8,95434.7
65526.3,85571.1,130291,124671,206957,261309,94475,93646.2
78161.4,73297.8,139913,172913,207904,262143,91806,102175
87148.8,78661.8,175184,170378,228271,262143,100743,98546.6
73206.9,91765.8,115288,124995,195992,238263,93433.1,97610.4
69914.7,66895.2,141921,76442.3,187469,153036,91428.9,93673
70384.5,53624.7,131666,168292,189427,262143,92602,96313.7
73477.8,83049.3,122624,143376,230971,262143,89476.4,90601.9
71054.1,120946,135177,114493,262143,171498,95088.3,95777
62379.9,78829.2,70479.4,122060,100860,224631,89822.4,94518.3
77927.4,86670,112097,144094,171486,262143,91798.9,100019
36501.3,81198.9,79472.8,133826,197670,216029,95834,88637.9
76576.5,86918.4,148376,181124,248499,262143,93634.7,95488.5
81339.3,93268.8,146306,180344,261297,262143,88377.8,96669.8
86084.1,62486.1,171065,118347,243333,243126,87593.5,91218.3
74999.7,67605.3,145899,130431,208815,262143,97052.7,89310.2
91412.1,65498.4,168410,103276,262143,148480,88217.3,88862.9
69539.4,89861.4,165196,95413.2,245893,150467,89980.2,100364
76550.4,76004.1,169424,173432,262143,262143,92068.9,95124.2
91072.8,63108.9,177220,160181,224151,245401,88472.8,97470.2
63397.8,82253.7,156104,171171,215114,252083,89848.4,97208
65384.1,63077.4,108094,176038,153303,233851,90784.1,88174.6
90641.7,86661.9,175671,154931,231765,207160,96464.8,98479
77888.7,82243.8,119658,173332,205752,262143,89522.5,95967.4
92342.7,84436.2,185178,201098,262143,262143,97754.5,100530
76742.1,57602.7,141015,121655,231356,198514,93636.2,91982.1
102989,63196.2,206643,129665,262143,261010,91664.5,91713.1
98701.2,69557.4,119726,137513,147777,223924,93312.5,99765.7
103180,58214.7,195959,141915,262143,262143,96283.4,95717.6
82270.8,68023.8,175873,139859,238701,256611,97033.4,97926
86596.2,76218.3,219737,183392,257348,262143,95868.1,88066.9
78507,87180.3,139577,195850,168128,262143,94388.4,98581.1
77912.1,83871.9,160141,136016,227605,260554,96340,93724.5
85498.2,88035.3,141977,163308,201480,257291,100348,92123.5
75969.9,76107.6,101851,162258,149879,262143,88848.4,93911.2
83125.8,70725.6,133915,157094,222623,262143,100443,97789
73065.6,60457.5,182299,116672,262143,217413,94296.2,91040.3
65785.5,67224.6,109782,112256,177675,201651,92271.6,100503
80871.3,83813.4,166235,151517,206378,262143,98085.1,93948.4
90561.6,55194.3,161116,102844,254618,204494,101845,89528.9
74925.9,75771.9,151005,153728,242926,250724,96548.6,87458.9
79309.8,59061.6,126104,143096,187357,230728,92900.1,97162.5
74527.2,65652.3,194893,195637,262143,262143,100347,101166
83505.6,69000.3,153486,150675,262143,262143,90041.6,88567.8
79098.3,76673.7,129400,158925,214251,262143,95910.5,96032.2
70769.7,79527.6,145565,133732,225957,212749,96261.9,92216.7
46519.2,69401.7,141353,122700,262143,223789,97083.8,87838
108742,56941.2,160378,135127,262143,253122,94823.3,91235.9
85026.6,70757.1,123918,151594,232914,262143,93292.7,87644.6
92697.3,60210,116876,118455,174497,215829,89629.6,95833.9
63060.3,72171,143221,176575,245339,262143,89943.3,95952.2
83585.7,67672.8,80160.1,140652,130358,225199,89609.5,90429.8
81326.7,67979.7,156797,121336,234567,185019,96116.9,89788.7
60391.8,60128.1,92839.5,120902,133071,205013,96551.3,89077.2
73164.6,74745.9,129495,191935,200422,262143,88756.3,102571
66244.5,63596.7,171004,154716,258221,253343,93422.6,90816.3
67441.5,89154,120671,112005,178767,231338,100912,94747.8
80803.8,65028.6,153840,37805.1,223552,71965.6,94969.1,89918.5
92763,62326.8,192485,89124.5,262143,181030,98479,90212.1
91094.4,74481.3,166319,165690,227736,262143,94150.5,93384
106842,98221.5,94701.1,201666,147454,262143,97317.1,100012
78192.9,73838.7,127316,126803,225302,211916,90798.5,97969.9
83064.6,59678.1,40267,92672.5,77822.3,147986,93203.9,88091
92849.4,59948.1,128322,126031,202147,244139,94927,92798.6
79969.5,53597.7,101009,136752,172281,258613,89773.2,97426.3
62292.6,81468,101168,140891,162107,262143,97324.8,98645.9
60192.9,69382.8,155313,126968,253414,214419,95026.7,94081.1
73221.3,84491.1,186704,158497,262143,262143,99290.4,95412.6
74617.2,70245,160614,140973,240522,243513,87486.4,97114.1
63658.8,68883.3,148972,113206,251607,218444,98120.3,87427
69386.4,80034.3,172249,155115,262143,262143,94724,94069.9
76914,77441.4,126483,174442,221925,254938,100995,94318.8
69362.1,57121.2,154726,110964,224294,198735,91784.9,92509.1
64990.8,63229.5,124570,88375.2,218512,173935,88596,95333.8
76357.8,74571.3,145342,111220,218897,198134,97471.3,94978.7
88911,71200.8,176411,116720,262143,249065,100280,90048.7
69974.1,71835.3,146295,172466,225511,262143,98475.8,91036.6
103257,93948.3,125275,183686,193290,262143,100825,89647
79164.9,67991.4,154982,131809,262143,262143,89923,88600.9
63292.5,88096.5,152941,187156,262143,262143,95474.7,88130.3
69852.6,72828,136263,149805,206981,247749,100908,99943.7
60576.3,113547,70293.1,167125,124825,262143,89080.1,100476
77890.5,73703.7,142845,156647,214909,262143,100234,97195.6
92776.5,73681.2,146364,168553,234227,262143,94033.6,95020.7
109415,69685.2,214931,65389.9,262143,102631,102411,94325.7
76694.4,69964.2,112840,141346,178093,260475,92908.5,98509.2
67518,72628.2,125544,129369,184611,248251,98178,88162.8
73731.6,95730.3,127563,115594,220622,155933,97409.9,90958.8
51994.8,83875.5,144428,136868,221565,258600,88855.4,89743
82672.2,91264.5,163926,211974,262143,262143,99210.4,87557.6
65024.1,122519,178626,126098,246631,221760,95555,98102.2
63371.7,76431.6,131475,195988,183279,262143,99961.9,101533
95097.6,48312.9,202521,113139,262143,231703,96000.5,90716.7
95573.7,72380.7,153139,163542,197626,245490,96165.5,91029.1
85851,98280.9,176593,145815,258669,248408,87627.6,92120.2
75307.5,56470.5,167524,145024,247898,262143,102681,96627
85838.4,80075.7,109842,153673,197624,262143,90544.8,96664.3
67212,63796.5,127092,98903.2,188293,164536,97559.3,89185.7
87384.6,47449.8,96760.1,104578,144222,171359,92626.5,89138.9
84434.4,61672.5,161311,139192,215406,262143,97609.5,91320.9
75144.6,81758.7,201621,164564,256527,262143,96963.2,98038.7
123002,63724.5,167669,162164,228201,262143,91434.9,97875.9
68533.2,67278.6,136500,95413.2,237644,144222,96640.3,98629.5
81815.4,76090.5,157923,156049,222203,262143,87852.7,100060
65321.1,81344.7,135636,154146,234723,262143,88955.6,94082.3
84087.9,71206.2,188817,147723,262143,250848,101886,95939.8
70468.2,70746.3,122650,85163.9,211333,129924,95808.8,96030.6
96155.1,51147.9,149534,128094,262143,233790,99663,95134.9
98264.7,69663.6,130905,75757.9,188424,117773,89877.4,90679.8
94309.2,94223.7,151153,178925,262143,262143,96972,99413.2
64551.6,79503.3,146821,177544,238685,262143,90222.4,92808.5
103113,60844.5,127094,122336,188966,245056,95510.6,87450.7
94311.9,76769.1,138679,129452,187205,262143,96979.6,88507.1
102085,93342.6,146287,204838,227972,262143,94729.4,102546
76896.9,74809.8,126992,146483,213363,234462,91571,89928.8
89070.3,74723.4,164050,159760,249868,262143,99271.1,96967.9
92520.9,66131.1,143893,88597.4,255584,142341,90613.8,93655.7
112434,81744.3,187352,158788,258411,262143,97003.4,90795.1
79574.4,51162.3,155203,122828,262143,183726,97874.5,88370.9
68968.8,79508.7,177209,144729,262143,262143,94790.2,96509.7
101119,94205.7,136900,187524,206941,262143,90662.7,98535.5
67925.7,80957.7,117659,158856,191965,262143,88700.9,89453.8
90205.2,56382.3,119409,155047,227483,262143,89728.9,92938.3
67575.6,59856.3,121048,144870,163443,262143,97291.9,96126.1
89035.2,66792.6,132724,141549,224509,262143,88525.4,97253.5
88780.5,60259.5,183395,108185,216049,210885,89594.9,97491.5
66813.3,56094.3,159017,141515,257850,262143,88161,92435.9
121201,71315.1,158425,161035,262143,262143,98586.6,90109.3
72612,75182.4,159983,55378,255317,99333.8,88010.2,95911
68734.8,74445.3,178913,128511,262143,244962,103022,89565.7
95842.8,77838.3,149189,126467,260904,253060,107085,88754.2
81999.9,92443.5,142773,189438,237577,262143,95152.4,97733.8
66166.2,93438.9,117097,165219,173781,262143,92480.3,94962.7
64593.9,69088.5,150859,119778,255706,213478,91188.8,91806.7
73917,72152.1,108518,190294,176382,262143,99110.4,96774.7
163679,65780.1,143886,99848.5,211969,167228,105006,92630
86958,69353.1,169797,112346,258016,191940,97254.4,88351.3
82190.7,110896,152549,149098,251810,261086,93555.9,92961.9
81936,81400.5,128058,171742,188511,262143,94412.9,95416.7
70310.7,83682.9,146294,155008,251003,259302,97203.5,94549
83931.3,63673.2,131325,125047,164122,195656,87424,95575.2
86445,72747,78647.6,168847,106542,241009,92011.8,96529
119454,55332.9,227554,126694,262143,240399,107180,90551.9
72250.2,77893.2,191819,45243.3,262143,80298.1,101587,88510.3
61711.2,74136.6,111111,91818.3,199801,146822,98675.9,90867.6
67171.5,75038.4,176179,142615,262143,250333,100786,98541.3
71469,76502.7,141649,174050,241390,262143,89134.3,92753.3
124767,96370.2,200715,133547,234527,184808,91115.9,93996
54956.7,60014.7,91477.4,133380,113745,222555,91960.3,87820
93801.6,92228.4,133489,173597,233133,262143,93641.8,92714.7
76869.9,69978.6,168279,127871,225239,169907,95697.1,88189.5
77707.8,113242,181618,137238,262143,255537,95178,88809.2
85758.3,69153.3,161754,138348,253362,240755,88041.7,88954.1
76134.6,67044.6,124275,130639,218291,234811,95643.8,92574.8
90881.1,67753.8,153115,175576,223766,262143,101116,95850.1
91903.5,69020.1,193567,131815,262143,216031,106502,99240.4
133190,90786.6,148550,164652,228255,240016,105196,98978.9
55870.2,83997.9,86619.8,165893,112662,227207,91856.6,98550.7
74101.5,67707,135839,136830,198011,231862,87749.4,87611.2
42193.8,82026,121408,184985,195288,262143,89201.1,97772.4
71323.2,65072.7,174662,173826,226753,262143,92186.9,94229.9
85447.8,105677,136450,160460,192148,235329,93740.6,87763.8
82912.5,52967.7,164601,176506,246311,262143,96782.9,98975.8
58905.9,61302.6,136205,156024,235489,262143,91169,88191.1
79922.7,65969.1,160393,86204.5,241213,165165,97273.3,91169.7
83430.9,68663.7,181402,121807,234855,210892,101026,91297.8
109831,69578.1,172453,140223,262143,262143,93153.5,96091.6
63655.2,71724.6,121201,147609,224340,262143,99407.7,98687.3
113053,83954.7,107205,79835.8,173594,126084,90711.4,94433.6
92457,70556.4,175771,112572,226985,196490,97331,87814.1
123088,67735.8,211801,126948,262143,214932,99727.9,95525.8
70425,69146.1,117253,161733,238159,262143,88925.8,94176.1
74208.6,72165.6,168015,163073,262143,262143,100400,89851.2
84332.7,49378.5,147518,133832,226742,243030,90890.1,88620.6
67289.4,57980.7,144490,154556,185658,239306,88683.9,91533.2
66976.2,69893.1,175351,180574,262143,262143,96508.3,96929.2
80971.2,68572.8,155002,139838,252126,231328,97366.5,93993.3
62760.6,68918.4,155628,152268,249573,258282,101212,89821.3
88245,91625.4,151737,136107,209963,236053,98960.4,94171.2
81211.5,65729.7,123009,117235,132267,178296,93454.8,88221.2
82296.9,52679.7,206389,109825,262143,213899,90393.5,92189.6
74966.4,65358,158911,140237,209986,252024,97862.4,93524.3
71924.4,61003.8,140013,112004,214386,163984,93306.8,94148.4
69019.2,75656.7,124534,135465,163273,261077,90486.7,94521.6
70115.4,102454,153078,132643,195487,241278,95127.6,90086.6
73107,63985.5,116945,125670,226292,255742,88868.9,92770.3
81307.8,62577.9,109353,144892,169729,262143,92644,90149.3
63426.6,85398.3,157810,138351,262143,243529,93936,97345.4
68189.4,61313.4,133761,100508,202060,180834,89464.1,88451.8
90172.8,72553.5,168952,106875,259839,202327,100642,96084.8
113387,57949.2,228418,99148.9,262143,226902,102525,90194
67897.8,70170.3,160237,166068,255834,262143,98789.1,94079.5
73452.6,59618.7,155447,95378.7,205172,178238,97189.7,89977.4
79670.7,130080,107462,110193,152454,211159,88263.4,92652.5
80189.1,74169.9,185121,122191,207489,226889,92406.9,88971.8
61608.6,104270,119236,151201,188823,225702,93557.8,94597.7
68146.2,79288.2,154804,204367,223601,262143,90672.7,99865.9
66794.4,86302.8,123456,177987,192412,262143,90687.7,90378.4
87407.1,77385.6,130858,114755,184725,233611,98195.8,90020.5
96769.8,87589.8,213100,198433,262143,262143,92050.9,98386.5
60876.9,61650,169682,133178,220948,248691,94621,96848.4
77299.2,68639.4,133289,98791.4,182207,210033,93511.2,88628.4
93643.2,76557.6,124639,169908,186609,244932,93866.9,98343.6
75000.6,78539.4,198840,165498,262143,262143,87978.5,97762.7
127765,94739.4,149592,163950,128760,262143,97096,88569.2
111791,51098.4,229188,79986.2,262143,150610,106012,94768.4
86847.3,87077.7,131096,185243,229675,262143,89535.3,89573.8
67056.3,68811.3,61360.3,187314,99750.5,262143,93861,103809
110240,86692.5,149028,207893,242576,262143,109777,93978.8
54130.5,71022.6,163364,135934,262143,239518,91073.9,93755.2
76201.2,68244.3,133268,133320,243207,236224,98120.8,92987.5
81558,78649.2,147997,167369,235623,262143,95143.9,94975.1
79304.4,75620.7,122412,186529,191951,262143,89172,97987.7
84774.6,73950.3,176031,102679,233795,235834,93139.2,90997.2
62971.2,76167.9,122973,148183,187099,232491,92008.7,94890.3
72336.6,45440.1,117902,77560.1,211812,211678,90797.8,91648.8
93974.4,83978.1,137892,143288,262143,250989,91803.9,87815.9
80711.1,72358.2,181049,151691,233833,234647,89679.5,88013.2
83371.5,65655,126430,133642,199013,231634,87820.4,91363.8
64600.2,61813.8,112692,147249,166344,255619,93690.3,97202
65196,83300.4,126992,103537,209002,160381,92698.5,96334.6
68434.2,78740.1,124580,150522,200399,262143,97729.9,92927.2
76437.9,63695.7,127269,123992,202879,237393,95039.9,87602.5
68994,82870.2,122783,135418,178081,257006,93957.8,98652.1
84112.2,74177.1,149099,169452,221462,262143,92226.5,93720.7
82650.6,71897.4,163050,165022,262143,262143,95060.7,97370.8
72419.4,62690.4,136369,142130,235300,238256,93253.1,99121.7
88031.7,79074,133358,140280,197047,230151,96125.4,87582.4
82773.9,70758.9,115872,115603,169577,173265,90477.6,91436
87840,40791.6,122396,114047,207170,191972,90211,97561.6
76357.8,54091.8,155004,140026,257388,262143,94301.6,99729.2
66174.3,89057.7,124756,172457,188135,262143,90267.8,95873.5
62966.7,54099,143661,134869,157408,262143,97301.8,90468.1
75198.6,57015.9,158049,134383,232043,252322,93710.9,97335.5
78120.9,65450.7,144071,101921,242048,171212,98195.2,87804.5
84112.2,64310.4,132959,147395,230747,262143,100049,96066.7
95297.4,76076.1,79085,149734,109097,252740,89589.4,94516.9
86119.2,95410.8,65823.2,158850,110030,219626,92371.9,93365.8
79507.8,105081,148108,62422.9,217832,117370,100334,92766.4
63073.8,66738.6,116213,176679,198854,262143,100780,98408.6
60629.4,58320,135056,106268,220481,188128,100411,89271.7
56666.7,69829.2,166203,153711,255294,262143,100121,95719
66709.8,70491.6,156711,140739,254295,262143,100327,96719.5
86865.3,65493,163233,142902,238137,261521,95703.8,90453.1
74538,67728.6,60332.2,152598,94557.6,262143,96117.3,98255.4
83506.5,60880.5,144111,122267,230017,247946,93830.6,96363.3
78664.5,80879.4,151067,155454,245223,262143,93204.5,97466
57276,84378.6,159407,172631,262143,238940,99276.6,90574.2
93456,76646.7,119319,151793,188439,261449,92436.7,95433.5
84858.3,75966.3,153174,136116,254185,243784,88105.7,88331.2
99603,56209.5,139448,123907,262143,181364,87676.3,91333.8
62631,54960.3,109927,97924.8,195892,196000,87399.4,88238.4
119200,78891.3,189263,161145,262143,261876,91268.5,88987.8
70459.2,81292.5,115926,170569,190038,262143,87381.7,98030.5
69762.6,71541.9,125210,167075,242644,262143,95172.4,96317.9
84013.2,76515.3,177955,163991,254146,262143,92872.3,95309.1
81382.5,80485.2,192227,155696,262143,262143,96117.8,89048
60191.1,66758.4,119315,138177,262143,211306,93275,98317.3
81180,79600.5,143114,169853,202522,262143,94489,90940
70192.8,88063.2,118490,146251,200902,234916,87857.6,88993.9
90380.7,75264.3,154416,184571,262143,262143,88271.1,88324.9
70965.9,72046.8,124502,183246,191583,262143,89422,97874.5
69228,78642,159935,123162,237470,214239,96176.3,95329.9
80356.5,56738.7,149515,135574,239649,253234,99823.6,91925.8
70189.2,120736,74261.9,174380,116239,262143,96974.3,93847.7
69553.8,63406.8,116537,105914,182458,203133,98909.8,100132
89908.2,73899,122435,132886,177778,233341,92111.8,88345.7
79654.5,61159.5,96173.6,125096,166304,261371,88853.5,95458.5
96570.9,64456.2,188856,88739.5,260075,227884,96506.9,87878.3
87758.1,50606.1,148781,93359.8,208852,194080,89105.2,89669.3
75700.8,68946.3,93052,126194,135668,222322,87980.8,88799
53899.2,81929.7,110343,192408,196440,262143,96438.2,99678.2
74913.3,67391.1,46798.6,126931,74279.9,219461,88827.3,93182.9
88003.8,67149,124798,102880,201746,213373,97816.7,91066.9
69482.7,80401.5,176331,148180,215455,195640,98198.3,98400.6
68166,76392,136539,163311,231416,262143,93033.6,99689.2
75269.7,118832,70486.3,199885,113250,262143,97787.5,100636
96260.4,81223.2,145816,145626,215246,262143,104556,94492.1
82711.8,98644.5,124716,218847,225355,262143,88741.7,99019.9
129099,57012.3,170304,128559,262143,239299,95659.6,88479.5
76707,58860.9,117969,147355,190981,262143,89851.9,92561.5
56236.5,60759.9,145246,106855,247093,195873,98520.9,88168.7
69902.1,66929.4,102152,129739,187138,217752,94811.4,97295.4
73681.2,95908.5,179735,162539,241412,262143,98324.2,101145
75688.2,81860.4,111174,74637.3,175637,116386,88903.2,89676.8
83277.9,66629.7,114471,107393,188778,193102,98225.3,93796.8
61299.9,65277,138549,145251,193508,259352,99567.7,97348.6
89060.4,56931.3,143738,133867,245309,242263,92515.4,92658.7
105286,50642.1,179635,85319.9,262143,187962,97009.3,88430.7
78204.6,70473.6,148328,145816,235031,262143,103422,91914.3
83141.1,74980.8,195821,114051,232860,220405,92011.4,97808.7
73698.3,67883.4,161708,146846,262143,262143,100982,96153.7
60579,49380.3,164702,137568,262143,241351,100060,97303.9
92394.9,72861.3,131366,53821.4,241592,75299.7,89617.8,88926.5
55906.2,68772.6,91954.9,156387,134409,262143,90610.6,97610.9
92121.3,81324.9,160741,142649,245129,250961,102264,91395.3
83524.5,67250.7,178440,55754.8,242427,72748.1,101558,91477.1
78225.3,47623.5,76761.1,95151,135636,262143,91227.8,95488.5
67711.5,64721.7,62827.3,187875,148800,262143,87872.3,87830.9
87953.4,76191.3,122341,119073,172908,196657,88247.9,94111.6
71433,99787.5,138693,144888,212720,252791,98179.4,98289.2
75664.8,75408.3,146824,60176.3,214640,103583,99690.7,87415.7
95868,65287.8,213532,184879,262143,262143,96344.1,100106
72541.8,60048,132535,130269,162231,225107,90138.5,96753.7
108867,77968.8,178974,145278,262143,249260,98379.6,95849.7
87803.1,90876.6,186982,135880,262143,262143,94762.6,97063.1
80129.7,90338.4,97648.8,147935,185338,262143,88936.1,97915.9
71251.2,65705.4,154837,128107,231658,216485,101327,97647.2
70529.4,70589.7,129868,144269,172260,262143,92968.7,95923.2
73224,67113,113846,140397,224939,256427,92029.5,90870.2
77105.7,100259,162505,159565,262143,262143,92238.6,92990.7
83871.9,93366.9,151013,174462,200996,262143,92058.9,98531.4
69128.1,75174.3,128198,171486,167652,262143,95959,92614
82503.9,81196.2,156575,156435,243893,262143,97408.8,100454
50968.8,66151.8,104549,157825,156386,262143,92472,88767.9
64616.4,68931,109849,157900,201840,262143,96775.4,97363.9
71572.5,101742,143792,149310,200313,262143,99027.6,89426.2
74211.3,69792.3,62613.4,172460,94567.3,262143,91351.8,95919.1
101179,66726.9,184906,113849,241608,155834,95809.3,95981.7
92277.9,68046.3,102726,138458,163273,262143,93967.1,93689
90759.6,43120.8,121699,50912.3,205341,127018,96304.2,92045.2
70758,82008,119547,167408,140656,262143,93737.7,99014.4
89269.2,54379.8,157433,164575,236231,262143,88640.3,92027.5
75493.8,90129.6,167067,204509,246635,262143,93451.7,95311.9
82638.9,62450.1,160069,131535,221533,262143,100593,90818.6
69075,99133.2,151194,171867,220538,262143,90397.2,92931.4
65109.6,71695.8,134881,160225,217027,262143,98950,99413.2
98392.5,58832.1,140247,117748,174081,192372,87816.9,87392.4
65005.2,92158.2,134739,190474,212378,262143,91529.8,98306.5
82181.7,66628.8,176357,117815,261205,209966,96436.3,90404.3
62114.4,84307.5,162819,179973,262143,262143,92019.2,97725.5
92413.8,85693.5,129229,151473,211078,262143,88184.4,97412.2
69607.8,74419.2,136786,161852,221852,262143,99487,98372.7
112648,81604.8,165677,161340,252942,262143,98509.8,98109.1
93443.4,71748,121893,151521,148099,253427,94080,99446.3
80147.7,65430,164776,74151.5,248371,171486,91645.5,96267.3
68323.5,134166,98784.5,146419,171531,228096,88955.7,96783.7
69017.4,64175.4,34617.3,117989,77590.5,217051,92503.4,98651
69075,81372.6,148431,161663,208488,262143,94383.8,98000.1
64116.9,58772.7,114514,173005,190603,262143,91723.8,102212
89050.5,80649,144761,183915,219336,262143,95232.9,96694.6
79122.6,66753,136547,115887,240050,208707,89610.2,98279.5
86699.7,72584.1,81938.9,134469,121698,235093,91442.8,97051.9
81772.2,65896.2,107901,59665.7,174342,111200,94864.3,94945.3
58729.5,53946,113188,106874,140518,206389,89644.3,97596.1
67905.9,84663,148474,108460,226370,197041,101997,93529.8
55949.4,112685,159230,213279,246908,262143,95944.6,95759
91835.1,77304.6,175893,75381.1,262143,120023,99117.9,96008
142303,65217.6,178012,185673,260866,262143,88253.4,87560.4
74415.6,54117,139123,131688,262143,221930,95171.1,91954.8
65035.8,72351,113371,138995,186754,227649,91057.2,87562.9
90685.8,52835.4,174693,170117,262143,262143,89714.6,98103.6
77596.2,72339.3,127676,154971,201139,262143,89181.6,88385.6
94016.7,83074.5,176215,171251,207800,262143,97328.6,97136.2
56055.6,87833.7,134219,164714,203513,262143,89666.9,92448.4
113185,79367.4,182482,151437,246044,262143,97847.3,95840.4
73700.1,53078.4,54817.7,138235,92189.5,244027,92252.2,88328.9
69328.8,65935.8,105965,102695,184180,187305,96058.2,88873.8
78933.6,53197.2,132655,122084,167677,203613,88524,93463.6
94690.8,56769.3,163371,144901,193199,236237,90420.4,97245.8
90972.9,70399.8,198818,107934,262143,181383,94031.2,97828.7
75231,68105.7,169993,119730,252780,207820,91065.4,90034.6
70947,51076.8,100436,116377,179646,260951,93579.5,96998
101815,73300.5,153085,100210,262143,182459,93444.7,94778.1
65473.2,71241.3,123119,123429,188228,244702,90878.4,96779.2
128991,69088.5,171058,131415,243802,220826,95738.4,87718.7
67848.3,72322.2,147733,144707,215671,262143,89899.1,89477.2
64742.4,111057,51428.5,175903,91836.2,262143,96855.5,107256
67535.1,76655.7,125914,132610,218885,237712,99325.1,93354.7
92845.8,61008.3,191976,153762,246353,251639,89913,104964
50704.2,55047.6,131071,161962,206208,262143,95411.6,98549.3
55377.9,99230.4,141694,175072,227852,262143,102081,100389
85428.9,90037.8,129484,143777,221609,245151,91525.4,89010.6
91588.5,61591.5,132880,128426,218524,233002,89006.8,91816.9
74448.9,79392.6,120184,153943,216944,262143,93032.9,91322.3
59301.9,73096.2,161253,147332,254206,258057,88463.7,95271.2
82619.1,68468.4,181896,175223,250698,262143,91365.3,99399.4
63729,57815.1,113495,131985,159681,253064,92504.1,96461.4
68849.1,90513.9,154724,150318,227285,252406,92967.1,89209.7
101905,52047,179595,105145,262143,142985,88714.1,97378
60306.3,71124.3,182418,142867,262143,262143,94143,95538.2
63344.7,67761,127827,96048,203433,180628,89867.3,88145
78210,94788.9,158563,188646,246037,246447,96383.4,88595.7
56621.7,76027.5,81099.8,161432,95272.4,262143,89357.1,96454.5
71409.6,79338.6,116731,142895,178658,261165,101184,93072
110452,73041.3,152098,167137,237927,262143,99891.8,89964.4
71480.7,86256,137561,177327,226310,262143,99654.3,90759.2
91434.6,81837.9,85700.8,171909,154742,255903,87530.6,100155
51618.6,77307.3,107096,164439,175526,262143,90724.9,99571.9
65582.1,90032.4,141654,146562,221798,251036,88087.5,94095.9
73124.1,84390.3,121096,110956,231650,224476,93879,91369.5
77735.7,84178.8,158581,90493.5,239056,119410,100996,98268.3
68697,64243.8,187618,145647,262143,262143,98129.8,98208.5
70959.6,57618,156481,132664,228863,222700,89099.7,96652
147552,70318.8,169083,132499,221646,238330,95004.3,88704
87363.9,77952.6,101120,80282.9,144602,130854,89988.7,89656.9
,77749.2,,155243,,262143,,89998.9
,70086.6,,129243,,250949,,88321.1
,77116.5,,156377,,203876,,95200.7
,137026,,161559,,247442,,98172.3
,87286.5,,142232,,242750,,89173.6
,75775.5,,192463,,262143,,97530.9
,70600.5,,162644,,262143,,88627.1
,61072.2,,146951,,262143,,89874.7
,152969,,145874,,262143,,91061.5
,61557.3,,144672,,240295,,95932.3
,74985.3,,121153,,229353,,89173.5
,75383.1,,139776,,190552,,94416.7
,57195.9,,152469,,262143,,98804.6
,62541,,133743,,247290,,90832.4
,87957,,157643,,262143,,97206.6
,80677.8,,216294,,262143,,93582.7
,65977.2,,164352,,262143,,99603.7
,67014,,146455,,247108,,92614
,57624.3,,156141,,262143,,99738.9
,70548.3,,164332,,262143,,99650.6
,74263.5,,132893,,242800,,95085
,79817.4,,150870,,262143,,96168.8
,56934,,61808.8,,123256,,88845.8
,60462,,146433,,237098,,97727.8
,71964.9,,189343,,262143,,94287.9
,96052.5,,167176,,262143,,93815.9
,72160.2,,84867.2,,128765,,96590.8
,88839.9,,155164,,200971,,102074
,62646.3,,104694,,204606,,87830
,68293.8,,61817.1,,111885,,103967
,72772.2,,191983,,262143,,101065
,82222.2,,172790,,262143,,95945.3
,83315.7,,82557.1,,119275,,99198
,77949,,117424,,216454,,92162.8
,73757.7,,138849,,253347,,100040
,72970.2,,119402,,188029,,90331.2
,59169.6,,134874,,200613,,92350.8
,62964.9,,128746,,262143,,89157.1
,76962.6,,152352,,251032,,100883
,70318.8,,132535,,213523,,92307.3
,66946.5,,155004,,205724,,89852
,74739.6,,112187,,262143,,96903
,93902.4,,124633,,233876,,97129.9
,64862.1,,116280,,199331,,89369
,73944.9,,146128,,232192,,97051.7
,75634.2,,154128,,252638,,94019.8
,75182.4,,147333,,248092,,94409.2
,60885.9,,123736,,226871,,89866.8
,83674.8,,161783,,255816,,89513.4
,72710.1,,164824,,262143,,100894
,66673.8,,140563,,212622,,91865.5
,66520.8,,106628,,202584,,89303.4
,68745.6,,122497,,243607,,95036.4
,63153,,117185,,201044,,91060.7
,83266.2,,167423,,262143,,92881.7
,97777.8,,126698,,251327,,91134.4
,91197,,164622,,240549,,97251.6
,66268.8,,127668,,228749,,89725
,85632.3,,75588.1,,103915,,89292.3
,80896.5,,166556,,262143,,99072.4
,87133.5,,158583,,262143,,91325
,50582.7,,140753,,262143,,96864.4
,65632.5,,132967,,239637,,95370.8
,77030.1,,157980,,213060,,92204.9
,75765.6,,130024,,251211,,94539.1
,71571.6,,159034,,262143,,93389.5
,76393.8,,156724,,255987,,96314.4
,73161.9,,110274,,188985,,100043
,58273.2,,88049.5,,152712,,90113.8
,90805.5,,142876,,244530,,96268.2
,72084.6,,116439,,237175,,88051
,75645,,122870,,196178,,93431.5
,105695,,174086,,225288,,96711
,86184.9,,147748,,262143,,98185
,93766.5,,191479,,262143,,99324.9
,67167,,152276,,246573,,96399
,80185.5,,132403,,257002,,93496.6
,59949.9,,126685,,222609,,94560.6
,74849.4,,168480,,262143,,100985
,48106.8,,105319,,203488,,97848.5
,69788.7,,121223,,177287,,88605.9
,79140.6,,131762,,200749,,96002.7
,66596.4,,175031,,254577,,96373.6
,81110.7,,147468,,262143,,98674.9
,82698.3,,139490,,262143,,94105.7
,105238,,136965,,225504,,98249.7
,104318,,124308,,214703,,92971.8
,72472.5,,139213,,235146,,92215.7
,67625.1,,48827.2,,91216.6,,95442.5
,98962.2,,148594,,225885,,93936.6
,115640,,148935,,250302,,100661
