"FSC-A","FSC-A","SSC-A","SSC-A","FITC-A","FITC-A","Comp-PE-A","Comp-PE-A"
81302.4,118451,86733,222277,178849,262143,95330.6,89061.8
80445.6,109352,125459,122093,251421,167996,97282.8,93086.6
87876,101230,176761,147057,262143,190334,96948.5,87607.8
128931,91496.7,145466,145304,202486,196551,93146.3,92247.1
111179,66657.6,199693,81524.9,262143,155490,100335,100084
86224.5,105889,171240,117852,204186,194619,87819.7,101750
78693.3,109073,64252.8,160599,84080.6,236613,88717.1,89093.6
85496.4,99005.4,156986,175107,262143,236929,92578.1,90783.1
92528.1,82285.2,200099,147792,262143,140164,96938.9,108883
94178.7,106164,148367,167511,206158,215411,90773.9,96208.6
90326.7,107074,148723,128553,262143,213370,92640.2,95832.2
77841,85406.4,102836,135429,236233,209371,88071.7,93066.8
93259.8,90285.3,176939,125550,262143,205420,88418.8,91923.9
80850.6,73455.3,142188,165292,247900,262143,92174,93401.9
85977.9,87635.7,177675,109743,262143,167702,94381.7,99011
99964.8,89269.2,201120,172812,259971,262143,95155.7,96404.8
88885.8,99546.3,107256,146985,152585,189456,94482.2,92175.9
78093,69348.6,206586,48990,247369,80488.5,100344,96312.5
99733.5,58652.1,185359,165906,261910,225044,97345.2,91009.8
102493,98192.7,170442,173001,262143,178739,97119.7,96937
101643,115643,165247,134674,243442,238152,87752.2,96452.6
91773,89124.3,132557,112097,186504,159038,92224.5,96418.8
88281,91590.3,179005,145997,254124,262143,96367.3,91585.9
82585.8,110003,121256,96649.7,181714,127994,91542.7,97009.2
71824.5,86535,114312,204683,235254,262143,98435.4,95271.8
113178,75668.4,167696,39095.4,241617,69919.1,92509.4,88875.7
78362.1,87734.7,145441,183010,253484,226864,90932.4,94405.8
71234.1,90222.3,114369,93304.6,184741,124381,88627.7,94038.8
92021.4,112297,164739,187259,214678,237179,93567.5,96485.4
87195.6,94226.4,126844,169312,215266,220288,87993.5,99807.3
152065,126374,195552,156108,234465,262143,93128.9,90088.6
67163.4,108218,52968.5,155934,115093,229729,95618.5,91901.3
93852.9,79110.9,137429,104034,241394,152010,101085,87691
91511.1,78675.3,191086,72260.9,246486,108750,99613.5,98764.5
77328,81996.3,165128,80891.5,238526,101907,93846.8,95723.5
72964.8,103496,53446,145514,84186.9,224055,95662.7,91832.6
109038,88504.2,149257,188796,200954,242887,92104.6,97113.1
95106.6,61543.8,149593,76138.7,217373,88282.7,100155,94806
67056.3,74895.3,172977,117329,262143,165374,91638.3,92278.2
69170.4,65177.1,174319,152864,262143,206100,99376,91274.3
67743.9,92620.8,180366,195144,262143,260701,93036.2,91824.2
81761.4,72666.9,206986,55612.6,262143,98937.7,101785,93440.7
112302,66393,62864.5,60133.5,92075,114301,90690.3,91080.8
78080.4,97364.7,131807,142807,262143,209474,92144.8,97419.5
74147.4,107292,134473,214849,202344,262143,94854.6,102235
94257.9,86050.8,211830,191414,262143,262143,89881.6,97793.1
69334.2,40858.2,125094,93039.6,238498,196207,93128.8,89733.4
60908.4,78551.1,46628.8,156762,86937.2,230530,97414.3,98474.1
90820.8,90639.9,174436,166732,262143,200348,99573.3,98014.7
78522.3,77603.4,161416,96020.4,227845,132229,97095.4,90759.7
113973,104057,164725,189346,197118,262143,96968.6,99605
73177.2,114790,143600,181303,214931,262143,92020.6,97616.5
77049,81873.9,143287,51501.6,248918,87639.7,90769.2,88544.6
74561.4,80220.6,100068,80974.3,124718,126091,93195.2,99104.6
74995.2,101166,160134,180975,234288,244333,97958.7,94403
86997.6,43260.3,143169,84048.9,262143,159143,98349.2,87943
68783.4,107854,122428,185203,191279,243360,96955.9,101405
83850.3,83312.1,105334,82949,144336,137783,92669.1,96081.1
63288.9,90030.6,83730.1,155407,149284,225936,93295.3,96356.5
55798.2,175017,161354,198153,233074,262143,100123,100102
69799.5,60813.9,124880,78508.2,192725,103797,95570.6,87531.8
79654.5,104417,113844,129372,180831,186278,89910.6,95982.6
70987.5,67885.2,128343,57743.3,194327,90064.3,88230.2,92404.8
78765.3,83791.8,149983,175018,246726,240207,93219.1,100480
70151.4,80803.8,117161,146817,200675,232211,88176.7,92712.2
89388.9,103162,186729,126596,262143,166598,101808,92064.7
65963.7,59042.7,129429,134456,220828,238381,87974,89161.6
70685.1,79992.9,107851,127482,177320,166131,99186.5,93285.8
75286.8,81629.1,109568,156197,212171,202837,101965,95294
79846.2,61122.6,85422,38366.8,117951,77605.7,96994.8,91534.1
78389.1,84868.2,146998,161787,223310,241568,93450.7,93567
117351,91051.2,151705,199570,251028,262143,94804.1,99250.4
97917.3,71906.4,142053,47737,205568,73352.5,99200.5,87450.8
89199,70332.3,152026,135363,251853,214130,96168,88435.4
73054.8,81992.7,135840,131068,229756,208989,89576.3,99713.6
88764.3,110317,215913,170357,262143,246687,99836.9,96259.4
116619,95757.3,141178,185297,139837,218764,96555,92927.9
80145.9,80633.7,161453,128177,252620,252620,92575.6,98333
84111.3,79525.8,145233,151840,223940,215058,98158.8,88803.2
69533.1,85371.3,136759,76055.9,231306,121342,97195.8,97713.2
84609,83577.6,146194,146929,229875,212997,88473.3,93540.3
99621.9,84991.5,193726,135007,219212,185479,95608.8,96598.1
97584.3,92982.6,151651,140027,212557,215406,91619.5,89106
81561.6,39948.3,189569,65855,247175,109068,97956.2,95036
103132,85617,147355,117535,255686,160535,97153.9,99538.7
94660.2,90723.6,153118,173582,215090,261412,91738.6,91856.5
112801,96095.7,197103,183581,262143,249890,99330.4,98656.1
55657.8,88389.9,80884.6,172965,165114,223205,95252.3,99225.8
64368,90047.7,100468,142761,198193,219194,90077.5,98638.6
87429.6,97757.1,117645,121595,163981,142134,92107.5,100336
70794,106790,113746,179567,203092,262143,89478.7,95124.2
88196.4,55138.5,168817,142838,256647,225927,97197.4,87962.4
55746.9,99436.5,130983,134234,198327,191296,87526.3,88799.5
89461.8,91240.2,202612,156586,262143,240995,103196,100839
75828.6,88199.1,172864,87697.6,262143,163225,95727.2,95987.8
88340.4,77555.7,95494.6,149315,157095,217222,92860.5,99781.6
70810.2,80892.9,41749.1,72383.8,71242.5,98850.8,97200.6,94383.8
79500.6,80917.2,161742,124653,246592,213369,95698.6,92484.3
109331,104236,106359,174727,151616,231812,89835.3,96930.9
65377.8,83882.7,68428.7,133297,112266,196188,90876.6,98687.6
77553.9,64046.7,149188,114232,262143,180207,90746.8,99562.5
81836.1,107408,211002,103181,262143,149827,98654.2,95117
75915,71654.4,133427,131317,237839,209835,93566.5,93884.1
68344.2,81496.8,129001,161087,176811,233602,97692,96098.3
50079.6,113454,131140,173785,217963,213850,95526.5,97137.3
78501.6,91243.8,156669,146804,197801,183990,97302.8,87513.5
84360.6,78029.1,191832,89018.3,262143,145598,91814.9,94335.1
77949.9,68687.1,135993,71863.5,214935,103808,91018.6,88182.7
83327.4,64969.2,186301,97448.7,262143,183063,100763,87855.1
63481.5,93503.7,151680,135345,243095,215241,100708,87855
98716.5,137775,154262,155300,254008,222732,98760.5,102191
68175.9,93758.4,64775.8,117718,158650,161167,92744.8,90172
93951,82439.1,116715,148743,177817,227327,92452.5,92079.5
86176.8,81259.2,182556,152988,255708,213890,102300,94117.7
73296.9,92222.1,127352,171763,171161,225942,89180.9,92165.2
66637.8,119275,105864,143114,204428,262143,97819.7,97904.9
72624.6,86760,144304,127132,236636,195242,99943.7,88751.6
88541.1,83558.7,144111,131971,200783,200054,96222.1,94831.2
70090.2,60360.3,111603,101046,158349,209612,99358.1,89079.1
98476.2,89785.8,115688,72260.9,205479,119836,88816.6,92216
86755.5,103240,147605,121419,248840,219288,92265.2,89968.6
83991.6,119891,169067,159208,262143,213863,99997,98465.8
84444.3,73179.9,174054,76166.3,243821,99958.9,95748.7,97018.8
77870.7,72728.1,192056,112438,262143,155330,102531,90373.2
69723.9,105615,55520.2,182687,75556.4,241726,91432.5,91152.8
54945.9,119493,67591,79601.2,104129,115093,87385.3,92781.2
79877.7,105353,40839.7,177047,78956.7,257903,95316.4,97527.8
97724.7,62036.1,203753,38110.1,262143,97250,91696.3,90503.3
106702,83096.1,165989,153849,262143,197409,96599.4,90006.5
79969.5,117440,175492,170182,262143,262143,98416.9,92357.3
66575.7,84506.4,152578,154364,199841,253042,91120.2,89667.1
104749,100207,130730,130857,211103,208895,91093.8,98535.9
74557.8,80178.3,169221,147500,231781,240352,94308.7,89724.3
70864.2,110151,151949,148346,214649,222081,90507.8,90008.8
72829.8,89112.6,133342,126890,210122,212986,94586.6,87736.5
85550.4,84163.5,197772,86664,230646,91718.9,95771.8,89176.2
60205.5,92824.2,136544,151610,221709,205305,90043.6,88868.8
97784.1,74318.4,147085,177111,262143,262143,96185.4,99930.7
67888.8,123978,127449,206146,204192,258096,100100,99705
54956.7,71861.4,47365.7,176538,104419,248599,92445.8,96054.2
76616.1,93086.1,171684,162979,242939,198797,99602,92411.5
70569,84707.1,98628.6,115637,155435,201088,95756.7,95152.1
69796.8,75926.7,69745.2,140383,115707,175881,87643.6,89650.2
95094.9,75537,173234,94752.2,214369,136689,94728.8,89124.7
93661.2,71706.6,169781,49595.8,261321,96452.3,88617,89517.9
144766,62831.7,205282,50615.6,262143,95772,91439.6,95418.4
79185.6,81919.8,185120,72586.6,262143,125319,95060.7,96266.3
68022,87508.8,183595,178606,245535,262143,92720.7,99284.9
56592.9,81992.7,112992,62710,175445,94005.6,95963.7,94563.7
98845.2,80100,167023,79867.5,262143,117230,92665,96820.7
69562.8,104094,139668,170142,204985,205884,95797.5,90922.3
76660.2,84556.8,168018,132904,247993,234543,90642.8,88279.4
91824.3,90125.1,142475,109678,238665,205191,94593.5,89087
79404.3,79473.6,144617,71875.9,244528,108424,95800.5,87674.7
89485.2,105665,171541,148240,227857,238617,97744.9,89232.7
85805.1,97373.7,133634,154665,220753,251802,97319.4,91295.7
92673,91862.1,80346.4,75034.7,123222,120199,98755.5,90049.4
98141.4,99495,137837,159829,216004,230837,94539.7,96537.4
95436,70263.9,169016,119090,225242,194729,88330.6,91848.5
68002.2,96864.3,111759,121066,142319,180743,94681.9,92072.2
78337.8,85014.9,201248,136253,249641,211989,96864.7,97166.7
75684.6,108568,125323,163835,216374,226058,94084.1,99752.2
86522.4,69038.1,167408,45105.3,208477,94459.6,91898.8,94507.8
56876.4,66758.4,185127,122420,262143,217198,102467,100031
84035.7,115130,137332,154139,207872,197704,94886,92723.5
76559.4,143649,58774.2,143611,113470,191300,93483.2,89837.1
68179.5,80242.2,56720.8,138487,80346.4,206423,87995.1,95251.6
60390.9,73943.1,144000,124817,212443,154817,98747.5,88380.6
82095.3,78160.5,133596,137730,212991,180429,94538.3,92414
92340,105926,131223,120118,246305,191047,88116.7,91501.3
74751.3,139342,147551,154652,243963,262143,91022.3,110935
75547.8,77922.9,140066,119302,204769,124482,93250,88470.8
87047.1,93366.9,130145,158407,207624,236373,92152,93451.1
68975.1,102596,126961,168462,193719,262143,94755.9,102337
61006.5,106852,151534,172615,262143,239128,93268.1,93158.7
109889,74853,135150,74721.5,202837,112963,96767.9,88519.3
84588.3,86014.8,190205,135302,262143,185508,91396.8,95617.2
74254.5,81811.8,97894.4,112409,191534,190136,92194.9,87583.6
65349.9,84481.2,56149.4,141634,90352.7,205370,96045.3,97128.4
99125.1,93161.7,129109,141072,245317,220999,90340.2,88080.6
82497.6,77423.4,156500,52019.1,201288,95772,90753.3,97413.9
84267.9,72335.7,130068,123089,171316,228685,91428.6,98737.4
77938.2,66997.8,53135.5,34512.4,81687.7,70464.2,89350.3,95734.3
73940.4,106050,151492,217233,239099,256670,99321.5,92198.2
63522,107361,77176.5,138624,108053,189746,93458.6,89386.9
56860.2,72476.1,117984,100131,206881,187015,89049,90396
80872.2,89824.5,119868,47111.8,210545,116955,88462.7,97972.4
113802,77011.2,192155,208909,262143,262143,92543.6,102732
78043.5,118084,135041,212407,211998,236391,102421,96336
73412.1,86214.6,160927,154750,262143,191218,97568.2,97005.1
82825.2,106960,135200,175254,183022,215934,87768.4,99182
87597,92205,174933,132676,231859,199225,98332.5,97343.9
109847,82430.1,165721,47367.1,244427,70555.3,91789.9,90052.1
92645.1,75816.9,72496.9,160835,136846,212361,93759.6,91711.2
78408,86643.9,74259.2,148099,133573,219261,96361.1,94181.4
52893.9,97478.1,86047.1,105871,133826,174305,90089.1,91857.3
100734,148975,72140.9,184335,115425,235116,93723.6,92187.8
99813.6,73640.7,197154,141109,262143,221752,99271.1,92479
102224,79409.7,167660,61909.6,241592,100227,88794,91723.3
82250.1,71555.4,118121,126303,139831,214827,92458,96530.3
70650.9,90405.9,129934,120791,213733,202049,99726.5,88846.3
107922,93997.8,108173,131674,196980,157556,100689,87654.2
84033.9,92307.6,74077,115648,126219,161699,92180.4,96975.9
61504.2,81475.2,164642,182332,234593,199385,89331.8,101224
70151.4,108411,121803,180507,208978,237041,97682.7,90356.6
93222.9,74569.5,118610,137412,213791,217972,96755.9,90534.7
85478.4,98661.6,195075,163743,237599,206734,96495.7,95448.2
67699.8,84358.8,128717,102753,208732,149540,88298.3,89808
86484.6,101071,205614,162095,262143,262143,97707.5,87917.8
71415.9,92223,106409,147104,166304,183921,90832.5,95564.3
87290.1,89175.6,160403,126389,262143,195848,90799.3,94770.2
48915,103116,55923.1,132174,128456,220207,100480,91254.4
79394.4,103324,123019,167764,253483,207909,91191.8,88079.8
73867.5,89648.1,107157,141852,150623,205660,88327.5,95324.7
69939.9,104206,123052,165163,197880,243389,98673,92680.8
82898.1,113981,137528,221748,213990,262143,92689.8,96955.4
59181.3,89266.5,135653,147888,239230,211630,96861.5,97315.5
74196.9,115191,125283,164497,197979,250769,87934.2,95513.6
68692.5,110975,44706.5,190739,76599.7,213515,90834,88957
63167.4,91386.9,107803,220846,201466,256516,98055,97348.7
45509.4,134348,96217.7,121432,154259,166061,92141.6,95126.6
80053.2,84190.5,159956,141592,262143,201477,89071.5,98855
74050.2,91162.8,103681,163976,196308,239452,96539.9,101542
91740.6,88195.5,131827,159880,187433,230105,99536.4,99039.5
70583.4,90922.5,125100,148685,254153,231690,92234.5,88903.9
97236.9,87540.3,154332,97773,194265,171404,93362.1,94669.6
74367.9,76355.1,181212,129899,262143,182922,97630.3,100120
101801,94474.8,154973,134344,232602,228656,98460.3,100246
88492.5,102689,115029,188272,132728,262143,88165.7,88674.1
82033.2,89944.2,170154,62091.7,262143,106243,94294.8,96385.4
93898.8,138011,188414,188166,262143,262143,98422.4,99569.2
81202.5,87059.7,167880,154334,262143,202091,96255.8,89849.3
83057.4,66420.9,167260,152215,220147,216432,97600.5,98604.1
87607.8,71121.6,149163,147054,262143,236733,93851.8,103336
79450.2,67032,135749,62137.3,209269,104819,101675,88385.8
69319.8,84572.1,169975,109561,229586,150176,101092,90408.9
96939.9,93951,205271,114776,262143,191199,92883.1,97316.4
103883,88132.5,211227,126402,262143,215096,91832.9,90383.2
73943.1,93409.2,142990,165746,262143,262143,96086,93319.1
76527.9,106011,54116.7,186445,86770.3,262143,96832.8,97882.8
89054.1,65493,153869,79947.5,262143,142358,97955.9,98181.5
80027.1,69667.2,139772,158131,212073,239379,96695.7,89000.9
81395.1,83605.5,169834,143288,219957,184216,100093,91275.1
82919.7,104002,150790,213445,241726,250085,94842.9,92576.8
58441.5,96074.1,169232,139183,249798,180091,93338.4,99408.2
79200.9,81558,166922,77041.3,213409,125936,93210.1,87739.3
80478,96355.8,142346,185326,260937,216399,94742.2,94138.3
78743.7,93238.2,124108,173604,164880,238447,90456,98199.5
83443.5,92211.3,214872,173960,262143,262143,92219.3,96719.5
67767.3,114358,88753.3,170078,139455,256100,87690.6,88860.9
61429.5,82646.1,149291,128568,242067,188243,93367.2,88053
78077.7,103745,114642,152348,206091,238098,90926.9,97785
77844.6,113631,149339,137502,246921,240171,100058,101086
99322.2,111791,212164,160415,262143,212273,89571.1,91591.7
93130.2,99825.3,140085,137992,184295,173960,96531.3,98404.8
85425.3,93862.8,171538,156308,251908,233426,99867,95433
92357.1,91521.9,159031,175844,226084,189619,93619.9,96115.1
92292.3,99987.3,101551,168185,154183,259860,92604,100979
71500.5,88637.4,103278,195532,155697,235417,98650.2,100093
54324,74774.7,143175,165139,228469,212001,103658,88912.4
84251.7,77284.8,198985,173685,262143,234872,110306,96422.7
94771.8,93396.6,171196,136383,241017,186406,89620.4,98378.9
83535.3,103909,161355,175042,262143,236264,101262,94163.2
56229.3,86251.5,149585,155719,238107,213715,96988.4,93101.8
60119.1,112822,140666,140796,252467,211685,97880.7,88195.8
69606.9,92392.2,133559,149350,244561,221916,102863,88864.1
79070.4,97428.6,130824,120667,227300,190673,89533,88304.2
82007.1,77332.5,141444,81624.2,192205,114232,97596.9,88587
91273.5,86711.4,166572,109463,262143,160937,101896,91816.1
72326.7,78048,146345,152433,230470,243109,87626.9,99620.4
73967.4,73912.5,182415,59981.7,262143,86639.2,88864.5,98571
74339.1,110386,149283,205719,255420,262143,94805.6,100054
65619.9,121265,94901.2,190063,130657,192291,90088.1,99259.3
73181.7,77376.6,146658,77246.9,225379,121949,93129.2,87552.7
87946.2,110843,151698,163475,210950,214814,90165.4,98250.3
80862.3,90833.4,128408,77909.3,228343,127141,89354,91532.7
69971.4,90430.2,105890,213182,153504,262143,92990,102820
63511.2,92787.3,153597,157043,226836,186882,99802.7,98464.3
92660.4,100869,141680,207460,243200,262143,97324.8,89125.3
80191.8,98331.3,130493,131012,222090,179621,98449.9,95105.3
78790.5,102631,142326,144590,237215,174465,92582.8,91647
78750.9,107533,112841,158570,203227,254368,98222.7,88394
81719.1,88162.2,165430,111821,260286,168368,97593.2,92263.7
85173.3,105299,139017,131072,159139,176681,87382.9,100998
117982,85834.8,200137,158832,262143,240455,99487.7,93653.4
84285.9,95763.6,163491,158846,262143,235002,97090.7,96950.4
92763.9,98780.4,45871.2,120927,85227.4,212350,91014,93097.1
86086.8,85244.4,140583,121285,217936,160134,95629.7,93021
60160.5,95571,188788,194120,242389,262143,102388,101101
92279.7,104837,185646,164729,262143,242346,97122.4,96195.2
95864.4,96048,182344,160388,262143,216354,100346,100979
73161.9,88119,140603,133555,212302,225591,87700.4,89795.3
88525.8,89683.2,144337,140087,199442,180598,96126.8,95512.6
85175.1,93566.7,151630,196770,235134,262143,99183.8,98905.4
66601.8,100924,127319,118735,187207,213203,99259.3,90682.8
82084.5,93438,129928,129030,232882,223233,95323.9,100577
72940.5,83960.1,119868,161276,230989,262143,95446.9,89208.1
63874.8,91602.9,132447,146860,187007,210411,97466,97018.2
71688.6,88596.9,121109,155283,181783,262143,101724,90192.1
57498.3,125194,158995,163882,221019,248353,96074.2,105134
106449,105850,178934,163567,262143,226730,95906.6,92338.2
74116.8,92282.4,95403.5,176753,190684,196904,90233.1,100300
80323.2,79166.7,161027,66066.1,242679,90123.7,92079.9,96819.9
69021.9,82352.7,194443,105940,262143,149497,90495.7,87877.6
83549.7,98749.8,176752,133439,244212,195055,99009.9,98778.9
88962.3,70063.2,162833,167658,241085,224947,88508.3,98533.1
71862.3,67061.7,133635,73184.2,229171,116064,98298.1,96728.4
90152.1,86815.8,153482,128922,238122,217042,87781.8,100247
76264.2,73608.3,126402,122823,176180,200046,98637.8,100292
81612.9,73334.7,116099,76286.4,237090,113073,97587.3,87880.3
51995.7,93089.7,156412,150874,190644,232810,90129.7,99584
92322,88912.8,137816,159358,255517,262143,99455.3,96145.4
75537,91993.5,186192,155487,222263,209303,99321,91002.1
67539.6,129459,155145,151708,221740,218741,91818.5,90684.9
61008.3,116596,113604,148413,182798,262143,96464,91685.2
69866.1,96996.6,105007,145195,186797,200235,95209.4,87707.7
77940.9,83092.5,170286,142646,262143,197508,98647.3,97492
67402.8,92646,193117,140785,258969,200960,99950.6,90983.9
80278.2,83741.4,125523,156727,198734,262143,96749.9,96759.5
77291.1,82869.3,164150,127097,243799,183764,98310.8,97892.8
57820.5,79317,122369,115709,202879,176215,89997.3,90582.8
55252.8,107623,131434,156101,189453,213941,98809.6,97753.5
82683.9,73764.9,55579.5,121152,96219.1,214974,96839.4,92023.1
86252.4,89415,187331,197721,262143,262143,98495.5,98519
70209.9,98788.5,103325,196101,159204,262143,97022.5,92848.6
80500.5,49919.4,187113,108405,262143,164998,96190.9,101369
78397.2,71037,134656,58358.8,259296,82061.7,93355.6,90160
113435,76131,144312,184198,245310,262143,89635.2,99980.4
64233.9,80970.3,139075,131259,219010,203075,100220,95508.5
37401.3,67572,101458,155338,176946,262143,98423.8,102307
76842.9,88777.8,169660,155925,261630,255086,98080.3,95811.9
77161.5,82752.3,58020.7,57555.7,81834,70340,93411.6,94766.1
87745.5,78450.3,143657,164720,231520,216234,89578.3,90048.8
124296,71797.5,142807,70436.6,197435,99796.1,92256.3,93760
82011.6,84763.8,115982,81709.8,143826,120268,97713.1,99123
70887.6,90857.7,129692,183737,210737,220614,96035.7,98329.3
69542.1,122695,81073.6,165066,118648,252835,98613.2,99953.2
77931.9,61712.1,153686,152807,233075,219423,94129.8,87988.7
90515.7,68125.5,123389,34581.4,210438,88249.6,94744.4,95795.4
101591,104518,179621,151178,215167,222916,93335.1,100241
94903.2,113136,136203,125420,226338,176926,92990.6,94156.2
75427.2,92183.4,131894,144681,182458,220696,90834.1,95317.8
76376.7,100279,151309,158249,236003,223721,99219.7,87803.3
50230.8,69540.3,136817,82924.2,222013,167095,87647.4,89607.3
77991.3,82944,146723,167885,239111,200865,93284.9,97732.9
70311.6,88922.7,163856,114380,202209,159269,98850.7,88475
38076.3,86026.5,61644.6,112923,103064,189088,88484.2,94723.5
91175.4,86766.3,186855,124029,262143,186097,97797.2,89506.2
91642.5,88805.7,177578,178330,243326,255045,96963.9,98638.3
64584,84384.9,129169,145039,250171,235958,94552.4,89460.7
89820,98208,185533,146792,262143,220658,95641.7,96434.3
112593,73058.4,170723,70937.5,262143,104445,100842,87460.2
90896.4,118533,109016,176931,237815,218992,97181.6,95876.6
81339.3,69333.3,140899,85457.9,236656,141160,97830.1,100832
73140.3,90003.6,119200,112280,202170,193971,95127.5,98822.8
93267,82863.9,191790,111112,262143,147136,97253.5,97681.1
70364.7,106938,149163,160804,240164,206298,94121.2,96448.7
94664.7,90875.7,134906,159568,230783,228558,90602.7,98168.2
78174,85166.1,141508,65176,205283,131315,93728.6,87435.5
92793.6,85199.4,174333,198723,262143,262143,90150.7,99645.1
59231.7,74006.1,132614,114489,204384,157389,91124.2,91525.9
71773.2,83412,127051,137778,214373,183268,95455.9,95576.7
69523.2,82404,106365,174202,175376,251433,92280.3,93749.6
71811.9,95504.4,81574.6,181881,124229,261082,95806.8,94947.8
82577.7,77086.8,164557,53016.8,262143,100366,97188.7,91658.6
85736.7,84233.7,164627,117241,233111,178482,98336,94261.3
72640.8,76014.9,99398.6,120365,135472,206937,97121.1,87454.4
88668.9,93734.1,170658,179437,261085,262143,93592.6,93791.1
75001.5,80063.1,133999,53913.8,224434,104505,94226.3,89369.3
75101.4,74296.8,142974,115074,200457,187229,87679.9,97548.6
142670,106400,114040,169305,141438,212020,111782,89743.8
78427.8,72587.7,161630,49611,172304,80227.7,94367.7,92406
72187.2,115909,139620,113488,224605,181569,92872.9,93278.7
56964.6,112514,120172,120749,237241,203470,92602.5,96564.4
76084.2,90867.6,131020,184034,224664,240094,90571.6,98673.8
69617.7,83261.7,128558,67976,196272,109978,89016.1,96922.4
83128.5,97317.9,191198,119864,262143,211947,99814.8,89926
89645.4,86008.5,152889,168541,223877,222957,92206.4,92997.7
96335.1,87029.1,99057.8,184956,143822,187458,95599.1,96420.8
71149.5,77094,133050,132716,222119,187189,90371.6,99218.6
70184.7,127269,175079,162282,241031,196537,92965,98209.2
66702.6,99720.9,106851,153034,191664,218749,93040,90622.5
95903.1,154769,172224,221191,223408,262143,97352.4,87839.2
112625,94504.5,182258,132693,262143,214736,99754.1,88903.7
121685,78993.9,138618,69902.5,262143,108567,89170.9,88566.3
79602.3,76703.4,213765,99158.5,262143,142693,99469.8,98625.5
92987.1,86803.2,176590,117064,262143,204286,100695,94235.7
94188.6,91446.3,148829,146603,262143,223494,100681,94226.2
83148.3,70718.4,179773,123947,246839,216471,99549,93355.9
51615.9,83999.7,129349,138272,159373,237945,91105.5,95010.1
81016.2,78495.3,163553,166812,262143,254969,96675.3,88327.1
79545.6,95720.4,150448,141925,227863,216942,90146.5,95034
69210.9,79373.7,152714,118131,262143,190105,98329.9,94141.2
71457.3,120636,186893,159547,262143,247354,100288,90560.8
67653.9,71676.9,132637,133000,224830,226940,94908.2,90610.7
59110.2,94960.8,69556.1,121092,110520,169863,100708,89695.3
75017.7,79623.9,66580.9,85555.9,102517,140532,93444,97683.7
105379,79263,135722,194834,230816,262143,92523.8,100312
60238.8,99686.7,108632,144654,158275,221082,95948.2,90996.2
62630.1,82771.2,161632,158584,241690,214957,100776,96072.7
74304.9,112100,109416,113252,162960,168327,94497.8,89157.5
85336.2,87931.8,110186,135828,150501,193219,98706.9,95086.8
67650.3,56214.9,106903,139114,187516,179123,92569.7,91838.5
68420.7,91954.8,149117,158740,252496,259364,98671.7,89161.9
74782.8,98048.7,151242,211491,245778,248683,91430.8,91913.8
72921.6,73791,124355,124568,208581,216770,93312.1,88168.1
84780,138019,154626,219045,262143,262143,99003.4,92683
65050.2,65244.6,167170,94906.7,225366,125953,91964.9,88490.8
78221.7,93412.8,124050,176407,185262,259917,89335.1,97618.2
85285.8,107562,177994,139427,262143,240349,98023.6,98695.8
71426.7,60074.1,146575,29999.8,220919,69801.8,88650.8,88553.1
89320.5,106644,109642,161330,139713,206378,91297.8,87517
95899.5,82188,167043,117818,262143,162193,99391.1,97814.1
98190.9,102884,144624,178622,232545,262143,92016.4,94900.6
94007.7,112923,128953,173278,173948,262143,88419.6,99507.1
49744.8,79143.3,134108,50436.2,212861,83554.9,94935.2,92870.2
65635.2,66843.9,103489,141163,162574,245066,91177.1,88830.3
55846.8,93857.4,125485,197630,223563,193304,89262.4,95476.9
39121.2,88590.6,68587.4,134460,100650,199333,89874.5,89974.8
62136.9,90143.1,115418,149886,199108,220360,93037.3,88833.5
68687.1,89090.1,130560,127749,204206,175283,103207,87485.6
79498.8,89902.8,97632.2,132519,131842,194133,89180.5,94531.8
78147.9,86060.7,67338.5,147108,110156,194519,97165.4,90010
75138.3,89023.5,187116,136218,262143,252648,102032,98427.2
92700.9,87813,187273,144011,262143,219722,101123,91615
74697.3,87126.3,151182,154549,259626,239049,99680,94184.3
75405.6,144801,147042,93844.1,246411,143393,95917.9,87832.2
77317.2,98430.3,83988.2,152380,158043,227548,88263.5,87800
100015,77265.9,140811,99175.1,200177,125943,92734.4,89134.2
81943.2,101474,144850,174195,219036,219281,89644.2,97031.7
61407,72694.8,160196,76780.4,231728,109423,93936.7,100336
52594.2,89349.3,128852,129332,252270,194957,94445.1,95518.9
78965.1,86958,100788,176546,157163,254836,95965.7,98065.2
75714.3,123574,133831,140906,172046,230021,97043.7,93713.2
71307.9,89418.6,156967,160403,253876,219358,97461.4,91076.8
57997.8,73666.8,114424,117438,184205,165549,98021,95652.5
71151.3,54408.6,98591.3,103979,199560,157321,93427.2,88998.9
55103.4,75889.8,142166,113974,202032,160625,93254.6,87915.6
45900.9,80297.1,80280.1,178812,122068,216154,94092.1,94004.1
98801.1,88257.6,155341,156139,239827,236253,87612.1,101055
66686.4,77882.4,110629,91027.6,175739,113411,94833.3,98757.1
69149.7,101702,142615,127393,217209,224440,99201.1,100595
70349.4,95533.2,140080,87559.6,238465,130729,92376.6,90255.1
67877.1,89216.1,77939.6,168602,103122,240747,94888,89122.8
87143.4,129069,150660,144772,229700,237637,87589.9,91411.7
92624.4,84582,119994,193577,184843,262143,95861.9,101485
112941,62779.5,123909,64367.3,186791,96248.1,89456.4,93996.9
87318,92623.5,157190,146408,262143,238906,98923.3,93629.5
102316,79364.7,152086,132121,237134,148206,87798.7,93565.3
78858.9,84861,168762,87700.4,258317,143537,93739.2,100069
100922,88111.8,154731,127213,223426,156090,99696.3,87386.9
79659.9,88404.3,111343,113966,170626,169675,93569,101852
88152.3,113371,181997,139827,248146,228909,94764.6,94765.6
104241,110193,200698,143622,262143,223132,99536,96812.2
123650,62715.6,131300,111692,168553,231971,95541.1,91351
88118.1,80462.7,59386.9,117753,103900,174995,91053.8,88281.8
81862.2,97545.6,139249,179595,225768,262143,90253.6,99111
78972.3,87946.2,156898,132348,224573,184419,90188.7,90871.3
72189.9,102958,142332,192079,229764,248695,99786.6,102644
85920.3,83756.7,148280,111512,260643,186005,89521.8,91643.2
75741.3,82458,92410.3,154509,157610,228449,93039.6,94984.5
68653.8,81717.3,154968,177892,226178,257806,102196,103152
77756.4,82776.6,131368,156716,132879,212458,91840.4,94195.6
78966,89653.5,155950,127707,218758,172768,99647.4,91390
83844.9,100412,149520,136521,244308,230392,95036,88147.3
113519,85421.7,150013,137118,257268,210482,99667.5,92004.8
86074.2,149391,161352,164301,237011,262143,93887.8,100508
85939.2,80921.7,135737,113120,262143,185086,96133,94744.5
75986.1,135967,133131,220734,198687,262143,93268.6,96980.3
81887.4,61705.8,161419,42509.5,222143,79465.9,91071.8,94386.2
76855.5,94453.2,130460,149272,195241,256626,89029,94548.6
75513.6,137396,108751,201737,198251,219191,88152.9,94235.1
68652.9,86515.2,131368,124825,158407,180881,97981.5,96677.6
92922.3,103262,139435,147441,213681,208187,96720.1,96009.8
85503.6,105678,155224,100428,227642,137654,87628.1,98107.7
75726,99123.3,152420,167666,262143,262143,102869,88273.9
120142,88722,143960,175537,241576,228448,90308.5,98524.3
82264.5,91193.4,117304,175223,218182,262143,91463.8,97991.8
63063.9,79722,151759,129194,188414,256004,98845,92433.3
77465.7,76662.9,137879,121991,181095,197845,95318.4,90063.1
98930.7,102394,172363,165756,262143,193811,88801,87514.3
102391,77110.2,140588,107085,208833,184082,93345.3,87554.2
74590.2,54950.4,190317,115303,262143,202719,96425.5,88780.8
58405.5,91883.7,98297.4,164300,142261,195118,96146.9,96245.6
93562.2,72593.1,190477,71653.7,262143,109641,96602.2,93223
67521.6,94712.4,149182,139650,245582,229095,92393.2,89314.4
86787.9,91204.2,145348,204032,235716,262143,100125,97748.9
73593,114304,62676.8,126865,98031.1,208172,95510.6,97745
78463.8,100898,192794,145204,262143,197511,92654,98150.1
62629.2,86407.2,126703,166816,208725,224293,90744,93759.7
94701.6,97598.7,217985,163200,262143,227207,98443.1,102900
74585.7,101324,134872,100443,222228,196064,97720.1,90624.8
69197.4,96477.3,126696,157820,123652,192164,95908.7,90553.6
64101.6,81468,143066,64768.9,210269,105887,94004.2,88659.8
79255.8,92035.8,50179.6,100539,85452.4,150754,93555.7,88154.1
90829.8,91827.9,190262,141271,262143,154096,90439.1,93551.3
80695.8,77508,152600,67661.4,239611,125695,102422,97593.4
84878.1,102623,155870,173193,253812,215835,93035.4,98930.4
88392.6,137266,191133,167994,259219,130084,89214.4,96101.8
67275.9,90308.7,154410,195291,210647,262143,90665.4,108741
64766.7,104617,123427,187542,225841,229417,92955.7,95553.6
81513.9,96686.1,158775,157796,262143,249921,99435.3,95421.6
92246.4,83151,131776,128253,187283,202496,95370.3,93733.8
63904.5,72629.1,84745.8,51901.8,108645,89533,92737.8,94413.5
88893.9,79771.5,124143,180181,234432,251858,91806.8,98306.7
76201.2,82059.3,163276,159648,230318,231846,88463.4,93826
66308.4,87171.3,112122,126269,163006,176236,94875.6,98960
77752.8,68886.9,147264,120972,262143,225331,97288,96026.3
81052.2,96578.1,167205,151462,221066,184975,92590.6,95604.3
69609.6,113885,147641,177959,242817,219398,93033.7,98423.8
111965,94125.6,158195,127268,262143,216074,92696.8,98012
83966.4,83485.8,150065,65526.5,201716,94916.4,99923.7,97683.8
57656.7,104562,120865,156965,214891,212666,99715.6,97578.4
72848.7,73475.1,137016,127740,247440,186925,87836.2,97066.1
83808,86359.5,124984,139539,191543,178913,87850.3,93967.5
69362.1,101755,49005.2,153146,77063.3,194911,93842.7,93027
81193.5,70623,143683,153615,251222,190934,93932.9,100339
69264.9,86221.8,146085,122561,220303,148745,101551,97440.6
71811.9,82169.1,185578,135263,262143,216842,93505.4,93881.4
104098,110578,135671,168491,218506,231530,87421.8,89555.9
72108,90196.2,64585.4,178104,99173.7,239629,87826.1,95078.6
77175,64640.7,138702,54275.4,227171,87348.5,92517.3,92581.1
53059.5,100198,142855,151772,247150,245087,97079.5,88748.1
67037.4,100614,131028,146350,206023,234859,98581.5,100055
96446.7,81666.9,71168,158098,76319.5,261380,102198,96989.9
77226.3,81894.6,182614,70729.1,262143,113646,100922,98614.3
57098.7,96255,136988,146230,248826,208078,97820.3,87780.9
76869.9,84307.5,179411,142434,262143,197576,97758.6,93539.9
71733.6,62808.3,105166,33035.8,177403,76896.4,89422.6,92480.1
74854.8,76536,140441,125827,218636,196934,97718.6,90554.5
78522.3,69424.2,117448,103392,205180,138802,95766.6,88427.5
78264.9,82043.1,177734,140594,262143,230285,94409.3,97967.3
92748.6,91167.3,84051.7,137291,150817,195532,94393.5,91260.5
120654,88729.2,153112,132368,239133,241156,96474.7,94436.8
58133.7,84283.2,103391,112259,175965,166654,89423.4,93434.2
90746.1,87805.8,159264,139686,262143,188812,94562.5,91057.7
74205.9,105194,146085,163518,158223,231794,92514,95159.6
88996.5,58861.8,168464,105990,253625,178830,98474.2,94867.7
57604.5,61046.1,53688.9,42860,91139.3,78822.8,91989.9,88941.7
78939.9,100929,120264,149148,208152,243850,98451,89486.5
73655.1,117141,144211,162639,240600,262143,95135.5,94185.8
68948.1,104314,133416,177903,203460,248526,92210.9,87594.9
77683.5,72788.4,153798,127832,211864,220116,96925.8,88471.6
63566.1,92342.7,139859,181808,154094,259448,93271.2,92169.9
79882.2,109712,211929,138934,243337,251079,98258,96684.5
78256.8,80300.7,193466,86022.3,216417,132049,98824.1,99639.9
103100,85750.2,158637,166109,233946,245854,90889.6,99481.6
98890.2,94032.9,135378,143716,240904,207792,99219.8,89682.3
71537.4,80476.2,131453,154112,225348,202014,90022.6,92815.1
83623.5,98432.1,156039,165422,236849,217619,93170.8,96197.9
91808.1,114651,117337,171261,225837,238394,87804.3,94703.2
76375.8,64886.4,147359,82155.5,245236,133169,104430,98732.2
79056,75156.3,165715,117141,218488,183693,91076.8,87869.8
85383,116126,103461,196842,174645,262143,91939.7,98854.3
78185.7,63395.1,149302,85165.3,232247,125533,97053.7,92040.9
65802.6,93379.5,152105,141326,260221,230421,95903.8,94526
80006.4,90421.2,154172,159913,242691,218970,99305.1,101237
107663,107485,130686,151803,166460,198582,92888.2,97255.2
60528.6,121335,145416,170676,225636,255866,100260,89101.7
117158,86511.6,106846,72229.2,136067,102324,92409.3,87477.3
64405.8,82973.7,101242,111203,188889,143924,91421.8,94346.3
97695,60143.4,207518,122704,262143,224033,98185,90316.8
83201.4,85047.3,164384,79454.9,227837,126781,98776.6,88815.3
66217.5,99612,84849.3,121139,134822,174225,98488.5,99545.6
89567.1,90732.6,158332,154586,259043,201269,93399.7,92884.8
60561.9,81034.2,118879,98218.7,174226,168349,88048.8,88705.4
69736.5,80784,164217,119131,262143,160639,91205,90484.7
79803.9,81198.9,188650,90755.7,262143,149729,102176,90922.7
79240.5,112621,138886,187375,236495,262143,91030.1,101716
74705.4,99639,137191,153420,262143,262143,97871.8,91216
90421.2,86430.6,200561,135190,262143,235482,97591.6,97253.7
71583.3,49754.7,112193,165683,201853,250970,87388.1,94813.2
76950.9,110811,130221,147599,173909,191692,89543,92608.4
102811,100858,208441,148136,262143,172808,98136.7,95289.7
114024,56250.9,190227,77654,241361,176459,92154.8,91848.6
68706,82548.9,110589,137282,262143,224601,91242.2,91610.4
94242.6,84699.9,156380,170932,216970,244631,103397,89186.3
76159.8,87290.1,121791,71816.6,194315,97555,98071.5,90221.2
70755.3,80676,135793,105449,243604,144940,96307.5,91153
76222.8,68654.7,119961,97879.3,255267,172116,93207.8,98383.7
95580.9,85705.2,145888,151863,262143,235313,96756.7,99760.7
124259,96688.8,208428,157094,262143,225268,98705.3,93154.1
58617,104630,125918,160897,204208,207337,94594.7,94860.8
71494.2,98661.6,133930,198835,197395,240513,98524.4,98264.5
43322.4,89136.9,80767.3,111423,187143,171995,93908.7,99540.7
75298.5,79346.7,155885,75145.1,262143,140174,99740.3,91607.4
68987.7,101288,155236,195346,221001,244749,91500.1,96814.7
87644.7,69429.6,159023,55982.5,241107,114340,99318.4,95728.5
146857,99809.1,125402,153815,136325,232258,92592.7,96018.3
99661.5,91107,130046,168364,165790,230343,97620.9,99466.6
77142.6,84401.1,119262,130948,226443,211659,92669.2,88667.4
51253.2,74140.2,143675,126166,221076,221001,94607.8,94577.5
69831,112431,166291,185138,262143,262143,90585.4,89024.6
86625.9,90493.2,115621,171268,196355,262143,95399.6,93751.1
79641.9,115213,78966.4,171945,122722,262143,91419.1,94396.9
85472.1,93993.3,124418,144058,148794,201314,89081.4,92045.4
79298.1,91120.5,51287.7,164249,84583,233300,94794.8,93483.7
74068.2,87861.6,160787,146145,235653,219261,91155.9,97213.2
67500,92597.4,132175,192565,162154,262143,101021,100527
79325.1,93132.9,123480,143430,213144,188170,89534.2,90292.7
110901,113155,195200,179991,262143,257841,90439.1,95779
79027.2,57642.3,139550,161356,207065,204315,96347.8,102671
79868.7,88515.9,163755,133530,222833,185327,98711.4,92684.6
100264,96786.9,169879,158566,246269,204694,88087.7,90183.7
80312.4,69667.2,189931,128161,262143,225687,95536.8,93250
96903.9,98863.2,157428,200684,226185,262143,103370,98492.8
74731.5,94922.1,157389,93438.4,240243,146519,99643.8,96363.2
89791.2,71766,142967,139283,214180,216874,92250.6,87937.9
98602.2,75285,171868,152475,253905,235209,96121.7,88731.6
77214.6,92810.7,85295,138469,139086,178736,89075,96448.6
57436.2,114906,128192,167576,214210,197403,97381.7,97362.1
74042.1,94415.4,99077.1,175875,146931,200860,89224,91949.5
113277,88224.3,94770.1,141911,157575,215419,88191.6,88538.3
99940.5,78805.8,118626,112291,165502,143030,93588.4,88357.9
74849.4,90535.5,145132,194624,209710,262143,99062.4,88186.9
90435.6,80127,188733,147276,224258,262143,97415.3,98945.4
75840.3,123273,125184,169581,184360,188329,100441,96513.3
97994.7,124105,156086,180750,200569,250324,89713.9,92569.1
70630.2,111825,128438,119461,254400,192201,89363,88090.2
94994.1,109173,168324,164990,199175,241423,88511.1,98021.6
72379.8,87873.3,133020,133903,195665,212439,99754.9,90275.8
91026,76323.6,162434,131771,218222,204214,96105.9,93337.3
80765.1,79848.9,120223,170546,194580,217517,94688.7,92998.8
82719,101654,113281,160606,200521,262143,97156.7,99460.1
108267,76938.3,142903,128118,218236,203550,98727.4,97933.1
71621.1,76227.3,125873,59937.5,202385,109157,100496,93963.1
81154.8,87249.6,172395,111642,230700,168534,95822.2,96698.3
72295.2,81932.4,169874,122038,262143,184986,97038.2,92566.5
56329.2,125882,159416,192615,262143,241933,101725,97346.7
65722.5,96588,74972.6,126173,95010.2,187596,94765.7,93322.9
129542,66086.1,151792,90523.9,226000,191021,92635,94851.5
108634,78383.7,93452.2,83530,132324,120543,96942.6,98982.8
105282,76084.2,148011,147791,216765,231523,94582.6,95048.5
67279.5,94800.6,147308,178223,262143,236529,96115,97484.4
111745,63977.4,195276,154262,262143,259930,87524.5,92706.3
80903.7,88295.4,166979,141200,249969,189068,93458.8,90874.1
65467.8,104294,159950,160032,231734,221010,98472.6,90562.8
78221.7,120801,84271.1,123413,153744,249947,89308.7,98132.4
73561.5,117752,144145,142134,207242,194761,87768.5,91593.4
79320.6,89609.4,143996,124312,234200,203684,93641.3,88993.9
70284.6,98368.2,54079.4,207981,94782.5,262143,98399.6,92992.1
55551.6,43948.8,125924,134455,166304,215873,88525.1,100876
96504.3,72400.5,153442,149960,262143,210061,99708.5,88897.8
66600.9,73412.1,103172,46532.2,178953,78551,92345.9,90559.7
82928.7,97891.2,123248,150604,184953,197268,97773.1,95127.5
84184.2,77969.7,150813,91945.3,258422,128263,93097.6,97437.8
69989.4,83822.4,139500,94378.2,249042,138874,90738.2,93817.8
86172.3,110002,153121,190227,250343,262143,95970,101017
85930.2,93267,123201,186023,244347,262143,88563.7,88054.4
90547.2,131562,129828,155951,195943,248502,97424.5,91000.2
89806.5,88846.2,118830,101231,175267,157584,94053.6,94956.1
76209.3,95716.8,164187,143833,262143,200634,110450,88582.6
74337.3,97786.8,119733,164263,183183,262143,90537.4,101370
74942.1,141033,160718,122788,262143,262143,98905.4,104668
52035.3,89422.2,145503,99716,250066,141377,98557,95749.9
99619.2,87432.3,172087,167928,257062,211881,94850.8,93976.1
82905.3,74702.7,152809,129880,238316,262143,87716.5,93958.1
98548.2,95558.4,74606.9,168579,99946.5,203866,97489.9,88636.4
61138.8,58249.8,125815,169056,196559,242572,90241.7,98716.2
76529.7,127151,127649,149901,205648,199255,89810.7,94072.2
99613.8,103692,154134,136138,257992,224763,91840.2,88355.7
81692.1,91872.9,118877,129305,212285,195797,88609.1,94279.5
71757,97614.9,133065,174282,219289,221883,91504.5,87388.7
76686.3,87388.2,180061,134682,250395,191928,87761.2,87530.7
93733.2,95258.7,150623,161631,200722,226470,91957.5,100214
80920.8,85481.1,107512,126876,123368,178362,96188.6,100767
72857.7,77144.4,111889,135624,187154,219161,89646.8,93351.7
87043.5,108766,138882,134836,194982,196540,91740.9,90583.2
63067.5,75754.8,128232,117677,192343,207551,99149.7,89208.5
62726.4,83106.9,125726,157077,230775,262143,87831.9,98868.1
85599,72504,200482,68442.5,255296,109242,91430.7,93554.2
85759.2,102454,98485.1,181823,174323,259773,90914.1,102655
77530.5,100595,166959,124458,256208,258256,96943.6,88751.4
83230.2,105309,142920,188174,244263,256665,100002,96923.5
105409,88427.7,226626,95192.4,262143,109550,93168.7,98902.4
78410.7,93626.1,141461,196392,212657,248274,100165,94060
75360.6,98022.6,133213,155614,180300,234149,95129.2,90982.6
90423,99873,177156,170493,234828,236695,89075.9,100725
107685,95629.5,197365,153598,262143,213341,99805.1,96815.8
81765,88023.6,105036,187200,164739,245946,88405.2,96247.5
75608.1,139095,75179.6,186036,110034,222202,96972.7,91257.2
116152,82726.2,187416,127116,249875,199614,100713,87487
88597.8,72703.8,134478,44946.6,221192,76718.3,95806.8,92798.7
56187.9,92958.3,69847.3,140656,118782,211263,92003.5,93951.3
104080,92814.3,181343,65304.4,243667,125350,96741.2,94057.1
75222.9,90802.8,101386,204542,157977,262143,87552.6,93103.9
69789.6,84036.6,158479,130527,252406,247099,100938,90563.6
57030.3,80337.6,134738,156696,211281,213685,90493.7,90111.1
91738.8,87153.3,107038,108792,173444,187746,91400.2,88979.9
70272,85645.8,176901,157584,215148,236114,93311,99977.3
70016.4,87403.5,170157,94154.6,262143,101187,98502.4,89274.5
84083.4,83424.6,162567,69310.5,225217,103612,95972.6,94008.2
75484.8,85012.2,138842,40774.9,209604,86843.4,97540.2,93497.3
83276.1,95006.7,181277,142239,262143,197652,93815.9,93029.1
73196.1,83464.2,142525,75538.4,219328,103365,98513.4,89781
134524,110397,148865,169729,259706,236462,105165,92479
86511.6,76463.1,201466,74417.9,262143,111636,90261.1,90107
68056.2,99519.3,174146,227884,231905,262143,91767.5,92048.2
83056.5,83624.4,158875,166202,262143,209393,95698.3,93082.5
71462.7,95431.5,149618,205881,230532,245078,91426.4,90397.5
68715.9,71321.4,36993.7,89470.9,69876.3,158142,92088.6,90914.9
105271,97328.7,140866,136937,243346,163832,89654.7,101638
83763,115253,168284,178219,255537,227402,92154.3,96851.4
107545,92219.4,158122,171453,198564,241094,98123.9,100641
79293.6,98889.3,120464,148028,199928,194449,96423,90203.2
78133.5,106349,100144,142768,221369,222522,93285.7,90392.2
79836.3,74097,141469,120796,235838,225210,99575.2,88679.6
75118.5,79470.9,154732,138806,239651,173862,95189.5,92321.3
94299.3,102941,157233,148927,256283,245407,100635,94832.8
81127.8,96854.4,158188,193668,191826,242408,92375.6,100765
76820.4,97857.9,79957.2,191372,118902,223877,94604.4,92550.1
81929.7,82715.4,120802,156304,207972,244693,97944.5,90590.2
55076.4,103496,87906,109525,163189,182678,95026,100033
59205.6,89065.8,138458,137723,220716,153071,96336.9,97383.8
81639.9,122470,139787,154665,211838,262143,95085.8,105771
138052,116973,189027,151425,260417,212198,99874.9,90668.6
135167,82659.6,76827.4,134535,113077,204896,92576.3,94892.9
57826.8,88709.4,70794,186183,108268,236205,89665.1,96711.5
95299.2,121486,167193,208955,235115,233186,96463.1,96707.6
73155.6,91358.1,111646,135984,177126,201147,93842.2,93631.8
113229,95913,145549,125605,220916,198552,94903.7,95552.1
82880.1,89696.7,163029,180490,217048,262143,99607.5,93335.7
73047.6,84976.2,142681,123677,178504,219328,97368.2,96988.5
97215.3,80988.3,136657,159619,207247,262143,100256,98990.9
78055.2,104102,130436,209127,196836,262143,98377.3,97267.3
97330.5,101863,190789,180848,231449,227732,96874.3,96429.1
63960.3,102255,185284,115241,262143,196301,91954.3,92727.2
94496.4,81172.8,96568.3,173972,161624,262143,97656.4,99867.2
82306.8,94570.2,78596.5,147486,129236,181023,95415,96590.8
96804.9,102139,135410,166762,229985,262143,87790.2,96780.2
80946.9,79094.7,171123,128190,240306,205112,93243.7,97817.1
67071.6,81334.8,109295,65968.1,184264,101734,89653.2,96516.7
62385.3,110013,119236,145348,201457,199151,88915.7,98679.9
78546.6,112915,138091,186166,233431,249501,98301.8,99893.6
73630.8,88274.7,174705,163061,262143,242610,90450.1,91911.4
71693.1,98237.7,149822,151520,214728,232086,92475.5,89351.2
98741.7,83636.1,97145.1,171235,156170,247284,94314.2,101428
72354.6,103799,144824,146178,225924,233192,96525.4,91874.5
87757.2,86764.5,144213,173393,229730,234443,101240,95354.3
77099.4,79119.9,123409,140179,168218,224449,89575.7,88660.2
65466,70459.2,126289,103612,192564,158587,87506.5,92540.2
79345.8,95646.6,127533,115629,222722,190618,95643.8,98071.2
110101,109522,188000,162088,262143,232900,103868,95065.2
84025.8,66031.2,74965.7,74261.9,88884.4,115612,91055.8,88484.9
63420.3,102621,135266,193342,209190,222560,90193.6,91723.8
84589.2,89790.3,175392,161820,262143,225471,94819.2,91869.9
78903,114205,119086,168101,172305,203378,90164.2,97056.4
63837.9,86157.9,150212,65821.9,217340,110748,92078.1,91432.5
58500,77866.2,146775,173485,262143,246322,97773.8,97144
84708.9,90027,99308.9,141948,160083,218334,100559,90570.6
71241.3,51004.8,135908,49833.2,190164,73591.3,99358.1,94311.4
75850.2,86680.8,190886,140567,242132,209009,92616.8,99831.5
109007,92350.8,166235,183755,262143,221021,100933,97530
70191,100844,52510.4,174236,74491,252109,89271.9,93366.5
69878.7,97765.2,126712,201935,207455,221502,90385.1,96887.9
67988.7,82032.3,178034,114427,255882,196807,96809.7,99076.6
64710.9,93117.6,146577,182262,262143,262143,96248.9,93840.8
104602,69534.9,169272,139940,262143,223232,101893,101333
62354.7,81987.3,109175,91489.9,171045,139392,95185.6,98555
74716.2,84890.7,160166,151861,213939,196000,90664.5,87420.1
68202.9,83667.6,122170,158625,196905,237455,95980.3,89746.1
89827.2,95275.8,128508,59178.5,262143,132043,88791.4,88422.2
59453.1,61417.8,126379,143302,197101,205459,94867.5,100284
124487,72235.8,212922,63484.1,262143,102948,92355.9,96862.5
62040.6,68433.3,130741,38961.5,214455,71871.8,97495.2,91891.3
77718.6,68031,150978,102302,206114,178074,99392.3,91232.5
135716,96328.8,186085,112161,262143,170888,98680.4,96385.2
60468.3,88472.7,61510.7,80521.6,89355,130146,89088,90768.5
78255.9,140969,146334,128754,234109,262143,87386.5,95000
75781.8,78420.6,128929,127404,237741,212171,88105.4,90746.9
75672.9,84152.7,135477,169256,204349,249519,91235.9,93095.1
78528.6,93201.3,122901,114754,178159,171960,97145.3,90191.1
74955.6,73750.5,121578,163912,175057,222663,90711,98818.6
77726.7,67392.9,160153,89286,239027,106880,92491.9,97601.8
68940,93400.2,130555,172388,190136,219920,90398.8,88607.4
91893.6,139576,156384,154347,226618,215817,89461,89251.8
73263.6,124833,182228,172877,262143,232698,91639.7,96673.6
75664.8,79560,101938,72604.6,139122,96978.1,90881.4,89624.9
76221.9,85329,158261,171614,262143,261031,92516,101218
79409.7,93575.7,66718.9,116595,122921,211136,95926.9,94303.8
102131,79281.9,169729,65842.6,228360,103199,104419,93930.1
55786.5,135391,88800.2,159349,146668,220819,92472.9,99269.6
83522.7,97607.7,64741.3,175235,110338,222684,91512.9,87775.1
81014.4,129444,114962,192371,215651,240058,89934.3,96572
73707.3,84123.9,141954,130795,223898,253971,94651,97397.1
87453.9,69506.1,137732,141294,200042,196956,97456.4,93283.3
65070,68942.7,103105,137241,182483,214095,94644.7,99834.2
71271.9,107405,127036,95966.6,196671,167111,99276.4,96695.8
61202.7,76183.2,167889,68987.6,244889,90376.2,95988.2,95558.6
109500,80604,175299,182741,252617,240177,90044.8,92216.4
62482.5,103406,184122,198398,262143,251044,100869,98431.5
68113.8,98352.9,121940,204933,179510,254835,96426.1,98796.7
66186,105022,80427.8,136431,136238,208630,91253.2,90550.2
112210,82493.1,189052,165410,253799,235534,99847.6,90441.4
59731.2,90057.6,142453,127359,227007,177073,95947.4,87608
87525,95908.5,166370,113701,225896,160486,96146.9,102174
76546.8,96905.7,155824,158242,235387,219528,93973,91142.2
79563.6,97228.8,123391,105921,192907,176524,88270.4,95180.2
92831.4,93844.8,157094,189420,237377,262143,95899.7,100594
58932,102560,130983,167742,216999,262143,90032.1,94968.2
92608.2,87606,134168,169454,159002,201797,97910.6,100739
85638.6,87697.8,216932,140317,262143,215408,97328,100434
72795.6,75103.2,153408,64904.2,213474,99082.6,99196.8,88700.4
75916.8,71868.6,168744,72418.3,262143,134936,93193.6,87586.3
84343.5,114987,119667,180711,189555,194156,98445.5,96088.9
63298.8,56193.3,69336.7,111067,262143,182039,91780.4,100389
86869.8,99560.7,168004,147315,262143,228128,97243.9,87880.1
100347,79492.5,91307.7,172859,172755,235054,88114.3,105649
70210.8,73206,59566.3,67437.8,104948,95122,95726.6,95826.8
79347.6,72648,157920,142485,209839,201113,92935.9,88786.6
80821.8,115970,179523,153514,253077,239384,98482.6,88473.5
70205.4,101346,148506,207157,262143,262143,95273.2,101624
81438.3,85714.2,150642,111950,254937,163353,98035.2,90785.9
96137.1,110305,166957,143327,261013,199748,101786,92670.7
70209.9,80139.6,142569,149190,243686,227950,94739.5,89843.7
79055.1,95729.4,162449,149196,239108,238812,94028.9,91872.2
100637,92241,141240,147185,262143,202007,96483.5,89323.9
75549.6,75340.8,92814.7,140056,126734,201938,92550,88557.9
57605.4,83970.9,97619.8,128179,175031,187520,91464.1,99738.7
64258.2,66208.5,150673,60750.4,224617,114053,93657.7,96276.3
90937.8,123337,133748,153801,195862,250242,89663.7,99394.9
65526.3,126906,121194,158805,180770,249067,92903.3,93729.1
78329.7,60375.6,119573,56800.8,191274,73134.5,88801.7,88703.9
77188.5,87536.7,140241,73970.8,242339,114579,87698.9,94593.4
105955,72657.9,148925,142170,173807,203754,88666.4,90550.6
66258.9,86235.3,134829,156263,208045,226222,89406.4,93512.5
76386.6,63675.9,142449,115716,213097,179412,91876.4,104552
78598.8,77829.3,138615,131717,192070,210406,92124.8,97386.9
63409.5,111160,138756,151133,212960,219886,91641.5,90019
68149.8,95554.8,127984,127105,134521,185003,94544.9,95521.8
84000.6,86708.7,168207,172134,226022,240126,98652.3,93011.8
61362,82628.1,136621,126093,212975,186844,87476.1,87505.8
113615,106804,165127,188727,262143,240657,90984.2,101219
119005,92863.8,165732,155716,239865,262143,92864.4,96182.6
83223,77224.5,170433,87050.4,238065,85027.3,94463.2,90164.6
75838.5,97047.9,130676,163649,239142,208265,89662.7,90246.7
101492,93960.9,174057,146942,236248,188704,102590,93291.9
95952.6,76498.2,153862,139297,224133,201399,88400.4,93643
71072.1,72471.6,109616,133654,148712,178987,93271.5,93151.9
93596.4,96158.7,118745,154505,186277,262143,100055,98789.5
80553.6,72416.7,107928,58714.9,142133,106194,96974.2,90025.4
79771.5,110745,86491.5,191561,163208,224819,88913.2,95093.5
70986.6,123965,186253,185248,262143,196669,98982.7,87861.1
78075.9,91415.7,186272,178210,262143,262143,93430.9,104020
59386.5,85988.7,59327.6,119242,114467,177863,89328.8,91840.8
62236.8,75826.8,114002,62686.5,172503,87674.2,87827.2,87476.5
68312.7,117340,87327.8,178676,116963,261154,94428.3,95940.1
132927,85860,203353,139626,262143,168292,91717,94473.2
78754.5,118332,157004,151982,216075,197288,98431.4,95583.5
61986.6,76034.7,109264,76218.8,183260,102713,92058,98909.6
62556.3,79378.2,95124.8,142442,170981,194751,98421.4,100274
96685.2,70406.1,188599,59435.2,262143,95235.2,97805.5,97282.5
72950.4,94230.9,176663,124537,244219,213264,90340.5,87496.9
75141,90170.1,159270,104013,240716,144900,100080,96667.6
79988.4,94670.1,119874,158275,174516,216325,96345.4,100281
74721.6,95466.6,148405,161428,228593,218949,94940.4,100178
72776.7,74911.5,127320,114154,204593,154971,96673.5,100553
68103,94697.1,126554,172925,190720,244791,101103,88595.1
96726.6,108164,166685,140988,262143,190281,102876,96637.8
70961.4,101101,157178,178965,242289,262143,96122.9,91369.2
64973.7,72151.2,120499,191210,189480,262143,92300.5,97495
63217.8,105837,115405,164336,192665,251931,99443.8,96363.7
64394.1,96862.5,118368,124654,262143,173425,97924.2,95013.8
119928,83171.7,173959,169229,233340,227890,97412.4,90399.3
55660.5,62894.7,37362.1,115110,72278.9,191596,92560.3,88361.6
76738.5,79155.9,50002.9,130787,83992.3,227330,95441,91059.6
94527,105613,116770,176895,180374,219477,93313.1,99046
89728.2,86949.9,127224,182490,171955,262143,88738.1,93375.7
67391.1,83170.8,53197.6,144363,83564.5,224543,98384.3,96813.8
50075.1,91746,84086.2,125314,142468,209438,93627.4,87943.1
85798.8,108411,177522,178383,256978,262143,96597,94537.7
66328.2,75997.8,97463.9,116237,182922,176052,92035,90688.3
65752.2,101324,140284,118531,242248,167949,90593.4,98061.9
92202.3,79879.5,169301,154637,249831,222951,98361.7,98308.1
61027.2,104130,131834,139456,198062,220956,98225.8,95267.9
94647.6,83455.2,121047,153186,236375,199414,91205.8,90592.7
101464,82575.9,184318,119090,255301,176312,99932.6,91158.7
82874.7,98042.4,112067,180412,164075,234098,97851.6,95372.9
82165.5,52003.8,131093,60384.7,207664,130643,90381.3,88348.4
62748.9,79601.4,57394.2,79706,76870.1,113138,88548.1,97986.4
108355,83182.5,165604,111167,257744,194960,89903.8,87535.5
56925,120758,44205.5,165426,78079,220756,96451,96604.4
77496.3,88441.2,136383,145424,207803,183504,89699.8,88809.9
81552.6,75354.3,150312,128030,244205,177003,90811.6,102076
80742.6,85287.6,192441,173699,262143,254279,97166.6,98839.9
119860,92664.9,140564,149258,211608,223205,97580,92463.8
83528.1,85500,152417,169163,243972,262143,101780,99050.3
55523.7,78507,131514,141373,193861,208729,88496.4,92409.5
71487,111316,161506,136856,262143,181366,97241.1,95573.1
64544.4,94478.4,158603,145716,243039,211107,99903.2,92538.5
66506.4,85592.7,133620,160660,262143,204491,97332.2,87505.9
94607.1,106132,171149,147994,262143,262143,94652.2,89420.6
71397.9,108333,152970,163112,231937,247215,88051.4,95498.3
78783.3,70192.8,153740,48475.3,236896,82351.5,99624.6,89601.1
58973.4,108098,125730,186150,222006,194841,93417.4,95215.6
90314.1,109591,144536,228597,213058,262143,92946,98858.5
78781.5,83263.5,80966,78357.8,127781,110709,95725.6,98013.8
89815.5,131983,96496.5,170574,155541,262143,97964.8,94995.8
63593.1,92409.3,122556,125167,156629,158199,100209,92007.1
86337.9,110311,171980,149123,262143,196468,94448,93976.6
90633.6,78265.8,133958,116970,203571,172028,99297.1,90841.3
56172.6,93213.9,174900,95111,242345,158405,102313,95472.7
60630.3,93980.7,102413,128271,202803,217833,94114,91384.6
78431.4,88492.5,96800.1,177153,165180,259944,96606.3,88672.1
42548.4,88729.2,94760.5,152406,162674,230798,88360.8,91670.2
51792.3,89203.5,85555.9,160620,155458,247869,88799.2,87977.2
74529,117914,102856,141079,131413,205866,101527,90452.4
73318.5,89262.9,170311,170905,262143,262143,94122.3,100121
94267.8,110579,160867,143316,262143,195425,99803.8,98749.7
72902.7,84555,169492,127854,235540,201468,98497.7,99309.4
82485.9,126056,84414.6,159296,152892,201928,94367.1,91351.4
75124.8,109853,136686,177215,257043,212452,95598.1,87432.5
89758.8,83592.9,166169,172907,251292,262143,91715.3,103353
67029.3,91993.5,109664,95086.1,155004,161962,94758.8,100288
78091.2,91566,121760,152277,185392,254001,99591.9,97957.6
78423.3,69961.5,136332,80684.5,183205,108853,99354.8,92429.1
57515.4,120005,151374,184521,262143,262143,98527.3,97213.5
61581.6,68747.4,152640,160603,244336,251037,91707.8,88087.3
71631,83770.2,117862,140165,186450,204181,98665.7,98593.6
91435.5,115003,155994,198862,260151,262143,94721,91639.7
64395.9,86248.8,150267,98463,226879,154706,97393,97723.3
63963,85180.5,116149,143088,207044,238522,93373.3,95137.2
94271.4,78730.2,117510,98714.2,177250,136584,95379,99154.4
76482,73296.9,105283,65821.9,160893,102149,87694.3,94835.3
70563.6,111417,144708,169794,211858,262143,95910.3,90935.9
81203.4,76051.8,168515,139702,262143,218636,98836.4,102841
87084.9,98289.9,122308,169663,208877,256952,99080.3,99983.1
97286.4,80549.1,184714,154265,238202,215073,96062.9,88697.7
58581.9,74198.7,83796.4,136719,124781,228104,87507.2,97892.9
79041.6,77854.5,139732,117452,262143,180492,93524.8,100020
97191,103083,174052,169590,262143,219909,93208.7,94160.9
110030,62260.2,204647,148208,262143,222108,99391.1,93325.2
75914.1,82810.8,111130,158627,155638,197306,93717.6,95302.7
84824.1,90765,75408.7,131168,115187,206618,98830.3,95953.5
98785.8,81569.7,156424,110406,244577,212440,90843,90398.6
100572,92826,170689,171942,240562,171842,93841.2,97809.1
85256.1,79669.8,137643,112901,211575,167779,90076.8,99611.2
73132.2,88260.3,52811.2,152719,69342.2,222714,87488.6,87931.2
64918.8,65430.9,41081.2,156035,72385.1,210289,90182.7,89339.1
77879.7,72993.6,202511,58770.1,260188,91365.7,96429.4,93366.8
91670.4,78219.9,188790,176479,250373,229694,91043.6,102202
73730.7,118570,123503,145653,217458,194623,88743.7,95436.4
86219.1,94503.6,168940,181286,247264,261983,100459,93886.9
70058.7,87048,137975,129191,231131,188814,95325.6,90519.4
92432.7,61463.7,170389,40471.3,261427,69524.4,97887.9,90527.4
77889.6,115180,111819,144569,191849,206974,92207.7,91009.2
100922,83407.5,205409,107745,262143,181800,88709.9,95028.1
77309.1,46156.5,137826,63126.7,199653,199494,98691.1,90141.2
97650,93238.2,125804,177663,214089,254157,90927.9,94968.1
91892.7,54807.3,158625,87904.6,216707,111940,96042.1,101454
75991.5,98932.5,124884,180017,194071,236676,91129.7,90359.4
78624.9,73507.5,130958,96503.4,210937,153717,90585.4,96357.4
89971.2,90544.5,150098,30170.9,236332,80318.8,101079,93720.4
104018,91833.3,152064,180447,161729,250489,100390,88662.9
61510.5,82768.5,165499,131255,262143,176608,91794.2,93272.6
74640.6,107122,51509.9,136730,96307.4,195598,95632.7,93685.4
69178.5,73526.4,140074,183075,236993,224257,98307.2,89172.6
81154.8,114647,137892,163697,255823,199678,88083.5,87559.1
58543.2,109688,119196,121658,202718,156535,99484.1,96878.2
92379.6,80621.1,128765,137931,173996,216359,92394.9,91606.2
67274.1,68391,148931,154546,218700,209363,91310.2,93376.2
57856.5,67716,168712,131310,262143,214641,91159.4,101454
101614,110962,176561,185345,262143,253681,98846,100659
84285.9,121665,151222,180189,227376,238823,97981.3,98575.8
67018.5,90882,147984,139766,244242,196628,87777,100763
66090.6,103582,134840,187258,207473,262143,95304.1,94784.7
53955,78198.3,149094,143412,224700,201105,96547,97075.2
68648.4,97029,102442,174585,181238,257068,89706.1,94869.9
80090.1,107050,165895,97325.9,260556,168019,93779.6,90231.8
99849.6,99985.5,152744,169039,224776,240037,87814.3,98758.7
46857.6,95121.9,104866,159956,189426,242420,88097.7,88372
79777.8,107924,129978,183971,229840,228908,90628.8,87695.9
82733.4,66331.8,165676,123418,256194,205465,96639.2,94644.9
70270.2,90328.5,127781,172049,218566,248252,90715,95959.8
73840.5,71068.5,150492,140490,200619,209048,88830.2,96541.5
83591.1,109638,145132,153933,245611,242345,90932.1,97905.1
58085.1,90344.7,128566,53130,219732,117375,94478.1,102225
71147.7,68200.2,147563,141403,209238,227391,92125.2,96034.9
81533.7,85191.3,156655,155358,253750,216033,88388.6,98546.1
79135.2,97162.2,139700,178547,211956,255972,91997.1,94835.7
62390.7,48096,47731.4,101582,79370.7,166471,97493.5,90145.8
103906,128194,161034,153304,261731,211533,88123.9,96088.3
99612.9,77700.6,148850,145031,220935,217005,94243.3,90063.6
89451,85950.9,141184,156623,231454,262143,100742,95136.6
73112.4,93368.7,126011,177106,241591,196178,97755.7,92831.2
62489.7,108136,120975,154389,195131,261449,91554.5,96119.3
90648,92673.9,137718,121020,234962,144501,101707,99405.5
53293.5,81396,72977.2,162647,106510,262143,101392,96835.4
87750.9,107967,152776,145906,237784,198955,99223.8,89685.6
71467.2,86953.5,77964.5,148558,130160,204393,91780.9,92768.8
75591,117338,139090,199609,209875,262143,89912.3,100338
135078,82172.7,230485,140932,262143,192008,97047.9,87740.2
101139,102092,93881.4,165216,194573,262143,93952,96302.7
87071.4,79931.7,103256,134865,128943,250725,95600,92219.8
107147,94528.8,183086,135629,262143,262143,98485.9,98306.5
82054.8,95131.8,166852,198176,262143,262143,90197.6,100147
68554.8,84685.5,134187,127509,225793,170641,91923.9,92790.1
85540.5,73183.5,164361,133057,242854,244159,99007.7,94089.5
67664.7,104785,152696,138023,238579,198982,98073.1,93300.1
87504.3,114512,175751,143203,235385,235585,97788.7,98055.7
89315.1,78022.8,139863,56431,222148,83633.5,88511.6,88401.5
99226.8,82296.9,104465,141396,179937,229150,92073.9,88805.9
62648.1,83404.8,45476.5,66895.5,92339.9,108549,90938.3,90621.8
71179.2,79327.8,120809,60931.1,200002,103744,95107.8,96485.8
65151.9,67901.4,150000,116569,203771,175216,87612,93215.2
95412.6,112364,176001,132887,262143,240138,91122.2,87938.4
62165.7,96239.7,155613,90463.1,259989,101202,94585,89530.6
60250.5,111817,103454,150932,141559,222065,94576.9,89235.2
86244.3,93650.4,149522,110600,247380,176240,99015.1,90080.9
80415.9,75594.6,102662,158385,173385,234612,89620.8,97659.4
92381.4,75844.8,148304,55324.2,226134,89236.3,92943.2,97478.7
91588.5,82842.3,150621,123384,262143,174950,100287,98113.2
82390.5,72904.5,136014,99618.1,231601,156811,88882.4,93206.6
78115.5,97381.8,64308,132296,112615,221099,95583,87836.7
88852.5,69389.1,176169,94923.3,262143,153881,101087,95578.4
72464.4,87773.4,152331,155824,222134,219704,89258.8,97103.9
65526.3,82044,130291,123623,206957,205289,94475,90373.6
78161.4,99575.1,139913,135294,207904,221286,91806,93851.9
87148.8,98911.8,175184,178747,228271,255304,100743,89154.7
73206.9,77771.7,115288,137529,195992,216944,93433.1,97148.1
69914.7,103342,141921,158016,187469,252642,91428.9,90019
70384.5,81666,131666,136112,189427,211220,92602,89334
73477.8,82278.9,122624,147772,230971,205686,89476.4,99185
71054.1,91880.1,135177,187484,262143,259433,95088.3,93315.9
62379.9,85833.9,70479.4,137741,100860,185101,89822.4,95406.3
77927.4,93998.7,112097,125781,171486,187679,91798.9,95079.3
36501.3,76279.5,79472.8,109862,197670,213460,95834,91454.1
76576.5,99850.5,148376,120706,248499,171557,93634.7,89268
81339.3,113194,146306,179087,261297,262143,88377.8,92856.8
86084.1,75680.1,171065,76657.6,243333,105330,87593.5,94606.7
74999.7,114726,145899,166603,208815,252434,97052.7,87647.8
91412.1,89539.2,168410,139286,262143,218339,88217.3,96377.5
69539.4,76439.7,165196,148557,245893,214324,89980.2,99488.8
76550.4,92354.4,169424,184677,262143,225843,92068.9,96252.4
91072.8,86374.8,177220,181885,224151,242324,88472.8,98226.1
63397.8,100191,156104,180044,215114,221047,89848.4,104208
65384.1,94853.7,108094,165448,153303,219005,90784.1,100401
90641.7,83319.3,175671,130326,231765,205372,96464.8,99467.4
77888.7,95426.1,119658,134241,205752,219713,89522.5,97964.7
92342.7,104656,185178,155265,262143,231792,97754.5,91596.6
76742.1,93521.7,141015,111323,231356,173480,93636.2,95578.8
102989,109775,206643,109050,262143,146680,91664.5,92482.1
98701.2,75779.1,119726,128281,147777,222271,93312.5,90454.2
103180,95967.9,195959,224398,262143,258565,96283.4,91937.1
82270.8,81058.5,175873,86564.6,238701,121450,97033.4,92476.2
86596.2,80047.8,219737,136265,257348,204806,95868.1,94671.3
78507,78336.9,139577,101683,168128,177435,94388.4,88109
77912.1,77967.9,160141,83029.1,227605,120048,96340,88593.7
85498.2,101077,141977,175105,201480,250114,100348,93239.4
75969.9,80703.9,101851,160787,149879,239027,88848.4,92251.8
83125.8,104888,133915,171675,222623,209140,100443,90644
73065.6,75328.2,182299,147209,262143,237528,94296.2,103037
65785.5,85632.3,109782,139416,177675,193821,92271.6,92600.6
80871.3,80667,166235,147033,206378,195303,98085.1,97796.6
90561.6,81680.4,161116,98347.1,254618,131962,101845,91517.8
74925.9,89015.4,151005,133550,242926,202123,96548.6,90903.8
79309.8,94105.8,126104,152116,187357,170826,92900.1,98534.9
74527.2,98568.9,194893,138582,262143,221119,100347,90434.5
83505.6,83817.9,153486,103149,262143,182933,90041.6,95428
79098.3,63544.5,129400,75668.2,214251,127250,95910.5,101037
70769.7,82852.2,145565,82330.8,225957,146372,96261.9,88164.7
46519.2,112519,141353,172855,262143,260505,97083.8,90867
108742,94065.3,160378,212753,262143,205057,94823.3,88170.3
85026.6,112928,123918,149025,232914,223862,93292.7,88530.7
92697.3,104951,116876,194773,174497,262143,89629.6,109667
63060.3,72824.4,143221,145271,245339,182568,89943.3,98061.1
83585.7,85753.8,80160.1,165343,130358,214546,89609.5,89795.5
81326.7,81287.1,156797,115579,234567,202609,96116.9,98319.4
60391.8,86833.8,92839.5,213336,133071,262143,96551.3,97020.3
73164.6,90716.4,129495,120473,200422,164845,88756.3,87635.2
66244.5,89645.4,171004,171179,258221,228045,93422.6,93748.2
67441.5,79486.2,120671,117053,178767,185573,100912,94492.8
80803.8,90795.6,153840,156304,223552,235687,94969.1,95072.4
92763,86984.1,192485,156146,262143,205065,98479,90745
91094.4,80696.7,166319,102631,227736,188896,94150.5,94436.9
106842,83580.3,94701.1,117479,147454,183250,97317.1,87572
78192.9,122248,127316,208221,225302,256786,90798.5,100366
83064.6,66311.1,40267,155450,77822.3,215633,93203.9,92882.7
92849.4,145444,128322,157799,202147,214424,94927,90498.4
79969.5,82212.3,101009,135313,172281,230394,89773.2,88617.8
62292.6,81754.2,101168,144501,162107,238476,97324.8,100068
60192.9,90999,155313,159031,253414,218832,95026.7,88618.3
73221.3,105590,186704,163744,262143,190701,99290.4,97645.8
74617.2,95653.8,160614,58777,240522,88469,87486.4,100410
63658.8,73823.4,148972,174396,251607,231547,98120.3,96641.5
69386.4,83211.3,172249,111997,262143,151270,94724,87425.2
76914,95676.3,126483,116959,221925,207495,100995,89155.4
69362.1,91994.4,154726,158187,224294,230150,91784.9,88729.2
64990.8,90886.5,124570,123476,218512,188624,88596,96491
76357.8,81454.5,145342,154473,218897,251397,97471.3,94864.6
88911,77479.2,176411,143755,262143,199933,100280,98530.1
69974.1,111083,146295,174787,225511,229034,98475.8,87405.4
103257,103436,125275,196973,193290,262143,100825,94873
79164.9,87698.7,154982,133493,262143,212317,89923,89365.5
63292.5,79284.6,152941,123981,262143,187641,95474.7,95109.7
69852.6,104728,136263,138789,206981,236684,100908,100049
60576.3,88541.1,70293.1,159424,124825,242905,89080.1,99517.8
77890.5,90462.6,142845,113578,214909,166596,100234,89118.4
92776.5,98166.6,146364,187639,234227,260487,94033.6,102392
109415,87964.2,214931,122613,262143,185418,102411,90205.5
76694.4,86841,112840,108240,178093,167804,92908.5,91097
67518,96705,125544,160595,184611,209055,98178,90376.8
73731.6,90167.4,127563,164793,220622,216312,97409.9,93192.2
51994.8,114072,144428,231053,221565,225473,88855.4,94475.3
82672.2,107034,163926,143067,262143,235962,99210.4,96257.1
65024.1,83008.8,178626,129926,246631,187510,95555,100396
63371.7,79396.2,131475,71728.3,183279,106791,99961.9,96734.4
95097.6,103775,202521,149172,262143,211303,96000.5,91297.4
95573.7,86354.1,153139,140437,197626,206498,96165.5,91542.1
85851,67763.7,176593,113985,258669,148716,87627.6,93067.1
75307.5,93538.8,167524,108434,247898,157579,102681,89817.1
85838.4,66888,109842,146414,197624,217495,90544.8,95981.8
67212,90899.1,127092,132934,188293,180009,97559.3,93881.7
87384.6,82640.7,96760.1,163531,144222,202545,92626.5,99180.1
84434.4,118796,161311,149222,215406,208524,97609.5,90769.6
75144.6,96805.8,201621,195637,256527,262143,96963.2,98607.3
123002,78365.7,167669,143349,228201,197259,91434.9,97151
68533.2,70600.5,136500,128925,237644,186035,96640.3,100362
81815.4,92817,157923,179223,222203,262143,87852.7,96035
65321.1,115989,135636,160644,234723,235641,88955.6,88211.5
84087.9,85919.4,188817,145079,262143,177091,101886,89155.7
70468.2,66042.9,122650,120580,211333,222910,95808.8,95357.9
96155.1,73246.5,149534,122941,262143,206158,99663,88136.7
98264.7,93837.6,130905,170177,188424,223761,89877.4,94138.7
94309.2,85770,151153,129875,262143,244384,96972,89609.7
64551.6,108853,146821,182842,238685,253921,90222.4,99112.9
103113,73409.4,127094,100737,188966,152693,95510.6,91581.5
94311.9,121303,138679,155411,187205,204366,96979.6,94467.3
102085,92546.1,146287,168626,227972,219968,94729.4,89346.6
76896.9,73900.8,126992,78346.7,213363,124991,91571,106491
89070.3,74628.9,164050,75176.9,249868,101215,99271.1,97002.9
92520.9,83928.6,143893,91230.4,255584,188845,90613.8,90748.7
112434,71373.6,187352,64930.4,258411,98701.7,97003.4,96286.9
79574.4,72360.9,155203,46009.2,262143,89809,97874.5,96235.7
68968.8,86155.2,177209,85346.1,262143,145554,94790.2,98349.8
101119,87326.1,136900,130663,206941,210850,90662.7,91267.7
67925.7,105426,117659,139047,191965,231633,88700.9,99547.3
90205.2,94922.1,119409,155727,227483,226977,89728.9,91245.5
67575.6,82018.8,121048,136018,163443,209705,97291.9,91175.9
89035.2,127771,132724,228362,224509,262143,88525.4,94145.8
88780.5,89927.1,183395,80881.8,216049,119847,89594.9,93614.9
66813.3,68603.4,159017,157637,257850,230619,88161,95263.6
121201,68605.2,158425,102094,262143,179876,98586.6,90756.9
72612,67887,159983,54959.9,255317,88935.5,88010.2,88121.4
68734.8,109164,178913,152570,262143,230170,103022,87852.1
95842.8,60367.5,149189,135585,260904,212577,107085,92929.8
81999.9,70955.1,142773,119163,237577,168724,95152.4,88677.4
66166.2,88614,117097,158108,173781,216018,92480.3,94406.7
64593.9,105783,150859,125195,255706,222903,91188.8,89206.1
73917,86687.1,108518,176673,176382,262143,99110.4,101773
163679,84392.1,143886,124422,211969,202240,105006,91727.3
86958,83134.8,169797,89157.7,258016,138230,97254.4,94653.7
82190.7,141343,152549,160214,251810,252794,93555.9,96365.4
81936,79846.2,128058,120532,188511,215054,94412.9,91043.1
70310.7,70477.2,146294,83731.5,251003,154196,97203.5,87650.7
83931.3,126470,131325,111653,164122,192217,87424,93288.1
86445,79866.9,78647.6,116199,106542,175426,92011.8,92445.4
119454,92866.5,227554,177431,262143,252035,107180,99409.6
72250.2,91769.4,191819,205402,262143,240069,101587,96297
61711.2,84272.4,111111,167006,199801,262143,98675.9,99471.2
67171.5,81325.8,176179,144870,262143,223982,100786,93252.6
71469,76134.6,141649,147043,241390,228168,89134.3,97700
124767,89634.6,200715,112564,234527,155871,91115.9,87965.2
54956.7,86815.8,91477.4,146324,113745,169039,91960.3,88182.4
93801.6,88114.5,133489,105992,233133,167539,93641.8,95263.6
76869.9,93299.4,168279,132785,225239,249699,95697.1,88737.1
77707.8,111187,181618,185839,262143,231505,95178,93742.3
85758.3,87774.3,161754,126397,253362,215498,88041.7,96129.4
76134.6,96712.2,124275,145081,218291,239234,95643.8,89457.7
90881.1,131981,153115,110117,223766,210835,101116,94311.1
91903.5,105117,193567,168058,262143,262143,106502,98928.8
133190,107292,148550,170193,228255,227619,105196,97705.7
55870.2,67595.4,86619.8,131899,112662,184049,91856.6,87549.9
74101.5,93990.6,135839,212639,198011,262143,87749.4,100241
42193.8,92369.7,121408,155897,195288,250545,89201.1,95828.5
71323.2,116831,174662,115636,226753,234868,92186.9,95350.6
85447.8,98783.1,136450,121864,192148,217781,93740.6,90831.8
82912.5,97046.1,164601,104445,246311,155957,96782.9,90633.6
58905.9,131664,136205,211740,235489,262143,91169,89600
79922.7,96215.4,160393,167434,241213,238991,97273.3,93566.9
83430.9,70515,181402,149984,234855,201450,101026,88513
109831,80242.2,172453,111402,262143,188729,93153.5,88269.1
63655.2,86755.5,121201,165103,224340,205064,99407.7,97536.1
113053,86583.6,107205,78081.8,173594,102720,90711.4,91266.9
92457,108840,175771,150619,226985,199749,97331,88325
123088,78255,211801,177534,262143,209465,99727.9,91156.1
70425,79088.4,117253,134560,238159,218896,88925.8,101396
74208.6,85203,168015,59213,262143,107843,100400,95782.2
84332.7,83431.8,147518,148902,226742,212020,90890.1,96021.4
67289.4,77303.7,144490,149609,185658,211802,88683.9,94732.5
66976.2,72396.9,175351,114907,262143,211248,96508.3,97586.8
80971.2,96976.8,155002,155244,252126,204357,97366.5,98944.3
62760.6,101918,155628,195633,249573,262143,101212,99476.7
88245,70207.2,151737,55303.5,209963,104790,98960.4,93014
81211.5,66207.6,123009,145611,132267,246134,93454.8,91269.6
82296.9,102251,206389,146528,262143,238207,90393.5,98486
74966.4,66192.3,158911,53905.6,209986,85797.4,97862.4,88134.3
71924.4,58245.3,140013,107416,214386,158195,93306.8,94858.3
69019.2,92719.8,124534,190817,163273,238697,90486.7,95881.3
70115.4,81119.7,153078,94218.1,195487,150519,95127.6,92874.4
73107,112172,116945,169596,226292,262143,88868.9,95841.8
81307.8,98484.3,109353,157188,169729,223222,92644,99201.7
63426.6,89847.9,157810,129541,262143,205425,93936,94186.9
68189.4,108514,133761,207377,202060,262143,89464.1,99934.9
90172.8,67352.4,168952,141941,259839,235941,100642,99542.2
113387,122548,228418,176670,262143,245190,102525,88239.1
67897.8,70095.6,160237,95912.8,255834,146809,98789.1,89379.1
73452.6,78699.6,155447,122414,205172,177961,97189.7,90973.2
79670.7,84021.3,107462,130175,152454,223742,88263.4,92991.3
80189.1,69794.1,185121,191694,207489,262143,92406.9,87919.2
61608.6,88926.3,119236,161294,188823,194848,93557.8,87578.4
68146.2,86409,154804,130839,223601,160097,90672.7,98371.3
66794.4,91436.4,123456,150365,192412,227997,90687.7,93053.2
87407.1,105247,130858,160148,184725,262143,98195.8,100150
96769.8,103033,213100,176772,262143,249020,92050.9,93383.1
60876.9,98259.3,169682,99860.9,220948,172670,94621,91799.4
77299.2,77121.9,133289,120762,182207,173211,93511.2,94267
93643.2,121453,124639,167175,186609,259866,93866.9,91298.4
75000.6,114926,198840,145373,262143,190944,87978.5,91784
127765,85555.8,149592,159778,128760,206942,97096,99082.1
111791,99745.2,229188,140887,262143,183116,106012,92598.9
86847.3,90480.6,131096,107089,229675,136998,89535.3,90789.6
67056.3,84168,61360.3,155922,99750.5,233115,93861,93850.9
110240,142262,149028,180123,242576,262143,109777,97140.4
54130.5,96702.3,163364,138907,262143,186032,91073.9,87516
76201.2,75352.5,133268,115753,243207,181596,98120.8,96640.8
81558,68058,147997,151162,235623,261459,95143.9,101885
79304.4,110814,122412,155761,191951,262143,89172,89386.1
84774.6,83780.1,176031,96426.1,233795,144783,93139.2,90219.2
62971.2,82768.5,122973,113559,187099,173597,92008.7,93171.8
72336.6,87469.2,117902,132523,211812,190316,90797.8,91021.2
93974.4,90637.2,137892,150969,262143,211072,91803.9,91464.8
80711.1,100214,181049,86737.1,233833,129045,89679.5,99514
83371.5,87739.2,126430,141904,199013,241822,87820.4,94596.4
64600.2,69417,112692,58915,166344,80230.4,93690.3,90054.3
65196,91879.2,126992,129176,209002,188762,92698.5,91375.6
68434.2,56792.7,124580,40874.2,200399,79025.7,97729.9,90638.3
76437.9,86152.5,127269,177951,202879,234588,95039.9,98887.1
68994,97444.8,122783,163221,178081,247666,93957.8,92264.3
84112.2,88329.6,149099,150343,221462,210842,92226.5,92567.9
82650.6,91522.8,163050,138087,262143,203253,95060.7,95574.9
72419.4,91026.9,136369,146044,235300,186457,93253.1,95193.3
88031.7,61594.2,133358,178339,197047,245334,96125.4,94163.5
82773.9,87507.9,115872,172511,169577,260835,90477.6,94841.3
87840,91618.2,122396,116385,207170,174069,90211,93151.1
76357.8,108428,155004,147634,257388,182784,94301.6,96592.9
66174.3,95742,124756,160876,188135,237708,90267.8,91523.6
62966.7,88936.2,143661,94984,157408,154374,97301.8,94998
75198.6,71999.1,158049,93874.5,232043,157163,93710.9,87430.4
78120.9,74722.5,144071,104905,242048,157789,98195.2,93059
84112.2,88287.3,132959,93365.3,230747,178670,100049,95389.9
95297.4,91836,79085,194245,109097,262143,89589.4,97173.5
86119.2,82325.7,65823.2,113998,110030,196029,92371.9,98213.4
79507.8,67144.5,148108,50566,217832,96674.5,100334,96067.2
63073.8,76886.1,116213,144325,198854,236953,100780,97541.4
60629.4,98861.4,135056,163380,220481,207991,100411,98150.7
56666.7,103460,166203,90214.7,255294,105796,100121,93914.2
66709.8,79084.8,156711,130807,254295,241283,100327,101593
86865.3,69540.3,163233,136555,238137,216329,95703.8,93602.8
74538,87156,60332.2,200255,94557.6,262143,96117.3,104200
83506.5,87726.6,144111,168701,230017,198393,93830.6,92860.2
78664.5,93565.8,151067,91604.4,245223,149857,93204.5,88605
57276,87859.8,159407,137876,262143,208638,99276.6,96987.6
93456,91796.4,119319,155271,188439,241579,92436.7,99588.8
84858.3,116022,153174,139321,254185,231030,88105.7,97864.5
99603,86657.4,139448,95792.7,262143,141249,87676.3,88431.2
62631,72043.2,109927,135712,195892,227293,87399.4,92654.9
119200,100999,189263,135454,262143,179495,91268.5,93708
70459.2,76698.9,115926,143219,190038,226930,87381.7,91095.5
69762.6,106743,125210,158051,242644,243806,95172.4,88440.8
84013.2,97102.8,177955,173619,254146,262143,92872.3,97140.4
81382.5,119779,192227,224192,262143,262143,96117.8,93255.7
60191.1,69521.4,119315,163712,262143,219949,93275,96655.8
81180,84753,143114,146579,202522,175101,94489,98255.1
70192.8,100290,118490,178652,200902,243719,87857.6,90058.7
90380.7,90660.6,154416,148183,262143,213199,88271.1,96302.3
70965.9,76043.7,124502,87301.6,191583,130373,89422,100305
69228,96272.1,159935,177889,237470,227269,96176.3,95931.9
80356.5,84340.8,149515,127134,239649,160820,99823.6,91018.8
70189.2,70591.5,74261.9,139682,116239,192133,96974.3,99280.5
69553.8,87470.1,116537,83774.3,182458,124164,98909.8,88928.6
89908.2,91233,122435,169529,177778,188893,92111.8,98865.4
79654.5,125448,96173.6,193263,166304,262143,88853.5,91703.2
96570.9,85160.7,188856,130315,260075,215183,96506.9,95870.9
87758.1,82054.8,148781,151782,208852,203601,89105.2,98218.2
75700.8,63951.3,93052,173158,135668,189202,87980.8,96023.3
53899.2,79354.8,110343,183496,196440,220593,96438.2,97560.1
74913.3,109597,46798.6,163715,74279.9,217924,88827.3,96894.2
88003.8,94147.2,124798,136191,201746,236725,97816.7,96332.9
69482.7,83100.6,176331,177653,215455,262143,98198.3,97780.7
68166,113669,136539,164278,231416,244283,93033.6,87746.4
75269.7,87507.9,70486.3,140459,113250,199280,97787.5,89586.2
96260.4,85678.2,145816,120274,215246,200782,104556,95387.3
82711.8,99009.9,124716,126782,225355,191841,88741.7,93779.9
129099,83558.7,170304,124200,262143,176405,95659.6,88091.6
76707,84755.7,117969,148437,190981,232295,89851.9,92268.8
56236.5,75954.6,145246,134912,247093,190945,98520.9,87421.7
69902.1,87554.7,102152,110734,187138,148001,94811.4,100170
73681.2,134866,179735,166649,241412,239932,98324.2,92750
75688.2,92205,111174,149088,175637,195035,88903.2,95874.8
83277.9,75186,114471,57581.9,188778,75041.6,98225.3,92793.5
61299.9,108042,138549,138523,193508,211666,99567.7,91645.1
89060.4,89237.7,143738,157208,245309,220738,92515.4,98557.8
105286,99046.8,179635,152682,262143,244655,97009.3,96858.2
78204.6,79938,148328,85608.3,235031,121555,103422,98097.1
83141.1,83960.1,195821,135364,232860,212566,92011.4,90139.9
73698.3,95242.5,161708,182585,262143,262143,100982,99882.4
60579,75456,164702,121270,262143,209877,100060,94830.5
92394.9,111253,131366,181104,241592,258354,89617.8,92953.9
55906.2,66362.4,91954.9,108970,134409,142415,90610.6,91213.1
92121.3,78674.4,160741,143038,245129,183907,102264,99275.7
83524.5,98694.9,178440,162815,242427,216717,101558,89817.9
78225.3,83358,76761.1,128845,135636,140979,91227.8,89080.3
67711.5,88295.4,62827.3,170840,148800,260790,87872.3,99978
87953.4,85929.3,122341,137662,172908,231070,88247.9,92995.7
71433,68759.1,138693,61996.5,212720,95130.3,98179.4,93352.1
75664.8,80724.6,146824,169061,214640,233398,99690.7,99898.3
95868,95167.8,213532,126775,262143,198419,96344.1,95713
72541.8,109690,132535,181685,162231,227815,90138.5,98650.5
108867,85719.6,178974,158639,262143,252025,98379.6,93413.8
87803.1,104810,186982,140113,262143,211168,94762.6,94923.6
80129.7,130246,97648.8,204494,185338,262143,88936.1,95433.3
71251.2,87045.3,154837,76870.1,231658,125991,101327,93059.9
70529.4,81894.6,129868,137620,172260,209114,92968.7,96910.2
73224,79512.3,113846,131918,224939,190946,92029.5,91582.4
77105.7,76451.4,162505,55336.6,262143,106325,92238.6,90202.6
83871.9,77205.6,151013,118687,200996,188531,92058.9,96987.2
69128.1,56399.4,128198,72089.8,167652,169972,95959,101726
82503.9,100804,156575,151179,243893,221691,97408.8,95945.1
50968.8,102288,104549,179317,156386,241699,92472,100205
64616.4,120429,109849,198561,201840,262143,96775.4,99046.1
71572.5,101767,143792,169053,200313,231829,99027.6,95530.9
74211.3,87869.7,62613.4,144301,94567.3,190973,91351.8,87946.5
101179,106582,184906,169765,241608,262143,95809.3,91251.9
92277.9,111609,102726,150748,163273,228607,93967.1,95101.4
90759.6,79446.6,121699,122558,205341,197053,96304.2,89083
70758,86271.3,119547,174983,140656,245745,93737.7,88248.4
89269.2,68693.4,157433,35675.8,236231,87657.6,88640.3,93507.8
75493.8,85945.5,167067,136987,246635,230220,93451.7,97536.5
82638.9,100656,160069,141438,221533,227083,100593,92715.3
69075,99009.9,151194,143764,220538,262143,90397.2,96437.9
65109.6,104926,134881,138603,217027,198790,98950,93707.6
98392.5,85231.8,140247,200431,174081,222321,87816.9,92036.5
65005.2,86636.7,134739,176524,212378,230775,91529.8,98860.9
82181.7,100518,176357,124499,261205,168279,96436.3,100140
62114.4,95654.7,162819,165022,262143,220843,92019.2,94202.7
92413.8,96831.9,129229,144970,211078,223999,88184.4,90113.9
69607.8,111558,136786,143379,221852,214372,99487,89662.8
112648,79188.3,165677,140546,252942,211871,98509.8,91245.4
93443.4,69003,121893,71935.3,148099,104964,94080,88392.7
80147.7,102697,164776,112041,248371,174478,91645.5,89375.1
68323.5,77099.4,98784.5,130995,171531,212197,88955.7,99536.5
69017.4,51380.1,34617.3,63946.4,77590.5,81872.6,92503.4,94236.8
69075,71690.4,148431,124095,208488,215607,94383.8,93136.2
64116.9,83473.2,114514,161144,190603,241155,91723.8,87641.7
89050.5,88715.7,144761,182148,219336,237408,95232.9,96120.7
79122.6,98468.1,136547,55633.3,240050,99556,89610.2,88428.5
86699.7,105161,81938.9,129981,121698,216832,91442.8,93342.2
81772.2,89620.2,107901,132276,174342,212784,94864.3,98395
58729.5,79288.2,113188,72985.4,140518,117717,89644.3,92591.8
67905.9,94836.6,148474,161510,226370,176556,101997,99245.9
55949.4,135821,159230,141795,246908,241925,95944.6,90887.2
91835.1,76367.7,175893,165378,262143,215857,99117.9,96132.3
142303,140498,178012,197653,260866,259988,88253.4,100272
74415.6,86591.7,139123,85761.5,262143,120569,95171.1,96369.5
65035.8,101985,113371,196168,186754,262143,91057.2,102431
90685.8,91763.1,174693,79577.7,262143,113275,89714.6,88079.7
77596.2,91167.3,127676,177123,201139,262143,89181.6,93653.1
94016.7,78674.4,176215,170103,207800,262143,97328.6,100445
56055.6,116929,134219,176450,203513,226245,89666.9,95365
113185,98252.1,182482,143468,246044,236776,97847.3,90419.1
73700.1,78053.4,54817.7,112876,92189.5,204051,92252.2,98845.5
69328.8,101204,105965,124234,184180,176132,96058.2,99119.9
78933.6,76603.5,132655,117837,167677,188305,88524,87858.8
94690.8,105356,163371,145474,193199,185037,90420.4,99013.3
90972.9,88430.4,198818,184080,262143,253404,94031.2,96462.3
75231,103872,169993,179632,252780,242945,91065.4,89214.5
70947,79167.6,100436,110882,179646,186833,93579.5,92893.8
101815,104217,153085,165048,262143,260501,93444.7,98402
65473.2,98553.6,123119,158797,188228,228941,90878.4,95624.1
128991,103694,171058,168628,243802,242371,95738.4,92709.8
67848.3,70863.3,147733,150312,215671,234135,89899.1,88557.1
64742.4,80397,51428.5,169928,91836.2,196015,96855.5,88403.5
67535.1,74012.4,125914,59622.9,218885,83218.1,99325.1,90266.5
92845.8,76876.2,191976,114852,246353,226308,89913,89071.2
50704.2,87046.2,131071,161811,206208,210945,95411.6,87551.8
55377.9,59309.1,141694,103242,227852,149189,102081,92048.6
85428.9,62082.9,129484,95885.2,221609,143350,91525.4,96200.7
91588.5,88966.8,132880,140836,218524,214061,89006.8,92332.4
74448.9,86222.7,120184,139797,216944,215788,93032.9,92171.6
59301.9,87576.3,161253,97548.1,254206,129114,88463.7,89601.6
82619.1,95524.2,181896,186257,250698,232769,91365.3,99304
63729,89677.8,113495,141780,159681,179755,92504.1,89414.7
68849.1,105253,154724,74626.3,227285,92432.4,92967.1,87531.7
101905,111092,179595,205645,262143,239522,88714.1,95567
60306.3,104870,182418,164602,262143,255306,94143,96758.5
63344.7,60774.3,127827,50619.8,203433,85330.9,89867.3,96277.5
78210,106334,158563,164550,246037,230351,96383.4,98660.3
56621.7,97298.1,81099.8,156910,95272.4,258326,89357.1,99988.8
71409.6,84437.1,116731,119189,178658,183886,101184,96942.9
110452,125050,152098,188923,237927,262143,99891.8,110953
71480.7,92801.7,137561,152202,226310,174798,99654.3,94899.5
91434.6,92993.4,85700.8,163869,154742,236648,87530.6,90542.6
51618.6,67784.4,107096,132543,175526,165543,90724.9,94287.9
65582.1,89647.2,141654,134964,221798,178110,88087.5,87579.7
73124.1,101614,121096,167420,231650,262143,93879,99701.6
77735.7,85330.8,158581,158812,239056,262143,100996,87904
68697,95027.4,187618,172228,262143,247980,98129.8,100456
70959.6,76073.4,156481,170786,228863,210265,89099.7,100994
147552,108682,169083,139899,221646,210889,95004.3,88882.9
87363.9,81352.8,101120,166175,144602,223327,89988.7,95317.2
,101165,,148201,,252797,,97135.3
,92875.5,,117352,,206656,,87732.8
,59982.3,,77602.9,,101372,,94576.4
,78898.5,,142090,,217208,,87919.7
,113244,,174436,,234171,,92657.1
,70670.7,,62744.5,,95883.8,,91729.6
,163091,,177676,,262143,,101180
,101626,,119204,,209817,,91135.8
,88831.8,,139007,,214934,,89580.7
,85083.3,,62460.2,,100841,,95914.5
,81395.1,,79174.7,,105098,,88585
,86446.8,,157693,,189963,,93452.4
,78476.4,,55026.1,,90212,,93127.8
,107775,,150811,,238579,,88978.9
,99914.4,,134735,,201070,,91145.3
,84969.9,,157098,,249395,,95066.3
,93984.3,,156888,,248439,,94828
,82607.4,,190610,,257295,,96188.8
,117536,,110908,,187554,,88742.9
,82515.6,,131330,,192419,,90546.6
,122661,,154484,,255453,,98312.3
,92260.8,,111821,,147144,,94582.7
,93403.8,,130276,,214295,,97353.7
,99786.6,,133917,,205954,,88388.7
,85998.6,,148598,,188671,,88597
,78407.1,,114368,,138489,,93708.3
,96349.5,,107111,,145872,,98680
,79025.4,,194189,,250320,,100156
,74137.5,,115291,,176262,,88312.3
,94914,,201154,,262143,,102325
,76167.9,,118136,,188174,,100274
,66815.1,,61531.4,,89589.6,,92197.9
,88476.3,,192691,,262143,,99715.4
,58312.8,,66667.8,,143176,,94660.4
,98097.3,,209378,,250612,,95525.1
,77394.6,,126483,,202565,,92133.1
