"FSC-A","FSC-A","SSC-A","SSC-A","FITC-A","FITC-A","Comp-PE-A","Comp-PE-A"
60549.3,73783.8,56863.5,73658.9,80689.5,73365.6,40882.8,40487
69086.7,51164.1,41367.8,48526.3,74062,78072.1,46208.2,42660
60867.9,43777.8,47709,59108.4,72556.6,73733.9,43541,44199.6
68950.8,65034,50359.7,45336.2,92977.1,75778.6,34817,45973.4
62352.9,103016,68564.5,126787,86681.8,80417.1,46967.1,45925
69016.5,68884.2,40166.8,59195.9,91887.3,82767.5,44713.5,46208.2
76333.5,81437.4,64472.4,68105.8,103452,115505,46873.3,46230.4
43416,58701.6,63866.3,51075.6,75913.5,87754.9,45173.1,43048.2
63492.3,65460.6,64701.7,62322,112679,98539.9,52427.4,44677.5
68536.8,70294.5,46435.7,95123.3,87913.3,91670.5,46289.2,44685.6
57523.5,43629.3,46017.3,65111.8,81764,108477,46667.5,47840.2
56462.4,58032,70931.7,59200.1,144313,80396.2,51033.5,41903.1
53349.3,138818,90464,218312,84890.1,163110,40054.6,31356.9
52757.1,41571.9,38067.9,38719.8,79644.2,77001.8,47009.3,46478.7
73327.5,55313.1,52661.5,39560.8,97564.1,74629.1,43848.6,37346.2
63352.8,72327.6,65293.9,87161.3,79723.4,117287,45963.8,49172.1
54614.7,50283,57366.7,43073.3,72470.4,78988.1,44552,45667.9
130180,67140.9,174687,87962,177981,121400,33029.6,52442.1
75375,77607,58752.5,84443.9,118707,136548,46211.6,45116.7
59553,58163.4,57729.5,55231.6,110412,105219,46250.2,46083.4
114965,49847.4,136540,73804.8,97964.4,97416.8,50319.2,48217.4
64908.9,47244.6,47368.4,52768.6,72998.6,73055.6,46640.6,34991.6
59555.7,67575.6,89471.5,81752.9,130432,104011,46437.4,37995
103645,58426.2,216303,67344.1,90177.6,97240.2,32756.3,41413.2
69111,62799.3,77164.5,52173.6,112027,79198,47797.1,37404.7
74520.9,79333.2,61362.9,107970,92165.3,122086,43151.7,49000.8
53529.3,57791.7,64138.8,60715.2,81305.3,87628.4,43503.2,46705.9
65604.6,55934.1,44530,64479.3,75989.9,101563,35810,51255.5
77711.4,64788.3,70239.5,80617.2,114939,96147.7,43228.7,48160
63228.6,60797.7,69298.5,50028.9,125271,74091.2,46690.6,47462.2
91745.1,49347.9,83993.5,60690.2,126839,74181.5,47919.5,36085.8
90713.7,43750.8,66660.2,54361.5,101573,81317.8,42566.2,33979.8
67073.4,63169.2,98355,67922.4,123568,109429,52817,44755.8
49614.3,78143.4,75229.6,83040,129303,98366.1,43917.2,46728.8
59041.8,67041.9,50113.7,60787.5,77823.3,89567.4,47467.7,52175.6
47231.1,60884.1,75203.2,53153.6,78319.5,82863.5,44172.7,43159
69516.9,63686.7,41968.3,81088.4,82731.4,165835,40928.9,50510.3
60454.8,75301.2,52728.3,105462,72334.2,121391,45788.7,48797.9
81787.5,46905.3,78131.9,58342.5,120125,83067.8,46168.9,38799.2
87435.9,116447,94938.4,105327,131159,89067,45582.8,48979.5
54777.6,51192.9,44845.6,47668.7,81548.5,91692.7,46204.5,43358.7
84816.9,68086.8,101484,75571.5,90899,109727,48978,48179.2
50944.5,66785.4,117816,88561.1,106310,129889,33897.5,48969.8
54136.8,84240.9,53932,91610.7,109084,100876,32043.4,44180.1
65642.4,62372.7,53155,67921,90390.3,83031.6,45300,44830.4
70559.1,140350,105886,168176,122249,121558,47439.2,46673.2
46386.9,47805.3,55743.2,60713.8,82000.3,86680.4,46418,42997.3
48271.5,51049.8,87046,54560.3,131669,80215.5,51678,38150
79175.7,56309.4,97433.4,56146.3,212919,73526.8,39220.5,44757.9
59547.6,45085.5,77354.9,58339.7,148349,103353,45596.7,40934.8
49155.3,67246.2,81793.2,60531.7,107532,73148.8,45151.8,33809.3
63158.4,63744.3,58525.9,77193.6,75351.9,131519,44874.8,51881.1
57654,88936.2,54821.6,81292.8,78382.1,74987.7,47306.1,47882.7
68743.8,42830.1,64390.4,60391.3,131051,74865.4,33739.9,45228.3
58099.5,50571,61314.3,54111.3,79648.4,95309.5,41375.5,39555.8
56538,62662.5,32815.1,67622.1,101925,89472.9,41928.8,39990.3
44071.2,64318.5,56421.5,65111.8,94753.5,83046.9,42608.5,43507.9
66990.6,43524,58709.4,56737,97985.3,77349.3,36963.2,45235.3
52157.7,55287.9,51986,61635.4,74155.1,92205.6,47886.5,42038.1
73170,66753,55882.2,101806,91307.7,130914,47422.4,35591
66582,56304.9,48470.7,63842.7,76568.1,95287.3,40268,42933
93856.5,62991.9,86617.9,66148.7,74281.6,101056,47594,52399.3
73060.2,69805.8,85443.3,60049.4,131074,89149,44216.8,44254.6
54195.3,49405.5,56687,58336.9,73779.8,87549.1,46463.5,29368.7
75419.1,65350.8,62993.4,84505,98339.7,120505,40231.6,49330.6
55909.8,53352,51033.8,90653,79255,116379,46666.9,49251.1
80517.6,60942.6,112911,92361.3,183764,90372.2,46436.1,46094.3
46660.5,46152,26860.4,47083.5,159444,88224.7,30617.7,41897.5
42375.6,75273.3,39606.7,75725.8,90918.5,83653,46639.3,44558
53075.7,50475.6,52635.1,82800.9,107471,138545,49664.6,47003.4
55512,55278,40184.9,81697.2,72933.3,110719,48060.8,44357.9
62368.2,62679.6,51987.4,80458.8,90379.2,99579.6,47400.7,47851.7
59709.6,47834.1,71975.6,67886.2,80153,83088.6,47281.9,42095.5
61965.9,53847.9,87540.8,68261.5,168237,103492,42052.7,48179.8
131536,46058.4,142930,51841.4,194343,81424.8,45504.5,42681.3
48604.5,52049.7,53911.1,46356.5,81638.9,90265.2,37913.8,41694.9
67786.2,46330.2,98835.9,73563,139373,103526,42909,47967.2
71994.6,61111.8,58279.9,69545.9,76429.1,79046.5,45015.9,45879.8
47210.4,40068.9,84724.7,16810.7,163784,127010,52336.9,35264
70287.3,62452.8,86755.5,63464.6,142123,118327,51767.2,52261.5
61930.8,161041,92151.4,177693,78133.3,127683,43508.4,40317.5
78462,89166.6,62612.6,188952,121439,119951,50487.7,49054.1
61499.7,61421.4,48890.5,78679.6,75069.7,95305.4,42056.9,44914.4
80607.6,47853.9,94907.8,56313.1,114036,110278,47687.4,50072.2
58742.1,56299.5,49136.5,66676.9,75400.5,86334.3,48290.9,37526.9
67510.8,44149.5,44624.6,52656,104083,94685.4,39453.1,37918.5
78987.6,62496,74962.7,81062,114130,91459.2,49342.1,50673.4
62019,56924.1,78883.9,49941.3,108206,72353.7,39498,44942.9
66094.2,52069.5,88979.5,43591.8,87835.5,76014.9,50232.8,40977.1
102348,53976.6,89575.8,85216.7,80885.5,107696,49435,44397.7
65553.3,70886.7,57026.1,69041.3,87597.8,101848,48262.5,50316.1
50769,46194.3,54157.2,60494.2,79488.5,85927,35457.4,37258.8
42762.6,76232.7,51696.9,95433.2,98078.4,140416,41072.7,39138.6
64347.3,48036.6,53288.4,48543,74005,94082.1,34131.2,42477
61096.5,64617.3,45304.3,60153.6,75264.3,82338,45503.6,47899.4
84420,55652.4,90384.8,72673.4,118580,106125,45107.2,40994.9
44926.2,51898.5,46799.9,49941.3,81883.5,79277.3,46207,41263.1
77643,64362.6,67869.5,68039.1,123308,87026.5,47930,43326.1
61594.2,105183,50480.6,146172,81031.4,74413.6,37086.2,42357
80138.7,122512,62434.6,99419.8,85265.4,76388.8,30613.4,36841.5
64442.7,63408.6,54292,71259.7,94269.8,95558.3,44812,45403.8
64281.6,71555.4,75912.1,68287.9,112687,94652,45122.7,37473.6
61447.5,58647.6,62345.7,67048,90705.8,84272.9,45224,52337.9
76100.4,58185.9,53081.3,63347.9,81662.5,105145,40798.6,48816.1
93013.2,60159.6,88470.7,58531.5,80571.4,73617.2,46956,44628
64778.4,57154.5,56866.3,58049.2,93779.1,73507.4,35284.1,45948.5
58492.8,55892.7,81730.6,48426.2,118543,93267.6,49464.9,52098.9
82789.2,74659.5,73289.1,57005.3,128720,148342,39202.2,45000.7
98173.8,54586.8,143398,57286.1,148580,102025,50034.6,44443.6
50878.8,61335.9,58054.7,65673.3,98067.3,88889.1,46111.9,47059.8
63454.5,67039.2,85045.8,66276.6,118019,77274.3,48168.5,46162.5
46158.3,69605.1,62932.2,94121.1,72666.4,114664,40737.3,47607.9
53516.7,50292,91688.6,51692.7,88019,78252.8,47526.5,50164.7
47836.8,53387.1,55205.2,85763,108107,141189,42010.7,47767.6
61140.6,82242,58485.6,84413.3,144332,105286,29109.7,37642.2
93472.2,57705.3,70563.4,54629.8,75917.6,243203,44232,28783.1
69498,56075.4,64654.5,35547.9,88277.5,75768.9,44935.4,40969.7
61734.6,64722.6,52797.8,56110.1,81588.8,81643,45167.4,43961.6
75712.5,72379.8,79268.9,72154.9,143183,108730,48143.6,50873.3
52849.8,82004.4,79320.4,93663.8,93221.7,93567.9,45385.6,52435
64209.6,54279,68582.6,39249.4,102501,76594.6,46956.7,40984.2
91633.5,53682.3,103346,51457.8,137346,81688.9,49238.3,35639.3
58833,50669.1,67189.8,58377.2,122164,77265.9,49325.9,32572.8
65708.1,77454.9,59006.9,98553.8,108895,113790,45048.5,45564.5
65966.4,53320.5,62818.3,72343.9,78543.3,134976,50819.5,41188.5
77823,48948.3,72445.4,44735.8,120360,74586,49465.3,44372.9
66591.9,43731,49135.1,55538.8,88050.9,72998.6,38124.7,31268.5
131965,63353.7,96910.8,69816.9,115091,97190.2,45908.4,44567.6
55089,60001.2,47690.9,56518.8,74966.9,85383.5,38670.6,44526.9
49316.4,51588,48206.6,60590.1,104926,79524.7,34691,41605.4
78147.9,49510.8,75029.4,73140.4,102639,90690.5,36233.2,44718.6
45299.7,69174.9,45598.9,75805,76782.2,91110.3,46633,43239
61206.3,55799.1,64992.2,61881.4,115879,111043,41935,43625.6
66399.3,43028.1,76169.2,63962.2,114065,75581.2,48550.9,43997.3
86014.8,102136,93850,155902,116161,89454.8,45934.5,51900.5
52377.3,65194.2,44375.8,51172.8,81342.8,82969.1,47399.3,45284.5
43661.7,52368.3,46149.4,68475.6,74687.5,75870.4,33820.3,29872.3
62766.9,44250.3,54101.6,35987.1,92789.4,72535.8,37494.3,30992.8
60362.1,63832.5,40735.3,68937,75638.2,115641,39593,51574
92322.9,61638.3,131828,47342,75673,74864,44234.3,42430.2
57505.5,45223.2,46471.9,44595.4,82674.4,77083.8,44404.7,35259.7
62523,59069.7,60131.4,46239.7,80968.9,72487.1,46817.2,38978.8
73496.7,58482.9,63420.1,68703.5,87938.4,76158.1,46450.9,38678.1
89258.4,52330.5,73512.9,60027.1,78997.9,75919,46141.5,43482.7
106196,63316.8,138722,56404.8,82256,81049.5,46379.1,45037.7
57119.4,44866.8,52785.2,51834.5,78136.1,78999.3,35205.8,45800.9
58680,51457.5,62944.8,62213.6,96199.1,82360.3,49121.3,37080.2
100043,61939.8,113392,71312.6,132061,85554.5,49883.9,39153.7
56319.3,46216.8,52728.3,65331.4,101555,76889.2,42387.6,39471.8
112180,42056.1,139486,58466.2,87261.4,85465.5,48921.7,45371.7
55999.8,72789.3,77067.2,72204.9,128394,113974,52907.5,52752.1
44014.5,66517.2,69627.9,90725.3,93150.9,132277,45377.1,49097.3
67113,53053.2,71601.7,49699.4,93016,76406.9,45892.4,36400.2
62687.7,73598.4,57660,93808.3,127157,93341.3,50726.3,39159.4
52839.9,46829.7,65197.9,58544,131135,81413.7,47888.3,36567.2
50691.6,69418.8,45842.2,60141.1,74798.7,79943.1,43913.1,41312.9
44411.4,52326.9,49317.2,48395.6,103445,76637.6,44714.9,44383.9
85501.8,54412.2,88784.9,54311.5,78205.6,73321.1,45059.6,44665.6
72985.5,55345.5,81983.6,49556.3,143384,83216.5,46313.6,34112
50288.4,57329.1,43794.7,84651,80513,99781.1,47979.9,44091
57347.1,58957.2,44338.2,73157.1,73197.4,104303,43780.7,47308
75852,62929.8,77288.2,61485.3,158972,110067,49935.8,37692.6
67075.2,72717.3,49112.9,72392.6,77261.8,93071.6,34658,44910.3
43579.8,50647.5,28137.8,63335.3,75796.7,85810.3,45284.6,44516.3
48094.2,63603,54871.6,101587,104217,122227,34205,52218.9
45291.6,100205,67782,143933,90081.7,88363.7,50962,50885.5
68145.3,88414.2,55198.3,191364,76953.2,115754,49545.5,52817.9
87080.4,58943.7,100329,91690,88103.8,85065.2,35975.2,32309.8
49403.7,52976.7,61592.3,67312.1,126286,103182,48432.6,52157.2
66166.2,61969.5,107396,60947.3,85610.1,100629,40381.7,44684.3
57350.7,51445.8,66373.9,52902,109447,90536.3,50630.6,49939.8
45584.1,61287.3,55922.5,68000.2,96295,76747.5,29225.4,43800.1
53866.8,44066.7,49741.1,50792,89821.8,78425.2,41493.5,37906.7
71470.8,65152.8,53199.5,74399.8,92241.8,102899,39640.4,47757.5
54088.2,68204.7,71148.5,73140.4,91292.4,141021,41337.5,48149.2
71825.4,48264.3,52931.2,55536.1,92874.2,77021.3,43908.7,46625.3
64299.6,110942,64662.8,97181.9,87667.3,75542.3,48129.2,42797.8
100496,62527.5,107931,59058.3,76112.2,93123,32887.7,35378.5
41595.3,58600.8,56453.5,63179.7,83701.6,83458.4,36665.1,45160.3
81712.8,65983.5,76030.2,65273,246307,79395.4,37743.3,42330.3
86592.6,58130.1,140756,52585.1,96321.4,73657.5,39528.5,44882.2
44472.6,64503.9,49030.9,57736.4,97444.6,80164.1,29413.9,43200.5
83878.2,42298.2,84817.8,64343.1,150608,76066.4,45504,34439.3
83318.4,59658.3,73460.1,62997.6,126252,91660.8,42776.6,46784.9
50261.4,51126.3,58642.7,76105.3,74752.8,114911,43358.8,38288.3
84516.3,43832.7,102674,51803.9,169438,77773.3,51548,43049.4
58626.9,59148.9,96329.8,61499.2,116333,75611.8,46987.1,37598
56005.2,51197.4,60387.2,99082,79220.3,92870.1,45566,42632.8
58693.5,56349.9,58231.3,60624.8,101403,85807.5,46538.3,38721.5
58859.1,61309.8,62709.8,86859.7,96096.3,107429,47198.7,52433.7
62624.7,61274.7,42556.2,95734.9,115858,93724.9,44692.2,42357.1
65208.6,77479.2,63289.5,115321,141626,110576,48882.4,39542.8
65669.4,48970.8,66461.5,47109.9,101177,72598.3,45981.2,44028.7
44019.9,63958.5,24946.3,75016.9,139157,93698.5,27902.4,43920.5
54875.7,51365.7,64623.9,35970.4,104527,146952,41993.9,39524.1
140552,54012.6,220764,110915,159856,107441,50415.1,49544.8
53388,56511,69853.1,69825.3,112676,119579,40192.7,51631.5
71463.6,54272.7,53523.3,63485.5,93162,74779.2,41031.6,45971
86533.2,62811,132296,38259.8,79790.2,75924.6,45618,35205
49428.9,61353,48153.8,83725.3,90874,77457.8,32906.4,46942.3
83834.1,56623.5,73835.4,64532.1,104190,84564.8,43475.9,45859.1
98937,64912.5,153085,54339.3,80449,79057.6,35201.3,38011.9
65908.8,57371.4,46881.9,70015.7,89219.9,76989.3,41406.6,41117.9
62361.9,45580.5,46563.6,20346.8,76372.2,122184,46637.5,38128.7
71035.2,46491.3,74747.2,83122,96342.3,96571.6,45339.3,41599.8
46877.4,69372,80475.4,56025.3,113135,88159.4,47527,43492.9
69993,61042.5,82923.2,48679.2,118664,74570.7,36569.4,46935.3
64351.8,43244.1,62322,67107.8,99638,88169.1,47139.2,46276.7
66150,115484,66828.4,81611.1,96008.7,80303.1,45969.1,43904.1
64655.1,54092.7,76440.3,39799.9,89060.1,83400,44946,42996.9
63556.2,53346.6,46697.1,92312.7,95612.5,118128,44121.6,45776.3
51534,45623.7,72239.7,43854.5,128512,82813.4,46928.8,48894.7
67621.5,48123,70083.8,27779.2,113014,108762,49380.3,34824.6
58050.9,43200,47241.9,70420.2,81543,108104,47081.8,42607.2
68865.3,61946.1,75176.8,48758.4,93041,76679.4,45762.2,42818.6
50477.4,58606.2,44035.2,85412.7,75096.1,114273,38302.9,48971.1
74110.5,64845,65927.7,86125.8,99998,110957,45668.8,46827.2
54057.6,52642.8,62367.9,59706.1,84817.8,75047.5,32761.2,39611.3
52223.4,64315.8,84040.8,56356.2,141463,101273,45441.4,44829.4
61722,63228.6,82902.4,71815.7,125720,78579.5,47779.9,39172.7
44127,56536.2,42126.7,62002.3,74182.9,117958,46759.6,43535.1
42222.6,69087.6,45622.6,45714.3,87025.1,73993.9,41143.9,38720
58386.6,112113,41234.3,135166,75119.8,113635,45669,42121.8
46411.2,43099.2,63334,55035.7,141635,76205.4,40749.2,38729.1
80861.4,58615.2,88734.8,51086.7,140290,73651.9,45941.9,46269.6
83673,76168.8,130349,91096.4,88231.6,106418,44952.5,46810.6
46845.9,58117.5,83498.7,64333.4,134075,88194.1,47655.6,38721.1
64321.2,45527.4,60644.3,46125.8,86851.4,77197.8,48933.1,39116.8
119128,41545.8,181387,70364.6,108014,86812.4,52250.2,45690.3
54665.1,60944.4,50618.2,59683.8,95527.8,94308.7,40403.8,45133
51547.5,73315.8,85218.1,82010,113206,94350.4,47185.2,42170.7
43734.6,74343.6,56550.8,155337,86130,78833.9,31477.1,41824.9
99208.8,60072.3,117208,64783.7,133775,73606.1,48466.3,43829.1
73043.1,68044.5,90486.2,58637.1,144712,75453.4,51638.3,44875.1
86349.6,53953.2,106575,55005.1,151049,93541.4,44361.3,44048.8
56803.5,53079.3,62490.2,48474.9,124295,102927,52396.1,41408.3
79139.7,55350,77830.3,61713.2,100265,92318.2,45010.9,38219.7
79056,104011,119110,198314,134740,113552,46040.2,50243.9
66925.8,72179.1,80355.9,87278.1,107207,119650,45493.6,51762.2
143829,53493.3,113677,67416.4,84774.7,97981.1,30992,45404.9
50857.2,69802.2,45799.1,92369.7,82907.9,99993.8,45539.8,48596.3
64377,95328.9,96254.7,110558,78375.1,82043.4,51612.6,41240
73127.7,51241.5,114073,56945.5,88540.2,106571,40342.6,44643.4
53868.6,58792.5,53373.2,54371.2,77545.3,94183.6,28155.9,44666.5
55434.6,60906.6,92932.6,70609.2,115086,97708.7,40584.9,45682.1
60742.8,93667.5,67524.8,96434,77114.4,95201.1,30157.2,43960.7
66348.9,66485.7,63514.7,80446.2,77742.7,100647,36940.2,42124.6
58969.8,55158.3,53453.8,50137.3,111101,104557,37264.1,39468.5
98388,55743.3,73401.7,73342,79724.8,83134.5,51216.6,44758.4
50971.5,48290.4,68682.7,69804.4,103146,94803.6,51649.9,35908.2
61248.6,53289.9,67684.7,60590.1,79366.2,101148,31322.6,44938.4
63446.4,62753.4,59635.2,76028.8,79648.4,107111,49830.9,51599.3
89778.6,55755.9,178294,51502.3,77663.5,80296.1,28525.3,45229
65644.2,50877.9,95170.5,39755.4,136362,86698.5,51213.3,31740.4
69081.3,49772.7,58256.3,91003.3,72748.4,97676.7,48778.1,38458.1
45119.7,62088.3,29074.6,76319.3,132659,107476,30151,46498
58073.4,120468,66650.5,139031,97469.6,117273,34218.1,36733.5
53705.7,44838.9,58286.9,41488.7,96528.5,77050.5,45485.1,44935.3
67527.9,48036.6,56745.4,57721.1,88385.9,72744.3,42205.5,44081.5
67295.7,44653.5,64230.5,42971.8,82357.5,100484,39282.1,48547.1
83237.4,57035.7,61549.2,67256.5,126735,91542.6,46191.5,51853.1
52563.6,59977.8,30307.6,62556.9,219097,96434,29524,50100.7
46368.9,55134,51849.8,52539.2,76993.5,85940.9,30039.5,44623.9
67197.6,41937.3,66938.2,26038.9,83771.1,120248,42007,38281.5
52594.2,50049,92379.4,45168.1,128308,93419.1,46445.9,36683.6
62293.5,42342.3,70742.7,38052.6,97765.6,78636.5,44549.9,37837.5
77341.5,46154.7,59665.8,81359.5,92202.9,124704,44841.9,49332.3
65927.7,52000.2,52970.1,46937.5,90918.5,72291.1,46540.6,43171.6
48130.2,56970.9,85136.1,61300.4,102690,87784.1,38576.2,43907.5
51431.4,61343.1,71813,70475.8,118407,92714.4,52675.4,47336.9
65203.2,49671.9,50708.6,69412.4,98728.9,79551.1,42834.1,38804.9
60162.3,52627.5,65079.8,64740.6,104856,135606,47812.4,28062.4
59427,79464.6,62201.1,77208.9,103356,96727.3,43559,49334.8
55337.4,66983.4,45846.4,60510.9,84268.8,103798,39513.9,42961.2
51650.1,53379,54451.9,48328.9,83972.7,76448.6,38563.2,46020.2
73499.4,59977.8,47111.3,57190.2,72863.8,72581.6,43152.6,40170.7
74931.3,71619.3,71718.4,50140.1,123299,84637.1,51277.4,42470.3
76469.4,47925.9,89485.4,91724.7,80778.5,131911,51875.7,48855.4
76353.3,116993,69614,149575,96338.1,93495.6,43030.6,29594.5
59077.8,84775.5,50557.1,106411,80519.9,115139,46963.6,41151.4
57881.7,131792,38430.7,197719,77388.2,105547,37238.6,36892.8
65858.4,54734.4,108061,48527.7,191096,91605.2,43170.3,46628.5
73409.4,55458,84991.5,73300.3,128950,83897.6,45992,44180.3
56425.5,57126.6,58897.1,53608.1,74395.6,77193.6,45836.9,43759.5
57564.9,62115.3,67978,67586,110865,92886.8,44273.1,48168.6
66906,46916.1,57383.4,57237.4,86887.5,101049,38143.9,47784.7
59039.1,49909.5,84941.5,53655.4,105626,78194.4,33236.8,35463.5
55000.8,91368,59305.7,91698.3,78651.8,118372,40354.2,51773.2
56207.7,72568.8,43979.6,87072.4,72609.4,103114,40293.3,49417.3
90060.3,63044.1,64248.6,54923.1,76647.4,92899.3,46297.6,40635.7
96523.2,56748.6,118630,78280.6,128265,119776,52680.3,52434.3
120933,74998.8,133247,100004,103359,85658.8,46680.9,45563.2
46278.9,68260.5,54729.9,74258,75257.4,92262.6,34403.3,45908.5
58337.1,70355.7,56906.6,83793.4,91645.5,115655,38081.3,46105.2
60641.1,74266.2,91234,67940.4,105205,105248,46097.8,46329.7
45170.1,61386.3,58934.6,85454.4,87750.7,110548,40267,52625.2
50033.7,53446.5,42674.4,61524.2,80725.6,103373,44038.1,52868.6
63464.4,65529,45612.8,82821.8,98844.3,110223,44513.1,51499.1
69039,42518.7,72174.4,53897.2,119819,94603.4,51665.4,48359.1
64807.2,51517.8,59494.8,67573.5,87108.5,84242.3,48190.8,45580.8
49547.7,65681.1,47710.4,109336,107277,150223,49705.3,47862.1
76923,63498.6,82395,83495.9,108430,107686,45682,47289.3
73024.2,107408,55244.2,129522,75584,87308.7,40013.5,44883.3
42735.6,110949,31700.3,90874,74615.2,73308.6,46568,46523.1
59273.1,68174.1,35875.9,82680,78986.8,97409.8,37710.2,46394
54236.7,70140.6,46170.2,83401.4,79346.8,113525,45908.7,46272.3
46944,66235.5,30000.4,72541.3,133701,72740.1,40978.4,46464.1
69129,74616.3,55235.8,47767.3,86641.5,78429.4,38374.3,46783.1
62346.6,58225.5,47777.1,77065.8,79951.4,101563,39598.7,41464.3
76513.5,53816.4,82407.5,63277,108435,88449.9,47488.8,46830.4
49085.1,65839.5,62534.7,76035.8,80162.7,94368.5,32283.4,47329.7
54151.2,61824.6,77177,28800.8,115986,106791,44848.6,45046.5
103248,66846.6,111880,62904.4,97607.2,107794,34939.9,44081.2
75216.6,59610.6,59927.1,69374.9,84735.8,133166,38659.3,44700.3
89154,51335.1,118331,37042.1,106549,72323.1,50037.4,42474
60188.4,72338.4,67627.7,52394.7,81171.8,72866.6,39651,41173.1
55631.7,59576.4,29926.7,73319.7,176533,89525.7,41494.2,52396.8
46438.2,51944.4,57865.7,97432,93125.8,105554,33706.3,38782.9
86872.5,84793.5,120617,61021,91876.2,121906,43653.3,45375.6
67346.1,61029,65231.3,68449.2,86376,98425.9,39269.8,41147.1
47684.7,41052.6,47978.6,49193.5,74986.3,80950.8,45947.9,46847.1
62656.2,66469.5,45229.2,75061.4,106314,90277.7,39643.6,48832.1
81612.9,60199.2,82222.7,66070.9,148577,86704,47923.3,41404.9
107099,43888.5,125568,39873.5,104343,78309.8,45165.9,44997.3
63215.1,61501.5,57244.4,57983.8,81519.3,95626.4,42738.9,48734.4
76783.5,57809.7,64487.7,70952.5,87811.9,83475.1,44790.5,43661.2
62514,135229,85296,164993,103113,103811,46196.8,49318.6
55683,97323.3,62013.5,173803,88598.6,92725.5,49886.9,39323.2
78619.5,44786.7,94536.7,61383.8,132856,84229.8,41783.3,46753.1
73183.5,49743.9,61766,41643,110077,77496.7,47352.7,31883
85747.5,59840.1,72170.2,55812.7,148986,86242.5,47205.8,38679.9
57022.2,53379,78162.5,50179,98054.8,86022.9,38418.7,45788.4
62348.4,61507.8,53155,67203.7,74975.2,86363.5,46319.4,36494.4
92502,70263.9,73863.2,67812.5,116942,105607,45287.6,50039.9
67050.9,57278.7,49318.6,47754.8,101307,123912,46243.1,33869.4
56130.3,61122.6,61039.1,64618.3,93845.9,89089.3,41949.4,36999.7
55974.6,61146.9,53551.1,55144.1,90957.4,82447.9,46882.5,38352.9
60149.7,66225.6,65766.5,84986,107939,179794,48145.6,47584.9
44540.1,41618.7,49025.3,48098.2,94393.5,80332.3,41781.3,46552.3
63963,83600.1,86157.8,69287.3,118870,77293.7,51198.3,49988.5
61060.5,120239,62206.7,174483,84549.5,112308,49266.6,40880.9
60396.3,67782.6,71412.6,58398.1,125302,74994.7,48007.1,43278.7
62040.6,70597.8,54438,58684.4,77703.8,84937.3,34887.2,33521.2
63341.1,44600.4,73882.7,62046.8,89254.7,94660.4,43978.1,39744.5
93524.4,70026.3,130843,73710.3,108927,76912.9,47340.8,39744.8
61977.6,50505.3,72057.6,49068.4,73601.9,74736.1,40586.4,43534.6
50228.1,88870.5,68838.4,73476.8,96499.4,83564,31115,46084.8
46097.1,44808.3,49110.1,37920.6,99258.5,85864.5,45118.6,35598.8
87957,87781.5,79822.1,63270,104438,73672.8,42909.1,36430.4
96664.5,61614.9,81384.5,55456.8,86011.8,77411.9,48507.7,40794.7
59884.2,65490.3,69776.6,76905.9,101573,104192,41662.7,44289
51340.5,59351.4,60157.8,79713.7,97696.1,117292,43020.7,47630.4
71524.8,99802.8,95420.7,97090.1,90345.8,86847.2,43650.3,47750.3
46830.6,52362,57119.3,49718.9,97422.3,72790.1,45030,30933.1
56355.3,57940.2,45052.7,74865.4,86708.2,97963,39589.4,51631.4
60931.8,57194.1,61574.2,52550.3,101626,76771.1,42020.7,45146.1
60097.5,63810.9,60326,70208.9,108638,82153.2,38569.8,44905.5
47555.1,55243.8,47246.1,65485.7,111738,85379.4,48254.3,40686.5
63155.7,68067.9,100715,86705.4,123397,106816,51473.9,48747.1
58626.9,93822.3,50511.2,92029.1,74110.6,106282,45756,42833.5
56217.6,94045.5,46938.9,102178,81823.7,137429,43112.4,44231.1
59334.3,165855,106974,162583,149442,132057,47976.6,30900.8
73843.2,59185.8,97276.4,65060.3,124234,81857.1,30858.9,44357.9
53269.2,48321,55488.8,75497.9,96359,104650,36268.9,44047.8
66815.1,50121.9,56903.8,45568.4,96182.4,73403.1,43449.4,39141.4
62075.7,60121.8,49424.2,65779,111128,83330.5,37976.2,45452.9
58626,55007.1,44056.1,66782.5,85375.2,97782.3,45799.1,40643.3
81803.7,56470.5,119305,49589.6,166842,74064.8,49123.8,40517.4
60183,39521.7,54895.3,26287.7,93342.7,78230.6,45646.5,38989.9
74952,53912.7,70530,60405.2,104727,75492.3,38073.4,44662.3
78719.4,56261.7,70473,37135.2,91576,108551,45687.2,33132.6
64485,53036.1,50262.4,58830.4,73817.3,76486.1,44349.3,44874.8
148294,52438.5,127192,45120.8,128268,93897.3,52432.7,48176
97586.1,58293,140012,74626.3,107295,96435.4,50581.7,45522
54296.1,129550,45389.1,134164,74170.4,86426,47160.4,41389
62497.8,55776.6,109702,56938.6,85917.3,77406.3,43184.8,43554.1
59555.7,49678.2,114383,54432.4,160282,77838.6,48737.8,45372.4
53044.2,166288,58769.2,145858,112144,123707,38303.1,44178.5
60392.7,43508.7,69462.5,57386.1,108152,103919,49077.2,52209.9
61946.1,67828.5,72516.3,65908.2,92429.4,94342.1,41808.6,50690.3
52933.5,63141.3,44018.5,65353.6,84349.4,97615.5,36116.4,42761.1
61164.9,57824.1,65042.3,80258.6,95967,79740.1,33496.8,41285.9
75605.4,59617.8,87788.2,63839.9,166261,90483.4,48292.4,51538.9
45174.6,96236.1,37500.8,184239,78415.5,111308,47140.8,41595.8
84633.3,69477.3,92444.7,61974.5,148478,83009.4,45028.9,44246
82694.7,76556.7,63937.2,80700.6,113987,116223,47325.1,50031.2
50961.6,84417.3,37960.9,113691,79852.7,89695.3,44637,44089.3
84244.5,59258.7,166427,49269.9,132491,75471.4,50434.7,43025.7
84595.5,45606.6,62676.5,73818.7,79141,76794.7,41582.4,40508.2
71928,108954,63858,217477,114799,120940,43902.6,47993.5
75869.1,60866.1,71500.2,69915.6,102682,93141.1,49086.3,46467.3
66820.5,48319.2,60084.1,72129.9,85749.1,102372,45812.7,52336.8
66331.8,110049,57280.5,84471.7,138857,76099.7,40565.6,41949.6
53038.8,58593.6,59505.9,56700.9,87008.4,85635.1,46954.7,42557.5
40639.5,56158.2,37985.9,60174.5,76789.2,103690,47455.6,43219.7
51294.6,57429.9,52182,47743.7,84456.4,81791.8,46444.2,35465.8
62978.4,65841.3,69701.5,62327.6,102094,78418.2,47008.3,43724.1
78624,49407.3,83217.9,61325.4,125374,80362.9,52542.7,45478.1
64344.6,60281.1,83748.9,66511.5,108444,214017,48113.9,35949.8
66220.2,52773.3,76394.4,60512.3,73594.9,82691.1,47960.6,47533
64959.3,47711.7,72637.2,35066.9,95174.7,99850.6,52422.6,44816.8
88774.2,50595.3,118186,65824.8,163891,72318.9,47305.2,40708.8
63392.4,47095.2,71547.5,76024.7,132988,89994.2,40473.1,46185.2
54310.5,62838.9,47044.6,61925.9,75869,75663.3,46402.2,44590.5
66245.4,64404,90020.6,70429.9,110256,103445,44729.9,51264.6
83517.3,132250,93951.5,115077,129915,102550,43656.2,43062.9
50535.9,53579.7,36404.1,54916.1,77400.8,74533.2,45625.4,45650.9
50065.2,57663,47856.3,55944.7,74302.5,83950.4,44493.5,31914.3
57724.2,72213.3,63620.3,68970.4,78995.1,91389.7,47938.9,42352.7
82209.6,55701.9,55017.6,58545.4,104226,93016,37186.2,41836.4
71931.6,59250.6,89225.5,60780.5,136495,78204.2,45837.3,44897.1
51349.5,47099.7,94595.1,70136.6,81951.6,97571,40195.5,43699.6
73772.1,48737.7,105070,77638.4,116937,95116.3,37255,51072.4
63414,54551.7,94059.9,65842.9,115905,93130,40638.6,39524.6
57147.3,52177.5,37877.5,79216.1,75265.7,107794,33949.9,37505.1
52158.6,73237.5,85401.6,89916.3,91403.6,113513,26981.6,44282.3
61781.4,66544.2,48541.6,69184.5,83634.9,86388.5,40009.2,44347
63778.5,63381.6,63966.4,70584.2,91339.7,88736.2,47713.1,46479
115566,75032.1,144880,55455.4,81606.9,73782.6,47963.4,41658.2
53857.8,75826.8,101830,58085.3,134569,111542,45828.5,35918.5
75968.1,84609.9,74563.8,122925,137560,161480,48578.2,45880.3
85001.4,50934.6,112101,28062.7,128725,73785.4,44349.2,35493.4
44666.1,50445,67612.4,55384.6,75998.2,100083,43299,52819.9
53780.4,50268.6,68871.7,63471.6,89678.6,89712,35485.8,44462.5
94767.3,109058,119533,116293,101266,107719,48142.1,49895.6
72920.7,47730.6,115389,80011.2,167053,104527,45963.2,49783.5
41614.2,59697,59159.8,78414.1,94396.3,105170,31378.4,43576.3
83694.6,51934.5,109893,56203.3,74351.1,78952,35793,46230.8
82533.6,71173.8,72872.1,53113.3,107826,78455.8,50731.1,47813.4
58724.1,98968.5,59115.3,165990,79610.9,99956.3,45239.8,33760.9
43173.9,52803,55716.8,54228.1,81555.5,78965.9,33906.9,45172.5
69223.5,49568.4,74348.3,63732.9,107986,78415.5,45230.4,43339.2
77147.1,62659.8,93720.8,60359.4,135943,84806.7,51818.6,44334.8
73045.8,57739.5,116322,42549.3,88875.2,81916.9,46464,40869.5
60388.2,87170.4,62087.1,118834,98457.9,133632,47787.3,47155.4
52248.6,68956.2,54707.6,53271.8,103768,74907.1,28894.2,38248.9
78953.4,43921.8,69365.2,68818.9,97001.1,80995.3,45846.6,37298.9
52914.6,74052,47624.2,94889.7,73717.3,115162,32610.4,48902.6
48774.6,58222.8,66026.4,61893.9,84332.7,94711.8,49491.6,46143.5
69982.2,60179.4,74010.5,73553.2,103497,100120,50253.5,47090.3
66153.6,58065.3,60912.6,50440.3,93082.7,74861.2,46322.2,44883.7
62909.1,60849,53876.4,53774.9,84272.9,81237.2,45728.4,45022.3
60309,88313.4,49663.3,115894,75058.6,141598,43429.2,47895.2
79496.1,57096.9,101717,62312.3,101527,86193.9,51872.6,41296.4
73038.6,48509.1,76697.4,75552.1,109738,101252,39815.1,52049.9
60945.3,116204,55531.9,180348,78907.5,135526,46851.1,51523.1
56999.7,60861.6,76787.8,60637.4,78908.9,103858,31499.9,43398.2
71784.9,56067.3,89478.5,78647.6,133334,83432,43630.6,34683.5
42133.5,68184.9,60000.7,82158.7,105641,82010,49552.1,37948.4
98094.6,52939.8,150752,40690.9,169139,88593,52266.8,42447.9
117581,51538.5,146784,51417.5,132043,73425.4,46791.8,37586.6
58910.4,58894.2,62677.9,68906.5,228063,99148.7,35512,46845
133114,48538.8,157625,64864.3,83484.8,74351.1,38683.3,43169.8
57067.2,75647.7,49581.3,45042.9,85065.2,77730.2,47859.8,39692.8
58842,57445.2,62408.2,52629.6,80019.5,77260.4,48397.6,37432.5
64125,42887.7,63919.1,65487.1,126015,102065,45191.7,48855.4
61240.5,63828.9,60228.7,74946,96646.7,104388,36843.1,42381.4
52737.3,79121.7,89299.2,56021.2,115516,85761.6,50552.9,42416.5
62461.8,61133.4,57878.2,78434.9,93339.9,115431,32358.2,45140.7
50389.2,72801.9,57090.1,58715,87948.1,85676.8,38727.7,38709.8
55302.3,42948.9,57869.9,53088.3,84927.6,78865.8,42330,46059
171316,56901.6,149497,106823,184731,161248,50597.1,48532.9
62003.7,54306.9,71992.3,64561.3,80240.5,85927,46660,45605.8
65177.1,41689.8,38611.4,45371,76338.8,73941,38740.7,27771.6
99350.1,70750.8,82415.9,70149.1,76972.6,85686.5,48046.3,42334.5
52168.5,152417,43162.3,130492,74516.5,109125,31437.4,33409.7
76460.4,60447.6,99557.4,66902.1,103135,75970.4,51397.3,46167.6
90618.3,58639.5,191738,66494.8,174527,93663.8,51438,47929.2
54387,45404.1,44724.6,61073.8,75759.2,95654.2,32549.5,46984.8
61328.7,43776.9,50394.4,60453.9,84548.1,103768,38585.9,50165.4
59623.2,54303.3,51744.1,55714,78813,225541,48875.7,33032.1
72241.2,124127,86488.6,201172,105055,166883,47449,49658.8
54387,52416.9,44113,69518.1,76693.2,95864.1,43105.8,48454.4
61738.2,52710.3,44863.6,54349,153093,72573.3,37739.5,38033.2
60188.4,61420.5,72898.5,84288.2,76016.3,107767,42763.1,44802.3
75649.5,63990,87269.8,56693.9,114706,96666.2,45132.1,50635.4
72063,98842.5,111067,108230,91916.5,89165.7,47421.5,27398.8
55032.3,42034.5,69361,47189.1,82618.8,103541,29957.8,41939.6
109120,63252.9,110226,77792.7,105294,136416,48554.7,49924.1
52989.3,44579.7,47970.3,18760.8,72375.9,78510,33938.8,34363.1
75957.3,57198.6,69711.3,52100,82509,84778.9,44580.6,47771.9
59369.4,45160.2,52214,56759.3,83741.9,81384.5,35026.1,41310.9
60139.8,42928.2,75534,61317.1,100295,81483.2,43978.4,28962.6
57917.7,61595.1,101046,69523.6,118495,105658,44662.9,45570.5
41111.1,49775.4,38177.7,67588.8,72829,81961.4,30671.7,44005.1
78283.8,67240.8,83345.8,94478.3,73244.7,129886,45359.4,52615.9
64987.2,57437.1,75649.4,67688.8,85826.9,86812.4,42358.4,43136.9
73628.1,52480.8,68748,63521.6,102045,78330.7,42517.7,35333.2
81294.3,41439.6,77659.3,28571.4,107250,100800,49097.6,38688.3
45311.4,44392.5,66859,48939.1,127823,90220.7,39745,42227.6
94950.9,53496,86366.3,59846.4,79883.3,88384.5,46880.7,41644
45453.6,77353.2,47290.6,64377.8,81638.9,102863,37787.4,52708.7
84735.9,132496,160164,90954.6,136417,82486.8,27349.1,50975.4
58608.9,49162.5,60580.4,48536,110269,79280,45506.5,40224.7
47951.1,50960.7,51938.7,53387.1,78069.4,78254.2,51671.5,46386.6
84925.8,50614.2,76725.2,69951.8,132927,91787.3,49097.6,40520.9
60853.5,55971.9,39407.9,61627,82566,80221.1,42685.2,43600
53476.2,98381.7,59628.2,147315,79998.7,91334.1,47528.2,37282.7
45538.2,68522.4,58716.4,61533.9,88789,78857.5,51077.9,37198
137762,58114.8,144518,52593.4,163513,73677,41952.8,45342.9
46726.2,95702.4,66695,123089,72720.6,116706,41522,49834.9
48609,56526.3,93581.8,46225.8,104217,89553.5,32297.9,45014.8
81542.7,135036,71769.9,134744,82806.5,91931.8,47302,45967
85923.9,68134.5,81982.2,62837.7,144297,75414.5,45793.8,38374.2
115783,48396.6,97584.9,54330.9,99683.9,82003,44203.2,38874.4
85098.6,66917.7,75299.1,95844.7,130315,111849,45960.9,51573.5
90719.1,71487,84300.7,74481.8,100512,127010,47673.1,50801.4
63321.3,60694.2,58988.8,53237,108111,81063.4,37317.9,44586.9
127773,57055.5,166750,86338.5,85927,148081,37215.7,45743.2
52329.6,128204,46041,155986,79633.1,75190.7,48187.1,40434.3
45216,59867.1,56645.3,88397,78478,93396.9,29175.5,41669
63022.5,57532.5,113988,60704.1,128316,86870.8,45437.8,42338.2
61904.7,70942.5,60588.7,83181.8,104439,105943,48623.4,48443.9
141916,53379,138101,65663.6,176712,93579,46572,46707.8
73919.7,53079.3,66799.2,84916.5,93198.1,129367,45657.5,45510.5
56453.4,51017.4,68442.2,60726.3,129908,83840.6,42284.6,44692.6
61769.7,50382.9,57757.3,66701.9,99104.2,75488.1,48296.5,40717.7
81717.3,68595.3,73435.1,56411.8,74986.3,74859.8,42265.8,42497.1
64520.1,69523.2,69837.8,76861.4,86911.1,89363.1,44407.7,38461.3
98343,63557.1,80775.7,75859.2,107553,138115,46618.8,52146.1
59008.5,60897.6,69744.6,84762.2,114262,102061,46925.4,52416.7
52131.6,40119.3,48180.2,24113.7,77292.3,102089,43380.5,31193.1
58512.6,71630.1,69526.4,73443.4,86658.2,106784,40726.9,42676.8
63198,58270.5,70539.7,56200.5,115363,83798.9,46566.7,43173.5
80500.5,63675,71336.2,69682.1,112565,88561.1,44797.9,44453.5
64368.9,53272.8,42842.6,76422.2,81210.8,87735.4,37123.9,45998.5
60653.7,141539,53024.3,92348.8,83917.1,102911,43797.3,48103.2
66734.1,40614.3,64047,44260.4,94025.2,79387.1,41754.9,40419.4
58815.9,51219,56124,62126.1,118274,83969.9,46260.1,45849.7
53652.6,70497,86713.8,55196.9,83297.1,108506,43893.2,46885.6
48332.7,51374.7,61925.9,67199.5,107460,86880.6,36747.8,41271.7
68284.8,59830.2,43943.5,59047.2,83174.8,72984.7,41049.7,40372.2
137390,47230.2,99152.9,58649.7,85864.5,81269.1,46129.4,47170
56913.3,94995.9,49762,104164,98581.6,74194,46663.6,40148.3
53139.6,48003.3,47139.1,65168.8,86056.3,77816.4,38816.3,33812.6
76659.3,52855.2,102436,78724,110651,86920.9,50935.2,40697.5
46435.5,62613.9,46098,54244.8,72584.4,79264.8,28928.2,41363.7
71642.7,50582.7,77534.2,57343.1,201180,104534,44196.6,37688.8
63398.7,64085.4,58670.5,64780.9,86004.9,86036.8,30875.8,45981.1
83873.7,63887.4,75763.3,89104.6,101574,111051,42859.5,33842.4
64638,65624.4,82913.5,78736.5,107881,113455,48445.3,50157.3
68243.4,42851.7,90102.6,40355.9,124363,78765.7,50172.2,45099.5
78644.7,61713.9,85454.4,58961,142743,91317.4,51977.2,42693.2
65788.2,54737.1,117333,52277.9,130361,104695,42945.7,43363.6
47716.2,64234.8,64515.5,51696.9,82746.7,78550.3,34712.3,40886.3
67306.5,58329.9,66717.2,78158.3,94331,94268.4,36091.6,41862.5
55390.5,59027.4,57890.7,62568.1,86890.3,92132,46036.2,44668
75963.6,98954.1,68814.7,166148,105971,120630,47058.4,52503.4
72359.1,49887,63253.3,70795.5,89029.5,99454.5,35278.3,46627.7
63474.3,58900.5,69689,70692.6,94394.9,97983.9,31677.3,45275.5
54971.1,47994.3,50222.1,67841.7,90894.9,85811.6,33511.7,37969.3
85153.5,49625.1,89094.8,57416.7,138502,75735.5,51493.4,42980.9
61834.5,50033.7,47499.1,41558.2,76437.5,101523,46434.8,42519.5
93410.1,68375.7,75945.4,72496.8,129469,80850.7,52099.4,45762.5
58462.2,51587.1,63161.6,75830.1,82671.6,89670.3,47496.2,41018.3
61507.8,68997.6,69602.9,70624.5,98033.9,88541.6,37664.7,43535.4
70179.3,76359.6,47544.9,82197.6,103415,94229.5,37453.3,43474.9
54992.7,43649.1,52346,69480.5,103597,104206,41699.8,48343.1
68287.5,63317.7,45637.9,73710.3,77525.9,82289.4,38267.5,50881.5
48923.1,52518.6,65434.2,51356.3,115027,73646.4,34986.8,44874.3
51841.8,51273.9,43070.5,42488.1,79502.4,72375.9,46190.5,34141.7
70903.8,90835.2,84545.4,183245,121176,90536.3,49353.7,49417.2
94200.3,77913,74754.2,55682,122391,95110.8,50330.6,45425
68428.8,48461.4,69847.5,74816.8,89119.9,72799.9,46275.4,42842.3
85825.8,68122.8,89581.3,67299.6,83733.6,101799,51371.5,46816.6
47619.9,78165,37247.8,51916.5,74344.1,84949.9,47697.2,37100
71552.7,71158.5,67501.2,62830.8,104866,73253,43237.6,38674.5
77031,57398.4,97466.8,65809.5,97219.4,101851,34641.9,52237
60117.3,60454.8,62957.3,66667.2,80261.4,82846.8,44892.6,45729.8
70183.8,50483.7,63183.8,50494.5,76277.6,73152.9,35181.9,43133.3
78289.2,49974.3,61371.3,97801.8,126332,126184,52834.4,46277.8
58200.3,83954.7,56991.4,155517,84398,116236,50043.8,51883.6
50962.5,67132.8,63334,93730.5,93517.8,80050.1,51708.6,47119
75809.7,67796.1,103348,60074.4,126393,91524.5,49184.7,48021.6
80873.1,54885.6,118306,65488.5,141665,81138.5,41380.5,32983.1
69079.5,55959.3,47757.6,54786.8,135054,78664.3,43971.1,45128.4
55790.1,46067.4,28431.1,54444.9,137054,74615.2,39413.7,37733.2
66727.8,86846.4,78740.7,90215.2,75869,120652,48296.8,52459.4
50778,55523.7,33262.7,44945.6,169848,79663.7,36869.3,41131.7
68989.5,54485.1,77509.2,86758.2,96864.9,123269,38889.3,41652.8
86121.9,82548.9,50869.8,116781,72533,74127.3,40200.3,37440.3
71086.5,57594.6,96377,78454.4,126825,107425,46373,47591.1
47259.9,97398,42296.3,116781,73315.5,107483,44161.3,47814.1
63806.4,95901.3,82899.6,109863,143335,95570.8,45991.6,50469.9
62711.1,54774.9,53334.3,63618.9,94415.8,93285.7,46878.9,34855.3
54803.7,66561.3,50493.1,88480.4,87550.5,114543,31645.5,49757.3
70716.6,63515.7,49375.6,84720.5,81652.8,122759,41710.8,52205.6
77674.5,143015,96774.6,117042,145673,80841,52716.5,46620.5
49084.2,62988.3,76112.2,90433.4,92601.8,138127,39875.5,44892.6
54370.8,64566.9,58156.2,73372.5,82873.2,114002,46690.7,44618.2
67516.2,67630.5,83149.8,68746.6,105817,77417.4,38369.8,43789.9
49282.2,57562.2,42534,65848.5,82581.3,93719.4,27454.4,44525.7
43713,43412.4,56193.5,54877.2,89844,88508.2,33903.3,38774.5
52224.3,89487,53695.7,103900,79513.6,88230.2,35627.4,41205.1
66294.9,100190,51484.2,152174,78080.5,113973,39833.8,50008.3
54734.4,55497.6,60287.1,56560.5,97693.4,74770.9,50240.5,41672.1
72788.4,53782.2,68389.4,47864.6,107618,79407.9,48954.3,40642.4
77002.2,46687.5,70304.8,62354,103716,112045,38424.6,50099.6
58665.6,58750.2,76539,51008.8,92143.1,90640.5,46734.6,44942.9
49345.2,48436.2,41542.9,69890.6,74909.9,165410,36668.3,52176.4
46308.6,61243.2,72113.2,64469.6,100508,102286,46141.5,45544.3
58658.4,52342.2,49894.1,59782.5,87276.7,96402.1,45660.1,52388.5
62436.6,64214.1,63514.7,58345.2,110608,74726.4,52339.3,47755
66489.3,41040,59098.6,43622.4,83258.2,79931.9,37681.3,27695.5
63234,62528.4,115869,75368.6,160045,118995,35313.9,40437.7
74524.5,72426.6,85671.3,95697.3,151457,84776.1,38751,45357.6
63308.7,70233.3,60403.8,78644.8,95069,158534,47633.9,48971.1
118869,53697.6,86583.1,73347.5,112960,86277.3,45569.6,49738.8
71145,49865.4,67226,62918.3,80585.2,84535.6,51067.1,41882
77823.9,70938,127954,74294.1,113681,93726.3,50415.5,45490.1
64610.1,60341.4,99582.4,70178.3,140243,103169,47079.3,44547.5
53067.6,49723.2,66696.4,59414.2,96616.1,77272.9,35489.1,45378.6
94004.1,71836.2,121350,98363.4,101453,131721,50467.4,48723.7
114367,66529.8,138519,75189.3,130076,89856.5,39284.1,44106.8
49289.4,72846,52440.5,73941,84689.9,92626.8,47751.7,43869.4
54039.6,62429.4,48351.1,78796.3,89468.7,102539,34986.4,44211.4
82332.9,66907.8,77227,65663.6,119523,102002,39931.2,41051.5
49541.4,95881.5,32498.2,125242,82742.5,129984,43975.4,44141.5
92338.2,62694.9,77773.3,84375.8,111596,107875,43583.7,48355.2
51725.7,57154.5,46577.5,62790.5,91580.1,100619,35256.5,52616
66946.5,150018,46473.3,156621,75952.4,105989,39658.9,44288.8
67637.7,104906,59127.8,215419,76718.3,99966,45018.9,44620.6
71251.2,59662.8,99596.3,57744.8,123039,75938.5,49125.9,46847.1
51713.1,47038.5,79523.3,27945.9,74438.7,89789.8,42311.6,39233.2
59858.1,108669,49516,103278,91502.3,72367.6,36787,43157.6
56546.1,69854.4,55098.2,68435.3,81302.5,121797,28873.6,50122.4
70845.3,52661.7,87289.2,53898.6,136469,91157.6,45467.2,46463.4
66921.3,82836,54432.4,77947,102581,91862.3,45629,48505
77730.3,58975.2,110013,54874.4,124247,93035.5,45852.4,40039.8
98388.9,77930.1,66221,64906.1,112785,87175.2,43502.4,40134.6
65641.5,109093,68611.8,166339,80814.6,80176.6,36282.7,31911.8
81167.4,65136.6,65537.1,65352.2,72426,79476,51737.2,51755.6
71868.6,59724,100088,54235,103734,93132.8,47800.8,44756.5
69011.1,53592.3,75699.4,72195.2,98993,87183.6,39677.2,50810.8
110780,61643.7,156831,81616.6,104992,104976,48585.7,46347
95659.2,56430,155385,60769.4,73515.7,82300.5,48860.2,46506.7
81651.6,46996.2,91933.2,42048.9,111684,80714.5,48733.1,42574.9
71344.8,56785.5,89472.9,74809.8,88794.6,82254.6,46005.6,46006.7
71154,73931.4,66682.5,62583.4,105256,90183.2,45827.6,47373.4
77047.2,131936,102565,82073.9,136517,86827.7,47772.7,48365.5
50499.9,101917,70771.9,113316,111589,109240,46333.4,46064
76185.9,62708.4,65167.4,111288,75895.4,132816,49870.6,47296.2
68237.1,55964.7,78740.7,60346.8,96135.2,85656,45618.2,45610.5
66213,68371.2,100843,64818.5,109347,97326.4,48250.6,43870.2
61901.1,45109.8,59692.2,54873,80650.6,83622.4,47150.4,27909.7
53559.9,43367.4,61681.2,43087.2,82807.9,80615.8,46758.5,38225.2
54219.6,49418.1,51086.7,50058.1,104554,83522.3,36863.7,33302.5
64786.5,68169.6,64974.2,76405.5,117783,111727,42781.5,47024.5
53376.3,73016.1,48506.8,82320,91147.9,116697,34846.2,44643.6
54325.8,64675.8,46214.7,47613.1,86612.3,75485.3,33135.1,48058.4
71016.3,45753.3,86346.8,42656.3,136002,80817.4,51934.5,43132.5
63461.7,72015.3,61759.1,97555.8,100596,77938.7,47501.7,40525.9
92880.9,55820.7,65756.7,62793.2,109296,78756,42834.3,38774
65934,54158.4,63941.4,57587.7,101945,81271.9,33322.5,46997.5
40826.7,68487.3,33942.4,59102.8,78788,99820.1,31220.9,46561
42037.2,42651,40956.3,71690.6,81010.6,84613.5,33379.9,45589
69416.1,64727.1,61257.3,81347,102877,126611,46066.7,48413.3
68634.9,77889.6,65071.5,69600.1,98471.8,121593,45917.2,49885.5
66626.1,51888.6,60210.6,65945.8,90323.6,73670,46268.5,44025.5
64621.8,66235.5,48259.4,74067.5,77117.2,88747.3,45031.5,45344.3
58316.4,75838.5,59624.1,65011.7,83591.8,104283,46258.9,42093.5
59267.7,52662.6,64958.9,47403.2,99023.6,73906.3,40384.9,43681.5
56224.8,42292.8,43687.7,37021.3,75838.4,92015.2,44518.5,45092.3
68994.9,99299.7,59893.7,111408,93460.8,91261.8,47622.7,46499.8
64528.2,41285.7,65325.8,24444.5,82447.9,115481,45982.6,34531.7
42147,55557,49867.6,63378.4,92002.7,81773.7,37647.9,40317.6
66177.9,86364,64765.7,79698.4,103456,90447.3,32607.6,43836.9
83166.3,44046.9,66783.9,27624.9,118549,135436,49860.8,36442.2
96757.2,54332.1,80713.1,61753.5,129174,86263.4,49622.5,39297.7
110450,48186,164121,92704.7,115181,94984.3,37163.3,51648.7
80655.3,96831,79762.4,132541,111652,73228,36563.5,42578.6
55068.3,67623.3,90281.9,55552.7,134057,79528.9,47410.3,45534.8
57283.2,143964,70947,133507,74344.1,102214,45053.5,48926.2
50868,83401.2,48758.4,60228.7,75311.6,83462.5,29762.8,38987.1
54849.6,52662.6,49990,56830.1,76647.4,98138.2,45228.7,46239.9
69417.9,116987,59419.7,182859,80426.8,77259,36731.1,47214
59644.8,68048.1,47722.9,57803.1,77008.8,73280.8,39107.3,38820.8
60565.5,46831.5,60806.9,55226.1,103486,77559.2,52662.8,45883.4
56778.3,59128.2,36462.5,57889.3,72330,101412,43125.6,47893.3
65894.4,56962.8,52268.2,73839.6,79319,96074,46066.8,45790.1
66734.1,64050.3,50712.8,67677.7,86870.8,166373,45831.2,41773.2
75568.5,80219.7,65434.2,74740.3,111725,86323.2,36827.5,47211.5
76916.7,77807.7,71423.8,112333,93317.6,128765,44534,46217.2
54637.2,49884.3,66389.2,49264.4,124897,78245.9,36018.4,43581.9
109991,49557.6,95611.1,55719.5,77138,88754.3,43615.7,39734
57513.6,54797.4,54734,69819.7,78693.5,110827,46447.8,52076.6
61686,54520.2,65032.5,50992.1,101067,75086.4,29872.5,44380.3
43299,70461.9,39570.5,87713.2,167901,156696,28460.1,41191.6
59371.2,49890.6,59690.8,57874,80118.2,75839.8,46746.7,39761.9
93723.3,81840.6,101919,44425.8,79077.1,77457.8,37851.3,41978.6
76870.8,46897.2,91268.8,60451.1,142442,73007,50190,31519.8
76045.5,68733.9,55405.4,84858.1,110562,118499,41884.1,43803.7
59583.6,75972.6,39106.3,72077.1,81659.7,99917.4,36728.8,39101.3
