"FSC-A","FSC-A","SSC-A","SSC-A","FITC-A","FITC-A","Comp-PE-A","Comp-PE-A"
97046.1,80265.6,118321,137859,113755,120813,46403,45364.3
61405.2,52726.5,93945.9,34473.4,124411,116065,42715.8,44414.7
102307,96111.9,139446,124205,154757,111898,52287,44928.9
76333.5,79920,68930.1,87959.2,73985.5,106738,33157.3,45742.1
79129.8,82265.4,82196.3,134038,108274,132295,48039,48708.8
51280.2,97836.3,73631.1,93395.5,95215,108249,40294.7,44832.6
73771.2,49862.7,111432,106940,99967.4,133526,45196.1,51404.5
79337.7,103250,79584.4,103117,118343,106621,48669.1,47037.8
113985,85671,90799,106842,131077,104454,44124.7,48132.1
67962.6,96925.5,73230.8,111613,89428.4,91698.3,44914.3,43118
63029.7,95820.3,103160,120883,104949,102312,43593,42902.3
59400.9,88094.7,71692,134071,88762.6,122852,45559.2,35930.7
104197,82665.9,141854,82051.7,133183,78932.5,51758.9,50644.8
75861,90945.9,58437,119712,105871,98204.9,48000,51905.7
73830.6,76130.1,96864.9,99807.6,81387.3,91567.6,36205.7,39406.1
67313.7,86685.3,96630,113210,106156,123378,50733.2,46112
105414,92451.6,105312,139856,104756,160448,49525.8,51380.9
55550.7,88366.5,39248,100569,219412,105305,47879.7,41046.9
94459.5,70866.9,96221.4,45259.8,85147.2,95292.8,51896.5,45231.8
64796.4,63918,73543.5,97586.3,83861.5,89506.3,44104.3,48986.5
60725.7,52423.2,64009.5,70783,97840.7,86854.1,36634.5,32410
79689.6,77265,97860.2,95896.1,102614,88223.3,42787.3,51109.1
74651.4,48412.8,83482,99437.8,75724.4,100184,47175.4,43027.7
71155.8,65778.3,84831.7,111909,98963.8,126009,50029.9,39073.1
80724.6,103536,92233.4,74599.9,100662,95650.1,45528.4,39907
66754.8,49386.6,95597.2,67531.8,99512.9,77039.4,50667.2,52030.3
58498.2,110970,66290.5,142264,91624.6,135172,42082.7,49808.8
66029.4,70118.1,79412.1,75796.7,87843.8,99954.9,31355.3,43164.3
92212.2,68634.9,79413.5,92783.9,89021.2,91370.3,47409.7,45742.3
56467.8,78153.3,98035.3,123400,100913,136281,47038.8,43381
62508.6,52512.3,65722,71945,88479.1,76922.6,40318.3,40547.8
104134,52704,114015,92461.4,140825,79674.8,47682.2,45712.7
68555.7,55602,81458.2,65570.5,111657,81661.1,46530.1,48149
81460.8,49189.5,67570.7,97543.2,83318,126004,48052.4,50586.7
69289.2,73854.9,93506.7,96739.8,122848,117148,52538.2,37896.1
101091,54047.7,116557,71421,106032,79726.2,44461,52275.7
81378,51405.3,88573.6,62783.5,109497,86182.8,49215.3,39298
59108.4,70361.1,78319.5,150359,95987.8,148763,42748.2,49584.2
81706.5,51932.7,121701,92380.8,121283,84717.7,50049.4,35707.7
77833.8,91442.7,80738.1,105494,92072.2,112081,46064,52088.7
60816.6,72069.3,71168,88052.3,81814,91274.4,45666.1,48238.2
71611.2,66706.2,89824.6,57924.1,80638.1,85795,37499.9,51632.3
86418,85259.7,67605.4,71775.4,87421.3,140929,44106.9,44444.2
69504.3,60677.1,88720.9,69882.2,99005.5,109146,47220,41662.7
79532.1,81822.6,83078.9,98991.6,101444,108088,47325.3,47689.6
77428.8,58852.8,80924.4,106895,103641,124252,50762.5,44711
61614,91903.5,102437,162927,112051,151043,47219.9,47247.2
54068.4,152434,78418.2,99315.5,99315.5,89061.5,37635.1,44920.9
64932.3,64576.8,70709.3,84225.7,110841,79102.1,52888.7,50802.4
48777.3,62521.2,72975,100860,82233.8,72435.7,47672.3,33832.2
59599.8,42769.8,58149.3,71883.9,79695.6,87825.8,31000.6,39385.7
63593.1,54457.2,57098.4,61540.9,95828,81089.8,46066.1,51013.2
49663.8,103558,81073.1,102490,133180,101843,48068.6,41805.4
85745.7,56271.6,91386.9,91432.8,133771,78045.7,49407,47923.6
44018.1,51783.3,80620,74319.1,73033.4,88889.1,34238.2,47179.3
66285,49482,65027,68987.1,81233,83327.7,33781.3,33170.9
92797.2,85475.7,152003,101489,187216,88347,49678.9,47924.1
70813.8,63508.5,77453.6,94399.1,98402.3,80422.6,52861.4,45328.4
53221.5,54948.6,74530.4,56213,94856.4,84171.4,50154.6,28964.7
75140.1,68335.2,84824.8,110249,100904,117750,42428.6,48704.1
76743,79355.7,97208.3,83979.6,116096,100288,41325.9,52660.6
49742.1,57784.5,61243.4,63404.8,108057,73756.2,43097.7,39628.4
54424.8,57324.6,112512,52632.3,103221,72758.2,50001.7,50550
71482.5,59221.8,50914.3,82214.3,78863,82453.4,37294.7,52290.2
73140.3,76403.7,42953.8,112226,75439.5,120248,33906,45085.6
46384.2,47582.1,73464.3,55594.4,94599.2,77542.5,32748.4,35809.4
93304.8,51703.2,120505,58210.4,127036,76750.2,46482.4,52786.4
96372,54923.4,91780.3,59949.3,94731.3,79177.2,52642.2,47266.2
72964.8,86288.4,86733.2,105127,95668.1,113293,41884.9,47390.3
81224.1,53553.6,102889,61411.6,113460,90639.1,47320.4,35400.7
52119,54933.3,100151,54047.4,122135,74465.1,50206.7,52568.8
72016.2,58389.3,77350.7,83226.2,81010.6,111689,42052.2,32394.8
75276.9,67158,69534.8,112933,95135.8,109104,46285.6,47313.2
68490.9,67571.1,101591,113061,107924,130440,43728.8,43475
82845,52527.6,84984.6,88213.6,129527,77343.8,42971,29215.8
79523.1,60393.6,95438.8,88848.8,109472,121273,49086,51821.4
74577.6,84446.1,60838.9,146157,89080.9,122966,52392.5,36429.6
65898,166577,54097.4,204127,73948,96568.9,30118,47312.8
86008.5,54443.7,139222,95769.6,109417,83975.5,47956,51890.5
60154.2,47844.9,75806.4,75807.8,79266.1,87504.7,40964.2,35384.9
43720.2,54320.4,35949.6,73086.2,79324.5,87514.4,43086.5,45591.3
61956,88517.7,89085.1,131516,106126,129894,38253.9,48873.7
66007.8,84498.3,87128,110962,106126,79926.4,46781.6,47418.4
68485.5,71855.1,88822.4,95142.7,92332.1,75053,44650.8,36411.3
110127,68256,115281,63033.7,100482,75502,40182.1,43397.1
68452.2,51757.2,109442,74815.4,117281,81251.1,45442.6,47272.2
56599.2,72688.5,65783.1,103096,91990.2,130022,48504.9,42944.7
74867.4,68579.1,89942.7,70190.8,101595,84475.9,52550.8,39159.9
64764,73893.6,68073.9,68386.6,100940,92753.3,38088.5,42442.7
48668.4,68605.2,63363.1,123781,83858.7,139979,34583,48326.5
50986.8,89319.6,67904.3,103651,77835.8,89240.8,31004.2,43164.1
88703.1,82106.1,82484,98054.8,84143.6,128378,42024.1,36207.3
77592.6,43546.5,61180.8,80811.8,81348.4,104449,35454.4,36000.4
52562.7,71987.4,58330,81066.2,72633.1,84074.1,40302.8,47986.4
57252.6,42882.3,84158.9,63610.6,85072.2,79925,47139.7,32350.9
98032.5,68832.9,127460,117866,97885.2,118582,36359.8,48452.9
86371.2,98846.1,97586.3,123603,115966,115777,43449.6,41776.3
70381.8,51535.8,86519.2,97429.3,84866.4,134495,47381.1,51124.4
42888.6,81840.6,71088.8,82124,104489,87474.1,50291.7,45383
83081.7,59875.2,78977,65819.3,77951.2,77884.5,39703.7,45576.4
54364.5,52471.8,93237,94695.1,125466,109478,37943.3,46438.6
70815.6,89547.3,86433,105044,84076.9,131490,52018.9,48293.2
55733.4,65739.6,92379.4,91156.2,91755.3,106272,46440.5,51140.5
70286.4,55179,64919.9,96763.5,85772.7,91310.5,52881.5,41731.6
60109.2,91121.4,58368.9,138461,74419.2,130944,43180.3,47090.8
85133.7,95423.4,122524,116581,114398,111803,50324,40199.5
65125.8,91935,85241.8,126947,113254,118784,47717.5,34272.8
67424.4,83025.9,72138.2,119805,117865,95502.7,48899.7,43022.1
70722.9,65917.8,63427.1,83889.3,91863.7,78639.2,41900.7,34092.7
79704,63999.9,88145.5,67611,126390,74651.3,50920.9,49885.9
63127.8,74647.8,78799.1,97047,77381.3,75903.7,46579.1,42329.6
59425.2,76504.5,106160,109570,118730,124655,38832.9,42029.7
55724.4,71839.8,83650.2,71318.1,77004.6,75147.6,45585.4,40187.1
78210.9,109236,119529,120374,108423,114351,46172.9,43947.4
67925.7,70075.8,81515.2,67245.4,96782.9,72799.9,47677.5,42676.9
42929.1,50273.1,60102.2,72191,74463.7,82365.8,40215.9,47570.3
62055,49313.7,85056.9,87715.9,98427.3,115553,45743.3,49181
77748.3,98946,78832.5,80656.1,111564,95579.2,47029.8,29516.7
89379.9,78337.8,102842,129959,110775,154932,46405,50567.4
60576.3,54802.8,66408.6,62094.1,88776.5,78341.8,31020.4,44801.5
68954.4,47745.9,54171.1,86355.1,73458.7,82976,39916.5,48882.9
93064.5,55032.3,166197,73936.9,148495,92323.8,51123.9,44127
68964.3,56333.7,69857.2,73871.5,82753.6,93332.9,39196.9,40109.1
71087.4,124295,110755,121296,110989,116101,48363.5,51723.3
53422.2,76156.2,62975.3,74216.3,85564.2,87828.5,35709.1,46177.1
44078.4,82625.4,84202,94342.1,111304,96310.3,42803.8,46228.7
42854.4,71665.2,63951.1,54355.9,76953.2,81951.6,30400.9,47119.1
87478.2,99919.8,99012.5,130071,139051,117488,44938.8,49682.9
50987.7,75810.6,48345.6,109717,97604.4,105875,48082.3,43231.2
55314.9,77782.5,98075.6,109696,108509,91663.5,39967.6,47096.1
62228.7,77364,61272.6,93548.4,76787.8,88823.8,38824.6,34257.6
82239.3,56288.7,88479.1,103629,105579,144161,52887.1,45305.5
86822.1,69268.5,73693.6,89272.8,80180.8,105627,37844.7,46156.8
79323.3,76275.9,80893.8,77293.7,83596,112772,46311.6,48923.9
72765.9,79438.5,103923,75604.9,135098,80568.6,42086.4,43982.9
68301.9,53430.3,85672.6,89730.1,87604.8,105298,34142.2,26941.5
78363,68201.1,90554.3,97680.9,100472,114528,37081.5,46327.3
79488,49095.9,129644,58509.3,133316,73399,52014.7,43285.2
54702,65191.5,82743.9,102040,116998,101266,48437.5,47641.7
100475,74653.2,171473,75539.5,132830,75353.3,51219.9,51373
64778.4,89431.2,49892.7,89887.1,75842.6,97042.9,52032.9,48912.8
44307.9,69583.5,72084,76184.5,73122.3,92674.1,31724.6,43382.5
48896.1,54801.9,69013.5,71494.6,78682.3,79362,34914.7,36835.5
69301.8,47394,67561,67395.5,105693,79028.4,45692.1,48189.2
96774.3,61330.5,110623,108192,116368,86808.3,41634.2,50012
58765.5,90017.1,82788.4,115573,114191,117726,52576.9,41440.9
73903.5,72603,87607.5,96418.7,88417.9,86972.3,44668,46772.6
55769.4,65338.2,82995.5,86013.2,93825,73310,52633.7,47455.8
50378.4,52342.2,60345.5,93907,82189.3,103654,28633,52307.5
58731.3,62634.6,131406,102197,101412,126362,46159.4,45466.2
60007.5,55232.1,68297.6,91696.9,93264.8,84656.6,48925.2,39917.5
59929.2,79963.2,72749.8,143123,86520.5,138818,38014.1,45893.6
69176.7,75688.2,86709.6,109478,100457,128957,37902.4,52061.8
54345.6,68139,64244.4,93007.7,73991.1,90883.8,47233.6,32454.3
70734.6,69827.4,71817.1,72406.5,103909,77056,44931.4,49313.6
59200.2,71776.8,92290.4,125411,87032.1,126680,46487.3,49492.1
68488.2,53289.9,62590.3,104753,76147,92408.6,48164,39325.5
86446.8,66371.4,116474,84446.7,132609,76967.1,48644.6,50811.3
76104,72296.1,88465.2,149667,109743,126420,51469.6,43016.2
73707.3,72574.2,96801,75552.1,93836.1,87646.4,45968.1,49476.9
59574.6,101012,68930.1,74391.4,106710,101103,46620.5,47543.6
83671.2,49518,113396,57085.9,134760,79723.4,48620.3,50637
71218.8,55106.1,96668.9,89133.8,88580.5,125732,46174.7,44322.5
66191.4,64955.7,105698,100578,120074,85102.8,48534.7,35096.7
83261.7,70305.3,122138,98720.6,119212,93616.5,46026.1,44286.4
51174.9,94891.5,41056.4,118460,76450,135682,30976.2,44279.4
54906.3,72943.2,75891.2,89377,72887.4,94084.9,43842.4,32903.9
50354.1,89505.9,60572,105655,92430.8,100758,47335.3,48304.5
61952.4,84402,71252.8,113146,122095,94981.5,45256.2,47109
60133.5,61270.2,67674.9,80376.8,73425.4,96339.5,28253.3,49516.3
67775.4,75820.5,94500.5,115604,115961,113281,48164.8,38949.3
65332.8,64045.8,77781.6,78553.1,74447,96015.6,48130,43979.8
80694.9,72436.5,79381.5,100218,102261,110487,41539.3,48246.2
43857,89072.1,62468,94759.1,82609.1,74107.9,27602,49507.7
69561.9,60040.8,82413.1,82735.6,119900,102483,49324.9,41785.2
60307.2,57028.5,42995.5,63335.3,73353.1,77862.2,38753,42249.6
82770.3,48280.5,96183.8,60880.6,106937,82549.3,49383.2,33375.6
75064.5,96476.4,91784.5,101633,101122,122469,44509.2,35456
80917.2,62210.7,97964.4,77927.6,92436.4,84060.2,43173.3,44024
56027.7,85399.2,78241.7,138177,118977,119569,49293.7,43201.5
73670.4,75235.5,87424,75044.7,89488.2,74794.5,42621.9,43403.1
48331.8,72911.7,58712.2,80914.7,75955.2,76872.6,42562.5,34237.7
63760.5,72422.1,56781.5,73809,78259.8,76356.9,35060.4,42600.1
54751.5,67808.7,70063,59936.8,83618.2,83248.5,41790.1,34023.2
69797.7,85731.3,118909,134813,104506,118971,43078.1,43905.3
60254.1,74340.9,59917.3,79642.8,100173,94107.2,41725.7,40545.3
70798.5,72506.7,75830.1,136087,103397,125350,45647.5,52722.9
61911.9,88378.2,79455.2,92222.3,78756,111352,28425.1,46539.8
60111.9,46899,95525,22046.8,129169,98046.4,47451.5,37960.3
73046.7,70182.9,84844.2,72193.8,107184,74252.4,49556.6,46987.7
80401.5,70899.3,83117.8,98423.1,95308.1,118459,38669.1,38813.8
65867.4,53427.6,67608.2,82350.5,84513.4,98452.3,42428.8,51765.7
66331.8,64917,71493.3,96863.5,88278.9,90477.9,38416.1,48446.4
60999.3,55226.7,89039.2,83893.4,99871.5,75449.2,30825.8,37130.2
76288.5,62416.8,100975,95541.6,103016,94610.4,45172.5,52389.8
67666.5,85693.5,71728.2,126897,111039,127439,40806.3,50281.9
85995.9,66676.5,99917.4,94262.9,122139,94428.3,47904.6,35351.2
79873.2,59573.7,83696.1,71704.5,90119.3,72970.8,43134,38975.8
66501.9,58140.9,86869.4,73116.8,90950.5,89435.4,36538.3,43639.1
84227.4,48445.2,65181.3,34367.8,77043.5,94592.3,52914.2,37788.6
78701.4,105531,73387.8,103388,109101,107963,32218.1,41479.7
72740.7,61799.4,85496.1,72445.4,93043.8,74402.5,46066.3,45697.6
56393.1,65790.9,74732,80911.9,83811.4,91053.3,46123.8,39511.8
86292,70109.1,95823.8,86123,120973,88798.8,52341,47487.1
65794.5,58207.5,104785,79103.5,117705,82247.7,51793.7,47688.8
73964.7,68614.2,105640,85100,94678.5,92077.8,44466.2,42979.9
80244,79133.4,95226.1,82492.3,127528,94741,43619.8,38384.8
42047.1,71596.8,48727.8,83429.2,88410.9,86125.8,33499.8,50359
67740.3,67762.8,82926,105851,111609,99411.4,47083.1,39380.5
57530.7,82413.9,75930.1,181686,79437.1,148495,31436.6,50130.9
43237.8,44212.5,75172.6,60513.6,107440,86578.9,36520.4,38743.6
81055.8,76926.6,95412.4,60338.5,97569.7,156524,49520,33391.9
58805.1,69015.6,100008,131005,104402,112094,49617.9,51426.6
66973.5,77334.3,88580.5,77763.5,90254.1,97589.1,45439.9,50511.3
50945.4,78804.9,65437,140505,93000.7,100187,36736.1,49450.7
70506,83563.2,99319.7,119432,116590,110554,41155.6,49462.7
79434.9,51787.8,83333.3,67754.2,87646.4,73161.3,51505.3,51684.2
56475,75411.9,57697.5,122041,76091.4,97799,38635.6,50324.1
77718.6,94540.5,101178,151863,99229.3,120316,45127.5,48774.8
71543.7,61360.2,93898.7,106737,97822.6,112719,44547.3,33699.8
43567.2,62464.5,71090.2,74046.7,101027,93751.3,40641.6,44268.7
86863.5,86490,93442.8,90315.2,98285.5,88968.3,36799,39643.9
61835.4,62265.6,74419.2,65546.8,78462.7,78471.1,35251.4,47628
55404,68390.1,66900.7,58917.9,88162.1,75681.3,44389.4,48420.7
73579.5,69142.5,77208.9,87842.4,113153,99927.1,44277,43935.4
57631.5,56405.7,70758,107312,92440.6,117294,40498.8,40234.1
155950,69749.1,170180,90404.2,122188,121016,47592.1,44542.1
62002.8,50658.3,69142.8,87854.9,89926,91534.3,40903.3,52068.9
68573.7,108881,76564,115720,91249.3,123276,46831,37542.3
44824.5,99811.8,66097.3,125881,98752.5,103690,50684.5,29864.6
98796.6,65934,93017.4,63345.1,129182,85049.9,52894.1,35702
87532.2,92919.6,103331,102255,137798,110719,44724.6,42452.2
60737.4,96831.9,86321.8,103087,103909,119857,46575.8,34739.3
82940.4,55458,105869,66917.4,115451,72448.2,49008.6,50026.7
63114.3,51772.5,84386.9,97919.9,110367,131896,43005.4,47477.1
69561.9,65156.4,95440.2,100226,98213.2,93604,46670.4,48609.7
55071.9,45810,75788.4,83589,87276.7,82935.7,42887,47900.4
71922.6,83217.6,71979.8,76808.6,80465.7,73065.4,32799.5,42780.8
85716.9,74367,71315.3,71945,104677,99864.5,41793.2,45536.2
60785.1,85157.1,82470.1,169219,97051.2,128617,50828.6,50586.1
58737.6,75132.9,107479,110604,108572,83361.1,39657.2,48986.5
77342.4,53562.6,77186.7,71193,97933.8,78137.5,50567.2,52141.5
50114.7,95793.3,79002,117059,97835.1,79015.9,31244.4,47796.3
87718.5,60907.5,121111,75635.5,127163,72678.9,45493.1,48575.1
93955.5,72381.6,74990.5,91713.6,103085,78140.2,43398,51798.1
63544.5,113683,63371.5,129939,99663,85818.6,44590.6,50194.1
57099.6,63462.6,100398,57248.5,118546,73816,43679.6,46951.4
51619.5,79380,79799.9,133286,96933,123800,42936.7,38948.5
44297.1,100420,54469.9,202335,84323,145844,36194.9,48466.4
67924.8,72465.3,113730,111135,100516,92389.1,49603.1,48813
46059.3,85361.4,90509.9,115569,116221,108242,47082.3,41583.1
73799.1,61265.7,51350.8,86478.9,91908.2,84888.7,42649,39675.2
105186,67855.5,113721,76551.5,119261,77332.6,44655.8,44795.3
64752.3,62709.3,83021.9,76299.9,106400,99913.2,40529,46458.7
44418.6,62676.9,54436.6,83384.7,82516,89097.6,32603.9,46178.9
62874.9,43053.3,75269.9,77307.6,78797.7,94832.8,29482.1,40270.3
76290.3,65828.7,99828.4,111338,101601,98070.1,47172.6,49246.2
74876.4,49856.4,97266.6,70883,97922.7,72558,47084.4,28345.4
90093.6,94067.1,118762,133903,127122,109183,46857.4,43662.9
58271.4,66585.6,85518.4,149593,105156,110783,48429.1,49656.9
99351,51867,91645.5,90582.1,86481.6,90005.3,47183.2,49884.9
66577.5,81368.1,79862.4,145912,86316.2,167829,42520,51838.5
67922.1,94846.5,89599.4,138083,84154.8,128175,44670.1,49443.6
102881,58333.5,120063,42200.4,157690,91570.4,50989.1,42138.7
53904.6,56118.6,78553.1,117822,85952,132820,33042.4,47852.1
99999.9,72903.6,82628.5,90505.7,76191.5,94846.6,36976.3,49149.1
57828.6,79439.4,54577,109041,81882.1,106161,36740.2,47076.2
64530,74934.9,71315.3,55246.9,82709.2,78418.2,49105.7,32862.6
62652.6,72297.9,80012.6,117932,94914.8,109311,51309.4,50403.7
62467.2,79987.5,102262,88395.7,108679,104960,47368.9,52462.2
75207.6,53798.4,78737.9,85885.3,80032,76782.2,51995.7,39338.3
63965.7,49327.2,73367,60631.8,77853.9,96916.4,48393.5,37512.6
116314,50624.1,143839,76978.2,126475,83843.4,44555.9,36665.2
90155.7,76622.4,72086.8,116485,102471,99817.3,35565.3,38307.3
46149.3,42763.5,55930.8,68520,86150.8,87962,50355.7,43168.2
65663.1,73225.8,61293.4,164677,103378,162840,39891.1,47905.3
59739.3,60111.9,53256.5,87998.1,74027.2,89559.1,38620.6,42760
72305.1,77139,64514.1,174624,114476,171550,39129.1,51847.2
42367.5,81025.2,59330.8,121611,98491.2,72584.4,44179,33565.3
64778.4,57915,91220.1,68579.8,106959,98881.8,45216.2,50523.4
77265.9,57054.6,102279,102447,133870,100104,48645.7,37349.8
57742.2,54498.6,104723,87354.5,128075,106007,35554.4,49566
61957.8,91657.8,60941.8,129292,82714.7,74980.8,51927.1,46740.4
72935.1,83274.3,57284.7,157885,76181.7,133992,48629.2,51713.4
52776,62721,93465,91912.4,114133,101335,45735.6,51914.7
53664.3,87535.8,55434.6,82691.1,85890.9,129658,50480.4,45182.5
53199.9,63717.3,60716.6,104572,72590,133440,40225.8,34024.4
62770.5,66192.3,72849.9,169346,85453,130187,36961.8,46569.1
61551,65482.2,78883.9,153594,89124,126286,38213.7,39928.6
66289.5,58602.6,75438.1,98808.1,81292.8,74587.4,45848.9,49549.2
59628.6,74536.2,92354.4,131520,96820.4,135080,45001.2,45485.2
46773.9,67605.3,57384.8,71568.3,87098.8,104450,34332.5,44056.8
59568.3,48835.8,68905.1,54722.9,111792,78635.1,43954.4,49198
85047.3,67133.7,125150,95113.5,117948,108674,44768.5,37081.1
63173.7,138613,68098.9,145273,76219.3,116962,38053.5,50960.9
76903.2,60448.5,106318,145205,115673,116479,45829.2,46515.9
74987.1,85614.3,65851.2,139192,84061.6,125887,43259.9,49622.3
45196.2,67929.3,54333.7,62914.2,84949.9,74633.3,40225.2,46631.3
65651.4,85863.6,78774.1,98188.2,97283.3,118454,38490,49800.5
61510.5,60755.4,72897.2,74376.1,90151.2,98353.6,37943.4,44826.4
70874.1,88307.1,109226,82417.3,131030,85100,46797.4,39505.9
45141.3,78599.7,54146.1,93987.6,73568.5,100361,28553.1,46830.9
68337.9,55737,61372.7,62558.3,76452.8,79897.2,37261.6,36089.6
68497.2,75279.6,72218.8,81280.2,84118.6,94314.3,38891,43933.2
68773.5,84653.1,71896.4,90718.4,87318.4,87214.2,38823.3,43405.2
46849.5,82333.8,74213.5,112273,93850,95746,52688,47581.8
54091.8,47512.8,57828.2,51229.8,95872.5,86844.4,36540.9,30424.1
83310.3,66432.6,92483.6,89504.9,97566.9,87957.8,33961.9,34711.6
57827.7,85751.1,104001,124304,116244,104403,47136.7,48067.3
74088.9,99693.9,88213.6,134377,86434.4,136434,36948.3,50358.5
82416.6,49384.8,69976.8,70852.5,81308,77916.4,43407.3,33159.7
90536.4,74869.2,99336.4,120303,106228,128635,47864.7,50670.2
64757.7,69576.3,73572.7,85268.2,89707.8,99672.7,37343.8,40160.1
89944.2,73917,103944,83571,96749.6,73736.7,42532,42598.2
124764,121468,125231,109782,124098,137385,46688,50163.9
74214,47844,93326,45856.1,100876,75297.7,51152.3,47099.5
68529.6,78231.6,88650,110416,105926,110404,44456.8,51613.2
75019.5,92236.5,87374,95588.9,96581.4,158541,39019.9,44674.3
80195.4,82157.4,97999.2,117297,97619.7,130550,47863.3,42297.7
69004.8,118632,105728,127321,107963,112080,35773.2,49135
46984.5,53098.2,86708.2,68999.6,102027,74891.8,43245.9,50149.2
56269.8,96174.9,66090.3,118660,81024.5,104869,49741,46485.9
58353.3,67010.4,69794.7,105739,75275.5,89673.1,34478.9,40781.9
62918.1,56175.3,83701.6,79738.7,105519,92316.9,50429.9,48412.6
52702.2,52969.5,69715.5,89065.6,79142.4,99511.5,30691.6,31261.9
78884.1,90614.7,107519,109888,113883,102040,45642.9,44828.1
58473,81132.3,66284.9,83726.6,75974.6,87235,39924.7,47085.1
44656.2,66006,84359.1,92688,91117.3,86214.8,46662.7,44683
78493.5,75082.5,83127.6,111126,102750,115091,42947,42129
72424.8,65933.1,79670.6,91277.1,100793,112874,44524.9,52763.4
78624,76276.8,77238.1,116652,97464,114996,45960.2,35281.3
55693.8,52188.3,89310.3,75093.4,75799.5,101651,46085.9,42029.5
78432.3,73287,82905.2,107469,96780.1,107475,50044.8,49874.4
64393.2,68347.8,92276.5,85740.8,137597,113790,51273.6,47656.4
53652.6,45515.7,51958.2,59970.2,97782.3,75324.1,38315.3,47233.3
102729,71175.6,118001,91289.6,128230,103800,49160,51291.4
57792.6,68152.5,70402.1,74359.4,97416.8,80590.8,49610,29638.7
71345.7,55788.3,136515,70135.2,138447,79859.7,41917.8,51952.3
76057.2,57887.1,85358.5,67017.5,118646,77206.2,48889.7,46514
57111.3,88168.5,93907,110444,81627.8,107544,41567,36078.8
79017.3,78375.6,95134.4,88096.8,116938,101102,50871.7,50561.3
45390.6,47356.2,76408.3,67991.9,93667.9,76147,44984.4,52756.5
41474.7,81434.7,67192.6,117518,100138,106805,38757.1,34347.1
60765.3,100726,97390.4,130656,98658,120042,50097.3,48600.4
65278.8,92982.6,105358,79245.3,112060,106466,51884.3,48724.3
52616.7,82559.7,80593.6,114843,104598,113186,36974,48651
74862.9,48463.2,66902.1,77327.1,81822.4,85518.4,41522.1,49221.4
61902,57807,99690.8,70649.5,139284,81976.6,49027.2,47389.1
54931.5,77102.1,67476.2,95494.4,74911.3,88392.9,47979.4,36307.5
69985.8,83712.6,80116.8,137878,85580.9,111748,37579.2,40767.3
65043,82964.7,75980.2,187330,87728.5,108523,32856.9,36037.4
52596,78075,53455.2,105600,72994.5,105552,32235.9,51590.4
58208.4,61216.2,77228.4,58010.3,87446.3,79153.5,43181.2,48664
67345.2,45088.2,86356.5,66075,119733,86502.5,48824.8,38640.9
69999.3,71105.4,126797,100436,113544,118010,43788.2,43228.8
87412.5,73216.8,96110.2,108199,122979,88871,45307.5,44754.4
53971.2,58698.9,90897.7,73960.5,102518,105958,47368.1,37063.4
51800.4,88433.1,81695.9,100526,106434,111094,45899.6,43113.5
50648.4,59026.5,51856.7,90546,75215.7,103312,33395,40430.4
96830.1,54116.1,114917,44695.4,136765,75023.9,48997,50700.2
83183.4,82009.8,106448,123004,113193,170347,43755,49912.2
53609.4,44125.2,73490.7,67626.3,129259,81013.4,49787.6,35498.2
85738.5,49187.7,124558,68030.8,134851,90476.5,52686.9,33972.4
45981,93011.4,55245.6,116274,86777.7,126715,50439.8,52846.2
100786,93330,94693.8,74558.2,104067,101880,47605.9,42421.1
69787.8,44645.4,89400.6,71072.1,87012.6,80560.2,46485.6,41871.9
47799,68248.8,62319.3,101512,104269,99493.4,47443.9,41434.6
63803.7,66870.9,75860.6,110709,94235,177154,38591.5,49125.3
67411.8,51871.5,95862.7,65129.8,97505.7,90697.5,45926,47338.5
57870,62572.5,76925.4,140011,95124.6,146877,35324.6,42614.1
85700.7,71526.6,91231.3,81807.1,118053,75379.7,47394.3,51836.2
87424.2,65712.6,100775,73892.4,104057,80054.3,45369.9,47598.4
80153.1,76196.7,97079,109718,101592,126389,41842.4,44347.6
47656.8,62919.9,70513.3,88441.5,85514.2,83208.2,38981,47866.4
85254.3,53091,83333.3,102023,87342,121651,46396.2,29679.7
78243.3,139575,115274,136658,112954,136010,49972.4,49240.4
58738.5,72941.4,75226.8,100607,78473.8,108572,39926.8,45461.1
43358.4,72749.7,54312.9,114250,72786,126933,28467.3,52797.6
79227.9,69782.4,140122,109928,108198,127103,46290.2,38119.7
71446.5,73075.5,75660.5,104239,84844.2,90586.3,45434.9,39108.4
45523.8,53395.2,87365.7,116668,94419.9,136675,36501,44953.4
83825.1,71198.1,78718.5,91474.5,95611.1,111691,44715.2,45555.3
48105.9,70558.2,78876.9,107465,91064.5,109322,46427.8,44306.7
63046.8,75294.9,67273.2,85917.3,84524.5,82509,32822,44676.5
75266.1,50040,63710.6,68939.8,97722.6,73451.8,43261.2,39445.4
63367.2,78468.3,71329.2,137578,85690.7,118896,37149.6,48434
51489.9,58626,108599,76997.7,120370,93508.1,46890.2,41293.7
71670.6,46832.4,107065,72117.4,130064,75175.4,43287.8,45543.1
61398,157289,94898.1,183536,97276.4,113136,44065.6,51545.5
59623.2,79002,82591,107436,74629.1,101879,47710.5,45921.2
90793.8,74602.8,115891,105755,125734,101843,49516.4,38137.2
83412,98828.1,75162.9,97672.5,77987.3,92884,46544.8,35580.8
51571.8,107780,66058.4,101737,77363.2,104097,31291.5,46562.5
67248.9,59351.4,81755.6,78637.9,109166,75664.6,43095.7,46669.9
74349,102964,83928.2,84685.8,92200.1,101331,42587.9,41640
43994.7,85198.5,57625.2,130396,107070,112565,37412.5,47900.4
73971,70275.6,102963,128474,99943.8,134455,51963.9,50093.2
70692.3,85141.8,104388,131279,117270,114632,44417.3,50172.3
56328.3,71237.7,90020.6,88561.1,91770.6,87906.4,37449.2,52087.2
79793.1,55824.3,95326.2,84186.7,101922,74984.9,37824.8,30288.2
67213.8,111161,94606.2,134687,135482,93442.8,50734.5,47761
92018.7,87232.5,87510.2,122162,126268,100863,47784.5,45245.3
69790.5,52030.8,87410.1,43543.1,85997.9,119347,46920.6,30709.7
67674.6,54920.7,84193.7,48573.6,88879.4,76661.3,49584.1,44202.3
84408.3,72655.2,93581.8,102115,118574,89909.4,52707.6,39947.3
51871.5,53904.6,49004.4,108770,79716.5,83678,36606.8,52442.5
69056.1,74235.6,65785.9,131729,80686.7,150794,34693.7,49267.9
57112.2,65295,90822.6,92209.8,101840,74141.2,48935.2,40479.7
72471.6,66338.1,119477,91159,101672,79195.2,43784.2,48438.7
74409.3,64448.1,89118.5,120013,100801,128710,41976.6,49399.6
63642.6,49682.7,78610.1,79088.2,88534.7,76940.7,46385.6,49002.5
53853.3,71399.7,70371.5,72979.2,92676.9,74102.3,45700.4,52893.9
59830.2,69075,59813.1,93812.5,90297.2,103793,30973.3,45268.8
86507.1,67569.3,95562.5,86690.1,118723,89258.9,41364.4,32791.3
65999.7,53954.1,119936,60683.2,131921,86042.4,46158.9,48937.4
86393.7,45817.2,96222.8,76124.7,129107,79255,48604.2,45867.7
61510.5,61826.4,90148.4,100373,94748,91870.7,37994.9,50272.7
76179.6,55120.5,96142.1,109267,104807,107027,49720.5,52575.5
88533.9,43253.1,111325,50477.8,117779,74285.8,46863.7,52115.5
62128.8,63257.4,54923.1,105184,74627.7,125696,45848,52114.8
100940,73849.5,137143,96564.7,123978,107029,50855.9,38971.5
84618,56962.8,79569.2,92860.3,107992,76664.1,52041.6,44075.7
51504.3,109084,83311,119875,96921.9,163339,48388.9,44950.7
90419.4,51065.1,69918.4,56431.2,105295,142276,40988.2,43603.5
56776.5,44990.1,67064.7,71486.3,76127.5,85112.5,32951.4,34229
59039.1,75699,58685.8,155989,73104.3,140882,37434.3,46829.9
79453.8,75434.4,101980,100236,105509,81334.5,43441.5,37395.8
56685.6,115817,78601.7,134715,97105.4,126760,47071.3,49704.5
66026.7,84248.1,76231.8,148367,112454,107364,47208.7,42278.1
77030.1,61595.1,93269,77085.2,88752.9,73236.3,47640.5,49898
69126.3,57672,70044.9,112957,103217,124409,47636.2,52012.3
74321.1,73836,87103,69091.3,88618.1,77930.4,41791.4,45118.7
103486,96343.2,131607,73519.9,137026,98745.6,50733.4,37384.7
55542.6,109622,73325.3,133778,91437,103220,28648.4,37560.8
80006.4,52133.4,111454,78405.7,112678,84742.7,47468.1,35295.3
70835.4,81216.9,82374.2,72203.5,86879.2,103359,50324.7,49494.2
84564,70643.7,140393,131487,123301,103605,46972.7,40267.8
57576.6,74128.5,75921.8,65722,85372.4,91060.3,41653,42622.4
88578,98825.4,104606,144100,95128.8,132131,43485.1,44974.6
96203.7,80051.4,80290.6,96050.4,77346.5,82784.2,45193.7,45301.3
91719.9,43714.8,125990,76844.8,133667,91453.7,52476,51030.8
63963.9,40502.7,73514.3,49584.1,100758,76095.5,46538.1,48345.2
95404.5,55330.2,111777,71895,108270,76205.4,44052.7,41089.4
114102,69265.8,115437,87861.9,124626,87208.6,52480.5,37547.9
72782.1,68994.9,60997.4,90140.1,92845,90721.1,48670.4,48209.2
75172.5,72221.4,73383.7,105443,88137.1,88512.4,37090.5,48220.8
67741.2,84870,60840.3,108950,84498.1,94136.4,47763.1,47099.4
81702,69599.7,87899.4,80023.7,93250.9,87802.1,48764.6,52751.4
84927.6,81236.7,105091,84859.5,107054,74509.6,44943,45120.9
103754,70595.1,90996.4,93756.9,97362.5,79879.1,39082.2,39137.2
55538.1,60347.7,55611.1,88092.6,77795.5,76491.7,28302.7,52647.4
74655.9,86279.4,103901,122458,110009,109374,46585.2,49400.5
64661.4,65545.2,98874.9,81123.2,87033.5,104447,46577.6,45704
59726.7,54209.7,63595.3,64667,77499.4,116367,32421.4,46746.8
59887.8,47542.5,81109.3,63714.8,82762,72877.7,32264.5,48479.9
72425.7,42030,90536.3,72200.8,100744,94111.3,33554.8,47481.2
101811,57571.2,107945,71248.6,126958,76648.8,43552.1,49639.1
92537.1,74812.5,96628.6,80843.8,121371,84795.6,52930.5,40999.2
86633.1,66467.7,93712.4,108346,104856,82970.5,48529.5,31284.4
72076.5,91991.7,63018.4,126718,84780.3,116955,44128.8,42580.8
69949.8,68715,72666.4,61711.8,76197,97149.9,38188.1,42706.5
56212.2,68552.1,85548.9,82374.2,83828.1,81198.2,30189.4,49949.9
50218.2,68601.6,48900.2,46852.7,74504,82442.3,47234.7,45511.6
77283,73740.6,64048.4,183900,76591.8,158021,40377.7,48017.6
58572.9,50568.3,74063.4,77509.2,79509.4,76390.2,39554.6,42276.3
53469.9,75316.5,88737.6,104956,105691,115759,40208.6,51062.2
79002.9,67220.1,112904,73816,120118,98470.4,51871.1,46595.6
68483.7,57033.9,92043,141759,86836.1,148602,50308.9,49094.1
57038.4,45882,69800.2,45630.9,100340,86731.8,43109.8,50277.6
41590.8,70759.8,32196.6,97468.2,120342,97020.6,31630.8,34846.8
87369.3,47025.9,104844,59179.2,117488,72838.8,39440.9,46592.4
85277.7,52551,101317,56143.5,96069.9,73451.8,44917.9,38800.4
68168.7,53673.3,68864.8,65749.8,75357.5,74224.6,46281.3,44812
59910.3,131783,77827.5,93054.9,94175.3,76148.4,38636.3,47734.3
47140.2,92078.1,46642.8,62657,80532.4,77685.7,43568.5,45565.9
65452.5,74287.8,89510.4,72665,89076.8,75946.8,44654.6,43138.3
66903.3,63490.5,60715.2,42439.5,76978.2,76395.8,42615,38881.8
53360.1,74960.1,66496.2,96271.4,87766,87650.6,39827.2,40926.9
76817.7,44282.7,118154,71608.6,113271,74800.1,49780.8,48828.1
83436.3,63204.3,91709.4,81451.2,99266.9,100350,36967.6,39985.6
51689.7,76336.2,76918.4,72641.4,80435.1,106186,45967.2,44380
52385.4,90527.4,78485,123438,108178,109927,47798,40768.4
63256.5,51553.8,65166,94813.3,80397.6,93302.4,49662.4,45082.3
97542,65700.9,115232,143764,108616,149336,48004.6,48437.9
99041.4,53199.9,118889,59321,121935,85175,51672.4,47185.6
56030.4,89660.7,84367.4,91026.9,93844.5,99436.4,46983.8,34706.3
44203.5,74851.2,45383.5,112975,75660.5,139015,37725.3,51664.3
51948.9,88443.9,78781,65335.6,100642,99380.8,51981.8,44653.9
51639.3,62460.9,53583.1,111065,78311.2,112767,32714.2,33770.3
85916.7,92048.4,65872.1,110848,84313.2,123773,36918.2,52496.5
52225.2,89365.5,79887.5,128765,73556,142835,39533.4,46319.2
78523.2,66122.1,89179.6,70382.6,107188,94050.2,48363.8,33801.8
48600,48551.4,60484.5,84646.8,84935.9,97398.7,46521.3,30880.7
77131.8,105098,93918.1,171983,85530.9,143655,46956,49056.9
69633.9,59153.4,88914.1,60155,79028.4,78451.6,50739.9,38452
51222.6,126520,70037.9,122918,82142,132751,45132,49636.7
85669.2,55780.2,93270.4,74978,85932.6,123916,46768.3,49993.3
54901.8,66654,60882,109647,72449.6,117402,40199.7,51548.8
59675.4,57970.8,64487.7,56190.8,75566,76711.3,35953.8,46122.8
71116.2,54451.8,119427,122952,90961.6,108217,38813.1,45435.7
43037.1,69247.8,65535.7,78815.8,91831.7,82910.7,42552.9,32213.8
102287,66088.8,101673,80066.8,137525,82946.9,44157.8,48824.3
66700.8,62398.8,81647.2,76484.8,83951.8,74606.9,52884.4,38605
67451.4,65571.3,54166.9,94643.7,85279.3,127913,45996.1,51252.2
47499.3,74337.3,92341.9,98382.8,100710,97315.3,44867,33794.5
66713.4,60347.7,74087,59273.8,124191,72767.9,51735.8,48192.2
65180.7,80450.1,77830.3,115804,82193.5,146256,38251.6,50252.2
64473.3,56378.7,52522.5,128863,89673.1,122344,45844,50232.3
57607.2,57715.2,62205.3,72199.4,87426.8,81198.2,51885,32750.1
63129.6,88046.1,91470.3,171479,127933,191987,52457.2,52911
52439.4,57949.2,81517.9,87424,109360,80203,40676.7,44298.5
51357.6,50395.5,75107.3,23115.7,90263.8,126822,42870.7,41059.1
61939.8,101506,50434.8,94703.5,95680.6,86804.1,46892.5,50644.6
42792.3,43045.2,50783.6,44744.1,95452.7,75499.2,34055.2,35547.8
45668.7,79423.2,59296,114756,74213.5,101189,36304.9,47734.9
58819.5,100405,73689.5,113852,104989,125410,48667.1,49750.2
66560.4,102920,87392.1,180939,109485,129818,37616.4,40393.4
60565.5,43761.6,75064.2,55092.6,87037.6,78258.4,46652.5,34404.7
55268.1,75637.8,55566.6,71230.5,83287.4,81613.9,34484.8,49487.9
80970.3,82416.6,90430.6,86905.6,110074,99777,46170.4,45978.8
57091.5,52992.9,71290.3,79323.1,82140.7,88384.5,41034.3,52238.6
85307.4,72544.5,105409,92234.8,120634,91136.7,41958.6,41210
92842.2,69653.7,118650,103797,128795,124990,50891.8,45582.3
72696.6,72065.7,64017.8,71826.9,72332.8,93427.5,42033.6,43034.2
59614.2,59175,89342.2,86428.8,88519.4,89981.6,40656.8,41377.6
96068.7,49244.4,93718,80449,120236,84535.6,51021.3,33515.6
63621,58220.1,62247,87581.1,80050.1,102154,45478.5,36511.6
64224,47972.7,71543.3,59411.4,78252.8,76876.7,45856.9,47648.3
71649,61551,98149.3,51620.4,120916,118732,52577.5,41235.8
103484,59015.7,125835,121952,114204,78497.5,41000.3,45820
66111.3,56258.1,88130.2,69532,100111,97932.4,36305.2,38426.1
48284.1,72062.1,63324.2,74883.5,83145.6,77044.9,29110.1,44539.4
78775.2,71654.4,92988.2,71654.5,117846,75916.2,51244.3,42514
43378.2,73906.2,63719,106289,86266.2,122383,46627.2,50329.5
60730.2,60918.3,52152.8,71261.1,78030.4,86744.3,34710.9,50199.3
71783.1,61528.5,79341.2,76612.6,80857.7,79148,35174.1,51912.7
85505.4,60844.5,76583.4,78434.9,98879,83819.8,42399.1,48753.6
63420.3,76675.5,73635.2,95240,105138,89650.8,46004.5,42803.8
100517,46512.9,111283,29943.4,115116,218154,39820,38946.5
80162.1,75391.2,104914,91480.1,131669,126943,48981.2,48329.8
89887.5,46091.7,92077.8,72699.8,128229,90327.8,38772.6,51182
66440.7,53695.8,70649.5,58826.2,83515.4,79049.3,51638.1,48674.9
48934.8,45746.1,47756.2,66293.3,74160.7,81808.4,43107.6,44835.2
53497.8,107773,117206,125015,137953,121159,48830.9,48499.5
84792.6,72901.8,66738.1,67241.2,75700.8,87326.8,46670.7,37510.1
52473.6,66562.2,84072.8,67929.3,105454,73818.7,46975,46591.3
66241.8,70609.5,94232.3,86506.6,123440,98438.4,51032.6,27977.8
87742.8,60858,89916.3,95619.5,92205.6,89196.3,49561.3,33434.4
68726.7,57762,92797.8,72941.6,93473.3,80724.2,39926.6,38047.3
43193.7,79500.6,59600.4,74669.4,104151,113289,38259.3,38721.1
44999.1,52128,84354.9,52846.4,95666.8,124900,39344.1,48058.5
80518.5,71990.1,92956.2,76668.2,95860,75372.8,37343.6,35562.4
57060.9,61584.3,76939.3,101085,99611.6,115891,36951.1,51735.5
93504.6,67169.7,94581.2,82003,125703,93485.8,46122.2,36076.4
51887.7,79976.7,49104.5,71888,73564.4,83331.9,29067.6,37072.5
77369.4,45593.1,102956,79078.5,125890,113591,52840.1,41342.3
45234,69712.2,63870.5,100540,75021.1,129538,37356.9,50683.1
115590,77413.5,121008,111971,126942,108669,35150.5,48062.3
77631.3,90216.9,91999.9,87425.4,109073,95600,48702.2,51266.6
60769.8,52740,74893.2,51619,91102,84840,33758.7,50744.2
67507.2,47639.7,83076.1,73266.9,73967.5,79284.2,45351.4,46599.1
65407.5,59871.6,99184.8,97598.9,125591,108977,46845.3,50702.7
87796.8,51836.4,115948,86659.5,132495,77728.8,51555.6,52120.9
60073.2,41013,65306.4,25997.2,110326,83545.9,44241.9,43704.4
54507.6,49399.2,64409.8,56948.3,96381.2,77235.4,46917.2,38221.6
93985.2,62241.3,112523,68262.9,112247,76678,50609.7,51406
76780.8,66836.7,70901.1,100846,97444.6,96126.8,46387.9,29472.3
50295.6,67010.4,71977,114200,116019,108324,48367.4,50849.8
83442.6,67647.6,90063.7,79111.9,90605.8,103622,52184,37570.6
45221.4,73199.7,49210.2,73511.5,81162.1,99717.2,49040.2,45489
77020.2,58157.1,113381,88990.6,114779,86951.4,46449.8,48223.1
49461.3,60746.4,56058.7,62768.2,96642.5,75650.8,40586.1,36777.8
67659.3,59007.6,71176.3,108599,85935.4,130759,38357.3,51316.4
73208.7,60619.5,92081.9,64701.7,105159,91448.1,35949.6,39134
69481.8,77886,80583.9,96720.4,115175,78436.3,50978.6,40905.9
70278.3,62388.9,70378.5,102797,97529.4,101642,48293.4,49787.4
69527.7,74987.1,93684.6,85182,112240,102018,49610.6,36123.4
53830.8,80155.8,61867.5,109051,88840.5,134234,35180.2,48214
61085.7,52606.8,72948.6,82029.5,91887.3,85740.8,32436.3,43160.9
71908.2,69687,77396.6,124538,90158.2,91520.4,44391.3,40225.2
68624.1,49230,94217,86553.9,95787.7,83534.8,39515.7,48428
69958.8,63277.2,56117.1,73539.3,72851.3,82069.8,43506.5,30294.2
90350.1,54288.9,114141,95533.3,91963.8,113125,41976.1,51080.2
104046,75747.6,113539,57960.2,146658,77831.7,50195,37602.6
62256.6,119088,66653.3,144097,77878.9,115783,37254.1,49104.1
64424.7,74667.6,122633,93244,124089,87792.4,42130.6,49072.4
62212.5,67020.3,81476.2,122465,88747.3,147108,46307.8,47135.4
75025.8,79074.9,97939.4,98303.6,102991,98669.1,40011.3,40238.5
75919.5,83307.6,78250,118222,98395.3,92867.3,43718.3,47357.6
63399.6,64108.8,73493.5,103852,91303.5,111160,43451.9,50042.9
61031.7,56561.4,94271.2,128012,92902,119967,48973.2,51287.3
66980.7,48169.8,103171,58952.7,98035.3,88805.7,49091.3,33732.8
63950.4,62031.6,94912,71119.4,82895.4,85098.6,47489.2,46178
63774.9,56510.1,77645.4,74538.8,96935.8,85172.2,37783.8,43858
92250,77973.3,104119,129238,126301,121457,45929.9,51936.8
52822.8,87134.4,46316.2,65453.7,89392.3,85027.7,43659.7,42440.2
67791.6,60242.4,83502.9,96877.4,98906.8,103149,48722.1,49296.5
138198,69814.8,153664,90988,134517,79563.6,52374.8,44987.2
56034.9,75609.9,92366.9,86160.5,103087,76183.1,52139.6,48248.7
69219.9,79874.1,110777,97857.4,92810.3,106585,49219.8,49648.2
69132.6,61898.4,88322,110676,103227,86300.9,51323.3,37512.9
90029.7,86525.1,107710,120937,112066,135137,42910.1,45755.5
70486.2,61031.7,76604.3,66479.5,127293,89233.8,45466.8,49854.5
62486.1,76111.2,90351.4,126127,106427,106498,46667.3,33959.9
51168.6,97370.1,52362.7,153049,87075.2,150933,41786.9,46794
70794,104576,91377.2,216331,95556.9,160948,43229.3,48292.7
60462.9,65030.4,99710.3,48872.4,135742,84431.4,47340.5,51757.8
69078.6,111289,122391,104484,135836,97583.6,48777,37697.1
56634.3,87795.9,79448.2,123574,96277,96235.3,48578.1,47168.4
100064,59735.7,111723,52760.2,113488,72402.3,52399.4,38784.7
51202.8,72177.3,64188.8,81027.3,84204.8,75087.8,31846.1,48421
70568.1,102141,83052.5,141256,135219,103023,52756.7,35594.5
43945.2,63710.1,55928,87874.4,74701.4,74438.7,34323.8,38454.3
44642.7,70147.8,61508.9,116667,85825.5,100974,44068.9,46600.5
87992.1,42435.9,81043.9,25852.6,89883,83929.6,44794.8,28283.1
59733,75114.9,66907.6,96268.6,98510.7,120995,48891.5,50215.4
54153.9,94542.3,96379.8,156611,109647,147639,48195.6,47697.6
48976.2,69890.4,44421.6,53380.2,72784.6,73925.8,27003.7,38198.6
71379,55485.9,74333,47239.1,99493.4,72398.1,42975.9,43389.9
51929.1,96223.5,79767.9,92838.1,90589.1,105411,47233.7,49692.9
71418.6,49781.7,85608.7,75624.3,122181,86629,50052.8,29029.8
56431.8,54275.4,74445.6,78771.3,94777.1,78257,39063.7,45802.7
68260.5,54891,85283.4,92312.7,103409,87186.4,39722.7,33837.4
64030.5,71625.6,76707.1,79901.4,77496.7,83918.5,47440.5,49759
55314.9,99434.7,87640.9,119454,102121,117548,50752.6,49875.2
64283.4,64810.8,56596.6,113574,76732.2,148405,30986.5,45430.6
60615.9,68022.9,68350.5,57593.3,73831.2,79558,45368.2,51439.8
77307.3,56683.8,106090,83986.6,115737,88139.9,45675.8,36007.1
45458.1,94287.6,79109.1,121589,114589,119475,43105.6,43559.5
77548.5,78887.7,82033.6,106300,106973,124023,41341.6,52253.5
69219,52769.7,78799.1,70370.1,79737.4,73127.9,34822.3,36990.4
76594.5,62642.7,73756.2,102595,95076,126968,40888.5,42932.8
50373.9,85087.8,68047.5,111246,79998.7,119629,41622.5,40189.9
85007.7,73064.7,78540.6,134085,137613,137874,44819,51704.9
68391,63974.7,87212.8,76586.2,82149,76052.5,39837.1,46509.2
68534.1,58915.8,55921.1,70511.9,91949.9,73239.1,45072.3,43342.7
75556.8,75855.6,105680,85854.7,117676,102938,47368,45106.7
62983.8,48295.8,57746.2,57325,80629.7,72998.6,38610.9,46703.1
45035.1,96680.7,77320.1,147945,87308.7,102810,38376.2,46202.7
43191,55098.9,78883.9,70575.9,99322.4,87104.4,45716.2,47106.7
79930.8,61651.8,94497.8,67837.6,117648,72665,47483.5,48375.4
84672.9,65409.3,119771,94014,126320,111321,51894.7,47747.5
96931.8,62536.5,120438,75705,140536,73189.1,50840,37157.7
56591.1,52659,72628.9,53612.3,95412.4,86982,48902.4,43566.9
70174.8,51397.2,69437.5,84883.1,76106.7,105607,40455.7,45622.5
65664.9,58902.3,66069.5,70571.7,84970.7,78462.7,33353.4,33483.7
50424.3,57434.4,107279,75257.4,103798,79767.9,51788.5,42398.2
78039,63929.7,66084.8,70285.4,76045.5,80608.9,32697.2,48068
99471.6,79148.7,91792.8,104593,95316.5,96168.5,43676.9,48227.3
71110.8,74771.1,90119.3,84074.1,98816.5,92375.2,47128.3,48354.8
92988,43323.3,110499,77425.8,103410,102400,46535,50095
63803.7,80424,72157.7,67773.6,72448.2,81162.1,44578.3,45517.2
75091.5,82167.3,67927.9,102315,128025,97814.3,49894.9,37780.1
72500.4,58113.9,96482.7,65306.4,116068,88912.7,47724.1,47149.2
66271.5,59438.7,55284.5,125616,89582.7,146117,31458.1,34215.5
58833,51095.7,112085,56876,143897,74309.4,52110.8,35943.3
61658.1,61348.5,60601.2,56076.8,89995.5,77970.7,48029,45910.9
85455,100936,112665,107992,139093,120275,50796.9,47473.9
80019,67934.7,90682.2,81290,97315.3,95417.9,33801.2,35103.7
65853,85896,93980.7,94703.5,111598,115387,51060.4,39854.8
95305.5,84719.7,108831,101325,120464,97419.5,44240.1,46377
57520.8,60615.9,57946.3,73173.8,72431.5,82920.4,30410.9,48165
81304.2,49735.8,90130.4,28552,94602,83313.8,50878.1,31517.4
58222.8,51901.2,65321.7,82000.3,83412.5,92858.9,43093.5,39522.4
83891.7,131223,82410.3,103180,80583.9,88919.7,51210.9,50623.9
114013,66408.3,155805,115902,157986,113203,50890.3,40470.2
81158.4,81992.7,81588.8,98958.3,100839,121179,45049.4,41053.9
95798.7,59130,119076,76468.1,115041,75542.3,45996.9,47332
57260.7,82314,63667.6,67893.2,84266,94240.6,30858.8,46874.5
88662.6,113573,75547.9,139278,100352,154504,44339.3,45973.1
43071.3,50294.7,50094.2,72337,76786.4,100357,39441.8,40969.5
59293.8,65408.4,74095.3,82738.4,102136,109656,42680.1,46053.8
79180.2,50652.9,105376,52922.9,110208,72460.7,45967.5,35047.5
79561.8,59259.6,78697.6,119409,86913.9,99695,41974.6,46455.9
67359.6,76663.8,72081.2,74773.7,92733.9,97280.5,42353.1,47886.2
68006.7,83124,86961.2,105242,147063,79516.3,33038,35980.4
52036.2,98056.8,85547.5,111973,92387.7,101298,46787.1,46707.8
90388.8,90739.8,112580,115485,125623,117144,46194.5,48033.6
79812,85982.4,83131.7,84997.1,92113.9,104920,42290.8,49491.9
84574.8,86793.3,86629,131569,97860.2,126375,46508.1,52325.4
76545,66992.4,74866.8,94361.5,96627.2,90516.8,38146,48051.5
70999.2,129302,88497.1,132267,117458,96335.3,52347.3,41212.6
65618.1,56003.4,89889.9,60488.6,127616,80895.2,45619.6,50331.2
52782.3,48144.6,76773.9,88449.9,106264,96794,52385.8,51803.7
67032.9,46048.5,64156.8,59942.4,81615.2,76115,45555.5,47909.3
69275.7,79431.3,56634.2,96416,88000.9,94887,38088.6,45216.7
54557.1,56094.3,64148.5,101289,93074.4,82766.2,48644.6,38435.3
47113.2,57614.4,53010.4,49468.7,81520.7,75946.8,35790.1,47625.2
62065.8,71968.5,72601.1,79236.9,72848.5,91578.8,37430.9,37601.5
45138.6,72814.5,79517.7,66699.1,99286.3,74484.5,49015.1,46251.9
54072,65142,72933.3,96222.8,116123,102646,42740.9,41952.8
47379.6,73210.5,52049.9,91720.5,76443,103317,37238.5,37058.1
64892.7,73599.3,91391.1,87422.7,98321.6,85102.8,48728.9,43974.7
61525.8,45121.5,93859.8,70420.2,109595,99460.1,47314.3,46238.3
69354,66580.2,98824.8,67018.9,132164,83148.4,45823.8,46374.4
74180.7,66402.9,62067.7,78619.8,93296.8,75446.4,48716.4,42909.9
74564.1,96129.9,93117.5,96889.9,112979,168326,48585.3,42940.3
55083.6,90073.8,64844.9,160053,72747,121689,32719.9,51609.7
66067.2,91031.4,75268.5,130767,84484.2,131412,47731.8,51208.2
61367.4,92738.7,110764,55800.2,111232,94948.1,42493.4,38620.2
65176.2,44338.5,89535.5,61438,117190,73137.6,44017,40467.8
77806.8,48515.4,110549,81519.3,117014,106321,48255.9,42894.5
58434.3,54777.6,99233.5,76530.6,98395.3,79763.8,44113.1,51497.3
72861.3,48462.3,74398.4,60038.3,88063.4,72786,45268.9,50711.6
71161.2,75825,68691,91478.7,88512.4,88259.4,42888.1,48306.9
102282,58106.7,61588.1,84671.9,107116,78611.4,46028.1,41501.1
66126.6,77856.3,80212.7,85462.8,99514.3,90452.9,40218.5,52126.7
61744.5,47955.6,52355.7,81864,80273.9,93920.9,51582.8,48114
44169.3,61696.8,76190.1,85355.7,104749,87597.8,46668.3,48844.9
62848.8,79117.2,67405.3,115427,97322.2,146481,47819,42091.3
63428.4,41973.3,66236.3,57621.1,85500.3,79531.6,34111.2,33864.2
63437.4,85081.5,62822.4,126836,85845,117658,47467.8,30976.8
94991.4,49366.8,99478.1,61563.1,103085,74258,43891.4,48071.7
67851,88698.6,97286.1,84090.8,104375,87823,40453.6,44644.1
67815,65462.4,63685.6,70944.2,75566,90861.5,34057.9,34569.3
79848.9,63196.2,97587.7,102571,109896,95687.6,47996.4,39754.1
53803.8,78618.6,69468,80746.5,84078.3,84424.4,35299.9,48043.9
69686.1,104559,97041.5,73447.6,116166,87255.9,46302.6,39550.5
68741.1,61329.6,81497.1,111575,116450,125211,51729.7,45968.6
64739.7,65644.2,82279.7,96315.9,105561,98570.5,44485.5,48489.1
87962.4,78129.9,87212.8,99715.8,82497.9,82837,29578.8,48764.5
72477,46595.7,91399.4,75318.5,125399,74395.6,48071.5,28434.1
90946.8,77934.6,122820,119019,127042,98024.2,47587.1,49289.7
65868.3,46872,67939,75185.1,107087,86820.8,50734.8,30052.5
55470.6,53378.1,61528.3,78758.8,91917.9,91150.6,38226.9,42705.1
89930.7,99638.1,69135.8,118111,105406,103524,46536.8,52277.7
65026.8,54448.2,78578.1,57295.8,91851.2,72470.4,45316.6,44064.1
74617.2,63978.3,73133.5,89518.8,87789.6,78091.6,39400.6,47470.1
72116.1,95200.2,66985.5,162897,75923.2,141909,45834.8,50806.5
46261.8,58311.9,86483,69758.5,109849,98160.4,49500,36841.2
57146.4,68484.6,77284,40207.1,79606.7,135961,32250.7,44192.4
67905.9,76520.7,99775.6,149039,98513.5,117993,40929.4,49724.9
75916.8,53620.2,90769.8,120614,112632,129634,40111.8,45574
59261.4,68048.1,57671.1,61297.6,74249.6,79245.3,42496.9,35091.4
78529.5,73267.2,124789,126468,106293,135649,50869.2,51378
67935.6,57824.1,63952.5,87873,86856.9,89971.9,44934.1,34715.7
52812,78181.2,59444.7,120722,92387.7,120175,35131.9,49208.3
82006.2,82507.5,79118.8,127045,78181.9,112477,34708.6,48309.6
92224.8,76403.7,77998.5,73943.8,92155.6,74561,40496.9,52690.2
54063,64297.8,73828.5,88602.8,85843.6,118049,39921.6,46859.4
81571.5,60626.7,95462.4,85031.9,95650.1,82421.4,48651,33204
109429,80461.8,137945,105545,126313,112266,48917.7,47240.3
59814,42346.8,64929.7,68043.3,72590,74758.4,28651.2,37708.3
67219.2,65941.2,46791.6,128233,90486.2,135254,44630,29574.2
78529.5,63152.1,93972.3,83450,101191,92675.5,41578.3,47416.3
60762.6,66332.7,108691,91563.5,133569,86460.8,52444.9,32718.3
84231,68728.5,91065.9,110408,131569,110622,51753.9,42953.5
75144.6,48376.8,86686,22807.1,94727.1,143519,34736.4,31585.6
76631.4,63048.6,75525.6,68884.2,93964,97016.4,52292.9,39648
60174.9,66606.3,93405.2,39492.7,101844,80183.5,42550.7,39852.6
59110.2,85152.6,90356.9,102317,103419,111112,48451.4,48677
78113.7,101739,69266.5,123141,73967.5,103423,39764.9,44547.6
88120.8,73191.6,80073.7,85879.8,117563,73978.6,41181.5,41863.4
55785.6,57210.3,60850,86713.8,82727.2,77909.5,43430.8,35008.7
49161.6,69093,58720.6,88128.8,74269.1,86901.4,35754.4,40128.3
42057,76288.5,73289.1,115758,114302,99083.4,51044.9,52325.5
67759.2,78057.9,53000.7,105616,82397.8,98902.7,38870.6,42702.4
69220.8,85937.4,78251.4,117604,110587,128266,39525.9,45988.8
48258.9,73708.2,67128.7,110416,107373,85615.7,52588.1,38541.1
56045.7,59067,73129.3,75050.3,88071.8,102945,35288.2,36271.6
66423.6,50490.9,55474.9,88433.2,73186.3,82600.8,45068.1,50627.8
87019.2,67367.7,112736,83822.6,117777,86976.5,47624.1,38878.6
54797.4,70960.5,94293.4,121528,94856.4,118060,40998.6,49694.5
75602.7,58754.7,87917.5,86601.2,125649,89450.7,40310.6,38514.9
54030.6,53730,63119.9,54389.3,100337,73729.8,51787.8,46573.8
54991.8,68464.8,62313.7,84359.1,88106.5,93174.5,42319.8,35644.9
78541.2,109439,70427.1,130029,85031.9,117844,35269.8,45734.3
71270.1,66803.4,93018.8,140662,123600,124323,47217.1,49594.1
66366.9,63995.4,81707,66870.1,123761,81538.8,51337,42917.5
46227.6,69453.9,82012.8,72773.5,126882,75874.5,49955.7,48944.3
53928.9,59154.3,90839.3,94165.5,115651,96559.1,43682.8,48603.1
84371.4,87506.1,88347,216454,89453.4,174690,42512.5,51427.7
82560.6,66329.1,101274,55441.5,99635.2,82482.6,49448.8,39597
67565.7,51563.7,99664.4,55062.1,103119,77520.3,48304.3,40134.5
72780.3,95188.5,102254,138322,126668,132354,48165.4,37952.1
56885.4,123365,52927,138019,74844.5,123143,41119.1,52870.7
82189.8,75021.3,75507.6,58513.4,84619,88579.1,41154.3,40474.6
63176.4,64012.5,82335.3,78680.9,87136.3,95687.6,34696.1,43040.1
54802.8,83622.6,54682.6,95644.5,73430.9,125414,37188,44495.9
85322.7,52727.4,108018,63168.6,100455,89844,45540.5,43171.8
53861.4,64186.2,64796.2,78557.2,78384.9,80693.7,28197,47703.4
74200.5,97060.5,94009.9,117479,109746,123050,42021.6,50868.5
89719.2,69942.6,92988.2,112261,110502,112497,48523.7,42195.6
81216,91053.9,82666.1,114190,99130.6,110644,47234.3,50125.1
66365.1,71164.8,82161.5,80652,88900.2,84865.1,47441,48802.8
83249.1,76834.8,79880.5,128825,81302.5,123553,43137.9,43421.2
66602.7,68574.6,77263.1,104844,105736,85936.8,45157.5,38270.4
76176,57327.3,75634.1,145479,104793,126059,42839.3,50950.1
58621.5,41661,63112.9,53088.3,88039.8,80932.8,38648.1,50823.2
92552.4,46122.3,86802.7,64090.1,87754.9,72491.3,43804.6,49523.2
69464.7,73330.2,96866.3,81729.2,96806.5,99440.6,50484,40079.9
60778.8,71875.8,103477,95365.1,128037,74954.4,48899,50964.2
73686.6,101344,74554,125591,88113.5,133418,42041.5,47494.4
60491.7,95598,67412.2,102330,114483,79442.7,49973.5,31970.3
79275.6,52765.2,70787.1,61684,78120.8,150269,35112.1,44172.7
47873.7,65267.1,67993.2,93364.9,76299.9,84405,47397.1,36189.4
60015.6,55258.2,33960.5,75413.1,91659.4,73745.1,40930,28882.7
68701.5,66431.7,94490.8,95057.9,124552,108843,51275,51167.9
70182.9,52780.5,73190.5,132495,89873.2,134704,50791.8,51737.8
75885.3,52542.9,96896.9,84716.3,94485.2,81110.7,42873.6,44806.1
56845.8,86652.9,111454,94668.7,103531,110798,38962.9,47310
75324.6,76816.8,110973,127392,96905.2,85343.2,48154.8,43816.8
131779,67930.2,131693,111846,114906,125824,49697.2,44430.2
82665.9,68383.8,99054.2,77791.4,80845.2,79323.1,49544.6,31972
45336.6,89269.2,83099.8,160563,95791.9,133908,45631.5,46746
84976.2,71567.1,116617,88101,111201,80153,52095.7,35539.2
78107.4,82341,88323.4,105689,98473.2,96627.2,47581.2,42751.4
46148.4,73850.4,77630.1,60608.2,96357.6,120724,38424.1,43421.7
48939.3,84798,51231.2,141000,79527.5,127074,37518.7,51380
62797.5,65550.6,82400.6,79701.2,83101.1,98146.5,46687.6,40049.9
50084.1,57240.9,78379.3,114703,74035.6,92239,50785.5,49840.3
64236.6,47036.7,80746.5,64123.5,80721.5,75771.7,45532.5,48022.5
79935.3,82956.6,79409.3,102789,84927.6,108510,34296.7,34677.1
88963.2,110059,96111.5,99205.7,132063,93252.3,50360.4,51563
48207.6,62086.5,70692.6,95525,82124,85928.4,45530.5,35102.9
55758.6,57764.7,66257.1,94219.8,95898.9,113410,33445.4,51222.3
71581.5,74967.3,88901.6,84019.9,112092,97343.1,48354.8,48124.3
45636.3,85224.6,58122.8,81684.7,76402.7,73881.3,42068,47962.3
56107.8,89581.5,83123.4,159697,97919.9,102575,49072.3,47751.8
121372,66717.9,143092,133206,99057,117048,49624.8,46000.8
47639.7,78623.1,65785.9,92211.2,78024.9,85225.1,42106,47661.9
49239.9,57365.1,53747.1,105532,82784.2,96281.1,41937.7,38259.5
60641.1,73445.4,78601.7,99305.8,110661,102247,41949.1,44734
61220.7,102648,59754.7,126476,74793.1,127727,46010.4,35010.2
82313.1,72832.5,102928,88533.3,122674,82835.7,49628.2,44343
58727.7,66123,79694.3,76192.9,112336,78767.1,43988.7,49740.7
63977.4,51138,87228.1,86337.1,95087.1,77211.7,47892.1,28513.3
72740.7,62413.2,59654.6,99450.3,81818.2,107301,36572.5,45332.9
97795.8,65839.5,149036,69241.5,150584,92050,52861.2,34358.8
84532.5,100519,80921.6,117458,88780.7,114981,38566.5,43902.6
48769.2,56867.4,51966.5,72943,74252.4,75037.8,34493.1,48916.3
67146.3,94709.7,62388.8,180220,95666.8,145277,46321.9,51629.3
49202.1,60655.5,65984.7,100405,83195.7,78644.8,52705.5,43090
68491.8,70449.3,50277.7,87888.3,78649,73721.4,28623.9,47267.8
52088.4,60911.1,67978,74071.7,95045.4,90433.4,51441.6,42856.1
89874,61357.5,72546.9,90494.6,77256.2,105712,33842.1,48661.2
68937.3,72822.6,68283.8,130556,87886.9,113439,45237.8,50219
52976.7,85012.2,58912.4,117609,83835.1,108773,42675.4,44028.7
65367,59706,135255,86883.3,136502,126744,45951.2,49493.8
92180.7,85359.6,92589.3,119769,109324,121607,46658.4,36461.8
101167,70964.1,158371,92340.5,132730,125046,48103.1,48103
64595.7,58763.7,73476.8,51664.9,91724.7,76115,51034.6,27274.8
76059,73945.8,98660.8,91698.3,105946,86526.1,44846.4,46443.4
78400.8,80682.3,78662.9,91494,91695.5,77685.7,43434.2,45008.5
51492.6,62794.8,55775.1,151215,87015.4,149992,39617.4,40305.1
47331,81889.2,73998,123456,100831,107979,45550.2,38240.4
70420.5,73467,73417,90135.9,87144.7,111204,45961.6,49443.5
96983.1,65607.3,86028.5,102646,113913,82998.3,48349.1,47538
119692,70571.7,113830,83183.2,109044,85051.3,37710.2,31559.8
56817,74172.6,82784.2,114934,99900.7,92750.5,43970.9,47198
79047,66150.9,80094.6,77103.3,80931.4,78439.1,38207.4,48895.5
56404.8,64670.4,78259.8,107065,94460.2,103025,44972.4,50677.3
62304.3,57133.8,59607.4,99515.7,81987.8,90683.6,38732.1,30885.6
46298.7,73241.1,64883.8,70789.9,113709,73613,35174.1,40515.1
78110.1,52332.3,70956.7,54007.1,113797,76209.5,51118.5,43152
67839.3,57420.9,96243.6,69027.4,116677,87014,48627.9,51224.6
86509.8,60026.4,113773,96713.4,99050,89049,49185.9,43771.9
52290.9,85589.1,124088,111257,126220,96110.2,47451.9,48196.2
82679.4,66436.2,93841.7,63315.9,131701,74896,52665.8,47082.8
54617.4,83277.9,78383.5,91361.9,108256,123991,43049.9,40695.5
66869.1,99665.1,66221,124658,82060,116078,45863.2,47133
48526.2,67929.3,60770.8,107119,75146.2,133269,41254.9,51011.2
76190.4,107878,78279.2,153182,78480.8,124747,49902.4,51226.6
75710.7,84123,77792.7,75226.8,97213.8,79880.5,50428.1,43507.3
66093.3,80681.4,98552.4,91449.5,131356,99877.1,50566.7,37608.6
42913.8,84615.3,73713.1,94166.9,113402,119447,35163.7,50345.2
56897.1,103178,54813.3,105381,77051.9,98815.1,32697.6,51935.4
53566.2,70970.4,73378.1,79644.2,95133,85589.2,52775.6,46010.6
76957.2,68876.1,84475.9,68066.9,97993.6,90491.8,51191,41002.4
63280.8,87006.6,68820.3,79470.5,90879.6,90691.9,38522.7,42051.2
53876.7,70113.6,80507.4,92654.6,75149,82315.8,33233.1,45673.5
62245.8,57273.3,86348.2,72902.7,77342.4,87321.2,35847.6,43177.3
48733.2,60976.8,63755.1,144693,77841.4,118792,35349,45916.5
69083.1,67298.4,74832,130385,81251.1,117249,33527.3,45309.3
59225.4,84212.1,63156,117479,78077.7,130995,49154.7,49968.9
68501.7,82920.6,93551.2,117801,127598,99847.9,52463.5,48629.6
71637.3,93855.6,90302.7,84405,87378.2,96706.5,44257.8,43760.3
55103.4,62705.7,80632.5,134773,87271.1,142189,46144.1,51206
94131.9,46610.1,122510,89065.6,127095,87282.3,46562.7,28924.3
75464.1,61767.9,97412.6,73403.1,102119,92904.8,47284.6,51640.1
57974.4,75546.9,71234.7,104294,82677.2,94119.7,49083.7,40137.6
65075.4,,56347.8,,75970.4,,38490.4,,
51468.3,,50126.2,,77381.3,,32877.9,,
76760.1,,76618.2,,85072.2,,38120,,
70333.2,,100138,,100901,,47170,,
60820.2,,63295,,103890,,35106.5,,
55360.8,,86124.4,,99168.2,,45373.9,,
73692.9,,55693.1,,88131.6,,40539.3,,
80036.1,,76565.4,,105222,,46995.4,,
70372.8,,72763.7,,92909,,52415.9,,
88061.4,,88593,,109248,,44213.1,,
55176.3,,54098.8,,83812.8,,35755.7,,
63033.3,,61964.8,,91539.8,,40997.3,,
54844.2,,83452.8,,98445.4,,39052.3,,
54540,,57415.3,,78924.2,,50142.1,,
70650.9,,70037.9,,90654.4,,39859.1,,
76080.6,,83354.1,,83351.4,,46748.2,,
84388.5,,94627,,99486.5,,51116.1,,
74162.7,,78882.5,,94859.2,,47906.8,,
77503.5,,75798.1,,96937.2,,46784,,
88932.6,,95277.5,,105166,,47466.7,,
102992,,90725.3,,135164,,48898.1,,
64208.7,,56991.4,,72676.1,,46580.5,,
103020,,101601,,101111,,49515.2,,
48248.1,,68880.1,,74704.2,,42809.7,,
68850,,83758.6,,118311,,52293.1,,
51489.9,,71055.4,,73140.4,,31725.1,,
62766,,70906.7,,78163.9,,32516.1,,
50794.2,,74303.8,,93573.4,,48262.8,,
50570.1,,48786.2,,75482.6,,50532.3,,
80202.6,,65501,,80118.2,,35986.8,,
48836.7,,45379.3,,78268.1,,36465.2,,
80764.2,,87702,,92155.6,,46008.2,,
100127,,145156,,122430,,40568.4,,
51567.3,,56374.2,,89973.3,,35332.5,,
72864,,104572,,110729,,46422.7,,
47262.6,,78312.6,,100252,,34957.9,,
68903.1,,108317,,118580,,44992.8,,
62835.3,,54369.8,,79127.1,,41146.6,,
74278.8,,89638.3,,102351,,48476.3,,
65335.5,,73482.4,,89015.6,,46987.4,,
46998.9,,69476.4,,83604.3,,48532.3,,
57613.5,,65503.8,,92949.3,,36770.7,,
88880.4,,132325,,109404,,51041.1,,
41861.7,,59665.8,,78740.7,,32458.3,,
70501.5,,96217.2,,117566,,51768.9,,
75109.5,,90334.7,,100908,,49820.4,,
75461.4,,118517,,128284,,52836.5,,
45036.9,,62177.5,,93994.6,,48870.5,,
69509.7,,74577.7,,83423.6,,46508.2,,
98276.4,,94055.7,,121745,,44610,,
62595,,72482.9,,85489.2,,37842.5,,
49529.7,,62253.9,,81016.1,,36910.3,,
75178.8,,76761.4,,86602.6,,30330.1,,
47306.7,,67936.2,,100394,,47681.5,,
76452.3,,75557.6,,96926.1,,44714.9,,
45895.5,,79206.4,,84050.5,,32592.3,,
56774.7,,73150.1,,102077,,51964.1,,
47466.9,,43723.8,,77470.3,,36249.6,,
86784.3,,79770.7,,132271,,46955.2,,
69845.4,,72806.8,,88213.6,,40790.8,,
56655.9,,96189.4,,101843,,47201.7,,
45095.4,,61044.6,,81198.2,,32302.7,,
69317.1,,87057.1,,129212,,42537,,
44904.6,,45072.1,,74073.1,,47130.6,,
69820.2,,72441.2,,78497.5,,34433.6,,
69963.3,,80158.5,,94728.5,,49380,,
45216,,71077.6,,73722.8,,46455.2,,
62799.3,,81003.6,,108697,,51147.3,,
85096.8,,81533.2,,94140.5,,42770.6,,
70045.2,,76222,,91121.4,,47492.3,,
63297.9,,43797.5,,101926,,43670.9,,
56370.6,,56775.9,,78169.4,,37204.3,,
55632.6,,59191.8,,86795.8,,43044.1,,
53145.9,,46424.6,,75123.9,,32635.3,,
54598.5,,78719.9,,128375,,50185.2,,
54037.8,,50245.7,,75845.4,,47452.7,,
71073.9,,72306.4,,75695.2,,45039.1,,
92612.7,,109304,,108143,,47673.3,,
77963.4,,98085.4,,104609,,48442.3,,
80220.6,,86353.8,,120531,,49771.6,,
55166.4,,75342.2,,85743.5,,34248.7,,
86565.6,,77259,,77769.1,,35842.1,,
77412.6,,68404.7,,73397.6,,46533.3,,
87435,,89328.4,,99884,,48540.7,,
79570.8,,97401.5,,109640,,46826.8,,
57346.2,,95719.6,,81050.9,,49268.4,,
64270.8,,79312,,75992.7,,46470.6,,
92792.7,,78251.4,,95729.3,,43366.3,,
71620.2,,102151,,129579,,47095.2,,
61202.7,,58905.4,,75064.2,,35278,,
73252.8,,75446.4,,83653,,40586,,
61556.4,,89971.9,,80596.4,,45138.7,,
66289.5,,76978.2,,87957.8,,33556.7,,
65094.3,,98945.8,,108381,,41863.3,,
64600.2,,82117,,99941,,37770.7,,
49314.6,,77031,,114626,,49298.9,,
110809,,169456,,115674,,51004.1,,
81633.6,,146485,,142368,,47829.9,,
69245.1,,107255,,127995,,52291.4,,
41590.8,,63709.3,,103884,,47027.4,,
66042.9,,86300.9,,108342,,45686.4,,
54808.2,,65717.8,,86079.9,,34065.8,,
76449.6,,67934.9,,73272.5,,48424.6,,
111425,,134623,,132856,,46064.4,,
66222,,109911,,100212,,47749.4,,
48202.2,,59546.2,,75244.9,,41017.6,,
85107.6,,93114.7,,95618.1,,36634.7,,
73526.4,,81252.4,,94172.5,,46074.3,,
76305.6,,62522.2,,76634.9,,35435.4,,
44631.9,,65441.2,,86010.4,,43196.1,,
55801.8,,64787.9,,84026.9,,42846.1,,
75118.5,,88783.5,,102971,,42322.5,,
61674.3,,67624.9,,97283.3,,41238,,
88141.5,,94482.5,,111499,,44153.1,,
61697.7,,67138.4,,90288.8,,37431.7,,
42723.9,,50869.8,,77983.2,,47483.3,,
109932,,132724,,115000,,49005.6,,
86540.4,,96167.1,,99447.5,,43494,,
67247.1,,85977.1,,78536.4,,44620.3,,
65294.1,,71642,,82181,,35065,,
63495.9,,88537.4,,124937,,49457.7,,
62343,,78213.9,,90137.3,,39798.4,,
72252.9,,118033,,131195,,45530.8,,
66633.3,,88381.8,,93588.7,,39577.2,,
59751.9,,84648.2,,93503.9,,40540.8,,
78663.6,,82735.6,,118214,,50641.3,,
45465.3,,79894.4,,94286.5,,42136.1,,
92827.8,,89605,,91464.8,,43977.2,,
48289.5,,54362.9,,73464.3,,39714.7,,
82023.3,,80374,,74929.3,,47979.9,,
94497.3,,74602.7,,80575.5,,35099.8,,
68542.2,,88194.1,,99529.6,,41714.7,,
85507.2,,99102.8,,108157,,52429.2,,
77796.9,,95291.4,,93003.5,,46115.7,,
59311.8,,82617.4,,101667,,37644.8,,
89200.8,,78030.4,,77328.5,,41475,,
63173.7,,78150,,90169.3,,44654.8,,
56022.3,,70917.8,,83921.2,,32746.3,,
53140.5,,99151.5,,106202,,51288.2,,
61659,,52343.2,,98913.8,,46479.7,,
54013.5,,73886.8,,85961.8,,49701.1,,
80422.2,,86141.1,,105144,,50093.6,,
43533,,47292,,79154.9,,38379,,
99461.7,,123294,,87686.8,,37643.5,,
94977,,92040.2,,102896,,38754.1,,
58624.2,,69028.8,,95031.5,,36729.2,,
53499.6,,42233.8,,73724.2,,46164.6,,
48524.4,,90019.2,,88053.7,,46170.1,,
87248.7,,111593,,107207,,52546.7,,
67199.4,,70133.8,,78201.4,,41236.4,,
73062.9,,73426.8,,75322.7,,27890.6,,
60196.5,,82313,,108056,,44130.6,,
51565.5,,60061.9,,77160.3,,27971.6,,
74145.6,,114726,,121903,,47708.4,,
93180.6,,104639,,90237.4,,43852,,
54784.8,,101275,,120439,,50949.6,,
67750.2,,88711.2,,117144,,45428.9,,
76007.7,,66301.6,,97561.3,,35717.8,,
54342,,48412.3,,82299.1,,45133.6,,
46458,,63639.8,,80151.6,,42426.3,,
79419.6,,95080.2,,89681.4,,42157.3,,
81552.6,,109578,,116920,,44125.6,,
63045.9,,62673.7,,94913.4,,37964.1,,
75987,,74467.9,,76153.9,,52116.8,,
46034.1,,73351.7,,100304,,51318.3,,
75490.2,,68426.9,,96356.2,,45122.6,,
50798.7,,61527,,88114.9,,39182.2,,
88001.1,,113338,,118432,,49526.3,,
62388.9,,58414.8,,82336.6,,39842.7,,
65864.7,,95726.5,,106773,,41596.6,,
72777.6,,78401.6,,93934.8,,36073.1,,
83032.2,,106855,,107290,,44433.1,,
49859.1,,77849.7,,78706,,46278.1,,
42615.9,,62433.2,,77185.3,,29436.7,,
55812.6,,74235.7,,94211.4,,43388.2,,
68947.2,,62818.3,,91820.6,,45049.9,,
70845.3,,103764,,112811,,51496.3,,
71954.1,,87421.3,,97483.5,,47186.5,,
62360.1,,66165.4,,91653.8,,31072.4,,
56788.2,,85548.9,,141913,,40852.1,,
75488.4,,114567,,76261,,46661,,
63614.7,,63539.7,,76244.3,,40163.6,,
56776.5,,88486,,101816,,52743.6,,
53189.1,,60993.2,,101649,,46279.1,,
65278.8,,63346.5,,75289.4,,41674.2,,
78900.3,,75065.6,,97461.2,,44792.7,,
89281.8,,111340,,140557,,47012.2,,
81467.1,,114323,,128065,,49977.6,,
45128.7,,71440.4,,93590.1,,49266.9,,
77868,,110027,,113778,,43096.3,,
52438.5,,80501.9,,134288,,47860.9,,
65295,,97329.2,,92036.1,,43511.1,,
69632.1,,59729.7,,87062.6,,33104.2,,
68610.6,,54906.4,,72754,,39312.4,,
54023.4,,92963.2,,90351.4,,40494.8,,
73812.6,,66706.1,,84022.7,,33641.8,,
69750.9,,110274,,103962,,42182,,
47345.4,,68271.2,,123333,,37663.6,,
89189.1,,90527.9,,82389.5,,42840.9,,
51409.8,,92614.3,,98585.8,,39467.5,,
86056.2,,92461.4,,99062.5,,48691.8,,
81662.4,,97419.5,,89360.3,,43926.8,,
66837.6,,73464.3,,83415.3,,51529.3,,
51846.3,,56621.6,,75403.3,,43072.1,,
54996.3,,70450.8,,96539.7,,43137.9,,
55611,,78397.4,,83048.3,,43655.9,,
98900.1,,123518,,93131.4,,41982.1,,
42206.4,,40517.1,,77142.2,,27541.6,,
67787.1,,83704.4,,82101.7,,47466.5,,
89280.9,,109677,,93123,,42481.5,,
97094.7,,142968,,124035,,46777.4,,
76777.2,,105917,,132088,,52844.5,,
56940.3,,73861.8,,90981.1,,48928.5,,
87345.9,,110436,,111175,,47289.1,,
68126.4,,91229.9,,129445,,47505.3,,
89352,,100101,,110957,,45904.9,,
81706.5,,100094,,96942.8,,43189.2,,
73876.5,,79241.1,,121118,,51416.1,,
74061.9,,74994.7,,89983,,39781.4,,
48512.7,,60563.7,,89812.1,,43604.5,,
59786.1,,54312.9,,88606.9,,51206.5,,
111662,,112166,,86651.2,,41183.4,,
63383.4,,83993.5,,97668.4,,50065.3,,
51111.9,,55430.4,,72343.9,,43306.3,,
78451.2,,95666.8,,103827,,39628.6,,
57674.7,,64790.7,,79858.3,,51112.4,,
60904.8,,97483.5,,106146,,46840.3,,
90917.1,,99617.1,,107573,,46871.7,,
46832.4,,63349.2,,86288.4,,31527.9,,
69373.8,,89682.8,,120680,,49477.6,,
58765.5,,95627.8,,108983,,48088.4,,
56683.8,,100674,,92621.3,,39758.2,,
81144.9,,75256,,82870.4,,46903.9,,
80745.3,,122124,,127476,,48501.5,,
72426.6,,69929.5,,102895,,41271.5,,
119047,,155434,,87761.8,,40002.6,,
100651,,123754,,133867,,52226.5,,
54158.4,,91232.6,,91980.5,,40543.5,,
67702.5,,88099.6,,85141.7,,33503,,
58105.8,,91644.1,,126142,,49910.7,,
74466,,104396,,102653,,41951.2,,
46884.6,,66389.2,,73614.4,,45929.9,,
63923.4,,106165,,105726,,52034.3,,
42174,,42329.7,,72541.3,,34020.6,,
79500.6,,131520,,124119,,51490.8,,
67774.5,,80127.9,,75385.3,,46655.1,,
74385,,104179,,104368,,50275.7,,
57075.3,,69575.1,,76562.6,,31547.1,,
58869,,102246,,106007,,41191.6,,
69617.7,,108534,,120380,,52419.1,,
83597.4,,65129.8,,93964,,43177.3,,
60209.1,,76678,,97750.4,,43017.9,,
92329.2,,94109.9,,92455.9,,50205.7,,
65803.5,,74050.9,,73209.9,,46305.4,,
81584.1,,146298,,96224.1,,48455.7,,
69474.6,,61317.1,,86902.8,,48159.3,,
48422.7,,101281,,84150.6,,39117.3,,
56438.1,,83040,,97450.1,,47641.4,,
55792.8,,76682.1,,84189.5,,38981.8,,
66170.7,,69910,,81203.8,,38565.8,,
45293.4,,53408,,73333.6,,47234.4,,
70362,,88194.1,,108844,,40488.1,,
71456.4,,99968.8,,101356,,46993.5,,
66720.6,,79936.1,,111611,,46771.6,,
63380.7,,64801.8,,76586.2,,45311.1,,
77330.7,,59454.5,,75489.5,,46665,,
69555.6,,75032.2,,81391.4,,48106.7,,
63027,,56139.3,,114198,,49123.8,,
76780.8,,79374.6,,79855.5,,42896.2,,
85408.2,,100054,,119277,,43964.1,,
89599.5,,94718.8,,92763,,42589.2,,
58839.3,,70491.1,,76326.3,,27199,,
54486,,78733.8,,96901.1,,49011.3,,
65082.6,,63256.1,,88487.4,,33708.4,,
86012.1,,104981,,103387,,47822,,
62541,,57983.8,,92415.5,,38195.4,,
74435.4,,78177.8,,86342.6,,47846.5,,
67929.3,,80264.2,,87009.8,,39252.1,,
62995.5,,78678.2,,92590.7,,44943.1,,
52052.4,,64732.3,,86560.9,,43670.7,,
58664.7,,85747.7,,76465.3,,31381.2,,
65557.8,,79350.9,,82706.4,,40956.3,,
78346.8,,61753.5,,99262.7,,45168.8,,
74823.3,,73511.5,,80870.2,,42019.2,,
54477.9,,60950.1,,88618.1,,42115.3,,
91349.1,,98501,,112666,,47036.4,,
60181.2,,84132.5,,85711.6,,39828.4,,
78663.6,,71457.1,,78044.3,,34115.3,,
76287.6,,88159.4,,105862,,51399,,
78690.6,,59002.7,,77758,,36548.8,,
56016.9,,88629.2,,91545.4,,43076.5,,
82596.6,,102221,,82183.8,,50513.3,,
65044.8,,80494.9,,114059,,44986,,
55438.2,,60492.8,,74023.1,,45220.6,,
68680.8,,61821.6,,77965.1,,46179,,
68768.1,,83814.2,,84646.8,,47563.5,,
77318.1,,100469,,113880,,45377.6,,
60030.9,,76643.2,,75969.1,,46533,,
72989.1,,103630,,101011,,48705.8,,
54829.8,,104092,,93153.6,,50970.1,,
73738.8,,58908.2,,93054.9,,38016.2,,
64322.1,,88405.4,,104125,,47434.7,,
67781.7,,80082.1,,97682.2,,50983.4,,
82536.3,,98884.6,,107289,,46291.6,,
63566.1,,76942.1,,108716,,48538.7,,
74373.3,,148164,,140478,,49611.5,,
61988.4,,60841.7,,89787,,39414.9,,
52988.4,,66860.4,,91142.3,,52086.6,,
76021.2,,89414.5,,88815.4,,47323.1,,
54160.2,,109037,,126073,,49482.1,,
66162.6,,105786,,143467,,50019,,
76221.9,,105912,,106096,,46352.2,,
66087.9,,92820,,118393,,47107,,
81074.7,,64903.3,,74102.3,,45999,,
65502.9,,94027.9,,128651,,52461.6,,
56030.4,,84299.3,,120268,,52053.8,,
79399.8,,71733.7,,99465.6,,39427.3,,
67531.5,,73825.7,,77085.2,,37296.8,,
84251.7,,71600.3,,87062.6,,38444.6,,
80920.8,,68673,,89354.8,,46356.8,,
46598.4,,67025.8,,81126,,42991.4,,
49125.6,,72787.4,,88351.2,,51122.5,,
66740.4,,71309.8,,108252,,44651.4,,
77386.5,,80487.9,,100411,,45182.8,,
82562.4,,96093.5,,106485,,44722.4,,
63810.9,,69854.5,,88146.9,,47078.5,,
87390.9,,102572,,115752,,43202.2,,
77767.2,,102948,,158327,,52642.1,,
74396.7,,63295,,80621.4,,46088.2,,
77039.1,,115809,,118539,,51661.4,,
55475.1,,66707.5,,91988.8,,33811.3,,
58022.1,,88802.9,,107657,,46007,,
66720.6,,66988.3,,95080.2,,40506.1,,
70509.6,,65031.1,,76115,,41681.3,,
76508.1,,88630.6,,91616.3,,37967.3,,
80066.7,,105251,,110750,,47283.4,,
52508.7,,53505.3,,86442.7,,39196.9,,
45844.2,,78213.9,,110672,,46299.2,,
47540.7,,49281.1,,94593.7,,46058,,
172930,,163711,,167545,,49617.6,,
62105.4,,88576.4,,107665,,34494.6,,
105005,,103645,,129894,,52095.3,,
60232.5,,85461.4,,76718.3,,50543.1,,
86875.2,,80561.6,,102140,,46159,,
61382.7,,80214.1,,76879.5,,44575.8,,
89064,,89281.1,,81149.6,,40162.9,,
80818.2,,83597.4,,92690.8,,36992.7,,
142538,,134381,,137817,,35248,,
53486.1,,78881.1,,74631.9,,42837,,
76455.9,,79193.9,,95783.5,,35985.3,,
65077.2,,89983,,110126,,45040.4,,
55423.8,,67577.6,,100889,,40797.5,,
75656.7,,73886.8,,86239.8,,44867.5,,
63330.3,,96110.2,,99246,,45080.8,,
67316.4,,100618,,96620.3,,47645.6,,
79218,,93661,,120584,,46395.3,,
82211.4,,80601.9,,87107.1,,43248.9,,
75398.4,,93260.7,,97272.2,,48983.7,,
94634.1,,83001.1,,74790.3,,37406.4,,
48267,,49988.6,,79332.9,,40041.9,,
47174.4,,83269.3,,87875.8,,41082.2,,
62514.9,,87022.3,,84099.2,,52490.4,,
51119.1,,87494.9,,92979.9,,40777.9,,
53778.6,,62355.4,,80685.3,,46795.1,,
52501.5,,81191.3,,110561,,52833.8,,
45505.8,,66016.7,,98988.9,,49939.7,,
54850.5,,76797.5,,100665,,32914,,
73629,,89395.1,,72647,,50838.2,,
84595.5,,95880.8,,114917,,43747.4,,
97821,,107874,,117566,,47914.5,,
82420.2,,84906.8,,133148,,47560.1,,
66439.8,,71835.2,,73367,,36500.5,,
62906.4,,67555.4,,87141.9,,41581.9,,
44135.1,,66710.3,,79656.7,,34816.8,,
67626.9,,70650.9,,101955,,40293.1,,
77760,,114903,,107728,,44920.5,,
82740.6,,76009.4,,80535.2,,43629.6,,
78639.3,,78649,,88662.5,,42085.2,,
61879.5,,53879.2,,91516.2,,40692.8,,
87057.9,,111160,,117556,,50572.7,,
72021.6,,74210.7,,98815.1,,35324.5,,
43593.3,,72309.2,,88658.4,,38450.6,,
68228.1,,66043.1,,80014,,45925.1,,
87867,,107351,,120396,,50983.8,,
111271,,90958.8,,130468,,44277.3,,
75347.1,,95130.2,,90398.6,,44691.5,,
74212.2,,82928.8,,81964.1,,45404,,
66133.8,,82167.1,,77723.2,,46685.1,,
68942.7,,101317,,106120,,46508.1,,
59647.5,,47921.6,,74337.2,,42349.2,,
102013,,114008,,119924,,43571.8,,
96330.6,,75267.1,,84018.5,,44686.9,,
64410.3,,63375.7,,83110.9,,38679.3,,
50994,,77189.5,,94867.5,,39830.4,,
50985,,82130.9,,116261,,48158.9,,
53001.9,,68492.2,,97187.4,,39347,,
50630.4,,76822.5,,123208,,46570.2,,
149539,,198517,,97350,,49249.3,,
67735.8,,87392.1,,72713.7,,35341.8,,
55271.7,,80098.8,,96420.1,,36423.4,,
70639.2,,66379.5,,86034,,40765.2,,
71432.1,,75839.8,,109772,,43044.7,,
61981.2,,72567.7,,127601,,50257.5,,
93501.9,,105133,,98685.8,,45043.2,,
56221.2,,80146,,97123.5,,46675.6,,
72502.2,,81277.5,,73974.4,,37518.3,,
54213.3,,70364.6,,87232.2,,45007.7,,
66579.3,,83119.2,,83033,,45618,,
73281.6,,61921.7,,83211,,52746.4,,
81085.5,,95465.2,,93788.9,,46885.2,,
64863,,61725.7,,80565.8,,49078.2,,
78831,,91195.1,,102878,,39819.8,,
85301.1,,139284,,148654,,51723.1,,
81646.2,,104395,,120773,,45400,,
79563.6,,64379.2,,79805.5,,44035.9,,
70348.5,,80159.9,,72549.7,,45038.7,,
94613.4,,113805,,92553.1,,33506.8,,
92536.2,,109382,,110509,,44759.2,,
103118,,116529,,105850,,44430.2,,
61437.6,,69894.8,,79218.9,,41062.6,,
80588.7,,89673.1,,109506,,46660.1,,
54118.8,,62422.1,,79635.9,,31953.1,,
91666.8,,96182.4,,90163.7,,44139.4,,
50812.2,,62886.4,,84906.8,,34357.5,,
73242.9,,85946.5,,86139.7,,37129,,
90332.1,,118415,,116909,,42491.5,,
43001.1,,58934.6,,77175.6,,31954.5,,
80496.9,,78697.6,,78654.5,,38271.6,,
50288.4,,63694,,74599.9,,45139.2,,
84890.7,,75000.2,,121783,,50604.4,,
62541.9,,67221.8,,98464.8,,46857.5,,
41953.5,,47863.3,,74092.6,,32777.9,,
59718.6,,68115.6,,98505.1,,46228.5,,
120473,,165595,,142168,,47285.7,,
65519.1,,86302.3,,98368.9,,45030.5,,
55655.1,,58613.5,,87752.1,,52786.9,,
51444.9,,55793.2,,82688.3,,40120.4,,
110268,,96372.9,,118058,,42433.1,,
75124.8,,90561.3,,116165,,48259.8,,
55233,,79901.4,,98288.3,,44519,,
70065.9,,85693.5,,107764,,46636.6,,
82928.7,,92543.4,,90291.6,,32889,,
65401.2,,72111.8,,85879.8,,34408.4,,
53300.7,,79293.9,,101797,,46660.6,,
82257.3,,93781.9,,112277,,36780.4,,
50400,,111506,,79160.5,,31929.1,,
55203.3,,59626.8,,83855.9,,38568.2,,
99220.5,,99304.4,,105122,,47191.1,,
51624,,59290.4,,76109.4,,38142.6,,
54976.5,,70960.9,,73604.7,,47769.4,,
98836.2,,76764.1,,87446.3,,43235.4,,
78291,,93374.6,,80380.9,,33264,,
58410.9,,62912.8,,82996.9,,46230.1,,
84267.9,,74641.6,,88095.4,,39476.5,,
69202.8,,80172.4,,110278,,48640.9,,
63515.7,,79836,,116727,,46224.8,,
51662.7,,112188,,104206,,43606.6,,
70905.6,,77997.1,,87689.5,,46126.5,,
79355.7,,75540.9,,74655.5,,36811.6,,
62355.6,,74736.1,,74007.8,,44679.3,,
65616.3,,71856,,90598.8,,41438.3,,
53939.7,,74706.9,,75345,,30145.4,,
79471.8,,93113.3,,91979.1,,49332.6,,
83088,,109779,,111417,,46799.8,,
43558.2,,46407.9,,72560.8,,30907.3,,
62667,,61515.8,,73380.9,,29378.8,,
118634,,160619,,144408,,51304.4,,
68670.9,,58553.8,,84577.3,,45768.5,,
77247,,153762,,119085,,49125.4,,
75765.6,,91916.5,,92393.3,,44062.4,,
77892.3,,86734.6,,98278.6,,44975.4,,
65398.5,,94476.9,,102097,,42195.6,,
80130.6,,92301.6,,109690,,40886.1,,
78904.8,,60269,,76463.9,,42559.7,,
78430.5,,70176.9,,74107.9,,43056.1,,
53286.3,,69490.3,,82143.4,,51822,,
58237.2,,80503.2,,74353.9,,41589.4,,
76736.7,,94988.4,,117780,,42225.2,,
102232,,129606,,86038.2,,49605.4,,
96364.8,,139061,,145440,,52898,,
73233,,86613.7,,100090,,40427.6,,
75330,,83819.8,,98042.3,,42987.5,,
73488.6,,85608.7,,83589,,35518.6,,
65990.7,,82616,,105837,,46406,,
71631.9,,54526.9,,73467.1,,33950.2,,
67752,,85346,,113227,,47695.3,,
90464.4,,106095,,107091,,48379.9,,
48344.4,,69269.3,,110657,,48376.6,,
77579.1,,88174.6,,97329.2,,34969.5,,
81136.8,,108958,,99799.2,,41827.2,,
74249.1,,67257.9,,81316.4,,42136.4,,
73998.9,,74441.5,,97976.9,,42197.2,,
79152.3,,71824.1,,101581,,48952.8,,
56696.4,,92974.3,,107817,,50657.9,,
64876.5,,55990.6,,78475.2,,42463.4,,
73176.3,,61002.9,,78055.4,,37484,,
73209.6,,83608.5,,76762.8,,35788.7,,
55910.7,,100537,,237611,,42656.3,,
57384.9,,55576.4,,82628.5,,41360.6,,
79415.1,,73169.6,,87412.9,,51731.5,,
54059.4,,78485,,84275.7,,34062.3,,
56513.7,,54362.9,,73551.9,,36957.9,,
69534,,99273.8,,110184,,46541.4,,
42858.9,,64779.6,,95754.3,,42251.6,,
51001.2,,47556.1,,73054.2,,40118.2,,
67050.9,,115239,,125329,,48223.9,,
43984.8,,68365.8,,82994.1,,44334.3,,
69515.1,,72843,,85533.6,,39857.1,,
60099.3,,70755.2,,91644.1,,51847.8,,
95275.8,,82721.7,,107371,,44098.1,,
73355.4,,87759,,95334.5,,46718.6,,
65853.9,,78533.6,,77916.4,,39526.2,,
70809.3,,80235,,121102,,47160.7,,
64796.4,,73608.8,,98129.8,,46445.4,,
47426.4,,48278.9,,78907.5,,28835.6,,
64868.4,,77182.5,,80709,,29740,,
81126,,104749,,105790,,47068.7,,
56173.5,,58462,,74619.4,,30817,,
76835.7,,74370.6,,74180.1,,51598.1,,
73674,,80567.2,,130356,,46402.9,,
57097.8,,82510.4,,92173.7,,31829.3,,
77838.3,,81682,,109102,,50662,,
57747.6,,100762,,124508,,50592,,
82797.3,,84570.4,,109923,,48003.4,,
70694.1,,84485.6,,89368.7,,41777.4,,
80729.1,,124306,,121888,,51890.3,,
60812.1,,70717.6,,93257.9,,36685.2,,
71889.3,,56226.9,,75556.2,,34679.7,,
98501.4,,59063.9,,93569.2,,46037.6,,
66981.6,,67552.6,,85664.3,,37077.3,,
74746.8,,76526.4,,91520.4,,45793.9,,
56849.4,,64115.1,,83598.8,,39283.6,,
54200.7,,85706,,78063.8,,46697.9,,
73759.5,,72035.4,,95982.3,,45149,,
68817.6,,92858.9,,93195.3,,48527.1,,
85061.7,,67116.1,,95726.5,,46776.1,,
79732.8,,100473,,109525,,37853.4,,
82377.9,,77026.9,,96635.6,,44910.7,,
96508.8,,79558,,78038.8,,45138.3,,
65566.8,,80553.3,,76212.3,,49415.7,,
53106.3,,60202.3,,102802,,36690.7,,
77514.3,,77029.6,,95879.4,,52175.2,,
59721.3,,72230,,91998.5,,40188.1,,
72081,,80675.6,,91099.2,,42546.5,,
83747.7,,86900,,83103.9,,47005.7,,
55347.3,,63820.5,,79872.2,,27490,,
52600.5,,63834.4,,79548.3,,46731.9,,
93660.3,,80303.1,,106221,,41195.8,,
54218.7,,49304.7,,74790.3,,30979.1,,
76266,,77186.7,,85679.6,,35258.4,,
52853.4,,82650.8,,78940.9,,28393.3,,
90704.7,,85615.7,,100808,,50191.2,,
79853.4,,85803.3,,94856.4,,40975,,
64380.6,,73618.6,,76313.8,,36982.5,,
75816,,63403.5,,75613.2,,46666.9,,
94547.7,,97762.9,,105454,,44562,,
113046,,140986,,135301,,43415.8,,
75700.8,,82267.1,,77227,,41100.8,,
94523.4,,73839.6,,109002,,43628.2,,
52423.2,,54910.6,,72375.9,,35367.7,,
87151.5,,76650.2,,97208.3,,47410.7,,
67194.9,,66772.8,,73656.1,,48467.2,,
59009.4,,68386.6,,90295.8,,38772.7,,
48818.7,,65585.8,,87786.8,,35685.3,,
70068.6,,96592.5,,118506,,50235.6,,
60866.1,,88410.9,,88623.6,,52191.1,,
79430.4,,82709.2,,107644,,51688.6,,
49897.8,,84203.4,,104399,,50937.2,,
78989.4,,89282.5,,102936,,46296.9,,
74840.4,,91596.8,,97938,,38367,,
74504.7,,94079.4,,99362.8,,50356.7,,
68289.3,,53245.3,,73001.4,,41891.8,,
54466.2,,77297.9,,97099.8,,43716.2,,
69795,,91596.8,,118428,,47481.8,,
59397.3,,90604.4,,94214.2,,48036.2,,
51389.1,,76607.1,,80510.2,,29047,,
69628.5,,73244.7,,83572.4,,42251.2,,
61010.1,,67795.9,,77774.7,,46500.3,,
60247.8,,64067.9,,72519.1,,38621.2,,
89717.4,,110034,,101645,,41995.3,,
101265,,120081,,114597,,47165.4,,
59022.9,,83454.2,,109870,,49118.1,,
84117.6,,92404.4,,94404.6,,44940.5,,
73583.1,,125776,,100587,,46856.9,,
74097,,77568.9,,75425.6,,38556.3,,
64619.1,,102361,,117252,,50810.9,,
57310.2,,66918.8,,75217.1,,34743.2,,
68454.9,,67189.8,,87228.1,,42251.5,,
82753.2,,80572.7,,87747.9,,44242.8,,
81075.6,,91951.3,,100241,,44363.2,,
70616.7,,87242,,121881,,48360.1,,
74892.6,,72427.3,,87381,,50163.8,,
70180.2,,83594.6,,96042,,29173.4,,
89270.1,,79656.7,,98819.3,,45678.4,,
62948.7,,73102.9,,74583.2,,43736.1,,
90135.9,,79905.5,,84632.9,,43748.7,,
57303,,106336,,140806,,49618.1,,
81504.9,,87105.7,,129969,,50037,,
111066,,87014,,86751.3,,44971.5,,
64842.3,,83038.6,,107446,,50591.1,,
95390.1,,134099,,128058,,47047.8,,
45767.7,,59034.7,,104064,,50013.5,,
60546.6,,99532.3,,89142.1,,49469,,
75523.5,,80218.3,,85340.4,,38675.9,,
89736.3,,85115.3,,104393,,51911.8,,
85694.4,,102176,,144094,,50966.3,,
54995.4,,88319.2,,79791.6,,48333.1,,
