"FSC-A","FSC-A","SSC-A","SSC-A","FITC-A","FITC-A","Comp-PE-A","Comp-PE-A"
48580.2,86875.2,21724.3,76558.4,48267.8,144980,53453.1,58126.4
73479.6,62563.5,74827.9,90165.1,154567,143106,70487.5,63904.9
60188.4,70542,46936.1,90187.4,70897,113687,68615.7,76254
44142.3,43682.4,47524.1,28768.8,70315.9,54285.1,54375,70183.8
81934.2,83214.9,99273.8,86756.9,173679,97686.4,74056.3,59228.5
87100.2,55185.3,88933.6,75522.9,143915,109004,66369.2,56017.1
67120.2,66479.4,90205.4,89005.9,149346,127988,65922.4,54659
81576.9,56681.1,148099,65296.6,241594,67772.2,78846.7,79943.4
111264,63541.8,113794,41042.5,195341,57152.6,64077.3,55389.5
49682.7,65187.9,65334.2,85226.5,98295.2,133997,57226,55446.8
83252.7,73911.6,89058.7,129219,133971,180315,69368.6,72836.7
52374.6,81027,101759,86595.6,167598,123671,71153,54500.6
77482.8,79269.3,111187,63912.2,163835,98267.4,76083.1,67337.9
90614.7,54496.8,96983.1,106588,166130,119972,64634.1,64379.5
49258.8,77142.6,56484,61850.8,108171,94246.2,57169,60285
66020.4,64026,94008.5,86134.1,137162,162579,76219.6,60151.4
52874.1,76571.1,38036,117665,59546.2,150505,71472.6,73181.4
50180.4,59991.3,75684.1,58008.9,129889,75411.7,65626.2,68555.3
77958,75115.8,116219,46334.3,172557,68433.9,77248.7,72886.2
60585.3,65394.9,108627,66129.2,169961,74950.2,60590.9,65161.8
85135.5,40506.3,83398.6,29426.3,158570,46895.8,56525.7,57850.3
108633,73517.4,113945,41152.3,94141.9,58614.9,56188.4,66219
89536.5,132671,108433,156545,134754,210663,63448.1,68913.2
62499.6,42767.1,43170.6,51592.6,61753.5,68319.9,80233.3,53958.8
153166,70458.3,171017,83413.9,148854,100034,80281.7,65527.7
71012.7,39749.4,104517,26084.7,173407,45336.2,56662.5,65842.3
87395.4,77879.7,216615,69772.4,132602,89518.8,63315.8,53446.5
67914.9,62416.8,123814,71206.9,135150,79634.5,55679.6,56048.9
84247.2,66522.6,101991,88572.2,166931,118315,60373.9,60918.8
73980.9,62612.1,74994.7,41060.6,117545,63313.1,75807.2,56033.9
47062.8,57047.4,42825.9,34221.8,63928.9,50169.3,62568.5,66152.1
96921.9,67540.5,90717,46166.1,99904.9,68793.9,54692,68243.9
70540.2,42138,60964,51266,74402.5,62077.4,68047.4,56510.3
81915.3,61504.2,37721.8,64610,63029.6,134217,80116.7,62097.9
43177.5,66012.3,42525.7,65888.8,82989.9,134423,61638.5,55874
92096.1,106557,91277.1,144606,139133,127441,80093.7,78568.4
78133.5,71880.3,69579.2,91826.2,82335.3,154992,77435.7,70193.3
52715.7,54739.8,31412.6,35054.4,45914.5,49752.3,62444.1,58581.4
58930.2,46575.9,91582.9,73479.6,136031,130841,63292.5,70051.9
72915.3,71580.6,79802.7,102579,107522,182315,67842.5,79737.1
66827.7,71974.8,117926,70231.1,139637,105657,57826.2,56087.3
75490.2,45778.5,81677.8,34088.4,167381,47390.7,74519.5,63673.7
57076.2,60780.6,31694.8,79762.4,47019.5,102736,71343.9,59442.5
47204.1,42826.5,44899.8,31276.4,60096.6,47326.7,56193.6,64806.2
104933,61752.6,159562,92062.5,227315,122983,64509.4,78874
91680.3,83094.3,129146,114653,223158,131475,74876.9,68883.9
96899.4,54154.8,98014.5,37812.2,144378,54932.8,80458.7,61538.4
45129.6,86844.6,60462.2,93070.2,139279,77877.5,68733.2,55365.1
53890.2,77893.2,39970.8,62691.8,66770,77158.9,63993.7,67734.2
50769,72481.5,78412.7,97091.5,126614,137413,78754.1,57949.6
68380.2,52657.2,111817,76241.5,139299,113270,65685.6,61722.1
51626.7,42708.6,67722.2,40183.5,111233,61864.7,54693.8,69502.4
69317.1,93153.6,134608,150152,151564,74516.5,58525.3,57590.3
74814.3,78699.6,129952,64434.8,163595,125682,70977.1,64547.5
49265.1,63872.1,88556.9,39666.4,145470,52736.6,79663.8,70091.1
88755.3,48339,81071.8,57263.8,133040,82050.3,61624.2,56977.3
63569.7,73012.5,28613.2,70753.8,56374.2,106428,69506.7,54428.9
61319.7,73052.1,29349.8,92820,52464.2,142023,71541.5,64876
71704.8,73447.2,75151.7,129776,145725,171615,56487,80891.6
74381.4,60409.8,79717.9,29138.6,153156,60648.5,58242.4,70079.6
81702,50943.6,63021.2,21752.1,73693.6,47678.4,68399.6,70479.3
85887,64248.3,194489,93168.9,114510,136918,56675.2,64005.2
87282.9,62046.9,99190.4,117764,115467,144602,62105.7,54667.1
98184.6,68886.9,78903.4,71276.4,80781.2,116378,53827.2,59035.3
66504.6,73381.5,133094,37135.2,63870.5,63757.9,55868.1,73782.6
69313.5,110682,110912,90401.4,132295,81501.3,75932,54062.5
50445,53317.8,102041,87703.4,140643,116219,66471.3,53260.3
55097.1,49191.3,77774.7,97815.7,132498,157857,55905.5,77202.7
75644.1,42507,122570,57091.5,164016,126070,59367.1,62674.4
47478.6,47595.6,49860.7,26088.9,96188,43754.4,53309.8,60448.1
79815.6,62206.2,126764,63951.1,192801,79918,73160.1,55733.7
57007.8,45054,29433.2,40750.6,45938.1,62163.6,63993,57418.9
66611.7,53302.5,115620,81231.6,195159,152340,70668.6,74494.7
60264,106959,88278.9,108989,112109,84114.5,73215.7,54844.5
71997.3,74630.7,107658,106805,201956,106327,67049.3,78992.6
69155.1,62991,75372.8,77698.2,163561,138739,71813.7,64503.1
72763.2,51624.9,38444.6,44646.8,72672,59412.8,72085.8,76488.6
67070.7,65361.6,74961.3,78155.5,121138,114170,64971.8,81489.9
50940.9,66296.7,52950.7,99778.4,84759.4,221142,76105,67861.7
65554.2,53838,50943.5,84431.4,77969.3,115248,75077.3,63070.3
43129.8,66835.8,24455.7,91735.8,50908.8,137891,53430.6,67925.6
81799.2,56053.8,98291.1,106499,183772,82579.9,70666.2,54028.5
63750.6,67525.2,85072.2,47077.9,151065,91756.7,67334.6,78890.2
68697,86157,99184.8,176385,165610,230912,54643,81087.4
51405.3,69531.3,68154.5,69785,154396,84951.2,53765.4,53496.4
64278,51961.5,67312.1,69640.4,138498,60898.7,58007.1,58463.6
94435.2,76233.6,76994.9,90598.8,140065,138016,59786.5,67602.5
59048.1,60318,83974.1,72673.4,133840,78883.9,55676.5,72921.4
63752.4,58169.7,54645.1,68817.5,68439.4,85526.7,56712,53341.1
65292.3,45662.4,82660.5,74655.5,129592,123721,72519.3,60335.3
71415,66120.3,65482.9,63491,142938,81744.5,53288.9,72016.3
72324,51065.1,76748.9,81110.7,152593,149297,57888.5,67282.2
97396.2,48553.2,120015,33279.4,194186,45697.6,66543.9,53642.5
53520.3,81221.4,77549.5,74759.8,129478,82810.6,66942.8,64877
50448.6,56547,35254.6,38597.5,58567.6,56364.5,62979.3,69540.4
78582.6,70286.4,142981,95310.9,156931,151438,73414,74562.3
90120.6,60738.3,113695,103177,220416,143916,80452.1,63812.9
54656.1,45168.3,59753.3,39513.5,73424,60163.4,59456.9,55091.6
75231.9,75035.7,103758,115473,157411,139723,64583.1,56555.3
57335.4,47109.6,30852.4,86687.4,57982.5,132384,78821.2,65449.4
44522.1,95682.6,51606.5,81149.6,80443.5,107276,61368.3,71874.5
65736,69683.4,76782.2,77778.8,99717.2,81923.8,57429.1,54786
86390.1,51184.8,138067,69330.4,149438,118150,60716.1,55298.4
60072.3,67863.6,57291.6,98773.4,102842,153089,62938.5,80767.1
101242,68833.8,127427,126250,186317,80842.4,80348.2,71967.1
53688.6,63315.9,49595.2,41080.1,86388.5,58086.7,61348.1,74069
66022.2,45523.8,100270,70202,141685,85448.9,60760.5,78291.7
86763.6,43963.2,106960,74915.4,154945,153167,65674.9,65461.6
42019.2,68077.8,33542.1,52793.6,52350.2,64330.6,56975.9,79619.6
74835,62708.4,108720,33665.8,72816.5,58685.8,56353.8,78647.1
84087,66972.6,92284.9,85465.5,139242,97422.3,61933.4,59424.8
77465.7,52482.6,120370,63967.8,191534,123304,53708,69387.5
85131.9,89364.6,82449.2,130212,180922,112641,69404,74477
60262.2,65682.9,43441.7,68400.5,63973.4,114571,67998.9,59584.9
85547.7,52802.1,68998.2,37837.2,95821,57001.1,55342.1,58146.1
73653.3,76894.2,92970.1,101414,176559,141780,62771.3,66041.7
73176.3,48016.8,96728.7,34331.6,146910,50939.3,65692.4,58081.7
55780.2,77707.8,91051.9,54515.8,196283,79173,68565.9,68459.7
78770.7,72216,162763,67284.3,170282,95280.3,57912.7,67438.9
62939.7,60837.3,91838.7,76536.2,133394,123868,56237,53725.8
62872.2,67915.8,74681.9,106370,87953.6,149041,68024.5,67949.4
96525,103198,215866,168041,90130.4,109795,58724.7,71584.2
50481.9,56719.8,83498.7,106571,73888.2,129477,55138.6,66232.6
62798.4,48296.7,89941.3,19497.5,142987,49325.5,74955.8,72682.5
46363.5,70831.8,76905.9,32841.5,91150.6,57277.7,60037,72823.7
103163,57860.1,130992,97363.9,187942,169701,63356.2,74218.6
67456.8,72117,47210,67976.6,147389,88297,69874.8,62526.5
84747.6,51273.9,90080.3,35322.7,153717,55039.8,60035,57675.7
107909,67310.1,122512,164534,110818,187679,76432.6,67331.9
72991.8,84573,124865,69947.6,88205.2,83622.4,53711.9,64678
44902.8,52444.8,53142.5,34469.2,89226.9,59319.6,77407.3,62745
57062.7,154445,61553.4,137730,68413,128094,65766.1,79854.3
99590.4,56649.6,158293,27373.3,249894,48527.7,78942.8,75420.5
90936.9,61401.6,105715,125083,160274,105710,68611,72859.8
45325.8,45388.8,79585.8,40104.3,81009.2,59732.5,61936.1,70521.7
94235.4,80832.6,131241,90323.6,167630,172022,68063.2,70231.5
155880,65293.2,213002,74590.2,129410,129723,73932.9,59759.7
94213.8,73537.2,148631,131985,190886,173765,71922.1,78352.3
64646.1,101336,94217,68552,114585,78910.3,59147.9,77873
61029.9,61181.1,32156.3,76960.1,59435,118595,73427,63515.8
100889,66000.6,115559,98100.6,174230,173710,58677.3,66032.1
57269.7,61876.8,30363.2,33457.3,52405.8,55184.4,75808.3,65864.3
98985.6,57507.3,116508,69445.8,108640,105684,55613.9,54190.2
54159.3,73159.2,46948.6,67096.7,106352,75225.4,58918.7,69538.2
97764.3,47106.9,216540,48965.5,119472,81110.7,56912,56508.5
94660.2,56572.2,123173,70865,190440,102462,77624.2,63745.2
92941.2,51936.3,114202,21703.5,234241,50313.8,69159.8,69819
79015.5,54299.7,65008.9,58026.9,129437,94034.9,63455.5,59623
84228.3,73790.1,153036,83211,177869,114208,60653.2,68596.2
62112.6,57935.7,75857.9,75892.6,170190,94988.4,68036.8,56915.2
71790.3,55296,75592.4,33703.3,141983,55312.3,74561.6,78383.3
67152.6,48302.1,85112.5,82517.4,139291,117751,68012.8,58578.6
74116.8,98143.2,84259,127178,116450,165206,53639.4,71202.2
104710,50166.9,119992,26543.4,114214,43174.8,54975.4,61640.5
147877,53495.1,184713,50412.5,137723,84703.8,54746.4,58463.9
62017.2,63221.4,79009,74936.3,170264,109749,72204,56048.5
72907.2,60136.2,127898,78783.8,189328,116667,73568.7,62046.2
47209.5,94745.7,69736.3,140544,126344,96377,66068.1,65736.2
74025,53563.5,79271.7,39209.1,137648,67366.4,63824.6,81200.1
48666.6,91435.5,82770.3,104005,151680,153090,53932.5,66917.1
87515.1,59181.3,99519.8,93847.2,196080,116007,65147.3,67495.1
72846.9,44576.1,112094,56067,193092,106453,66392.3,59372.1
68138.1,65076.3,107264,52733.8,229846,56005.9,78289.6,60300.8
119830,79629.3,149365,85282.1,184489,128467,65981.1,75499.2
81370.8,57167.1,118111,87439.3,187070,106065,55326,55579.7
78737.4,42367.5,67648.5,51138.1,98491.2,77428.6,54273.2,81137.4
46892.7,79190.1,38686.5,87279.5,54747.9,87528.3,60553,78499.1
53685,47353.5,79855.5,64646.1,113881,65795.6,68523.8,57884.1
52587,75958.2,113031,93473.3,102066,113061,72439.4,63393.9
60427.8,54432.9,51132.5,27926.5,56684.2,60666.6,53605.8,79931.2
72346.5,47516.4,90497.3,93320.4,129291,117697,57299.2,55273.9
63059.4,45813.6,44193.7,64131.8,62661.2,94899.5,66749.1,57480.1
163941,54803.7,209206,79655.3,252342,117757,76609.1,65970.5
60003,53694.9,45885.3,32906.9,82328.3,45664.3,67674,60994.1
42697.8,76358.7,39405.1,44310.4,62462.4,65641.4,61416.3,67610.3
53285.4,53076.6,52957.6,23978.9,120128,44696.8,55559.6,62757.2
76010.4,77271.3,87089.1,96984.5,126611,131469,66519.4,54247.4
83910.6,98966.7,136516,106421,194760,162341,74503.5,70340.8
42877.8,75124.8,56631.4,90803.1,133370,141888,58118.5,54001.5
52869.6,49932.9,39713.7,33116.8,62080.2,56217.2,60168.7,74459.7
83350.8,43619.4,73454.5,31767.1,151805,50507,53513.5,68018.6
85888.8,56054.7,96591.1,23346.4,91559.3,48932.2,53217.5,69528.2
81336.6,68958,96817.7,39211.9,122034,61383.8,55827.7,71743.3
60264,48180.6,46353.7,74666.6,67252.4,87394.9,68734.7,57733.4
43481.7,70569,58949.9,100897,145621,119110,54041.8,67436.9
54993.6,62316.9,34032.8,48060.6,73012.5,56452.1,63550.8,71873.7
75517.2,83837.7,107037,80814.6,207057,105466,68720.8,76854.1
60864.3,56722.5,70821.9,64787.9,92209.8,123326,80149,54672.2
65615.4,61019.1,57482.1,73765.9,97892.1,80273.9,80090.1,79069.4
65487.6,87229.8,118613,129387,173989,179500,77262.4,79424.3
52340.4,82107.9,44845.6,102043,80229.4,174537,61814.2,70576.5
88668,52611.3,106386,59868.7,222304,79068.8,73427.6,72507.1
61754.4,100228,33558.8,82892.6,60823.6,97142.9,73203.2,66410.4
90997.2,62827.2,119915,63791.3,160393,74586,57441.9,78494.6
59865.3,78871.5,80162.7,111301,107776,130752,61796.1,66888.9
117904,80519.4,231834,54141.9,157071,85479.4,81205.1,66005.8
65061,84286.8,107321,114640,126694,105020,63384.6,76533.3
54014.4,77157,29531.9,66422.5,59166.7,71106.8,72162.5,76755.9
88563.6,50924.7,92045.8,29893.3,153741,49831.5,69366.6,56564.2
54644.4,46107.9,40818.7,29255.3,80556.1,45854.7,69552.5,59150.6
73961.1,51541.2,79610.9,100774,114073,142387,53437.8,72010.9
56115,66553.2,50318,46849.9,72022.9,114380,58120.1,62356.9
67378.5,48573,63851,82527.1,60420.5,126211,58583.2,58044.5
66963.6,87363,82737,113386,164037,160706,59574.8,66729.2
48861.9,52508.7,25884.6,86198.1,53948.7,135482,57005.5,58535.9
57717,69813,35053,76230.4,87924.4,111863,65071.9,66206.9
81201.6,66331.8,113049,89656.4,154822,125438,56743.2,65629.9
90017.1,73951.2,91664.9,64687.8,144425,60148.1,55350.8,75468.2
54900.9,43857,75322.7,23959.4,145847,43878.1,62749.9,58332
56341.8,53399.7,94315.7,41273.3,89381.2,64411.2,55770.3,60604.2
80037.9,58726.8,123286,36982.3,110123,54789.6,81157.2,58957.1
47465.1,64179,36095.5,72111.8,61260.1,97101.2,62611.5,53391.9
56683.8,55239.3,69201.1,52301.5,114818,84771.9,60385.9,69898.2
113740,68583.6,138789,28898.1,206779,50811.4,78510,73120.8
64147.5,52991.1,61442.2,111459,77424.4,164172,71545.2,74573.3
45363.6,64089,54204.4,93806.9,72545.5,137652,55170.1,61790.9
85977,96111.9,128115,96503.5,183145,138616,70609.4,69599.4
42620.4,85717.8,45583.7,71989.5,55155.2,83046.9,56659.4,77514.3
75128.4,89906.4,110242,84962.4,163192,110946,79015.4,56610.5
95817.6,49324.5,130572,73589.4,200966,91986,69597.2,74421
75962.7,56998.8,99048.6,28393.5,172838,54399,62957.2,80682.3
86121.9,47544.3,187102,42550.7,230362,51274.3,81404.4,65623.6
74224.8,51408,49036.4,42945.4,65357.8,52325.2,57672.8,60098.8
63627.3,73446.3,69106.6,132238,108848,167065,54592.7,68109.6
92366.1,80502.3,98285.5,54018.2,157689,68525.6,59015.4,76549.6
87627.6,68814.9,144454,87048.8,215073,140694,56558.1,74272.8
62048.7,68562,97486.3,47171,80069.6,70970.6,53246.8,76651.3
87312.6,66093.3,111122,57498.7,152622,74638.8,65585.2,76723.2
109640,77865.3,184417,141135,179652,194398,55156.1,81524.2
66893.4,73374.3,44776.1,111750,64660,140842,73924.8,62350.7
61972.2,74013.3,57689.2,97455.7,84227,143712,76014.1,76002.7
90719.1,49542.3,156631,99358.6,205360,102058,57985,78632.2
144271,77517,153007,123233,147019,183933,69916.7,79182.2
46729.8,80197.2,39022.9,64839.3,58979.1,70915,57776.2,67853.3
57588.3,68229.9,78358.5,60954.3,117259,110926,56590.2,66086.8
48292.2,70638.3,22802.9,59521.2,46323.1,81373.4,63343.2,69831.4
82181.7,73746,117552,74626.3,180158,141740,69736,72665.2
49372.2,82458,104118,132481,181495,184706,66488.2,79111.1
98956.8,65571.3,213864,71033.2,137721,79412.1,59398.8,61317.1
63659.7,82437.3,53138.3,69105.2,62598.6,83112.3,56933.9,54467
66368.7,53563.5,100248,62664,217050,195769,78777.2,69943.5
58648.5,69216.3,71498.8,48911.3,98325.8,71888,70363.1,74735.7
47381.4,63815.4,42103.1,73100.1,69137.2,137846,77548,58027.7
49891.5,57146.4,23231.1,28028,48376.2,51259,64570.3,65709
81854.1,49379.4,80861.9,42071.1,118588,71737.9,69593.2,58812
91759.5,71716.5,122699,92347.4,200416,82194.9,67971,60270.3
47445.3,82010.7,97166.6,117174,177967,153323,66690.4,76393.6
93492.9,83366.1,193477,56343.6,242203,80631.1,75012.2,73982.3
45149.4,48835.8,23435.4,22562.5,45251.4,46638.7,54300.2,67939
56706.3,55602.9,59750.5,80970.3,81672.2,108699,68029.7,57909.3
72629.1,60022.8,59542,39484.3,88601.4,48224.7,70629.8,64370.4
61878.6,51797.7,84211.8,40011.1,185604,61268.4,60188.3,77102
67215.6,41157,89953.9,41876.5,113206,52233.4,76486.4,54353.2
66006,48508.2,119878,55202.5,131636,80456,67940.9,57375.7
50988.6,58241.7,76420.8,83261,64142.9,122287,68245.5,71818.4
54142.2,55539,72343.9,21468.5,117534,52439.1,57533.3,74104.2
80364.6,48606.3,75511.8,47351.7,162630,71893.6,62600,61091.3
62008.2,67701.6,107710,75903.7,92450.3,140058,53674.3,55376.3
71328.6,81423.9,129003,33414.2,231635,63461.8,79411.4,79024.4
68121,81045,107134,108783,155526,143990,64464.3,78570.6
54212.4,57018.6,42097.5,46369,48141.3,69238.7,54979.9,67561.1
88695,50420.7,107444,46859.7,165727,63607.8,63727.8,76910.2
60476.4,64544.4,99262.7,98994.4,168806,126215,60070.5,67432.4
67353.3,61697.7,45322.3,89903.8,74241.3,127734,79358.4,70952.5
48870.9,57514.5,37498,50710,59939.6,61275.4,67351.6,76766.7
72742.5,85932.9,43219.3,121739,70592.5,160662,73381.1,78312.3
85522.5,60993.9,97765.6,74301.1,129473,107537,55419.9,61545.2
71217.9,48939.3,101849,88586.1,136520,123162,58738.3,62815.4
89612.1,65076.3,111213,60351,156810,91610.7,76772.6,66456.6
44568.9,73496.7,36153.9,79387.1,48415.1,119457,58311.1,60062.3
67370.4,55168.2,112412,75465.9,203442,133952,67383.4,59197.3
60959.7,71426.7,56784.3,53093.8,77931.7,84548.1,80636,70448.8
66026.7,93708.9,77603.7,162991,145355,105851,58632,64411.5
107121,92252.7,125749,166963,126793,78333.4,65570.1,70619.7
83139.3,75096,123297,106350,182200,245862,77844.2,76247.9
47943,66196.8,27006.3,50035.8,46724.8,71066.5,57802.6,66185.1
76920.3,54721.8,104242,66202.9,140832,102643,57298.5,54560.2
67656.6,67740.3,88087.1,88904.4,148754,126958,71749.5,64565.8
85961.7,55247.4,119753,68091.9,143266,132079,55101.5,64020.9
73269,67549.5,104734,76714.1,163839,122234,63204.6,52983.1
90525.6,67617.9,118763,76892,152136,106826,79530.1,78598.4
55578.6,62663.4,30642.5,118713,54108.5,186441,63658.9,75232.4
81236.7,108047,133030,106998,198057,138383,71872,64113.6
94054.5,49477.5,107490,96452.1,151591,138331,66002.5,61220.2
51900.3,71290.8,42068.3,80618.6,71094.3,162736,61363.5,58521.9
59415.3,73921.5,113442,59118.1,239819,92168.1,74374.4,73883.1
99778.5,41262.3,115296,39175.8,181237,62006.5,80277.1,52994.9
63570.6,48504.6,46854.1,64938,76678,120799,71608.3,65564.3
72141.3,89450.1,87964.8,58192.3,119263,69481.9,53176.6,67025.1
65272.5,77115.6,59227.9,45532.2,68784.1,67602.6,66339.9,72855.3
56005.2,67053.6,62505.5,118792,80885.5,201333,76501.1,79532.9
127155,56658.6,163629,60975.1,86324.6,68713.3,60462.3,73202.3
87007.5,40820.4,71229.2,29048.2,114864,53765.2,58584.1,73563.2
75748.5,59907.6,111949,25011.7,173440,46898.6,67565.8,70882.9
40611.6,51022.8,25007.5,37012.9,52832.5,60987.6,59406.7,61469.6
74631.6,47541.6,82072.5,34163.4,138202,57154,59700.2,63746.1
66784.5,55104.3,43928.2,70840,77050.5,96535.5,67357.4,78669.7
44901,67414.5,40752,126163,59497.6,177465,54877.8,79191.7
49554.9,50029.2,36947.6,72100.7,63335.3,112832,61149.6,59541.2
56595.6,73728.9,97080.4,67365,141556,92732.5,56795.6,73872.8
51666.3,58386.6,40376.7,99868.7,59528.1,142369,55876.1,56464.4
69088.5,62278.2,66535.1,78555.9,65698.4,80745.1,52961.7,76616.2
56312.1,71919,27908.4,96292.2,44532.8,125306,80145.4,66008.8
64620.9,72888.3,102034,77473,156564,134723,58671.7,62070.3
81006.3,70968.6,90764.2,92993.8,167934,75057.2,53046.6,65863.9
55193.4,45759.6,47055.7,48014.8,68698,59797.8,58377.1,57261.4
62044.2,49845.6,103590,45710.1,131821,59996.6,53796.2,65777.3
66237.3,65706.3,52193.1,29240,68343.5,52883.9,60019.7,65595.8
85834.8,79495.2,84165.9,169816,134356,193614,56641.1,81085.6
65997.9,137650,84862.3,195534,175431,149016,59973,76858.9
84254.4,67888.8,112597,64441.8,156312,80857.7,67947,63351.3
68551.2,88143.3,37172.8,98122.9,63824.6,127481,76326.5,59600.3
47133,108513,21953.7,103520,43194.2,120177,78176.6,74064.2
73475.1,73272.6,116007,90522.4,145558,140756,65151.7,55918.3
109642,67912.2,110558,94928.7,158399,132730,56575.3,55882.8
75064.5,61036.2,93961.2,58407.8,170839,76368,64731.7,68138.1
77353.2,66958.2,78739.3,85679.6,149158,124696,66068.5,73009.8
73922.4,60542.1,74726.4,88573.6,106360,119447,58862.8,54804.3
69197.4,73091.7,54237.8,90452.9,85400.2,148009,75206.4,66456.9
71434.8,66600,73043.1,60804.2,154699,114368,54119.4,62411.6
66249,64827,50212.4,83900.4,68882.8,119268,72906.7,53863.1
61938,47006.1,110069,68357.4,167015,69604.2,70135.4,78118.2
75423.6,64429.2,83604.3,77919.2,118488,113785,60418.8,55849.3
70878.6,73177.2,74748.6,128949,109440,171814,54289.4,66216.7
46100.7,90633.6,34598.5,139035,62900.3,157864,56338.7,72144.2
46551.6,67464.9,85646.2,80843.8,120841,115356,56563.9,65572.4
88527.6,72665.1,103980,55242.8,151413,71920,61052.5,58649.4
78244.2,60054.3,117180,48092.6,237066,65131.2,68164.3,69272.6
45613.8,62364.6,67302.4,71291.7,133586,85989.6,62255.3,62372.4
72630,68521.5,45130.5,61051.6,61632.6,82443.7,69280.5,67506.9
65628,45216,104149,73383.7,154524,115933,65209.9,56586.4
75439.8,48042.9,90737.8,46223.1,172492,55390.1,65084.5,63815.9
59757.3,78893.1,32302.2,118452,58883.2,112999,64250.3,75907.7
48060,54351.9,61414.4,52379.4,88789,75823.1,70893.7,80999.7
59819.4,47563.2,43127.5,39178.5,62593.1,65616.3,75101.5,54638.4
62366.4,70654.5,66268.2,115024,152992,179217,79086.1,74845.3
47932.2,58073.4,66115.4,59489.2,97149.9,75058.6,53107.9,53852.8
87047.1,63471.6,115053,68147.5,174214,87585.3,76601.9,54723.7
74889.9,48767.4,81248.3,35129.5,131712,48729.2,59267.1,65719
62025.3,77789.7,80621.4,94860.5,116792,155882,60544.4,71445.3
55189.8,98972.1,21367.1,119184,47930,163982,77563,79136.9
72267.3,53208.9,54731.2,36502.8,114034,51507.8,58332.1,61004.1
48879.9,41425.2,55893.3,35331,81440.1,70413.2,76763.6,57204.1
65594.7,81245.7,32719.2,134495,55733.4,181972,79498.8,77741.6
63537.3,76853.7,48030.1,118634,72638.6,183518,65752.8,78002.6
61362,51516,61337.9,49224.1,102989,67077.2,55753.5,63032.7
67186.8,61548.3,77425.8,66216.8,117010,115851,54796.8,59849
144444,74747.7,201130,63795.4,242469,83872.6,80753.9,77467.6
50973.3,73666.8,40957.7,72116,65065.9,57618.3,62113.8,55263.4
94035.6,53909.1,109568,79324.5,106516,104895,59942.4,61153.6
63756,55178.1,98869.3,31454.3,161660,60691.6,78812.3,63617.2
82104.3,85950,96110.2,118164,128296,157993,54248.4,73124.8
76661.1,59234.4,112758,44381.3,165788,55818.2,65119.6,61301.8
67086.9,49612.5,73266.9,52230.6,96898.3,48605.5,78849.1,56676.2
60594.3,97506.9,94927.3,121975,201572,94335.1,74373.9,64426.6
58225.5,52656.3,37404.9,65848.5,56231.1,118666,65870.4,55131.4
44121.6,45671.4,33963.3,39084,52772.7,59476.7,64083.6,63578.6
47265.3,44507.7,25559.3,32730.3,53391.3,55081.5,59684.4,69664.3
56575.8,56028.6,65792.9,61132.2,72548.3,90080.3,57773.5,56650
64200.6,81048.6,34030,120741,57355.6,146053,81048.1,67591.8
85770,50133.6,90584.9,42260.2,165770,62948.9,63541.3,60048.1
71231.4,44575.2,98840.1,38749,159255,63089.3,69047.2,54692.7
48619.8,86357.7,46398.2,53861.1,63529.9,86503.9,57553.2,79855.7
66168,52496.1,57293,40988.3,108808,71665.6,53418.3,57551.3
85502.7,55079.1,116902,112910,174774,149208,77585.6,73343.2
65746.8,92248.2,91499.5,97343.1,170631,109230,54788.6,81541.4
92933.1,50876.1,138712,23285.3,105887,44243.7,71672.9,60558.8
43130.7,66179.7,36219.2,121998,47843.8,152868,54368.5,66860.2
78426.9,44462.7,78176.4,23264.4,95515.2,43473.6,74252.1,62917.7
55218.6,58887.9,73899.4,51232.6,112793,76864.2,64917.8,66184.4
91611,81868.5,73403.1,110966,142428,101647,56303.7,76309.9
74114.1,47607.3,116119,80635.3,198314,127231,76891.3,68159.7
56554.2,52755.3,81305.3,72320.3,153988,86299.5,65497.1,53528.5
109249,64539,123675,57149.8,159757,75461.7,76942.8,72598.3
69494.4,65826,89276.9,81206.6,129510,128076,79554.5,59137.1
64691.1,52502.4,121852,49825.9,156697,59150.1,56031.2,62709.8
67071.6,49521.6,76771.1,78187.5,141341,110308,57654.4,52952.6
81874.8,62958.6,89877.4,66706.1,151531,106177,57477.1,53970
84749.4,65565,122976,42816.2,231007,63976.1,77161.3,75484
70725.6,57616.2,73134.9,70958.1,150914,81576.3,74441.9,53546.8
74915.1,67535.1,99311.3,93754.1,154005,116643,61012.4,54427.1
55924.2,55482.3,19854.8,46363.4,46253.6,60223.1,70391.7,56853.2
54720,72236.7,69456.9,74335.8,129840,117751,80036.8,53043.7
57363.3,60895.8,66076.4,55144.1,100473,63438.2,70915.4,76248.1
133024,76700.7,142732,69666.8,108858,106031,62216.4,56966.8
44480.7,41392.8,46017.3,42154.5,82923.2,72021.5,63097.7,55964.3
48973.5,51358.5,35596.5,65323.1,58188.2,78993.7,60693.3,79468.3
74574.9,50067,107154,94164.2,127697,142141,53606.8,69658.6
65811.6,109719,42219.9,162602,60679.1,127261,77079.9,81492.8
49032,87008.4,31597.5,92255.7,64571.1,76419.4,61361.2,70100.2
68239.8,53824.5,121333,55306.7,201636,100557,75358.4,62103.8
56395.8,72225.9,33658.9,101519,62473.6,153742,55573.7,56193.5
49526.1,44695.8,30831.6,67798.6,63863.6,121583,77890.2,56628.8
77292,57151.8,110034,82377,147407,122959,55857.4,55680
75713.4,69256.8,61622.9,42948.2,114857,72913.8,55456.9,71659.6
68904.9,71139.6,81957.2,56342.3,138940,67442.8,58971.6,62024.9
69705,44434.8,108166,62497.2,132403,100393,53245.8,55018.2
102993,96538.5,126344,149799,92934,114152,58821.1,61481.5
119174,62307,170960,66903.5,118543,113851,80017.1,54515.2
50805,52968.6,53471.9,29071.8,57701.7,58970.8,59142.5,62416.4
71350.2,55044,44769.1,67562.3,76266.5,121653,76661.3,53113.6
91437.3,51773.4,188064,34716.6,107024,68069.7,70035.4,62911.5
72980.1,75583.8,116040,94914.8,167606,136694,59792.2,67548.5
82699.2,49002.3,154636,77698.2,178956,85187.5,78536,75427.1
46446.3,153430,83088.6,171452,117340,117715,57037.5,53583
77850.9,68396.4,87258.6,40576.9,158730,66696.4,63090.2,78025.8
48832.2,71686.8,52314,64860.2,91987.4,86695.7,65773.7,80414.1
84913.2,82547.1,51320.2,94914.8,170036,127553,75887.8,54906.3
55542.6,64317.6,31655.9,37293.7,50961.6,58029.7,62374.6,78444.1
81344.7,46463.4,93838.9,34876.5,159327,56131,53629.4,61551.3
74394,45866.7,57657.2,89178.2,117000,142412,68762.5,54137.3
84501,54369.9,70161.6,29451.3,81941.9,53387.1,61382.2,77444.5
70857,48885.3,105436,69974,154287,111705,67340,62885.3
46781.1,85904.1,29772.4,97926.9,52934,121271,55467.8,66391.5
87453,88106.4,101965,96392.3,170289,135515,56728.2,60611.3
57490.2,71175.6,36045.5,100220,63432.6,134943,60025.6,59255.6
54066.6,68562.9,80432.4,80624.2,121448,116183,53514.8,59440.2
62806.5,85812.3,27377.4,118432,54806.3,108025,76442.6,76748.6
57442.5,61578,31614.2,86116.1,49367.2,113603,59099.2,61000.6
65185.2,73629,61065.5,104969,74391.4,137279,57023.7,64329.3
78162.3,46107,85033.2,29804.4,114093,47157.1,54429.5,64598.6
108825,84410.1,156243,110676,189746,190615,67199.1,57279
72782.1,49434.3,86289.8,24771.2,153556,49870.4,67070.4,64431.6
72225,51031.8,102768,115791,159751,171810,75180.5,77517.6
144171,62262.9,121031,71963.1,91428.6,62443,55553.4,58150.5
132919,58309.2,144235,44543.9,164918,66019.4,67561.6,66118.3
85616.1,48762,94635.4,31553,121243,60713.8,59613.6,61171.4
42682.5,61888.5,38546.1,51759.4,60754.1,83648.8,55693.3,64663.1
71561.7,70175.7,80927.2,84837.3,137265,162719,60574,74324.1
68954.4,86786.1,93654,116850,182304,154358,67926.7,65559.5
59819.4,59980.5,87016.8,90965.8,155385,170549,63602.3,56362.4
80334.9,82117.8,62737.6,97525.2,162581,134068,58212.3,67581.6
62823.6,53228.7,69612.6,73476.8,133300,84951.2,57127.4,56040.1
79519.5,64841.4,59194.5,28490.8,75294.9,54685.4,56619.7,70838.6
53646.3,78992.1,93459.4,133140,169676,132467,61275.9,72928.6
83052,49417.2,81620.8,31746.2,96535.5,59772.8,56225.4,63404.7
73278.9,42600.6,40679.7,51512,70591.1,62964.2,67974,71369.1
58642.2,61235.1,72117.4,66305.8,109474,84606.5,58358,68445
52109.1,69761.7,53772.1,90550.2,72823.5,110993,62818.5,71975.1
80095.5,58296.6,143178,77594,165320,115458,67433.7,58583.8
77559.3,62892.9,79687.3,43518.1,157825,62868.3,68844.4,70773.7
65830.5,62442,77621.8,52464.2,120003,77600.9,63823.7,66937.6
115919,63393.3,95719.6,94073.8,151673,82503.4,67893.9,66891.7
56472.3,63697.5,49746.7,48153.8,88373.4,83295.8,66685.3,80971.5
50891.4,49350.6,89112.9,71069.3,160159,99989.6,79230.8,56837.8
93830.4,56426.4,91462,54299,112166,64122.1,53927.3,62462.5
83718.9,57947.4,127395,45732.4,202545,71148.5,75764.4,61444.9
76690.8,56368.8,82695.3,46082.7,124369,55625,56242.2,62750.6
73827,68688,50493.1,60424.7,68470,75356.1,75696.8,80485
49067.1,47402.1,82657.7,31479.3,133487,51894.3,57213.4,55485.1
48085.2,60921.9,39527.4,63991.4,50049.7,107287,54172.1,71832.4
90827.1,71630.1,54560.3,71921.4,80180.8,89924.7,59159.8,81192.2
51501.6,53017.2,73733.9,32402.3,160688,56445.1,73483.9,57576.4
56409.3,48935.7,31950.5,26742.2,46079.9,48940.5,57917.5,65816.6
53496.9,49881.6,80457.4,34276,148761,48647.2,76045.7,56602.3
102606,66155.4,124279,47071,194496,67271.8,70217,70778.7
68541.3,59630.4,32905.5,53966.8,52669.9,83472.3,77206.3,77719.1
52880.4,59850,57300,31183.3,93465,56752.3,75889.6,63334.7
61278.3,77337.9,49459,58452.3,68043.3,70473,65062.9,76008.5
44013.6,75207.6,27074.4,56181,51623.2,77777.4,57973.7,73682.1
43683.3,56695.5,30115.7,37460.5,55882.2,51029.7,55626.8,67818
74867.4,63580.5,106156,43179,155214,62247,53136.5,66118.5
92649.6,70253.1,133660,78879.7,181466,115366,74869.7,73870.3
77884.2,63695.7,50333.3,96757.9,103228,110461,71534.9,55384.8
44217.9,62699.4,35827.2,90860.1,55882.2,127667,61646.9,63351.8
81328.5,43002,92457.2,56646.7,122740,109501,62365.9,53893.7
72844.2,65195.1,85460,65952.7,129369,54508.8,55194.5,53628.7
47650.5,62877.6,32866.6,78155.5,60203.7,128475,59054.4,60677.3
53750.7,54708.3,63026.8,88577.8,71008.1,108235,62439.9,57197.2
71912.7,56806.2,58206.2,96737,76684.9,179833,67008.5,76865.2
79491.6,68982.3,46093.8,52843.6,75073.9,78936.7,74446.5,80738.2
90031.5,47860.2,55042.6,83126.2,80679.8,132396,55615.8,57609.3
83568.6,48325.5,102939,39255,148658,58599.6,57437.5,67901.5
82008,63337.5,124493,82931.6,161622,120058,63170.7,55720.7
86104.8,54105.3,102353,55095.4,145390,110031,70852.9,65830.3
74123.1,41283.9,60163.4,37247.8,88994.8,51015.8,65338.4,77142.7
82448.1,62067.6,90857.4,68454.7,153602,91467.6,62720.7,53497.6
65984.4,42803.1,74234.3,20105,137486,48577.7,58626.6,58220.1
121793,46936.8,165809,44801.1,216836,79181.4,79850.1,75973.7
57995.1,48101.4,50008,65822.1,57917.1,88644.5,60144.8,57541.3
115328,62523.9,125566,84599.6,164458,145348,62376.3,57771.8
76588.2,65269.8,96948.3,112102,209312,159224,56547.7,68250.5
49329.9,66348,34751.4,108794,62019,147336,59419,68479.9
59192.1,65525.4,82349.2,29652.9,75894,55576.4,57300.2,70415.5
78066.9,68352.3,108214,62866.9,129811,76826.7,53846.1,66042.7
95472,78528.6,86153.6,69725.2,147396,111750,76217.1,77642.6
54927,80771.4,43607.1,109717,54018.2,148702,64610.3,55651.1
66021.3,45734.4,48014.8,39394,91892.9,60082.8,64941.9,76492.3
57436.2,41656.5,101391,50265.2,190019,68322.7,72676.5,59287.9
52437.6,74073.6,49753.7,89039.2,71015.1,76437.5,56578,78186.6
62511.3,57303,33802,29202.5,66366.9,48394.2,63302.9,68308.8
82188,87129,56110.1,65699.7,95971.2,101243,68152.2,77449.7
94382.1,59583.6,75678.5,75488.1,142796,121063,69441.9,56907.1
61970.4,47661.3,26543.4,44485.6,51753.9,69566.7,73730,56977.7
73420.2,63501.3,97436.2,82951,181392,126956,74563.9,56827.7
,62696.7,,63158.8,,65844.3,,66979.8
,46969.2,,36570.9,,49017,,59825.6
,59863.5,,90723.9,,112666,,55248.2
,58138.2,,50532.1,,94668.7,,59201.4
,86405.4,,43701.6,,64819.9,,66460
,79636.5,,52441.9,,79684.5,,70551.6
,75702.6,,99907.6,,208360,,71797.4
,45047.7,,29127.4,,51095,,64583.8
,71514,,117285,,141432,,73574.8
,61279.2,,93758.3,,148156,,65229.5
,47880,,75160.1,,125226,,61330.3
,43453.8,,28789.7,,47379.5,,57228.7
,45976.5,,75823.1,,86852.8,,78369
,84819.6,,189019,,105586,,54877.9
,40094.1,,21139.1,,46519.1,,53494.5
,74139.3,,84931.8,,121251,,56512.1
,73927.8,,58050.6,,93641.5,,57558.5
,90111.6,,157468,,189813,,80800.5
,57530.7,,94286.5,,142696,,64625.2
,109281,,225554,,132727,,67684
,64545.3,,107273,,132336,,58975.2
,85140,,117594,,94611.7,,60813.2
,70227.9,,57890.7,,191193,,64963.2
,51868.8,,31719.8,,48116.2,,63465.4
,51081.3,,28956.5,,46439.9,,61951.5
,62687.7,,79622,,107881,,55460.6
,48839.4,,111820,,147336,,76661.4
,87108.3,,91028.3,,90744.8,,69340.4
,86955.3,,111841,,176192,,74997.8
,72472.5,,112842,,117796,,58565.8
,70131.6,,91136.7,,147056,,72529.9
,61089.3,,78907.5,,105219,,58999.3
,53629.2,,64226.3,,88864.1,,59499.8
,78563.7,,91847,,125586,,62355
,59724,,77474.4,,122271,,53708.7
,73734.3,,84570.4,,185799,,62171.4
,44715.6,,20961.2,,46118.8,,59520.1
,82092.6,,127801,,147359,,69181
,68448.6,,123217,,152313,,57409.8
,79290.9,,112055,,147045,,75548
,66969,,45320.9,,54524.1,,68278.8
,66949.2,,108891,,83768.4,,73254.3
,71036.1,,35698,,54633.9,,77714.1
,75060.9,,70307.6,,114120,,58986.3
,78756.3,,86994.5,,164126,,61568.8
,121350,,147450,,108024,,72973.4
,43239.6,,76345.8,,62588.9,,54642.2
,66277.8,,74647.2,,128788,,57278
,47447.1,,45357.1,,65791.5,,72041.5
,71596.8,,132680,,176648,,80508.5
,144735,,175216,,146067,,77107.2
,55169.1,,114945,,212724,,76592.5
,76981.5,,94421.3,,152010,,71541
,59414.4,,99760.3,,133412,,57244
,82260,,91329.9,,119169,,58220.4
,45636.3,,74234.3,,125906,,56162.9
,53580.6,,63885.8,,105405,,56395.7
,68447.7,,60684.6,,107579,,54896.6
,59192.1,,71480.8,,73216.9,,78306.2
,73924.2,,111641,,138099,,74276.9
,58324.5,,74509.6,,136763,,62931.1
,75126.6,,89281.1,,138940,,68811.4
,64468.8,,48695.9,,76762.8,,79009.6
,53936.1,,96356.2,,132755,,60660.6
,43533,,59323.8,,65966.6,,67556.2
,72624.6,,112835,,135234,,62216.3
,53680.5,,104732,,171202,,73690.4
,78495.3,,105220,,142932,,78937.4
,67172.4,,93014.6,,127007,,73778.2
,69795.9,,48636.1,,71154.1,,72500.7
,74088.9,,77386.9,,119436,,69722.2
,65380.5,,75913.5,,111543,,78640.1
,45794.7,,23795.4,,46410.7,,60604.3
,59017.5,,87052.9,,137901,,64112.4
,67975.2,,152658,,174658,,67616.8
,77247.9,,115952,,156201,,69748.5
,58972.5,,98551,,101941,,59112.7
,53220.6,,75942.6,,113418,,53343.1
,68440.5,,103958,,127658,,69926.8
,76989.6,,71515.5,,110064,,58088.2
,74349,,52770,,78045.7,,71193.5
,67303.8,,94315.7,,120227,,61582.9
,55153.8,,33403.1,,55044,,53484.7
,60101.1,,88198.3,,158039,,63550.1
,68840.1,,81069,,97562.7,,53063
,53658,,105038,,148670,,62061.6
,52551.9,,58327.2,,95762.7,,79380.2
,74864.7,,61944,,92501.7,,72552.7
,56959.2,,75845.4,,109728,,58990.5
,57994.2,,99518.4,,157583,,74160.6
,63262.8,,56011.4,,110248,,55347.1
,93375.9,,78158.3,,112191,,77523
,116450,,155737,,168229,,57080.3
,45582.3,,72135.4,,109450,,70354.6
,63815.4,,63163,,122253,,54291.8
,45610.2,,41459.5,,44631.5,,59805.9
,65825.1,,24555.7,,52319.6,,75038.7
,108292,,124145,,134166,,59540.9
,59335.2,,82787,,123328,,64124.1
,80201.7,,103946,,148606,,64974.7
,42943.5,,76527.8,,114886,,60765.6
,50991.3,,41502.6,,65968,,59920.9
,68214.6,,34445.6,,57939.4,,69040
,62038.8,,43012.2,,60654,,73532.2
,69108.3,,32249.4,,57833.7,,76850.2
,114246,,154496,,101620,,77574.4
,59085,,86772.1,,131568,,73728.6
,69328.8,,98213.2,,131854,,66297.9
,49248,,40795.1,,69513.9,,79230.9
,49103.1,,87806.3,,133330,,66004.2
,47792.7,,83249.9,,139652,,70756.8
,68774.4,,72767.9,,152697,,53678.4
,49832.1,,58067.2,,77313.2,,61997.3
,51797.7,,59315.5,,91441.1,,55635
,89967.6,,134277,,216608,,77431.8
,60595.2,,60734.7,,93177.3,,70090.3
,46993.5,,29527.8,,52579.5,,61516.6
,40606.2,,35007.1,,51250.7,,54649.1
,78134.4,,93716.6,,66984.1,,54243.1
,73807.2,,124347,,159868,,71026.9
,68987.7,,41890.4,,68094.7,,71638.4
,74199.6,,82962.1,,83440.3,,60256.4
,61846.2,,110334,,190651,,70442.4
,55949.4,,32922.1,,57839.3,,62581.7
