"FSC-A","FSC-A","SSC-A","SSC-A","FITC-A","FITC-A","Comp-PE-A","Comp-PE-A"
102202,102697,112562,83918.5,164511,91856.8,84407.2,87886.7
100445,88837.2,85863.1,117438,140822,136333,82057.5,81838.9
85180.5,62595,137723,116073,190470,110214,92883.8,90320.7
59739.3,57627,103385,93409.4,98253.5,131911,84342.3,87466.9
90544.5,78208.2,117103,112386,163087,113601,88425.5,82647.1
110706,67737.6,163837,88791.8,111949,143258,93146,88700.9
94061.7,64872.9,99208.5,104577,96560.5,182322,84497,86414.4
97547.4,63794.7,130153,71995,167773,86665.1,91041.4,87070.6
68652,77487.3,97667,95013.4,109856,120745,84745.2,88468
73538.1,98992.8,106006,121468,106851,129747,89456.1,88872.4
111709,155644,174093,125593,147405,144236,95665.7,88200.9
86366.7,74658.6,152269,85077.7,217809,94520,92834.6,89973.3
76617.9,54162,130645,89125.4,155096,94247.6,86299.5,81558.9
99763.2,113212,161008,164814,169231,143409,83115.8,90418.8
105700,61180.2,88395.7,128656,88814,110123,85679.6,90062.9
85772.7,93085.2,162560,93886.2,235554,125129,94032.7,91480.4
105160,66459.6,106724,113316,164684,120623,83652.8,90200.4
133223,55329.3,147518,52821.4,119294,81210.8,91235,93314.7
90845.1,45655.2,112423,83880.9,169334,99296,82574,82060.6
58378.5,78759,147856,71220.8,184780,87094.6,87490,87578.3
83793.6,67599,110164,122627,116882,148210,85971,89617.8
82225.8,79476.3,85660.1,99811.7,144333,120879,88953.3,86671.2
57821.4,58135.5,132286,133412,192858,160036,90236.9,81595.7
95488.2,65910.6,155977,89254.7,208752,103338,88045.5,83869.7
50406.3,72535.5,117946,66638,168567,90337.5,94430.6,87507.9
48975.3,75932.1,81405.4,101908,85913.1,106860,94122.9,85552.6
75504.6,88039.8,46111.9,118955,69833.6,126700,82068.2,89246.7
93273.3,85203,147158,131579,146795,124682,90126.1,94388.6
64977.3,64310.4,65291.1,94387.9,67633.2,124650,81576.4,89620.7
51865.2,53391.6,122542,62758.5,168941,79873.6,86328,81835.4
83128.5,70730.1,143705,94563.1,191972,126587,88271.8,87273
88056.9,69478.2,117498,100443,114934,84179.8,91901.1,83182.7
85239,55299.6,104517,62292.8,133175,71623.9,82680.3,83976.8
60954.3,75810.6,131803,45343.2,182193,83323.5,90775.6,93512.4
86085,58979.7,120007,99447.5,112851,134068,85078.9,81824.9
143081,68637.6,147957,137823,127588,158694,87153,97535.8
104421,75330.9,136932,102211,130706,118666,95434.3,90433.3
76014,53262,174060,105401,227469,112149,90121.2,86303.8
67666.5,49592.7,125612,82511.8,140275,82777.3,91858.4,81973.9
68345.1,73749.6,147679,99611.6,203532,105352,88421.8,88812.5
74144.7,58622.4,153738,70959.5,197733,87824.4,93040.1,84931.8
70947,57780.9,60458.1,61917.6,86036.8,88461,89119.7,92155.1
71856,55588.5,62335.9,99357.2,72621.9,130513,86654.9,85012.4
53789.4,68569.2,74961.3,119660,96987.2,164469,86750.7,87023.4
75741.3,91179.9,99030.5,153327,98530.1,217258,89052.2,85875
102793,63992.7,167325,91232.6,206024,101097,95589.9,82727.5
57861.9,55800.9,132249,100968,174003,118856,94873.2,94413.9
67930.2,70163.1,80795.1,98557.9,123307,121526,86471.9,89016.6
49857.3,70679.7,79524.7,141638,88271.9,170356,83448.4,89991.1
70199.1,84066.3,117790,104800,175647,118036,82902.6,88851.7
67589.1,104162,115348,168226,168745,124721,85580.7,92805.3
53753.4,69595.2,109467,100811,152099,101542,88252.3,92589.3
48006.9,56330.1,89999.7,95184.4,140858,113980,82363.3,84222.9
82617.3,68640.3,116672,81765.4,181656,97890.8,83319.2,89357.3
71730,64007.1,127242,101678,199803,134424,90231.5,83870
77304.6,77418,148263,157726,185400,196910,88463.1,87785.2
90790.2,115731,161667,130446,215503,164569,88592.4,88637.5
87581.7,48986.1,152445,109279,175964,149675,90175.5,87467.4
84321.9,78138.9,124399,106631,140389,115484,87411.6,82877.2
96921.9,80778.6,149520,65199.3,162731,90216.6,89318.9,91454.6
71585.1,49423.5,85485,36127.5,127036,65489.8,83675.3,82333.4
63453.6,48150,93669.3,90972.7,133466,94618.7,88956.2,90247.6
87165.9,72540.9,103726,118674,145917,146841,83725.1,83142.4
86288.4,82557,138098,108082,165018,121692,90163.3,86221.9
69560.1,57224.7,114871,114669,147272,135686,94672.7,90523.2
81090,69696,169516,94621.5,191239,105145,98464.7,87288.6
84951,97347.6,171650,145394,195788,132891,88814.8,82218.5
95326.2,64260,186270,96525.8,212338,108086,86998.8,84145.2
76833,63339.3,135419,83224.9,206175,93865.3,89495.9,81701.3
99867.6,49151.7,185979,60394.1,196425,76958.7,91478.8,86135.6
90404.1,68312.7,146635,103128,144546,105023,85293.7,89539.5
123703,63554.4,131894,54371.2,162923,65574.6,85264,81649
68719.5,67955.4,162078,79166.1,180004,102364,92882.6,95806.5
83108.7,102650,107892,147678,170556,117203,82264.8,91638.4
91595.7,87159.6,152429,160933,177589,130503,85581,89414.9
66107.7,42040.8,152088,52607.3,148540,61773,92873.1,85322.7
101575,64426.5,145815,157914,153032,175175,87534.4,83597.4
89271.9,49772.7,195779,97102.6,201615,97397.3,92335.2,82153.6
91331.1,89561.7,151424,119721,181569,152028,83337.8,87371
77770.8,69106.5,85704.6,102910,102069,118709,85726.3,90542.8
67315.5,67680.9,123643,99161.2,139523,126002,85697.3,82396.9
78739.2,87369.3,142770,128703,175282,134627,85807.6,94116.3
72686.7,75293.1,94831.4,141512,156421,159565,84978.7,89853.5
76495.5,67497.3,123531,98224.4,153676,132313,87575.3,89754.8
98492.4,73953,211345,91329.9,187731,94882.8,81987.5,82132.4
63790.2,77800.5,71045.7,74794.5,89078.1,88579.1,86254.7,82057.8
87219,66267,113784,110741,150041,119568,81790.6,83342
56859.3,65226.6,110455,137446,166383,171058,85071.3,88624.5
98509.5,54737.1,165819,95768.2,158461,100810,90297.1,85821.4
50853.6,59816.7,113492,110283,156365,122499,82616.4,82242.3
53789.4,108898,102354,186147,121799,123440,81977,81562.9
92887.2,77889.6,114984,100405,119511,95637.6,83437.2,83440.9
80777.7,49284,152575,75610.4,168861,82817.6,86023.8,83272
55890,61827.3,86020.1,70528.6,99917.4,95219.2,83702.2,94806.2
51343.2,75240.9,102521,109734,173352,116741,92932.4,88830.1
57566.7,44928,89270,87300.3,105728,120103,83197.9,92466.4
73108.8,64026.9,134214,88926.6,152550,108673,92212,83850.5
91444.5,65105.1,203233,128707,193723,154169,82538.2,85974.7
65934.9,80483.4,125096,119284,219676,162535,82359.6,85845.8
69881.4,45724.5,81025.9,76607.1,88456.8,101106,86567.5,83840.6
64237.5,64230.3,118150,93900.1,181428,107875,88876.7,85197.1
96317.1,71271.9,183345,110385,219938,138006,91708.4,86975.3
129471,55724.4,145201,94549.2,189444,113614,89953.8,84379.9
82629,68346,109054,114617,185133,118321,88862.5,90321.3
70629.3,58760.1,150292,99208.5,178637,127124,82980.8,87618.2
86436.9,55563.3,100808,100377,119344,101375,90333.8,85466.4
55505.7,50522.4,135346,45418.2,224528,92237.6,89879.9,86145.8
84612.6,101813,132739,97883.8,170992,96182.4,91076.1,83906.7
89731.8,58730.4,179013,83733.6,204997,85972.9,82247.4,85388.6
77290.2,63837.9,106898,60837.5,130916,66889.6,83074.8,86983.9
90612,68224.5,144160,96247.8,214594,160084,90653.6,81552.2
71347.5,60003.9,129417,75688.3,148801,99706.1,90379.3,87737.1
59659.2,75257.1,126308,115763,128432,133458,81813.9,88269.9
62964,92610.9,161782,103390,208852,126369,92411.9,94510.7
97616.7,66147.3,178444,118503,192134,117804,86970.1,84265.2
65020.5,70664.4,90712.8,88076,171668,68800.8,82834.2,82057.4
90695.7,78896.7,177003,85661.5,185502,106140,86386.7,91502.8
59311.8,62739,118835,72634.5,136206,80057,94010.4,87744.3
101804,79855.2,132457,69632,200826,89634.1,92331.9,90751.1
64086.3,71895.6,145815,86770.8,139378,121387,87380.5,85331.4
76480.2,94405.5,156200,131280,185110,132411,90386.7,83719.9
52914.6,69494.4,119812,78457.2,142310,108976,88040.5,87302.8
84641.4,44293.5,76972.6,35843.9,96158.8,63671.7,88304.2,88732.5
79785,57682.8,79027.1,35704.9,82022.5,66387.8,83915.2,84487.1
85337.1,59905.8,145839,111292,164028,120881,81998.6,94598.3
56692.8,72618.3,130627,103177,206498,116100,92045.4,89025.4
59184,50334.3,63421.5,40658.9,143524,63687,82428.8,86752.6
71463.6,100397,133187,128512,193420,171308,91923.8,94747.6
62885.7,81761.4,129727,105555,232673,118844,85739.6,89742.6
86987.7,58077.9,111864,97231.9,90861.5,135494,94179.5,85219.3
86681.7,69200.1,138348,86035.4,134491,122731,81629.5,84015.4
78525.9,63919.8,91735.8,112958,131516,142417,83631.6,85310.7
75534.3,66692.7,108781,95158,135364,112673,86482.2,83843
58006.8,59641.2,95741.8,86741.6,147430,131780,90488.3,81870.1
111697,55630.8,141840,57875.4,157078,82575.7,83915.4,95575.8
69790.5,56773.8,93269,61207.3,127965,86459.4,84311.4,85456.3
65038.5,,157866,,167815,,95364.1,,
72047.7,,173554,,197267,,93681.9,,
70197.3,,64298.6,,73489.3,,83294.3,,
98823.6,,117048,,123311,,91435.5,,
113861,,197163,,190076,,89497.5,,
94562.1,,134064,,143530,,83346,,
102737,,176255,,140721,,82852.3,,
115053,,164292,,234517,,86175.5,,
76459.5,,118670,,152705,,83707.6,,
63727.2,,107280,,172196,,86733.9,,
49742.1,,108348,,131226,,86262.8,,
72479.7,,100635,,106445,,89819,,
64791,,136185,,144080,,93787.6,,
66498.3,,144730,,195584,,94746.7,,
79737.3,,171527,,228919,,88744.2,,
89478,,124023,,162472,,87580.2,,
91693.8,,100931,,104781,,84849,,
105050,,148438,,169715,,86094.3,,
94541.4,,153252,,209082,,86341.3,,
71760.6,,95545.8,,147572,,86728.6,,
106167,,176012,,206988,,90026.6,,
80537.4,,117556,,148925,,87596,,
86168.7,,160263,,171497,,94085.8,,
108819,,203304,,189813,,84090.6,,
87734.7,,163179,,189880,,87339.3,,
57745.8,,93619.3,,115079,,90216.5,,
72896.4,,159193,,185197,,86662.4,,
77440.5,,96794,,105142,,87968.4,,
93581.1,,129669,,165143,,89264.8,,
80310.6,,123529,,193760,,88784.8,,
108514,,161209,,196318,,95483.3,,
103171,,165556,,192867,,95754.9,,
93271.5,,138887,,195763,,91045.3,,
82062.9,,146541,,221335,,90704.6,,
65999.7,,80392,,86893.1,,87751.4,,
79232.4,,147934,,165706,,83234.5,,
70048.8,,81761.2,,101961,,91237.6,,
78732,,88669.5,,140416,,85178.2,,
82573.2,,79729,,97298.6,,87104.4,,
92245.5,,78225,,91514.8,,86971.1,,
90017.1,,123303,,158878,,84756,,
61448.4,,124982,,141228,,82153.3,,
68488.2,,99273.8,,111054,,87856.3,,
66936.6,,59357.2,,74630.5,,82043,,
84672.9,,202579,,240338,,83678.8,,
90999,,167459,,176498,,89376.8,,
74448.9,,121665,,207145,,89349.3,,
50411.7,,99351.6,,150669,,89453.4,,
73602,,101704,,103934,,90363.4,,
71881.2,,154671,,227332,,93149.7,,
91158.3,,123542,,195085,,83877.8,,
84193.2,,124783,,111274,,92273.7,,
82145.7,,135068,,164454,,85889.7,,
47572.2,,90072,,130110,,93416.4,,
55056.6,,65993,,71108.2,,88750.2,,
45221.4,,81444.3,,84776.1,,88255.8,,
82092.6,,138886,,173419,,87001.5,,
64662.3,,123688,,135927,,88666.7,,
66716.1,,91810.9,,153001,,83503.2,,
91935,,133522,,139659,,82992.7,,
86080.5,,83529.3,,80318.4,,82328.6,,
52155.9,,93636,,119501,,82147.7,,
128813,,132221,,115392,,88510.2,,
106228,,121143,,143030,,83593,,
106494,,174182,,162231,,89196.2,,
67086,,133726,,153193,,93729.1,,
67525.2,,136530,,151276,,91880.9,,
128862,,144909,,198325,,91973.7,,
77413.5,,108288,,146457,,89206.2,,
88817.4,,112034,,158724,,90487.3,,
75057.3,,151459,,167395,,90185.6,,
69138.9,,129847,,161091,,95368,,
73900.8,,122125,,176413,,82922.1,,
90472.5,,132521,,160505,,90300.1,,
88119,,124245,,209119,,88840.6,,
80952.3,,116745,,151475,,88623.5,,
49500.9,,103203,,114683,,86913.6,,
77055.3,,117366,,143323,,90041.2,,
77235.3,,135022,,117816,,89314.6,,
86259.6,,131555,,177272,,92081.5,,
68875.2,,147291,,214395,,89803.5,,
53823.6,,72605.3,,103096,,89461.2,,
73245.6,,128960,,182595,,87995.6,,
107195,,137698,,156796,,86678.3,,
87130.8,,140387,,132869,,89690.6,,
70316.1,,103094,,102807,,82619.4,,
66206.7,,162661,,165549,,89836,,
73211.4,,97476.5,,135724,,81686.9,,
90972,,154689,,195271,,91653.3,,
70427.7,,145326,,209880,,86886.5,,
79665.3,,151767,,168988,,83412.8,,
89909.1,,133251,,186275,,85527.5,,
52548.3,,122565,,195380,,85929.4,,
80705.7,,79729,,90978.3,,81612.2,,
73464.3,,100005,,99924.3,,87252,,
61934.4,,115237,,170748,,90371,,
82278,,65955.5,,239572,,81706.4,,
91964.7,,140967,,181339,,84432.1,,
101714,,167655,,166840,,90604.2,,
59726.7,,66162.6,,88223.3,,86023.1,,
174527,,179014,,220882,,84066.5,,
55872.9,,61942.6,,65004.7,,86701.1,,
96080.4,,90173.5,,87586.7,,87241.3,,
60091.2,,98170.1,,169084,,82708.6,,
63758.7,,143390,,202754,,90111,,
95436.9,,165574,,204349,,81565.9,,
62735.4,,158732,,173667,,83685.3,,
74229.3,,78945,,94691,,94011.7,,
99561.6,,171106,,208294,,92623.5,,
61855.2,,90986.6,,113866,,82676,,
78894,,77167.2,,83534.8,,83232.2,,
64043.1,,111288,,152654,,89498.9,,
79830,,135161,,172085,,90310.4,,
139268,,138504,,142853,,88974.8,,
62533.8,,146349,,141861,,88309.2,,
63756,,132496,,153692,,88786.7,,
88081.2,,174009,,200387,,94651.8,,
102923,,144527,,184409,,88702.3,,
68143.5,,147801,,185477,,91083.1,,
93789,,110458,,148958,,88640,,
130172,,190933,,184552,,88713.6,,
81068.4,,135674,,153954,,86437.4,,
86649.3,,72444,,98570.5,,87236.8,,
101623,,157101,,116645,,89177.1,,
86782.5,,120970,,121176,,88883.9,,
74636.1,,102568,,131641,,83576.8,,
68248.8,,111724,,177046,,93136.8,,
90835.2,,139958,,187890,,90346.4,,
61488,,102285,,179395,,82151.3,,
86670.9,,153820,,194368,,85215.8,,
82264.5,,106737,,107575,,88343,,
67032.9,,103043,,109674,,81727.4,,
91349.1,,147219,,128009,,91458.5,,
59710.5,,136271,,227227,,87859.2,,
87561.9,,165145,,160548,,89989.9,,
74629.8,,129537,,166835,,81661.2,,
97816.5,,103577,,132883,,85440.9,,
99486.9,,197287,,250559,,87991.4,,
101758,,154446,,157752,,91744.6,,
89752.5,,145484,,149811,,95649.3,,
113351,,117038,,102916,,89904.5,,
108617,,174794,,194813,,89505.1,,
62363.7,,128386,,147334,,91948.7,,
106169,,176737,,167389,,83891.9,,
95924.7,,112259,,141474,,82529,,
69349.5,,75194.8,,93338.5,,92760.7,,
61885.8,,95049.6,,147942,,83271.5,,
84837.6,,165085,,189260,,83470.9,,
56402.1,,98314.7,,152138,,84810.6,,
75373.2,,160699,,195203,,85741.5,,
73226.7,,137980,,118133,,83805.1,,
67066.2,,82036.4,,112928,,83522,,
97117.2,,178117,,182664,,88382.2,,
72959.4,,78644.8,,115900,,94463.7,,
81396.9,,125413,,134673,,82677.6,,
54322.2,,103919,,168011,,85194.4,,
79109.1,,141234,,179054,,91420.3,,
80489.7,,144168,,160990,,91457.6,,
55435.5,,87543.6,,146413,,91932.3,,
71625.6,,161522,,176725,,88513.4,,
81145.8,,123075,,150782,,90412.4,,
57092.4,,124943,,186833,,83707.7,,
76989.6,,185550,,138951,,94911,,
83418.3,,137857,,146639,,84084.1,,
84342.6,,134331,,179170,,91133.7,,
79116.3,,151307,,170788,,84942.9,,
115082,,182792,,113214,,85129.1,,
80130.6,,118756,,171719,,96957.4,,
58462.2,,80453.2,,96431.2,,84050.2,,
102195,,143630,,179630,,88808.9,,
72132.3,,108075,,128147,,90089.7,,
85419,,98371.7,,133147,,85604.6,,
71784.9,,168450,,184283,,85610.1,,
98757,,157741,,154971,,87145.2,,
60131.7,,122858,,128361,,88822.2,,
61741.8,,118739,,126179,,95142,,
