"FSC-A","FSC-A","SSC-A","SSC-A","FITC-A","FITC-A","Comp-PE-A","Comp-PE-A"
63809.1,41184,54839.7,39013.1,79744.3,79585.8,88694.4,94409.2
87240.6,107479,84770.5,68208.7,92614.3,78711.5,85806.2,89232.7
72550.8,56425.5,51382.7,47501.9,71982.5,86156.4,82869.2,94772.5
61655.4,77103.9,37953.9,62946.1,66678.3,106460,85482.4,88902.4
68352.3,66121.2,51856.7,48608.3,73625.5,77181.1,86875.3,86011.8
57542.4,88921.8,52978.5,73200.2,76331.9,67937.6,83333.6,82703.2
114165,65846.7,189841,81263.6,193869,117533,90452.8,84354.8
52268.4,53579.7,30707.9,53893.1,67050.8,87237.8,95716.7,94629.9
70136.1,62575.2,73720,47216.9,77952.6,78826.9,88904.3,88495.8
83365.2,68919.3,60730.5,139619,91866.5,148142,88873.2,89164.4
71658,52983.9,77195,48584.7,90922.7,88210.8,91768.3,95674.4
54447.3,80527.5,60527.6,55484.6,89175.4,78965.9,89190.9,83904.9
76120.2,69173.1,98699.7,51874.8,101508,82773.1,82169.8,82662.1
63937.8,66239.1,41886.3,63773.2,72941.6,86060.5,96343.6,97374
59872.5,58289.4,40711.7,37136.6,69746,62708.5,92887.1,90157.7
53826.3,103832,38893.6,65174.3,68856.4,105056,91872.9,92425.2
83506.5,72504,60663.8,37881.7,75037.8,68499.2,88727.3,83425.5
71613,91092.6,184625,59095.8,123834,85182,88246.4,85454.8
44964,75815.1,41681.9,68479.7,67797.2,88241.4,86917.5,90872.1
66064.5,73221.3,41287.2,49151.8,70227,75813.4,82228.4,92261.8
53899.2,125266,42228.2,104752,65598.3,155309,82900.5,90255.7
48282.3,73237.5,66607.4,34802.8,105092,82716.1,91948.5,84715.9
70547.4,57926.7,128202,49987.2,145685,78187.5,93027.5,92987.5
57053.7,67963.5,35443.6,35682.7,67376.1,67866.8,84923.5,90185.5
56586.6,57964.5,55234.4,70392.4,65680.3,78850.5,84908.7,84099.7
54799.2,42860.7,66280.8,44724.6,93729.1,68889.8,86367.1,93710.6
61835.4,53670.6,38615.6,62185.8,71218,110797,83475.1,85585.1
93733.2,87345.9,59120.9,74011.9,102297,93969.6,87123,88833.6
114038,45134.1,108884,52631,102343,82463.1,85821.6,91151.5
78149.7,64746,79412.1,33269.6,100287,71440.4,87078.4,96656.4
56785.5,49276.8,88912.7,52015.2,89910.8,74198.2,85297.4,92362.1
52931.7,91750.5,26095.9,125552,72402.3,118243,86386.6,86116.7
78738.3,57753.9,67492.8,43696,75875.9,76140,85570.8,93268.3
68658.3,74419.2,80849.4,42624.3,126041,66047.2,93946.3,87717.9
86556.6,44725.5,72178.5,51197.9,96427.1,95124.6,90929.4,87188.4
61201.8,47846.7,70352.1,97532.1,83322.2,123072,88184.6,90215.8
92702.7,113003,135895,116522,108344,111700,92771.5,90301.8
58695.3,102528,43711.3,221583,60153.6,108556,83784.4,95422.5
108408,71080.2,91165.9,76897.6,120498,87823,87580.9,83878.3
75638.7,50280.3,64753.1,31208.3,103360,62051,92277,84471.2
59411.7,54796.5,78026.3,55114.9,83739.2,77603.7,93143.5,89607
53775.9,61186.5,90227.7,43871.2,93886.2,85872.8,81895.1,89149.6
55742.4,109511,58513.4,84425.8,76373.5,101185,89783,96515.8
73513.8,86931,32610.8,65368.9,61061.3,93936.2,87576.5,87610.2
77535.9,65837.7,60155,41313.6,89742.6,73717.3,83706.6,90238.4
63397.8,43092.9,68478.4,31804.6,93178.6,72648.4,96717.1,88196.8
61256.7,61962.3,44353.5,35866.2,76778,75670.2,93512.3,87035.3
52929.9,65867.4,46973.7,56365.9,80909.1,70311.8,86025.8,82115.4
64685.7,62788.5,41422,34341.3,64115.1,63196.3,83807.6,82604
66133.8,46254.6,69012.1,45516.9,79156.3,82207.4,95636.2,95324.3
52550.1,90783,91281.3,61062.7,141160,91801.2,94665.9,86630.8
61220.7,129939,46191.1,175645,84345.2,146898,86550,86994.7
64073.7,52246.8,56322.8,40768.7,84398,68396.3,93072.6,87663.4
58031.1,63044.1,63635.6,70441,93733.3,83131.7,94353.9,90353.2
60930.9,46038.6,43739.1,91249.3,63639.8,94938.4,89300.8,81749.5
58227.3,85358.7,92127.8,56069.8,98453.7,88695.9,89879.4,84602.7
84321.9,52134.3,46963.9,28066.9,79866.6,66410,87694.5,86519.8
59702.4,57374.1,46856.9,39334.2,70520.3,76191.5,87853.7,83690.6
56013.3,61693.2,41837.6,40221,63384,86018.8,83747.8,89038.4
70865.1,46995.3,61743.8,34341.3,81180.2,66549,89304.3,93331.1
78794.1,62669.7,44609.3,35189.2,62178.9,66775.6,83603.1,89166.4
64526.4,76176.9,91125.6,56242.2,94870.3,99063.9,90018.4,95271.7
68176.8,70173.9,74281.6,30698.2,78786.6,66204.3,89706.6,82674.6
111590,117520,111602,154230,104160,140526,93343.3,94442.5
50372.1,81759.6,51400.8,66546.2,65562.1,107696,88211.7,95359.3
62134.2,51990.3,59881.2,54342.1,98805.4,88612.5,90821,85467.6
59163.3,50301,84249.3,63539.7,84698.3,101103,95450.6,82053.1
46920.6,59834.7,87040.4,47713.1,80511.6,95468,93342.6,88234.5
47317.5,67010.4,70158.9,46273.1,73190.5,90743.4,82120,97782.7
105766,93357.9,89674.5,86702.6,87240.6,114461,84740,84472.9
65910.6,42905.7,31671.2,34472,62103.8,73481,85475.5,91854.2
51752.7,68940,61514.4,54166.9,86373.2,79733.2,83382.9,93475.1
42135.3,87219.9,63542.5,52177.8,76899,95013.4,87316.6,84370.9
109696,43254.9,149096,46252.2,106670,84430,91642.5,94536.5
63951.3,70524.9,34538.7,53897.2,60424.7,110138,87547.9,96605
70578.9,74529,62918.3,45603.1,76276.2,81472.1,89884,85064.8
69633.9,70936.2,105320,45796.3,97270.8,80565.8,91472.8,82868.3
42785.1,45124.2,42445,31055.4,74138.4,70221.4,96451,85271.3
53925.3,54342,92009.7,43341.6,101805,64657.2,88102.2,88070.9
69221.7,45977.4,55024.5,31888,73490.7,70325.7,96021.1,94971
79540.2,77379.3,111290,63791.3,133369,89158.8,89684.1,85734.6
75644.1,50401.8,55499.9,37645.4,73977.2,66960.5,82152.6,94460.8
82359,55152,76404.1,43607.1,89049,66280.8,90129.8,85336.3
64826.1,42360.3,56570.2,32232.7,72749.8,66005.5,86449.9,86907.7
76952.7,76326.3,44796.9,60592.9,70454.9,115042,90379,88871
85922.1,46692,133872,52158.4,104224,84099.2,84255.9,83733.4
79554.6,67299.3,135415,39451,103993,78625.4,83244.4,85570.5
58023.9,46729.8,84353.5,31098.5,153535,63600.8,90256.4,85253.2
67310.1,59862.6,55454.1,44341,66205.7,72412,88914.2,90475.6
71077.5,54606.6,47237.8,36954.5,68148.9,66966,86218.8,90928.6
48867.3,59434.2,70958.1,53255.1,95798.8,92820,94745.2,87548.4
52825.5,68166.9,64280.6,63425.7,66607.4,79445.4,82575.8,89318.8
52084.8,69378.3,82838.4,60442.8,90875.4,83123.4,85622.1,87470.7
95867.1,60626.7,93028.5,72391.2,243043,110474,85068.9,87277.9
104542,62920.8,83886.5,63082.4,100269,87749.3,84108.7,87700.8
93598.2,50660.1,82445.1,55665.3,85929.8,89939.9,90648.6,94111.6
57309.3,76241.7,53149.4,51766.4,65566.3,104636,83521.7,97203.3
46029.6,68408.1,53658.2,49735.6,79195.2,82988.6,91562,93483.4
49287.6,75535.2,32228.5,37232.5,66221,70728.8,88567.5,88668.7
64924.2,162605,39872.1,152704,71778.2,118496,85547.2,83164.4
63116.1,76280.4,98929.1,56853.8,96154.6,89207.4,86137.3,93805.9
46157.4,71342.1,45161.1,40172.4,77781.6,74416.4,94092.7,82739.2
69657.3,56357.1,56370.1,59372.5,69042.7,74962.7,93592.2,83906.9
44684.1,49309.2,53360.7,56996.9,89752.3,79888.9,87851.2,89347.8
,74694.6,,44117.2,,75611.8,,83633.4
