"FSC-A","FSC-A","SSC-A","SSC-A","FITC-A","FITC-A","Comp-PE-A","Comp-PE-A"
93879.9,81383.4,84696.9,75438.1,112223,93232.9,46346.8,44376
58927.5,82420.2,87454.6,59867.3,126394,76791.9,40972.5,40829.4
100781,90201.6,102599,92215.4,86883.3,86986.2,46749.6,42828.6
54529.2,69494.4,68899.5,54674.3,116314,76359.6,34568.2,48857.8
79072.2,60547.5,72954.1,68442.2,117390,83522.3,46171.3,46272.6
77659.2,61576.2,100218,80073.7,135107,73018.1,47341.2,44107.2
78936.3,70647.3,101831,94322.6,120292,104470,45421.6,49864.9
82611,58366.8,82258.8,48926.6,113937,80428.2,48640.5,39383.2
77817.6,50967.9,84332.7,65660.8,121037,97393.1,43954.7,45089.5
67602.6,71215.2,106028,75661.9,108488,105179,48402.8,45663.7
100109,74789.1,105176,82955.2,113154,102037,40951.6,52391.2
48333.6,58668.3,56960.8,52517,75349.1,74527.6,40321.3,43493.9
53235.9,71984.7,87144.7,73867.4,105619,91815.1,44521.1,49525.6
54690.3,57255.3,100275,59418.3,82828.7,79264.8,33677.8,45187.6
70161.3,55527.3,61967.6,56108.7,87707.6,75944,43836.8,45081.6
76083.3,74142.9,91425.9,77828.9,145465,76864.2,47520.3,40664
73368,69444,83251.3,78223.6,118226,78022.1,50194.2,43423.6
57798.9,80480.7,92201.5,63992.8,102501,88109.3,34241,37816.7
100751,56909.7,116463,70646.8,148598,120701,43136.7,44837.6
135719,62581.5,156239,96271.4,89927.4,90465.4,48632.7,43611
56826.9,90187.2,51095,102707,86292.6,89731.4,40475.3,43112.1
46433.7,51154.2,57569.6,65538.5,83965.7,76188.7,39643.5,44837.4
75175.2,68131.8,121329,67647.1,150045,90097,48935,46152.1
69463.8,54058.5,58296.6,85544.8,73340.6,83081.7,46287,46710.5
82080.9,68481,58293.8,76395.8,75739.7,82210.2,44593.2,46161.2
60345,63238.5,62679.3,93145.3,87414.3,88648.6,44413.6,39774.2
61531.2,60671.7,48480.4,54884.1,97850.4,75319.9,42784.1,39898.4
79679.7,45301.5,84061.6,70568.9,90794.8,82800.9,51699.4,48576.9
85923,48516.3,92468.4,60232.9,84317.4,75750.8,47361.4,44830.4
51462.9,95915.7,63899.7,130507,95776.6,77215.9,48264.5,45619.9
90156.6,56669.4,96580,100076,149023,77596.8,49293.5,48057.4
67582.8,49201.2,73279.4,61905,94104.4,82941.3,36506.1,47159.3
71470.8,43077.6,96778.8,64630.8,105540,74715.3,48120,44769.7
81330.3,54881.1,125076,77805.2,85863.1,81269.1,45408.1,48824.1
131866,42300.9,93706.9,71008.1,135474,84545.4,45006,52495.7
61315.2,61996.5,72573.3,106808,97136,93029.9,37544.6,37043.1
82474.2,75442.5,84844.2,119293,98178.5,129962,46135.5,44948.5
74213.1,56972.7,102708,75967.7,89948.3,92243.2,46342.6,35619.1
91629,68432.4,108726,82288,130236,89329.7,48413.1,45673.9
84384,47893.5,86282.9,77240.9,90298.6,97338.9,48036.2,50840.6
48307.5,49993.2,103077,79349.5,82485.4,80293.4,35242.1,43534.7
63163.8,44068.5,106374,54353.2,117395,72644.2,46161.4,28781.4
79949.7,157646,76238.7,189964,112120,83162.3,48983.4,39856.2
102525,103735,126903,108357,178721,77702.4,52556.1,44825.8
65295,69067.8,44015.7,73411.5,72591.4,74716.7,40697.1,40690
98850.6,58930.2,184161,72166,133048,86389.9,46168.5,42573.3
51787.8,53213.4,68962.1,51228.4,90063.7,83173.4,47093,39013.4
53536.5,60158.7,49459,61039.1,96271.4,75300.5,36048.4,40250.8
50778,72396,90679.4,82828.7,83975.5,102843,42627.5,44846.2
74073.6,97279.2,96347.9,104214,102218,85877,49425,39978.2
49897.8,78715.8,106386,90394.5,125901,87703.4,51783.2,36695.1
56212.2,55543.5,71091.5,66201.5,101694,89329.7,49171.1,48562.3
45142.2,57067.2,72034,75082.2,72449.6,76918.4,30947.5,47422.9
69914.7,49883.4,82567.4,88601.4,111342,81972.5,42852.5,43123.4
78653.7,55157.4,100301,83889.3,104067,74845.9,41700,43708.3
60843.6,53677.8,64436.2,58366.1,84840,81024.5,45522,49224
90087.3,55538.1,116832,54358.7,124545,76003.8,49955.4,41450.1
66484.8,42645.6,81960,70500.8,102596,103116,46426.3,46142.4
80565.3,66852.9,106866,104650,134569,110648,41477.8,47235.1
84859.2,53687.7,105154,65794.3,79320.4,73492.1,27752.1,45962.9
57024,56781,60237,63903.9,97138.8,76252.6,45518.9,44950.4
74643.3,51627.6,102155,112276,148743,104559,47470.8,45990.3
49858.2,54224.1,76376.3,50069.2,134553,74002.2,49741.9,43847.4
70873.2,58342.5,71742.1,80999.5,89810.7,106378,42995.1,39421.5
76483.8,51520.5,105758,61880,102207,75753.6,42499.1,43672.5
50923.8,59926.5,69552.8,64323.6,72342.5,75880.1,30873.7,43602.3
68913,64135.8,75850.9,71143,85769.9,100772,37006.3,44605.2
47196,56396.7,56792.6,73000,110873,81424.8,34620.6,38194.4
69919.2,44865,55474.9,67274.6,81509.6,76618.2,29492.6,50452
57537.9,71579.7,54924.5,179046,86253.7,94483.9,32499.6,27747.2
83154.6,48395.7,79822.1,72049.3,169401,82265.8,37125.4,45706
100373,52866.9,140489,55483.2,124576,80770.1,47987.4,45682.2
53884.8,59945.4,102764,115364,121316,78426.6,47268.9,39293.9
50751,59733.9,62602.8,63702.3,80424,74242.7,48022.2,39180.4
69539.4,74164.5,95295.6,84763.6,115299,90166.5,42924.5,44489.8
66398.4,48085.2,66781.2,75350.5,93444.1,80196,44876.7,44959
71800.2,62047.8,105793,63206.1,114902,89995.5,41870.7,51389.3
91180.8,58528.8,113642,60371.9,134531,74287.2,45713.2,49404.9
79221.6,61479.9,82368.6,61888.4,87561.7,74030,37096.6,38228
64601.1,50770.8,76270.7,54433.8,101881,72655.3,37526.9,33048.3
76021.2,53990.1,100740,56559.1,99194.6,81189.9,43291.8,28681.8
81414.9,57228.3,69347.1,63354.8,73069.5,75293.5,44177.6,44447.5
103940,42971.4,103490,51840.1,85054.1,73928.5,42946.5,45101.2
65650.5,50187.6,68647.9,70817.7,72727.6,97903.3,30339.2,50991.5
47387.7,69824.7,52383.5,52177.8,95184.4,221198,49094.6,34733.1
54650.7,152286,85544.8,127444,80303.1,127684,31731.8,37836.3
69765.3,55215.9,119783,66906.3,102404,75090.6,44883.7,47385.3
75950.1,55254.6,87396.2,71804.6,108569,88123.2,44830.2,40227.8
59018.4,47940.3,56186.6,60966.8,75417.2,76562.6,43943.8,46188.2
70502.4,73456.2,65660.8,72195.2,84581.5,74355.3,45334.4,48511.4
55366.2,53530.2,63742.6,66713,79346.8,77033.8,45016.3,46035.5
69817.5,57499.2,76904.5,58182.6,80781.2,103826,47985,48285.2
157162,46000.8,114529,61285.1,73426.8,97906,27155.9,34781.2
112071,50319.9,74397,55768.2,80153,73481,44603.4,50628.2
52330.5,52221.6,62388.8,70448,93775,89620.2,45211.6,33410
46137.6,47674.8,81123.2,69162.2,108806,93497,41129.3,46969.4
70803,169347,73768.7,178675,90597.4,117381,52328.3,43059.4
52154.1,42953.4,81159.3,66119.5,105472,81142.6,29499.4,51767.4
73154.7,56193.3,71245.8,61969,85419.7,78262.6,41350.8,37436.1
77161.5,106763,108531,143807,112028,112017,43044.6,47044.1
75469.5,147638,87435.2,220986,87165.5,96555,50950.5,39758.7
56057.4,42579.9,68315.7,65118.7,80640.9,97286.1,32853.2,43500.6
47499.3,83516.4,56071.2,110757,76716.9,144218,43128.5,44352.6
69838.2,71428.5,90222.1,75292.1,124152,109187,45444.5,51566.3
53683.2,93279.6,60690.2,121881,79063.2,94888.4,28323.4,48837.6
44138.7,98591.4,55836.3,63068.5,81982.2,96987.2,51606.2,40643
71624.7,53491.5,79773.5,65838.7,92478.1,94068.2,43476.2,46618.3
67797,47814.3,96618.9,74732,121724,80632.5,44116.2,48434.1
44205.3,60413.4,82874.6,84153.4,97327.8,92227.9,36751.9,46222.6
72288,50604.3,57516.8,73831.2,72406.5,91783.1,43111.6,38989.2
76447.8,52251.3,117191,93790.2,153413,78587.8,46456.5,34652.1
43488.9,63757.8,49167.1,97733.7,77888.6,101235,34550.8,44122
68650.2,64718.1,102389,72988.9,117962,84325.7,49802.5,42615.6
46988.1,55035.9,26899.3,67640.2,116339,81512.4,31341,47217.8
67621.5,59371.2,94536.7,71059.6,111075,93572,50727.2,49151.7
54069.3,50310,85517,60388.6,118927,76349.9,35906.1,45069
51252.3,87930,52380.8,84677.4,91708,85536.4,33280.6,39925.8
74355.3,54408.6,65624.7,60465,115877,78389,44143.8,42375.5
42637.5,53766,67200.9,64012.3,92346,84701,31388.2,45752.4
66219.3,56232.9,74993.3,67598.5,101047,85405.8,44414,45002.9
58635.9,52084.8,79859.7,74262.1,108769,98930.5,38885.9,42199.6
52884.9,68436,61493.6,62854.4,82684.1,100692,33328.8,50807.7
57616.2,115339,89479.9,123850,146106,93538.7,44558.9,43163.4
49193.1,45954.9,78733.8,62127.4,124233,80461.5,43432.9,52292.3
57640.5,54772.2,77998.5,68782.8,92218.2,72506.6,41395.5,42233.5
65529,52070.4,75457.5,87499.1,96568.9,93348.2,41991.9,47923.1
59144.4,55706.4,54597.8,77221.4,77131.1,89857.9,45213.1,43521.5
66972.6,41571,68119.7,53501.1,97188.8,76785,44100.6,46979
46469.7,56517.3,95659.8,81049.5,151295,83540.4,46569,45357.3
54434.7,53551.8,75891.2,55821,99308.5,86501.1,52825.7,50162.6
59084.1,69145.2,60658.2,64518.2,83480.6,73838.2,46947,38913.6
87716.7,48516.3,63745.4,63560.5,75497.9,78872.8,46788.8,48220.2
57370.5,62655.3,59589.3,66307.2,79517.7,93662.4,41666.8,42548.5
115930,60534.9,101901,72266.1,75901,78829.7,43989.3,44908
76689,45083.7,68312.9,80600.5,95073.2,88584.7,52484.8,39351.3
51147,50357.7,48385.9,67745.8,76999,75802.3,48217.7,51711.8
111308,55197.9,102102,66412.8,85049.9,90354.2,50698.7,43205.2
68910.3,75270.6,111952,85858.9,100391,93127.2,41187.8,46889
54441,46656.9,61488,66063.9,97476.5,77360.4,48608.5,45981.4
60558.3,50926.5,77853.9,77368.8,124019,115458,51216.7,50321.6
62963.1,86636.7,78971.5,98503.7,124689,74062,40695.4,48642.1
52209.9,53994.6,115581,62511.1,145142,91544,49496.6,43249
71675.1,55654.2,74155.1,77696.8,105514,78655.9,42034.2,45554
65022.3,50427.9,75484,80813.2,97127.6,98952.7,50445.5,49312.8
65851.2,60087.6,70751,85440.5,95162.2,94029.3,42002.2,40555.2
57712.5,52019.1,108870,63443.8,161219,78118,46286.4,44709.9
69192.9,56475.9,49322.8,90810.1,75926,93353.8,38351.9,46983.2
56105.1,54001.8,59271,87693.7,90261,108007,43705,45071.1
54966.6,50589,51496.7,85186.1,77976.2,83775.3,41946.4,45958.6
50581.8,54280.8,68356,50330.5,93182.8,73704.8,50771.9,42233.8
92530.8,62081.1,117502,90876.8,123325,97690.6,48827.3,45684.2
47410.2,57496.5,61611.8,66322.5,107903,87100.2,43222.2,41025.6
44562.6,122127,76776.6,117640,85127.8,229433,46422.9,46749.5
56490.3,56780.1,81783.4,62238.6,97618.3,82846.8,41757.4,40773
76708.8,45219.6,100984,63008.7,104939,81697.2,46031.4,50185.3
69411.6,40478.4,84385.5,24436.2,73708.9,78643.4,47479.5,34224.6
48949.2,53561.7,70955.3,57348.6,92935.4,75267.1,48952.1,44750.1
58095.9,62255.7,73340.6,60697.1,72492.7,84530.1,44555.3,33724.3
54441,58879.8,54902.2,75279.6,80568.6,74984.9,44308.2,40058.5
69573.6,68104.8,136270,75250.4,143194,73959.1,45304.8,50771.3
70068.6,45715.5,109657,61853.6,137258,81062,50997.2,38167.9
62324.1,55917.9,94647.9,74789,114061,90500.1,45270.6,45274.9
68864.4,69741,84313.2,62847.5,99111.2,74239.9,39494.7,43269.9
56869.2,59076.9,73337.8,66628.3,81668.1,76590.4,31959.4,45499.1
54680.4,57924.9,52362.7,81705.6,82835.7,102240,45021.3,45105.4
63148.5,58363.2,68357.4,52783.9,73300.3,74934.9,45599.1,46740.7
42579,50065.2,60170.3,72282.8,82139.3,79217.5,30130.3,45217.2
49141.8,47968.2,71149.9,51673.2,104546,94625.6,48219,46155.1
67887,53737.2,108745,67478.9,103205,85334.9,47677.8,48997.6
52756.2,120048,98933.2,131880,103356,88771,37658.5,33403.3
59204.7,97684.2,65138.2,76766.9,82086.4,74088.4,51197.7,43984.6
70053.3,53524.8,91759.5,68778.6,107685,80273.9,44189.6,38234
62567.1,130298,77525.9,186838,89921.9,121682,46542.3,50987.2
48858.3,152121,63390.9,195802,98374.5,101916,39973.1,52873.9
79550.1,59440.5,96482.7,70656.5,87515.8,83978.2,49153.8,45075.2
55957.5,79333.2,95455.5,130914,121025,124965,51258.2,45452.6
68805,151670,84133.9,220764,80462.9,131279,49470.5,45436.4
64403.1,49362.3,113108,62023.2,114489,77942.9,49840,29899.2
54988.2,52015.5,59724.1,63625.9,82681.4,78268.1,39289.2,50577
65488.5,79409.7,80728.4,91266,95262.3,86149.4,51710.4,33622.5
70377.3,58457.7,77682.9,88117.7,110490,73435.1,46979.8,49732
67498.2,119081,100479,180989,143570,111488,52123.7,40955.1
71862.3,98369.1,105116,140804,115576,77496.7,45445.2,27462.8
67937.4,54125.1,39154.9,53576.2,79609.5,94725.7,36649.6,41803.4
64818.9,53946,84930.4,62134.4,112316,75867.6,41690.9,50866.9
99896.4,64007.1,79378.7,50907.4,73478.2,77967.9,48929.7,38519
58451.4,96705.9,69708.5,107694,77167.2,77657.9,41380.8,38667
75450.6,77877.9,89229.7,135304,85765.8,129666,40236.8,45454.6
59012.1,113764,80041.8,52052.7,82005.8,80568.6,42721.8,39794.9
69899.4,49176.9,84146.4,66154.3,83344.4,74178.7,51080.4,45218.2
49231.8,87183.9,71836.6,63735.7,79398.2,77459.1,46945,44066.4
67904.1,45615.6,82481.2,53638.7,87948.1,75060,46703.5,29626.5
67519.8,56140.2,97640.5,78875.5,78170.8,95726.5,47315.5,43580.7
65943.9,48371.4,94572.8,80485.2,139851,104517,44778.5,30921.5
98005.5,71485.2,72378.7,68863.4,79831.9,86470.5,42277.6,50279.2
62851.5,56428.2,87307.3,55320.6,97722.6,80091.8,41581.1,41846.6
63070.2,61162.2,70734.3,82339.4,103397,128795,34243.1,44751
66641.4,48991.5,79002,68856.4,95366.5,77480,46113.1,45908.7
71468.1,59390.1,91911,70596.7,105458,81149.6,50297.1,49426.3
66089.7,91568.7,97076.2,76772.5,103167,75103.1,48557.7,49767.3
77990.4,53736.3,110312,66425.3,101573,76387.4,50368.3,51216.9
67214.7,59251.5,81355.3,65293.9,82457.6,79313.4,44803.5,52242.8
51314.4,69183,70926.1,97041.5,105764,100009,50413.4,44871.9
82688.4,63175.5,88733.4,79708.2,110492,90648.9,46318.1,44036.4
42431.4,57143.7,74098.1,57366.7,104477,73588,37507.5,44701.3
55621.8,122269,106314,112568,92679.6,101894,48447.5,40842.9
61829.1,57933.9,93219,81303.9,123984,73590.8,49071.9,48001.1
66112.2,72852.3,94244.8,88399.8,90893.5,77457.8,40588.2,39269.5
80606.7,128281,63485.5,135767,93688.8,77310.4,35446,44134.6
48363.3,55841.4,73713.1,63064.3,108729,76137.2,42819.7,46782.6
51950.7,118076,60998.8,136887,85551.7,91147.9,45893.9,43619.9
124337,67581.9,115669,76790.5,137128,137524,41589.1,50055.8
56212.2,54668.7,67210.7,73592.2,83361.1,75595.1,33002.9,45721.8
63135.9,52956.9,114543,70849.7,113314,86883.3,46028.7,52575
63840.6,60216.3,98213.2,64439,109636,83614.1,31152.3,42834.4
43184.7,43557.3,57690.6,60352.4,93410.8,75873.1,43503.3,34113.1
70273.8,56358.9,95299.8,68386.6,101430,80496.3,48921.2,45302
78870.6,103728,111781,158660,117025,125555,47159.6,49245.7
92855.7,54596.7,89345,67405.3,148079,90130.4,50182.9,51090.8
43287.3,63513.9,74149.5,67630.5,86419.1,85197.3,36964.9,48647
60652.8,46708.2,75326.9,29555.6,110807,182262,43900,35970.8
47429.1,87996.6,76248.4,109717,84813.6,96215.8,37680.6,47512.5
41720.4,45440.1,71623.9,65676.1,123543,108815,38427.3,43376.6
58259.7,74403,90568.2,125917,88158,73936.9,37888.5,47167.8
41532.3,68653.8,63158.8,77548.1,74159.3,80426.8,29363.2,46279.1
74857.5,132527,99102.8,121216,111372,80557.4,47430,39267.1
52486.2,71181.9,48929.4,73638,78665.7,84887.3,29988.5,44809.9
76233.6,50883.3,97957.5,87166.9,115277,101627,38658.1,42630.9
63126.9,56475.9,78208.4,74399.8,105094,77455,48052.2,46329.4
72955.8,56368.8,126241,80739.5,151261,91968,51014.1,47465.4
102402,57383.1,75682.7,77771.9,81394.2,85270.9,42048.7,44702.2
54101.7,54485.1,58090.9,71170.8,92970.1,98284.1,44334.6,34123.2
84241.8,44080.2,98785.9,59867.3,134142,86574.8,42453.1,50504.6
69150.6,60590.7,126872,70181.1,138447,96378.4,45613,49623.3
64276.2,83790.9,43451.4,86348.2,77624.5,80323.9,44003.1,37690
46625.4,44470.8,63050.4,55957.2,86014.6,78865.8,48172.6,44542.5
87722.1,50906.7,89279.7,59927.1,108698,78519.7,46284.8,45334
60492.6,124727,74091.2,115752,83672.4,80714.5,47178.8,39630.9
42897.6,52836.3,54229.5,64586.3,98759.5,89281.1,44043.7,45457.5
78926.4,45622.8,99480.9,81623.6,86355.1,73714.5,37070.2,50032.8
64855.8,58219.2,84934.6,66843.7,110167,83351.4,46443,38201.8
90951.3,49329.9,103224,77393.8,90223.5,99127.9,48200.3,50048.4
73552.5,50808.6,131152,66807.6,120366,72288.3,50723.1,44970.4
62856,62424,163810,68652.1,126147,85683.8,52324.3,46134.9
55890.9,66073.5,68832.8,76124.7,79560.8,77712.1,28824.4,43983.1
52305.3,52848.9,70852.5,69351.3,103985,79925,43515.7,49655
77294.7,44285.4,99856.2,79467.7,92721.3,87689.5,35833.1,51618.7
48105,81405.9,91929,98177.1,136397,165375,46277.5,43964.2
65970,79984.8,61470,96944.2,74681.9,119268,42223.1,52605.2
57342.6,52863.3,82472.9,86670.7,107001,92454.5,28758.8,46924.3
57725.1,56045.7,79414.9,57512.6,80143.2,81661.1,44942.9,48171.2
120978,57809.7,177274,78643.4,95252.5,94465.8,39327.2,45734.4
68026.5,56270.7,80125.2,67779.2,119124,74861.2,45470.2,43980.2
65802.6,109169,59970.2,134879,92093.1,90929.6,50949.5,47236.6
103863,60402.6,113512,59735.2,77352.1,109215,48681.1,52796.7
161884,52146.9,148975,59703.3,90983.8,74786.2,44179.3,47013.3
46347.3,56739.6,71718.4,71925.5,106292,80269.7,45244.7,42283.2
58239,55334.7,70332.6,101113,111454,93558.1,49025.4,49635.9
70496.1,55430.1,82809.2,82417.3,121041,103954,44660.6,40863.3
48834,53577,105694,86218.9,84407.8,100422,41814.6,50697
101070,44577,98599.6,76828.1,133762,85840.8,44128.6,50866
64716.3,58617.9,77929,81452.6,77243.7,89794,49355.1,31664.5
64538.1,46638,118310,51849.8,129872,75550.7,50684.3,50209
103806,56164.5,72774.8,40955,117417,124557,51431.4,43113.4
73025.1,59820.3,69565.3,109572,91584.3,75411.7,40174.1,39418.2
64023.3,41764.5,123752,58106.2,117751,72445.4,47914.6,43809.3
43755.3,71052.3,62020.4,86002.1,72899.9,87297.6,30719.1,43001.7
64426.5,47380.5,57027.5,60042.4,77090.8,76065,37006.6,47604.1
52157.7,50315.4,63749.6,85865.9,87659,78907.5,29133.8,43990.5
51287.4,51409.8,60805.6,86570.6,100765,105045,50827.1,42120.1
49355.1,51179.4,68620.1,76451.4,78059.6,98424.5,52532.3,49498.3
55128.6,61633.8,76878.1,145573,87201.6,96235.3,29523.7,49906.7
52486.2,50744.7,72587.2,55164.9,91710.8,74031.4,33534.9,42264.5
56413.8,59211,82293.6,84049.1,76142.8,125618,39787.9,39677.3
71624.7,44511.3,74049.5,68044.7,93751.3,92202.9,45740.8,48765.9
43204.5,79005.6,43890.6,111434,75381.1,159098,45426.9,50559.2
76026.6,107174,97156.8,57142.9,105085,77071.3,38692.3,45479.4
54540.9,87308.1,68531.2,143928,80054.3,81759.8,27550.4,45876.7
40852.8,52532.1,49905.2,65217.4,74987.7,80792.4,36455.5,45748.1
47825.1,63327.6,86427.4,67328.8,79232.8,83514,45947.7,48620.6
63382.5,122453,72225.8,156691,79774.9,104844,39167.6,52468
56684.7,61346.7,85633.7,99761.7,74380.3,92258.5,34310.2,45675.2
57141,58482,50309.7,58286.9,82486.8,77669,41933.5,42669.8
70235.1,61380,97097.1,67312.1,105964,82727.2,47992.7,43393.6
49264.2,64818,67075.8,79513.6,94064.1,99888.2,28102.3,46810
44259.3,60403.5,56103.2,65541.3,83830.9,82076.7,31376.8,49132.6
55313.1,54614.7,61554.8,60793,89955.2,74458.1,42995.2,38481.4
46376.1,57538.8,92227.9,62348.4,85409.9,75079.5,52888.2,42540.2
68039.1,62362.8,80033.4,53070.2,143747,84980.4,49692.8,48920.8
55616.4,89117.1,78985.4,125687,78270.9,89397.9,44651.3,38895
54956.7,144322,58013,133505,75859.2,95893.3,46017.5,39528.1
54431.1,144856,67002.2,165211,83145.6,98031.1,46409.3,50698.9
60325.2,90035.1,50616.8,110556,73732.5,101205,41428,29865.9
51814.8,55068.3,68800.8,87216.9,76753,103110,44115.4,49631.6
86169.6,69887.7,72968,65435.6,91744.2,82507.6,44730,45931.7
62391.6,60229.8,51172.8,79780.4,75332.4,83997.7,33781.9,38602.6
67461.3,58597.2,81224.6,62672.3,91876.2,77603.7,49767.9,48475.5
71423.1,43911.9,131066,64174.9,120330,81652.8,48321.1,28781
50175.9,74288.7,66820.1,84628.8,118365,72645.6,32312.1,49037.8
72638.1,48168,81121.8,91785.9,118852,83693.3,52505.6,41447
55325.7,62246.7,59443.3,72496.8,74948.8,83584.9,35777.3,46289.7
63498.6,46455.3,90047,90604.4,122784,84295.2,44989.2,52784.6
62445.6,52016.4,110907,64936.6,82824.5,81880.7,43175.8,46323.9
71055.9,76292.1,50045.6,57539.1,84224.3,80194.7,42544.4,40455.4
50050.8,52760.7,76333.2,63588.3,88871,203489,44024.7,38370.9
74180.7,64505.7,117087,70584.2,143725,93510.9,45080.3,41164.3
72697.5,82477.8,94654.8,53933.4,107496,79154.9,47449.4,34815.4
78363.9,51426.9,78143,95074.6,87474.1,90578,30066.6,44282.3
50631.3,63215.1,69027.4,77374.4,80683.9,87098.8,36581,52298.6
50308.2,82111.5,73052.8,82898.2,108759,97835.1,48067.2,44108
48194.1,71616.6,52004.1,57465.4,80522.7,73675.6,44030.6,39731.5
54105.3,53138.7,66205.7,61535.3,85294.6,76887.9,34618.2,36254
55727.1,62449.2,110740,83141.5,119454,98248,49145.3,49808
57931.2,48721.5,60282.9,60868.1,166580,74716.7,44538.4,44180.3
66401.1,117718,120057,205845,193710,140972,27158.3,52604.7
60824.7,81895.5,88807.1,86848.6,80831.3,95272,52236.5,42547.1
65445.3,51225.3,83760,59902.1,163176,77648.2,43842.1,45488.1
83447.1,63948.6,94158.6,58671.9,73859,72912.5,47418.2,43813.8
69562.8,67103.1,73517.1,76080.3,90457,87622.8,49602.3,38124.3
67457.7,51901.2,120456,55320.6,112276,78679.6,43984.6,44189.6
53992.8,66542.4,76794.7,56083.7,139866,85136.1,46027.5,37452.9
61046.1,54663.3,88684.8,62248.4,80760.4,78605.9,50892.3,39363.5
73328.4,48753.9,76796.1,63254.7,78165.3,73478.2,41568.1,43943.8
53846.1,55854,76703,61510.3,79763.8,78133.3,38042.1,45651.7
60138,50624.1,74113.4,56795.4,110915,77382.7,46589.7,45435.6
40829.4,52701.3,32578.8,62041.3,86758.2,76858.7,39556.9,49593.6
86634.9,46131.3,185290,59981.3,94570,75567.4,31057.6,40267.1
52600.5,81108,69864.2,117451,112273,106266,50424.6,44603.6
45990,48887.1,64876.9,65298,80251.6,74987.7,42910.8,35554.8
64102.5,53191.8,77165.9,57468.2,104777,77655.1,41958,32225.8
53417.7,58581.9,62244.2,73332.2,110021,93244,46622.3,47412.7
87840,50686.2,153856,86547,81602.7,72740.1,45747.9,45235.4
77756.4,52456.5,159305,75061.4,139783,73393.4,45330.1,46825.7
47095.2,64461.6,84649.6,83636.3,104531,79483,36784,41789.1
58794.3,49764.6,124504,54016.8,128126,76173.4,42082.6,45933.3
66963.6,58116.6,77286.8,69368,82187.9,79416.3,42443.8,45243
73773,50109.3,90892.1,49805.1,127046,82292.2,48877.7,47163.1
41754.6,124654,50352.8,141098,73008.4,102649,45189,48610.8
67941.9,60728.4,67827.8,65769.2,75830.1,78615.6,42064.1,43385.8
41811.3,119930,60811.1,174161,92469.8,87981.4,43495.9,43332.9
59197.5,55197.9,60636,64134.6,79463.5,81526.3,43143.7,45995.4
48696.3,61853.4,97622.5,65068.7,136269,80739.5,52590.2,52251.1
54244.8,64423.8,76935.1,74305.2,73608.8,75923.2,42521,43716.1
55440,43838.1,71109.6,55758.5,124462,83882.3,34449,52256.8
59762.7,102214,65834.6,80382.3,77366,73829.9,45535,37214
68488.2,66640.5,80193.3,74449.8,94009.9,73931.3,46442.6,50570.8
58487.4,46232.1,83493.1,73717.3,96677.3,96125.4,43828.1,38469.8
98541.9,,109374,,107309,,46947.8,,
57834,,82549.3,,89143.5,,47998.1,,
44998.2,,72210.5,,127193,,49797.8,,
57690,,108984,,196388,,51873.6,,
63373.5,,72945.8,,95334.5,,41799.7,,
50689.8,,64892.1,,80209.9,,50821.5,,
53774.1,,61600.6,,108581,,51897.9,,
57622.5,,97967.2,,136534,,50748.1,,
106003,,101869,,100940,,43899.6,,
54305.1,,107889,,112906,,40032.5,,
140519,,125384,,111876,,44671.2,,
60219.9,,60661,,83723.9,,39909.9,,
68285.7,,79503.8,,81773.7,,47747.1,,
62769.6,,68369.9,,74608.2,,33610.7,,
87808.5,,126397,,109410,,48921,,
48533.4,,59120.9,,94572.8,,50231.2,,
47344.5,,80094.6,,81372,,47410.7,,
73241.1,,100111,,107428,,40527,,
64285.2,,87966.1,,83256.8,,43990.6,,
55374.3,,95424.9,,98343.9,,42982.2,,
69981.3,,113847,,123304,,49022.7,,
68939.1,,72275.8,,109389,,47950.2,,
72551.7,,65535.7,,84545.4,,37927.1,,
93690.9,,103202,,77338.2,,47632.1,,
60647.4,,92425.3,,85970.1,,40502.8,,
49981.5,,62896.1,,95746,,43450.7,,
69188.4,,80884.1,,83541.8,,44313.4,,
52984.8,,71632.3,,81373.4,,51654.4,,
69883.2,,90621,,99227.9,,51494.3,,
65663.1,,71439,,78316.8,,33063.9,,
43656.3,,38975.6,,76059.4,,47027.4,,
118887,,79913.9,,112072,,38600.5,,
52430.4,,99091.7,,136305,,43824.9,,
63375.3,,109888,,112819,,45547.1,,
66665.7,,51487,,84224.3,,34323.9,,
60627.6,,64047,,88579.1,,37199.8,,
74731.5,,123768,,117052,,50126.2,,
118568,,80072.3,,85059.7,,48310.3,,
77049.9,,87600.6,,89472.9,,52824.1,,
54857.7,,93064.7,,151799,,46941.8,,
50026.5,,87709,,115987,,52756.2,,
55647.9,,100198,,100747,,46870.5,,
129620,,105996,,81698.6,,37887.9,,
69783.3,,81007.8,,108744,,40827.3,,
43512.3,,78771.3,,119810,,46219.8,,
49950,,62619.5,,79248.1,,45229.9,,
51483.6,,93585.9,,108830,,33269.4,,
95694.3,,95919.7,,75987.1,,31843,,
55929.6,,71163.8,,97197.1,,43460.9,,
92823.3,,129897,,126757,,52786.2,,
46879.2,,79594.2,,123178,,50749.7,,
48130.2,,78065.2,,100733,,50279.3,,
60493.5,,63372.9,,121564,,51925.8,,
65878.2,,75425.6,,80246.1,,48769.8,,
54643.5,,69365.2,,74624.9,,49303.2,,
69460.2,,82689.7,,90657.2,,37056.8,,
50437.8,,57889.3,,79234.2,,44769,,
74346.3,,89304.7,,102050,,36924.2,,
79530.3,,122066,,174756,,44330.6,,
45793.8,,55183,,78382.1,,44987.6,,
55001.7,,81495.7,,77910.9,,33201.6,,
65294.1,,64290.3,,76536.2,,41529.9,,
43838.1,,61677.1,,79954.2,,37795.8,,
94158,,136123,,80279.4,,44737.6,,
71862.3,,70830.2,,84035.2,,49054,,
64239.3,,102207,,98524.6,,44687.8,,
46102.5,,67177.3,,92833.9,,30531.5,,
56737.8,,62020.4,,110203,,42324.5,,
65604.6,,67524.8,,102262,,44645.9,,
67841.1,,113681,,102365,,52081.3,,
63083.7,,67403.9,,83304.1,,40903,,
45504.9,,52086.1,,77332.6,,34773.4,,
55707.3,,90069.2,,124919,,49142,,
50194.8,,59745,,88597.2,,28695,,
55684.8,,62769.6,,78430.8,,38326.3,,
55628.1,,75392.2,,88167.7,,45972.4,,
60066.9,,79538.6,,91837.3,,39290.2,,
74058.3,,88625,,98236.9,,46787.9,,
50079.6,,46856.9,,82285.2,,42745.9,,
61471.8,,63493.8,,89974.7,,44533.2,,
59950.8,,103846,,117451,,42493.8,,
51874.2,,77157.5,,77438.3,,47739.5,,
65045.7,,95857.2,,123483,,39492.9,,
64075.5,,114368,,95908.6,,40885.5,,
64633.5,,95441.6,,129869,,41032.3,,
44298,,75970.4,,124158,,51271.2,,
86714.1,,103795,,109298,,47248.9,,
62932.5,,88070.4,,102362,,43008.8,,
52768.8,,47328.1,,75482.6,,43881.5,,
64124.1,,71932.5,,95454.1,,51586.3,,
62982,,82231,,83921.2,,29808.2,,
49484.7,,76419.4,,73640.8,,30093.2,,
79016.4,,125727,,118724,,42722.1,,
68593.5,,80991.1,,96099,,50041.2,,
61577.1,,74898.8,,100984,,37089.8,,
59905.8,,66453.1,,74253.8,,48708.4,,
63905.4,,61825.8,,78479.4,,37996.4,,
53871.3,,63535.5,,92572.6,,42022.8,,
64778.4,,105968,,86748.5,,36582.7,,
71255.7,,104962,,88930.8,,46803.8,,
61357.5,,79894.4,,85491.9,,42939.6,,
67770,,77874.8,,90757.3,,32272.8,,
59292,,125103,,130112,,51780.2,,
62620.2,,61343.5,,77966.5,,39989.7,,
84654.9,,117993,,126796,,42211,,
74970,,118396,,80412.9,,51369.8,,
47789.1,,63336.7,,108966,,42756.5,,
55937.7,,47549.1,,81253.8,,42999.2,,
43365.6,,79182.7,,115997,,44135.1,,
61644.6,,91984.6,,107790,,40749.5,,
70690.5,,70265.9,,75724.4,,44656.3,,
50414.4,,79769.3,,86580.3,,48697.3,,
45167.4,,46745.7,,85283.4,,36889.9,,
62098.2,,84384.1,,98478.7,,41328.6,,
51115.5,,77421.6,,128200,,43004.2,,
77053.5,,73525.4,,74822.3,,40631.8,,
68404.5,,49902.4,,75999.6,,41279.3,,
75497.4,,80499.1,,88740.4,,35314.3,,
52758.9,,57942.1,,88409.6,,50568.3,,
77814.9,,71926.9,,76609.9,,48473,,
81202.5,,123383,,144371,,45536.6,,
58453.2,,72321.7,,99105.6,,36384.1,,
42064.2,,58382.8,,95020.4,,40852.5,,
44843.4,,62012.1,,84021.3,,29362.4,,
50387.4,,95139.9,,81077.3,,42894.7,,
63658.8,,66429.5,,87581.1,,48007.4,,
42958.8,,71775.4,,75550.7,,48199.1,,
131714,,97183.2,,92833.9,,48420.8,,
78479.1,,132678,,129586,,45195,,
63617.4,,80144.6,,107034,,42375.4,,
75744.9,,102054,,117732,,44140.1,,
57330.9,,77584.2,,101786,,46750.4,,
99756,,75628.5,,91021.4,,46121.1,,
52861.5,,64630.8,,83684.9,,47164.4,,
70475.4,,89118.5,,85896.4,,39463.1,,
76843.8,,73807.6,,100514,,47914.9,,
65067.3,,124381,,83105.3,,37410.5,,
49887,,75272.7,,125983,,51661.9,,
71084.7,,73693.6,,96974.7,,50202.5,,
68577.3,,79031.2,,79478.8,,41350,,
51411.6,,47456,,74665.2,,45803,,
57125.7,,66660.2,,100237,,48267.3,,
62224.2,,89122.6,,74263.5,,45060.7,,
61959.6,,84716.3,,84418.9,,40281,,
71733.6,,98840.1,,103816,,41462.1,,
53524.8,,80016.7,,81342.8,,43430.9,,
63492.3,,78215.3,,74289.9,,42028.1,,
48137.4,,76380.5,,91025.5,,50268.7,,
52654.5,,89688.4,,103666,,40872.9,,
64614.6,,67602.6,,77227,,42818.6,,
50578.2,,71376.5,,104275,,41535,,
45706.5,,77410.5,,111332,,50522.9,,
47469.6,,49866.2,,84646.8,,46549.6,,
43287.3,,45364,,74358,,36697.7,,
58207.5,,74166.2,,89329.7,,32984.5,,
61112.7,,82019.7,,96642.5,,41623.5,,
57889.8,,68062.7,,72307.8,,45895.4,,
82103.4,,104553,,102368,,52598.2,,
53163.9,,71188.9,,99807.6,,46593.4,,
58460.4,,80601.9,,76614,,45303.6,,
44062.2,,72956.9,,78694.9,,45487.2,,
72892.8,,113677,,127038,,51093.7,,
59494.5,,118724,,114660,,51682.2,,
56473.2,,79466.3,,135193,,43603,,
48979.8,,75283.8,,82206,,27361.7,,
53631.9,,65767.9,,92742.2,,44232,,
55683,,67341.3,,97049.8,,45306.8,,
50518.8,,70835.8,,94597.8,,45090,,
55658.7,,77170,,80538,,49848.5,,
67050.9,,119236,,74623.5,,48805.6,,
77924.7,,88907.2,,111242,,47858.9,,
49626,,58510.7,,82388.1,,36011.7,,
77214.6,,109750,,115267,,48759.5,,
54582.3,,95925.3,,97024.8,,47962.7,,
44629.2,,45036,,76445.8,,41479.1,,
80948.7,,89190.7,,75728.6,,42350.1,,
49221.9,,75825.9,,93200.9,,33173.8,,
100500,,96573,,135711,,43134.4,,
62116.2,,87800.7,,86986.2,,51064.4,,
54773.1,,106983,,153374,,48551.4,,
92518.2,,89955.2,,103787,,37861.7,,
79171.2,,113035,,157843,,40815.8,,
43652.7,,61855,,76045.5,,45004.1,,
53476.2,,62473.6,,92874.2,,32881.8,,
65019.6,,56769,,73722.8,,39468.4,,
52677.9,,76614,,92710.2,,50072.6,,
41643,,56577.2,,83607.1,,49991.8,,
50440.5,,86057.7,,93893.1,,46212.1,,
44421.3,,71899.1,,90241.6,,45069.3,,
56542.5,,77158.9,,124814,,42234.9,,
86796.9,,106142,,110840,,44395,,
58892.4,,77610.6,,82862.1,,50856.9,,
170980,,177543,,137300,,48640.9,,
51731.1,,79000.6,,102321,,41612.1,,
89790.3,,128226,,121892,,45305.2,,
75713.4,,85927,,106430,,51024.7,,
50594.4,,89851,,146770,,49771.1,,
53641.8,,67969.6,,108370,,46258.3,,
49229.1,,88366.5,,111516,,45117.1,,
51907.5,,82877.4,,106341,,39140.8,,
59269.5,,71464.1,,73204.4,,26903.1,,
53161.2,,73264.1,,79894.4,,46395.2,,
101435,,104306,,85754.7,,45032.7,,
55183.5,,87741,,88438.8,,42687.2,,
77285.7,,116458,,83698.9,,46414.6,,
51993,,82823.1,,100156,,45650.3,,
124560,,147004,,117187,,44028.7,,
51345.9,,72720.6,,88271.9,,44258.7,,
50855.4,,50612.7,,74351.1,,35275.9,,
70827.3,,57404.2,,89385.3,,44673.7,,
66474,,70231.1,,100849,,51865.1,,
92242.8,,137420,,138116,,47988.6,,
58745.7,,74787.6,,89107.3,,52662.9,,
50879.7,,41066.2,,75763.3,,30760.4,,
43384.5,,55793.2,,86601.2,,50710.7,,
60877.8,,68169.8,,95779.3,,44426.6,,
63776.7,,32847.1,,104425,,52479.7,,
83458.8,,89128.2,,127444,,48800,,
77427,,97789.3,,103929,,45171.9,,
79886.7,,137889,,139100,,47210.3,,
54774,,50255.4,,79092.4,,35892.2,,
55741.5,,88000.9,,102727,,39775.8,,
47163.6,,52425.2,,98373.1,,52095.3,,
43592.4,,53907,,92667.1,,41225.5,,
84259.8,,65405.1,,84509.2,,45802.8,,
93852.9,,111561,,134424,,45355.8,,
57851.1,,78758.8,,98648.3,,47233.8,,
67675.5,,98189.6,,78232,,45686.9,,
78994.8,,62137.2,,77442.5,,42993.9,,
49788,,67572.1,,78069.4,,36221.6,,
81135,,82297.7,,83735,,51857.9,,
74725.2,,119005,,120459,,39149.2,,
68690.7,,84835.9,,97119.3,,50121.9,,
63984.6,,84788.6,,180435,,37021.6,,
58133.7,,104153,,106853,,43884.8,,
59383.8,,68482.5,,91306.3,,46120,,
61273.8,,94331,,120424,,41095.1,,
85413.6,,77853.9,,108851,,41646.1,,
75204,,117028,,134125,,43323.9,,
49397.4,,57632.2,,96061.5,,45105.3,,
54441.9,,76116.4,,88185.8,,45342,,
49545.9,,67923.7,,76102.5,,45571.8,,
66080.7,,100443,,111862,,34495.5,,
45526.5,,67722.2,,90768.4,,29350.6,,
64088.1,,80144.6,,76131.7,,32766.1,,
79090.2,,70881.7,,88750.1,,31643,,
56650.5,,77965.1,,79705.4,,40603.3,,
60015.6,,105565,,116579,,48788.9,,
55088.1,,101445,,89832.9,,45369.8,,
56552.4,,67506.7,,82852.3,,34674.9,,
71965.8,,97369.5,,134805,,46282.4,,
91609.2,,81932.2,,111522,,42858.1,,
45418.5,,63727.3,,98564.9,,50257.4,,
68470.2,,125076,,123547,,45061.6,,
66977.1,,68513.1,,81501.3,,50812.7,,
55877.4,,86217.5,,132436,,49663.9,,
74889,,65160.4,,108869,,50677.6,,
68986.8,,56017,,94796.6,,35449.8,,
57851.1,,65146.5,,75507.6,,36116,,
50568.3,,74060.6,,91528.7,,35436.4,,
67091.4,,83855.9,,93192.5,,52632.8,,
73324.8,,59543.4,,74979.4,,37430.2,,
62961.3,,72442.6,,98549.6,,35499,,
107410,,98642.7,,74893.2,,38271.6,,
93763.8,,98302.2,,107487,,47713.8,,
68676.3,,84630.1,,85781.1,,48252.3,,
59397.3,,124904,,128610,,51387,,
62614.8,,80449,,106487,,52568.2,,
61032.6,,62812.7,,74986.3,,42863.4,,
60434.1,,80485.2,,82809.2,,31307.2,,
57006,,52353,,74586,,47789.5,,
68202.9,,128960,,128632,,45530.1,,
65406.6,,99151.5,,91920.7,,38814.4,,
74898,,103334,,130415,,46066.9,,
68782.5,,79870.8,,106696,,45810.4,,
70666.2,,80740.9,,72674.8,,41376.4,,
56001.6,,67249.6,,82664.7,,41475,,
52930.8,,71739.3,,107536,,52660.4,,
49542.3,,64115.1,,127314,,49463.8,,
82234.8,,103834,,91470.3,,43254.5,,
71124.3,,87308.7,,79369,,36198.7,,
45544.5,,27052.2,,78781,,41368.2,,
85432.5,,130966,,91485.6,,46717.8,,
50886,,69654.3,,88107.9,,39817,,
54202.5,,94521.4,,122679,,45642.3,,
55103.4,,80282.2,,130104,,37510.8,,
53378.1,,72455.1,,77410.5,,46270,,
56483.1,,88694.5,,97616.9,,44056.5,,
67835.7,,76292.9,,79580.3,,39505.8,,
72047.7,,81224.6,,83320.8,,41889.3,,
67077,,66960.5,,75408.9,,47983.4,,
64925.1,,61119.7,,73936.9,,43577.5,,
61507.8,,78294.5,,104221,,51813.4,,
62562.6,,85893.7,,85529.5,,34941.5,,
48467.7,,97325,,128803,,45886.4,,
51881.4,,56703.7,,88472.1,,44673.7,,
56731.5,,75343.6,,114494,,42175.3,,
71180.1,,124736,,161423,,50355.5,,
84816.9,,139840,,148185,,46409.2,,
61034.4,,61977.3,,80075.1,,46011.6,,
57219.3,,47742.3,,79623.4,,42709.5,,
65259,,81038.4,,122020,,46285.9,,
73665.9,,96325.6,,99266.9,,44909.8,,
57037.5,,67182.9,,82214.3,,33719.2,,
114258,,174284,,155843,,51500.3,,
62009.1,,93349.6,,109710,,45422.1,,
126910,,123226,,128510,,49475.4,,
93837.6,,122470,,85215.3,,49210.7,,
46013.4,,83783.6,,98416.2,,42166.3,,
61818.3,,85728.2,,90186,,45325.8,,
70102.8,,77906.7,,96588.3,,36365.8,,
77870.7,,72079.8,,95369.3,,52254,,
51459.3,,63778.8,,78169.4,,43771.1,,
77642.1,,88622.2,,107147,,44356,,
69952.5,,67932.1,,82821.8,,30310.1,,
60556.5,,69191.4,,78031.8,,41043.6,,
66783.6,,78266.7,,87172.5,,47511.4,,
67295.7,,99752,,106256,,50354.4,,
96414.3,,136586,,73218.2,,46669.7,,
62155.8,,105109,,125190,,49233.1,,
53582.4,,81830.7,,104315,,49432.9,,
57048.3,,59617.1,,73121,,45600.4,,
70551,,74462.3,,109289,,47125.5,,
61067.7,,114368,,132321,,41535.4,,
47483.1,,60502.5,,87521.4,,46572.4,,
52713.9,,66212.6,,75611.8,,44211.6,,
126825,,173402,,128624,,50412.1,,
75948.3,,117791,,150316,,47023.2,,
58144.5,,61813.3,,89169.9,,33695.4,,
76336.2,,113684,,118464,,47325.9,,
65843.1,,115538,,136356,,52538.2,,
47648.7,,46669.2,,72658.1,,47167.8,,
67837.5,,75294.9,,95586.1,,48224.5,,
60993.9,,87625.6,,96940,,45166.4,,
49064.4,,70046.3,,90908.8,,40785,,
47541.6,,61761.9,,106275,,39952.3,,
57709.8,,76773.9,,130365,,43694.7,,
61151.4,,82315.8,,109713,,39553.4,,
77263.2,,113734,,94464.4,,45252.2,,
52295.4,,79346.8,,117354,,46920.5,,
51347.7,,110992,,95837.7,,51955.4,,
68151.6,,78152.8,,75614.6,,38419.4,,
63969.3,,68792.5,,74444.2,,46778.8,,
50697,,58295.2,,79103.5,,50504.9,,
58995.9,,107939,,137638,,52274.1,,
61703.1,,95177.5,,122274,,46748.8,,
51715.8,,50217.9,,73859,,28045.8,,
71097.3,,110832,,161995,,50717.4,,
84713.4,,83822.6,,101715,,48521.2,,
53577.9,,89246.3,,94748,,47465.4,,
64465.2,,68843.9,,88053.7,,48270.2,,
141616,,149839,,161701,,49811.2,,
70737.3,,73410.1,,74864,,40093.7,,
49335.3,,73936.9,,76946.2,,34827.1,,
54831.6,,89019.8,,103251,,49841.7,,
44766,,56908,,78143,,30585.2,,
56776.5,,101210,,77410.5,,40519.5,,
50898.6,,46640.1,,72824.9,,43879.7,,
58305.6,,82909.3,,88146.9,,41534.9,,
91094.4,,72036.8,,119198,,52687,,
53701.2,,61714.6,,76199.8,,43820.9,,
68967,,97407,,101045,,51090.3,,
67500.9,,74359.4,,82507.6,,44035.8,,
71666.1,,92305.7,,110360,,46923.6,,
75380.4,,82249.1,,133494,,48008.5,,
60067.8,,49478.4,,75959.3,,45174.2,,
70377.3,,114792,,117962,,48160.9,,
51102.9,,91238.2,,91242.4,,40017.5,,
65372.4,,109592,,125449,,49092.7,,
55811.7,,83785,,84514.8,,37573.8,,
62253.9,,98289.7,,99686.6,,44991.2,,
61150.5,,73328.1,,75849.5,,42643,,
65726.1,,64928.3,,110879,,44910.6,,
60483.6,,86018.8,,87777.1,,36159.9,,
78288.3,,93914,,92893.7,,46612.9,,
62627.4,,89901,,83369.4,,47109.7,,
76263.3,,103914,,129235,,47038.9,,
43608.6,,71033.2,,122276,,51474.8,,
45523.8,,65400.9,,75667.4,,46016.5,,
43309.8,,59651.8,,78736.5,,33266.2,,
61602.3,,129455,,131433,,46767.8,,
52365.6,,104877,,95134.4,,43329.4,,
40649.4,,50582.1,,83655.8,,40957.8,,
63050.4,,77359.1,,110686,,47925.9,,
47983.5,,62769.6,,93624.8,,31848.3,,
78072.3,,91753.9,,114151,,48287.7,,
83466.9,,65439.8,,75318.5,,46881.8,,
53340.3,,59676.9,,74904.3,,37676.3,,
45826.2,,80159.9,,107813,,48586.9,,
48595.5,,81666.7,,96015.6,,47624.3,,
58581.9,,83836.5,,91313.3,,52164.8,,
62505,,69081.6,,92194.5,,48417.3,,
51712.2,,128019,,114594,,51061.9,,
53755.2,,67654.1,,88878,,41804.6,,
81585,,96199.1,,120922,,43949.3,,
54040.5,,65862.4,,100960,,42422.7,,
52911,,76370.8,,82805.1,,44199.6,,
63638.1,,46266.1,,79185.5,,41896.3,,
62026.2,,82716.1,,73047.3,,36071.9,,
77111.1,,60498.4,,77666.2,,44839.7,,
58039.2,,88486,,107678,,40969.3,,
89529.3,,152265,,145287,,49243.7,,
54666,,82478.4,,109575,,46207,,
65749.5,,91574.6,,114330,,52802.5,,
64425.6,,86039.6,,72884.6,,36889.9,,
77725.8,,73668.6,,93565.1,,48042.7,,
56717.1,,106752,,142431,,49959.7,,
48166.2,,63029.6,,82411.7,,32337,,
58641.3,,69102.5,,91204.9,,46347.6,,
54508.5,,75597.9,,79900,,48684.3,,
81486.9,,65342.5,,91167.3,,38834.7,,
48906.9,,84356.3,,117283,,40730.8,,
70354.8,,69269.3,,76438.9,,38807.8,,
48988.8,,66246,,107535,,31526.9,,
55501.2,,81893.2,,73347.5,,45145.6,,
62422.2,,95752.9,,105429,,47081.8,,
64495.8,,96303.4,,123421,,45840.7,,
71264.7,,77598.1,,96849.6,,39448.6,,
152880,,105383,,97479.3,,38633.8,,
47711.7,,69039.9,,92137.5,,37708.1,,
70280.1,,96723.1,,115905,,48403.1,,
59042.7,,53620.6,,87471.3,,37394.8,,
64008,,76876.7,,86724.9,,43539.1,,
66069.9,,83719.7,,103159,,45348.5,,
75744.9,,62889.2,,73342,,39334.2,,
58199.4,,85019.4,,97846.3,,52866,,
55726.2,,59179.2,,83601.5,,41243.4,,
47998.8,,57757.3,,86900,,40232.6,,
59381.1,,86802.7,,118598,,47177.7,,
94181.4,,82547.9,,113031,,46166,,
58703.4,,66743.6,,114907,,47669.6,,
63907.2,,98799.8,,96607.8,,47177.9,,
47651.4,,59539.3,,72298.1,,37102.6,,
90453.6,,84599.6,,81897.4,,40779.9,,
86336.1,,91958.2,,88690.3,,46710.1,,
48559.5,,64056.8,,90131.8,,36291.5,,
67473.9,,77899.8,,84605.1,,38886.7,,
85428,,86298.1,,122951,,50046.6,,
52579.8,,93280.1,,91078.4,,46103.6,,
60054.3,,109098,,147991,,51373.3,,
55095.3,,69864.2,,117048,,50797.7,,
70746.3,,75862,,89830.1,,45265.6,,
55101.6,,80165.5,,85908.9,,46067.9,,
71360.1,,71911.6,,73161.3,,31836.4,,
108695,,140122,,99831.2,,47961.7,,
64742.4,,80689.5,,123009,,45565.8,,
56165.4,,91573.2,,110833,,44865.1,,
58622.4,,74310.8,,80058.4,,41856.2,,
96160.5,,90582.1,,107244,,41837.8,,
63261.9,,73285,,90867.1,,47726.9,,
66582.9,,100233,,134395,,49906.4,,
60588.9,,56792.6,,73613,,42552.8,,
52548.3,,53922.3,,82745.3,,38252.7,,
70721.1,,99287.7,,179708,,47616,,
77150.7,,93257.9,,102732,,46882.6,,
58363.2,,100066,,104525,,48925.9,,
57253.5,,75592.4,,89620.2,,52808.8,,
69318.9,,60634.6,,83541.8,,45280.8,,
56248.2,,69123.3,,85569.8,,44896.6,,
73729.8,,92635.2,,106154,,46879.1,,
85224.6,,84345.2,,97393.1,,47467.7,,
64112.4,,96635.6,,122847,,50792.8,,
66706.2,,122063,,134452,,47356.4,,
69662.7,,104839,,104985,,44310.3,,
46927.8,,76882.3,,72508,,31426.2,,
53485.2,,107207,,126571,,48081.2,,
64944.9,,83373.6,,108615,,39938.4,,
42786,,51409.1,,78614.2,,33104,,
54409.5,,81113.4,,100097,,45862.4,,
49451.4,,50045.6,,83564,,31685.8,,
61385.4,,105723,,75096.1,,45514.2,,
80558.1,,87236.4,,107201,,39590.4,,
68110.2,,65624.7,,73129.3,,47564.1,,
54861.3,,70384,,75105.9,,31968.3,,
59193.9,,56411.8,,72652.5,,38180.3,,
65892.6,,121144,,124145,,42769.1,,
65716.2,,76106.7,,101224,,47202.6,,
52876.8,,64890.8,,86213.4,,48682.1,,
97072.2,,97900.5,,90244.4,,46015.8,,
59239.8,,82296.3,,138021,,47283.3,,
64399.5,,85355.7,,91224.3,,39510.9,,
63891,,70359,,98031.1,,50828.1,,
59446.8,,69733.5,,98345.3,,35989.1,,
49966.2,,70714.9,,103898,,50557.9,,
50940,,54558.9,,92257.1,,44008.6,,
57817.8,,73141.8,,91242.4,,46631.2,,
52626.6,,86435.8,,106278,,50969.3,,
54461.7,,62525,,73187.7,,35763.6,,
48054.6,,51831.7,,76639,,45892,,
63960.3,,61745.2,,80390.6,,27005.3,,
49896.9,,81087,,146368,,45284.2,,
59677.2,,86452.4,,106000,,40539.6,,
60208.2,,69124.7,,92693.5,,42971.8,,
66179.7,,92626.8,,105199,,38091.6,,
72273.6,,130182,,97618.3,,44370.6,,
61052.4,,94905,,104999,,49614,,
55941.3,,47695.1,,86542.8,,45572.7,,
54450.9,,94775.8,,138726,,50421.5,,
110500,,111129,,136230,,41289.6,,
100086,,103094,,112176,,46148.4,,
139267,,222960,,172035,,48692.9,,
66366,,67138.4,,82632.7,,46216.1,,
69603.3,,87703.4,,87627,,44753.1,,
49038.3,,64120.7,,77938.7,,31982.9,,
46608.3,,59596.2,,93545.6,,52442.8,,
93859.2,,132368,,92301.6,,47677.9,,
57600,,73615.8,,114083,,32982.2,,
64552.5,,93781.9,,107997,,39016.7,,
45207.9,,53503.9,,74554,,45115,,
73730.7,,79309.2,,101107,,47170.9,,
55598.4,,71252.8,,95615.3,,35938.5,,
48570.3,,55979.5,,94631.2,,42899.5,,
59058.9,,84026.9,,80318.4,,37484.5,,
55406.7,,33383.6,,76536.2,,43541.3,,
61002.9,,78200,,89738.4,,50257.8,,
74790,,97085.9,,86225.9,,32003,,
58311.9,,50397.2,,80515.8,,44981.6,,
52030.8,,96643.9,,107364,,44693.9,,
45721.8,,66489.3,,82830.1,,41714.7,,
56043,,67505.4,,85650.4,,36689.7,,
59494.5,,73626.9,,87690.9,,45516.5,,
74149.2,,72421.8,,105472,,43363.3,,
59448.6,,84720.5,,101669,,46121,,
63615.6,,68991.3,,80326.7,,45447.5,,
75186.9,,69798.9,,97633.6,,41727.6,,
59294.7,,75288,,92344.6,,40150.8,,
66260.7,,59707.4,,89054.5,,38867.8,,
83570.4,,89913.5,,91635.8,,41876.3,,
57252.6,,63602.2,,77934.5,,30477.7,,
48355.2,,80693.7,,129362,,47292.7,,
71552.7,,78024.9,,81705.6,,50122.5,,
63846,,84922,,124939,,45915,,
147571,,182920,,87878.6,,33288.5,,
53577,,103872,,105149,,40263.3,,
62311.5,,74160.7,,79123,,45726.7,,
66994.2,,64180.5,,77072.7,,50996.3,,
78919.2,,114838,,120241,,46167.2,,
67164.3,,78301.5,,103113,,46490.1,,
74799.9,,93966.8,,86362.1,,46170.3,,
74837.7,,81520.7,,107804,,45968.5,,
55854,,64604.4,,73493.5,,39250.6,,
72619.2,,103301,,100910,,50799.4,,
85878,,91261.8,,72300.9,,37425,,
72363.6,,111500,,112108,,46894.7,,
123825,,111443,,138230,,32374.6,,
59289.3,,54707.6,,76066.4,,45909.6,,
48049.2,,64370.9,,76405.5,,45187.8,,
69536.7,,65724.8,,73820.1,,43804.3,,
66032.1,,81173.2,,98221.6,,32226.9,,
61505.1,,76393,,81387.3,,36864.2,,
64959.3,,116522,,156813,,51741.4,,
60077.7,,99137.6,,107601,,44716.8,,
88480.8,,102161,,106992,,47522.7,,
54343.8,,65072.8,,97996.4,,46727.6,,
52551,,68470,,104431,,28692.5,,
71375.4,,93175.9,,127841,,52052.8,,
91563.3,,102736,,146783,,44622.1,,
51606.9,,67623.5,,101505,,47604.8,,
47128.5,,55344.2,,81590.2,,48617.3,,
46764,,53852.8,,95782.1,,46654.7,,
59175.9,,75475.6,,72869.4,,38594.6,,
61650.9,,78337.6,,88141.3,,52270.1,,
60984,,55096.8,,78129.1,,43576.6,,
55797.3,,69427.7,,77731.6,,34820.8,,
54978.3,,78111,,86481.6,,34131.1,,
52089.3,,86401,,88800.1,,49042.5,,
58756.5,,90597.4,,147564,,47275.1,,
52169.4,,57851.8,,86591.4,,45494.4,,
72021.6,,81661.1,,109763,,51152.4,,
109600,,163003,,136490,,47032.9,,
63583.2,,75635.5,,94753.5,,44751.9,,
68958,,84379.9,,83423.6,,50192,,
88467.3,,122673,,73154.3,,50961.7,,
59442.3,,57359.7,,73656.1,,40589.9,,
74333.7,,74548.5,,120516,,46138.7,,
57913.2,,94786.9,,128043,,47634.7,,
79626.6,,99486.5,,117095,,46455,,
60417.9,,74242.7,,77555,,40665.6,,
74970.9,,81042.6,,101521,,43924.8,,
74124.9,,110526,,109093,,45726.3,,
88632.9,,92425.3,,111842,,45719.1,,
76602.6,,91663.5,,92165.3,,45417.4,,
53711.1,,83053.9,,95493,,41350.3,,
43864.2,,63356.2,,80866,,40917.8,,
66951,,91623.2,,111810,,43918.9,,
68812.2,,81718.1,,80671.4,,43831.7,,
54786.6,,78761.6,,94830,,44037.3,,
57213,,88191.3,,87866.1,,33729.6,,
56901.6,,72121.5,,83673.8,,33009,,
62877.6,,96877.4,,101040,,28626.7,,
50831.1,,100243,,123201,,37499.3,,
79718.4,,78573.9,,72802.6,,41667.6,,
52146.9,,52511.4,,79157.7,,29803,,
61340.4,,61201.7,,73152.9,,43255.6,,
55404.9,,50162.3,,84859.5,,38041.7,,
66648.6,,114886,,110201,,47965.2,,
44028,,68802.2,,111010,,43460,,
81240.3,,107571,,103540,,40526,,
67176.9,,59223.7,,92788.1,,44843.3,,
42912.9,,67135.6,,83386.1,,48621.3,,
52256.7,,115876,,133897,,44341.7,,
49067.1,,74071.7,,85376.6,,35799.4,,
50082.3,,75654.9,,112309,,37676.9,,
65723.4,,58289.6,,85116.6,,49612,,
46896.3,,62729.3,,85811.6,,49559.2,,
57842.1,,81388.7,,124612,,45712,,
47582.1,,71479.4,,103802,,48097.1,,
47167.2,,85592,,73162.6,,43921,,
59913,,57893.5,,75467.3,,44256,,
52499.7,,84008.8,,95640.3,,37326.2,,
50807.7,,70345.1,,93264.8,,36689.5,,
65499.3,,74171.8,,72987.5,,43331.4,,
59545.8,,102294,,106627,,45348.8,,
54430.2,,85975.7,,99619.9,,49555.7,,
67704.3,,107297,,116927,,48428.2,,
47025.9,,54593.6,,73501.8,,37897.8,,
49769.1,,91602.4,,97839.3,,35129.8,,
77563.8,,144620,,133680,,42586,,
50891.4,,55600,,84605.1,,36078.9,,
49227.3,,84745.5,,108630,,49298.1,,
50426.1,,63927.5,,106146,,46370.6,,
55289.7,,79256.4,,96403.4,,44280.5,,
60228.9,,97992.2,,83760,,42473.1,,
53904.6,,56876,,85404.4,,45260.1,,
126938,,164041,,86253.7,,31704.5,,
58241.7,,52091.6,,74786.2,,38263.2,,
70646.4,,105297,,104399,,46245.2,,
44797.5,,63712,,74955.8,,28337.7,,
57196.8,,73835.4,,82219.9,,46700.2,,
46948.5,,66262.7,,75438.1,,39444.9,,
63985.5,,87966.1,,112272,,44104.3,,
59880.6,,61329.6,,89988.6,,48070.2,,
55068.3,,75196.2,,76434.7,,45431.3,,
58309.2,,123996,,75489.5,,29101.4,,
60829.2,,63764.9,,82192.1,,43550.1,,
59925.6,,71318.1,,83259.6,,52807.3,,
65186.1,,83783.6,,117427,,48949.9,,
58626,,82217.1,,98663.6,,46010,,
81734.4,,90120.6,,100744,,50105.1,,
81199.8,,53629,,87276.7,,40442.1,,
82452.6,,93271.8,,100701,,40536.6,,
52542,,82310.2,,84681.6,,36935,,
65203.2,,89862.1,,111668,,51281.5,,
47355.3,,72512.1,,72613.6,,45673.8,,
45363.6,,70613.4,,101699,,43159.1,,
49573.8,,64693.4,,78863,,43732.2,,
98949.6,,189041,,87016.8,,46480.4,,
56972.7,,50552.9,,78668.4,,42986.2,,
53006.4,,84189.5,,87065.4,,31883.5,,
56178.9,,59112.5,,86189.7,,37889.6,,
58714.2,,73800.7,,74808.4,,44011.4,,
99707.4,,160253,,147273,,48995.9,,
50490,,55969.7,,85415.5,,44752.3,,
61074,,73514.3,,108409,,47092.2,,
51688.8,,65851.2,,82484,,40066.8,,
53505.9,,76646,,102396,,49376.5,,
61781.4,,74772.3,,80754.8,,51647.3,,
56111.4,,54237.8,,73568.5,,44446.3,,
165023,,188234,,146000,,45741.6,,
44046.9,,61025.2,,75051.7,,42816.5,,
78370.2,,103401,,101432,,44908.2,,
64176.3,,91400.8,,78995.1,,46453,,
43453.8,,77125.5,,85234.8,,46065.8,,
58663.8,,91182.6,,104977,,36610,,
73038.6,,95520.8,,103274,,45207.9,,
67266,,71553,,101858,,52391,,
52980.3,,112964,,143580,,42810.3,,
62531.1,,63267.2,,82916.3,,43221,,
69787.8,,104180,,100451,,52202.6,,
97399.8,,82713.3,,118720,,44789.2,,
52607.7,,68136.4,,129996,,46380.4,,
49374.9,,71598.9,,130632,,46012.8,,
48521.7,,77024.1,,103798,,45513.3,,
72305.1,,89046.2,,109807,,49010.1,,
70156.8,,61173.9,,89949.7,,36943.3,,
41614.2,,27761.1,,88636.1,,35385,,
66428.1,,103331,,75805,,50767.8,,
64917.9,,76069.1,,78391.8,,47161.2,,
75815.1,,96438.2,,135898,,38046.8,,
54568.8,,59897.9,,76368,,46979.6,,
73781.1,,87029.3,,127257,,43954.6,,
70205.4,,59877,,81719.5,,51261.7,,
82773.9,,94732.7,,101848,,44768.7,,
56120.4,,63955.3,,90978.3,,45381.9,,
55089.9,,82832.9,,102191,,39494.5,,
59012.1,,77384.1,,106826,,46506,,
59890.5,,49285.2,,83625.2,,35879.9,,
87185.7,,60662.4,,85366.9,,43906.2,,
57027.6,,59351.6,,110202,,50892.5,,
60912.9,,95373.5,,85963.2,,40778.3,,
88388.1,,101488,,94693.8,,46764.1,,
69130.8,,79816.6,,111923,,51387.2,,
80013.6,,89239.4,,88612.5,,44090.1,,
54188.1,,65113.2,,110148,,37886.9,,
70705.8,,92036.1,,114689,,45020.2,,
73556.1,,74875.1,,96584.1,,44265.3,,
89903.7,,135789,,131946,,40282,,
87008.4,,85772.7,,82486.8,,48491.5,,
84064.5,,187019,,142479,,52825.4,,
55026.9,,52829.7,,82094.8,,41228.3,,
60938.1,,109578,,114396,,46944,,
66735,,75624.3,,96557.7,,49384.3,,
62749.8,,67020.2,,88287.2,,34093.1,,
69801.3,,72576.1,,86381.5,,47887.6,,
86686.2,,117875,,72922.2,,36265.7,,
56402.1,,137249,,148360,,52875.7,,
50906.7,,65368.9,,102593,,46579.3,,
61127.1,,76797.5,,87885.5,,35804.1,,
55971.9,,68720.2,,77188.1,,40466.8,,
65362.5,,65697,,100314,,51793.6,,
60454.8,,74028.6,,77696.8,,36313.6,,
66289.5,,72245.2,,81665.3,,52924.8,,
66895.2,,81142.6,,98259.1,,44949.5,,
72694.8,,110701,,117577,,49756,,
80101.8,,74619.4,,77676,,44886.6,,
61028.1,,63313.1,,79382.9,,52199.8,,
56315.7,,49226.8,,82111.5,,35089.5,,
71822.7,,64590.5,,107269,,38865,,
55676.7,,65628.9,,76213.7,,44281.9,,
69635.7,,71576.7,,97747.6,,44731.3,,
76816.8,,84530.1,,104564,,46839.4,,
51053.4,,93523.4,,84452.2,,47256.2,,
61591.5,,95419.3,,103871,,47021.4,,
92670.3,,101491,,124048,,40658.6,,
57905.1,,59635.2,,84338.2,,31988.6,,
73311.3,,125393,,137392,,48291.3,,
85889.7,,132114,,146053,,48023.4,,
47248.2,,79003.4,,100332,,44858.2,,
117190,,192947,,120235,,36586.2,,
54475.2,,76915.6,,82791.2,,35843.4,,
47460.6,,58797,,83896.2,,43464.5,,
52899.3,,65698.4,,74153.7,,35125,,
66261.6,,58592.7,,86042.4,,46845.4,,
70755.3,,91776.1,,95491.6,,45475.9,,
63873.9,,101955,,151471,,47476.9,,
99512.1,,99835.4,,122082,,48105.8,,
64154.7,,92907.6,,98513.5,,49790.9,,
78274.8,,100097,,106357,,37961.4,,
61465.5,,74173.2,,79905.5,,39140.4,,
44622,,70211.7,,80871.6,,37353.6,,
107019,,116721,,93636,,39296.9,,
116080,,176896,,150020,,45976.7,,
73159.2,,108490,,109257,,44749.8,,
106250,,142346,,152725,,41940.2,,
56534.4,,67423.3,,72469,,45209.5,,
71363.7,,107669,,152081,,47278.6,,
63028.8,,104390,,119837,,48925,,
45002.7,,64238.8,,72617.8,,28764.3,,
74393.1,,62260.9,,78372.4,,50317.2,,
57815.1,,60606.8,,72533,,45054.2,,
