"FSC-A", "FSC-H", "FSC-W", "SSC-A", "SSC-H", "SSC-W", "FITC-A", "FITC-H", "FITC-W", "PE-A", "PE-H", "PE-W", "Time", "Event #", "Comp-FITC-A", "Comp-PE-A"
93177,60533,100878,126517,71618,115773,185479,114834,105853,103122,74528,90680,0.654,30,185479,96073.7
48598.2,35759,89066.6,113450,76114,97683,262143,225422,76211.8,108610,81243,87612.2,0.814,74,262143,98648.7
88576.2,51443,112842,181418,106648,111482,262143,150397,114230,102930,77038,87562.3,0.917,106,262143,92968.6
104155,62088,109939,185893,99361,122610,247647,132797,122215,99514.6,71909,90695,0.949,119,247647,90104
99561.6,64390,101334,174976,99688,115031,262143,200150,85834.6,108823,69745,102255,1.085,190,262143,98861.2
82807.2,46284,117251,82700.6,38947,139160,145671,71402,133704,98460.2,72914,88497.3,1.246,261,145671,92924.7
119508,74973,104466,111120,54738,133041,175208,98170,116964,101787,79761,83634.1,1.314,313,175208,95129.5
57677.4,39386,95971.8,133308,84352,103572,262143,235250,73027.9,100683,71508,92274.8,1.337,324,262143,90722
108007,59674,118617,168168,92307,119396,258230,150724,112280,105454,67519,102357,1.541,455,258230,95641.4
110475,56698,127696,195063,101697,125703,262143,154139,111457,106075,69336,100262,1.585,483,262143,96113.6
86733,63224,89904.7,167173,106899,102488,241267,166834,94774.8,101347,72233,91950.9,1.602,497,241267,92179.1
73923.3,51207,94608.9,61710.8,42387,95413.2,110804,75189,96578.9,98265.7,77893,82676.7,1.716,571,110804,94055.1
86968.8,61653,92446.2,100969,66089,100124,160604,105898,99391.6,101084,72214,91735.9,1.73,586,160604,94980.6
49932.9,34234,95589.3,104974,72229,95246.6,134862,98559,89675.3,101505,81346,81776.6,1.812,647,134862,96379.8
114804,66073,113871,175130,105792,108490,262143,161579,106324,109242,71830,99670,1.863,688,262143,99280.7
82647.9,55272,97995.6,146066,93724,102136,262143,182158,94312.6,109048,79416,89988.7,1.936,734,262143,99086.2
87588,53207,107884,168160,91178,120868,260926,144750,118135,100932,75637,87452.8,1.944,738,260926,91016.6
91638.9,64079,93722.5,135611,88065,100919,235665,152504,101273,103845,76794,88621.3,2.033,799,235665,94889.7
125158,65249,125709,166380,85700,127233,236931,113717,136545,105856,73754,94060.8,2.085,833,236931,96852.3
58419.9,46908,81619.5,166220,108234,100646,248690,153192,106390,104611,79000,86782,2.128,869,248690,95160.7
102398,63305,106006,128172,78972,106365,212975,123600,112925,108583,77909,91338.2,2.541,1159,212975,100489
82615.5,54397,99532.9,137859,85224,106012,212434,123981,112292,101179,69207,95811.9,2.552,1162,212434,93106.3
48465,30161,105308,103856,75883,89694.8,214412,141407,99370.6,100296,71093,92456,2.779,1292,214412,92148
144975,59020,160980,148215,50386,192780,217885,78017,183029,98458.9,65459,98574.7,2.919,1402,217885,90179.2
80932.5,54022,98182.1,69307.7,42429,107053,108933,70235,101645,97577,72076,88723.1,2.964,1439,108933,93437.6
46240.2,30928,97982.3,92008.7,60598,99506.3,262143,179503,95707.6,100924,80027,82648.7,3.064,1484,262143,90962.1
86309.1,52358,108032,112296,61240,120174,208837,117281,116697,96845.6,64772,97988,3.093,1500,208837,88909.8
62188.2,49580,82201.8,49449.5,39636,81762.2,100988,76160,86901,101244,69151,95951,3.147,1554,100988,97406.1
100971,61853,106983,158269,89443,115966,262143,178927,96015.7,107592,71418,98730.4,3.162,1560,262143,97630.3
86720.4,44637,127323,118102,64360,120260,260718,150586,113466,108003,79031,89560.8,3.21,1591,260718,98095.7
91333.8,53798,111262,181644,100930,117945,255101,131503,127133,104850,67435,101897,3.369,1681,255101,95155.8
76908.6,48602,103705,114735,75412,99708.9,222917,140570,103927,107744,82184,85917.9,3.551,1796,222917,99272.7
41500.8,28284,96160.2,96554.5,71918,87986.2,248208,172489,94305,110020,80677,89372.5,3.597,1831,248208,100589
82634.4,53483,101257,150610,93880,105139,262143,158156,108626,109199,79206,90352.9,3.601,1834,262143,99238
78917.4,44627,115892,108210,56927,124574,207174,111764,121482,101698,77420,86087.1,3.749,1928,207174,93825.1
82661.4,49719,108958,138954,91440,99589.5,205522,125439,107376,95507,69355,90248,3.777,1947,205522,87697.2
82293.3,52575,102581,121935,81404,98166.7,193588,126126,100590,106877,81375,86074.1,3.928,2043,193588,99520.5
81632.7,53724,99580.8,99248.2,70650,92064.1,174462,123121,92864.5,95498.8,70547,88715.4,3.97,2074,174462,88869.2
84406.5,48916,113085,46479.8,18434,165244,73894.9,39971,121157,96199.8,75975,82981.9,4.014,2103,73894.9,93391.8
135519,60605,146546,151730,78110,127304,262143,131346,130798,101463,68873,96547.1,4.222,2207,262143,91501.7
46148.4,33802,89473.4,100207,73461,89396.9,224131,159641,92010.6,104241,80145,85239.8,4.287,2244,224131,95724.1
73151.1,43785,109490,168194,114295,96441.6,260413,166486,102510,102816,67914,99215.5,4.307,2261,260413,92919.8
48052.8,30401,103588,115253,73224,103153,217259,149768,95068.9,99209.6,73446,88524.9,4.487,2358,217259,90953.7
77574.6,51037,99612.6,124604,80242,101768,205443,129935,103621,96090.8,71885,87603.9,4.566,2411,205443,88283.9
56327.4,45434,81249.1,107167,79573,88262,222435,150423,96910.2,97107.8,66505,95692.9,4.775,2532,222435,88655.3
72037.8,40341,117029,124044,70636,115088,260864,163553,104529,105963,77796,89264.4,4.873,2582,260864,96050.5
88810.2,57132,101874,97532.9,60010,106514,144403,89727,105471,100841,76111,86829.7,4.895,2596,144403,95353.4
76666.5,46215,108718,165786,105225,103255,262143,160021,107360,103661,73530,92391.6,4.932,2629,262143,93700
86843.7,54262,104887,126081,71199,116053,193629,113987,111326,103536,73731,92028.1,4.962,2653,193629,96178
82509.3,51395,105211,158845,95694,108785,227625,134862,110614,107553,83208,84710.6,5.04,2696,227625,98903.3
61125.3,38357,104437,97205.8,62538,101866,220666,130884,110492,96520,68002,93019.8,5.256,2829,220666,88134.6
92946.6,52140,116827,163335,96843,110533,232312,133354,114168,102069,72584,92157.9,5.328,2870,232312,93241.1
44282.7,30267,95883.7,127523,86967,96097.9,163326,103260,103658,105911,87407,79409.8,5.418,2913,163326,99704.5
74572.2,46765,104505,123495,79431,101892,210687,124215,111159,98232.5,72406,88912.1,5.43,2918,210687,90226.4
98217,60234,106862,165145,97089,111474,253204,142219,116679,102171,70258,95304.2,5.554,3002,253204,92549.3
86931,57014,99924.8,85001.1,56476,98637.2,147007,103628,92969.8,103082,75068,89992.7,5.716,3098,147007,97495.6
94774.5,62437,99478.5,155632,90415,112808,183874,112021,107572,101620,82187,81032.2,5.921,3199,183874,94633.2
66298.5,34253,126848,82830.4,61206,88690.2,169930,103070,108049,100184,65184,100725,5.959,3214,169930,93726.5
66245.4,41514,104578,193773,121123,104845,262143,158860,108144,98699,68744,94093.1,6.01,3248,262143,88737.5
100219,59919,109613,137540,78082,115441,262143,158097,108666,104385,72996,93716.7,6.195,3338,262143,94423.1
80458.2,43260,121889,174955,96315,119045,262143,171354,100259,108923,76952,92764.4,6.393,3445,262143,98962
63526.5,37902,109843,101151,68289,97073.4,175205,102765,111733,110189,79133,91255.7,6.447,3467,175205,103531
94293.9,49840,123990,171545,98183,114504,262143,146428,117326,109445,76614,93619.8,6.583,3546,262143,99483.6
147295,60926,158440,156325,57556,177999,262143,101891,168610,102864,66706,101060,6.642,3584,262143,92902.4
99238.5,56873,114355,153399,85522,117551,251835,151019,109286,111682,77511,94427.8,6.759,3651,251835,102112
101125,51017,129904,82129.3,41089,130994,125913,67745,121807,104271,80064,85350.9,6.84,3700,125913,99486.7
77255.1,53775,94151.4,62523.7,40170,102005,104561,66708,102724,94565.9,73247,84610.6,6.931,3759,104561,90592.6
104405,52606,130067,165915,90145,120621,262143,142318,120714,101665,72896,91400,7.058,3825,262143,91703.2
72792.9,43176,110491,143546,94574,99471.8,188360,115495,106882,102871,71645,94099.2,7.084,3846,188360,95713
53751.6,37570,93762.7,90424.5,59445,99689.8,167644,114795,95707.2,100166,78191,83954.4,7.305,3960,167644,93795.5
103276,54747,123628,123902,77678,104535,239171,131937,118801,109061,80431,88864.3,7.306,3961,239171,99972.9
86118.3,51940,108661,165394,105836,102416,262143,176805,97168.1,112740,71795,102912,7.33,3985,262143,102779
73435.5,41948,114729,151712,86513,114926,262143,161868,106135,102649,79165,84976.6,7.368,4002,262143,92687.1
58956.3,33081,116797,115441,80021,94544.6,204537,124288,107850,98816.3,73048,88654.4,7.458,4052,204537,91043.9
64314,45556,92520.9,57753,36928,102494,108999,74402,96010.6,98781.8,79251,81686.8,7.574,4118,108999,94639.8
95853.6,49055,128058,157090,90007,114380,262143,167018,102862,105304,78780,87600.7,7.81,4239,262143,95342.2
72344.7,51210,92583.1,199471,119377,109506,241619,136347,116135,114282,79471,94242.9,7.821,4245,241619,105100
86419.8,51961,108997,131914,84238,102627,239299,151403,103582,102970,69991,96415.9,8.021,4349,239299,93876.7
44142.3,26161,110581,135821,94126,94566.5,236825,155054,100098,102232,78676,85157.6,8.028,4353,236825,93232.4
93062.7,59332,102794,154586,100790,100516,229028,151571,99026.5,106289,71042,98051.2,8.031,4355,229028,97585.9
80576.1,44143,119626,154487,88221,114762,262143,163186,105277,110653,77878,93116.5,8.186,4433,262143,100691
109899,63155,114042,137636,83787,107655,213400,134841,103718,100247,71964,91293,8.189,4439,213400,92138.1
153070,57614,174118,158990,90129,115607,234485,131370,116977,102229,74457,89980.5,8.193,4448,234485,93318.6
51178.5,36221,92599.2,102235,75346,88923.7,226513,154656,95985.7,106293,70706,98521,8.489,4597,226513,97685.6
66263.4,44734,97076.9,96590.3,65675,96385.9,175326,115398,99570,100040,79064,82923.3,8.801,4747,175326,93377.9
84735.9,46146,120341,147551,74767,129334,262143,135427,126857,101396,71021,93564.7,8.813,4754,262143,91434.1
67060.8,48981,89726.6,158265,115449,89841.2,236658,158544,97825.2,100970,75837,87255.6,8.887,4799,236658,91977.5
103863,59026,115318,96134.9,65782,95775.4,157421,100279,102880,95465.6,69240,90358.7,9.19,4947,157421,89483.7
64949.4,47339,89915.8,80721.7,52250,101247,98631.4,65649,98461.6,96902.2,71677,88600,9.328,5022,98631.4,93154.2
107535,62768,112277,161929,87155,121762,200502,101511,129445,95950,68491,91810.3,9.63,5187,200502,88331
81115.2,52745,100786,67562,42218,104878,118665,73930,105192,96528.2,73164,86464.3,9.74,5255,118665,92019
74407.5,50501,96559.9,191383,130243,96300.3,225624,138482,106776,106813,71784,97516.5,9.79,5284,225624,98239.7
74153.7,40694,119421,191224,107423,116661,262143,204643,83950.1,105081,83837,82143,9.828,5310,262143,95120
42797.7,30645,91525.2,98676.9,72214,89551.7,193891,145093,87577.4,96922.9,78192,81235.2,10.073,5436,193891,89555
99045,73060,88845,131914,80916,106841,248818,123580,131951,106783,68686,101886,10.09,5454,248818,97327.9
95358.6,57886,107961,156373,91471,112036,262143,183107,93823.9,112292,81294,90525.3,10.134,5475,262143,102331
99851.4,57557,113694,173113,104297,108777,254391,143405,116256,104295,71971,94969.8,10.251,5533,254391,94628
42400.8,34150,81369.8,92077.7,62618,96368.6,199899,143310,91414.1,103730,80895,84035.8,10.302,5563,199899,96134.3
104239,65167,104829,128904,77967,108352,215153,120850,116676,99282.7,69026,94262.9,10.467,5641,215153,91106.9
94867.2,53806,115549,194025,110368,115211,249097,128215,127324,109591,71598,100313,10.502,5657,249097,100126
75674.7,53915,91985.8,53404.6,33411,104754,98574.8,72038,89677.6,91168.3,76361,78244.2,10.578,5696,98574.8,87422.5
67779.9,41457,107148,141373,89729,103255,227841,144231,103527,97937.2,73200,87683.2,10.633,5726,227841,89279.3
68432.4,39718,112916,103544,53554,126711,262143,166839,102972,113265,80882,91774.8,10.845,5846,262143,103303
86282.1,49931,113248,127135,70426,118308,240235,128471,122549,98784.5,67948,95277.9,10.875,5866,240235,89655.6
98533.8,55348,116671,148912,82583,118173,238351,131259,119006,97879.3,63049,101740,10.909,5881,238351,88821.9
73547.1,48179,100043,79682.6,47358,110268,158694,99965,104038,112413,73117,100758,10.922,5889,158694,106383
74411.1,46047,105905,134019,89097,98578.5,247278,161962,100058,97535.6,70970,90067.6,11.082,5973,247278,88139.1
98665.2,61388,105332,135646,84190,105591,216160,126134,112311,104419,70262,97395.6,11.397,6143,216160,96205
45147.6,29539,100166,93053.4,64717,94231,219290,140031,102630,104462,79002,86656.2,11.488,6188,219290,96128.8
75022.2,50135,98068.3,59883.7,38160,102844,118026,75953,101839,102287,76713,87383.9,11.704,6313,118026,97802
76107.6,42104,118464,153085,89181,112497,262143,167823,102369,99547.7,77818,83836.1,11.731,6329,262143,89586.2
67302,45353,97252.8,60161.1,40310,97809.9,100929,65152,101524,101226,78213,84818.8,11.865,6402,100929,97390.5
87766.2,42596,135033,175755,91682,125633,259956,148944,114382,107243,78269,89796.1,11.871,6406,259956,97364.2
69943.5,53336,85942.3,52082.6,40016,85298,86465.3,67759,83628.6,97341.1,78623,81138.4,11.914,6440,86465.3,94055.4
66288.6,38809,111940,106502,63033,110731,176846,99098,116952,96136.3,67193,93765.6,11.937,6443,176846,89416.2
90385.2,53463,110796,145034,86066,110438,237912,142077,109742,101397,77047,86248,12.095,6535,237912,92356.2
72468.9,50467,94107.5,109975,74184,97154.6,165031,106264,101780,96220.5,68124,92565.1,12.361,6672,165031,89949.3
94660.2,55673,111430,119185,67074,116452,196644,114165,112883,102737,82637,81476.4,12.363,6675,196644,95264.4
86090.4,47143,119679,164764,73925,146066,225340,117326,125871,96543.4,66677,94891.3,12.392,6694,225340,87980.5
66224.7,45530,95324,63027.4,45637,90509,108685,77147,92327.1,99259.3,80645,80662.8,12.631,6807,108685,95129.2
61558.2,37701,107007,127618,82644,101200,234266,157287,97610.5,96675.9,79386,79809.4,12.634,6810,234266,87773.8
102814,58292,115591,130026,73742,115557,220427,124181,116330,99068.8,72193,89933.6,12.68,6842,220427,90692.6
70500.6,48237,95783.9,69298.1,46994,96640.4,133605,93389,93757.5,103293,82538,82015.7,12.78,6893,133605,98216
56927.7,35433,105292,130360,80935,105557,220721,135300,106912,96671.8,62540,101303,12.897,6964,220721,88284.3
67887.9,33134,134276,146076,87667,109200,195503,124065,103272,100761,70111,94185.7,13.063,7063,195503,93331.6
109803,57707,124699,216928,113755,124975,262143,161496,106379,99475.9,63696,102350,13.175,7131,262143,89514.5
36546.3,25118,95353.9,70024,52561,87309.8,147591,108575,89086.1,98246.3,75430,85359.6,13.254,7181,147591,92637.9
96745.5,59110,107263,125155,59647,137512,159173,90014,115888,101402,94778,70116.6,13.564,7361,159173,95353.8
107129,53611,130958,178257,103093,113318,262143,163477,105090,105127,82566,83443.6,13.724,7446,262143,95165.6
114772,52463,143371,125316,70286,116847,227316,121992,122118,99841.6,69839,93690.1,13.758,7468,227316,91203.6
108361,57838,122783,208946,92202,148516,239135,100407,156084,107663,72049,97931,14.327,7768,239135,98576.3
132147,60012,144311,202209,89582,147931,262143,120862,142144,98493.4,64516,100051,14.33,7771,262143,88531.9
56494.8,33870,109313,111427,74120,98522.1,229894,139155,108270,98360.9,63155,102069,14.439,7850,229894,89624.9
81588.6,55862,95717.9,70277.9,49549,92953.1,111838,80800,90710.6,91695.5,64328,93417.4,14.514,7891,111838,87445.6
60867,41956,95075.3,60130.7,40960,96209.2,95598.1,64417,97258.8,96410.9,74114,85252.3,14.698,7993,95598.1,92778.2
109411,59128,121269,180123,94165,125360,262143,136221,126117,109179,70090,102085,14.719,8006,262143,99217.3
110488,56706,127693,144094,90642,104183,225760,133613,110733,107287,76523,91882.7,14.95,8151,225760,98707.9
82837.8,55213,98325.7,119207,64701,120746,171280,94508,118773,100935,79860,82830.6,15.025,8189,171280,94425.9
67824.9,48646,91373.9,44471.9,26047,111894,82597.1,56217,96289.1,99480.1,76306,85439.2,15.031,8199,82597.1,96341.4
86111.1,49247,114593,141048,88445,104514,245920,144317,111675,101429,71913,92434.3,15.285,8318,245920,92083.6
82793.7,40279,134710,83583.8,44257,123771,93045.1,51749,117834,95420.1,67702,92367.3,15.487,8430,93045.1,91884.4
79287.3,48533,107065,115088,72504,104027,172696,102669,110236,97933.1,72206,88886.6,15.574,8478,172696,91370.6
78443.1,53982,95232.6,94545.2,69108,89658.4,156150,113318,90307.2,105941,78110,88887,15.684,8532,156150,100008
78339.6,42871,119756,159212,99394,104977,262143,169101,101595,111482,78653,92890,15.695,8540,262143,101520
45534.6,33342,89501.4,82301.8,55167,97771,183180,129488,92710.3,97077.5,72943,87219.7,15.808,8601,183180,90116.6
87484.5,52835,108515,122572,69142,116179,209618,130748,105069,97883.4,73980,86711.1,15.876,8633,209618,89917.9
98291.7,44235,145623,144783,91555,103637,215041,125739,112081,97270.7,64112,99431.2,16.204,8828,215041,89099.1
100058,51661,126931,161275,98428,107381,262143,155512,110473,103047,69155,97654.7,16.207,8834,262143,93085.9
82430.1,50646,106665,83479,46859,116752,116498,74394,102627,101460,75648,87898,16.502,8980,116498,97033.4
149284,59939,163224,221805,112752,128922,262143,149139,115193,110479,73795,98114.1,16.548,9004,262143,100517
83530.8,49217,111227,134761,79546,111026,226225,136015,109002,103686,75466,90043,16.551,9006,226225,95089.8
109996,52492,137330,176905,99170,116907,262143,176591,97285.8,114155,72979,102513,16.569,9016,262143,104194
91211.4,56791,105257,182000,106031,112491,262143,169614,101288,113458,80667,92176.3,16.971,9224,262143,103497
57072.6,33199,112663,98646.5,65662,98457.2,175521,113096,101709,95571.9,72951,85857.6,17.079,9279,175521,88902.1
106276,49906,139561,108461,57614,123375,197219,110970,116472,103766,75356,90244,17.189,9331,197219,96272
71649.9,43774,107270,87912.9,46272,124513,135756,85479,104083,96827.7,79860,79460.3,17.195,9340,135756,91669
101083,60091,110242,71599.9,49378,95029.6,118655,72751,106888,103541,77529,87524.5,17.329,9399,118655,99032.5
90165.6,63974,92367.1,122620,73459,109395,212814,130936,106517,104539,81558,84002.5,17.407,9446,212814,96452.2
71481.6,47145,99366.2,107069,65215,107596,200910,120404,109356,98997.1,72770,89155.9,17.586,9535,200910,91362.5
124568,57873,141062,153547,58474,172091,233330,93845,162945,105457,76052,90874.9,17.67,9586,233330,96590.3
134621,63996,137861,120118,71467,110149,206855,106883,126835,104349,72351,94519.7,17.749,9643,206855,96488.2
138869,69601,130759,153911,78617,128302,222891,107456,135938,105696,88697,78095.8,17.998,9800,222891,97225.7
54418.5,37207,95852.1,71856.6,53103,88680.4,132713,94855,91692.5,97843.4,75755,84644.8,18.157,9867,132713,92800.3
77526.9,48426,104919,40406.4,21160,125145,78123.2,39885,128366,96833.2,77682,81692.8,18.357,9959,78123.2,93864.5
87507,50350,113900,155109,89738,113277,202911,121754,109220,98174.6,71823,89580.9,18.406,9993,202911,90464
77004,48782,103451,147024,86227,111744,262143,156296,109918,109980,75182,95869.8,18.615,10104,262143,100019
34967.7,27608,83006.5,82332.2,49831,108280,178743,108333,108131,95914.1,74833,83998.1,18.866,10237,178743,89121.9
93816.9,55653,110477,80691.4,43509,121542,126165,71087,116313,101444,71089,93519.7,18.985,10289,126165,96649.5
75528,48287,102508,170740,103593,108015,262143,167128,102794,113919,80509,92732.4,19.067,10334,262143,103958
82626.3,48743,111093,173576,103874,109513,229537,140834,106813,110595,77269,93801.2,19.164,10377,229537,101872
83751.3,48238,113784,166142,95539,113967,262143,159545,107680,109894,80794,89140.1,19.29,10435,262143,99932.1
80210.7,48290,108857,70868.5,31934,145439,85767,45729,122916,99607,66735,97817.4,19.383,10490,85767,96347.9
99133.2,61999,104789,213447,114638,122023,262143,165884,103565,107422,72161,97559.7,19.386,10493,262143,97460.5
71046,41970,110938,123609,86109,94076.8,202828,138385,96054.9,101836,71879,92849.2,19.429,10526,202828,94128.2
73551.6,49804,96785,160698,89956,117074,213438,131807,106124,107171,83941,83672.4,19.689,10643,213438,99060.2
104683,57342,119641,134357,69021,127573,136603,66048,135544,103446,79891,84858.7,19.715,10655,136603,98255.2
88006.5,45849,125795,223808,116655,125734,258210,128989,131190,108602,70463,101008,19.796,10702,258210,98789.9
92666.7,51309,118361,180645,105509,112206,229624,129015,116642,109115,76381,93622.4,19.837,10739,229624,100390
113412,63229,117550,72150.5,37995,124449,143404,74106,126820,112790,79149,93391.1,20.246,10971,143404,107341
80662.5,48786,108357,173957,107654,105899,262143,181793,94502,98202.2,68541,93896.8,20.397,11054,262143,88240.7
54663.3,40241,89024,119754,78627,99815.3,154617,108218,93634.6,97083,68729,92572.7,20.424,11074,154617,91207.6
67263.3,46469,94862.5,43650.8,29621,96576.7,88729.9,61520,94522.1,102807,87393,77095.1,20.598,11173,88729.9,99435.5
79935.3,53278,98326.5,149058,91265,107036,262143,161802,106178,111068,80995,89869.1,20.654,11208,262143,101106
74461.5,42872,113825,124370,73679,110624,255456,146447,114318,101665,80222,83053.2,20.933,11387,255456,91957.3
77953.5,55787,91576.2,129256,86376,98070.6,215815,146046,96844,108267,82294,86219.6,21.189,11505,215815,100066
65649.6,47169,91212.7,65577.6,44009,97654.9,130994,89880,95514.1,95544.3,61956,101065,21.219,11522,130994,90566.5
88031.7,56016,102993,189946,97049,128268,232961,118324,129030,103014,69180,97588.1,21.231,11529,232961,94161.7
77364.9,50184,101032,111821,75212,97435.6,182062,121752,97999.3,102094,79295,84378.8,21.363,11618,182062,95175.4
105268,56075,123028,154512,75134,134774,221501,101522,142987,105890,74133,93610.4,21.731,11817,221501,97473.1
79381.8,51043,101921,96662.1,65942,96067,158565,104362,99573.6,98678.3,66826,96773.4,21.829,11876,158565,92652.8
86653.8,53989,105187,128693,88540,95256.9,208599,147019,92986.4,100191,70414,93250,21.925,11934,208599,92264
51742.8,35956,94310.1,84973.5,62421,89213.9,173024,122842,92308.2,100086,81971,80018.9,22.118,12030,173024,93511
105298,54300,127087,83596.3,28300,193589,99320,49085,132607,100718,73071,90332,22.131,12035,99320,96943.8
80570.7,46431,113723,123837,79713,101813,219884,139169,103545,105091,76167,90423.1,22.206,12072,219884,96735.6
93396.6,53015,115455,199766,125036,104705,262143,167414,102619,107524,74180,94994.6,22.296,12132,262143,97562.6
94012.2,61545,100109,127097,81071,102742,216079,137030,103342,110746,78009,93039,22.391,12175,216079,102535
94367.7,47938,129010,222008,128334,113372,262143,144889,118572,104059,67991,100302,22.496,12224,262143,94097.5
78070.5,50142,102039,135700,85839,103603,231698,139198,109086,99903.7,71764,91233.6,22.715,12333,231698,91099.2
42306.3,29255,94773.1,67799.4,51251,86696.9,139236,97150,93926.9,94230.5,67121,92005.4,22.863,12401,139236,88939.6
94486.5,50867,121734,144164,91993,102703,234341,141733,108357,110820,82342,88201.3,22.88,12408,234341,101915
67023.9,36691,119715,121693,82586,96568.9,191832,118005,106537,103962,85504,79683.7,22.919,12436,191832,96672.7
87607.8,53344,107631,165194,89570,120868,262143,153888,111638,106962,71609,97891.2,22.967,12456,262143,97001
59646.6,43230,90423.3,120422,79020,99872.8,209672,150001,91606.3,104251,74237,92031.9,23.048,12504,209672,96283.2
75457.8,44536,111038,127374,78899,105801,219677,128696,111866,99413.8,72618,89718.6,23.062,12511,219677,91066.1
64352.7,42286,99735.6,160248,104432,100563,217694,140083,101845,109096,76256,93759.3,23.102,12527,217694,100824
82744.2,49998,108459,142893,93797,99839.7,235360,141271,109184,106580,74036,94343.8,23.104,12528,235360,97636.5
44181,32216,89876,66365.6,50531,86072.6,154654,112234,90305.9,106053,82895,83844.5,23.12,12535,154654,100176
43299.9,31796,89247.1,72147.8,57908,81651.5,149138,110931,88108,99343.4,75316,86443.4,23.137,12542,149138,93676.2
58341.6,33485,114185,113777,69953,106593,196455,121868,105646,98417.5,67114,96103.4,23.254,12608,196455,90952.2
93261.6,57719,105892,144421,89470,105787,237836,139775,111514,110366,76441,94620.9,23.349,12656,237836,101328
75251.7,27358,180265,101582,22660,262143,138851,45650,199338,96405.4,67428,93700.3,23.352,12658,138851,91129.1
90074.7,57952,101862,156371,96416,106288,206093,118200,114268,99420.7,67081,97130.9,23.562,12777,206093,91589.2
138709,64892,140085,188232,83328,148041,262143,138205,124307,104970,72348,95086.2,23.778,12899,262143,95008.3
60165.9,44859,87898.4,165281,113963,95047.3,214023,132353,105976,102902,79800,84509,23.778,12900,214023,94769.6
84928.5,56097,99218.8,151212,99810,99287,254315,152720,109133,112404,79940,92150.3,23.803,12917,254315,102740
81733.5,49154,108974,150434,91830,107360,194875,114281,111754,108736,74448,95719.2,24.126,13110,194875,101330
103781,61560,110484,163578,96093,111561,252719,159666,103730,104554,71651,95631.2,24.187,13145,252719,94951
61455.6,49020,82161.4,66974.2,47204,92984,89228,71325,81986,98033.8,72129,89073,24.208,13168,89228,94643.2
43472.7,28757,99072.5,83594.9,64985,84303.7,176127,134759,85653.9,112429,87837,83884,24.226,13185,176127,105736
66664.8,39129,111655,121370,73463,108273,216795,134302,105791,105962,79967,86839.8,24.254,13200,216795,97723.7
81057.6,51313,103525,139541,80273,113924,213312,127187,109914,98519.6,69581,92792.3,24.402,13267,213312,90413.7
74400.3,51993,93779.9,142753,85884,108931,262143,166864,102957,100323,74894,87787.9,24.414,13272,262143,90361.8
55239.3,40824,88677.3,57577.7,46357,81399,90784.7,68441,86931.3,94763.2,70122,88565.7,24.545,13344,90784.7,91313.4
78588.9,51286,100425,159971,94456,110992,242626,139593,113908,102822,72850,92499.2,24.662,13400,242626,93602.6
82622.7,48383,111915,131003,72082,119107,205304,113688,118348,98540.3,76143,84813.2,24.676,13406,205304,90738.7
152594,60840,164372,141319,53773,172233,252960,102680,161453,100594,74441,88560.2,24.767,13462,252960,90981.3
64737,40465,104846,157556,97791,105588,248078,150298,108172,100801,67088,98468.8,24.834,13494,248078,91373.7
66294,47439,91583.8,100476,72036,91410.2,230384,166138,90879,101397,67701,98154.3,24.883,13518,230384,92642.3
64421.1,41727,101179,119857,81392,96507.7,194579,135795,93905.5,97556.3,69935,91419.9,25.062,13628,194579,90162.4
110066,56672,127281,162509,90103,118200,236391,123659,125281,102476,66399,101144,25.085,13644,236391,93493.2
84304.8,50902,108542,113054,71403,103764,225372,139671,105748,105000,69462,99065.5,25.227,13725,225372,96435.9
110623,50747,142861,190597,78665,158787,255361,110421,151559,111355,74310,98207,25.425,13823,255361,101651
72193.5,45726,103470,164094,93944,114473,256114,158278,106046,103707,77260,87969.7,25.557,13896,256114,93974.7
62883.9,41855,98462.8,100312,76155,86324.7,153577,110092,91422.2,97378.3,72213,88374.5,25.579,13914,153577,91542.4
86385.6,55607,101810,142278,88302,105596,230512,138663,108947,98825.9,76463,84703.1,25.616,13935,230512,90066.5
115006,52098,144671,168494,87405,126336,262143,126446,135867,109624,79030,90906.6,25.815,14036,262143,99663
89662.5,51046,115114,105148,61675,111730,181089,119047,99690.5,94760.5,60782,102172,25.873,14067,181089,87879.1
66340.8,47118,92272.8,70363.4,47099,97907.4,102577,73289,91725.5,101718,83549,79788.1,25.963,14103,102577,97820.5
71035.2,50563,92070.5,53552.3,37103,94590.8,94295.4,65172,94822.1,99045.4,79149,82010.3,26.029,14137,94295.4,95462.1
109604,57552,124809,104634,42684,160653,152015,74772,133238,100394,81016,81211.1,26.476,14385,152015,94617
88192.8,44918,128675,60052.1,38324,102692,122881,71244,113036,106332,86534,80529.7,26.477,14390,122881,101662
96182.1,57217,110166,110531,65384,110788,182044,103526,115241,109663,70733,101606,26.485,14397,182044,102745
88705.8,52728,110253,153858,98401,102471,247400,155817,104055,105854,74250,93431.2,26.578,14449,247400,96453.1
71211.6,48335,96553.7,100482,70227,93770,155723,106590,95745.2,101172,76986,86124.8,26.603,14462,155723,95254.5
70965,47543,97822.2,89234.9,60301,96981.8,115093,75101,100435,107216,81587,86123.2,26.746,14535,115093,102843
74475.9,45769,106641,175357,109761,104702,262143,179677,95614.9,110775,80604,90067.2,26.786,14553,262143,100814
86789.7,48337,117671,92217.1,47827,126363,170638,88377,126537,97494.2,66131,96617.1,26.853,14583,170638,91010
115233,66028,114375,141581,79835,116223,238198,139630,111799,102582,74411,90347.3,26.921,14612,238198,93530.8
86711.4,46591,121970,217891,118084,120928,262143,188550,91115.4,113751,79535,93729.3,26.971,14644,262143,103789
66577.5,44531,97981.7,178689,103904,112706,262143,177721,96667.3,112920,77072,96018.2,27.125,14725,262143,102958
38514.6,30121,83798.4,103521,70674,95994.7,247201,167134,96931.5,101300,78265,84824.8,27.178,14760,247201,91906.6
87409.8,53344,107388,126147,72194,114513,176508,104032,111193,97441.8,73673,86679.6,27.371,14878,176508,90734.5
55721.7,40052,91175.9,92130.2,59846,100890,200064,139726,93836.5,103325,79979,84665.9,27.374,14879,200064,95722.3
72648,44769,106347,138861,85478,106465,210472,129987,106114,96027.3,84712,74289.9,27.401,14895,210472,88029.4
81711.9,60338,88751.2,133370,80929,108003,230539,151267,99880.2,99268.9,71716,90714.6,27.457,14922,230539,90508.5
120687,57333,137955,151100,79459,124624,226956,115987,128237,108725,75290,94639.1,27.61,14993,226956,100100
67870.8,48167,92345,142967,86258,108621,234110,148395,103391,110034,81407,88582.2,27.653,15012,234110,101138
68985,39002,115917,131377,72489,118776,251312,147727,111489,100418,76178,86390.1,27.665,15017,251312,90868.6
102380,61924,108352,187441,106382,115472,262143,154262,111368,108324,80932,87717.5,27.7,15034,262143,98363
87632.1,56652,101374,132291,88601,97852.4,197036,123226,104791,96511.7,70286,89989.3,28.218,15313,197036,89024.3
83419.2,52130,104872,133108,87308,99914.8,196508,122220,105370,105805,78839,87951.5,28.225,15319,196508,98337.3
81081,36021,147517,124502,78116,104452,243135,145386,109599,96925.7,75149,84527,28.336,15366,243135,87686.5
177801,51917,224443,182904,73137,163895,246640,105684,152945,98282.2,65216,98764.5,28.389,15391,246640,88909.9
53332.2,33561,104144,112670,78403,94179.4,205602,130823,102997,102483,73424,91473.1,28.396,15396,205602,94670.1
98667,51082,126586,132853,60758,143300,225700,121729,121512,106241,77684,89627.1,28.423,15410,225700,97664.1
93034.8,50633,120418,196003,111444,115262,262143,155648,110376,105967,71527,97091.8,28.862,15667,262143,96006
98502.3,45933,140540,152164,89473,111455,256124,144451,116201,111360,76981,94804.2,28.953,15713,256124,101628
96887.7,57106,111190,136051,86379,103223,212535,125678,110829,102527,69870,96167.4,29,15734,212535,94450.8
63976.5,50056,83761.5,46500.5,36701,83034.7,96445.4,69741,90630.3,96684.2,77831,81410.9,29.056,15760,96445.4,93019.2
69885,37185,123168,145583,83614,114107,254778,136278,122523,106668,76217,91720,29.073,15769,254778,96986.9
67439.7,49382,89500.8,65308.5,48121,88943.7,118089,78212,98950.3,98192.5,78704,81763.9,29.459,15958,118089,93705.1
96078.6,64527,97581,196407,112448,114468,262143,205335,83667.2,114334,72738,103014,29.53,15997,262143,104373
89745.3,47727,123233,162618,94377,112923,262143,157505,109075,100196,65862,99700.3,29.541,16004,262143,90234.8
95389.2,56822,110018,107851,60523,116784,186877,109239,112113,106398,70920,98320.6,29.555,16009,186877,99296.7
92844.9,56052,108554,184672,102320,118282,262143,163274,105221,107919,75940,93133.6,29.568,16016,262143,97957.3
70905.6,45432,102282,133712,76706,114241,239188,136200,115091,100163,77106,85133.4,29.608,16038,239188,91074
107911,58234,121442,172997,103511,109530,262143,149069,115247,102607,74478,90287.9,29.839,16165,262143,92645.7
113119,55391,133837,158289,70502,147139,250855,99375,165434,98358.1,66990,96223.3,29.866,16182,250855,88825.6
77523.3,56796,89452.9,155614,101000,100974,234012,151345,101333,102167,72220,92711.3,30.076,16306,234012,93274.5
72811.8,49311,96769.4,47443,32192,96583.8,88440.1,53943,107447,93958.7,76651,80333.9,30.12,16327,88440.1,90598
47648.7,32141,97156.4,98211.8,74920,85910.5,219668,156715,91862.2,108930,93081,76695.1,30.126,16329,219668,100583
173938,59558,191397,159887,61054,171624,234465,88981,172687,103758,72500,93791.6,30.154,16347,234465,94848.4
75844.8,54490,91219.8,71885.6,51890,90790,93386,61657,99261.1,100580,75767,86998.4,30.175,16366,93386,97031.3
58765.5,41584,92613.9,55042.7,40546,88967.5,134847,103511,85375.6,99006.7,65090,99685.1,30.317,16432,134847,93882.5
73925.1,46758,103613,100855,69741,94773.6,199752,132939,98473.5,106898,78871,88824,30.443,16509,199752,99307
87513.3,54463,105306,107832,80355,87945.6,181142,117287,101216,96706.3,65957,96089,30.449,16513,181142,89822.9
94276.8,60163,102696,135992,85230,104569,206935,128647,105418,111400,82152,88868.7,30.507,16548,206935,103537
75157.2,41879,117613,166754,88003,124182,262143,183881,93428.9,113846,86210,86544.5,30.533,16560,262143,103884
106533,65671,106314,104560,74072,92510.4,191406,125460,99983.9,101081,76858,86190.6,30.565,16584,191406,93807.4
92325.6,44845,134924,175042,114386,100288,262143,162888,105470,105867,72897,95176.5,30.585,16603,262143,95905.3
73940.4,45740,105941,154076,96176,104990,226319,132832,111660,108233,78391,90484.7,30.862,16763,226319,99633.3
99439.2,48314,134885,138929,89983,101184,243026,146689,108576,104593,73302,93511.8,30.978,16833,243026,95358
64102.5,42075,99846,100424,72505,90771.5,177692,120799,96401.4,97497,73884,86481,31.016,16860,177692,90744.7
142043,53718,173293,163972,62480,171992,262143,119503,143760,103035,73818,91474.9,31.073,16901,262143,93073.5
95801.4,57488,109213,169000,101735,108867,262143,169955,101084,99596,66021,98864.3,31.262,16990,262143,89634.5
109118,61001,117230,174854,98074,116843,245146,136756,117478,104886,69266,99237.4,31.278,16999,245146,95570
67134.6,45663,96352.3,102428,73502,91326.8,161417,116312,90950.5,97448.7,73892,86428.8,31.282,17002,161417,91314.9
78741,40259,128179,162891,79015,135104,231581,104076,145825,104524,77745,88109.6,31.481,17115,231581,95723.9
85244.4,50600,110407,138760,88540,102708,255248,158128,105787,111816,76362,95963.5,31.622,17190,255248,102116
57962.7,35023,108461,171277,105835,106060,262143,183086,93834.6,111316,79627,91617.5,31.748,17270,262143,101355
50512.5,32801,100923,111318,70253,103843,262143,167710,102438,99812.6,75074,87131.6,31.76,17275,262143,89851.2
77070.6,48317,104537,172601,102874,109956,262143,167131,102792,113123,81340,91143.5,31.778,17289,262143,103161
98637.3,56231,114960,177095,101328,114540,262143,167565,102526,110539,73582,98452.2,31.814,17308,262143,100578
86995.8,53015,107542,161223,103995,101600,250453,147685,111140,103668,76079,89302,31.831,17318,250453,94151.1
112759,64589,114412,71900.8,28979,162604,118899,54183,143812,95547.1,60963,102714,31.893,17351,118899,91028.9
89541.9,53162,110384,188841,114535,108053,262143,187998,91382.9,113504,77039,96555.9,32.23,17539,262143,103542
68335.2,50157,89287.9,66143.4,44700,96974.8,107959,68944,102622,92498.6,71283,85041.2,32.312,17603,107959,88396.2
84164.4,50777,108628,182980,102158,117384,262143,161210,106568,113186,76866,96502.6,32.358,17636,262143,103225
63333.9,44729,92795.5,98209.1,66649,96569,230902,172205,87874.1,98569.3,69943,92358.6,32.379,17649,230902,89795
78994.8,47790,108328,133668,81355,107677,208719,118647,115289,97486,71193,89739.7,32.608,17771,208719,89554.6
108964,62412,114418,150210,86369,113978,238497,124696,125346,103045,75496,89450.2,32.665,17794,238497,93981.7
55064.7,40075,90049.2,56919.5,41011,90957.9,111537,83017,88050.6,99350.3,75494,86245.6,32.671,17797,111537,95111.9
62949.6,38420,107378,112139,65375,112415,166585,102306,106713,97546.7,75241,84964.6,32.75,17850,166585,91216.4
78901.2,50853,101683,164874,96504,111966,262143,210464,81628.2,112739,80305,92005.1,32.794,17877,262143,102778
92061,55897,107936,152351,87278,114398,262143,146500,117268,98453.3,67157,96076.9,32.931,17944,262143,88491.9
76277.7,45495,109879,99187.5,62893,103356,187364,117901,104147,105109,78436,87822.3,33.315,18141,187364,97989.2
70807.5,43577,106488,106083,66544,104476,202679,129515,102558,96070.1,71124,88522.1,33.319,18145,202679,88368.3
56273.4,30699,120132,113787,80961,92107.5,202585,137061,96866.6,97552.2,65034,98305.2,33.367,18175,202585,89854
88625.7,58781,98810.4,162300,100812,105508,260445,156625,108977,108461,74511,95396.7,33.499,18252,260445,98564.2
100389,59133,111259,111914,55239,132776,102758,60337,111612,100358,81834,80370.6,33.587,18299,102758,96453
86510.7,56756,99893.7,174406,104238,109652,262143,153767,111726,109023,70489,101362,33.613,18312,262143,99061.3
86651.1,50330,112831,165975,104573,104017,239434,148094,105957,102390,67989,98696.3,33.624,18316,239434,93292
113996,60664,123151,85779.4,42607,131942,99204.1,49251,132006,97070.6,74358,85553.9,33.695,18361,99204.1,93300.8
94981.5,49746,125130,223248,130301,112285,262143,177302,96895.7,116780,74883,102203,33.887,18466,262143,106818
62518.5,48156,85082.1,63152.9,47859,86478.9,101404,74658,89013.9,100123,80534,81477,34.11,18579,101404,96269.8
64049.4,48083,87297.8,51445,41281,81672,95446.3,72524,86249.7,101300,78675,84382.8,34.154,18607,95446.3,97673.3
67079.7,39952,110035,170059,97883,113860,262143,165211,103987,107681,77602,90938.5,34.212,18631,262143,97720
46445.4,33605,90577.2,95729.2,72819,86154.9,175297,124663,92154.7,96744.9,69965,90620.6,34.212,18632,175297,90083.6
85130.1,53452,104376,150584,93752,105264,262143,156281,109929,101462,73720,90198,34.392,18725,262143,91500.3
91780.2,58632,102587,138501,88893,102109,231420,143410,105755,104191,74811,91273.8,34.829,18964,231420,95397.4
82897.2,48590,111808,150216,93015,105838,209149,128350,106792,110766,76912,94382.4,34.835,18968,209149,102818
81984.6,38962,137902,187111,89650,136782,262143,158158,108624,103537,72580,93488.8,34.879,18991,262143,93575.8
81583.2,44583,119925,124476,65847,123888,225720,116339,127152,101328,67564,98286.4,34.89,18999,225720,92750.5
90327.6,44336,133519,178386,81136,144088,249547,111290,146952,108540,70855,100392,34.986,19047,249547,99057
148000,58866,164770,164397,83446,129112,262143,129038,133138,108145,74191,95529.1,35.108,19104,262143,98183.6
95398.2,54791,114107,138484,82192,110421,232758,136681,111603,104556,74773,91639.5,35.132,19112,232758,95710.9
103072,61989,108970,155112,87825,115746,235017,131811,116850,108803,75124,94916.9,35.635,19385,235017,99872.7
68676.3,41930,107340,101620,64441,103347,172271,110343,102317,95007.5,70772,87978.4,35.722,19427,172271,88461.2
84428.1,49169,112532,179216,106275,110516,262143,153167,112164,109720,76983,93404.9,35.749,19440,262143,99758.2
82892.7,49962,108732,109804,68487,105073,204515,124324,107808,96303.3,70556,89451.4,35.764,19448,204515,88531.7
105973,54267,127979,178881,107251,109306,262143,159280,107859,111746,75833,96572.1,35.886,19515,262143,101784
86124.6,50939,110804,157757,97261,106299,256171,163438,102720,105929,73276,94739.8,35.982,19566,256171,96194.3
88402.5,60218,96209.5,109684,71208,100947,238584,159295,98156.5,97843.4,74573,85986.4,36.013,19585,238584,88777.2
69726.6,47419,96366.5,108969,64890,110054,197081,136366,94714.8,95184.1,68985,90425.3,36.197,19699,197081,87695.1
102688,48975,137412,173307,97689,116266,262143,153102,112211,100265,67868,96820.1,36.217,19715,262143,90303.8
104486,62147,110184,134257,54438,161628,194743,90306,141327,103101,67578,99985.8,36.3,19767,194743,95701
93266.1,50866,120164,166726,101947,107179,262143,160987,106715,109284,68942,103885,36.311,19772,262143,99322.1
112695,58708,125802,154393,73474,137713,248499,135940,119800,109083,75000,95318.6,36.36,19797,248499,99640.5
70310.7,42002,109706,61600.4,48486,83262.1,130366,97072,88013.6,93543.3,66785,91793.9,36.526,19867,130366,88589.4
122478,58532,137134,138102,62656,144450,207736,77375,175950,104550,67923,100876,36.915,20045,207736,96656.2
79695,53154,98259.6,43969.6,27550,104595,90056,64115,92052,97055.4,78008,81538.1,36.979,20087,90056,93633.3
39075.3,26012,98448.4,103390,73501,92185.7,181892,125441,95028.7,97196.2,72562,87784.9,37.036,20116,181892,90284.2
85693.5,52521,106929,126892,83570,99509.6,232109,142288,106906,105963,78005,89025.2,37.078,20132,232109,97143.1
94014.9,57983,106261,90483.8,56044,105809,130493,70639,121066,95925.2,72823,86326.5,37.09,20137,130493,90966.5
86780.7,49803,114195,156547,94192,108921,229838,123147,122314,97542.5,64641,98893.1,37.229,20203,229838,88808.7
80694,53318,99185.3,102570,63913,105175,165441,105869,102413,94571.4,68738,90166,37.367,20289,165441,88284.6
88860.6,52746,110408,140650,81414,113219,242248,135989,116744,98674.1,66248,97613.6,37.377,20298,242248,89468.7
136290,71784,124427,128466,70306,119750,220571,124769,115857,98998.4,65621,98870.2,37.48,20349,220571,90616.7
102776,53745,125323,197830,109091,118846,228307,124324,120350,106829,75460,92779.2,37.601,20412,228307,98152.9
72909,52032,91831.3,139206,82653,110377,228189,136995,109161,97530.1,62112,102907,37.765,20509,228189,88859
103542,55197,122937,105264,44749,154161,149197,60344,162034,100521,66821,98587.5,37.779,20518,149197,94851.1
78658.2,45420,113495,172348,99924,113036,211478,127663,108563,102799,81397,82767.6,37.902,20576,211478,94762.8
100721,58618,112608,138001,84641,106852,221409,133012,109090,104772,72652,94510.3,38.235,20764,221409,96358.8
63756.9,41675,100261,157698,103602,99755.8,246756,151662,106628,106217,77910,89347.3,38.272,20779,246756,96840.5
83037.6,53314,102074,116889,74004,103514,141323,91171,101587,106495,84651,82447.1,38.294,20790,141323,101124
67268.7,41239,106902,142597,85397,109433,219304,121613,118181,100656,72961,90412.4,38.544,20950,219304,92322.3
82332,57407,93990.5,81705.7,60604,88354.9,137569,90123,100038,93602.6,62234,98569,38.73,21070,137569,88375
69897.6,42492,107804,142012,75867,122674,231309,123342,122903,109616,83416,86120.2,38.796,21109,231309,100826
78336.9,57203,89748.6,65282.3,45137,94785.6,108144,75130,94333.9,96905,76244,83295.3,38.84,21135,108144,92795.5
72218.7,48692,97201.3,45891.9,33726,89176.6,82101.7,55367,97181,100050,81842,80116.3,38.887,21156,82101.7,96930.1
100544,53228,123793,167671,85465,128573,216045,116485,121550,102204,72681,92156.9,38.945,21197,216045,93994.5
100928,53629,123336,171061,97506,114974,235932,122706,126009,98359.5,65336,98660.6,39.204,21324,235932,89394.1
47097,31636,97564.5,79159.6,54941,94425,174683,123388,92780.8,107839,87054,81183.2,39.301,21378,174683,101201
90464.4,51752,114559,137509,84481,106672,229582,131996,113988,97922,70110,91533.6,39.332,21390,229582,89197.9
81522.9,51700,103340,182835,114811,104365,254301,151598,109935,106234,71647,97172.8,39.417,21448,254301,96570.4
58979.7,46397,83309.1,97165.8,59199,107567,197685,133144,97304.3,98020,78503,81829.2,39.443,21462,197685,90508
45309.6,31444,94434.9,64668.2,50507,83911,137180,103998,86446.4,94156,61345,100589,39.547,21521,137180,88943.2
54922.5,33150,108579,131217,90324,95206.8,210043,137200,100331,104146,71706,95184.5,39.661,21584,210043,96164.2
91702.8,48507,123896,163994,100738,106688,262143,175925,97654.1,110960,83441,87150.1,39.679,21601,262143,100999
86316.3,50575,111850,124916,77435,105721,201730,110921,119189,103666,71609,94873.9,39.811,21686,201730,95999.9
115353,62943,120105,151870,84390,117940,251065,137032,120073,97404.5,66961,95331.7,39.846,21707,251065,87864.1
72432,49122,96635,141504,97599,95017.3,194057,128664,98844.4,103510,73191,92683.6,39.952,21765,194057,96135.5
95510.7,52621,118952,119732,76346,102779,228117,141447,105692,99655.3,70321,92874.3,40.118,21848,228117,90986.9
78486.3,44918,114513,144102,83678,112860,262143,152144,112918,108512,77476,91789.1,40.801,22210,262143,98550.7
87175.8,54136,105533,128961,84787,99680.2,206532,126502,106997,100917,73688,89752.4,40.813,22216,206532,93068.4
97945.2,54849,117029,191610,101882,123254,262143,148405,115763,106547,73380,95157.6,40.878,22248,262143,96585.6
104707,48311,142040,169438,76128,145863,231282,92367,164099,99863.7,67020,97652.5,40.953,22283,231282,91075
104192,55238,123617,142173,68034,136953,201926,89445,147950,107492,74422,94657.7,40.999,22309,201926,99819.2
78729.3,54131,95317,154541,86815,116662,262143,206414,83229.8,104183,69550,98170.3,41.017,22322,262143,94221.7
51059.7,41658,80326.7,171364,101914,110196,262143,170103,100996,111156,77134,94442.6,41.024,22334,262143,101195
71780.4,42073,111810,128867,75906,111262,255747,150438,111412,106013,81283,85475,41.07,22357,255747,96294.6
44316.9,29341,98986.1,92769.1,63432,95846.2,171905,122561,91921.4,96518.6,80703,78379.3,41.109,22371,171905,89986.2
81002.7,47741,111196,176992,102375,113302,249704,126635,129227,110022,76582,94152.6,41.213,22427,249704,100533
100151,60136,109144,123785,77165,105130,192478,121643,103699,96190.1,72563,86875.1,41.294,22472,192478,88876
65214.9,42661,100183,142319,85252,109406,244090,146118,109478,108464,80511,88289.6,41.312,22483,244090,99188.4
73736.1,47326,102108,84162.1,54834,100588,121641,83476,95499.2,96998.8,73342,86675,41.442,22553,121641,92376.4
46476,27645,110177,133091,82664,105515,262143,179735,95584.1,102806,81922,82242.7,41.446,22556,262143,92844.4
70256.7,45019,102276,110181,65229,110699,216552,126490,112198,104600,79114,86647.8,41.523,22597,216552,96370.9
60253.2,32138,122869,103482,64822,104622,163487,102935,104088,111777,84728,86458.2,41.551,22612,163487,105565
75480.3,52416,94373.4,132443,86445,100408,194137,121067,105090,98515.4,73965,87288.7,41.618,22649,194137,91138.2
77193.9,53877,93898.7,146929,80341,119853,240595,140478,112243,102356,69772,96141.7,41.621,22653,240595,93213.4
90828,52292,113832,148659,93197,104537,223029,121951,119855,99487,69967,93186.5,41.754,22729,223029,91011.9
96846.3,59057,107471,133987,80122,109595,220578,137555,105091,104534,71921,95253.3,41.851,22786,220578,96151.7
82910.7,46909,115834,129839,82180,103542,249267,153689,106292,108625,73985,96220.4,42.025,22881,249267,99153.2
53152.2,41758,83418.3,151027,88552,111773,221302,125881,115214,106898,69651,100582,42.044,22885,221302,98488.1
85833.9,51177,109917,173736,105954,107462,262143,145092,118406,99814,63843,102461,42.517,23159,262143,89852.6
96922.8,56722,111984,179102,101329,115837,262143,170430,100803,110784,78205,92837,42.582,23185,262143,100822
51112.8,29119,115036,168766,121023,91389.5,262143,186769,91984.2,110366,77026,93902.2,42.662,23224,262143,100404
83095.2,55550,98032.9,148687,92667,105154,230205,141989,106253,101747,72824,91564.8,42.671,23225,230205,92999.6
84661.2,57008,97325.9,110363,70997,101874,171182,114973,97575.9,103305,75973,89113.6,42.716,23245,171182,96800.5
49259.7,31899,101203,94426.5,71179,86940.5,180884,133564,88754.3,100670,70025,94216.1,42.894,23355,180884,93796
85626,51937,108046,124232,77710,104770,222838,142985,102136,109092,77701,92012.2,42.969,23400,222838,100624
117969,61624,125458,115615,49459,153196,190708,98023,127503,101313,73225,90674.4,42.991,23410,190708,94065.8
111245,67231,108441,174297,97467,117196,253590,153869,108009,103537,78381,86569.7,43.056,23442,253590,93900.8
83180.7,48527,112336,203292,110146,120957,262143,171827,99983.1,106984,68620,102176,43.225,23551,262143,97023.1
43701.3,26960,106232,126055,75130,109958,262143,164326,104547,109858,85779,83932.3,43.403,23650,262143,99896.2
93033,54481,111911,122349,75020,106882,152512,94546,105716,100199,71061,92408.6,43.688,23794,152512,94403.6
86382,45284,125014,190506,111142,112334,262143,150077,114473,108036,72068,98244,43.828,23885,262143,98074.6
57571.2,45091,83674.9,35562.6,27557,84574.9,80418.1,61428,85796.1,92345.5,75133,80549.9,43.996,23994,80418.1,89289.6
96296.4,56442,111812,137213,81844,109873,201343,120840,109196,99096.4,66457,97723.1,44.147,24057,201343,91445.4
116315,60957,125053,201110,114269,115341,253070,142391,116476,112739,73420,100633,44.19,24077,253070,103122
62198.1,43022,94747.2,116120,72514,104946,191098,110783,113048,96731.1,72637,87274.7,44.226,24091,191098,89469.4
83313,53625,101818,103439,62376,108680,176942,104196,111291,97179.6,73714,86398.3,44.365,24156,176942,90455.8
90106.2,52714,112023,127105,79040,105389,224323,130596,112570,96658,66724,94937,44.395,24173,224323,88133.7
71623.8,35998,130394,113175,72117,102847,145099,93889,101281,99199.9,72368,89834.8,44.474,24215,145099,93686.2
69080.4,44493,101752,153103,101947,98421.1,260696,159449,107150,108162,78794,89962.2,44.652,24288,260696,98255.2
58863.6,37759,102166,128391,74719,112612,262143,192081,89440.4,116257,78705,96804.5,44.692,24304,262143,106295
97995.6,58607,109581,180025,109907,107346,239019,152737,102558,109787,75319,95527.3,44.768,24332,239019,100705
80856.9,47700,111091,103294,69416,97520.8,215828,134516,105151,102288,65546,102273,44.841,24377,215828,94086.9
112629,56384,130910,163097,74511,143451,234237,115876,132477,102099,73331,91246.2,45.021,24473,234237,93198.3
92043.9,51810,116429,160166,91675,114498,238972,142303,110056,111683,79727,91804.3,45.111,24534,238972,102602
53649.9,36416,96551,67788.4,51031,87056.5,112866,84627,87404.6,100837,78788,83876.1,45.145,24555,112866,96547.7
62909.1,43244,95338.3,84280.7,65682,84093.4,155598,120249,84801.2,101855,69213,96443.9,45.716,24872,155598,95942.3
86706,46807,121400,146085,83945,114049,253597,140364,118405,102086,72434,92363.7,45.842,24954,253597,92448.8
80760.6,54690,96776.9,107959,62782,112695,118111,69707,111044,93412.2,70415,86939.8,45.887,24993,118111,88924
84307.5,55157,100172,106205,72401,96134.6,155587,104074,97973.9,104430,78786,86867.4,46.171,25139,155587,98517.8
57300.3,39309,95531.1,174497,109274,104653,232622,151624,100546,103671,83277,81585.4,46.484,25324,232622,94831.5
89600.4,56679,103602,104552,68459,100088,146468,86349,111164,93209.3,68845,88729.3,46.604,25383,146468,87643.6
77530.5,47689,106545,135655,85859,103545,233939,148865,102989,99765.7,74660,87573.6,46.624,25388,233939,90876
73904.4,54673,88588.5,125097,83445,98248.6,212310,137462,101220,108003,83171,85102.8,46.66,25402,212310,99935.1
122848,59515,135276,194385,96989,131347,262143,170879,100538,105976,70849,98028.6,46.669,25408,262143,96014.3
73984.5,46980,103207,200204,112479,116649,262143,152387,112738,107030,75653,92717,46.696,25423,262143,97068.6
100530,56102,117435,164543,98852,109087,244145,139844,114415,110183,77053,93714.4,46.721,25441,244145,100906
76071.6,50803,98132.6,137263,88099,102109,207673,133883,101657,112128,78289,93862.5,46.782,25495,207673,104236
87228,46127,123931,165658,86198,125949,262143,155761,110296,98420.2,68834,93704.7,47.044,25605,262143,88458.8
79380.9,55320,94040.2,108715,76554,93068.3,175609,116636,98672.1,95708.5,67729,92609.6,47.105,25636,175609,89035.4
49191.3,29352,109832,137169,95571,94061.2,262143,233181,73675.8,107265,75125,93573.3,47.129,25653,262143,97303.2
94417.2,45988,134551,138259,81670,110946,262143,143992,119311,108977,75103,95095.1,47.131,25655,262143,99015.8
80195.4,50648,103769,68804,30980,145550,82381.9,43433,124306,95338.7,75348,82923.4,47.21,25687,82381.9,92208.2
65589.3,40322,106603,109129,69669,102655,200991,123269,106857,98977.7,66583,97421.3,47.342,25744,200991,91340.1
61216.2,44382,90394,107586,70759,99644.8,238468,150148,104086,105754,77903,88965.3,47.386,25758,238468,96691.8
51982.2,40571,83969,88382.1,62869,92131.4,159634,108287,96611.7,100722,66973,98560.9,47.454,25800,159634,94656
67140,47385,92858.2,68283.8,46477,96285.2,119772,79420,98833.4,96633.1,77383,81839,47.466,25805,119772,92081.8
101776,63530,104990,128412,73346,114738,229171,139477,107681,108269,74801,94858.8,47.47,25809,229171,99560.8
49608,30038,108233,104492,64202,106663,183805,96577,124728,102817,71482,94264.4,47.486,25820,183805,95832.3
82723.5,46470,116664,150733,95675,103250,258061,151478,111649,106873,72090,97156.5,47.493,25823,258061,97066.4
82323.9,53206,101402,131866,83798,103129,216060,124922,113348,101284,70175,94588.2,47.5,25831,216060,93073.5
89941.5,50090,117676,154185,96115,105131,262143,140233,122509,111962,75240,97522,47.526,25856,262143,102001
96518.7,57944,109165,180663,88181,134268,262143,139136,123475,110371,75510,95792.3,47.582,25895,262143,100410
52615.8,36052,95646,147554,103936,93038.8,228506,147328,101646,108434,76885,92427.6,47.588,25902,228506,99750.3
79677.9,51897,100618,65326.4,40250,106366,89258.4,51781,112969,98002.1,78242,82087.2,47.979,26100,89258.4,94610.3
49189.5,34170,94342.5,104452,69879,97960.5,239322,154599,101451,99227.5,75600,86018.2,48.059,26149,239322,90133.3
114068,55462,134787,158614,79767,130317,262143,121485,141415,98911.5,63773,101646,48.219,26233,262143,88950.1
100667,53149,124128,166047,99444,109429,251166,137917,119350,111704,77755,94150.1,48.347,26307,251166,102160
82126.8,46097,116759,130088,85624,99568.8,217741,134450,106135,107303,74760,94064,48.579,26443,217741,99029.1
114583,64749,115975,209350,105367,130211,262143,157016,109414,108712,81323,87608.3,48.583,26446,262143,98750.8
84344.4,43997,125636,156053,98665,103655,262143,153813,111693,108222,78209,90686,48.66,26491,262143,98260.9
51145.2,33754,99302.4,87883.9,64542,89237.4,183011,120773,99308.9,101073,80646,82135.4,48.728,26525,183011,94118.1
61525.8,42062,95862.2,67219.8,49656,88716.7,122213,85080,94138.9,97957.9,68811,93295.7,49.087,26700,122213,93313.8
81654.3,52907,101145,113237,75932,97733.8,176027,118095,97685.1,105900,78691,88196.2,49.115,26721,176027,99210.8
111560,56461,129491,121036,58637,135276,176294,89326,129342,102549,69057,97320.5,49.118,26722,176294,95850
105882,67672,102540,134956,90136,98123.5,215992,137305,103094,102335,66871,100292,49.309,26835,215992,94127.6
64791,39126,108525,149406,96091,101898,204933,142990,93926,98977.7,75023,86461.6,49.412,26893,204933,91190.3
86953.5,42690,133488,165261,94785,114264,262143,163875,104835,111866,76171,96246.9,49.519,26955,262143,101904
87715.8,53547,107355,148794,102308,95314,245251,155625,103279,113475,78182,95120,49.626,27023,245251,104155
89610.3,58511,100369,119308,71765,108952,157840,94775,109145,103634,80972,83877.7,49.73,27074,157840,97635.9
94057.2,55522,111021,199086,119987,108739,261113,160245,106788,107715,70569,100032,49.912,27145,261113,97792.2
78668.1,52680,97866.2,67166,42170,104382,105014,63540,108313,96720.1,79648,79583.2,49.941,27167,105014,92729.5
86917.5,56786,100310,144487,94377,100333,225355,145690,101372,96524.1,66323,95378.7,49.979,27193,225355,87960.6
92455.2,55220,109727,85834.6,47428,118606,163702,87589,122486,96217.7,67451,93486,50.267,27356,163702,89997
86575.5,56503,100416,150987,94710,104478,226123,141998,104362,106054,74347,93485.7,50.564,27496,226123,97461.7
92645.1,44630,136043,141029,89769,102958,251323,136606,120571,105625,75833,91282.9,50.573,27507,251323,96074.9
56988.9,41774,89405.5,98959.8,65113,99602.7,217184,148676,95734.3,98969.5,77737,83436,50.708,27564,217184,90716.5
98130.6,50741,126743,217908,119407,119598,262143,181725,94537.4,110472,72952,99241.6,50.93,27705,262143,100510
43586.1,28808,99155,132557,88979,97632.8,262143,175332,97984.4,105058,68076,101138,50.95,27721,262143,95096.6
44544.6,31938,91404.4,128957,88201,95818.8,225629,154006,96014.4,102214,75464,88766.6,51.157,27827,225629,93639.9
63878.4,45081,92862.5,124283,74238,109715,226764,141920,104716,104521,72365,94657.7,51.261,27893,226764,95904.2
82022.4,48678,110428,156354,95189,107647,255196,150760,110935,103224,73892,91551,51.28,27903,255196,93526.5
87342.3,47698,120006,141084,80136,115380,244110,131749,121428,106293,70924,98218.2,51.287,27908,244110,97017
70127.1,40441,113643,116391,71211,107115,252006,155499,106209,101775,75817,87974,51.288,27909,252006,92198.8
89779.5,48293,121835,86911,52674,108133,124045,74491,109133,92527.6,73963,81985.5,51.414,27977,124045,87813.9
63526.5,39941,104236,153330,103524,97066,255780,156721,106960,105509,77641,89059.4,51.439,27991,255780,95789.6
83828.7,50549,108683,134787,88877,99389.3,219592,141587,101642,106449,76985,90618.2,51.54,28038,219592,98104.5
61659,36341,111194,123941,75473,107622,250591,143845,114170,105585,70642,97953.5,51.541,28040,250591,96062.7
135215,59523,148874,158804,67238,154784,203187,97772,136195,95438,67749,92320.6,51.868,28222,203187,87716.9
80237.7,48454,108525,113889,63538,117470,184672,111601,108446,107196,83537,84096.6,51.942,28254,184672,100178
73589.4,44671,107962,124614,77685,105126,202523,126895,104595,98268.4,72193,89207,52.139,28357,202523,90572.5
89764.2,52415,112235,130123,80938,105361,210102,129380,106425,96372.3,72084,87618,52.169,28372,210102,88388.4
116456,63203,120754,187933,100347,122738,262143,149541,114884,104567,75053,91307.3,52.178,28376,262143,94605.3
102597,60230,111636,185919,104894,116159,262143,170462,100784,102196,75361,88872.4,52.209,28392,262143,92234.5
131596,63750,135283,218199,100238,142659,262143,129180,132991,101812,64912,102791,52.296,28443,262143,91850.8
95562.9,53081,117986,155992,89967,113632,255432,143205,116896,100654,73301,89991.8,52.37,28475,255432,90948
44392.5,27907,104250,122314,83965,95467.6,235711,142590,108335,100993,69547,95168,52.413,28494,235711,92035.5
73194.3,52590,91212.4,95489.1,68742,91035.7,146316,102363,93676,102092,76382,87595.6,52.548,28585,146316,96532.4
64708.2,42871,98918.1,42770.3,18903,148283,83984,41935,131250,99531.1,82773,78804.3,52.593,28602,83984,96339.7
157841,62220,166253,177842,91200,127797,262143,168719,101825,104874,69943,98266.5,52.679,28641,262143,94913
90058.5,54729,107842,168963,102762,107755,262143,180342,95262.4,107358,76363,92136.8,52.765,28686,262143,97397
71972.1,52870,89214.4,43280.9,29039,97677.6,89397.8,62487,93759.9,93111.4,73987,82475.9,53.073,28850,89397.8,89714.2
105218,58003,118883,143477,70309,133737,189416,95276,130291,104532,73102,93713.2,53.379,29018,189416,97334.4
98563.5,61313,105352,146421,85242,112572,156910,96209,106885,94404.4,70144,88202.7,53.388,29024,156910,88441.8
89010.9,57948,100666,94236.1,64233,96147.7,178213,116969,99850.2,98479.6,73854,87388,53.54,29084,178213,91707.5
71847.9,43561,108093,111875,74344,98620.7,205134,128444,104666,101619,75336,88400.1,53.637,29129,205134,93824
69097.5,40571,111616,103608,57489,118110,170851,99689,112318,98667.2,76541,84481,53.823,29223,170851,92174.9
58451.4,46092,83109.2,106347,72821,95708,233965,154192,99441.9,101640,76460,87118.3,53.828,29227,233965,92749.1
89862.3,54249,108559,163250,104179,102696,239612,148441,105788,109161,77547,92253.2,53.911,29271,239612,100056
80317.8,53312,98734,47353.3,26477,117209,93579.2,57183,107249,98308.4,78787,81774.2,54.017,29328,93579.2,94752.4
89271.9,51145,114391,157135,86799,118642,253763,139625,119109,100104,66200,99099.8,54.134,29381,253763,90460.8
72478.8,50350,94339,43841.2,31865,90167.2,85666.3,55064,101958,93397,76078,80455.2,54.362,29509,85666.3,90141.7
55505.7,37929,95906.1,97198.9,61854,102985,183029,134198,89383,104396,77696,88056.9,54.416,29537,183029,97440.5
97817.4,55530,115443,156108,92367,110762,258554,149089,113654,104801,70549,97354.5,54.453,29559,258554,94976.3
69260.4,47364,95833.3,58260.8,41059,92992.6,98211.8,63374,101562,100703,74821,88205.9,54.474,29569,98211.8,96970.7
45542.7,31760,93976.3,87308.5,64794,88308.3,229295,166197,90417.4,98116.6,73027,88052,54.48,29573,229295,89403.4
107781,40829,173003,153969,73187,137873,262143,134717,127525,104139,74834,91199.8,54.675,29673,262143,94177.5
102084,54091,123684,118189,63529,121923,197598,97950,132208,95631.2,67995,92172.8,54.749,29721,197598,88122.5
110563,59052,122703,164584,90802,118788,258198,143748,117715,107283,75054,93677.5,54.771,29732,258198,97471.1
76301.1,46977,106445,148320,94428,102938,255256,150521,111137,107481,69795,100923,55.041,29873,255256,97781.6
77769,49663,102625,105569,71174,97206.1,154389,100383,100794,93318.4,67740,90282.1,55.17,29950,154389,87451.6
116127,49737,153015,167244,81606,134310,254694,137170,121686,100169,74096,88596.6,55.17,29951,254694,90490.3
95760,57709,108748,152330,82931,120378,229586,128880,116746,99350.3,76212,85433.1,55.224,29989,229586,90626.1
68503.5,42905,104637,128336,84667,99337.6,221471,141222,102776,105480,81960,84343,55.409,30084,221471,97064.4
93220.2,53248,114733,143753,94672,99512.1,195423,114718,111641,99594.6,68213,95686,55.454,30109,195423,92168.5
79034.4,50630,102303,147470,87996,109830,262143,166676,103073,106911,78858,88850.1,55.584,30190,262143,96949.9
87999.3,55889,103189,147999,83424,116265,241181,135118,116980,110542,76788,94344,55.78,30295,241181,101377
81828,54283,98791.1,132815,85816,101428,212357,129622,107366,102546,73091,91946.8,55.998,30438,212357,94476.9
98251.2,37857,170087,111577,68975,106014,240359,131800,119516,109640,83354,86202.7,56,30442,240359,100506
135158,62541,141630,158126,57533,180122,142043,58195,159961,102951,80349,83970.9,56.081,30479,142043,97553.1
86218.2,50695,111459,148157,87179,111375,227605,137145,108763,106779,77309,90518.1,56.113,30506,227605,98129.9
48407.4,32441,97790.7,84429.8,60791,91019.9,218464,158800,90158.9,110240,84763,85233.9,56.118,30510,218464,101938
50474.7,26116,126662,92327.5,68329,88553.6,182448,126483,94534,96820.8,61696,102847,56.156,30532,182448,89887.8
105566,47715,144993,100064,52092,125888,187610,89067,138044,111137,86360,84338.5,56.433,30698,187610,104008
115520,63596,119044,169907,91193,122104,257042,141981,118646,109823,79409,90636.7,56.628,30794,257042,100056
100369,54749,120144,154473,85511,118389,231142,124844,121336,100987,70103,94408,56.928,30955,231142,92203.6
73058.4,48737,98240.7,103441,70723,95854.1,168245,105035,104976,97509.4,73793,86598.7,57.409,31208,168245,91116.1
75293.1,49275,100140,123212,76581,105442,256305,153649,109322,98926.7,74264,87300.1,57.828,31420,256305,89187.1
99410.4,55641,117089,174915,92387,124078,239647,127975,122723,103590,69637,97489.2,58.004,31526,239647,94483.1
92160.9,53763,112342,153158,93053,107867,262143,181039,94895.6,111853,81304,90160.5,58.096,31580,262143,101892
77960.7,34509,148055,109595,63381,113322,236757,140299,110593,118426,77343,100347,58.248,31649,236757,109429
78864.3,46323,111574,138243,80576,112439,215298,130445,108166,102430,73451,91392.7,58.301,31682,215298,94249.2
56408.4,32573,113492,139118,93900,97095,262143,190290,90282.2,113788,83296,89526.6,58.376,31717,262143,103826
63382.5,34383,120811,66229,50636,85717.3,153693,120626,83501.5,96317.1,76236,82798.6,58.505,31783,153693,90476.8
91269,49972,119695,153766,92458,108993,233547,134990,113384,105512,78603,87971.7,58.816,31958,233547,96637.2
63715.5,43768,95404.4,105918,78265,88691.3,188371,118779,103933,98819,83687,77386,58.836,31971,188371,91660.9
105155,60043,114775,142772,81820,114357,198136,108428,119757,98541.7,68532,94233.7,58.864,31986,198136,91012.5
80192.7,53955,97405.4,144120,81571,115790,204970,122932,109271,98453.3,74079,87099.4,59.135,32131,204970,90664.5
78357.6,53063,96776.4,65279.5,42654,100299,108371,71936,98729.8,95378.7,79644,78483.5,59.248,32194,108371,91260.6
81764.1,54142,98971.1,72906.8,48550,98414.4,112637,72482,101843,108290,69087,102724,59.322,32237,112637,104010
83696.4,56123,97734,81858.8,57258,93693.5,113243,78278,94809.3,102214,82680,81019.4,59.472,32296,113243,97910.6
92733.3,55711,109087,123102,75109,107412,196414,109529,117523,104474,73074,93697.2,59.527,32321,196414,97010.5
93805.2,55447,110874,152141,85682,116369,201615,113163,116761,105269,73976,93258.9,59.528,32323,201615,97607.8
101305,57767,114929,181761,103727,114839,219841,130984,109994,107974,79380,89143.1,59.58,32350,219841,99620
59140.8,36903,105028,96560,64486,98132.2,187258,124605,98488.2,99426.2,73528,88619.3,59.597,32362,187258,92310.4
118217,63839,121359,170096,82159,135681,262143,142450,120602,112300,76888,95719.9,59.632,32376,262143,102339
96745.5,56935,111361,79034,42454,122004,136271,77886,114663,94426.5,74037,83584.4,59.66,32389,136271,89248.2
101959,50651,131922,148625,72882,133644,262143,128563,133629,104127,70304,97064.7,59.705,32419,262143,94165.1
77673.6,50791,100223,98966.7,70067,92566.9,165132,114116,94834.2,105526,71512,96707.4,59.8,32454,165132,99250.8
76258.8,50285,99387.4,152472,89164,112068,259770,141467,120341,102678,65726,102381,59.912,32500,259770,92806.3
118104,62535,123772,161990,89873,118124,262143,154669,111075,115233,82796,91210.9,60.209,32662,262143,105271
125640,57612,142921,184128,82183,146831,262143,121267,141669,107699,71282,99017.8,60.333,32740,262143,97737.9
94566.6,60578,102306,156805,96650,106326,254451,166581,100106,104451,75677,90454,60.349,32749,254451,94781.7
93823.2,55528,110733,192818,121417,104075,247209,135524,119544,110109,75974,94981.1,60.384,32767,247209,100715
87324.3,57462,99594.2,104215,54194,126025,157287,93213,110585,95929.3,79799,78783.2,60.44,32787,157287,89952.4
98168.4,57630,111636,202014,107533,123117,262143,156012,110118,106982,96551,72616.1,60.551,32846,262143,97020.3
52194.6,34066,100412,105449,72092,95859.1,262143,213572,80440.3,99190.3,66977,97056.2,60.636,32888,262143,89228.8
93603.6,55885,109768,152882,93875,106730,247732,151966,106836,100608,70923,92965.8,60.644,32891,247732,91193.7
73656,52420,92085.5,120290,80939,97398.7,176814,125430,92383.6,97132.7,77173,82485.9,60.701,32920,176814,90413.8
136337,60865,146800,165465,75846,142973,228371,103243,144964,99337.9,66478,97930.3,60.985,33065,228371,90659.8
78923.7,54969,94095.6,110422,71947,100583,199167,128689,101428,97038.8,71108,89434.9,61.036,33095,199167,89470.5
86290.2,54412,103931,63038.4,33396,123706,119672,66868,117288,96754.6,79159,80103.4,61.053,33109,119672,92207
74913.3,41622,117955,137186,69968,128496,262143,164926,104167,109026,71248,100285,61.316,33211,262143,99064.1
48393.9,32678,97054.4,131136,87743,97946.5,198793,140093,92996.1,96776.6,69957,90660.8,61.514,33307,198793,89222.5
91867.5,52929,113749,139408,69088,132240,211583,120791,114796,107720,82956,85099.8,61.526,33313,211583,99679.9
46400.4,34782,87427.3,116933,88069,87014.9,138417,92945,97598.4,100067,82853,79151.8,61.605,33343,138417,94806.7
44391.6,29015,100267,108158,72614,97614.9,224745,144920,101635,99049.5,80109,81031,61.611,33348,224745,90509.2
57426.3,41277,91176.4,59232.4,41456,93637.9,124522,85461,95489.7,93223.1,73955,82610.7,61.637,33360,124522,88491.3
122370,68738,116670,157345,86925,118628,262143,117080,146736,101179,77118,85983.2,61.645,33364,262143,91217.4
59382,30860,126107,117590,66980,115055,203238,124124,107307,97476.3,70137,91081.8,61.813,33452,203238,89753.2
114197,62673,119414,124215,62378,130504,167986,86081,127893,101205,66211,100173,61.822,33456,167986,94821.6
77201.1,53157,95179.4,94000.1,66924,92050.5,149275,111720,87565.9,96329.5,71525,88263.6,61.892,33487,149275,90657.1
87420.6,54288,105533,134613,77079,114454,210843,126755,109012,105660,84485,81961.5,62.055,33557,210843,97647.7
68940,47974,94177.1,90348.6,52038,113784,166429,96228,113347,96024.5,73303,85850,62.2,33622,166429,89700.2
113492,53787,138282,176757,109259,106023,262143,179652,95628.2,104756,75516,90911.5,62.289,33678,262143,94794.4
89172.9,54393,107441,163418,101172,105857,262143,161831,106159,109079,82977,86151.9,62.332,33693,262143,99117.9
43448.4,28385,100315,88916.2,58615,99415,234051,153887,99675.4,103646,71864,94519.7,62.45,33755,234051,94752.4
92797.2,55453,109670,124902,76137,107512,255028,145097,115189,109562,78193,91827.6,62.459,33762,255028,99871.3
79693.2,57214,91284.9,112158,67471,108942,131194,83743,102670,93121,73395,83149.8,62.552,33818,131194,88135.7
94798.8,53315,116529,155910,94856,107718,200330,113199,115980,106846,72349,96784.9,62.557,33822,200330,99233.9
50483.7,37865,87376.2,126738,95240,87210.1,162041,115867,91652.7,100031,74034,88548.6,62.655,33875,162041,93873.1
100691,59043,111764,161833,90001,117842,253016,146022,113556,109550,80699,88966,62.897,34006,253016,99935.3
97944.3,58318,110067,163119,99801,107115,226889,141344,105200,102809,74211,90790.7,63.113,34117,226889,94186.9
76321.8,39491,126657,179778,113752,103576,262143,151971,113047,107920,77581,91164.8,63.145,34138,262143,97958.7
117768,65029,118686,192078,104378,120600,262143,149883,114621,104491,71509,95762.9,63.163,34151,262143,94529.4
85861.8,54997,102315,153528,99589,101031,252449,150507,109925,111748,77607,94366.9,63.22,34190,252449,102155
73457.1,49855,96561.7,65021.5,55680,76531,136976,112850,79546.9,104241,71994,94890.4,63.241,34198,136976,99036
85636.8,48079,116731,175602,102755,111997,262143,160512,107031,111859,80435,91139,63.303,34232,262143,101897
93173.4,57983,105310,165285,106083,102110,253020,151712,109299,107875,74931,94349.1,63.34,34252,253020,98259.8
95979.6,59848,105102,141208,87600,105642,194130,120469,105608,102349,81245,82559.5,63.514,34341,194130,94972.1
99540,57396,113657,167641,98021,112083,227940,131341,113737,97095.4,69157,92011.6,63.577,34374,227940,88433.7
79624.8,50214,103921,127373,86352,96668.2,219717,143059,100653,100555,73947,89117.6,63.809,34490,219717,92205.8
85478.4,48548,115389,164932,99476,108659,262143,158397,108460,111732,73976,98984.1,63.842,34507,262143,101770
83092.5,47915,113650,173605,106474,106856,255457,144670,115723,110041,77378,93200.4,64.101,34644,255457,100334
99875.7,51040,128242,190094,87180,142899,262143,137732,124734,102221,70023,95670.5,64.195,34684,262143,92259.3
69535.8,47391,96159.6,153100,93148,107716,256556,151126,111256,110931,82451,88173.5,64.257,34718,256556,101182
97503.3,62555,102150,167463,97242,112861,250633,137083,119821,106582,74690,93518.9,64.374,34793,250633,97057.5
87038.1,48716,117089,171831,106400,105837,262143,155286,110633,105404,69379,99565.9,64.382,34796,262143,95443
89041.5,57213,101995,123502,78280,103396,209622,131039,104837,117562,78590,98034.8,64.387,34801,209622,109597
45744.3,28962,103511,135741,85265,104333,253557,162485,102269,104768,78668,87279.3,64.642,34912,253557,95133
96972.3,62001,102501,121381,72053,110402,170816,100207,111715,107158,78176,89832.3,64.885,35050,170816,100667
56634.3,45367,81812.4,43518.3,37235,76595,73897.6,58709,82490.8,92546.9,76020,79783.7,65.095,35166,73897.6,89738.8
80073,34482,152186,141595,76054,122013,262143,161214,106565,110457,79177,91426.6,65.109,35171,262143,100495
83426.4,50047,109246,176938,102734,112872,262143,175267,98020.8,112035,76216,96336,65.159,35190,262143,102074
84525.3,50301,110126,138479,79239,114531,250197,138026,118796,101469,66531,99951.1,65.173,35201,250197,91961.2
165431,77559,139786,204682,78169,171603,262143,108790,157917,106584,72427,96443.4,65.211,35222,262143,96622.9
77858.1,44513,114630,120090,77654,101350,224743,142299,103506,99609.8,71970,90704.8,65.262,35250,224743,91069.6
52663.5,41911,82349.6,98140.1,75822,84826.4,178397,133459,87603,96627.6,68811,92028.7,65.268,35254,178397,89848.5
88745.4,52119,111591,173538,102749,110687,262143,147520,116457,100777,66985,98597.3,65.372,35310,262143,90815.8
115273,55219,136810,143132,62261,150661,208729,97726,139976,96551.7,73172,86475.9,65.482,35371,208729,88620
95792.4,57284,109592,161308,90903,116294,262143,143228,119947,109848,77092,93381.9,65.648,35469,262143,99886.6
80316.9,53649,98112.7,99270.3,68865,94471.5,163504,112192,95509.3,98574.8,76891,84017.6,65.873,35587,163504,92361.6
70644.6,45498,101758,143630,88926,105852,262143,162529,105703,103376,72859,92985.6,65.947,35626,262143,93414.4
72179.1,43637,108402,133627,85394,102552,216490,134896,105177,101910,73674,90653.3,66.057,35695,216490,93683.6
71930.7,45003,104750,136235,90000,99203.3,252953,156711,105784,107363,82000,85806.3,66.226,35779,252953,97750.4
105600,63184,109531,134136,78711,111684,213122,130783,106796,100550,78417,84033,66.374,35849,213122,92450.9
54531,35972,99347.9,50575.6,34163,97020.9,101616,52574,126670,113255,75052,98895.4,66.404,35867,101616,109394
40179.6,26548,99186.8,90936.5,67667,88072.7,259214,171963,98787.7,106735,78434,89182.8,66.623,35998,259214,96884.6
79644.6,41740,125050,76450.6,40868,122596,94872.2,37954,163818,94984,74984,83016,66.744,36067,94872.2,91378.9
60394.5,42111,93990,101540,68263,97484,150859,98999,99866.5,99048.1,75835,85596.6,66.86,36127,150859,93315.5
49185,33182,97142.7,122309,91118,87970.2,262143,193739,88675,98247.7,70470,91368.9,67.02,36201,262143,88286.3
69110.1,48378,93621.1,51406.4,30994,108697,110814,76375,95087.5,102820,83859,80353.8,67.077,36236,110814,98608.7
96383.7,56782,111243,188468,105314,117282,248208,143193,113599,108427,75023,94715.6,67.156,36292,248208,98994.7
90942.3,57439,103762,160771,102345,102949,262143,174747,98312.4,112273,75495,97462.1,67.498,36495,262143,102311
60284.7,40048,98652.1,64465.3,47415,89102.6,110415,74516,97108.9,96884.3,68074,93272.2,67.589,36541,110415,92688.5
84378.6,53511,103340,118781,65991,117962,187538,108386,113395,97473.5,70674,90387.2,67.622,36564,187538,90347.1
77429.7,50306,100871,116108,77851,97741,178026,112310,103883,94167.1,71556,86244.8,67.648,36577,178026,87402.1
91393.2,53974,110971,131387,71417,120568,227881,131376,113677,98728,70735,91471.5,67.775,36634,227881,90068.5
89807.4,51363,114589,163236,105060,101826,262143,177864,96589.6,105847,82138,84453.2,67.804,36657,262143,95885.9
66921.3,40651,107888,91521.6,64510,92977.2,156394,101948,100536,96330.9,66658,94709.4,67.818,36665,156394,90387.9
92762.1,52172,116523,164335,95765,112461,262143,162122,105968,109008,76893,92907.3,67.824,36668,262143,99046.1
103489,58280,116374,153297,88127,114000,241845,133901,118368,100964,66370,99694.9,67.937,36729,241845,91773.5
99108.9,54724,118690,229592,139084,108183,262143,175213,98051,113217,72750,101990,68.151,36823,262143,103255
70839,41982,110583,168959,98474,112445,262143,167926,102306,109733,85932,83688.2,68.192,36839,262143,99772
43765.2,32666,87803.7,89400.5,63510,92252.5,205511,150711,89365.5,102182,74730,89610.7,68.292,36885,205511,94372.7
101683,52611,126663,202588,103057,128830,262143,161587,106319,103334,73731,91849.1,68.301,36891,262143,93373
56034.9,41507,88474.3,39280.3,32717,78683.1,73468.4,55939,86072.8,95908.6,78580,79988.1,68.32,36904,73468.4,93116.8
131578,64581,133524,135513,62615,141835,198433,87375,148836,99306.2,68462,95061.9,68.45,36972,198433,91765.7
91317.6,57474,104127,104892,68225,100758,173728,118314,96230.8,108424,77193,92050.6,68.558,37038,173728,101822
51281.1,38750,86729.2,50347.9,42469,77694.3,87646.6,68786,83505.5,100385,80163,82068.4,68.579,37046,87646.6,97054.8
92356.2,47342,127850,216338,83913,168960,262143,140201,122537,111725,71015,103105,68.723,37131,262143,101763
109448,55924,128260,129618,65460,129768,170426,86959,128440,103224,70447,96028.1,68.812,37177,170426,96747.8
50498.1,34433,96112.5,121338,78903,100782,221385,153032,94808.2,97327.3,70085,91010.1,68.839,37197,221385,88914.6
114689,59977,125319,111712,60857,120301,262143,141227,121647,107066,73408,95584.6,68.97,37267,262143,97104.5
110092,72117,100045,175110,122139,93958.4,246874,157720,102581,112002,74201,98922.9,68.972,37268,246874,102621
79529.4,54796,95117.1,44420.8,28475,102236,81422.8,49909,106917,91673.4,73862,81339.6,68.985,37273,81422.8,88579.3
60419.7,44615,88751.9,66538.1,46970,92838.8,107974,77725,91041.3,102062,81261,82311.8,69.036,37306,107974,97959
104116,57544,118576,143612,78318,120174,222783,119428,122252,103961,70822,96201.5,69.076,37328,222783,95495.2
93587.4,47608,128830,122376,67718,118432,229319,120079,125156,109554,81750,87825.5,69.357,37486,229319,100840
69260.4,35645,127340,113563,70829,105076,200842,122132,107772,99801.6,71100,91991.5,69.731,37695,200842,92169.6
120709,64293,123043,120638,56982,138748,248481,116932,139265,101158,66379,99873.5,69.748,37708,248481,91715.8
93579.3,49031,125080,162472,79583,133794,207134,107587,126174,95841,63858,98359.4,69.92,37801,207134,87969.9
62838.9,45127,91258.2,106470,76021,91785.2,248556,164523,99009.6,102065,67738,98746.9,70.01,37847,248556,92619.7
74674.8,48872,100137,152537,99743,100224,221059,141841,102138,111679,82907,88279.8,70.048,37856,221059,103279
85098.6,51844,107573,141039,78334,117996,229370,127313,118071,100837,74796,88352.7,70.165,37928,229370,92120.5
63788.4,45197,92493.7,49830.4,40387,80859.8,88129.6,67440,85641.4,95024,65729,94745,70.367,38033,88129.6,91675.1
108016,58660,120678,182927,96005,124872,254537,132206,126177,110255,88915,81265,70.372,38037,254537,100583
83124.9,45922,118629,167079,94257,116169,262143,148211,115914,113120,84871,87349.4,70.406,38052,262143,103159
67711.5,43345,102377,126825,76460,108705,178405,104954,111401,95611.9,70736,88583.2,70.408,38054,178405,88832.5
83999.7,50652,108683,57387.3,33821,111201,78592.4,43445,118555,99362.8,80318,81075.7,70.863,38303,78592.4,96376.2
88636.5,57281,101410,140905,88873,103905,215646,133482,105876,107877,74240,95229.7,70.917,38336,215646,99682.8
87520.5,53396,107419,178453,108265,108023,262143,152994,112291,106566,73566,94934.3,71.026,38389,262143,96604.9
74461.5,42438,114989,170683,100234,111597,258144,152473,110956,112763,86208,85723,71.191,38478,258144,102953
85510.8,49271,113739,194986,125636,101711,262143,162167,105939,102490,68479,98085.2,71.481,38630,262143,92528.4
75573,51125,96875.3,65096,39849,107057,125670,84415,97564.3,94605.9,79268,78216.8,71.506,38638,125670,89830.5
46810.8,29970,102362,101883,66620,100225,216848,148219,95880.6,110016,81650,88304.1,71.531,38658,216848,101776
82432.8,48772,110767,109568,70306,102134,187950,113184,108827,107706,76395,92396.6,71.633,38719,187950,100564
114646,59693,125869,180868,100056,118468,262143,157559,109037,103481,70939,95599.2,71.657,38741,262143,93519.2
72196.2,50077,94483.5,93034.1,54830,111200,122199,76809,104264,98062.8,78616,81747.3,71.706,38762,122199,93419.2
78692.4,54424,94759.4,82881.4,54344,99950.6,131037,85440,100510,104576,79571,86130.9,71.726,38773,131037,99597
61287.3,38804,103508,81639.4,54587,98014.6,179818,123549,95383.7,94981.3,70217,88649.3,71.736,38783,179818,88148.2
60910.2,43618,91517.5,100906,65224,101388,203644,132200,100953,99023.3,76298,85055.8,71.813,38829,203644,91284.8
93846.6,56157,109520,171814,106887,105345,262143,153380,112008,102872,70529,95589.4,71.819,38833,262143,92910.7
43902.9,29904,96215.2,101429,69027,96298.9,231310,151617,99983.1,96732.5,72049,87988.2,71.901,38889,231310,87942.7
137984,55675,162424,171108,61304,182920,236876,91176,170263,99560.1,74322,87790.6,72.045,38968,236876,90558.8
92610.9,53120,114257,177280,108827,106759,262143,151399,113474,111069,73621,98871.8,72.108,39014,262143,101108
94072.5,57521,107181,179603,102957,114324,262143,158259,108555,105141,81139,84922.3,72.119,39022,262143,95179.4
99049.5,52444,123776,114000,77612,96262.6,187103,115658,106019,100656,73924,89234.6,72.286,39092,187103,93545.9
74146.5,48701,99777.5,57414.9,37269,100962,113893,65748,113526,96491,64854,97505.7,72.357,39124,113893,92163.1
71937.9,45860,102802,168924,99362,111417,250997,129593,126931,100817,68306,96728.9,72.378,39135,250997,91279.4
92583.9,52404,115785,192971,118229,106966,262143,203555,84398.8,106542,71400,97791.4,72.72,39338,262143,96580.1
139089,55797,163366,203126,91119,146096,262143,131223,130921,99898.2,66442,98536,72.882,39435,262143,89936.8
94046.4,57007,108117,144086,92838,101713,216776,133862,106129,106762,71852,97377.6,73.026,39524,216776,98524.8
88447.5,39662,146147,173114,102771,110393,262143,160061,107333,115469,81039,93379.2,73.037,39530,262143,105507
54949.5,32081,112252,115226,78531,96158.7,250532,180779,90822.9,97588.1,73965,86467,73.142,39569,250532,88067.9
76092.3,42805,116500,148785,86806,112328,262143,153398,111995,102835,76618,87960.8,73.187,39597,262143,92873.4
106379,58638,118893,178199,95974,121684,262143,154767,111004,110290,76702,94234,73.194,39602,262143,100328
91166.4,58719,101750,159903,91684,114299,240273,147247,106940,102654,90754,74129.4,73.413,39709,240273,93523.7
52974.9,32625,106414,114950,69342,108641,233812,139903,109527,97814.4,78721,81431.4,73.422,39715,233812,88929.5
67846.5,39511,112535,119992,75221,104543,218694,122185,117300,100377,74031,88858.9,73.427,39720,218694,92066.7
96796.8,56975,111341,139334,80909,112860,218770,125255,114465,107376,75578,93109.4,73.507,39782,218770,99063.2
110894,59515,122112,193953,95169,133562,262143,180230,95321.6,109067,72563,98504.9,73.861,39971,262143,99105.5
46755.9,33529,91389.4,112837,85974,86013.1,151444,109938,90278.4,93993.2,64739,95150.3,73.908,40013,151444,88238.3
70083.9,48889,93947.9,60317,38960,101461,103254,63098,107244,96949.1,74966,84753.9,73.913,40017,103254,93025.5
113983,47295,157945,155860,94546,108037,262143,178916,96021.6,115554,85405,88671.2,73.937,40040,262143,105593
83545.2,47542,115166,163900,103541,103740,262143,159722,107561,111917,77177,95035.7,74.127,40138,262143,101955
86294.7,50518,111948,144429,89144,106180,243914,148381,107730,107256,78859,89135.7,74.216,40188,243914,97987.6
84109.5,50830,108444,127727,81104,103210,195190,130272,98194.3,100356,77293,85091.2,74.383,40273,195190,92939.1
62817.3,43321,95030,89170.1,56791,102901,181104,110099,107802,94859.8,67444,92176.2,74.478,40320,181104,87977.9
103849,58417,116505,171758,97030,116008,262143,167399,102628,106780,75638,92519,74.482,40323,262143,96818.8
85286.7,49469,112987,145531,94329,101109,211355,131651,105213,98014.5,74715,85973.1,74.556,40384,211355,89983
83412,48890,111812,128412,77327,108831,196268,111362,115503,97795.1,68532,93519.8,74.607,40416,196268,90336.9
84501,51607,107308,127798,79324,105584,217568,133729,106623,99869.2,72250,90588.6,74.791,40526,217568,91601.6
94595.4,56763,109216,152567,97912,102119,235911,148862,103859,112593,73052,101009,74.82,40546,235911,103628
107950,55744,126913,132694,49512,175639,101702,46489,143370,98367.8,80734,79850.3,75.071,40692,101702,94503.1
41760,26752,102302,105951,76053,91299.5,229666,154376,97498.5,102250,88186,75987.5,75.1,40700,229666,93522.4
102380,51785,129565,174970,97115,118075,262143,161697,106247,106791,71288,98174.6,75.147,40731,262143,96829.9
60011.1,36948,106444,138518,89420,101520,242472,153006,103856,104614,80814,84836.3,75.161,40741,242472,95399.7
58231.8,36509,104530,126500,79806,103881,202243,134802,98323.5,97354.9,75884,84079,75.364,40855,202243,89669.6
79304.4,65764,79029.5,149217,109044,89680,243486,154670,103169,98418.8,76536,84273.8,75.433,40893,243486,89166.4
46524.6,31340,97289,109849,79114,90996.4,240559,172459,91414.6,104074,67628,100855,75.436,40898,240559,94932.8
86365.8,56549,100091,114679,63789,117820,182896,97142,123389,104941,80510,85422.9,75.499,40938,182896,97990.7
90799.2,55086,108024,171355,102201,109880,262143,145808,117825,102709,71312,94390.2,75.547,40959,262143,92747.8
90291.6,59584,99311.1,77590.5,51938,97904.6,123796,88450,91725,105093,81546,84459.6,75.699,41062,123796,100388
118094,58431,132453,190251,98063,127146,262143,168977,101669,106162,68923,100945,75.994,41218,262143,96200.6
87799.5,56304,102196,146375,94091,101953,196269,121216,106114,95157.9,66153,94270.4,76.015,41237,196269,87699.7
100591,54466,121036,83790.8,49087,111869,159778,87907,119117,98515.4,72136,89501.9,76.041,41248,159778,92443.9
79368.3,49600,104869,128852,79212,106606,251981,150930,109414,103621,70270,96640.6,76.094,41274,251981,94046.2
129062,58954,143471,167495,103645,105909,262143,164767,104267,112778,78975,93586.6,76.136,41295,262143,102816
94383.9,59053,104746,168571,103163,107088,262143,167783,102393,108018,75386,93904.4,76.241,41357,262143,98056.7
83741.4,50262,109189,132189,79954,108351,220360,133282,108353,104147,74543,91563.2,76.291,41393,220360,95773.5
108769,61818,115310,134884,78079,113216,205559,122146,110290,102483,70735,94950.5,76.311,41403,205559,94671.7
59981.4,36015,109147,122812,73765,109111,190018,120904,102999,102893,74033,91083.5,76.331,41412,190018,95672.1
154375,65256,155038,207217,104892,129468,252768,139779,118511,106017,76455,90876.2,76.53,41523,252768,96411.9
137278,63933,140720,132843,38354,226991,157564,69237,149142,112286,77559,94880.1,76.615,41563,157564,106299
103826,55372,122884,145346,83396,114219,262143,147919,116143,110339,73960,97771.7,76.708,41608,262143,100378
108004,57824,122408,161621,75899,139554,240276,116239,135469,99902.3,69794,93807.5,76.804,41646,240276,90771.9
80952.3,59082,89795.4,212641,135899,102544,262143,200819,85548.7,110546,73915,98014.8,76.954,41717,262143,100585
80256.6,51866,101409,156427,91731,111757,248918,143761,113473,101630,75914,87736.5,77.202,41846,248918,92171.2
74533.5,45449,107475,139115,99609,91528.3,251166,172388,95484.5,101031,76995,85994.9,77.219,41856,251166,91486.9
115238,56491,133689,146301,81664,117407,262143,145532,118048,105228,73272,94117.9,77.54,42048,262143,95266.3
38674.8,24891,101828,91186.3,67652,88334.2,206017,127597,105814,104826,89040,77155.1,77.584,42071,206017,96997.5
77847.3,54099,94304.9,133152,88042,99114.7,206109,131765,102512,97521.8,75033,85178.4,77.613,42085,206109,89689.7
86305.5,45002,125686,67643.5,25519,173717,93478.4,40363,151778,94295.4,70718,87385.7,77.931,42244,93478.4,90743.2
83925,55187,99663.1,138552,76315,118982,201517,118794,111173,110007,78724,91578.2,78.014,42282,201517,102349
48061.8,36854,85466.4,42516.4,32917,84647.9,74427.5,57208,85262.3,90497.6,78155,75885.8,78.034,42295,74427.5,87669.4
87122.7,49787,114682,132121,77537,111672,254919,140696,118741,100057,70830,92578.4,78.219,42390,254919,90370
36837,25658,94089.5,88496.6,66039,87822.6,248041,176611,92042,100210,67406,97430,78.341,42442,248041,90784.5
40271.4,29533,89365.3,49842.8,37586,86907.4,157272,118063,87300.5,93361.1,81283,75274.2,78.369,42460,157272,87384.8
99104.4,48386,134231,142183,86697,107479,221028,126158,114818,100380,70081,93869.8,78.407,42485,221028,91980.8
40435.2,27804,95308.6,117235,87805,87502.1,243001,163891,97170.3,105040,68491,100508,78.48,42526,243001,95806
91640.7,49224,122009,168764,96180,114994,262143,154742,111022,107082,76753,91433,78.556,42567,262143,97121
72338.4,49888,95028.2,107603,70134,100548,195678,125406,102260,99754.7,74397,87873.5,78.672,42627,195678,92318.9
86753.7,53274,106722,140579,83410,110454,257064,148318,113587,109987,82329,87552.8,78.693,42635,257064,100219
105275,48228,143056,171818,107403,104841,248000,150647,107887,111668,84676,86427,78.774,42691,248000,102244
65039.4,42028,101419,125452,85734,95896.6,206518,128346,105452,100425,76895,85590.4,78.82,42714,206518,92577.7
119137,50255,155362,226038,84545,175216,262143,123514,139092,107214,68339,102816,78.896,42775,262143,97252.1
72340.2,52172,90870.3,50973.1,38894,85889.1,86415.6,67042,84474.4,100391,76486,86018.6,78.907,42783,86415.6,97107.1
83277.9,50773,107492,169024,106813,103706,262143,190532,90167.5,106130,73729,94336.8,79.264,42969,262143,96168.8
52467.3,36189,95015,65717,45354,94960.3,126978,96222,86483.6,106441,83188,83854.7,79.302,42984,126978,101616
95153.4,55592,112174,163233,107719,99310.8,262143,163704,104944,114679,74934,100297,79.421,43048,262143,104718
73933.2,52005,93169.6,46824.8,32534,94323.1,78487.5,54428,94505.7,99670.5,82405,79267.1,79.469,43065,78487.5,96688
77137.2,57372,88113.8,149378,81271,120457,262143,166616,103110,98780.4,67784,95504.4,79.61,43142,262143,88819
135412,60261,147266,164072,88331,121731,262143,143309,119879,115517,85276,88776.7,79.669,43164,262143,105556
98340.3,51284,125669,188737,83945,147347,262143,122853,139840,100602,70791,93134,79.798,43252,262143,90640.6
131370,56771,151653,206913,111036,122125,262143,136516,125845,104106,68848,99097.7,80.22,43478,262143,94144.4
78384.6,49733,103292,136656,90294,99185.8,212408,138333,100630,96732.5,70701,89665.8,80.328,43524,212408,88661
46295.1,31969,94904.3,94334,69055,89526.8,195419,146332,87520,102800,75585,89133.1,80.484,43611,195419,95374.4
86052.6,51960,108536,162884,98533,108337,262143,173709,98899.9,106543,76338,91466.8,80.489,43619,262143,96581.5
105242,57107,120775,170965,94401,118689,262143,158973,108067,115190,77749,97095.7,80.505,43631,262143,105229
112841,58374,126686,175696,88350,130327,248973,124827,130714,104019,72117,94526.7,80.635,43715,248973,94557.9
84822.3,54611,101791,132773,87239,99741.9,214128,139251,100775,107962,74603,94840.2,80.783,43794,214128,99824.7
85671,52121,107721,98774.9,67108,96461.1,176542,116403,99394.8,107287,80857,86957.7,80.825,43818,176542,100578
83457,61457,88996.2,66088.2,42986,100757,111762,75036,97612.3,98450.6,63392,101780,80.95,43907,111762,94203.6
59071.5,34347,112712,160810,99059,106390,262143,182854,93953.7,106245,86045,80921.1,81.156,44015,262143,96283.4
98846.1,51929,124747,197079,112021,115298,262143,181081,94873.6,110839,83945,86532.1,81.195,44034,262143,100877
46861.2,31743,96748.8,154470,93736,107999,193934,104867,121198,101881,83947,79537,81.254,44073,193934,94511.8
64195.2,47209,89116.4,134793,84644,104364,212168,140989,98622.2,102982,77211,87410.6,81.33,44117,212168,94920.1
94944.6,52207,119185,155235,96038,105932,223506,131832,111109,105410,72251,95613.1,81.395,44145,223506,96916.7
59972.4,33468,117436,120876,77921,101663,258580,161169,105146,101389,78578,84560.6,81.423,44159,258580,91562.6
81914.4,49876,107634,154347,94065,107535,256020,151752,110566,103315,70515,96020.1,81.652,44262,256020,93586.3
100762,61352,107634,153660,94304,106785,228932,134092,111888,105288,74639,92447.4,81.655,44265,228932,96589
93751.2,54601,112527,152243,104245,95711,257122,162704,103567,101818,70758,94303.5,81.666,44271,257122,92047.2
117761,55296,139569,146617,79066,121527,219427,120476,119363,101148,64548,102697,81.705,44301,219427,92810.3
106220,52920,131542,136271,89684,99579,258935,163092,104049,106852,78035,89737.4,81.746,44324,258935,97012.5
103036,58585,115262,149026,77061,126738,262143,155684,110350,105643,88797,77969.2,81.872,44391,262143,95681.7
109131,56999,125476,123292,66747,121055,193297,99831,126893,104781,77599,88492.2,81.928,44418,193297,97435.4
68975.1,44622,101303,110927,76377,95182.1,217896,142415,100271,101161,74566,88910.2,82.065,44505,217896,92880.8
77109.3,47552,106272,135786,80237,110908,254382,157437,105891,98256,72853,88387.6,82.188,44555,254382,88589.5
102766,54043,124621,124392,62062,131355,215522,99346,142174,103137,74992,90132.2,82.365,44645,215522,94947.2
86199.3,54507,103641,161757,101717,104219,262143,175684,97788.1,111889,74692,98173.3,82.536,44740,262143,101928
47849.4,34857,89963.5,69955,47789,95933.5,208776,141701,96557.9,102952,79727,84627.2,82.568,44753,208776,95018.6
96263.1,48975,128815,154136,83863,120452,219104,125202,114688,106097,77463,89761.3,82.642,44789,219104,97771.2
74209.5,46995,103487,160796,93673,112497,262143,173873,98806.6,108462,71322,99663.5,82.792,44868,262143,98501
70538.4,41176,112269,140823,90919,101508,239142,156152,100366,107523,78280,90018,82.835,44894,239142,98435.3
47619,34632,90112,139562,89259,102470,262143,212229,80949.4,121037,90676,87479.4,82.875,44918,262143,111076
86457.6,53693,105527,165451,105521,102757,262143,162545,105693,97756.4,68662,93305.8,82.922,44960,262143,87795
61893.9,40591,99930.5,78655.9,54140,95212.2,107698,80850,87298.6,102724,76979,87454.4,82.952,44976,107698,98631.9
59010.3,40588,95281.8,119482,73549,106465,194243,124433,102303,96484.1,70728,89401.4,83.097,45052,194243,89102.8
87214.5,53024,107794,108992,66177,107937,192667,112037,112701,98893.6,74324,87200.5,83.116,45065,192667,91572.2
65986.2,45492,95060,33847.3,22022,100727,79795.7,52710,99212.6,96540.7,70912,89221.7,83.19,45105,79795.7,93508.4
112051,54348,135118,162928,99271,107561,240769,111675,141294,101705,70608,94398.9,83.213,45127,240769,92555.4
99616.5,58363,111860,162093,100943,105237,252195,148792,111080,97357.6,64797,98468,83.335,45179,252195,87774.2
98990.1,51664,125569,144468,80890,117046,217338,130113,109470,108127,80158,88403.2,83.338,45180,217338,99868.3
75151.8,50350,97818.2,105505,71395,96846.9,194592,115706,110217,96605.5,74630,84833.7,83.38,45207,194592,89211
84888,53923,103170,137184,89994,99901.3,211626,135433,102406,96434.4,71556,88321.4,83.521,45266,211626,88392.6
98032.5,63418,101307,108507,68861,103267,166501,105016,103906,102251,75389,88887.4,83.548,45280,166501,95924.1
71878.5,48501,97124.4,65522.4,36076,119029,104345,67329,101566,99763,76891,85030.3,83.635,45318,104345,95797.9
94228.2,53029,116452,144296,88184,107237,232329,127502,119417,100972,70486,93880.9,83.639,45322,232329,92143.4
62547.3,39885,102773,87752.8,55652,103338,198049,120325,107869,100456,73831,89169.4,83.672,45338,198049,92929.8
84127.5,51803,106430,102974,66276,101824,189220,118864,104327,95040.6,66358,93863.3,83.7,45359,189220,87850.2
98383.5,52975,121711,153536,87049,115592,245476,137550,116957,103644,75598,89848.7,83.862,45440,245476,94315.4
144243,59622,158551,176788,74833,154824,262143,119015,144350,101636,65537,101634,83.869,45444,262143,91674.2
136824,56587,158462,161061,85623,123277,262143,152687,112516,116734,89346,85625.5,83.932,45489,262143,106773
92095.2,52300,115402,148187,95978,101186,232789,136772,111544,109815,81531,88271.1,84.315,45722,232789,100969
93753.9,53044,115833,103979,58376,116732,168528,90982,121394,98267,77454,83146.5,84.623,45884,168528,91863
42273.9,26438,104791,124719,83315,98104.5,262143,173459,99042.4,99280,69549,93551.5,84.624,45885,262143,89318.5
84775.5,50768,109436,153913,92036,109597,246646,140724,114865,111801,76883,95300.3,85.329,46273,246646,102428
76952.7,44143,114246,159242,95474,109308,262143,158824,108169,105480,78402,88170.7,85.353,46284,262143,95518.9
51771.6,44491,76260.4,52155.7,39934,85593.2,101326,70943,93603.8,94713.5,67201,92366.9,85.505,46368,101326,90863.1
59938.2,40378,97283.4,79649.5,62494,83526.5,118659,89440,86946.1,95233.8,64824,96279.8,85.528,46384,118659,90724.7
105350,57418,120244,162828,85604,124656,262143,132729,129435,114534,76438,98199,85.6,46411,262143,104573
94070.7,59347,103881,153528,96340,104438,225297,133049,110975,108770,72485,98342.6,85.68,46451,225297,100209
101894,62883,106192,207965,115921,117573,262143,157887,108811,109292,83938,85331.5,85.864,46556,262143,99330.4
92171.7,50543,119513,198066,113416,114450,239391,134756,116423,103548,71424,95012.1,85.883,46566,239391,94451.4
80644.5,49127,107581,146308,99749,96125.4,203743,124457,107286,101753,74870,89067.4,85.919,46580,203743,94010.7
76667.4,43474,115574,117834,71363,108213,181318,104344,113882,100401,73479,89547.3,85.983,46617,181318,93510.4
66459.6,45307,96133,53306.6,37470,93234.7,98906,69190,93682.6,103453,80587,84131.4,85.983,46618,98906,99694.6
70665.3,51975,89102.9,49750.4,35421,92048.2,75153.4,48586,101372,93540.5,75999,80662.5,86.076,46669,75153.4,90684.7
50872.5,30742,108450,132430,89889,96551.9,242287,134595,117972,105926,81994,84664.4,86.196,46718,242287,96719.1
77875.2,49961,102152,134794,87360,101120,242459,155112,102441,112666,79357,93043.8,86.256,46757,242459,103453
84453.3,47090,117535,134565,75884,116215,212552,118984,117073,106231,75444,92279.8,86.32,46795,212552,98154.1
99072.9,53693,120925,122987,79547,101325,204372,119925,111684,96177.7,64787,97289.6,86.806,47026,204372,88411.6
85770,54554,103036,159005,97966,106369,262143,175987,97619.7,109732,80383,89464.2,86.862,47059,262143,99770.6
42399.9,28298,98194.9,109829,73523,97897.7,262143,177087,97013.4,101150,73863,89746.7,86.868,47062,262143,91188.4
38240.1,26835,93389.3,103018,76075,88746.8,223597,159622,91802.3,101609,73664,90397.9,86.932,47086,223597,93112.7
89640,52700,111473,181057,108617,109244,238177,123685,126201,100990,68711,96323.2,87.055,47158,238177,91939.1
99630,63412,102967,151329,88683,111831,206988,121956,111230,106750,81034,86333.7,87.099,47181,206988,98884.4
72824.4,49289,96829.3,62467.1,43504,94102.7,109684,74144,96949.7,98075.2,76230,84316.6,87.119,47196,109684,93907.2
53311.5,34288,101896,127943,82838,101220,232064,148263,102578,102799,73887,91180.2,87.209,47242,232064,93980.5
127373,73220,114006,198737,107229,121463,262143,174432,98490,106921,83346,84073.3,87.325,47302,262143,96959.6
90064.8,58904,100205,150895,103078,95937.4,235763,159219,97042.4,97088.5,70346,90450,87.327,47303,235763,88129.5
82109.7,45229,118975,139928,77163,118843,188264,103977,118661,99615.3,80719,80878,87.382,47325,188264,92461.3
55145.7,30339,119122,134078,87206,100761,226860,141227,105274,99317.2,85147,76442.5,87.449,47369,226860,90696.6
83343.6,52227,104582,121142,74265,106903,202805,126828,104796,97768.9,72579,88281.5,87.488,47396,202805,90062.3
113571,58150,127996,165995,88751,122575,233921,113185,135444,101859,69823,95605.2,87.696,47507,233921,92970.2
61464.6,33114,121645,91271.8,47731,125319,221502,124196,116883,97161.7,72214,88176.6,87.822,47553,221502,88744.6
76906.8,51048,98733.8,154143,98635,102417,236141,149604,103445,106842,77924,89857.1,87.914,47610,236141,97869
133488,49951,175137,172815,62429,181415,200635,71439,184057,99645.7,73908,88358.2,87.969,47646,200635,92021.5
87879.6,53409,107833,76410.6,40378,124019,115204,56792,132941,92784.3,68053,89352.6,88,47673,115204,88406.6
88293.6,41151,140614,118029,72105,107276,141346,90066,102850,93740.6,63665,96495.5,88.03,47693,141346,88369.5
37452.6,27530,89157.1,101175,76785,86352.6,200110,143498,91390.7,98657.6,72162,89598.7,88.143,47745,200110,91053.4
94309.2,57957,106642,147240,89944,107284,254064,152917,108885,97688.8,72393,88435.8,88.197,47775,254064,88034.4
141632,67854,136794,152087,42229,236027,168822,53166,208102,104169,67172,101632,88.244,47798,168822,97754
100713,62194,106124,82961.5,55324,98274.9,144163,87072,108506,92903,65853,92455.8,88.273,47807,144163,87424.8
107786,50016,141232,157145,83704,123036,228778,132949,112774,102875,72224,93348.6,88.422,47877,228778,94181.3
129910,61269,138958,168211,74108,148754,225427,97381,151709,107789,70023,100882,88.425,47880,225427,99222.8
98158.5,50911,126356,148545,82247,118363,202246,118074,112255,107356,78030,90166.1,88.481,47917,202246,99670.4
