"FSC-A","FSC-A","SSC-A","SSC-A","FITC-A","FITC-A","Comp-PE-A","Comp-PE-A"
60102,70544.7,50594.6,46901.4,83384.7,76484.8,41277,41157.1
46175.4,64023.3,26194.5,41953,130011,78560,33788.1,37406.1
64361.7,71769.6,57512.6,54988.4,101356,78012.4,41397.1,44273.3
61427.7,104830,63955.3,94470,103537,142212,41633,42112.4
58482.9,69268.5,57668.3,53957,82339.4,100272,39452.8,41636.7
55564.2,48718.8,40461.5,36572.3,82688.3,73835.4,36416.3,43292.4
69700.5,64611,49949.6,56327,91535.7,101697,40759.1,44367.3
69696.9,63296.1,51334.1,44183.9,76930.9,76368,42412.4,44009.7
66382.2,54857.7,62969.8,41081.4,109454,74904.3,40450.2,42331
80216.1,66122.1,69309.6,53054.9,115310,92850.6,45833.4,41695.1
86747.4,64472.4,79435.7,52758.8,109481,82870.4,42771.3,41951.1
58435.2,59160.6,56154.6,43138.6,81757,77696.8,42210.5,43307.4
66173.4,63419.4,76247.1,40314.2,104934,74531.8,37947.7,44813
69403.5,66471.3,77753.8,50551.5,104774,102999,42181.8,42258.5
84362.4,64655.1,55501.3,45145.8,91078.4,87984.2,42142.7,41867.5
52814.7,65331.9,76986.5,42964.9,192407,76488.9,37293.5,42912.4
69525,64398.6,87728.5,44167.2,98685.8,75960.7,40219.9,42339.2
74877.3,55059.3,85989.6,43819.8,117524,85268.2,38939.3,43741.5
66631.5,58395.6,64911.6,39831.8,116032,80440.7,38562.1,43137.3
63537.3,62047.8,61187.8,40526.8,114129,75763.3,43009.9,44807.5
76675.5,60430.5,74235.7,60244,107913,73415.6,35917.1,43621.5
69289.2,72637.2,49546.6,56243.6,80811.8,82657.7,41123.8,43152.7
62904.6,68472.9,65421.7,46926.4,85447.5,78550.3,35940.8,44758.4
58970.7,64483.2,90322.2,47814.6,89511.8,85275.1,41018,43836.9
63648,66227.4,59803.4,52770,93579,101834,41886.2,43513.6
64300.5,55321.2,75041.9,61949.5,106053,89114.3,43421.6,40228.2
70378.2,53073,71494.6,60932,112147,80155.7,44033.5,40326.3
72522.9,72207,78377.9,63771.8,113933,98626.1,41807.2,45224.8
57005.1,63232.2,39445.4,52938.1,81709.8,77721.9,41084.8,43593.6
45636.3,62236.8,20070.2,46599.8,179239,74950.2,32630.5,44723.1
43794,54405,82410.3,36316.5,98858.2,75474.2,38819.2,43935.8
78013.8,121073,50074.8,88650,111206,125115,41093.6,46469.5
60703.2,61359.3,49807.9,32471.8,90205.4,75778.6,40615,41868.1
62768.7,63792.9,44139.4,47276.7,78416.9,82728.6,39390.2,43167.8
48572.1,61249.5,30792.7,46667.9,86117.4,79862.4,34660.8,38607
61064.1,61321.5,54485.2,35579.8,76707.1,75621.6,37921.3,38961.6
60773.4,62855.1,95087.1,44678.8,121334,75047.5,43380.5,43370.2
60940.8,80401.5,57830.9,73457.3,97380.6,83133.1,40387,38069.2
52965.9,63736.2,61307.3,46199.4,86645.6,78159.7,43469.8,45434.6
73252.8,60856.2,78369.6,46398.2,104528,79164.7,39432.4,45737.8
64585.8,61430.4,53861.1,71762.9,95638.9,102864,39331.6,43891.8
74848.5,59547.6,49093.4,40265.5,78105.5,74868.2,45169.7,41634.1
53956.8,63538.2,34146.7,47232.2,75563.2,78633.7,41371.3,44783.9
79719.3,68539.5,76109.4,75119.8,84061.6,80898,42751.5,42940.7
72849.6,70549.2,76459.7,60762.5,129309,79364.8,42514.9,46737.3
68047.2,66261.6,67442.8,67188.4,105425,87407.4,41743.9,41747.6
70785,69044.4,59498.9,58175.7,99186.2,89452.1,39973.4,36885.1
53910,57634.2,43573.7,70007.4,75628.5,81829.3,35348.6,38589.3
61032.6,69031.8,66297.4,44277.1,103162,81893.2,41988.5,41793.4
62037.9,64879.2,52371,47253.1,78165.3,92935.4,42429,45631.9
60397.2,65905.2,61930.1,61468.6,108018,90162.4,42399.1,44354
55702.8,63716.4,37367.4,46063.2,173968,78621.2,34722.6,43610.1
49584.6,65436.3,63359,64337.5,83792,107275,40933.4,43854.6
60227.1,60507,59200.1,89859.3,87736.8,85223.7,42837.8,43242.4
58181.4,62570.7,51726.1,56061.5,77321.5,88527.7,38401.7,42838.8
58506.3,64220.4,51089.4,48271.9,80194.7,83659.9,37203.3,44570.9
67260.6,61056.9,66065.3,57065.1,95693.2,76937.9,43484.3,46013.5
62898.3,61123.5,58335.5,51727.5,102403,85678.2,43620.1,44169.2
63202.5,67590,56784.3,66398.9,77545.3,89161.5,39092.6,40369.8
60433.2,62724.6,56523,54369.8,86745.7,86495.5,43148.1,45842.1
55940.4,56611.8,56329.8,40752,75136.5,73269.7,43104.7,45343
58453.2,68841,48021.7,47936.9,97240.2,73180.7,42863,43371.9
62607.6,64660.5,81038.4,60776.4,127653,100762,46430.3,44361.2
62842.5,81893.7,66617.1,77894.2,81651.4,121643,36618.2,46885
67130.1,65511.9,56470.1,78646.2,91439.8,105946,40995.8,46042.9
72062.1,69057.9,135907,46502.4,191007,88038.4,28296.6,43739.3
62832.6,62065.8,55555.5,48107.9,85881.1,86534.4,41044.4,42630.2
72535.5,67096.8,69109.4,49923.2,110714,98680.3,37196,42959.9
71150.4,68866.2,64458.5,54950.9,95358.2,75985.7,40415.1,41702.4
61234.2,59797.8,45343.2,35702.1,74049.5,75235.1,40022.4,40756.5
65639.7,51658.2,48538.8,49333.9,77762.2,73522.7,42394.3,36682.9
58255.2,61241.4,42112.8,40633.9,85208.4,78790.8,37951.6,44968.7
70132.5,79405.2,67255.1,103855,100920,172749,42737.7,35842
69557.4,72920.7,54525.5,56827.4,86588.7,78248.7,42796.4,44743.8
66627.9,62576.1,52290.4,53395.5,101770,79298.1,39052.9,43523.6
61901.1,73493.1,47269.7,94931.4,82293.6,84720.5,36611.7,40126.7
63465.3,61895.7,47169.6,47706.2,79979.2,82249.1,38007.6,40238.2
57784.5,64479.6,46046.5,53053.5,87886.9,95285.9,42235,46457.7
73136.7,47040.3,56488.2,88957.2,104023,92005.5,42944.2,40484
66292.2,70923.6,58669.1,52412.7,97231.9,89778.7,43659.9,40435.8
47940.3,55581.3,50794.8,58196.5,92696.3,73717.3,38078.1,43441.5
65321.1,62233.2,48372,46888.9,88445.7,81233,42175.3,42926.9
60522.3,63246.6,62604.2,59326.6,75022.5,88476.3,39653.5,42384.7
53677.8,56207.7,40968.9,39510.8,130814,80052.9,39655.5,45288
60244.2,60538.5,58580.2,43954.6,88178.8,82813.4,46471.7,44175.8
52574.4,63336.6,48391.5,48094,74447,77678.8,36916.1,44480.3
60387.3,66945.6,62904.4,57908.8,85806.1,78878.3,39262.9,43480.2
74955.6,64746,79769.3,39096.5,117014,79185.5,46312.9,40304.4
70871.4,57699,43961.5,41301.1,76764.1,75517.3,39901.3,44849.2
67923.9,60910.2,69021.8,40421.2,102765,79691.5,41358.4,39009.5
66815.1,69594.3,68995.4,49748.1,75966.3,89992.8,44026.3,42205.9
61777.8,69754.5,55117.7,63195,80037.6,73451.8,42581.2,43120.2
68194.8,64322.1,44304.9,57331.9,75306,99408.6,38882.5,46093.7
55613.7,66050.1,57712.8,51013,84987.4,84717.7,38337.9,39130.2
58588.2,78343.2,62465.2,57639.1,77139.4,78522.5,41768.5,43074.1
51539.4,74541.6,28570.1,65216,74572.1,83035.8,40598.8,40995.6
65358,65011.5,67156.5,50658.6,111499,75703.6,42635,39094.2
67885.2,59181.3,65473.2,59711.6,90730.9,76873.9,42224,43587.7
45868.5,72529.2,19493.4,51264.6,78398.8,75949.6,40739.6,45436.8
62860.5,70652.7,55031.5,47654.8,80023.7,80859.1,43563.4,45364.5
72630,60073.2,59507.3,43993.5,83893.4,81338.6,41531.8,42599.3
66937.5,60006.6,80273.9,45227.8,120705,76451.4,43294.4,44026.8
55976.4,60255.9,90853.2,44560.6,126161,87754.9,42950.6,42939.5
66340.8,57593.7,61125.2,46980.6,96103.2,78322.3,36218.4,43998.3
52824.6,51825.6,52813.1,61410.2,76149.8,101616,45759.3,33460.8
77981.4,64069.2,55276.1,44847,82896.8,83008,45651,43951.1
67818.6,62237.7,59739.4,51178.4,99728.3,77303.5,44394.8,39626
77382,60484.5,62424.9,42495.1,100857,75160.1,40132.6,42847.5
73663.2,65154.6,69557,49898.2,107168,83798.9,39646.8,44694.3
73730.7,67032,61955.1,61105.8,109593,98403.7,40077.4,47479.3
61735.5,61278.3,60189.8,44634.3,80518.5,74388.6,43089.3,43887.8
53928,60126.3,57166.5,45087.4,103003,84389.7,42063.6,43383.1
75298.5,53730.9,73825.7,90703.1,98717.8,82817.6,41902.6,45480.8
83596.5,62655.3,75942.6,52476.7,130848,91498.1,44212.6,42436.4
68858.1,62754.3,56425.7,40543.5,92731.1,75051.7,40568.2,43792.5
63000,67419.9,52087.5,53495.5,76869.8,89042,43408.7,46901.9
73246.5,70362.9,59062.5,49629.9,75873.1,84552.3,43424.6,43072.8
77776.2,56269.8,79266.1,44314.6,122007,73467.1,40408.6,43757.3
98533.8,66370.5,72656.7,62978.1,107749,100667,40600.4,46877.5
63580.5,54300.6,56589.7,53085.5,79255,104413,43303.9,41439.7
60180.3,66309.3,59775.6,56620.3,106425,86528.9,47002.8,47389.9
61876.8,61976.7,52953.4,41698.6,76459.7,74519.3,40729.2,40015.5
49160.7,58280.4,39552.4,37104.7,74280.2,83202.6,45348.4,45298.4
88392.6,68459.4,80652,52133.3,118413,80870.2,42697,45648.8
64409.4,76313.7,41422,57044.2,74770.9,92068,37945.5,44331.8
61235.1,66254.4,70441,57614.1,153762,88271.9,45834.6,45788.9
58589.1,63566.1,49194.9,37496.6,74784.8,83336.1,43531,42950.8
66006.9,60983.1,60544.2,40045.9,93349.6,77068.5,41779.5,43802.2
66265.2,61406.1,60952.9,50854.5,94101.6,73618.6,42737.9,38123.9
50530.5,57484.8,56671.7,46268.9,74259.4,83718.3,29735.9,44098.9
53529.3,75891.6,43974,74013.3,74116.2,117627,42399.3,45939.9
74272.5,69528.6,55369.3,48038.4,90202.7,88305.3,44175,42681.6
61683.3,64460.7,93089.7,53123,134267,84393.9,45265.5,41709.3
64170.9,59904.9,54592.2,46419.1,94777.1,75379.7,39815.9,45113.5
64229.4,65630.7,61307.3,48854.3,103146,79573.3,40529.9,45770.9
55776.6,63282.6,47008.4,37507.8,80881.3,78175,42626.2,38316.8
77184,66321.9,67620.7,46223.1,126162,73974.4,45584.5,45795.5
57195,62171.1,49627.2,49400.6,86537.2,81672.2,42338.1,43913
59903.1,65071.8,57216.6,45906.1,81658.3,76769.7,33338.7,44328.1
65657.7,76256.1,50647.4,52204.2,94279.5,92496.2,41530,43365.6
53062.2,57239.1,43359.7,38751.8,74445.6,79091,41999.4,43205.6
54016.2,62129.7,44346.6,41346.9,78655.9,77903.9,37063.8,42816.4
70082.1,67660.2,59700.5,57099.8,89969.1,81650,42172.6,47444.9
76951.8,69821.1,78293.1,56417.3,106858,87749.3,42209.7,45236.2
54848.7,68211.9,46692.9,60549.8,86549.7,104228,38441.2,46149.4
62237.7,67239,53816.6,42340.8,84338.2,80361.5,41672.4,44024.8
69642,66534.3,71083.2,56207.4,106945,102682,34435.6,42210
60963.3,66845.7,50137.3,55992,75748,94596.4,40411.9,46998.1
77624.1,56739.6,64537.7,41834.8,87739.6,76569.5,38922,44122.3
82543.5,64878.3,88992,53054.9,135190,89684.2,36474.9,43492.7
59092.2,59926.5,44852.5,39228.6,86164.7,76404.1,43177.1,39863.9
68611.5,59022,93752.7,47478.2,142162,78968.7,42678.5,38961.2
66096.9,60700.5,42328.3,45735.2,74996.1,73410.1,37784.2,40755.6
61201.8,73796.4,53734.6,60492.8,74184.3,82848.2,42054.5,45471.9
66375.9,66609.9,53373.2,57776.7,88173.3,78044.3,41017.6,45511.2
54518.4,54058.5,55233,17963,77742.7,180152,37291.4,34161.2
48867.3,65136.6,38726.8,51368.8,121411,84530.1,38085.4,42858.7
66369.6,68532.3,37498,55522.2,91114.5,89782.9,36727.8,43866
70749,64225.8,103576,60467.8,107063,91719.1,45368.9,45382
64164.6,79364.7,57001.1,64357,93702.7,93035.5,40955.6,42004.7
68589,59832.9,76609.9,46879.1,119222,75143.4,41477.9,45606.3
73613.7,61333.2,73233.5,47722.9,130250,78594.8,43690.9,44299.8
71850.6,64106.1,61627,64051.2,107475,99790.9,47303.3,46566.2
57622.5,65683.8,52686.6,51991.6,77520.3,104335,43180.7,45333.8
65226.6,61905.6,46573.3,42734.2,76658.5,83835.1,42298.7,41666.1
59688.9,82035.9,47453.2,46458,78932.5,93844.5,43643.6,45654.7
67270.5,59082.3,50298.5,42606.3,73797.9,75472.8,40947,44120.8
76059,64368.9,98969.4,36203.9,125363,77470.3,45372.8,44708.6
67446,54441,53324.6,36387.4,80007,73187.7,44177.5,45010.3
59582.7,55764.9,69740.5,40827.1,109451,79035.4,43823.9,43285.5
79875,74201.4,87239.2,41993.3,149080,80834.1,42541.5,34924.4
54459,59464.8,60548.4,78250,98232.7,89343.6,42734.7,42164.1
55431.9,59553,46099.3,54183.6,82132.3,89851,43111.6,38952.3
76329.9,51286.5,70739.9,15851.6,91307.7,183116,42318.9,35216
61939.8,70724.7,62757.1,57904.6,108570,86218.9,42284.2,46836.4
59851.8,64187.1,42249.1,49881.5,78514.1,79428.8,36612.5,41894.8
80688.6,55083.6,67656.9,51862.3,90658.6,80772.9,41901.9,44323.2
71952.3,65811.6,74805.6,44470.3,126451,77129.7,37674.2,45308
63189.9,70328.7,40796.5,56717.6,73874.3,85542,42347.6,43390.9
57024,52465.5,52386.3,33480.9,73460.1,77463.3,43923.1,42298.8
59206.5,67982.4,44880.3,47647.8,73827.1,90427.8,40286.4,46254.4
63861.3,60084,59956.3,64703.1,76875.3,85151.4,37218.7,38495.9
64331.1,106366,51638.5,73397.6,95986.4,84071.4,42450,37934.6
68517.9,58515.3,55529.1,44796.9,78569.8,82750.9,39311.2,44634.2
56520,66566.7,48006.4,50188.7,143098,78422.4,35121.4,45184.8
67375.8,59674.5,68137.8,40426.8,100486,75076.7,26906.1,41201.3
71438.4,78943.5,42574.3,78560,81205.2,137568,40662.9,42335
59743.8,59305.5,77238.1,42182.3,108651,73831.2,41243.7,40432.1
60222.6,64135.8,46709.6,44678.8,75345,88151,43768.7,45419.8
61210.8,65292.3,37277,48631.9,77555,86196.7,43312,43360
62457.3,59618.7,61002.9,41477.6,91402.2,75707.7,41766.8,44590
80556.3,73036.8,81916.9,50201.2,115132,80722.9,41149,44729.4
57662.1,61319.7,63208.9,40125.1,116160,78247.3,44636.8,39338.2
73088.1,50427,86915.3,49454.8,139167,80076.5,41368.6,34874
69172.2,65658.6,51766.4,54613.1,91196.5,75014.1,41491.8,44913.7
64089.9,83574,53652.6,37421.6,82492.3,73262.7,43231.1,40253.2
58694.4,97885.8,38377.9,57090.1,74919.6,74201,42281.4,42445.5
61373.7,60327.9,76334.6,49157.3,115637,75684.1,39606.8,44317.6
69770.7,73556.1,62440.2,42311.6,95422.1,91332.7,43964,39570.8
63879.3,69362.1,51296.6,53317.6,90514,77645.4,44385,43980.5
59992.2,72818.1,68222.6,53458,149891,85197.3,39290.1,45954.6
64063.8,55008.9,65281.3,80832.7,108202,84822,41769.1,38193.8
44089.2,69091.2,13904.2,44107.5,108515,77332.6,37415.7,42735
59715.9,76521.6,44808,70919.2,76227.6,110130,41806.9,43392.7
63383.4,56598.3,55241.4,37666.2,84758,78594.8,42883.5,43907.8
60778.8,59936.4,54497.7,40768.7,102593,75390.8,42216.9,45392.2
57570.3,45217.8,62487.4,10967.1,80114,85215.3,42333.2,39428.8
58199.4,74609.1,60542.8,55189.9,88024.5,73910.5,44219.7,45073.9
73007.1,59202.9,76316.6,44122.8,128999,77182.5,42381.2,38951
73619.1,68570.1,54953.6,60794.4,75702.2,103276,46676.7,43593.8
56822.4,60829.2,66442,60825,85642.1,74994.7,41395.6,42747.9
60832.8,67009.5,56004.5,57133.2,79819.4,78301.5,43862.4,46026.3
54605.7,66819.6,47550.5,42674.4,85472.5,81492.9,42473.6,43276.3
56030.4,62851.5,63810.7,57347.2,73950.8,80389.3,42616.7,41685.1
71076.6,72753.3,41113.4,50038.6,116877,78101.3,39921.9,43810.5
56990.7,55477.8,65908.2,40704.8,93556.7,75932.9,33796.4,37735.8
52874.1,62727.3,44288.2,50860.1,88305.3,84808.1,38633.9,43227.9
48206.7,67742.1,27036.9,52735.2,145671,81206.6,36675.8,44757.8
49117.5,69091.2,17401.4,45572.5,76729.4,85119.4,39772.8,39056.6
65804.4,58121.1,49707.8,65783.1,84363.3,102280,40483.8,45851.7
56920.5,60309,51360.5,53394.1,89157.4,80868.8,36604.5,41187
63312.3,67775.4,61154.4,46252.2,85877,81251.1,43848.3,43231.6
54169.2,50665.5,15969.7,21665.9,100176,79836,42928.4,42606.2
71988.3,54133.2,74127.3,42570.1,115655,76740.5,46957.4,42552.1
72473.4,59660.1,55495.8,35080.8,94126.6,73981.4,43694,44653.9
76977,75544.2,62035.7,46745.7,95034.3,81031.4,43985.2,46311.5
84117.6,59922.9,108024,40622.8,168592,78414.1,42163,44451.4
75061.8,90411.3,75200.4,138304,116668,130821,42249.2,42043.1
68885.1,75606.3,75438.1,67125.9,146528,101877,41683.6,46038
83192.4,66859.2,79011.8,55292.8,147500,94806.3,45026.1,44866.7
53600.4,68266.8,49390.9,38090.2,90985.2,73761.7,41174.1,40966
66452.4,66531.6,59072.2,46346.8,83965.7,78505.8,42308.5,41230.6
54109.8,74578.5,64350.1,85464.1,121421,149620,42411.8,44419.3
67508.1,66821.4,62113.5,45703.2,90144.3,77150.6,36978.4,40523.7
51210,66616.2,45298.7,39246.6,76156.7,80902.2,41297,44579.3
61588.8,65548.8,67709.7,48392.8,94329.6,94126.6,42622.3,44541.9
75154.5,63757.8,64530.8,57632.2,85337.7,102451,40804.2,46105.2
57469.5,67950,47239.1,47454.6,74228.8,78853.3,37601,44178.1
52359.3,68984.1,28054.4,53330.1,83778.1,99817.3,41602.9,47155.4
68632.2,61825.5,66455.9,43008,99187.6,76751.6,44136.4,45694.2
51129.9,57272.4,45729.6,34929.3,76518.1,76836.4,46014.5,44210
60230.7,65500.2,49357.5,48014.8,98471.8,83441.7,35312.6,44669.2
57668.4,62164.8,45929.8,52453,77431.3,79470.5,43266.8,43075.1
75396.6,66697.2,71842.1,61697.9,89007.3,106032,41538.6,41489.4
73778.4,57430.8,94318.4,41713.9,111570,77375.7,38430,43633.1
67958.1,67248,45419.6,59251.5,92746.4,95818.3,42215.8,43451.5
62497.8,70216.2,39252.2,53708.2,77245.1,90159.6,43542.5,42982.3
55132.2,64223.1,55201.1,46976.4,76010.8,75842.6,42641.9,41790.5
54917.1,59483.7,50815.6,50725.3,81841.8,90990.8,42402.6,45709.3
65541.6,63429.3,54532.5,48448.4,76408.3,77563.4,43869.6,42471.9
66582.9,60170.4,67394.1,56838.5,107992,92223.7,42024,43679.9
58322.7,64521.9,44418.8,62347.1,86983.4,78162.5,43326.5,45316.2
72404.1,73800.9,63719,49187.9,84820.6,83537.6,41078.2,44442.3
63609.3,66385.8,13181.4,55427.6,232871,83698.9,40916,45865.4
76633.2,67542.3,63794.1,60182.8,94464.4,84712.2,40933.4,46305.7
59115.6,58541.4,51271.5,61571.4,73640.8,87599.2,43943.9,43377.3
68225.4,63789.3,51530.1,51734.4,83792,81217.7,42248.4,43860.5
61753.5,66792.6,49547.9,56998.3,76983.8,89888.5,42172.9,42241.5
65774.7,71358.3,51520.3,55826.6,85493.3,91773.4,42269.4,46176.5
60573.6,78088.5,45800.5,57904.6,79498.3,90872.6,40333.7,36564.9
55149.3,59105.7,41251,30748.2,74978,74016.1,43227.1,43498.1
72860.4,56382.3,67346.9,44916.5,89221.3,80817.4,42841.7,43946.5
52114.5,60735.6,52015.2,49317.2,76269.3,75914.9,41816.8,37421.4
77582.7,70763.4,70101.9,61436.6,82731.4,82486.8,43773.6,45278.9
60382.8,75655.8,90747.5,64090.1,146131,86428.8,45938,43119.1
67982.4,47720.7,65726.1,63022.6,84010.2,80822.9,38819.6,32699.7
50115.6,99700.2,16545.2,65571.9,94902.2,112076,40087.5,44247.8
58326.3,61152.3,75962.1,43320.7,123529,80052.9,39915.3,39443.1
68370.3,55795.5,81533.2,40107.1,122028,75964.9,42682.8,45163.4
56204.1,42894.9,42656.3,55572.2,73980,73590.8,40857.9,35716.8
70762.5,60048,59974.3,54458.8,74876.5,78106.9,41326.3,42694
59218.2,60586.2,64112.4,68827.2,99624.1,76096.9,43561.7,43508
66204,66191.4,102917,45177.8,103188,78073.5,42656.8,43923.4
63475.2,68400.9,47900.8,67709.7,74176,95322,42462.3,42000.6
54918,62464.5,33152.9,50726.7,73528.2,87406,39440.3,45151.8
48602.7,80250.3,38006.8,36456.9,138249,75898.2,34784,41171.3
66618,55547.1,55511,53658.2,81246.9,73624.1,44542.6,35711.9
61163.1,66611.7,48017.6,52508.6,73975.8,80344.8,41892.3,47293.7
47527.2,59877,18042.2,42089.2,116160,73845.1,39806.5,45536.7
56763,64605.6,45535,48106.5,95323.4,93663.8,42015.8,44969.5
67757.4,76073.4,67623.5,60641.5,100175,101570,42362.7,44961.7
62824.5,67164.3,50124.8,51197.9,76317.9,89207.4,42437.9,41440
77487.3,61365.6,60349.6,49265.8,80290.6,78061,36217.4,43550.3
67665.6,72899.1,70723.2,57142.9,104011,81194.1,38964,44203.9
67938.3,64400.4,48312.2,43893.4,83234.6,84306.3,41080.6,43702.4
56866.5,65148.3,79622,47134.9,94169.7,89744,30782.4,44509.2
54317.7,60480,57860.1,39065.9,92179.2,78831.1,42269.1,43023
68770.8,59384.7,51841.4,35964.9,88855.8,74609.6,45376.1,43163.8
62433,45385.2,48797.3,60184.2,78123.6,77468.9,39911.6,43687.1
55937.7,60023.7,39805.4,44409.1,75895.4,85234.8,43195.3,44740.2
63735.3,64897.2,50323.6,47032,93473.3,80405.9,41966.4,44972.8
52021.8,70637.4,63858,54592.2,83315.2,94393.5,39204.6,43678.9
58967.1,65718.9,44816.4,55424.9,95070.4,87625.6,37508.4,42233.1
53717.4,69174.9,29698.7,50429.2,140141,80517.1,33810.5,43620.4
48174.3,87483.6,21411.6,59874.2,78952,93681.8,42219,43916.2
66849.3,63379.8,69754.4,58644.1,84887.3,83672.4,39100.2,43252.4
68260.5,99624.6,86096.6,75231,140287,76922.6,39444.8,37777.3
55935,60894,43509.8,36821.1,83021.9,74135.6,45206.8,41508.5
61651.8,65767.5,50265.2,45808.8,89289.4,80241.9,43191.9,42893.8
64459.8,115760,43648.8,53590.1,85664.3,79968.1,42623,46904.3
73831.5,53470.8,62754.3,83413.9,87561.7,74961.3,38450.7,40352.3
70074,39966.3,72756.8,13139.7,114262,80600.5,43393.6,36358
63877.5,65678.4,60276,44813.6,106266,84745.5,43715.6,45546.1
62750.7,60334.2,68090.5,43436.1,111042,81509.6,41244.2,44087.1
64828.8,72788.4,53520.6,50811.4,91524.5,74031.4,42650.2,43488.8
66155.4,50274.9,48987.8,13934.8,79043.7,146285,43902.2,39163.3
69833.7,61193.7,65374.5,46410.7,98993,75119.8,42953.1,43083.5
59849.1,57929.4,47625.6,47162.7,88730.6,77848.3,45003,44056.9
63648,67087.8,61903.6,44063,87457.4,79021.5,47233.6,43471.3
54893.7,64141.2,47925.8,54467.1,78138.9,90112.3,41808,45110.5
44951.4,62724.6,18081.1,64187.4,79727.6,79444.1,38519.4,42285.8
85728.6,73809.9,71796.3,60573.4,94675.7,105532,42329.8,44907.9
54069.3,72592.2,49673,49432.6,76551.5,96870.5,41918.9,43536.4
59757.3,59969.7,87097.4,55273.3,120403,88540.2,40926.5,46933
59680.8,54389.7,57187.4,62555.6,85262.6,89567.4,38949.1,42240.6
69666.3,64399.5,53809.7,47531.1,92401.6,89663.3,42670.9,43998.5
59494.5,45331.2,65754,51496.7,96478.5,73682.5,42578,43428.4
63334.8,79667.1,56848.2,60305.1,112076,96574.4,44340.9,43564.5
56508.3,69916.5,70983.1,66069.5,103290,100970,39143.6,43179.4
45727.2,63895.5,22627.8,57067.8,76714.1,90775.3,41548.8,46138.3
52002,64875.6,51632.9,52871.4,79314.8,97009.5,44198.1,38372.3
54635.4,75255.3,60513.6,66727,97943.6,98140.9,43079.3,47299.6
53822.7,61244.1,40451.8,59650.5,74869.6,86408,43150.5,43580.4
46582.2,63674.1,61710.4,52940.9,101925,96256.1,42275.1,46895.2
66037.5,65627.1,44278.4,47804.9,81515.2,85262.6,38807.5,43951.7
81432.9,79219.8,112001,24829.6,120778,144297,46347.8,40701.6
63798.3,66838.5,47920.2,58998.6,79121.6,83430.6,42963.3,44986.8
53843.4,64158.3,44784.4,45350.1,74231.6,79478.8,42977.3,46499.5
70499.7,60067.8,61429.7,46154.9,94076.6,75107.3,43599.8,43462.4
66737.7,63427.5,70763.5,45565.6,141865,79767.9,46784.9,42800.9
58048.2,67467.6,53142.5,53648.4,79945.9,81262.2,42561.9,44402.7
62414.1,67308.3,58099.2,54139.1,95523.6,76541.7,45571.5,44755.1
57928.5,57681.9,54577,61627,91810.9,85244.5,39071.3,43157.7
56164.5,87778.8,47472.7,81673.6,74056.4,104429,41545.4,37227
67995.9,65975.4,65281.3,46052.1,103052,81155.1,42758.4,43501.6
63803.7,72127.8,50715.5,65252.2,78854.7,87931.4,39431.2,41708.2
60005.7,62192.7,61179.5,47807.7,98655.2,73759,43076.9,42739.8
62105.4,72271.8,46220.3,56474.3,76771.1,98762.3,38968.2,45491.6
59405.4,65800.8,79747.1,42485.3,113267,78354.3,42020.8,43268
76256.1,65560.5,76242.9,53697.1,88173.3,74056.4,38195.9,46003.1
50796,63702.9,40941.1,56211.6,74481.8,86556.7,36242.6,39303.9
85640.4,63383.4,59236.2,44799.7,90052.5,84406.4,41254.2,42208.9
57212.1,57122.1,49588.2,38851.9,73934.1,83482,38118.3,41942.3
68976,70632,84591.2,61175.3,129722,106484,42353.1,41446.1
54599.4,70538.4,42688.3,53520.6,74716.7,98696.9,38607.7,44847.9
59380.2,86386.5,64860.2,77995.7,73781.2,105922,44120,47699.8
64369.8,56600.1,49931.6,50735,79496.9,81670.8,39017.4,43598.9
48081.6,74319.3,58666.3,63592.5,86705.4,103547,42559.8,43168.4
64820.7,64473.3,66211.3,45154.1,102813,87062.6,38596.3,43323
65563.2,69507.9,46870.8,57673.9,89149,83183.2,41122.5,44872.9
65769.3,64953,42856.5,48270.5,81334.5,83042.8,39930.7,44621.7
54142.2,72760.5,52608.7,68318.5,83468.1,99585.2,46813.8,44735.9
63405.9,62049.6,41623.6,50188.7,75800.9,75440.9,43470.8,47076.5
65933.1,61299,61788.3,50438.9,101861,88729.3,42924,45450.6
81094.5,61864.2,87978.7,42288,130443,78882.5,47573.7,42223.3
60797.7,54818.1,51598.2,69046.9,84210.4,103757,43747.3,43031.6
67055.4,64585.8,69238.7,42306,104395,75696.6,43178.3,45081.3
76523.4,72217.8,65327.2,49610.5,93023,86241.2,38662.5,43625.5
69041.7,58365.9,63457.7,38466.9,126868,73920.2,43429.3,43077.3
64688.4,69363.9,65457.9,56017,100451,82349.2,42330.3,40583.7
62946,71225.1,61166.9,45168.1,125322,82258.8,42955.3,41002.1
49826.7,83484.9,17598.8,55063.5,76829.5,89725.9,42898.3,42906.3
59016.6,61928.1,50897.6,43704.4,84834.5,74972.4,43370.8,40361.3
61865.1,56871,42447.8,53613.7,82618.8,76633.5,42430.9,44560.4
83410.2,59369.4,37791.3,40510.2,86419.1,73497.6,42324.6,43783.2
63113.4,55435.5,47493.5,48330.3,79342.6,78864.4,43010.7,43879.9
69766.2,71181,62180.3,55269.2,86218.9,85964.5,42918,42156.8
60906.6,66816,47984.2,55145.5,87631.2,92234.8,43101.5,38596
77560.2,67672.8,77246.5,43398.6,122911,79284.2,37393.3,40757
41881.5,65162.7,38535,55645.9,80843.8,77207.5,42912.1,42792.8
59663.7,67371.3,45464.1,67330.2,74455.4,86417.7,36313.7,42053.6
56736,74254.5,63144.9,75004.4,73196,98015.9,42293.7,43345.9
57925.8,57313.8,67508.1,36630.7,116008,75728.6,42265.1,45097.4
70972.2,76386.6,78993.7,83451.4,102532,100530,42804.5,41471.9
60514.2,50811.3,58018.6,80265.5,101373,85997.9,41558.7,42170
67091.4,54547.2,53477.5,25691.4,95191.4,143176,35720.3,31295.5
56051.1,57385.8,61271.2,53716.6,75082.2,73711.7,44103.3,42707.9
58132.8,66353.4,65154.9,60452.5,97710,92562.9,41785.8,43984.2
68563.8,67699.8,51050.5,60188.4,83252.7,90261,41503.4,44980.4
63462.6,57343.5,55455.4,51844.2,83455.6,84139.5,37108.2,36972.6
73876.5,66720.6,68784.1,49047.5,95526.4,79070.1,40532.6,43090.2
67180.5,61224.3,56693.9,42784.2,85575.4,91848.4,42510.3,46096.8
49334.4,61638.3,43372.2,46484.4,74576.3,76573.7,37940.8,44162.4
58083.3,60437.7,50761.4,34979.4,81394.2,78022.1,42160.7,44652.2
52686,88325.1,56696.7,47071,102027,84452.2,41896.2,45091.7
66250.8,69386.4,65391.2,56442.3,96003.1,79327.3,41198,44243.2
69018.3,56048.4,60200.9,22526.3,93749.9,93054.9,39616.9,39976.9
66961.8,70255.8,59081.9,47935.5,86018.8,82593.8,41619.6,37782.9
76537.8,65027.7,67007.7,40626.9,213736,76178.9,37602.9,43122.1
65243.7,56122.2,42930.1,35707.7,92475.3,74513.7,37464.9,44110.8
64249.2,65213.1,73337.8,47456,81070.4,77004.6,42756.3,43663
58866.3,87792.3,68727.2,67088.4,121679,110725,39155.7,45969
74554.2,69917.4,88226.1,51111.7,147576,77562,46309.9,44438.9
57810.6,65916,57769.8,40465.7,77507.8,74416.4,44103.1,45034.2
51882.3,68535.9,26272.4,46965.3,85708.8,84272.9,41180.2,41584.7
77773.5,59013.9,53477.5,47333.7,81474.9,73738.1,40173.6,39463.4
60531.3,66031.2,65138.2,44489.7,107589,81219.1,42479.9,42332.8
75814.2,60917.4,67474.8,40693.6,108000,78220.9,39710.5,37381.3
58813.2,63240.3,30567.5,57429.2,75246.3,83626.6,42479.4,40518.4
61995.6,68986.8,48492.9,48744.5,77466.1,125524,40523.6,43316.7
68662.8,125339,60505.3,91170.1,100890,91514.8,40890.8,41497.1
68728.5,93797.1,48230.2,67519.2,73977.2,94161.4,42458,45753.2
60653.7,67281.3,52478.1,57280.5,96004.5,98103.4,43002.1,42962.3
68262.3,57097.8,54984.2,48580.5,81770.9,81270.5,42272.2,43326.3
76770,78878.7,72563.6,45956.2,99041.7,75800.9,43089,44021.2
52343.1,68109.3,53872.2,42710.5,88563.9,77808,38474.7,45153.4
62431.2,67815,66621.3,43454.2,92347.4,73948,42194.7,45784.7
87367.5,56894.4,83058.1,62272,119430,104137,41774.9,40457.4
58670.1,66083.4,61218.4,54355.9,82609.1,84128.4,42403.7,46504.6
55742.4,64075.5,60449.7,42693.8,94796.6,82456.2,34700.9,44653.9
73012.5,68215.5,65295.2,60669.3,86099.4,84810.9,40299.7,43297.2
59600.7,71271.9,75649.4,59359.9,98324.4,100547,41233.4,45586.7
62961.3,64369.8,103109,42848.1,130955,83394.4,47433.5,47438.3
60193.8,70341.3,61695.1,75603.5,106806,111067,43141.4,37338.1
62002.8,68584.5,74679.1,52440.5,95365.1,74891.8,43412.9,41999.5
58897.8,65775.6,60595.7,41918.2,141136,90814.3,38736.1,47384.1
88884,61886.7,82921.8,38434.9,111392,74641.6,40994.5,43911
63741.6,66796.2,68068.3,45404.3,117139,76288.8,41006.5,43137.5
52239.6,60228,77203.4,31265.3,124362,82570.2,31846.2,42724.4
62129.7,67602.6,79736,62341.5,80697.8,91574.6,43036.5,46593.3
51182.1,63977.4,28115.5,84961,93848.6,87785.4,39940.2,41594.9
49228.2,59853.6,77124.1,53303.7,89635.5,84756.6,45997.7,46393.3
56205.9,62970.3,58332.7,57725.3,83412.5,85384.9,32876.9,46212.6
65271.6,56449.8,50013.6,48481.8,87329.5,73775.6,43174.4,38698
64849.5,146957,55501.3,107416,97597.5,87026.5,42300.1,44772.2
68139.9,64163.7,81590.2,48663.9,107900,80481,41359.7,38607.5
64548,64084.5,63017,59517,98015.9,82036.4,43675.3,42501.8
64380.6,64918.8,92383.6,65562.1,140377,106017,42846.1,46266.4
65785.5,68688.9,58801.2,64405.6,101722,101509,41981.9,44280.2
52607.7,63593.1,43915.7,48277.5,89197.7,79213.3,41212.7,42257
60293.7,66288.6,52832.5,64903.3,91655.2,76882.3,33854.5,44549.1
63940.5,65782.8,59461.4,62500,83954.6,90590.5,43917.4,47146.4
65795.4,60826.5,52793.6,47314.2,86858.3,85309.9,43113.3,42842.3
67581,61282.8,58323,46642.8,87185,74773.7,40011.4,45094.1
51410.7,65206.8,30064.3,50358.3,74654.1,96671.7,42734.3,43101.2
62760.6,135634,51259,202303,81483.2,176302,42064.9,40759.2
59633.1,74765.7,67686,52358.5,117088,85600.4,43763.3,43798.7
47060.1,64089.9,21902.2,43431.9,123185,74376.1,38624.5,44405.6
65258.1,61792.2,58913.8,47507.4,79494.1,75670.2,44554,41398.1
68534.1,64774.8,81062,45036,122239,79235.6,42021.9,40622.4
70390.8,65448,57281.9,49789.8,91096.4,74273.3,36848.5,45193.2
90162.9,59229.9,62950.3,43205.4,110082,75649.4,38761.3,43574.7
70568.1,72104.4,61825.8,57052.6,83755.8,95754.3,43797.7,42542.3
67078.8,62754.3,64469.6,41866.8,103979,79897.2,42222.8,42512.1
74793.6,71596.8,112832,48184.3,101174,85407.2,41680.8,43835.7
57387.6,78133.5,47658.9,66510.1,82124,96962.2,42804.9,44248
55826.1,69212.7,31806,63719,119258,95480.5,37718.5,47593.8
52389,58758.3,25772,67456.7,181713,78579.5,35526.7,43590.4
58838.4,64584.9,70416,49973.3,101189,87896.6,44667,43617.4
42713.1,61317.9,19775.5,47984.2,121796,80037.6,34854.8,44311.8
63120.6,66816.9,58204.9,44366,97956.1,88965.6,42220.9,44354.6
49220.1,131227,27358,83679.4,88417.9,112387,40361.7,29846.2
56298.6,67046.4,53193.9,46537.2,84432.8,76694.6,41731.9,42454.9
81516.6,66183.3,68835.6,58963.8,95869.7,84172.8,42872.9,46069.5
60969.6,,42670.2,,73411.5,,37963,,
71263.8,,54932.8,,85172.2,,42205.9,,
56672.1,,55933.6,,116383,,42522.6,,
64797.3,,65734.5,,120578,,40096.9,,
67547.7,,65520.4,,111410,,45925.1,,
69688.8,,75917.6,,132603,,45923.3,,
58707.9,,42696.6,,73868.8,,43680.9,,
67684.5,,51449.5,,93894.5,,41838.9,,
69679.8,,62142.7,,98311.9,,39441.1,,
63197.1,,60356.6,,93383,,42241.7,,
57411.9,,56072.6,,106669,,42006,,
64890,,69639,,86330.1,,42838.8,,
43995.6,,18468.9,,90951.9,,38368.4,,
47112.3,,21532.5,,187825,,32365,,
56825.1,,51742.8,,91539.8,,41326,,
56962.8,,89920.5,,81196.9,,31889.8,,
66573.9,,40169.6,,73731.2,,42385.6,,
60565.5,,42632.7,,73870.2,,36144.3,,
62711.1,,55978.1,,88184.4,,41303.3,,
68955.3,,62840.5,,94753.5,,42249.9,,
57307.5,,37466.1,,78995.1,,39507.2,,
43896.6,,16884.3,,92833.9,,37865.3,,
69633.9,,61305.9,,110770,,41665.5,,
58991.4,,57529.3,,103943,,41260.3,,
65050.2,,59282.1,,77177,,42048.3,,
60732.9,,49698.1,,80515.8,,37644.9,,
65106.9,,70830.2,,111003,,42822.8,,
73152.9,,55178.8,,76513.9,,43088.8,,
81209.7,,83739.2,,125673,,38044.9,,
85554.9,,80385.1,,104802,,42327.4,,
64997.1,,60061.9,,87995.3,,43440.3,,
66175.2,,62857.2,,78785.2,,43826.5,,
57272.4,,109394,,97512.7,,29269.9,,
64391.4,,50413.9,,80917.5,,42457.2,,
56195.1,,38633.7,,73314.2,,42212.7,,
57747.6,,56848.2,,74360.8,,41381.9,,
80151.3,,67665.2,,80943.9,,41035,,
60103.8,,58159,,91064.5,,41591.8,,
63671.4,,62480.5,,78428,,40632.2,,
74428.2,,56938.6,,87639.5,,41573.4,,
66102.3,,66625.5,,102490,,40377.4,,
39591.9,,15360.9,,78402.9,,36523.5,,
53934.3,,52069.4,,190158,,36732.4,,
69558.3,,42151.8,,75179.5,,42782.3,,
68256,,60552.6,,94162.8,,42684,,
76534.2,,68667.4,,102664,,47326.4,,
64155.6,,97247.2,,119122,,47715.4,,
76813.2,,79264.8,,105445,,41664.8,,
83560.5,,70325.7,,94280.9,,41206.1,,
60973.2,,46491.3,,85332.1,,38369.3,,
64572.3,,45188.9,,185109,,38609.1,,
61519.5,,62925.3,,78655.9,,42110.9,,
60480.9,,48245.5,,80218.3,,42343.5,,
50669.1,,76304,,83220.7,,36469.4,,
46930.5,,94928.7,,89112.9,,37727.6,,
65789.1,,53647.1,,88305.3,,41012.2,,
77376.6,,75939.9,,102656,,47542.3,,
52296.3,,33077.8,,81474.9,,42144.6,,
65248.2,,55936.4,,78746.3,,39770.1,,
68647.5,,103034,,121279,,41372.6,,
67877.1,,81039.8,,127841,,41247.9,,
76302.9,,48287.2,,76529.2,,40474.7,,
76230.9,,71184.7,,154732,,46718.3,,
54701.1,,47777.1,,84769.1,,39965.2,,
70180.2,,63107.4,,97382,,42388.5,,
72621.9,,63880.2,,85422.4,,42087.5,,
51664.5,,61279.5,,92911.8,,41962.3,,
71531.1,,83568.2,,113564,,44159.7,,
66245.4,,53159.2,,74584.6,,38699.3,,
57054.6,,53695.7,,86345.4,,38965.3,,
76449.6,,55663.9,,99953.5,,40233.1,,
77139,,91067.2,,123185,,37377.7,,
62512.2,,56908,,94597.8,,42048.2,,
74538.9,,74121.8,,110117,,42880.5,,
56220.3,,41264.9,,74665.2,,44688,,
77016.6,,64211.1,,101106,,41318.1,,
83336.4,,78603.1,,103602,,46495.4,,
64349.1,,95237.2,,104388,,42508.8,,
67678.2,,58897.1,,83917.1,,42746.6,,
70952.4,,58157.6,,94301.8,,43455.2,,
56215.8,,44425.8,,79883.3,,41153.5,,
59515.2,,42667.4,,81725,,42611.4,,
71993.7,,68636.8,,120293,,43458.9,,
53228.7,,87103,,121334,,45507.2,,
67842,,59233.5,,98699.7,,43712.1,,
64525.5,,46676.2,,74697.2,,42574.6,,
50172.3,,29890.6,,94034.9,,32924.4,,
62163.9,,51958.2,,75267.1,,39874.6,,
44635.5,,23389.5,,174952,,35234.2,,
77751,,72451,,104400,,41576.7,,
67876.2,,68319.9,,100680,,39769.6,,
58982.4,,59694.9,,87629.8,,43846.6,,
63656.1,,60034.1,,77182.5,,41985.4,,
65844.9,,64554.4,,111218,,43258.5,,
61533,,69922.6,,114554,,41991.1,,
66844.8,,64469.6,,79530.2,,43495.3,,
60562.8,,36605.6,,79957,,43464.7,,
56495.7,,50044.2,,113043,,41708,,
75096,,63730.1,,73500.4,,40840.4,,
58640.4,,50933.8,,76240.1,,42406.6,,
72279,,60281.5,,79831.9,,41415.3,,
70043.4,,61015.4,,78425.2,,37930.2,,
67643.1,,73194.6,,102813,,43186.1,,
63236.7,,44278.4,,233049,,29404.1,,
63037.8,,51954,,78938.1,,36944.8,,
75782.7,,63606.4,,102399,,42882.3,,
70611.3,,67491.5,,96046.2,,42218.4,,
70941.6,,62748.8,,80777.1,,40796.5,,
66645.9,,48697.3,,80878.5,,42964.2,,
62361,,58506.5,,89200.5,,42918,,
60394.5,,60729.1,,101280,,41307.3,,
49614.3,,28041.9,,133398,,38758.6,,
58594.5,,54703.4,,87607.5,,41735.2,,
40577.4,,22395.7,,131919,,39593.9,,
66864.6,,56685.6,,95883.6,,38140.5,,
80821.8,,52832.5,,96275.6,,39656.3,,
59558.4,,67269,,182853,,38502.9,,
65638.8,,70834.4,,100533,,46788.5,,
99896.4,,65278.6,,75090.6,,45491.4,,
60388.2,,56942.7,,80799.3,,41558.2,,
70891.2,,63671.7,,89970.5,,37859.3,,
62952.3,,52487.8,,75376.9,,42230.8,,
67412.7,,56759.3,,86756.9,,42759.6,,
56711.7,,58723.3,,91606.6,,41061.9,,
79304.4,,71614.2,,82211.5,,41173.2,,
60814.8,,69529.2,,108962,,43741.7,,
77623.2,,69051,,112251,,40774.4,,
40011.3,,13309.2,,120720,,39409.8,,
65091.6,,54600.6,,79961.1,,41450.3,,
60435,,75375.5,,86320.4,,42123.6,,
61131.6,,91395.3,,97035.9,,39638.3,,
59870.7,,71614.2,,77477.2,,42609.3,,
61611.3,,145390,,158495,,31367.4,,
59765.4,,45504.4,,80603.3,,42896.4,,
69880.5,,74003.6,,99158.4,,40802.2,,
61351.2,,52825.6,,89079.5,,41486.9,,
64665.9,,48809.8,,80121,,44270.5,,
58369.5,,49677.2,,79345.4,,44151.8,,
63143.1,,65300.8,,111318,,43930.6,,
45473.4,,15518,,99868.7,,39044.3,,
46086.3,,23853.8,,156652,,36862.3,,
65535.3,,57557.1,,75945.4,,39986.8,,
40192.2,,20351,,81857.1,,33433.4,,
77516.1,,74117.6,,118329,,40367,,
62973,,63037.9,,88128.8,,36457,,
61685.1,,59518.4,,92688,,45704.2,,
56120.4,,49015.6,,85561.4,,38777.7,,
62797.5,,38940.8,,76507,,41412.9,,
65923.2,,61440.8,,96960.8,,35311.7,,
63360.9,,55477.7,,87788.2,,40930.3,,
69768.9,,63859.4,,114208,,39214.4,,
63906.3,,49311.6,,84035.2,,43018.6,,
74980.8,,58606.6,,91389.7,,36901.2,,
57219.3,,52604.6,,86587.3,,41052,,
74659.5,,51306.3,,85750.5,,44738.8,,
71618.4,,64559.9,,103934,,41484.7,,
61647.3,,69074.7,,105921,,43909.4,,
49427.1,,23837.1,,79430.2,,40482.5,,
53214.3,,56805.1,,98213.2,,42940.2,,
62547.3,,74191.2,,96425.7,,36368,,
59580,,56299.2,,107996,,47172.3,,
71287.2,,70926.1,,96420.1,,40131,,
60574.5,,56877.4,,80376.8,,44543.7,,
44541.9,,59430.8,,91342.5,,40431.9,,
61286.4,,55023.1,,90224.9,,40315,,
69337.8,,57689.2,,78579.5,,39713.7,,
62721,,53647.1,,79583.1,,41069.3,,
61359.3,,56411.8,,101919,,42620.1,,
60825.6,,51879,,78056.8,,41112.5,,
40421.7,,12207,,128631,,36516,,
63044.1,,50116.4,,86159.1,,41401.1,,
62048.7,,53876.4,,81345.6,,42526.5,,
63718.2,,44769.1,,84550.9,,35715.6,,
89840.7,,85863.1,,221723,,41152.6,,
78534,,62105.2,,106247,,44303.3,,
47965.5,,65724.8,,99504.5,,44663,,
76368.6,,65887.4,,90833.7,,41002.8,,
73360.8,,53862.5,,73379.5,,42568.7,,
66997.8,,57543.2,,86601.2,,36681,,
65755.8,,62251.1,,73300.3,,42958.6,,
66637.8,,52009.6,,89407.6,,37965.1,,
97400.7,,83659.9,,123468,,39593.9,,
59499.9,,65829,,96249.2,,42685.3,,
69909.3,,51303.5,,83683.6,,40050.6,,
54787.5,,41538.8,,73811.8,,36487,,
67339.8,,64911.6,,96000.4,,42214.3,,
77471.1,,65273,,78988.1,,39846.8,,
62273.7,,52234.8,,76805.8,,35325.6,,
61884,,42579.9,,81993.3,,43442.7,,
75678.3,,65806.8,,105419,,40958.9,,
57402,,75236.5,,107829,,32440.3,,
66634.2,,72485.7,,85487.8,,41797.1,,
59562,,51022.7,,74385.9,,40804.9,,
65840.4,,124220,,164445,,45967.3,,
63657.9,,64412.6,,116823,,39866.9,,
59383.8,,57961.6,,96675.9,,44310.2,,
99247.5,,76904.5,,95099.6,,39915.4,,
67245.3,,56101.8,,75649.4,,40876.7,,
64437.3,,64372.3,,101673,,34976.5,,
65769.3,,48256.6,,95031.5,,41862.9,,
60501.6,,48210.8,,83457,,41261.4,,
67126.5,,54349,,88926.6,,42099.6,,
63486.9,,64653.1,,94499.1,,41627.6,,
57164.4,,42714.7,,77902.5,,38624.2,,
76278.6,,71765.7,,94500.5,,43776.5,,
63466.2,,41608.3,,75748,,38445.1,,
43750.8,,28552,,124398,,39034.4,,
59927.4,,57686.4,,87621.4,,40187.3,,
56952,,48176,,78479.4,,35791.8,,
76857.3,,47365.6,,80261.4,,41713.9,,
67133.7,,44370.2,,79926.4,,43106.6,,
59496.3,,59899.3,,90354.2,,38561.1,,
61274.7,,50411.1,,77008.8,,44131.2,,
69116.4,,67984.9,,124968,,45634.9,,
54264.6,,55116.3,,101606,,43594.5,,
73976.4,,62056.6,,91762.2,,37129.7,,
61747.2,,50262.4,,79310.6,,44785,,
69668.1,,76247.1,,84318.8,,42403.4,,
61263,,44819.2,,75135.1,,43598.3,,
59199.3,,54572.8,,98448.1,,36306.5,,
71974.8,,69237.3,,85490.6,,42326.5,,
61493.4,,79501,,99280.8,,33316.4,,
57505.5,,50590.4,,94636.8,,38641.7,,
61331.4,,93014.6,,123250,,32870.1,,
45085.5,,69272,,81326.1,,32996.5,,
51887.7,,37071.3,,186254,,34935.2,,
59109.3,,43921.2,,77973.4,,42224.1,,
59882.4,,98449.5,,133368,,44309.3,,
61000.2,,65498.2,,120546,,39633.2,,
74219.4,,80728.4,,104005,,42714.6,,
59664.6,,55809.9,,74212.1,,42442,,
70358.4,,59644.9,,84595.4,,35286.1,,
66655.8,,51664.9,,80524.1,,43511.6,,
68025.6,,75468.7,,121300,,46857.6,,
57790.8,,45093,,74416.4,,41157.5,,
79299.9,,74287.2,,106941,,45516.9,,
69195.6,,76409.7,,164479,,45018.7,,
59912.1,,47603.3,,86565,,40565.5,,
66844.8,,55493,,86403.8,,43390.3,,
66782.7,,60444.1,,90473.7,,42415.1,,
57285.9,,47533.8,,81460.9,,34714.5,,
53494.2,,56467.4,,90879.6,,44316.5,,
61694.1,,57669.7,,90158.2,,35379.1,,
54108.9,,61647.9,,84585.7,,42760.7,,
67610.7,,53057.7,,75326.9,,40307.4,,
57146.4,,57408.4,,76324.9,,41857.9,,
64876.5,,86078.5,,97489,,41607.7,,
72108.9,,74276,,113566,,46889.5,,
61027.2,,48562.4,,87546.4,,35181,,
53930.7,,90675.3,,98564.9,,44213.9,,
71732.7,,54798,,81274.7,,39916.3,,
59793.3,,87829.9,,121113,,43541.5,,
59777.1,,52860.3,,84240.9,,43239.4,,
67940.1,,52590.6,,77391,,38714.3,,
69515.1,,110980,,127945,,42138,,
62872.2,,59632.4,,96357.6,,42813.4,,
55858.5,,53692.9,,79166.1,,42621.4,,
54156.6,,59462.8,,77557.8,,45181.4,,
56460.6,,42457.6,,74274.6,,34775.1,,
65277.9,,61337.9,,74301.1,,32953.9,,
66369.6,,65096.5,,126102,,34712.9,,
66973.5,,55176.1,,89909.4,,42661.4,,
81763.2,,75310.2,,104803,,35904.1,,
53640.9,,44143.6,,81388.7,,43031.2,,
53136,,44776.1,,80312.8,,44540.7,,
53622.9,,97215.2,,102763,,39003.9,,
62134.2,,69356.8,,77990.1,,37704.2,,
71798.4,,81928,,120641,,41566.4,,
50634.9,,43918.4,,84478.6,,35453.2,,
63510.3,,48536,,77439.7,,42041.7,,
57945.6,,83658.5,,95183,,34767.3,,
58019.4,,63257.5,,92155.6,,42038.4,,
78235.2,,76708.5,,113994,,43946.8,,
64265.4,,54474.1,,103417,,37758.2,,
66593.7,,50628,,80967.5,,38014.4,,
63351,,51758,,96958.1,,41241.7,,
67340.7,,54560.3,,90963,,41858,,
59742.9,,43861.4,,74447,,42616.5,,
51307.2,,49108.7,,87985.6,,42077.3,,
63616.5,,67756.9,,114850,,40536.8,,
61521.3,,55174.7,,79701.2,,43212.3,,
78065.1,,83509.8,,98566.3,,40376.1,,
65665.8,,71821.3,,102303,,46812.2,,
67919.4,,90511.2,,97578,,40226,,
67372.2,,49785.6,,80233.6,,38018.2,,
66147.3,,65478.7,,103732,,43471,,
48071.7,,38461.3,,82657.7,,40378.3,,
73629,,69722.4,,97947.7,,41413.8,,
62012.7,,57056.7,,95024.6,,33973.7,,
70231.5,,57090.1,,93801.4,,39531.7,,
59771.7,,53524.7,,96835.7,,40847.5,,
58278.6,,62898.9,,110826,,33668.1,,
63427.5,,66860.4,,88269.2,,42230.7,,
60358.5,,70410.5,,106699,,35621.2,,
53321.4,,49771.7,,75236.5,,42852.5,,
66289.5,,59088.9,,94221.1,,43082.1,,
65404.8,,67234.3,,112790,,41447.1,,
70920,,68043.3,,96685.6,,41133.4,,
62867.7,,48676.4,,77377.1,,41602.2,,
70693.2,,63356.2,,99465.6,,37413.8,,
59064.3,,51698.3,,80396.2,,44021.3,,
75391.2,,71498.8,,82486.8,,40241.5,,
63637.2,,62670.9,,86599.8,,42082.6,,
63682.2,,57338.9,,91270.2,,43333.2,,
65160,,62918.3,,87105.7,,43166,,
107133,,68253.2,,73699.2,,47030.2,,
69435.9,,59959,,108362,,46778.5,,
76951.8,,61895.3,,110192,,36990.6,,
61159.5,,46487.2,,74258,,39738.4,,
65411.1,,60636,,75452,,44009.5,,
67103.1,,74816.8,,114922,,40829.8,,
68182.2,,47098.8,,79319,,35364.4,,
64253.7,,55424.9,,81203.8,,38479.3,,
65589.3,,38977,,88491.6,,41088.3,,
69144.3,,63093.5,,93556.7,,42060,,
54634.5,,47864.6,,88263.6,,35910.7,,
64654.2,,42718.9,,81490.1,,40382.5,,
60651,,48943.3,,75126.7,,38054.1,,
71732.7,,39706.7,,73877.1,,42721.3,,
64056.6,,51949.9,,93837.5,,36037.8,,
61422.3,,53944.5,,75093.4,,38919.3,,
66997.8,,48281.6,,81801.5,,40321.5,,
60560.1,,64131.8,,99678.3,,39713.6,,
55444.5,,66800.6,,88479.1,,34386.4,,
69876.9,,81679.2,,93395.5,,42031,,
66953.7,,74893.2,,124317,,41453.8,,
74241,,70500.8,,94002.9,,41865.5,,
44017.2,,46357.9,,78026.3,,38128.7,,
65347.2,,56531.3,,78195.8,,42735.7,,
58964.4,,77924.8,,136577,,41226.1,,
66542.4,,56923.3,,108984,,37489.5,,
62505.9,,50184.6,,86220.3,,41155.4,,
61543.8,,73478.2,,121831,,35551.8,,
73206,,72416.2,,95258.1,,42318.7,,
73741.5,,53191.1,,98854,,40181.7,,
72502.2,,64957.5,,100565,,41781.1,,
73199.7,,69315.1,,89935.8,,38745.5,,
73250.1,,80141.8,,137909,,47718.2,,
55607.4,,51346.6,,144994,,37825.6,,
79906.5,,86787.4,,136873,,39431.3,,
59424.3,,45150,,82042,,42023.3,,
54257.4,,57072,,201358,,33419.2,,
60656.4,,66432.3,,101541,,43062,,
56492.1,,37413.2,,78949.2,,37885.2,,
55881.9,,42514.5,,73528.2,,39381.9,,
53690.4,,44901.2,,74390,,36859.9,,
63212.4,,50383.3,,84517.6,,42834.4,,
69623.1,,71034.6,,95961.4,,31042.5,,
58805.1,,48037,,80378.1,,44342.1,,
62162.1,,46452.4,,81012,,43625.9,,
51343.2,,30588.3,,106125,,40898.5,,
60234.3,,75172.6,,85005.4,,37021.8,,
54521.1,,45957.6,,73811.8,,39004.3,,
69420.6,,63621.7,,139008,,39458.8,,
58335.3,,42471.4,,75157.3,,38914,,
53317.8,,72635.8,,125482,,39343.9,,
59589.9,,49998.3,,87421.3,,39055.7,,
46807.2,,12287.6,,104285,,41465.7,,
52237.8,,52904.8,,76912.9,,41537.9,,
55737,,57972.7,,82614.6,,41356.7,,
51064.2,,52380.8,,91224.3,,43905.9,,
60123.6,,51762.2,,89171.3,,41723,,
76881.6,,84438.3,,113542,,45413.4,,
76431.6,,107760,,149207,,39620.2,,
64773,,59843.7,,103041,,42948.1,,
46946.7,,20505.3,,104888,,40380.3,,
66882.6,,60054.9,,110180,,43514.7,,
61905.6,,57856,,96946.9,,46528.5,,
60163.2,,56258.9,,76209.5,,41901.2,,
64343.7,,55208,,91531.5,,42160.5,,
72428.4,,58630.2,,90616.9,,38800.6,,
70048.8,,86572,,100758,,27484.1,,
114997,,104864,,145230,,46114.8,,
79526.7,,31947.8,,154300,,35106.6,,
64223.1,,67089.7,,104763,,42745.4,,
65898,,60579,,94709,,42445.8,,
64174.5,,52886.7,,85339,,43995.6,,
60388.2,,56575.8,,87153,,43721.9,,
65280.6,,98973.6,,106072,,43888.9,,
63821.7,,49980.2,,74769.5,,42404.7,,
60559.2,,47586.6,,79031.2,,42050.1,,
59350.5,,36194.2,,76479.2,,42386.2,,
66262.5,,100914,,83943.5,,45755.7,,
60765.3,,59803.4,,94488,,43452,,
65963.7,,63842.7,,96643.9,,44148.2,,
62202.6,,53163.3,,84457.8,,38569.5,,
58085.1,,91790,,90106.8,,39484.1,,
69989.4,,65609.4,,96185.2,,42749.1,,
69577.2,,57327.8,,80415.7,,47482.6,,
61941.6,,59711.6,,90901.8,,45296.5,,
70123.5,,52218.1,,81612.5,,38971.1,,
70753.5,,74345.5,,96548,,36687,,
66763.8,,65028.4,,96396.5,,38452,,
76447.8,,78547.5,,100129,,41955.5,,
73578.6,,63869.1,,101441,,43201.6,,
54013.5,,41230.2,,74733.4,,41636.9,,
67063.5,,60494.2,,98667.8,,43619.6,,
54540.9,,48248.3,,103491,,41014.5,,
64077.3,,48078.7,,83630.7,,43569.1,,
47656.8,,56111.5,,84274.3,,41437.3,,
66434.4,,43123.4,,74940.5,,42174.4,,
65026.8,,69370.7,,88277.5,,40460.7,,
73114.2,,54465.8,,176772,,35559.3,,
53062.2,,41424.8,,75160.1,,41521.4,,
56639.7,,30513.3,,159951,,36984.4,,
69959.7,,79720.7,,113740,,47775.3,,
74310.3,,68066.9,,104179,,43964.5,,
61864.2,,59421.1,,100718,,41504.8,,
59936.4,,73797.9,,96169.9,,37754.4,,
59711.4,,52675.4,,81522.1,,42233.4,,
60598.8,,65567.7,,109208,,44422.8,,
59454,,27474.7,,190265,,36040.4,,
68073.3,,67674.9,,116793,,45000.6,,
65326.5,,53439.9,,76586.2,,40054.1,,
62786.7,,34288.5,,213881,,33742.2,,
70948.8,,70600.9,,114397,,41405.9,,
59728.5,,44029.6,,74420.6,,42616.7,,
64451.7,,71604.5,,98045,,37001.5,,
56390.4,,91448.1,,95751.5,,40406,,
69404.4,,63582.8,,87108.5,,38028.4,,
84488.4,,76270.7,,99920.1,,40777.2,,
63162,,63859.4,,85856.1,,42182.9,,
49843.8,,25174.3,,187084,,32790.4,,
60624,,51022.7,,75920.4,,41442.3,,
66517.2,,70163,,92075,,38717.1,,
70186.5,,50728.1,,206511,,28981.1,,
57933,,61111.3,,88483.2,,39210.9,,
47095.2,,63005.9,,82510.4,,42657.3,,
65013.3,,59604.6,,99428.1,,42071.2,,
63592.2,,83152.6,,122879,,46588.7,,
62314.2,,58801.2,,90109.5,,42361.3,,
53349.3,,53118.8,,94337.9,,40994.1,,
53302.5,,55476.3,,112828,,40877.7,,
57885.3,,52551.7,,87283.7,,41644.1,,
54886.5,,60123.1,,80336.4,,43414.8,,
71357.4,,82499.3,,125974,,41722.2,,
77926.5,,73677,,98239.6,,42641.1,,
63245.7,,53856.9,,80111.3,,41770.5,,
55172.7,,49421.4,,80312.8,,43184.1,,
60354,,58720.6,,104011,,39657.6,,
51950.7,,16664.7,,90918.5,,38745.8,,
59552.1,,51589.8,,90419.5,,42264.2,,
63760.5,,55337.3,,85387.7,,41234.8,,
71753.4,,76476.4,,108209,,44238.7,,
76006.8,,68899.5,,77136.7,,44750.2,,
71649,,45850.5,,94535.3,,39502.9,,
65711.7,,59612.9,,110901,,41553.1,,
64454.4,,53556.7,,98321.6,,37020.5,,
78561,,64673.9,,126725,,40832,,
61855.2,,40229.4,,99947.9,,40006.8,,
59112,,61157.2,,78049.9,,39861.9,,
53662.5,,37931.7,,100391,,35769,,
68453.1,,61753.5,,85551.7,,43579.3,,
59305.5,,58931.8,,124487,,41447.5,,
69094.8,,47054.3,,78369.6,,43249,,
60684.3,,51610.7,,95538.9,,41542.3,,
74180.7,,90924.1,,105612,,35331.4,,
78737.4,,81366.4,,120124,,45654.5,,
66828.6,,85733.8,,110864,,41105.1,,
62351.1,,66225.2,,111842,,47168.8,,
109926,,100350,,124960,,45157.3,,
113391,,65349.5,,76167.8,,39385.1,,
54544.5,,62513.9,,84756.6,,42782.1,,
68042.7,,65299.4,,79499.7,,39847.1,,
61471.8,,44331.3,,83212.4,,41380.8,,
57039.3,,43753,,74812.6,,40141.9,,
67244.4,,63314.5,,108268,,44121,,
68399.1,,66361.4,,109076,,42799.1,,
55341,,55673.7,,74695.8,,44601.3,,
57145.5,,53086.9,,81764,,42670.2,,
64006.2,,46712.3,,76746.1,,41238.2,,
65018.7,,51388.3,,83102.5,,42888.8,,
69043.5,,60662.4,,97447.3,,41831.3,,
56410.2,,48822.4,,76975.4,,41229.6,,
71547.3,,58920.7,,84131.1,,42016.1,,
65439,,57227.7,,96934.4,,39924,,
55485.9,,47608.9,,74188.5,,38165.1,,
61810.2,,108591,,143566,,40891.5,,
66823.2,,86274.5,,114925,,40857.4,,
56180.7,,36741.9,,80108.5,,36042.4,,
67748.4,,54194.7,,77648.2,,42013.5,,
67833,,61027.9,,116318,,41207.5,,
59055.3,,42963.5,,85683.8,,40650.7,,
57793.5,,43796.1,,77017.1,,41210.3,,
64542.6,,66348.9,,114090,,41505.5,,
54693,,43188.7,,78347.4,,38990,,
62848.8,,77214.5,,103078,,45585.4,,
64442.7,,55629.2,,79378.7,,43034.9,,
62568,,51838.7,,76814.2,,39827.3,,
61930.8,,59214,,77170,,44535.4,,
48319.2,,46053.5,,86667.9,,43280.8,,
67780.8,,55873.8,,85287.6,,38499.9,,
58145.4,,86873.6,,88167.7,,42167.5,,
69522.3,,56036.5,,97835.1,,44250.8,,
67742.1,,78696.2,,110102,,44644,,
68676.3,,65142.3,,112070,,40092,,
57319.2,,47567.2,,74901.5,,39252.3,,
74270.7,,90165.1,,119312,,41650.2,,
46627.2,,15221.9,,95808.5,,40862.6,,
66834.9,,57929.6,,78150,,35948.4,,
65810.7,,41666.6,,84068.6,,41063.6,,
56616.3,,63346.5,,83684.9,,42566.4,,
74474.1,,74630.5,,122309,,43354.8,,
58427.1,,45592,,100604,,35390.3,,
64953.9,,61855,,110992,,41065.2,,
68897.7,,55305.3,,76465.3,,44598.6,,
58636.8,,37837.2,,83775.3,,42256.4,,
59189.4,,60843.1,,95637.6,,44071.6,,
50942.7,,24715.6,,107270,,38928.7,,
53777.7,,81092.6,,116285,,39408.2,,
78894.9,,73380.9,,127687,,41367.3,,
59068.8,,46812.4,,81266.4,,38449,,
69642.9,,23239.4,,135600,,39645.1,,
63771.3,,44742.7,,76580.7,,43407.2,,
63533.7,,59661.6,,85514.2,,41681.5,,
59801.4,,53073,,75132.3,,42649.1,,
81259.2,,47839.6,,111820,,39705.8,,
65907.9,,68832.8,,105180,,41618.7,,
65403,,82566,,78294.5,,42789.4,,
62604.9,,60597.1,,81265,,33969.1,,
57591,,55577.8,,76468.1,,43355.8,,
64717.2,,63985.9,,79548.3,,44493.6,,
65976.3,,60100.8,,85801.9,,41726.2,,
60376.5,,98956.9,,81821,,42159.3,,
64248.3,,59272.4,,91965.2,,43575.1,,
76430.7,,74387.2,,105985,,41447.9,,
69084,,68107.2,,116672,,47508.7,,
58373.1,,45398.8,,84450.8,,42852.5,,
71964,,56788.4,,85618.4,,39845.8,,
67593.6,,72121.5,,123896,,41869.2,,
72261.9,,60555.3,,83537.6,,41852.7,,
57942.9,,54493.6,,93445.5,,43701.5,,
78146.1,,77423,,126199,,43826.6,,
69118.2,,58509.3,,90427.8,,36368.7,,
64443.6,,63948.3,,93776.4,,43732.4,,
77933.7,,62067.7,,120025,,42128.6,,
60655.5,,54374,,76133.1,,42268.7,,
57823.2,,47671.4,,87336.5,,34411.4,,
61281.9,,54036.2,,78664.3,,40998.4,,
64121.4,,70414.6,,86223.1,,43298.6,,
62052.3,,46334.3,,73973,,43226.9,,
60690.6,,45480.8,,85854.7,,40508.1,,
49993.2,,39353.7,,87978.7,,42314.1,,
61136.1,,57672.5,,98848.5,,34523.3,,
60564.6,,50319.4,,75653.5,,41307.4,,
48193.2,,31548.8,,92982.7,,34467.2,,
56005.2,,51389.7,,98104.8,,43661.4,,
60950.7,,61696.5,,81370.6,,42741.8,,
82467,,77809.4,,95513.9,,47287.3,,
58281.3,,57918.5,,95085.7,,41514.8,,
70013.7,,55498.5,,77284,,41656.6,,
75818.7,,81782,,108110,,42066.7,,
68806.8,,56103.2,,76873.9,,41761.3,,
59202,,41996.1,,73893.8,,42738.4,,
54213.3,,47647.8,,88968.3,,38723.5,,
57920.4,,55588.9,,73508.8,,42628.8,,
62676,,65949.9,,99786.7,,42892.7,,
59915.7,,58318.8,,73487.9,,42113,,
62727.3,,61307.3,,91968,,42054.2,,
63541.8,,49356.1,,84731.6,,40983.6,,
85430.7,,70646.8,,110769,,43918.7,,
72844.2,,60613.7,,86203.6,,41491.4,,
63036,,56535.5,,108556,,41819.4,,
68139,,57058.1,,84866.4,,42088.6,,
77062.5,,74209.3,,120909,,45618.3,,
61695,,50281.9,,75342.2,,37630.7,,
63995.4,,50009.4,,91024.1,,41480.3,,
71379,,71067.9,,112383,,40990,,
64387.8,,42502,,73487.9,,40846.7,,
64091.7,,74624.9,,124108,,43654.7,,
65326.5,,44778.8,,78455.8,,40984.9,,
59345.1,,57732.3,,83960.2,,36459.7,,
102854,,112254,,86687.4,,42310.7,,
68130.9,,56713.4,,88130.2,,41434.5,,
52916.4,,40114,,75850.9,,35065.1,,
62208,,58691.4,,104328,,46066.7,,
55422,,49442.3,,80246.1,,42885.2,,
82653.3,,59487.8,,100002,,39775.5,,
64098,,67737.5,,104816,,42169.5,,
68310.9,,68677.1,,80264.2,,38650.2,,
62761.5,,77019.9,,126015,,46675.1,,
63171.9,,64276.4,,90757.3,,41930.5,,
80972.1,,66094.5,,132883,,46014.4,,
56006.1,,52906.2,,85419.7,,42896.7,,
55588.5,,46890.3,,74971,,43954.5,,
65545.2,,56392.3,,92387.7,,45642.2,,
76532.4,,53565,,74196.8,,42716.8,,
65924.1,,45528.1,,73392,,42677.7,,
48248.1,,59632.4,,73980,,35763.6,,
53039.7,,51142.3,,74114.8,,40919,,
80132.4,,79149.4,,95463.8,,41351,,
56360.7,,86269,,116318,,34991.5,,
69496.2,,53816.6,,78027.6,,43544,,
69893.1,,57098.4,,92551.8,,38744.6,,
66872.7,,53570.6,,133163,,33858.1,,
59814.9,,50085.9,,182802,,37934.8,,
54714.6,,49516,,82585.5,,42680.4,,
49246.2,,50555.7,,77132.5,,42170.6,,
63264.6,,45690.7,,77360.4,,41749.2,,
63865.8,,52775.5,,81602.7,,38329.5,,
62610.3,,60957.1,,108695,,44399,,
68435.1,,58450.9,,99204.3,,35737,,
61580.7,,63101.8,,73389.2,,43721.8,,
76689,,95056.5,,131064,,46409.3,,
60007.5,,37620.4,,75428.4,,43047.7,,
59582.7,,58713.6,,83523.7,,37166.5,,
63589.5,,51892.9,,80148.8,,44185.3,,
72569.7,,59273.8,,90361.1,,38503.7,,
66864.6,,64037.3,,94888.4,,39711.7,,
65769.3,,83237.4,,117045,,36828.5,,
65653.2,,47364.2,,74819.5,,38763.9,,
69705,,43304.1,,86242.5,,40028.1,,
63144.9,,43327.7,,74105.1,,38581.7,,
44946,,44500.8,,75350.5,,38671.2,,
60650.1,,67841.7,,96339.5,,38971.2,,
72433.8,,55719.5,,88356.7,,43695.9,,
64233,,63200.5,,108952,,42047.9,,
60119.1,,45434.9,,83147,,36251.6,,
71688.6,,78864.4,,98008.9,,41978.5,,
65750.4,,64193,,90601.6,,36313.4,,
68359.5,,69836.4,,103618,,42596.8,,
59859,,56668.9,,82579.9,,41310.2,,
68616,,66827,,112206,,41566.7,,
64970.1,,42931.5,,74706.9,,42421.1,,
59318.1,,60007.7,,87549.1,,42242,,
68218.2,,51603.8,,81958.6,,43247.5,,
56683.8,,53021.6,,75509,,44356.3,,
65905.2,,48342.8,,111154,,43204,,
50142.6,,60993.2,,93230.1,,42925.3,,
70517.7,,70987.3,,118509,,38554.4,,
65936.7,,68515.9,,113598,,41757.1,,
57081.6,,57461.2,,93135.6,,44382.4,,
71129.7,,69683.5,,96421.5,,41258.2,,
60043.5,,83523.7,,110833,,37982.3,,
73252.8,,56983.1,,90915.7,,43434.4,,
59290.2,,55053.7,,77934.5,,43560.9,,
56259,,47494.9,,79420.4,,33897.2,,
66887.1,,84897,,90444.5,,40989.4,,
74765.7,,77591.2,,127174,,46795,,
61639.2,,70477.2,,99419.8,,43792.6,,
60227.1,,44242.3,,75044.7,,43767.9,,
59767.2,,74105.1,,102882,,43703,,
72614.7,,89889.9,,149401,,45920.1,,
58953.6,,48588.8,,89985.8,,41571.1,,
63345.6,,42957.9,,96969.2,,42304.3,,
61291.8,,43637.7,,74773.7,,39941.3,,
68893.2,,53399.6,,79424.6,,43650.6,,
52347.6,,32888.8,,188145,,35722.9,,
62937,,45226.4,,79951.4,,42173.7,,
59361.3,,62554.2,,93961.2,,42546.4,,
81013.5,,97031.7,,127962,,41968.7,,
68326.2,,59354.4,,79141,,42895.4,,
52860.6,,36996.2,,76344.4,,42575.3,,
56618.1,,62620.9,,83127.6,,40642.4,,
61946.1,,53430.2,,78316.8,,40258.2,,
74177.1,,59560.1,,96892.7,,41919.9,,
66758.4,,47039,,197320,,31594.2,,
68016.6,,60292.6,,126847,,40878.6,,
70790.4,,63948.3,,91051.9,,43195.2,,
61390.8,,67755.5,,110865,,38985.2,,
62205.3,,35253.2,,159768,,40190,,
71815.5,,57031.7,,83286,,42196.3,,
59376.6,,54724.3,,76857.3,,43194,,
76633.2,,53713.8,,81063.4,,40268.6,,
59783.4,,69155.3,,98099.2,,45271.4,,
61614.9,,51146.4,,82356.1,,43107.5,,
59914.8,,44179.8,,79095.2,,41213.5,,
77598,,61656.2,,108510,,40175.1,,
65459.7,,58649.7,,81943.3,,39749.8,,
75384,,70820.5,,97473.8,,40781.6,,
60820.2,,54414.3,,77196.4,,40911.5,,
63568.8,,52765.8,,88747.3,,42822.4,,
62759.7,,58018.6,,81266.4,,42915.1,,
69158.7,,56794,,89332.5,,38556.4,,
47254.5,,20260.6,,76052.5,,39071.1,,
74171.7,,60441.4,,88252.5,,43941.5,,
62721.9,,54084.9,,73863.2,,40410.6,,
76555.8,,62130.2,,87846.6,,42458.5,,
45521.1,,18798.4,,105405,,38813.6,,
74284.2,,55761.2,,78836.6,,42943.4,,
59261.4,,71653.1,,78565.6,,38091.1,,
72746.1,,51550.9,,105405,,43436.8,,
74321.1,,72337,,92284.9,,42291.7,,
76843.8,,72951.4,,112739,,42216.2,,
57247.2,,47094.6,,79697,,41080.3,,
83882.7,,56092.1,,79022.9,,47107.4,,
54996.3,,59820,,90112.3,,43824.8,,
61783.2,,49051.7,,76969.9,,42517.1,,
64703.7,,49342.2,,78879.7,,41509,,
59877.9,,44406.3,,74370.6,,43317.6,,
86869.8,,101716,,132239,,41980.2,,
55777.5,,72191,,111079,,46678.1,,
67393.8,,56876,,90305.5,,42383.9,,
79281.9,,85239,,149415,,44815.6,,
66314.7,,58892.9,,121467,,36206.8,,
71760.6,,64608.6,,84645.4,,36087.8,,
59945.4,,47446.3,,86246.7,,41791.8,,
76762.8,,66966,,119958,,43196.1,,
52591.5,,25594.1,,205555,,31143.5,,
75257.1,,73449,,128251,,46881.1,,
65839.5,,54914.7,,99583.8,,42382.7,,
61295.4,,55480.5,,86870.8,,43918.7,,
76320.9,,74722.2,,110911,,41282.9,,
66237.3,,49755.1,,80654.8,,43200.4,,
58473.9,,63867.7,,84053.3,,37126.7,,
68539.5,,62156.6,,100824,,40836.6,,
52310.7,,45030.4,,131020,,34214.8,,
75542.4,,56121.2,,98544,,43025.4,,
53577.9,,37089.4,,75713.3,,43761.2,,
55826.1,,47768.7,,73750.6,,38842.7,,
65626.2,,55056.5,,91488.4,,44093.9,,
72459.9,,72831.8,,103624,,44853.8,,
68820.3,,46430.2,,97270.8,,42139.7,,
78678,,66725.6,,121332,,41529.1,,
60450.3,,58802.6,,82916.3,,43018.5,,
56975.4,,53081.3,,92385,,42485.7,,
71397.9,,50580.7,,83543.2,,42807.3,,
65054.7,,56742.6,,85604.5,,42420.9,,
63226.8,,48429,,80916.1,,43137,,
83980.8,,53059.1,,91434.2,,43755.3,,
75156.3,,63479.9,,103258,,45040.5,,
76970.7,,69922.6,,106741,,41904.2,,
57557.7,,56390.9,,98620.5,,42865,,
55945.8,,71838,,81726.4,,30557.3,,
56518.2,,62687.6,,103381,,45707,,
58431.6,,50817,,81296.9,,35252.9,,
66420.9,,62461,,103559,,41127.1,,
66344.4,,64259.7,,109946,,43023.2,,
70502.4,,72962.5,,97080.4,,45002.4,,
51291,,39259.2,,81467.9,,42389.7,,
75035.7,,56174.1,,81859.9,,41361.8,,
69770.7,,50976.9,,93495.6,,40184.5,,
66627,,50498.7,,86761,,39384.4,,
106664,,136601,,196931,,47387.9,,
63621.9,,56976.1,,93145.3,,34525.3,,
64161.9,,39851.3,,84913.7,,42726.5,,
75741.3,,66918.8,,95840.5,,42839.9,,
62975.7,,57105.4,,107843,,44823,,
43940.7,,23941.4,,194125,,32330.3,,
64535.4,,62765.4,,101566,,44239.1,,
62217.9,,49496.5,,77302.1,,43495.9,,
68377.5,,72560.8,,113108,,44236.6,,
58512.6,,66145.9,,97974.1,,43023.2,,
62842.5,,44610.7,,90750.3,,40172.6,,
46954.8,,24907.4,,87075.2,,39722.1,,
55116.9,,59315.5,,95342.9,,46234.6,,
65359.8,,50557.1,,85897.8,,42933.7,,
61962.3,,41137.1,,84229.8,,40524,,
48680.1,,61891.1,,75756.4,,41164.8,,
58323.6,,66340.5,,88245.5,,41642.8,,
55248.3,,76490.3,,84664.9,,38066,,
76353.3,,73360,,109222,,44843.1,,
64038.6,,55833.5,,84503.7,,44037.7,,
70488,,95108,,132324,,46720.4,,
67389.3,,50896.2,,82308.9,,34532.7,,
53837.1,,47521.3,,80255.8,,37178.7,,
57578.4,,33799.2,,80626.9,,42062.4,,
71548.2,,57516.8,,84392.5,,40729.4,,
57966.3,,52642.1,,79505.2,,42529.4,,
72152.1,,79708.2,,113414,,45503.4,,
67068,,53501.1,,80517.1,,37988.1,,
68528.7,,60191.2,,87756.3,,41082.4,,
63865.8,,73424,,131465,,45293.3,,
54443.7,,54066.8,,76729.4,,36464.6,,
63713.7,,36602.9,,74763.9,,41671.1,,
77846.4,,98747,,127450,,47543.8,,
102634,,82037.8,,131608,,40597.3,,
54574.2,,71883.9,,74900.1,,38059.8,,
68609.7,,63081,,82959.4,,44255.7,,
52281,,56566.1,,79717.9,,36490.6,,
73314,,50294.4,,74665.2,,42352.8,,
59943.6,,88454,,106992,,45627.7,,
67547.7,,74822.3,,110252,,40416,,
81594,,69534.8,,103290,,40354.3,,
55781.1,,52161.1,,79854.1,,39801.5,,
66429,,49909.3,,76051.1,,43168.9,,
64172.7,,56283.9,,86848.6,,42897,,
46960.2,,75468.7,,140144,,42506.2,,
69934.5,,66906.3,,104269,,41526.4,,
66154.5,,50099.8,,89944.1,,41345.7,,
56779.2,,64401.5,,91309.1,,37904.2,,
64717.2,,56250.5,,94888.4,,43589.8,,
56052,,56926.1,,87885.5,,43003.7,,
65448,,60566.5,,89639.7,,42301.4,,
62828.1,,55708.4,,96648.1,,42924.7,,
64463.4,,64198.5,,98731.7,,42222.8,,
63550.8,,40822.9,,75791.1,,40221.6,,
57682.8,,26325.2,,75240.7,,43449.9,,
64568.7,,50380.6,,78091.6,,40230.5,,
65361.6,,58531.5,,111477,,40045.4,,
59618.7,,59713,,90584.9,,42900.3,,
62140.5,,47868.8,,74527.6,,44582.5,,
54158.4,,56984.4,,83302.7,,42925.1,,
52046.1,,53709.6,,76758.6,,42698.3,,
69340.5,,59906.2,,76548.7,,42657.1,,
62622,,66639.4,,76095.5,,43583.2,,
81333.9,,48000.9,,79849.9,,41514.2,,
63774,,64117.9,,88406.8,,40366.5,,
54079.2,,41619.4,,75353.3,,44418.7,,
59945.4,,44370.2,,87365.7,,34113.5,,
64488.6,,59708.8,,96791.3,,42258.4,,
46633.5,,22858.5,,194681,,30445.7,,
43877.7,,47550.5,,98224.4,,43085.5,,
55440.9,,46546.9,,105418,,45490.4,,
79981.2,,66177.9,,134191,,44029,,
63830.7,,62994.8,,76926.8,,41044.9,,
70521.3,,71831,,114450,,44056.1,,
70321.5,,47934.1,,86223.1,,37614.9,,
72779.4,,71551.6,,125499,,41625.2,,
70326,,75891.2,,136702,,41204.4,,
65063.7,,56710.6,,77655.1,,42979.1,,
58502.7,,45012.4,,74013.3,,37517.1,,
60284.7,,52422.5,,80429.6,,41435.2,,
66540.6,,49129.6,,78907.5,,38296.4,,
74265.3,,67663.8,,125461,,34997.3,,
65835.9,,88092.6,,116620,,41726.8,,
85058.1,,82825.9,,120235,,46186.9,,
62178.3,,57265.2,,101148,,43832.8,,
69532.2,,84457.8,,134895,,45398.9,,
71869.5,,63634.2,,96201.9,,40642.2,,
68220.9,,50287.4,,78630.9,,41253.4,,
43583.4,,16869,,76388.8,,40919.8,,
54943.2,,63256.1,,116312,,45547.5,,
55921.5,,44090.8,,80727,,40625.8,,
73062,,60549.8,,93879.2,,40969.7,,
67782.6,,67827.8,,87557.5,,40313.6,,
73268.1,,62951.7,,75364.4,,38928.9,,
72685.8,,77456.4,,116615,,42954.4,,
69337.8,,68882.8,,105295,,35822.2,,
61082.1,,49325.5,,81725,,41934.5,,
62832.6,,49698.1,,77524.5,,38166.7,,
70449.3,,66136.2,,79499.7,,43935.1,,
61794,,52667.1,,82397.8,,44949.4,,
53234.1,,53692.9,,86616.5,,43185.3,,
68787.9,,51492.6,,83654.4,,40427.7,,
62206.2,,58977.7,,91499.5,,41833.1,,
73759.5,,55825.2,,94585.3,,40792.4,,
53758.8,,54279.5,,78165.3,,32967.3,,
67797.9,,57533.5,,105761,,44435,,
52630.2,,29684.8,,74820.9,,30757.5,,
66954.6,,59410,,99139,,44090.8,,
50804.1,,54692.3,,80604.7,,42740.7,,
53149.5,,61467.2,,107255,,41759.7,,
56407.5,,41038.4,,81937.7,,36464.2,,
66872.7,,52443.3,,82044.8,,43147.6,,
53136,,49575.7,,85137.5,,43025.4,,
64718.1,,80973.1,,103259,,42111.7,,
59955.3,,69946.2,,97430.7,,45760.4,,
57348,,56794,,81449.8,,37947,,
69407.1,,70741.3,,88725.1,,41850.8,,
57960.9,,53801.3,,87935.6,,43318.9,,
67678.2,,67730.5,,96927.5,,38609.5,,
42448.5,,60932,,79478.8,,41064.6,,
74779.2,,51712.2,,81861.3,,38530.3,,
48178.8,,53791.6,,83023.3,,35542,,
49708.8,,63593.9,,88857.1,,36890,,
59786.1,,46544.1,,73411.5,,40644.3,,
53834.4,,50790.6,,89774.5,,36724.7,,
58628.7,,49521.5,,73795.1,,38838.6,,
67418.1,,67098.1,,91674.7,,42603.4,,
55227.6,,53976.5,,105327,,40113.9,,
66919.5,,57793.4,,104567,,43530.4,,
51392.7,,27502.5,,212628,,31967,,
65044.8,,69308.2,,125331,,43765.1,,
61001.1,,42951,,119258,,38869.4,,
58976.1,,38590.6,,183344,,33622.8,,
61807.5,,57067.8,,96814.9,,37867.3,,
61542.9,,48609.7,,79442.7,,32818.6,,
52706.7,,54532.5,,88109.3,,42201.7,,
46431.9,,60017.4,,74679.1,,41950.2,,
52748.1,,96603.6,,110765,,42730.6,,
68957.1,,64184.6,,102030,,44491.1,,
62742.6,,54700.7,,88722.3,,37134.7,,
61222.5,,47336.4,,73622.7,,38090.3,,
67730.4,,54425.4,,202305,,35084.1,,
74135.7,,70602.3,,95776.6,,44228.3,,
60228,,38266.7,,77353.5,,40155.3,,
64650.6,,54617.3,,81003.6,,41587.3,,
71868.6,,52694.9,,87314.2,,42815.3,,
54694.8,,36355.4,,158707,,33682.4,,
49663.8,,40294.7,,88427.6,,34136.7,,
62206.2,,55872.4,,80956.4,,43092.8,,
62530.2,,52637.9,,75282.4,,44089.5,,
68766.3,,65195.2,,122341,,46772.2,,
78418.8,,89349.2,,128854,,45007.6,,
56817.9,,105924,,132607,,47696.7,,
67214.7,,65652.5,,96774.6,,43142,,
52985.7,,40180.7,,126596,,39284.6,,
