"FSC-A","FSC-A","SSC-A","SSC-A","FITC-A","FITC-A","Comp-PE-A","Comp-PE-A"
58290.3,87080.4,69194.2,70947,75967.7,112577,81046.1,50350.7
50481,77323.5,20606.8,75225.4,44125.6,131544,53377.1,49525.1
73752.3,124388,70317.3,96637,135878,114662,57846.6,61169.1
75317.4,74567.7,104250,70770.5,138735,124423,50149.6,51977.9
82619.1,73582.2,105091,56976.1,153663,115014,68757.7,50322
58784.4,78481.8,24470.9,77970.7,54868.9,150280,60247.6,51415.9
72680.4,74062.8,76103.9,48723.7,153948,70313.1,50272.5,81115.9
74007.9,91708.2,43323.5,83604.3,68924.5,84941.5,53207.3,52663.3
60918.3,74417.4,65767.9,60330.2,124530,134284,50161.5,49036.9
60039.9,75933.9,28946.8,86876.4,49243.5,174455,50343.8,63055.4
57344.4,44697.6,22379,87582.5,46150.8,85419.7,48775.8,63798.1
49277.7,63573.3,19764.4,47724.3,45404.3,60773.6,55640,58508.2
68676.3,50201.1,79617.8,70884.4,145411,90707.2,49712,78025
76217.4,75915,94884.2,68328.2,135126,139075,49353.1,49879.7
72533.7,68325.3,85917.3,35577.1,133466,80522.7,56754.8,55540.7
71438.4,78254.1,123842,93890.3,212243,179688,79799.9,58189.8
49366.8,68243.4,16382.5,88044,47859.1,167125,58568,62418.6
100524,71915.4,81675,75702.2,157002,132670,76155.4,48511.5
103494,52688.7,78131.9,19906.2,73089,48270.5,54699.2,48028.6
41896.8,71341.2,26587.9,89707.8,47740.9,163725,51489.1,50276.5
58048.2,72380.7,73461.5,23599.4,93816.7,54738.2,48817.3,48203
58232.7,79206.3,28632.6,88106.5,68438,144450,79358.4,51901.1
60499.8,90210.6,80257.2,47130.7,93647.1,73228,73995.2,48192.3
81087.3,60255.9,108416,125247,154615,104250,51308.4,61636.8
78380.1,54563.4,137711,19052.7,155380,47920.2,53984,53931.4
83828.7,77549.4,106042,91485.6,172129,176162,69443.4,65115.1
63342,53431.2,26330.8,74034.2,56659.2,82596.6,73765.6,62456.6
55469.7,52264.8,25645.5,16577.1,49566,55704.2,48933.8,52227
72486,89920.8,45829.7,80882.7,70930.3,148733,75573.2,61607.4
51209.1,69837.3,31471,54510.2,46295.3,100013,48139.9,48316.4
70865.1,83034,93759.7,106734,117769,162826,49991.3,61945.7
75536.1,60587.1,87091.8,60249.6,126090,90803.1,63921.7,79774.6
51111.9,89667.9,22205.2,35741.1,47625.6,73832.6,60111.5,63599.1
68311.8,67616.1,100006,73757.6,166612,133665,68128.6,52451.6
46088.1,77043.6,52568.4,71009.5,79320.4,147703,70680.1,58851
71307,67646.7,73600.5,57113.7,112120,95857.2,49903.7,48132
55388.7,63018,90566.8,21347.6,137121,48498.5,54733.8,48346.6
78948,57985.2,116278,18712.2,164500,54347.6,78994.5,49911.9
101235,78777.9,47536.6,73397.6,67851.5,144768,50721.8,53044.8
102319,65309.4,102405,58955.5,107273,102172,80642.5,47872.6
71525.7,71126.1,62563.9,58218.8,125100,108688,50294.4,49037.9
45768.6,68479.2,27838.9,86294,44455,164534,48413.9,75018.4
63963,104386,50530.7,39865.2,75586.8,82693.9,75302.6,50549.4
65815.2,106869,31225,57432,53859.7,84513.4,52668,48471.2
71856,78020.1,79064.6,58309.1,120822,112366,49082.1,49389.5
71347.5,84292.2,72230,70304.8,93747.2,90051.1,50596.7,54854
63290.7,124412,79313.4,110666,118913,103091,57098.4,51300.3
121884,60503.4,75596.5,38124.9,101854,62497.2,57721,51962.9
71882.1,70712.1,62825.2,63520.2,108056,125543,73878.8,65498.5
42868.8,64134,20139.7,32460.7,43862.8,55708.4,53706.2,49542.6
66622.5,79405.2,94436.6,51480,172095,72895.8,67930.5,63212.4
60569.1,67797,82146.2,60466.4,124680,119611,53213,48531.6
72068.4,65710.8,96188,85464.1,146609,155506,54525,62159.1
77835.6,79544.7,99529.6,79822.1,148872,169861,77419.8,51575.2
72549,84015,74636,80706.2,137165,193077,48633.1,52765.7
74754,140435,23339.5,96008.7,54343.4,141401,55484.7,47877.1
80719.2,83584.8,101218,81879.3,153157,164064,60075.1,65805.4
58843.8,52714.8,19090.3,79170.2,46952.8,128122,61534.9,54603.7
83001.6,58653.9,83931,35607.6,136088,66072.3,53837.3,54002.7
59092.2,66518.1,47853.5,43334.6,82529.9,93748.5,49481,48048.7
93792.6,83493,101591,80810.4,135506,153077,63167,51185.5
95056.2,71192.7,114811,60843.1,196988,97671.1,62792.5,51051.1
77706.9,100306,80431,62864.1,118115,128282,50634.3,62572.4
73896.3,58194,88751.5,28684,126961,60339.9,52301.5,55741.2
74553.3,66642.3,79777.7,69939.2,112728,129134,49210,49873.3
63879.3,81633.6,27649.9,66845.1,62277.6,94599.2,51763.8,65375.1
72460.8,89242.2,47834.1,44443.9,76197,70987.3,74447.4,49144.4
68993.1,47856.6,77050.5,28318.5,116563,58848.4,49515.7,48740.5
51566.4,48507.3,68685.5,18906.8,81779.3,45332.1,73231.2,58898.5
89682.3,85746.6,98824.8,53068.8,131178,102720,53291,78035
90781.2,75787.2,126705,44970.7,195341,102410,68392.1,69956
81618.3,77785.2,85687.9,77471.6,156917,162445,58554.9,55758.8
64226.7,82237.5,100889,96946.9,134038,204099,60038.7,60141.5
59521.5,69690.6,42041.9,61629.8,56060.1,112990,50210.2,49199.2
75599.1,72777.6,86020.1,82557.7,141965,137554,48585.7,57625.9
64060.2,64327.5,83551.5,21358.7,158630,56139.3,50118.4,57758.6
67289.4,75903.3,88025.9,73585.2,119646,159726,57469.9,61319.2
66665.7,77148.9,85004.1,97662.8,130460,185775,47950.7,79549.2
76110.3,70470.9,106071,55509.6,127859,127742,50620.9,52549.1
70326,49371.3,31541.9,18995.7,62351.2,72170.2,77496.5,58855.2
60521.4,96360.3,95797.4,36753,146580,70106,54975.8,57897.6
65393.1,74240.1,85307.1,103201,140587,105066,52139.2,79818.8
81277.2,76052.7,90359.7,47742.3,145658,88786.2,65331.4,66833.6
67451.4,50991.3,19439.2,29155.2,53046.6,54987,55883.4,50161.4
60730.2,78095.7,25553.8,71731,44689.9,142458,56762.9,50049.4
72041.4,73250.1,72011.7,95758.5,164235,184529,56947.4,63306.4
57431.7,93848.4,69115,36443,105042,60009.1,50474.6,49772.2
77569.2,74830.5,99859,82278.3,119158,142482,57614.2,56049.9
68001.3,68976.9,80312.8,75488.1,100875,142866,75782.1,52883.4
76001.4,73969.2,91681.6,59631,141088,88657,56378.2,76792.7
48060.9,70961.4,18580.1,67499.8,50896.2,143748,66263.8,51816.7
60034.5,66705.3,18528.7,71475.2,44574.5,151816,58628.5,55047.3
61475.4,51853.5,72323.1,39962.5,135283,65211.8,50109.2,51327.5
67770.9,79933.5,93647.1,85479.4,117234,181531,53542.6,71098.4
84096.9,64898.1,65395.3,82906.5,95818.3,161806,56086.6,53416
76101.3,54379.8,67162,18767.8,78475.2,47159.9,67771.8,48401.8
82329.3,63835.2,96842.7,44674.6,159151,67609.6,58875.1,70619.4
60465.6,63799.2,77703.8,40301.7,139908,69419.4,50136.6,80146.8
82583.1,79466.4,90865.7,91911,149387,195644,50982,75483.2
62634.6,69068.7,26037.5,54704.8,49802.3,103394,57141,49758.1
60735.6,64834.2,68830,56746.8,122791,103402,52947.9,49340.6
67552.2,76731.3,47664.5,81192.7,75150.4,174551,58941.5,60776.8
48996.9,68972.4,87923.1,83771.1,75700.8,152723,58355.6,63026.6
84365.1,76185.9,41334.4,80100.1,65797,138087,48362.5,59719.6
75185.1,91700.1,25941.6,45906.1,61570.1,86338.5,55381.4,50538.9
66625.2,65133,96068.5,91132.6,119466,140104,64774.4,53442.4
55115.1,85725.9,114276,110982,150908,184732,49978.6,60114.9
70425.9,57476.7,64237.5,43322.1,84006,65054.8,73303,80247.9
66969.9,63577.8,75210.1,145773,132774,123379,50929.2,55403.7
66420.9,55221.3,94889.7,24981.1,124670,48217.7,56282.7,48273.7
84362.4,88070.4,87098.8,67936.2,150633,110098,71148.7,81256.8
62612.1,62783.1,99013.9,72988.9,109460,74562.4,70963.1,76490.6
60658.2,76614.3,19403,52202.8,48032.8,80871.6,60807.7,68649
71529.3,73913.4,73091.8,84138.1,110480,181324,48905.9,70945.8
65478.6,73509.3,54971.7,74948.8,115123,178141,49956.6,61680.1
60735.6,73838.7,113888,77794.1,202883,112159,66680.4,78552
59199.3,68697,21080.7,50726.7,44343.8,80536.6,52775.6,81360.5
58941.9,66101.4,69247,85352.9,91749.7,133293,77547.5,50958.2
50866.2,76371.3,26757.5,74146.8,53032.7,128340,50568.9,56226.2
150650,66646.8,121262,24965.8,207930,59044.4,66074.2,61228.6
83361.6,89248.5,79894.4,70627.3,126247,119614,48858.3,51355.9
69424.2,110042,34844.5,78714.3,48455.4,169435,48334,81526.9
71460.9,64521.9,82721.7,50192.9,131281,103483,51598.6,49791.5
76730.4,54019.8,90247.1,17141.5,136167,47803.5,49497,56480.9
80580.6,74482.2,109073,59700.5,166541,136951,63279.1,56694.5
56421,122141,103509,102351,128752,170107,51032.6,60065.4
78648.3,64180.8,129914,67601.3,194578,138751,67590.1,65307.9
87487.2,51653.7,104395,18835.9,132667,50876.8,51785.1,57838.8
58878,71716.5,24045.6,65020,50785,137335,50622.1,51477.6
62577.9,67132.8,45924.2,68921.8,78198.6,143509,70442.4,62693
62288.1,75568.5,27659.6,73618.6,47507.4,133692,50903.1,51026.6
70862.4,68166.9,59699.1,61988.4,95896.1,143940,48214.4,61291.6
64154.7,58690.8,85141.7,27103.6,151007,55554.1,54927.9,48262.3
80452.8,129475,51249.3,69434.7,79559.4,111770,73432.7,48645.2
89928,52918.2,112245,17636.3,162074,51992.9,70047.4,67792.9
72967.5,60187.5,70210.3,20209.2,119169,62002.3,56486.2,65526.6
72106.2,72908.1,77567.6,42445,119621,68268.5,51507,48067.5
76363.2,62836.2,110543,54697.9,186790,109253,54526.1,48925
54878.4,65249.1,17956,44531.4,55219.1,48020.3,53897.2,48664
95214.6,78940.8,137793,68335.2,190743,148656,61192,55718.5
78719.4,84711.6,69424.9,88049.5,102147,192224,50370.6,57283.2
91385.1,74162.7,54736.8,53691.5,67302.4,85574,53394.1,55972.6
59712.3,77463.9,107646,66282.1,113728,119276,57508.8,52088.6
117321,120682,61711.8,130161,92276.5,201681,52004.2,69947.8
74764.8,83578.5,69894.8,72590,97988,137959,57546.4,57625.8
63585,43700.4,30008.7,14604.7,59590.7,45305.7,69526.4,54446.5
74565.9,57464.1,82189.3,25788.7,140202,52953.4,59553.7,54185
70922.7,71762.4,96322.8,93182.8,155157,178722,54951.3,56991.7
56096.1,77504.4,47285,120993,73788.1,211928,64587.4,80903.7
78361.2,66492.9,84040.8,115679,125182,227152,57641,71633.7
55066.5,69274.8,34276,95580.6,54866.1,200879,57980.7,65482.8
84382.2,74418.3,65293.9,69864.2,99701.9,133600,64074.6,53300.8
66338.1,75097.8,60609.6,61258.7,98752.5,115527,59418.6,50918.5
63100.8,75924,70224.2,68445,116823,129556,50047.2,52718.8
85464.9,104514,123218,78774.1,202782,135942,59107.1,80389.8
81261,55177.2,71674,53548.4,104315,72221.6,49004.6,67096.1
70945.2,77073.3,61754.9,44574.5,55645.9,82154.6,49743.9,50752.4
51204.6,77256,78069.4,82887.1,137161,170157,50243,63199.5
68337.9,42348.6,40953.6,13751.3,57889.3,42931.5,69843.2,58934.7
49258.8,63875.7,36384.6,43145.6,67252.4,77528.6,77159.2,79389.7
91720.8,70633.8,74123.1,69746,85102.8,120348,50172.1,49428.4
72199.8,75147.3,79581.7,48561,123463,69131.6,71504.4,58526.5
82237.5,75717.9,100293,71462.7,151668,148816,64117.8,50227.9
88037.1,73054.8,123361,69276.2,166718,152465,56026.2,58854.6
75335.4,70946.1,97705.9,75656.3,136711,140291,54717.5,50343.6
73144.8,71147.7,113042,69295.7,130678,134341,53714,50016.1
61431.3,50502.6,67466.4,35204.5,71220.8,68952.3,76732.5,79248.7
75654.9,72294.3,134528,53911.1,152874,96509.1,72366.4,48130.5
66603.6,58802.4,93852.8,35481.1,163777,63755.1,59746.2,75421.7
72153.9,66545.1,68143.4,18413.3,82542.4,44972.1,49394,60932.1
124926,60337.8,121751,81073.1,127841,128946,48003.3,48811.9
122121,66608.1,117527,88399.8,154195,148865,50615.8,60950.1
114538,83400.3,125253,102870,94044.6,175768,53074.7,61864.7
69624.9,66857.4,68518.7,35746.6,101590,69099.7,48498,80422.4
59382,77849.1,76580.7,44945.6,140779,82415.9,53693.8,52112.3
50398.2,68927.4,19336.3,70751,49891.3,135538,56441.8,48169.7
62292.6,94305.6,77257.6,84393.9,120296,170507,50665.9,58446.2
71533.8,80158.5,71813,110180,136574,158357,48369.5,65934.1
60480.9,78027.3,22908.6,67257.9,43716.9,133421,56563.3,60053.4
54779.4,65500.2,22818.2,95875.2,64540.5,205888,66124,76338.1
85970.7,50375.7,91013,85321,135364,90812.9,59703.5,70055.1
76783.5,57796.2,88251.1,15716.7,124171,43796.1,58013.6,62317.2
91625.4,79648.2,117869,83085.9,148020,121462,56700.4,54915.1
55846.8,76009.5,62223.3,63949.7,105570,129138,54991.3,48128.6
59430.6,70348.5,49834.3,61204.5,50867.1,128250,49015.7,48641
64038.6,52899.3,25644.1,129081,44425.8,115937,50609.1,56307.1
79723.8,60994.8,41547.1,81698.6,52838.1,112480,47837.1,50455.5
57146.4,48893.4,64473.8,75211.5,104228,72296.7,49771.7,54603.7
75766.5,69246.9,94982.9,62598.6,148210,128675,60192.8,57079.7
67333.5,52373.7,25071.4,52398.8,62323.4,87909.2,65977.9,69622.1
103784,62417.7,76159.5,26410,79385.7,43933.7,54062.7,48212.7
51515.1,75090.6,27802.8,78586.4,49817.6,148106,48088.3,47965.9
65185.2,70608.6,67747.2,111033,116938,214214,62587.6,73107.2
54873.9,69922.8,13606.7,64664.2,42998.3,115313,52297.5,52128.5
62467.2,69798.6,21695.1,79709.5,51890.1,169912,54449.7,55636.4
85312.8,66829.5,59430.8,76825.3,76115,125139,70973.3,50125.2
74339.1,71896.5,73795.1,58594.1,117401,114287,55361.5,52611.9
70340.4,67790.7,38674,54287.8,65909.6,115046,56480.1,52983.2
76464,50410.8,87696.5,17056.7,132934,48547.1,60636.8,57703.9
63992.7,83006.1,28849.4,98706.7,47905,176908,47915,66888.4
53360.1,64422.9,97648.9,44117.2,124445,62751.6,49909.6,76722.5
68832.9,80256.6,129427,77060.2,168464,136505,64758.4,47892.9
70887.6,57306.6,108314,22739,200242,51716.3,64618.8,54979
64751.4,95650.2,73177.9,39595.5,120879,66303,52885.7,50940.2
63179.1,75482.1,24637.8,79353.7,53458,163410,54233,64346.2
55272.6,68775.3,29722.4,63010.1,51842.8,106088,56147.1,54624.3
71348.4,67115.7,82920.4,74383.1,115848,147804,59009.2,55558.7
51516,70253.1,26679.7,79262,58591.3,140568,80044,51245.2
62379.9,76102.2,28902.3,73417,58216,156902,69250.2,58180.5
60644.7,78703.2,24871.3,99815.9,54130.8,151842,56976.8,61128.3
48773.7,74716.2,19245.9,74128.7,51203.4,149892,53848.7,61256.1
67518,117278,52462.8,89848.2,105634,126379,79436.1,80287.7
82982.7,73128.6,76044.1,70714.9,117588,144771,50961.6,51436.4
102118,73528.2,85226.5,35742.5,74084.2,55269.2,56451.4,51538.1
90207.9,62946.9,73087.6,64958.9,132660,131580,65143.4,50523.7
97878.6,70100.1,36525,61456.1,66804.8,111516,52053,48103.6
78298.2,73204.2,91367.5,69049.6,124031,139880,62941.5,51721.6
84786.3,76688.1,38311.2,69038.5,57981.1,125567,54614.2,50212.6
59829.3,84030.3,35999.6,61105.8,65908.2,69758.5,79591.7,53569.9
80929.8,84905.1,88531.9,84021.3,164006,156734,48870.5,70913.6
77265,68940.9,62648.7,78995.1,106114,145236,67159,51951.1
67163.4,57033,57405.6,40622.8,80033.4,46644.2,81312.4,61512.3
62753.4,71460.9,111481,67825,143808,143740,69475.7,67903.7
60725.7,68909.4,84259,89859.3,91851.2,144670,60845.9,55020.5
77175,76248.9,55358.1,88941.9,79473.2,180803,75655.1,63130.2
58352.4,69912,27944.6,80583.9,53975.1,154674,54359.4,52501.5
83531.7,60355.8,59241.8,24348.6,82189.3,53808.3,75478.4,79879
65132.1,79231.5,67759.7,83454.2,109827,163885,62814.5,56600.8
64843.2,78405.3,31484.9,75329.7,48490.1,150910,57971.5,59262.4
60291.9,61532.1,25890.1,78544.7,43333.2,131069,53294.2,61515.5
73176.3,67862.7,89417.3,77821.9,148412,148722,48931.1,48369.7
77809.5,68599.8,56012.8,79250.9,100430,162125,72594.7,63530.7
84726.9,65342.7,122438,70021.2,212671,138564,79564.9,49238.6
56092.5,92826.9,105636,105794,207774,160444,75162,48446.4
75124.8,103093,27955.7,49974.7,46064.6,88962.8,56541.5,59117.9
73170.9,70544.7,99768.6,71377.9,138063,136765,54703.2,49375.2
72240.3,74434.5,46638.7,70099.1,77053.3,139361,73507.5,53206.3
67313.7,64487.7,65706.7,50824,92109.7,88761.2,74453.3,48029.9
75670.2,128014,50673.8,92058.3,64808.8,95123.3,74597.5,48092.7
56871,73236.6,27099.4,61603.4,55427.6,71131.9,70140.4,48635
94158.9,73364.4,126672,69212.3,173289,137432,78417.7,57655.7
73689.3,84878.1,86196.7,95743.2,144226,176458,67502.4,62220.9
64186.2,74798.1,68083.6,63948.3,86319,159209,80550.2,63965.8
72537.3,72786.6,77778.8,86295.4,124636,172749,48973.5,66483.2
61959.6,70897.5,76873.9,67458.1,148862,151315,56681.6,50833.2
66177,63543.6,85938.1,19765.8,133642,66389.2,64976.9,60416
79004.7,64212.3,83854.5,17896.2,123753,56193.5,50997.8,80271.8
46469.7,79778.7,20548.4,99524,46979.2,192117,72002.7,70469.9
70222.5,74571.3,70703.7,67509.5,108588,130668,51972.8,49400.1
48103.2,69878.7,45967.3,59567.1,71382.1,109071,61008.6,49097.6
67689,85029.3,106719,82830.1,167350,179430,57846.9,75526.6
53531.1,90182.7,22928,69754.4,47025.1,99383.6,49394.3,54396.3
73053,82282.5,107543,65929.1,168895,133411,58797.8,63679.1
67147.2,52697.7,79653.9,32456.5,142658,46432.9,51371.4,48091.1
55111.5,131213,23256.1,148206,60866.7,163178,74451.3,48117
82063.8,69315.3,91666.3,52813.1,144053,70509.1,51852,49871.8
56800.8,56418.3,16186.5,75670.2,45090.2,152815,63197.4,50239.9
112318,105671,132446,100218,118238,204925,78351.7,48146.1
69028.2,58356.9,77254.8,34337.2,114330,71204.1,48474,67699.9
65697.3,47547.9,22158,26155.6,48919.7,61429.7,61984.2,64590.5
75070.8,57477.6,92943.7,56385.3,206525,121646,48037.1,61204.6
64815.3,46202.4,98114.5,26347.4,151382,67276,58613.1,61773.3
80732.7,65442.6,75428.4,47200.2,116379,94975.9,53106.3,71182.8
73314,43774.2,54682.6,20804.1,81470.7,44318.8,81212.2,56088.2
58578.3,40380.3,41476.2,25428.7,68812,48818.2,76356.4,54146.8
69493.5,60620.4,21781.3,82884.3,48645.8,116404,51943.2,53050.6
66652.2,72648,77311.8,64401.5,104283,121404,54317.7,55501.1
60274.8,58458.6,24748.9,63602.2,45821.3,135200,54310.3,53533.8
77800.5,64513.8,89851,65459.3,114236,129177,54003.7,56405
59010.3,63556.2,30809.3,63019.8,45098.6,138508,47841.6,61255.8
52155,64823.4,102392,74882.1,131903,133835,60005.7,52734.4
63332.1,43618.5,31504.3,13973.7,70979,45523.9,81287.2,56859.9
107179,41826.6,43651.6,17882.3,74506.8,56763.4,48767.7,50719.9
80289,70433.1,69084.4,94271.2,57757.3,149191,54262.5,53037.4
44447.4,57912.3,72616.4,57521,134089,98424.5,54440.8,51313
49885.2,65835,79968.1,73702,127305,140186,48413.2,50476.6
67531.5,59108.4,49607.7,106282,68322.7,171978,52065.9,73389.3
58341.6,60239.7,95335.9,69968.4,163910,134742,54019.4,54273.8
62145,57314.7,25931.8,51241,65922.1,116236,80903,49858.4
83459.7,56461.5,64921.3,69206.7,72491.3,141634,48625.8,51049.8
66176.1,65075.4,72613.6,72057.6,117561,142044,58445.7,54892.8
88466.4,44600.4,51411.9,45756,55434.6,85152.8,49088.4,61323.8
67698.9,82080.9,37902.5,110631,66718.6,236148,77801.2,76357.9
69236.1,78821.1,79135.5,66505.9,113456,123019,60512.8,65061.5
64088.1,58138.2,83059.4,82388.1,121954,161857,55986.8,60333.6
69451.2,66035.7,75015.5,74669.4,129342,133558,49094.5,49692.1
51023.7,65011.5,21094.6,24897.7,47047.3,61583.9,53504.6,73154.4
85123.8,47873.7,71148.5,22989.2,116357,54243.4,53288.4,62283.8
78755.4,76944.6,32211.9,71464.1,67396.9,78194.4,50809.8,50487.8
59269.5,54267.3,74989.1,43491.7,117879,70149.1,52906.3,70360.5
69368.4,51948.9,128439,38768.5,201116,79445.4,74451.7,67639.3
50508,67165.2,21267,69340.1,44056.1,128304,52272.2,48997.6
66547.8,55520.1,76233.2,51663.5,134705,118995,48631.3,65839.2
65453.4,75456.9,86531.7,58423.1,123610,110363,57320.1,75470.5
58911.3,51586.2,33457.3,101011,61018.2,130575,65320.7,53404.9
74564.1,82053.9,91360.5,82737,148214,124185,48258,58682.7
76525.2,50940.9,53495.5,70252,65049.2,83448.6,54623.6,51816.2
53477.1,61488,17331.9,73308.6,48916.9,137071,52754.8,51256.3
49451.4,62010,20865.3,62117.7,48241.3,121608,49031.2,52939.2
130794,50252.4,117597,23092.1,121874,48826.5,51496.6,65736.1
90146.7,64773.9,116507,80707.6,182963,129070,71676.8,50976.8
59041.8,67919.4,31833.8,113651,51687.1,139004,49907.3,51353.3
77432.4,66460.5,85719.9,88177.4,134977,134484,64627.3,49670.9
68509.8,61793.1,93331.5,73525.4,172264,141631,66416,54284.6
85575.6,66122.1,78507.2,72216.1,135863,150722,51602.3,58002.1
62407.8,61589.7,96026.8,69356.8,135476,158315,71269.7,53081.9
62613.9,68685.3,107398,84830.3,162709,177660,64381.3,57684.4
84701.7,60349.5,92479.5,64443.2,148199,129734,52691.7,64051.6
105811,47608.2,90320.8,34907.1,147699,61453.3,50812.8,69358.1
58216.5,53709.3,86599.8,52768.6,117601,103608,51454.3,67914.9
60013.8,63414,69183.1,44338.2,109079,83632.1,54233.1,65583.9
74495.7,57828.6,90215.2,54727.1,167920,119092,61511.7,51698.2
50850.9,68200.2,27740.2,72526,51537,69391.6,52668.8,49825.7
51371.1,62969.4,25519,63966.4,45202.8,113795,67236.8,69786.7
60820.2,56246.4,77252,27167.5,154526,74928,60743.6,80954.8
77598.9,83282.4,87417.1,85251.5,119564,159341,51577.3,53226.8
54988.2,47523.6,24548.8,16782.9,55474.9,45258.4,75440.3,62204.3
63699.3,41320.8,27844.5,33254.4,42927.4,61424.1,50671.4,51099.5
68006.7,53750.7,75019.7,78568.4,119198,149741,48700.4,49153.1
67455.9,47378.7,76548.7,33082,109521,54875.8,54681.1,49595.6
82664.1,81227.7,29815.5,97400.1,65331.4,176602,59044.3,72657.8
82151.1,61217.1,60823.6,97268,115907,160614,73551.9,68738.1
58224.6,52547.4,27638.8,37751,48693.1,77322.9,55853.1,60668
61705.8,47573.1,29962.8,52401.6,59658.8,105176,52262.6,64216.2
98613.9,60400.8,115883,37727.4,192718,92642.1,71623.8,66789.2
65659.5,64870.2,104828,75289.4,131854,158888,52773.8,55855.6
77652.9,68696.1,80772.9,59596.2,111399,117470,51230,71862.1
65951.1,64587.6,93754.1,58135.4,93542.8,126630,67314.3,53299.2
78193.8,70078.5,78485,91214.6,154643,185376,49149.4,64100.4
66808.8,66263.4,61126.6,70745.4,88334.5,154708,53313.3,49456.7
76023,59328.9,92455.9,59971.6,129947,113641,55911.1,48615.4
70872.3,59002.2,100590,66746.4,157679,114291,58974.7,47984.3
75402.9,59732.1,85069.4,88474.9,118599,169142,49775.9,52630.3
81255.6,62014.5,99161.2,78806,155316,157461,77741.6,56127.6
83120.4,64837.8,43907.3,54346.2,68969,72462.1,52960,73247.3
89299.8,43485.3,57963,14938.3,76551.5,45593.4,80780.5,67099.9
63810.9,50097.6,77523.1,27941.8,129203,65313.3,73818.7,64623.5
61884,69399.9,71257,98899.9,135146,197059,59151.3,70975.2
75288.6,52860.6,88796,55119.1,140494,110625,50871.7,62090.8
58481.1,73053.9,43092.8,76513.9,75674.4,124356,70767.1,54757.9
70390.8,49908.6,71033.2,74028.6,116885,137318,50891.3,53641.5
57181.5,59446.8,92233.4,68678.5,157217,134163,73295.3,54661.4
53883.9,60212.7,61032.1,83951.8,114536,112351,47899.7,71162
64690.2,55039.5,36099.7,30586.9,55609.7,51710.8,48331.1,57839.9
51600.6,73250.1,31291.7,87766,74184.3,188673,54560.4,70709.8
60221.7,44601.3,30920.5,49101.8,59400.3,72541.3,76356.2,63003.6
75086.1,71119.8,80553.3,63478.5,127706,125763,51785.5,73581.6
66108.6,70149.6,88921.1,73164,135051,137471,50202.8,60552.8
61025.4,47259.9,85733.8,62265.1,119711,102425,50796.7,75927.9
45568.8,63156.6,14671.5,81449.8,44696.8,145024,56711.1,60312.5
68166,64989,66846.5,60909.8,98772,129517,52242.2,48615.2
76438.8,66692.7,85415.5,78190.3,174002,148481,60767.7,55500.1
70026.3,70555.5,30393.7,89781.5,57509.9,182032,48905.5,69516.1
55980,49217.4,90056.7,18026.9,128642,52063.8,53451.1,64214.8
75467.7,50509.8,53542.8,23247.8,76912.9,43477.8,80357.8,49897.8
64219.5,65259,37906.7,68857.8,58278.5,143946,57328.5,49327.5
58031.1,66895.2,55502.7,91720.5,77856.7,165185,68970.8,61058.6
61692.3,45097.2,72628.9,31193,114492,69812.8,58673.5,58324.5
49912.2,71470.8,52158.4,73125.1,65134,160167,59149.7,57983.7
57776.4,67658.4,80364.2,70595.3,167836,81188.5,67204.8,58553.2
59587.2,73552.5,25913.8,64917.2,69757.1,125965,68572.2,53475.3
67852.8,64327.5,30365.9,77357.7,49671.6,143809,56704.3,50452.1
84090.6,54291.6,49214.3,50062.2,74540.1,80845.2,75970.7,67559.5
61919.1,58494.6,79506.6,62145.5,162445,138172,58340,55283
64083.6,59813.1,93053.5,75767.5,146776,140597,48865.7,50939
69709.5,63761.4,89866.3,41345.6,146977,76024.7,53594.5,53029.9
111093,72985.5,73553.2,87077.9,92981.3,166501,68520.9,59139.4
103402,79674.3,49206,118360,64907.4,194453,56059.9,68216.4
46872.9,63499.5,18527.3,22401.2,53419.1,60891.7,70420.6,76401.3
85039.2,54063.9,81900.2,70613.4,137140,122153,49803.6,50425.6
61409.7,47747.7,85126.4,23303.3,124597,51564.8,50219.9,54741
62862.3,54342.9,26333.5,53416.3,49689.7,109347,50033.9,56015.1
49525.2,57389.4,67206.5,82489.5,138422,157698,48891.6,55242.7
53610.3,66983.4,21360.1,92946.5,50886.5,172438,67926.9,71480.1
67026.6,61432.2,81574.9,28832.8,140952,76974,47891,67809.2
57281.4,68701.5,74595.7,20659.6,150265,57404.2,50165.9,76723.2
53672.4,51708.6,43272.1,34249.6,64591.9,60756.9,70094.8,62108
47717.1,68620.5,24430.6,83134.5,49655,162266,49574.6,60747.5
107134,51353.1,36516.7,32874.9,70760.7,73539.3,59597.3,63611.7
70441.2,61039.8,100350,61574.2,158663,118384,56136.5,61715.4
102730,45378.9,74331.6,21596.4,121396,52881.2,50558.8,69735.3
79820.1,51843.6,91102,66678.3,141767,96809.3,54812.6,78628
108384,66092.4,106203,59932.6,165773,148562,61551.7,57758
56627.1,53153.1,21381,26694.9,56673.1,70805.2,61265.8,56610.2
55323,68754.6,17804.5,27135.6,43652.9,67485.9,55478.9,79603.7
59822.1,46597.5,27829.2,91457.8,51160.3,98038.1,55548.6,57380.7
69313.5,46498.5,79562.2,22141.3,114262,58417.5,68648.5,60134.6
78117.3,65010.6,93412.2,69732.1,139035,114305,58019.2,58181.9
41095.8,58486.5,14114.1,78778.2,47601.9,150344,50181.4,58049.2
62874,53742.6,43957.4,20551.2,64446,50748.9,48153,55132.1
72572.4,61741.8,104175,71858.8,163885,144568,55098.2,59356.7
89352.9,77392.8,49167.1,85091.6,61347.6,158346,47964.2,55494.5
58857.3,42799.5,25482.9,21044.6,45576.7,45618.4,50672.6,48395.9
74190.6,55028.7,77051.9,107514,130559,200417,48873.1,68880.8
64395,89973,73792.3,79783.2,107144,144415,51805.2,52400.8
60045.3,57710.7,57621.1,36733.5,67929.3,78605.9,54959.3,80819.9
78278.4,57358.8,92811.7,27925.1,144097,67043.9,48534.1,76338.2
,66483.9,,71879.7,,131497,,54951.8
,55557,,100373,,134116,,71329.1
,60264.9,,64227.7,,139838,,61779.4
,64075.5,,69730.7,,128070,,51996.4
,47079.9,,36277.6,,65688.6,,65088.1
,78109.2,,76914.3,,151080,,61757.9
,70164,,63666.2,,135695,,57085.1
,49680,,27291.3,,65666.4,,63352
,55686.6,,25304.9,,52772.7,,55084.5
,58506.3,,71699,,140963,,57327
,51482.7,,22800.2,,56112.9,,64568.5
,68136.3,,51865.1,,107304,,66557.1
,56070.9,,59115.3,,106667,,50854.8
,46342.8,,33140.4,,73405.9,,63576.9
,56301.3,,62110.8,,103398,,48633.3
,59800.5,,81228.8,,131896,,54446.1
,77575.5,,106014,,192547,,57519
,43333.2,,31063.7,,59942.4,,49845.8
,61218,,69266.5,,125867,,48245.2
,58392,,64172.1,,118470,,48385.5
,64449,,78104.1,,167824,,55179.3
,61930.8,,79906.9,,160726,,61633.9
,68880.6,,84464.7,,168418,,53883.1
,59126.4,,32755.3,,66068.1,,52176.5
,76647.6,,39275.8,,76793.3,,78862.6
,85860,,79153.5,,137522,,51675.9
,52300.8,,28895.3,,65517.6,,65576.9
,57592.8,,38465.5,,66500.4,,66697.5
,48000.6,,32242.4,,60187,,65306.9
,49574.7,,18049.2,,47885.5,,68360.3
,66641.4,,73952.2,,149987,,49371.3
,62897.4,,43273.5,,68942.6,,74755.4
,52146,,34579,,72277.2,,55557.1
,76795.2,,96599.4,,188078,,67559.4
,75254.4,,47101.5,,100124,,67522
,74205,,85984,,114610,,59817.1
,63720,,76630.7,,142650,,63655.3
,64642.5,,78076.3,,171393,,55854.6
,56399.4,,79324.5,,158085,,54793.4
,43697.7,,26925.7,,63734.3,,61061.6
,55453.5,,36996.2,,74536,,74713
,69685.2,,84780.3,,142740,,61605
,65217.6,,76562.6,,144789,,64490.1
,65915.1,,79471.9,,167035,,66029.9
,69016.5,,94814.7,,177333,,67220.6
,104558,,199245,,124390,,59748.7
,46508.4,,19020.8,,55139.9,,64190.9
,59029.2,,66658.8,,130034,,48880.6
,49301.1,,71108.2,,135647,,58843.6
,54148.5,,36258.1,,81420.6,,60692
,58518.9,,45293.1,,92143.1,,63277
,61581.6,,43918.4,,74934.9,,71698.4
,56206.8,,54528.3,,80779.9,,54846.4
,64014.3,,64983.9,,76821.1,,51637.7
,67514.4,,91398.1,,159434,,65343.3
,59783.4,,54967.6,,105622,,62651.2
,58627.8,,35604.9,,75250.4,,66987.6
,62343,,71073.5,,162698,,52229.2
,70056.9,,51859.5,,115406,,69021
,63678.6,,75157.3,,158548,,54098.9
,60434.1,,64559.9,,116425,,50064.9
,47588.4,,34812.6,,74423.4,,48668.6
,66046.5,,39523.3,,99732.5,,70402.8
,65658.6,,65314.7,,144670,,48698.8
,61717.5,,59145.9,,120908,,49415.9
,70509.6,,81969.7,,168568,,70955.5
,44070.3,,55508.3,,83216.5,,65841.8
,70191,,71970,,131659,,49296.9
,47013.3,,18537,,46391.2,,52108
,39670.2,,18199.3,,46392.6,,51856.3
,54369,,36470.8,,79806.9,,69565.7
,62863.2,,23404.8,,61714.6,,54758
,65119.5,,54839.7,,88459.6,,63833.4
,66630.6,,64960.3,,136679,,49657.1
,54729,,82004.4,,137258,,48085.2
,62948.7,,65278.6,,139509,,54206.3
,68743.8,,92357.2,,181638,,67158.1
,58345.2,,57526.5,,107262,,50256.3
,41228.1,,24833.7,,45769.9,,54959.9
,70429.5,,71514.1,,143142,,51014.7
,57141,,74612.4,,154189,,48310.2
,62399.7,,67005,,132712,,52257.7
,60730.2,,14786.8,,81259.4,,73654
,63087.3,,69173.4,,143729,,49489.7
,69282.9,,72477.4,,163286,,62688.6
,74661.3,,36493.1,,76134.5,,81034.3
,65435.4,,75953.8,,138429,,49340.1
,73226.7,,81331.7,,147307,,67014
,69959.7,,35538.1,,69540.3,,71993.9
,51710.4,,29846.1,,53627.6,,50331.9
,57309.3,,56218.6,,98181.3,,50808.2
,46587.6,,29771,,67627.7,,65993.7
,42338.7,,40193.2,,57818.4,,57375.1
,60461.1,,69352.7,,135301,,51524.5
