"FSC-A","FSC-A","SSC-A","SSC-A","FITC-A","FITC-A","Comp-PE-A","Comp-PE-A"
58290.3,70782.3,69194.2,62484.7,75967.7,119758,81046.1,53074.7
50481,64082.7,20606.8,52448.9,44125.6,68147.5,53377.1,81138.9
73752.3,55806.3,70317.3,28856.4,135878,56603.6,57846.6,58378.9
75317.4,67165.2,104250,50222.1,138735,80158.5,50149.6,71417.6
82619.1,74592.9,105091,34192.6,153663,75895.4,68757.7,76506.6
58784.4,78901.2,24470.9,67452.5,54868.9,127252,60247.6,55498.6
72680.4,70381.8,76103.9,82742.5,153948,133398,50272.5,56300.4
74007.9,79880.4,43323.5,140261,68924.5,155207,53207.3,54849.5
60918.3,83910.6,65767.9,85747.7,124530,162478,50161.5,60443.8
60039.9,57935.7,28946.8,56977.5,49243.5,92770,50343.8,48522.2
57344.4,61420.5,22379,20902.8,46150.8,49010,48775.8,73120.9
49277.7,72632.7,19764.4,73447.6,45404.3,140950,55640,51491.2
68676.3,74082.6,79617.8,54057.1,145411,86483,49712,77344.4
76217.4,64850.4,94884.2,67617.9,135126,154998,49353.1,48300.3
72533.7,91081.8,85917.3,58936,133466,76476.4,56754.8,59324.9
71438.4,82488.6,123842,98227.1,212243,194076,79799.9,64367.2
49366.8,75095.1,16382.5,29555.6,47859.1,58278.5,58568,51504.4
100524,58707,81675,21659,157002,48198.2,76155.4,49234
103494,47727,78131.9,75449.2,73089,84521.7,54699.2,64748.9
41896.8,91799.1,26587.9,85710.2,47740.9,93820.8,51489.1,49503.7
58048.2,69651,73461.5,50451.4,93816.7,99856.2,48817.3,70892.8
58232.7,88706.7,28632.6,54857.7,68438,82445.1,79358.4,48870.4
60499.8,63603.9,80257.2,44866.4,93647.1,77528.6,73995.2,59275
81087.3,45874.8,108416,53941.7,154615,83940.7,51308.4,71675.2
78380.1,44172.9,137711,21257.3,155380,47247.5,53984,58073.6
83828.7,88497,106042,100540,172129,186569,69443.4,64827.1
63342,41728.5,26330.8,11980.4,56659.2,44898.4,73765.6,49666.6
55469.7,85027.5,25645.5,40433.7,49566,56606.4,48933.8,49905.3
72486,43296.3,45829.7,20295.4,70930.3,43390.2,75573.2,56051.2
51209.1,78201.9,31471,39966.7,46295.3,59674.1,48139.9,52060.1
70865.1,58107.6,93759.7,55951.7,117769,84202,49991.3,69646.3
75536.1,83597.4,87091.8,17372.2,126090,61770.2,63921.7,48905.5
51111.9,63302.4,22205.2,37859.4,47625.6,73048.7,60111.5,58194.7
68311.8,74622.6,100006,50900.4,166612,87154.4,68128.6,74917.6
46088.1,70169.4,52568.4,65456.5,79320.4,135223,70680.1,48525.5
71307,81612,73600.5,81951.6,112120,85986.8,49903.7,55631.4
55388.7,56621.7,90566.8,22943.3,137121,46521.9,54733.8,53307.8
78948,133250,116278,65253.6,164500,113377,78994.5,55833.4
101235,79944.3,47536.6,103402,67851.5,190213,50721.8,67959.4
102319,73090.8,102405,122827,107273,181438,80642.5,61424.2
71525.7,122689,62563.9,89749.5,125100,97422.3,50294.4,55335.3
45768.6,87595.2,27838.9,120854,44455,220675,48413.9,79095.1
63963,83319.3,50530.7,65355,75586.8,108883,75302.6,53326.4
65815.2,65375.1,31225,74324.7,53859.7,116994,52668,61986.5
71856,63566.1,79064.6,42800.9,120822,76415.2,49082.1,69965
71347.5,131653,72230,80087.6,93747.2,124851,50596.7,53572.1
63290.7,76131,79313.4,76875.3,118913,193829,57098.4,68944.6
121884,69107.4,75596.5,72086.8,101854,134307,57721,51221.9
71882.1,70400.7,62825.2,73307.2,108056,124480,73878.8,53913.4
42868.8,76634.1,20139.7,54182.2,43862.8,74887.6,53706.2,68862.9
66622.5,94127.4,94436.6,105679,172095,204351,67930.5,67084.3
60569.1,46275.3,82146.2,17921.3,124680,138926,53213,63793.1
72068.4,65255.4,96188,36231.7,146609,58316.1,54525,53856.7
77835.6,131548,99529.6,140546,148872,185672,77419.8,50681.1
72549,65044.8,74636,45081.9,137165,66989.7,48633.1,57659.9
74754,65360.7,23339.5,38204.1,54343.4,74153.7,55484.7,72560
80719.2,58671,101218,31736.5,153157,63161.6,60075.1,47882.3
58843.8,80537.4,19090.3,28337.9,46952.8,73586.6,61534.9,57602.6
83001.6,88666.2,83931,137296,136088,122212,53837.3,58749.5
59092.2,72222.3,47853.5,27287.1,82529.9,74519.3,49481,76535
93792.6,82444.5,101591,83985.2,135506,158069,63167,58550.2
95056.2,81961.2,114811,59947.9,196988,123269,62792.5,75223.5
77706.9,46089.9,80431,30406.2,118115,52932.6,50634.3,61825.8
73896.3,70056.9,88751.5,79310.6,126961,135984,52301.5,61387.3
74553.3,70762.5,79777.7,60351,112728,135209,49210,55778
63879.3,77764.5,27649.9,82385.3,62277.6,151839,51763.8,61496.8
72460.8,60013.8,47834.1,54910.6,76197,100251,74447.4,72420.9
68993.1,69787.8,77050.5,47772.9,116563,54638.1,49515.7,49203.1
51566.4,50309.1,68685.5,22494.4,81779.3,48748.7,73231.2,51813.1
89682.3,50736.6,98824.8,22811.3,131178,46273.1,53291,52517
90781.2,108390,126705,90426.4,195341,135076,68392.1,48198.3
81618.3,58239,85687.9,116678,156917,223469,58554.9,75385.7
64226.7,74337.3,100889,41237.1,134038,55540.2,60038.7,48788.5
59521.5,47356.2,42041.9,74990.5,56060.1,86408,50210.2,59495.9
75599.1,74853.9,86020.1,75431.1,141965,154811,48585.7,50384.4
64060.2,71313.3,83551.5,65505.1,158630,121617,50118.4,49819.5
67289.4,60088.5,88025.9,84100.6,119646,85351.6,57469.9,58293.8
66665.7,54415.8,85004.1,24002.5,130460,49196.3,47950.7,50146.5
76110.3,83188.8,106071,106791,127859,186513,50620.9,70918.8
70326,67045.5,31541.9,45573.9,62351.2,80802.1,77496.5,73451.6
60521.4,72567.9,95797.4,74109.2,146580,147672,54975.8,48561.3
65393.1,62857.8,85307.1,76001,140587,123679,52139.2,49374.7
81277.2,78415.2,90359.7,48941.9,145658,66952.1,65331.4,57977.8
67451.4,81439.2,19439.2,83468.1,53046.6,153413,55883.4,52279.5
60730.2,104394,25553.8,163735,44689.9,157812,56762.9,76258
72041.4,74178,72011.7,77888.6,164235,134160,56947.4,53926.3
57431.7,88706.7,69115,40023.7,105042,86553.9,50474.6,80890.1
77569.2,60895.8,99859,33184.9,119158,64412.6,57614.2,80567.1
68001.3,74970.9,80312.8,41082.8,100875,63563.3,75782.1,50298.3
76001.4,93302.1,91681.6,61421.3,141088,75727.2,56378.2,69116.7
48060.9,70372.8,18580.1,61090.5,50896.2,106499,66263.8,48985.9
60034.5,45157.5,18528.7,19023.5,44574.5,45902,58628.5,59023
61475.4,70063.2,72323.1,58424.5,135283,60573.4,50109.2,52665.9
67770.9,100696,93647.1,42511.8,117234,78012.4,53542.6,47952.7
84096.9,73882.8,65395.3,84053.3,95818.3,97640.5,56086.6,68877
76101.3,56239.2,67162,39310.6,78475.2,51767.8,67771.8,51172.8
82329.3,82282.5,96842.7,73738.1,159151,127167,58875.1,48324.5
60465.6,68242.5,77703.8,57644.7,139908,120356,50136.6,49194.3
82583.1,73976.4,90865.7,38514.1,149387,63988.6,50982,56322.6
62634.6,70006.5,26037.5,16906.6,49802.3,57526.5,57141,52136.2
60735.6,70281,68830,75438.1,122791,143766,52947.9,53961.7
67552.2,113194,47664.5,53631.8,75150.4,90418.1,58941.5,50564
48996.9,56855.7,87923.1,34695.8,75700.8,53499.7,58355.6,49332.1
84365.1,80946,41334.4,78985.4,65797,163483,48362.5,63648
75185.1,54608.4,25941.6,47401.8,61570.1,74850.1,55381.4,56634.7
66625.2,81537.3,96068.5,50422.2,119466,69986.5,64774.4,55776.9
55115.1,62907.3,114276,59379.4,150908,93053.5,49978.6,47941.7
70425.9,73666.8,64237.5,29547.2,84006,67526.2,73303,74556.9
66969.9,62583.3,75210.1,27548.4,132774,46357.9,50929.2,54103.3
66420.9,70716.6,94889.7,28857.8,124670,58577.4,56282.7,80582.7
84362.4,78278.4,87098.8,57986.6,150633,87157.2,71148.7,50442.3
62612.1,72919.8,99013.9,76394.4,109460,128234,70963.1,50594.9
60658.2,65367,19403,72203.5,48032.8,88334.5,60807.7,73340.4
71529.3,123070,73091.8,84607.9,110480,130841,48905.9,47988.3
65478.6,70722.9,54971.7,29776.6,115123,48513.8,49956.6,75509.1
60735.6,69388.2,113888,60449.7,202883,113385,66680.4,48525.6
59199.3,79554.6,21080.7,75454.8,44343.8,132621,52775.6,48967.6
58941.9,42228,69247,36420.8,91749.7,68287.9,77547.5,77031.1
50866.2,63009,26757.5,43176.2,53032.7,66164,50568.9,77333.8
150650,63110.7,121262,69451.4,207930,69836.4,66074.2,52158.4
83361.6,71151.3,79894.4,88486,126247,167170,48858.3,49135.8
69424.2,60250.5,34844.5,60424.7,48455.4,108868,48334,51667.7
71460.9,75149.1,82721.7,78785.2,131281,128904,51598.6,49670.7
76730.4,80014.5,90247.1,44838.6,136167,91717.8,49497,77363.2
80580.6,61844.4,109073,121054,166541,122516,63279.1,48743.5
56421,59280.3,103509,57141.5,128752,109287,51032.6,77787.6
78648.3,106932,129914,183451,194578,169934,67590.1,53697.4
87487.2,72357.3,104395,44486.9,132667,66237.7,51785.1,50521.7
58878,70626.6,24045.6,68078,50785,129050,50622.1,54760.2
62577.9,59634,45924.2,18455,78198.6,47164.1,70442.4,79440.3
62288.1,72874.8,27659.6,69162.2,47507.4,86572,50903.1,69370.1
70862.4,59794.2,59699.1,28597.9,95896.1,47032,48214.4,56767.8
64154.7,57989.7,85141.7,78266.7,151007,122720,54927.9,48229
80452.8,54639,51249.3,17113.7,79559.4,47048.7,73432.7,54909.8
89928,72674.1,112245,89164.3,162074,147868,70047.4,54056.3
72967.5,76272.3,70210.3,93620.7,119169,167873,56486.2,50865.9
72106.2,55718.1,77567.6,27993.2,119621,50480.6,51507,54691.4
76363.2,57024,110543,19914.5,186790,47475.4,54526.1,48934.1
54878.4,63530.1,17956,25973.5,55219.1,56321.4,53897.2,57618
95214.6,40135.5,137793,25701.1,190743,48094,61192,57441.5
78719.4,54947.7,69424.9,13395.4,102147,47942.5,50370.6,76602.3
91385.1,109443,54736.8,50184.6,67302.4,72788.7,53394.1,69519.9
59712.3,99809.1,107646,129390,113728,185102,57508.8,77870.1
117321,67389.3,61711.8,72797.1,92276.5,162517,52004.2,63720.4
74764.8,73390.5,69894.8,24971.3,97988,70874.7,57546.4,48581.4
63585,45271.8,30008.7,17900.4,59590.7,43406.9,69526.4,49403.2
74565.9,69388.2,82189.3,72602.5,140202,136057,59553.7,51018.9
70922.7,93690.9,96322.8,95832.2,155157,151378,54951.3,56809.1
56096.1,62176.5,47285,38525.2,73788.1,48048.1,64587.4,47932.5
78361.2,66844.8,84040.8,43957.4,125182,71900.5,57641,74338.5
55066.5,50727.6,34276,15212.2,54866.1,47632.5,57980.7,48564.4
84382.2,77793.3,65293.9,50298.5,99701.9,60011.9,64074.6,53254
66338.1,74160,60609.6,82271.3,98752.5,151112,59418.6,49147.2
63100.8,65340,70224.2,60420.5,116823,124652,50047.2,48034.2
85464.9,67901.4,123218,72599.7,202782,98470.4,59107.1,69840.3
81261,49667.4,71674,24967.2,104315,60011.9,49004.6,75467.6
70945.2,58419.9,61754.9,33704.7,55645.9,56203.3,49743.9,63752.5
51204.6,61915.5,78069.4,33098.7,137161,61311.5,50243,58928
68337.9,70431.3,40953.6,32941.6,57889.3,70635.6,69843.2,77698.7
49258.8,60727.5,36384.6,18995.7,67252.4,49611.9,77159.2,54121.2
91720.8,76187.7,74123.1,75743.9,85102.8,133377,50172.1,55859.6
72199.8,59679,79581.7,20445.5,123463,44841.4,71504.4,62708.3
82237.5,70519.5,100293,83301.3,151668,165656,64117.8,53160.6
88037.1,67830.3,123361,22295.6,166718,56685.6,56026.2,74976
75335.4,103334,97705.9,65676.1,136711,113595,54717.5,51816.7
73144.8,65941.2,113042,91403.6,130678,113303,53714,49140.9
61431.3,90884.7,67466.4,67587.4,71220.8,123495,76732.5,56958.9
75654.9,80692.2,134528,47091.8,152874,70751,72366.4,50757.5
66603.6,43414.2,93852.8,29073.2,163777,59612.9,59746.2,56336.7
72153.9,71598.6,68143.4,66072.3,82542.4,88245.5,49394,63969
124926,133427,121751,69801.6,127841,111955,48003.3,52104.6
122121,43986.6,117527,18389.7,154195,46726.2,50615.8,56768.7
114538,96478.2,125253,77328.5,94044.6,96420.1,53074.7,81273.6
69624.9,79767,68518.7,75700.8,101590,126042,48498,57751.7
59382,90262.8,76580.7,61670.1,140779,84630.1,53693.8,53816.8
50398.2,71204.4,19336.3,90600.2,49891.3,122609,56441.8,60769.6
62292.6,79947,77257.6,89917.7,120296,157890,50665.9,71596.7
71533.8,55319.4,71813,43919.8,136574,72281.4,48369.5,76736.2
60480.9,47036.7,22908.6,33154.3,43716.9,58128.4,56563.3,63781.9
54779.4,85410.9,22818.2,37170,64540.5,66696.4,66124,56860.8
85970.7,62882.1,91013,57306.9,135364,77887.3,59703.5,78565.4
76783.5,69639.3,88251.1,87000.1,124171,145623,58013.6,70587.8
91625.4,71473.5,117869,44297.9,148020,77250.6,56700.4,77048.1
55846.8,80084.7,62223.3,45914.5,105570,96422.9,54991.3,56766.4
59430.6,61732.8,49834.3,39248,50867.1,65318.9,49015.7,70206.8
64038.6,52461,25644.1,43348.5,44425.8,64590.5,50609.1,60374.6
79723.8,82398.6,41547.1,70146.4,52838.1,145566,47837.1,51342.6
57146.4,70878.6,64473.8,77677.4,104228,101199,49771.7,51152.1
75766.5,47559.6,94982.9,15919.7,148210,53414.9,60192.8,49964.2
67333.5,77685.3,25071.4,88821,62323.4,129562,65977.9,49848.2
103784,89374.5,76159.5,83219.3,79385.7,131021,54062.7,53213.2
51515.1,58570.2,27802.8,21336.5,49817.6,47123.8,48088.3,50750.4
65185.2,77788.8,67747.2,39000.6,116938,70024,62587.6,76753.9
54873.9,83946.6,13606.7,24976.9,42998.3,51742.8,52297.5,49060.1
62467.2,73553.4,21695.1,27052.2,51890.1,54710.4,54449.7,76097.9
85312.8,63459,59430.8,79826.3,76115,116307,70973.3,66388.1
74339.1,47891.7,73795.1,17865.7,117401,44635.7,55361.5,52582.4
70340.4,61262.1,38674,42746.7,65909.6,51164.5,56480.1,52743.3
76464,61265.7,87696.5,21627,132934,54379.6,60636.8,56950.3
63992.7,107192,28849.4,97494.6,47905,166373,47915,79498.3
53360.1,76572.9,97648.9,43586.2,124445,73400.3,49909.6,51688.6
68832.9,67809.6,129427,24640.5,168464,61426.9,64758.4,75434
70887.6,59988.6,108314,29472.2,200242,55103.8,64618.8,51765.2
64751.4,51594.3,73177.9,27417.8,120879,47731.2,52885.7,67052.2
63179.1,136776,24637.8,185728,53458,186149,54233,64550.2
55272.6,84557.7,29722.4,51616.3,51842.8,66600.5,56147.1,50240.6
71348.4,58890.6,82920.4,72216.1,115848,157914,59009.2,53533.6
51516,73124.1,26679.7,72405.1,58591.3,135483,80044,55886.1
62379.9,55781.1,28902.3,17441.7,58216,44459.1,69250.2,48798.6
60644.7,88293.6,24871.3,70224.2,54130.8,116176,56976.8,79904.2
48773.7,71273.7,19245.9,36591.8,51203.4,70309,53848.7,78559.9
67518,65711.7,52462.8,66130.6,105634,135316,79436.1,68455.1
82982.7,54728.1,76044.1,22217.8,117588,52366.9,50961.6,53843.3
102118,85340.7,85226.5,83241.5,74084.2,139486,56451.4,63023
90207.9,61543.8,73087.6,18343.8,132660,44377.1,65143.4,51660.2
97878.6,84141.9,36525,58026.9,66804.8,85458.6,52053,60650.1
78298.2,50965.2,91367.5,16265.8,124031,43174.8,62941.5,68596.8
84786.3,51161.4,38311.2,18717.7,57981.1,42756.4,54614.2,57284.5
59829.3,59411.7,35999.6,23710.6,65908.2,46772.1,79591.7,53617.5
80929.8,63179.1,88531.9,56439.6,164006,107440,48870.5,52009.2
77265,77589.9,62648.7,67451.1,106114,124504,67159,49584.9
67163.4,70922.7,57405.6,94036.3,80033.4,138676,81312.4,51395.9
62753.4,78466.5,111481,57129,143808,97208.3,69475.7,79766.7
60725.7,70412.4,84259,45276.5,91851.2,74205.1,60845.9,77584.4
77175,73965.6,55358.1,73959.1,79473.2,146395,75655.1,56264.6
58352.4,55038.6,27944.6,38861.6,53975.1,56906.6,54359.4,53903.8
83531.7,68235.3,59241.8,53446.9,82189.3,65348.1,75478.4,60855.9
65132.1,91143.9,67759.7,63271.4,109827,82238,62814.5,49626.9
64843.2,114909,31484.9,133781,48490.1,178459,57971.5,68567.2
60291.9,94484.7,25890.1,61378.2,43333.2,70556.4,53294.2,60323.1
73176.3,66800.7,89417.3,68415.8,148412,116682,48931.1,49590.3
77809.5,55239.3,56012.8,21942.5,100430,50056.7,72594.7,49944.4
84726.9,56820.6,122438,48637.5,212671,59480.9,79564.9,50429.1
56092.5,75610.8,105636,86139.7,207774,160524,75162,65311.8
75124.8,156677,27955.7,140072,46064.6,141577,56541.5,49848.3
73170.9,80253.9,99768.6,43972.6,138063,65499.6,54703.2,51222.1
72240.3,83624.4,46638.7,80144.6,77053.3,125648,73507.5,53752.1
67313.7,69936.3,65706.7,56192.1,92109.7,114347,74453.3,53467.2
75670.2,83259,50673.8,62094.1,64808.8,115187,74597.5,51173.1
56871,,27099.4,,55427.6,,70140.4,,
94158.9,,126672,,173289,,78417.7,,
73689.3,,86196.7,,144226,,67502.4,,
64186.2,,68083.6,,86319,,80550.2,,
72537.3,,77778.8,,124636,,48973.5,,
61959.6,,76873.9,,148862,,56681.6,,
66177,,85938.1,,133642,,64976.9,,
79004.7,,83854.5,,123753,,50997.8,,
46469.7,,20548.4,,46979.2,,72002.7,,
70222.5,,70703.7,,108588,,51972.8,,
48103.2,,45967.3,,71382.1,,61008.6,,
67689,,106719,,167350,,57846.9,,
53531.1,,22928,,47025.1,,49394.3,,
73053,,107543,,168895,,58797.8,,
67147.2,,79653.9,,142658,,51371.4,,
55111.5,,23256.1,,60866.7,,74451.3,,
82063.8,,91666.3,,144053,,51852,,
56800.8,,16186.5,,45090.2,,63197.4,,
112318,,132446,,118238,,78351.7,,
69028.2,,77254.8,,114330,,48474,,
65697.3,,22158,,48919.7,,61984.2,,
75070.8,,92943.7,,206525,,48037.1,,
64815.3,,98114.5,,151382,,58613.1,,
80732.7,,75428.4,,116379,,53106.3,,
73314,,54682.6,,81470.7,,81212.2,,
58578.3,,41476.2,,68812,,76356.4,,
69493.5,,21781.3,,48645.8,,51943.2,,
66652.2,,77311.8,,104283,,54317.7,,
60274.8,,24748.9,,45821.3,,54310.3,,
77800.5,,89851,,114236,,54003.7,,
59010.3,,30809.3,,45098.6,,47841.6,,
52155,,102392,,131903,,60005.7,,
63332.1,,31504.3,,70979,,81287.2,,
107179,,43651.6,,74506.8,,48767.7,,
80289,,69084.4,,57757.3,,54262.5,,
44447.4,,72616.4,,134089,,54440.8,,
49885.2,,79968.1,,127305,,48413.2,,
67531.5,,49607.7,,68322.7,,52065.9,,
58341.6,,95335.9,,163910,,54019.4,,
62145,,25931.8,,65922.1,,80903,,
83459.7,,64921.3,,72491.3,,48625.8,,
66176.1,,72613.6,,117561,,58445.7,,
88466.4,,51411.9,,55434.6,,49088.4,,
67698.9,,37902.5,,66718.6,,77801.2,,
69236.1,,79135.5,,113456,,60512.8,,
64088.1,,83059.4,,121954,,55986.8,,
69451.2,,75015.5,,129342,,49094.5,,
51023.7,,21094.6,,47047.3,,53504.6,,
85123.8,,71148.5,,116357,,53288.4,,
78755.4,,32211.9,,67396.9,,50809.8,,
59269.5,,74989.1,,117879,,52906.3,,
69368.4,,128439,,201116,,74451.7,,
50508,,21267,,44056.1,,52272.2,,
66547.8,,76233.2,,134705,,48631.3,,
65453.4,,86531.7,,123610,,57320.1,,
58911.3,,33457.3,,61018.2,,65320.7,,
74564.1,,91360.5,,148214,,48258,,
76525.2,,53495.5,,65049.2,,54623.6,,
53477.1,,17331.9,,48916.9,,52754.8,,
49451.4,,20865.3,,48241.3,,49031.2,,
130794,,117597,,121874,,51496.6,,
90146.7,,116507,,182963,,71676.8,,
59041.8,,31833.8,,51687.1,,49907.3,,
77432.4,,85719.9,,134977,,64627.3,,
68509.8,,93331.5,,172264,,66416,,
85575.6,,78507.2,,135863,,51602.3,,
62407.8,,96026.8,,135476,,71269.7,,
62613.9,,107398,,162709,,64381.3,,
84701.7,,92479.5,,148199,,52691.7,,
105811,,90320.8,,147699,,50812.8,,
58216.5,,86599.8,,117601,,51454.3,,
60013.8,,69183.1,,109079,,54233.1,,
74495.7,,90215.2,,167920,,61511.7,,
50850.9,,27740.2,,51537,,52668.8,,
51371.1,,25519,,45202.8,,67236.8,,
60820.2,,77252,,154526,,60743.6,,
77598.9,,87417.1,,119564,,51577.3,,
54988.2,,24548.8,,55474.9,,75440.3,,
63699.3,,27844.5,,42927.4,,50671.4,,
68006.7,,75019.7,,119198,,48700.4,,
67455.9,,76548.7,,109521,,54681.1,,
82664.1,,29815.5,,65331.4,,59044.3,,
82151.1,,60823.6,,115907,,73551.9,,
58224.6,,27638.8,,48693.1,,55853.1,,
61705.8,,29962.8,,59658.8,,52262.6,,
98613.9,,115883,,192718,,71623.8,,
65659.5,,104828,,131854,,52773.8,,
77652.9,,80772.9,,111399,,51230,,
65951.1,,93754.1,,93542.8,,67314.3,,
78193.8,,78485,,154643,,49149.4,,
66808.8,,61126.6,,88334.5,,53313.3,,
76023,,92455.9,,129947,,55911.1,,
70872.3,,100590,,157679,,58974.7,,
75402.9,,85069.4,,118599,,49775.9,,
81255.6,,99161.2,,155316,,77741.6,,
83120.4,,43907.3,,68969,,52960,,
89299.8,,57963,,76551.5,,80780.5,,
63810.9,,77523.1,,129203,,73818.7,,
61884,,71257,,135146,,59151.3,,
75288.6,,88796,,140494,,50871.7,,
58481.1,,43092.8,,75674.4,,70767.1,,
70390.8,,71033.2,,116885,,50891.3,,
57181.5,,92233.4,,157217,,73295.3,,
53883.9,,61032.1,,114536,,47899.7,,
64690.2,,36099.7,,55609.7,,48331.1,,
51600.6,,31291.7,,74184.3,,54560.4,,
60221.7,,30920.5,,59400.3,,76356.2,,
75086.1,,80553.3,,127706,,51785.5,,
66108.6,,88921.1,,135051,,50202.8,,
61025.4,,85733.8,,119711,,50796.7,,
45568.8,,14671.5,,44696.8,,56711.1,,
68166,,66846.5,,98772,,52242.2,,
76438.8,,85415.5,,174002,,60767.7,,
70026.3,,30393.7,,57509.9,,48905.5,,
55980,,90056.7,,128642,,53451.1,,
75467.7,,53542.8,,76912.9,,80357.8,,
64219.5,,37906.7,,58278.5,,57328.5,,
58031.1,,55502.7,,77856.7,,68970.8,,
61692.3,,72628.9,,114492,,58673.5,,
49912.2,,52158.4,,65134,,59149.7,,
57776.4,,80364.2,,167836,,67204.8,,
59587.2,,25913.8,,69757.1,,68572.2,,
67852.8,,30365.9,,49671.6,,56704.3,,
84090.6,,49214.3,,74540.1,,75970.7,,
61919.1,,79506.6,,162445,,58340,,
64083.6,,93053.5,,146776,,48865.7,,
69709.5,,89866.3,,146977,,53594.5,,
111093,,73553.2,,92981.3,,68520.9,,
103402,,49206,,64907.4,,56059.9,,
46872.9,,18527.3,,53419.1,,70420.6,,
85039.2,,81900.2,,137140,,49803.6,,
61409.7,,85126.4,,124597,,50219.9,,
62862.3,,26333.5,,49689.7,,50033.9,,
49525.2,,67206.5,,138422,,48891.6,,
53610.3,,21360.1,,50886.5,,67926.9,,
67026.6,,81574.9,,140952,,47891,,
57281.4,,74595.7,,150265,,50165.9,,
53672.4,,43272.1,,64591.9,,70094.8,,
47717.1,,24430.6,,49655,,49574.6,,
107134,,36516.7,,70760.7,,59597.3,,
70441.2,,100350,,158663,,56136.5,,
102730,,74331.6,,121396,,50558.8,,
79820.1,,91102,,141767,,54812.6,,
108384,,106203,,165773,,61551.7,,
56627.1,,21381,,56673.1,,61265.8,,
55323,,17804.5,,43652.9,,55478.9,,
59822.1,,27829.2,,51160.3,,55548.6,,
69313.5,,79562.2,,114262,,68648.5,,
78117.3,,93412.2,,139035,,58019.2,,
41095.8,,14114.1,,47601.9,,50181.4,,
62874,,43957.4,,64446,,48153,,
72572.4,,104175,,163885,,55098.2,,
89352.9,,49167.1,,61347.6,,47964.2,,
58857.3,,25482.9,,45576.7,,50672.6,,
74190.6,,77051.9,,130559,,48873.1,,
64395,,73792.3,,107144,,51805.2,,
60045.3,,57621.1,,67929.3,,54959.3,,
78278.4,,92811.7,,144097,,48534.1,,
