"FSC-A","FSC-A","SSC-A","SSC-A","FITC-A","FITC-A","Comp-PE-A","Comp-PE-A"
60102,58884.3,50594.6,54050.1,83384.7,76393,41277,43770.5
46175.4,60693.3,26194.5,57059.5,130011,108595,33788.1,43258.4
64361.7,50446.8,57512.6,66048.6,101356,74327.5,41397.1,41140.8
61427.7,54865.8,63955.3,45622.6,103537,76123.4,41633,40034.2
58482.9,78549.3,57668.3,73305.8,82339.4,142738,39452.8,44572.1
55564.2,54984.6,40461.5,42210.1,82688.3,84709.4,36416.3,35330.5
69700.5,58787.1,49949.6,39452.4,91535.7,75247.6,40759.1,42142.9
69696.9,61044.3,51334.1,43914.3,76930.9,83919.9,42412.4,38158
66382.2,64034.1,62969.8,44361.8,109454,88797.4,40450.2,43977.2
80216.1,59688,69309.6,41766.7,115310,85757.4,45833.4,42981.4
86747.4,57530.7,79435.7,46402.4,109481,91541.2,42771.3,39815
58435.2,58689.9,56154.6,45510,81757,80169.6,42210.5,44331.4
66173.4,59960.7,76247.1,48258,104934,81644.4,37947.7,45338.1
69403.5,53481.6,77753.8,33703.3,104774,77833,42181.8,39634.9
84362.4,55988.1,55501.3,53847.2,91078.4,94141.9,42142.7,44249.1
52814.7,63016.2,76986.5,41238.5,192407,79933.3,37293.5,43022.8
69525,65212.2,87728.5,45764.4,98685.8,90108.1,40219.9,40219.4
74877.3,61801.2,85989.6,53706.8,117524,79620.6,38939.3,35184.5
66631.5,60761.7,64911.6,47140.5,116032,85058.3,38562.1,41690.3
63537.3,61443,61187.8,47754.8,114129,93572,43009.9,43998.1
76675.5,80517.6,74235.7,62044,107913,106701,35917.1,41179.7
69289.2,81909,49546.6,52112.5,80811.8,75592.4,41123.8,42160.4
62904.6,62081.1,65421.7,51746.9,85447.5,96404.8,35940.8,43039.9
58970.7,79913.7,90322.2,70193.6,89511.8,112504,41018,36070.3
63648,63859.5,59803.4,44068.6,93579,77701,41886.2,44167.5
64300.5,60416.1,75041.9,48843.2,106053,96258.9,43421.6,38614.8
70378.2,63202.5,71494.6,54034.9,112147,90122,44033.5,43630.9
72522.9,58883.4,78377.9,48138.5,113933,93934.8,41807.2,44129.9
57005.1,55327.5,39445.4,34775,81709.8,73393.4,41084.8,41768.6
45636.3,61952.4,20070.2,44817.8,179239,103152,32630.5,42613.2
43794,56635.2,82410.3,50083.1,98858.2,94436.6,38819.2,42712.9
78013.8,61031.7,50074.8,70506.4,111206,127017,41093.6,46757.5
60703.2,63026.1,49807.9,63752.3,90205.4,86681.8,40615,39998.1
62768.7,62464.5,44139.4,40301.7,78416.9,77813.6,39390.2,40443.7
48572.1,89807.4,30792.7,68123.9,86117.4,101363,34660.8,39827.4
61064.1,69666.3,54485.2,53499.7,76707.1,92177.9,37921.3,41002.9
60773.4,57207.6,95087.1,47428.2,121334,85984,43380.5,40875.4
60940.8,64125,57830.9,65209.1,97380.6,103886,40387,40285.3
52965.9,61488.9,61307.3,46149.4,86645.6,88372,43469.8,39719.6
73252.8,65024.1,78369.6,42686.9,104528,79410.7,39432.4,42671.5
64585.8,58170.6,53861.1,44923.4,95638.9,86673.4,39331.6,43010.8
74848.5,75584.7,49093.4,54753.5,78105.5,107163,45169.7,44901.2
53956.8,73809,34146.7,52279.3,75563.2,124853,41371.3,41208
79719.3,61531.2,76109.4,47660.3,84061.6,79876.4,42751.5,44193.9
72849.6,57172.5,76459.7,45742.1,129309,89845.4,42514.9,42077.4
68047.2,67983.3,67442.8,54515.8,105425,89710.6,41743.9,44081.8
70785,56394,59498.9,43840.6,99186.2,78957.6,39973.4,43733.8
53910,54527.4,43573.7,113787,75628.5,124807,35348.6,42340.9
61032.6,57635.1,66297.4,37161.6,103162,78679.6,41988.5,42714.1
62037.9,63494.1,52371,45423.8,78165.3,91385.5,42429,43565.1
60397.2,66717.9,61930.1,50170.7,108018,90058.1,42399.1,39054.9
55702.8,57887.1,37367.4,47204.4,173968,87602,34722.6,43117.2
49584.6,69635.7,63359,62832.2,83792,104506,40933.4,43492.5
60227.1,60166.8,59200.1,43030.2,87736.8,83361.1,42837.8,41632.9
58181.4,66066.3,51726.1,38977,77321.5,74098.1,38401.7,39976.3
58506.3,64117.8,51089.4,48668.1,80194.7,79510.8,37203.3,45227.1
67260.6,57305.7,66065.3,45371,95693.2,92165.3,43484.3,35324.1
62898.3,57797.1,58335.5,40809,102403,74775,43620.1,41570.3
63202.5,65309.4,56784.3,54608.9,77545.3,87874.4,39092.6,43272.7
60433.2,58775.4,56523,69557,86745.7,101025,43148.1,39992.9
55940.4,57087.9,56329.8,48106.5,75136.5,86969.5,43104.7,42842.3
58453.2,64868.4,48021.7,47959.2,97240.2,94578.4,42863,43506.2
62607.6,79421.4,81038.4,64035.9,127653,89965,46430.3,43694.9
62842.5,50873.4,66617.1,88491.6,81651.4,82235.2,36618.2,40250.2
67130.1,65782.8,56470.1,53601.2,91439.8,102799,40995.8,39083.6
72062.1,57629.7,135907,58006.1,191007,105821,28296.6,39242.4
62832.6,56740.5,55555.5,42143.4,85881.1,85125,41044.4,38054.1
72535.5,70430.4,69109.4,58520.4,110714,78248.7,37196,44155.8
71150.4,63304.2,64458.5,37457.7,95358.2,85382.1,40415.1,43138.1
61234.2,85282.2,45343.2,77940.1,74049.5,144538,40022.4,43212.3
65639.7,113552,48538.8,76212.3,77762.2,149051,42394.3,31884.8
58255.2,61245,42112.8,47283.6,85208.4,88777.9,37951.6,43478
70132.5,52981.2,67255.1,62445.8,100920,75659.1,42737.7,41355.7
69557.4,57636,54525.5,46467.7,86588.7,86203.6,42796.4,41048
66627.9,51284.7,52290.4,58854,101770,83112.3,39052.9,42943.8
61901.1,59630.4,47269.7,36697.4,82293.6,78689.3,36611.7,44801.3
63465.3,73224,47169.6,44103.3,79979.2,74380.3,38007.6,43942.5
57784.5,64076.4,46046.5,43281.8,87886.9,101271,42235,43490.1
73136.7,62969.4,56488.2,51651,104023,84641.3,42944.2,42886.6
66292.2,80667.9,58669.1,114429,97231.9,135931,43659.9,37966.3
47940.3,64107.9,50794.8,50819.8,92696.3,94902.2,38078.1,43465.2
65321.1,63847.8,48372,39633.1,88445.7,83122,42175.3,41168.2
60522.3,67860,62604.2,53238.4,75022.5,95124.6,39653.5,43981
53677.8,54598.5,40968.9,97890.8,130814,131301,39655.5,39650.3
60244.2,60202.8,58580.2,34415,88178.8,78939.5,46471.7,41902.9
52574.4,65251.8,48391.5,53506.7,74447,89766.2,36916.1,43027.5
60387.3,69009.3,62904.4,49723.1,85806.1,91324.4,39262.9,43008.7
74955.6,39597.3,79769.3,19605.9,117014,113877,46312.9,32921.6
70871.4,60704.1,43961.5,59852,76764.1,104515,39901.3,40921.8
67923.9,60981.3,69021.8,41235.7,102765,80066.8,41358.4,43916.6
66815.1,59370.3,68995.4,38440.4,75966.3,78027.6,44026.3,43553.7
61777.8,59596.2,55117.7,42924.6,80037.6,89243.6,42581.2,42888.9
68194.8,68180.4,44304.9,52197.3,75306,102547,38882.5,42518.6
55613.7,58767.3,57712.8,51660.7,84987.4,89327,38337.9,43717.8
58588.2,57116.7,62465.2,39161.9,77139.4,77687.1,41768.5,44921.8
51539.4,55851.3,28570.1,32382.8,74572.1,86552.5,40598.8,40748.4
65358,68993.1,67156.5,65695.6,111499,121857,42635,42498.8
67885.2,73368,65473.2,46616.4,90730.9,77228.4,42224,43132.1
45868.5,62796.6,19493.4,44976.2,78398.8,87935.6,40739.6,43163.2
62860.5,62397.9,55031.5,48233,80023.7,83633.5,43563.4,39971.7
72630,58679.1,59507.3,45115.2,83893.4,85519.8,41531.8,42755.6
66937.5,73816.2,80273.9,56317.2,120705,93499.7,43294.4,44101.2
55976.4,65844.9,90853.2,55504.1,126161,95422.1,42950.6,39770.3
66340.8,57789.9,61125.2,72631.7,96103.2,100936,36218.4,42170.9
52824.6,71877.6,52813.1,61821.6,76149.8,108684,45759.3,42726.1
77981.4,67263.3,55276.1,71037.3,82896.8,73225.2,45651,43402.5
67818.6,56568.6,59739.4,44965.1,99728.3,89877.4,44394.8,42527.2
77382,61812,62424.9,43785,100857,83533.4,40132.6,37898.4
73663.2,63043.2,69557,51014.4,107168,96528.5,39646.8,39065.1
73730.7,66829.5,61955.1,57971.3,109593,100330,40077.4,44500.6
61735.5,62164.8,60189.8,45615.6,80518.5,96416,43089.3,42719.5
53928,58966.2,57166.5,53121.6,103003,99109.8,42063.6,37801.4
75298.5,70831.8,73825.7,57761.4,98717.8,101719,41902.6,41227.3
83596.5,63036,75942.6,51373,130848,94116.9,44212.6,43497.2
68858.1,67558.5,56425.7,59405.8,92731.1,115837,40568.2,46412.3
63000,90096.3,52087.5,49660.5,76869.8,100079,43408.7,42276.9
73246.5,63263.7,59062.5,64619.7,75873.1,107732,43424.6,44339.2
77776.2,56233.8,79266.1,18976.3,122007,83048.3,40408.6,41990.1
98533.8,68640.3,72656.7,62655.6,107749,115943,40600.4,41298.9
63580.5,73847.7,56589.7,72741.5,79255,115073,43303.9,47114.4
60180.3,66547.8,59775.6,43337.4,106425,80102.9,47002.8,44115.9
61876.8,59719.5,52953.4,53987.6,76459.7,92981.3,40729.2,41303.3
49160.7,66761.1,39552.4,53602.6,74280.2,92842.3,45348.4,44650.7
88392.6,53433,80652,27344.1,118413,182198,42697,34210.9
64409.4,58944.6,41422,40864.6,74770.9,87264.2,37945.5,44546.2
61235.1,55342.8,70441,40950.8,153762,78715.7,45834.6,36117.7
58589.1,51910.2,49194.9,48597.2,74784.8,82079.5,43531,43456.8
66006.9,69266.7,60544.2,63144.9,93349.6,111321,41779.5,42103.9
66265.2,59918.4,60952.9,56460.4,94101.6,95245.6,42737.9,42400.1
50530.5,55228.5,56671.7,51981.8,74259.4,97566.9,29735.9,41215
53529.3,63612.9,43974,41295.5,74116.2,76780.8,42399.3,45044.7
74272.5,61359.3,55369.3,45963.1,90202.7,83518.1,44175,44936.9
61683.3,64414.8,93089.7,69550,134267,125167,45265.5,45475.3
64170.9,60260.4,54592.2,42388.1,94777.1,77860.9,39815.9,44153.4
64229.4,149288,61307.3,152052,103146,109075,40529.9,43724.9
55776.6,74555.1,47008.4,69787.7,80881.3,122042,42626.2,41864.6
77184,69436.8,67620.7,55691.7,126162,105438,45584.5,42390.8
57195,59966.1,49627.2,41078.7,86537.2,73693.6,42338.1,43205.3
59903.1,59562,57216.6,44313.2,81658.3,82981.6,33338.7,44535.1
65657.7,59723.1,50647.4,47607.5,94279.5,86091,41530,35773
53062.2,60309,43359.7,44056.1,74445.6,86209.2,41999.4,37885.4
54016.2,65935.8,44346.6,53302.3,78655.9,81437.3,37063.8,43628.7
70082.1,67491,59700.5,51602.4,89969.1,108337,42172.6,38957.1
76951.8,67926.6,78293.1,48309.4,106858,83219.3,42209.7,44153.4
54848.7,58097.7,46692.9,42271.3,86549.7,76897.6,38441.2,39277.3
62237.7,58824,53816.6,36135.8,84338.2,73678.3,41672.4,38654
69642,93004.2,71083.2,58988.8,106945,80622.8,34435.6,46209
60963.3,66113.1,50137.3,45523.9,75748,82274.1,40411.9,44364.9
77624.1,56993.4,64537.7,38664.2,87739.6,84375.8,38922,43760.6
82543.5,63146.7,88992,54849.4,135190,99550.4,36474.9,44432.2
59092.2,65962.8,44852.5,50804.5,86164.7,94517.2,43177.1,41629.3
68611.5,67238.1,93752.7,65058.9,142162,130058,42678.5,44924.6
66096.9,65680.2,42328.3,74152.3,74996.1,145639,37784.2,44225.5
61201.8,64956.6,53734.6,59305.7,74184.3,119594,42054.5,44056.9
66375.9,60143.4,53373.2,79139.6,88173.3,119393,41017.6,43240.9
54518.4,59092.2,55233,31286.1,77742.7,73963.3,37291.4,45055.3
48867.3,70568.1,38726.8,59052.8,121411,104051,38085.4,42162.7
66369.6,62262.9,37498,42716.1,91114.5,84250.7,36727.8,37951.2
70749,66741.3,103576,60567.9,107063,94503.3,45368.9,43895.8
64164.6,70146.9,57001.1,63707.9,93702.7,112094,40955.6,43343.2
68589,69856.2,76609.9,61400.5,119222,117730,41477.9,42143
73613.7,59788.8,73233.5,39228.6,130250,85978.4,43690.9,42924.6
71850.6,67048.2,61627,62151.1,107475,115376,47303.3,47712.8
57622.5,74433.6,52686.6,68606.2,77520.3,109033,43180.7,44667.2
65226.6,60821.1,46573.3,37043.5,76658.5,80560.2,42298.7,44006.9
59688.9,60682.5,47453.2,35870.3,78932.5,75721.6,43643.6,42773.8
67270.5,78124.5,50298.5,72701.2,73797.9,88562.5,40947,35900.5
76059,56299.5,98969.4,61515.8,125363,92353,45372.8,39244.8
67446,59873.4,53324.6,40654.7,80007,74554,44177.5,42918.4
59582.7,59820.3,69740.5,42431.1,109451,79426,43823.9,42345.3
79875,64268.1,87239.2,46123,149080,79838.8,42541.5,43836.2
54459,45985.5,60548.4,18456.4,98232.7,101731,42734.7,36878.6
55431.9,70656.3,46099.3,87896.6,82132.3,118699,43111.6,40691.6
76329.9,70042.5,70739.9,51596.8,91307.7,84167.3,42318.9,41716.4
61939.8,57833.1,62757.1,41588.8,108570,79193.9,42284.2,42344.4
59851.8,60172.2,42249.1,57407,78514.1,89566,36612.5,39690
80688.6,60526.8,67656.9,46633.1,90658.6,104510,41901.9,44520.9
71952.3,58374.9,74805.6,46566.4,126451,86559.5,37674.2,39387.1
63189.9,57384.9,40796.5,47932.8,73874.3,90211,42347.6,45425.5
57024,61841.7,52386.3,42354.7,73460.1,80921.6,43923.1,38099.3
59206.5,66275.1,44880.3,58692.8,73827.1,103487,40286.4,44143.7
63861.3,63288,59956.3,41355.3,76875.3,75764.7,37218.7,43375.7
64331.1,63754.2,51638.5,42382.5,95986.4,77780.2,42450,44525.4
68517.9,59980.5,55529.1,46270.3,78569.8,83797.5,39311.2,37851.5
56520,60523.2,48006.4,77461.9,143098,76593.2,35121.4,43659.4
67375.8,67330.8,68137.8,47351.7,100486,81315,26906.1,41027.2
71438.4,59453.1,42574.3,60023,81205.2,112557,40662.9,45217.4
59743.8,66651.3,77238.1,48056.5,108651,96343.7,41243.7,40309.5
60222.6,63689.4,46709.6,46674.8,75345,73266.9,43768.7,43805.8
61210.8,45671.4,37277,42743.9,77555,101513,43312,43069.3
62457.3,55758.6,61002.9,54474.1,91402.2,92756.1,41766.8,39382.4
80556.3,56829.6,81916.9,37823.3,115132,76409.7,41149,45355.4
57662.1,53591.4,63208.9,35132.2,116160,74487.3,44636.8,36523
73088.1,59676.3,86915.3,48309.4,139167,81508.2,41368.6,44285.9
69172.2,64469.7,51766.4,58694.1,91196.5,106432,41491.8,42319.5
64089.9,56585.7,53652.6,36180.3,82492.3,77682.9,43231.1,37125.5
58694.4,100451,38377.9,56557.7,74919.6,106427,42281.4,44424.3
61373.7,58743.9,76334.6,53891.7,115637,105462,39606.8,43739
69770.7,69147,62440.2,76568.1,95422.1,159334,43964,46129.9
63879.3,62901,51296.6,47465.7,90514,76172,44385,42149.5
59992.2,62583.3,68222.6,51254.9,149891,87399,39290.1,40905.8
64063.8,59932.8,65281.3,31986.7,108202,83169.3,41769.1,41885.3
44089.2,59507.1,13904.2,41024.5,108515,75681.3,37415.7,43827.1
59715.9,68651.1,44808,63238.1,76227.6,137711,41806.9,44792
63383.4,58998.6,55241.4,57758.7,84758,95668.1,42883.5,39370.1
60778.8,64825.2,54497.7,56677.2,102593,89281.1,42216.9,36997.2
57570.3,58752,62487.4,40843.8,80114,80656.1,42333.2,43033.6
58199.4,55769.4,60542.8,75436.7,88024.5,109752,44219.7,36147.8
73007.1,65713.5,76316.6,42810.6,128999,83954.6,42381.2,43864.6
73619.1,97808.4,54953.6,81644.4,75702.2,113343,46676.7,46611.4
56822.4,56240.1,66442,41139.8,85642.1,74237.1,41395.6,34798.2
60832.8,61224.3,56004.5,48170.4,79819.4,81563.8,43862.4,39566.2
54605.7,56979.9,47550.5,41969.7,85472.5,79084,42473.6,42373.5
56030.4,65319.3,63810.7,51873.4,73950.8,99275.2,42616.7,43907.2
71076.6,63977.4,41113.4,42846.8,116877,85813,39921.9,44779.4
56990.7,75201.3,65908.2,58260.5,93556.7,109531,33796.4,41882.7
52874.1,56772,44288.2,40831.2,88305.3,82953.8,38633.9,43782.1
48206.7,48676.5,27036.9,74688.9,145671,79074.3,36675.8,36918.3
49117.5,62540.1,17401.4,42293.5,76729.4,83379.1,39772.8,44229.7
65804.4,59086.8,49707.8,48891.9,84363.3,104147,40483.8,43086.6
56920.5,69940.8,51360.5,48697.3,89157.4,82094.8,36604.5,44002.1
63312.3,66648.6,61154.4,44336.8,85877,90284.7,43848.3,43231.7
54169.2,59696.1,15969.7,47843.8,100176,78136.1,42928.4,39386.8
71988.3,66852.9,74127.3,50062.2,115655,74298.3,46957.4,43960.1
72473.4,66285,55495.8,59218.2,94126.6,113277,43694,42405.2
76977,65832.3,62035.7,51380,95034.3,98006.1,43985.2,37626.6
84117.6,73992.6,108024,126878,168592,169747,42163,32593.5
75061.8,64746.9,75200.4,48208,116668,86563.6,42249.2,43605.5
68885.1,67067.1,75438.1,49852.3,146528,111678,41683.6,38776.4
83192.4,58140.9,79011.8,55208,147500,102157,45026.1,35437.2
53600.4,66163.5,49390.9,47140.5,90985.2,88769.6,41174.1,43807.9
66452.4,60475.5,59072.2,52997.9,83965.7,83052.5,42308.5,43058.7
54109.8,59514.3,64350.1,49133.7,121421,81879.3,42411.8,43723.6
67508.1,59776.2,62113.5,61258.7,90144.3,74481.8,36978.4,43622.1
51210,64261.8,45298.7,55173.3,76156.7,113453,41297,44519.6
61588.8,56180.7,67709.7,42306,94329.6,92211.2,42622.3,44024.1
75154.5,64502.1,64530.8,56504.9,85337.7,113434,40804.2,42232.9
57469.5,65576.7,47239.1,54368.5,74228.8,103351,37601,43391.8
52359.3,63374.4,28054.4,58492.6,83778.1,82010,41602.9,44919.2
68632.2,65081.7,66455.9,50744.7,99187.6,77153.3,44136.4,44647.7
51129.9,68731.2,45729.6,46763.8,76518.1,96329.8,46014.5,41647.6
60230.7,75761.1,49357.5,66244.6,98471.8,130996,35312.6,45914.5
57668.4,66981.6,45929.8,76755.8,77431.3,133835,43266.8,41582.4
75396.6,54918.9,71842.1,43493.1,89007.3,76543.1,41538.6,42629.7
73778.4,55170.9,94318.4,89955.2,111570,84174.2,38430,42030.1
67958.1,65663.1,45419.6,53045.2,92746.4,91866.5,42215.8,43770.2
62497.8,62499.6,39252.2,40483.8,77245.1,80054.3,43542.5,43218.2
55132.2,63245.7,55201.1,40569.9,76010.8,78838,42641.9,38428.6
54917.1,46255.5,50815.6,91785.9,81841.8,131286,42402.6,44640
65541.6,58887,54532.5,52401.6,76408.3,77591.2,43869.6,43483.5
66582.9,66382.2,67394.1,58717.8,107992,97999.2,42024,45042.7
58322.7,88457.4,44418.8,95451.3,86983.4,143896,43326.5,47563.9
72404.1,59526.9,63719,55647.3,84820.6,99016.6,41078.2,41364.2
63609.3,61515,13181.4,45126.3,232871,80111.3,40916,44216.9
76633.2,58216.5,63794.1,53476.1,94464.4,89541,40933.4,44054.8
59115.6,69012,51271.5,53544.2,73640.8,91601,43943.9,43909
68225.4,66202.2,51530.1,43192.9,83792,80025.1,42248.4,43201.9
61753.5,61956.9,49547.9,64643.3,76983.8,86366.3,42172.9,43314.8
65774.7,64537.2,51520.3,51264.6,85493.3,113620,42269.4,43971.3
60573.6,66030.3,45800.5,49411.7,79498.3,82306.1,40333.7,42811.7
55149.3,69448.5,41251,46231.4,74978,78594.8,43227.1,45172.7
72860.4,65049.3,67346.9,48340,89221.3,85403,42841.7,43744.2
52114.5,70175.7,52015.2,58617.7,76269.3,94267,41816.8,44522.1
77582.7,63199.8,70101.9,44261.8,82731.4,81762.6,43773.6,39321.8
60382.8,63986.4,90747.5,39202.2,146131,80244.7,45938,44102.9
67982.4,63031.5,65726.1,42520.1,84010.2,87201.6,38819.6,42328.9
50115.6,70012.8,16545.2,76062.2,94902.2,118821,40087.5,40233.6
58326.3,55283.4,75962.1,109779,123529,115902,39915.3,37314.9
68370.3,61299,81533.2,45614.2,122028,90658.6,42682.8,38599.2
56204.1,57131.1,42656.3,45674,73980,88234.4,40857.9,43565.9
70762.5,60886.8,59974.3,44058.8,74876.5,82356.1,41326.3,42564
59218.2,76820.4,64112.4,66219.6,99624.1,111841,43561.7,42494.3
66204,57814.2,102917,38853.3,103188,79808.2,42656.8,42917.9
63475.2,58404.6,47900.8,45329.3,74176,95891.9,42462.3,43816.7
54918,70245.9,33152.9,67344.1,73528.2,112266,39440.3,43155.9
48602.7,59282.1,38006.8,36946.2,138249,73973,34784,44077.6
66618,44611.2,55511,54069.6,81246.9,81105.1,44542.6,41918.7
61163.1,63310.5,48017.6,50174.8,73975.8,108381,41892.3,41891.5
47527.2,67295.7,18042.2,58749.7,116160,99223.8,39806.5,42243.8
56763,64891.8,45535,47731.2,95323.4,95436,42015.8,39658.3
67757.4,54522.9,67623.5,42985.8,100175,83967.1,42362.7,37893.8
62824.5,67172.4,50124.8,55394.3,76317.9,83507,42437.9,37146.7
77487.3,58977.9,60349.6,42447.8,80290.6,77507.8,36217.4,43081.4
67665.6,55304.1,70723.2,53295.4,104011,123768,38964,47063.2
67938.3,71494.2,48312.2,61400.5,83234.6,82578.5,41080.6,42208.2
56866.5,54658.8,79622,68843.9,94169.7,100535,30782.4,38857.1
54317.7,65568.6,57860.1,69627.9,92179.2,92425.3,42269.1,41617.2
68770.8,58254.3,51841.4,67790.3,88855.8,80514.4,45376.1,43106.3
62433,61742.7,48797.3,43594.6,78123.6,75100.3,39911.6,44107.8
55937.7,55228.5,39805.4,49028.1,75895.4,90306.9,43195.3,34434.4
63735.3,69725.7,50323.6,71977,93473.3,103965,41966.4,43159.1
52021.8,61408.8,63858,71476.6,83315.2,73564.4,39204.6,39383.9
58967.1,75761.1,44816.4,94235,95070.4,138287,37508.4,40896.3
53717.4,74912.4,29698.7,69502.8,140141,109761,33810.5,40917.7
48174.3,61516.8,21411.6,52810.3,78952,82978.8,42219,43034.1
66849.3,56369.7,69754.4,41644.4,84887.3,80884.1,39100.2,43740.8
68260.5,60395.4,86096.6,58278.5,140287,109724,39444.8,44039.2
55935,61409.7,43509.8,49297.7,83021.9,104179,45206.8,42842.8
61651.8,57084.3,50265.2,39430.1,89289.4,94948.1,43191.9,42451.9
64459.8,72408.6,43648.8,49364.5,85664.3,75977.4,42623,36500.1
73831.5,59684.4,62754.3,43598.7,87561.7,74605.5,38450.7,43068.1
70074,77034.6,72756.8,67399.7,114262,123887,43393.6,42744.1
63877.5,75523.5,60276,70934.5,106266,118213,43715.6,45657.6
62750.7,63471.6,68090.5,50037.2,111042,92519.8,41244.2,42940.2
64828.8,64050.3,53520.6,51940.1,91524.5,101969,42650.2,43603.9
66155.4,69179.4,48987.8,51877.6,79043.7,80572.7,43902.2,42414.6
69833.7,54447.3,65374.5,37527.2,98993,74110.6,42953.1,43613.1
59849.1,64806.3,47625.6,64544.6,88730.6,97028.9,45003,45008.3
63648,63921.6,61903.6,66927.1,87457.4,98681.7,47233.6,41806.2
54893.7,68195.7,47925.8,57736.4,78138.9,91033.9,41808,44985.3
44951.4,70032.6,18081.1,64029,79727.6,101975,38519.4,40238.4
85728.6,67927.5,71796.3,51595.4,94675.7,97767,42329.8,41386.1
54069.3,67713.3,49673,62284.5,76551.5,121720,41918.9,40965.8
59757.3,60404.4,87097.4,44207.6,120403,89268.6,40926.5,43483.7
59680.8,69843.6,57187.4,58343.9,85262.6,100170,38949.1,42395
69666.3,58055.4,53809.7,49527.1,92401.6,82973.3,42670.9,39692.9
59494.5,62728.2,65754,41996.1,96478.5,74456.7,42578,43618.1
63334.8,55680.3,56848.2,49845.4,112076,86189.7,44340.9,44111
56508.3,68498.1,70983.1,61912,103290,106343,39143.6,43017.2
45727.2,51471.9,22627.8,34035.5,76714.1,83733.6,41548.8,42794.1
52002,55450.8,51632.9,37614.8,79314.8,77292.3,44198.1,43877.3
54635.4,59272.2,60513.6,54132.2,97943.6,88077.4,43079.3,43369.9
53822.7,93508.2,40451.8,79537.2,74869.6,133835,43150.5,39504.3
46582.2,64211.4,61710.4,40932.7,101925,77960.9,42275.1,39800.7
66037.5,57662.1,44278.4,44064.4,81515.2,75307.4,38807.5,43811.4
81432.9,58844.7,112001,42805.1,120778,93698.5,46347.8,42800.4
63798.3,62764.2,47920.2,49105.9,79121.6,92364.1,42963.3,44370.4
53843.4,66792.6,44784.4,79046.5,74231.6,130742,42977.3,47096.5
70499.7,59807.7,61429.7,37646.8,94076.6,84521.7,43599.8,44309
66737.7,42838.2,70763.5,13802.7,141865,87144.7,46784.9,40802
58048.2,60789.6,53142.5,51072.8,79945.9,84596.8,42561.9,44521.2
62414.1,64854.9,58099.2,56188,95523.6,93285.7,45571.5,43504.3
57928.5,43876.8,54577,49193.5,91810.9,74552.6,39071.3,36905.4
56164.5,78006.6,47472.7,74879.3,74056.4,134084,41545.4,46847.6
67995.9,56024.1,65281.3,38728.2,103052,78106.9,42758.4,37302.2
63803.7,63799.2,50715.5,68713.3,78854.7,106948,39431.2,41662
60005.7,64653.3,61179.5,55327.6,98655.2,98908.2,43076.9,42948.6
62105.4,57448.8,46220.3,113721,76771.1,94974.5,38968.2,46207.4
59405.4,55042.2,79747.1,38504.4,113267,84160.3,42020.8,42201.9
76256.1,59540.4,76242.9,43728,88173.3,75552.1,38195.9,45539.3
50796,63562.5,40941.1,58993,74481.8,114519,36242.6,43181.7
85640.4,57249.9,59236.2,32701.1,90052.5,80517.1,41254.2,43186.7
57212.1,60127.2,49588.2,37884.4,73934.1,79331.5,38118.3,42390.1
68976,65384.1,84591.2,58152,129722,104481,42353.1,43403.7
54599.4,66852.9,42688.3,48427.6,74716.7,96132.4,38607.7,40909.2
59380.2,57368.7,64860.2,76201.2,73781.2,126851,44120,46737.2
64369.8,62607.6,49931.6,43965.7,79496.9,77311.8,39017.4,45375.9
48081.6,51543,58666.3,39253.6,86705.4,79203.6,42559.8,42156.2
64820.7,68414.4,66211.3,44842.8,102813,86081.3,38596.3,43791.1
65563.2,57762,46870.8,46376,89149,83812.8,41122.5,44290.4
65769.3,46602,42856.5,12019.3,81334.5,198816,39930.7,32660.8
54142.2,59380.2,52608.7,61141.9,83468.1,115833,46813.8,41585.1
63405.9,64125.9,41623.6,38878.3,75800.9,76216.5,43470.8,37288.7
65933.1,70416,61788.3,58712.2,101861,104513,42924,46518.1
81094.5,59043.6,87978.7,38412.6,130443,91368.9,47573.7,41064.1
60797.7,69201.9,51598.2,67362.2,84210.4,113496,43747.3,41582.6
67055.4,66640.5,69238.7,53241.2,104395,118949,43178.3,43294.8
76523.4,44285.4,65327.2,19642.1,93023,103017,38662.5,32998.6
69041.7,70002.9,63457.7,59279.3,126868,99839.5,43429.3,43395.4
64688.4,50112.9,65457.9,54973.1,100451,90819.8,42330.3,34102.3
62946,66152.7,61166.9,52450.3,125322,97967.2,42955.3,45093.3
49826.7,58752.9,17598.8,78956.2,76829.5,112625,42898.3,43696.7
59016.6,62730,50897.6,49914.9,84834.5,88342.8,43370.8,43902.5
61865.1,57482.1,42447.8,57598.8,82618.8,84406.4,42430.9,43159.7
83410.2,77435.1,37791.3,73567.1,86419.1,102891,42324.6,46089.1
63113.4,61325.1,47493.5,52159.8,79342.6,84278.5,43010.7,44351.9
69766.2,62370.9,62180.3,40325.3,86218.9,77215.9,42918,42831.2
60906.6,66051,47984.2,37008.8,87631.2,73917.4,43101.5,41287.1
77560.2,60758.1,77246.5,42572.9,122911,92433.6,37393.3,44924.9
41881.5,73767.6,38535,51329.9,80843.8,92906.2,42912.1,43791.9
59663.7,78320.7,45464.1,71890.8,74455.4,124308,36313.7,46334.7
56736,63705.6,63144.9,44678.8,73196,92098.6,42293.7,43101.1
57925.8,73111.5,67508.1,78465.5,116008,147810,42265.1,45603.2
70972.2,61955.1,78993.7,50098.4,102532,81245.5,42804.5,42213
60514.2,56993.4,58018.6,40571.3,101373,75382.5,41558.7,37376.6
67091.4,60939,53477.5,53187,95191.4,105682,35720.3,36990.9
56051.1,59013,61271.2,38468.2,75082.2,87387.9,44103.3,43986.7
58132.8,60140.7,65154.9,57312.5,97710,113783,41785.8,42572.6
68563.8,62459.1,51050.5,43044.1,83252.7,85574,41503.4,44457.8
63462.6,67428,55455.4,56364.5,83455.6,97129,37108.2,35295.8
73876.5,67555.8,68784.1,62819.7,95526.4,101748,40532.6,41730
67180.5,63054,56693.9,44039.4,85575.4,90773.9,42510.3,43839.3
49334.4,60827.4,43372.2,44621.8,74576.3,84624.6,37940.8,41095.9
58083.3,57814.2,50761.4,33287.7,81394.2,78004,42160.7,43924.9
52686,64052.1,56696.7,52358.5,102027,93745.8,41896.2,41103
66250.8,56668.5,65391.2,35825.9,96003.1,74759.8,41198,43165.6
69018.3,51507.9,60200.9,57565.5,93749.9,78202.8,39616.9,31790.4
66961.8,68427,59081.9,85674,86018.8,127513,41619.6,42680.5
76537.8,66536.1,67007.7,55695.9,213736,106716,37602.9,37498
65243.7,72769.5,42930.1,74845.9,92475.3,127462,37464.9,42369.5
64249.2,58418.1,73337.8,44920.6,81070.4,91171.5,42756.3,41063.9
58866.3,59653.8,68727.2,53969.5,121679,105678,39155.7,42481.6
74554.2,58862.7,88226.1,46829.1,147576,79132.7,46309.9,44490.2
57810.6,71965.8,57769.8,42966.3,77507.8,84649.6,44103.1,45760.6
51882.3,64022.4,26272.4,62942,85708.8,84271.5,41180.2,44355.1
77773.5,64785.6,53477.5,50302.7,81474.9,80116.8,40173.6,41647.8
60531.3,61043.4,65138.2,39904.1,107589,76907.3,42479.9,38742.9
75814.2,56598.3,67474.8,56773.2,108000,85275.1,39710.5,43116.9
58813.2,60618.6,30567.5,46673.4,75246.3,97366.7,42479.4,43590.4
61995.6,59689.8,48492.9,48529.1,77466.1,88189.9,40523.6,44843.3
68662.8,58640.4,60505.3,46274.5,100890,87353.2,40890.8,44240.5
68728.5,60171.3,48230.2,49050.3,73977.2,90894.9,42458,45199.6
60653.7,64479.6,52478.1,47870.2,96004.5,88408.2,43002.1,44707.4
68262.3,62609.4,54984.2,48057.9,81770.9,81162.1,42272.2,44508.9
76770,62934.3,72563.6,49208.8,99041.7,95226.1,43089,42479.1
52343.1,54409.5,53872.2,58196.5,88563.9,116264,38474.7,36269.5
62431.2,64113.3,66621.3,58366.1,92347.4,87404.6,42194.7,43214.2
87367.5,62546.4,83058.1,53744.3,119430,95780.7,41774.9,42774.1
58670.1,61154.1,61218.4,38899.1,82609.1,75203.2,42403.7,41471.5
55742.4,57708.9,60449.7,38760.1,94796.6,74519.3,34700.9,44079.8
73012.5,67326.3,65295.2,53758.2,86099.4,94843.9,40299.7,42570.9
59600.7,63516.6,75649.4,51485.6,98324.4,86453.8,41233.4,42133.4
62961.3,60577.2,103109,49499.3,130955,87507.4,47433.5,43854.2
60193.8,65258.1,61695.1,55954.4,106806,114030,43141.4,38409.5
62002.8,66799.8,74679.1,67057.8,95365.1,117823,43412.9,47416.5
58897.8,63605.7,60595.7,49996.9,141136,87791,38736.1,39495.7
88884,61970.4,82921.8,43572.3,111392,89285.3,40994.5,44653
63741.6,72205.2,68068.3,48606.9,117139,97001.1,41006.5,43540.8
52239.6,60318.9,77203.4,38333.4,124362,78797.7,31846.2,43045.9
62129.7,61327.8,79736,40754.8,80697.8,79471.9,43036.5,43793.6
51182.1,56435.4,28115.5,48202.4,93848.6,83900.4,39940.2,35047
49228.2,49005.9,77124.1,58115.9,89635.5,82279.7,45997.7,40578.2
56205.9,61163.1,58332.7,54310.1,83412.5,109581,32876.9,42307.8
65271.6,71328.6,50013.6,84357.7,87329.5,119686,43174.4,39462.8
64849.5,90567.9,55501.3,74911.3,97597.5,117828,42300.1,41365.5
68139.9,67698.9,81590.2,55299.8,107900,95477.7,41359.7,42227.2
64548,63252,63017,47118.2,98015.9,86863.9,43675.3,41229.5
64380.6,56157.3,92383.6,48922.4,140377,90833.7,42846.1,42231.6
65785.5,63952.2,58801.2,51033.8,101722,91958.2,41981.9,40361.8
52607.7,63669.6,43915.7,57497.3,89197.7,103584,41212.7,43866.6
60293.7,60490.8,52832.5,45250.1,91655.2,76466.7,33854.5,43557.4
63940.5,53054.1,59461.4,42232.4,83954.6,73180.7,43917.4,35415.6
65795.4,62078.4,52793.6,41587.4,86858.3,75289.4,43113.3,43045.2
67581,58243.5,58323,35660.4,87185,80222.5,40011.4,37462.9
51410.7,62082.9,30064.3,50087.3,74654.1,87091.8,42734.3,37292.8
62760.6,60130.8,51259,54086.3,81483.2,99052.8,42064.9,40147.1
59633.1,59626.8,67686,42374.1,117088,87293.4,43763.3,43282.3
47060.1,59869.8,21902.2,44474.4,123185,91001.9,38624.5,43530.5
65258.1,54297,58913.8,51781.7,79494.1,76183.1,44554,42625.6
68534.1,54877.5,81062,49436.7,122239,81869.6,42021.9,37516.5
70390.8,60393.6,57281.9,42944.1,91096.4,81151,36848.5,44409.6
90162.9,58807.8,62950.3,41052.3,110082,74162.1,38761.3,45144.5
70568.1,69417.9,61825.8,57954.7,83755.8,102020,43797.7,43343.6
67078.8,60080.4,64469.6,55327.6,103979,93765.2,42222.8,40399.9
74793.6,68013.9,112832,51787.2,101174,103130,41680.8,42827.2
57387.6,61539.3,47658.9,39323.1,82124,74324.7,42804.9,43505.3
55826.1,63472.5,31806,50566.8,119258,85112.5,37718.5,43838.7
52389,59000.4,25772,74045.3,181713,128127,35526.7,46174.4
58838.4,72947.7,70416,62301.2,101189,97006.7,44667,42210.2
42713.1,59461.2,19775.5,64687.8,121796,74512.3,34854.8,43318.6
63120.6,63679.5,58204.9,54771.6,97956.1,107510,42220.9,39374
49220.1,76805.1,27358,54073.8,88417.9,92633.8,40361.7,44692.9
56298.6,56246.4,53193.9,41693.1,84432.8,75446.4,41731.9,44429.6
81516.6,70653.6,68835.6,59166.7,95869.7,112750,42872.9,43427.6
60969.6,61031.7,42670.2,42549.3,73411.5,76244.3,37963,43557.3
71263.8,60429.6,54932.8,49321.4,85172.2,88961.4,42205.9,44771.8
56672.1,58031.1,55933.6,40077.9,116383,75767.5,42522.6,38360.4
64797.3,57608.1,65734.5,44373,120578,80041.8,40096.9,43305.2
67547.7,56697.3,65520.4,36790.5,111410,76669.6,45925.1,43147.3
69688.8,89352,75917.6,63760.7,132603,110405,45923.3,42508.2
58707.9,58378.5,42696.6,38509.9,73868.8,78241.7,43680.9,45443.4
67684.5,63008.1,51449.5,46598.4,93894.5,88520.8,41838.9,43601
69679.8,62424.9,62142.7,48733.4,98311.9,95897.5,39441.1,43245.1
63197.1,62084.7,60356.6,41789,93383,79523.3,42241.7,43241.4
57411.9,60498.9,56072.6,36201.2,106669,74132.9,42006,44548.6
64890,63030.6,69639,43309.6,86330.1,92674.1,42838.8,42184.2
43995.6,65909.7,18468.9,48869.6,90951.9,83539,38368.4,42259.9
47112.3,54185.4,21532.5,41573.5,187825,73561.6,32365,44746.7
56825.1,61051.5,51742.8,39594.1,91539.8,76504.2,41326,44902
56962.8,55719.9,89920.5,42062.8,81196.9,87867.5,31889.8,44664.5
66573.9,58492.8,40169.6,46259.2,73731.2,94804.9,42385.6,36109.8
60565.5,67441.5,42632.7,54606.1,73870.2,103262,36144.3,41316.5
62711.1,59742,55978.1,41134.3,88184.4,81177.4,41303.3,44951.4
68955.3,59923.8,62840.5,40978.6,94753.5,73881.3,42249.9,43438.3
57307.5,55226.7,37466.1,69062.1,78995.1,118748,39507.2,41590.7
43896.6,64900.8,16884.3,62821.1,92833.9,125289,37865.3,41132.3
69633.9,73999.8,61305.9,48462.3,110770,88903,41665.5,44245.8
58991.4,60395.4,57529.3,48308.1,103943,81367.8,41260.3,44496.2
65050.2,60512.4,59282.1,43145.6,77177,84071.4,42048.3,40072.4
60732.9,67119.3,49698.1,50979.6,80515.8,103793,37644.9,44562.6
65106.9,62900.1,70830.2,44638.5,111003,75232.4,42822.8,46048.4
73152.9,63013.5,55178.8,73642.2,76513.9,85756,43088.8,35692.3
81209.7,54651.6,83739.2,40594.9,125673,84114.5,38044.9,36668.4
85554.9,61655.4,80385.1,43223.4,104802,85758.8,42327.4,43399.7
64997.1,64429.2,60061.9,58911,87995.3,113638,43440.3,47739.9
66175.2,62380.8,62857.2,46624.8,78785.2,75435.3,43826.5,43190.4
57272.4,59333.4,109394,53754.1,97512.7,73539.3,29269.9,43900.1
64391.4,56133,50413.9,43694.6,80917.5,79685.9,42457.2,43501
56195.1,64109.7,38633.7,48911.3,73314.2,90559.9,42212.7,44806.1
57747.6,64025.1,56848.2,56802.3,74360.8,117340,41381.9,43118
80151.3,65387.7,67665.2,56528.5,80943.9,81274.7,41035,37796.6
60103.8,60102.9,58159,44578.7,91064.5,89235.2,41591.8,34568.9
63671.4,85553.1,62480.5,44791.4,78428,75785.6,40632.2,43482.9
74428.2,54420.3,56938.6,41515.1,87639.5,79655.3,41573.4,42721.7
66102.3,65909.7,66625.5,54582.5,102490,103844,40377.4,45305.8
39591.9,60948,15360.9,41189.9,78402.9,75178.1,36523.5,44575.5
53934.3,67733.1,52069.4,65191,190158,107407,36732.4,41611.3
69558.3,72206.1,42151.8,54101.6,75179.5,90448.7,42782.3,40509.6
68256,61355.7,60552.6,47465.7,94162.8,91627.4,42684,43405.6
76534.2,70832.7,68667.4,61009.9,102664,116403,47326.4,42211.4
64155.6,66449.7,97247.2,55506.9,119122,121407,47715.4,40092.8
76813.2,70335,79264.8,44498.1,105445,80824.3,41664.8,41157.7
83560.5,59535,70325.7,38967.3,94280.9,77325.7,41206.1,43452.7
60973.2,52168.5,46491.3,38344.5,85332.1,82150.4,38369.3,42340.4
64572.3,83774.7,45188.9,79235.6,185109,104938,38609.1,43956.4
61519.5,53700.3,62925.3,60137,78655.9,73953.6,42110.9,43093.3
60480.9,67695.3,48245.5,45775.5,80218.3,93059.1,42343.5,43927
50669.1,59767.2,76304,38459.9,83220.7,80756.2,36469.4,44645.3
46930.5,80914.5,94928.7,59220.9,89112.9,86944.5,37727.6,43149.6
65789.1,69763.5,53647.1,68388,88305.3,123866,41012.2,43251.3
77376.6,68506.2,75939.9,59448.9,102656,101078,47542.3,42679.2
52296.3,64782.9,33077.8,39945.8,81474.9,95538.9,42144.6,44115.2
65248.2,60503.4,55936.4,53595.6,78746.3,97701.7,39770.1,44425.9
68647.5,65334.6,103034,52575.4,121279,101289,41372.6,44570.4
67877.1,61622.1,81039.8,45033.2,127841,92133.4,41247.9,43958
76302.9,71899.2,48287.2,45643.4,76529.2,85629.6,40474.7,39697.8
76230.9,115459,71184.7,55737.6,154732,74809.8,46718.3,46422.1
54701.1,73366.2,47777.1,55801.6,84769.1,102963,39965.2,41454.5
70180.2,63550.8,63107.4,49994.1,97382,74748.6,42388.5,42100.2
72621.9,69975.9,63880.2,49428.4,85422.4,82935.7,42087.5,42775.5
51664.5,60931.8,61279.5,48647.2,92911.8,100794,41962.3,35738.5
71531.1,60114.6,83568.2,38739.3,113564,76958.7,44159.7,43273.9
66245.4,58733.1,53159.2,38511.3,74584.6,80771.5,38699.3,43778.4
57054.6,54562.5,53695.7,49995.5,86345.4,77794.1,38965.3,40303.1
76449.6,78942.6,55663.9,72955.5,99953.5,99556,40233.1,37497.2
77139,62857.8,91067.2,58017.2,123185,79955.6,37377.7,40007.9
62512.2,64409.4,56908,50605.7,94597.8,93203.7,42048.2,44072.3
74538.9,52126.2,74121.8,37995.6,110117,81412.3,42880.5,43734.5
56220.3,58958.1,41264.9,45624,74665.2,73225.2,44688,43214.9
77016.6,60398.1,64211.1,58064.5,101106,81740.3,41318.1,39918.1
83336.4,71269.2,78603.1,60884.8,103602,120541,46495.4,41222.3
64349.1,65747.7,95237.2,49108.7,104388,84254.9,42508.8,43744.5
67678.2,58667.4,58897.1,42211.5,83917.1,79309.2,42746.6,37441.7
70952.4,59252.4,58157.6,35882.9,94301.8,74142.6,43455.2,40026.3
56215.8,62472.6,44425.8,62032.9,79883.3,118313,41153.5,43569.2
59515.2,54487.8,42667.4,37043.5,81725,81062,42611.4,37469.2
71993.7,60971.4,68636.8,42044.7,120293,73589.4,43458.9,42042.8
53228.7,60931.8,87103,40929.9,121334,77866.4,45507.2,43909.9
67842,61125.3,59233.5,45205.6,98699.7,83829.5,43712.1,42575.5
64525.5,69696,46676.2,49349.2,74697.2,90903.2,42574.6,38383.9
50172.3,62550.9,29890.6,65948.5,94034.9,101512,32924.4,46031.4
62163.9,59909.4,51958.2,41000.8,75267.1,73633.9,39874.6,39962
44635.5,68127.3,23389.5,58639.9,174952,80671.4,35234.2,40148.4
77751,97303.5,72451,93747.2,104400,163048,41576.7,38819
67876.2,59998.5,68319.9,52668.5,100680,108729,39769.6,36554.5
58982.4,61517.7,59694.9,45761.6,87629.8,91336.9,43846.6,39716.4
63656.1,64955.7,60034.1,55790.4,77182.5,92294.6,41985.4,44483.1
65844.9,64834.2,64554.4,57174.9,111218,103219,43258.5,44053.3
61533,74381.4,69922.6,49389.5,114554,87283.7,41991.1,44333.7
66844.8,61524,64469.6,46376,79530.2,85507.2,43495.3,44645.4
60562.8,67131,36605.6,57419.5,79957,99422.5,43464.7,37693.1
56495.7,59067,50044.2,49420.1,113043,108042,41708,42528.2
75096,60508.8,63730.1,65523.2,73500.4,121169,40840.4,45789.8
58640.4,62236.8,50933.8,53079.9,76240.1,96471.6,42406.6,37218.6
72279,51360.3,60281.5,45222.3,79831.9,90035.9,41415.3,44095
70043.4,59896.8,61015.4,36753,78425.2,76734.9,37930.2,44153.8
67643.1,65430,73194.6,46774.9,102813,88871,43186.1,44163
63236.7,58829.4,44278.4,40165.4,233049,76013.5,29404.1,43150.4
63037.8,59269.5,51954,45528.1,78938.1,73323.9,36944.8,43980.2
75782.7,64359.9,63606.4,63090.7,102399,117625,42882.3,41460.1
70611.3,61033.5,67491.5,46170.2,96046.2,89003.1,42218.4,43439
70941.6,67265.1,62748.8,75496.5,80777.1,124815,40796.5,46069.8
66645.9,63124.2,48697.3,39000.6,80878.5,76090,42964.2,43612.7
62361,65269.8,58506.5,45839.4,89200.5,80963.3,42918,42165.2
60394.5,54327.6,60729.1,38582.2,101280,74911.3,41307.3,38574.8
49614.3,65948.4,28041.9,61846.7,133398,79489.9,38758.6,41806.2
58594.5,63553.5,54703.4,53979.3,87607.5,100917,41735.2,38663.8
40577.4,57897.9,22395.7,42272.7,131919,77354.9,39593.9,41714.8
66864.6,57585.6,56685.6,55625,95883.6,103088,38140.5,46001.8
80821.8,69159.6,52832.5,59368.3,96275.6,100516,39656.3,38270.2
59558.4,63348.3,67269,66126.5,182853,112269,38502.9,42111.9
65638.8,62974.8,70834.4,69144.2,100533,91645.5,46788.5,38261.4
99896.4,74925,65278.6,78058.2,75090.6,111963,45491.4,42114.2
60388.2,76464.9,56942.7,46199.4,80799.3,73945.2,41558.2,43378.7
70891.2,56581.2,63671.7,33404.5,89970.5,82531.2,37859.3,43791.6
62952.3,60036.3,52487.8,48597.2,75376.9,78977,42230.8,41601.7
67412.7,70490.7,56759.3,37987.3,86756.9,74406.7,42759.6,45930
56711.7,64116,58723.3,49374.2,91606.6,87735.4,41061.9,42847.6
79304.4,52082.1,71614.2,107776,82211.5,121323,41173.2,37947.6
60814.8,68129.1,69529.2,75011.4,108962,133122,43741.7,43879.8
77623.2,58683.6,69051,56705.1,112251,106018,40774.4,37391.2
40011.3,67373.1,13309.2,53081.3,120720,104749,39409.8,42325.1
65091.6,65361.6,54600.6,52264,79961.1,99104.2,41450.3,43249.2
60435,78221.7,75375.5,55672.3,86320.4,91213.2,42123.6,45004.7
61131.6,83676.6,91395.3,60180.1,97035.9,79321.7,39638.3,42009.8
59870.7,62177.4,71614.2,86371.8,77477.2,102265,42609.3,41686.8
61611.3,57650.4,145390,45953.4,158495,83298.5,31367.4,41809.2
59765.4,121763,45504.4,108396,80603.3,137303,42896.4,35158.2
69880.5,63273.6,74003.6,68061.4,99158.4,118575,40802.2,44229.8
61351.2,59859,52825.6,57113.7,89079.5,98018.6,41486.9,44160.2
64665.9,70089.3,48809.8,54568.6,80121,89603.6,44270.5,44394.2
58369.5,60198.3,49677.2,57208.2,79345.4,93537.3,44151.8,40514.1
63143.1,93328.2,65300.8,76655.7,111318,84767.8,43930.6,46549.7
45473.4,58734.9,15518,43420.8,99868.7,79359.3,39044.3,37790.3
46086.3,64966.5,23853.8,54139.1,156652,112868,36862.3,43199.3
65535.3,65930.4,57557.1,57484.8,75945.4,108531,39986.8,43641.9
40192.2,53446.5,20351,64790.7,81857.1,96179.7,33433.4,42094.7
77516.1,58632.3,74117.6,47219.7,118329,82717.5,40367,45621.8
62973,71691.3,63037.9,72381.5,88128.8,123192,36457,42607.8
61685.1,69723,59518.4,62843.3,92688,113146,45704.2,44509.5
56120.4,58755.6,49015.6,48591.6,85561.4,76365.2,38777.7,45034.3
62797.5,113741,38940.8,95263.6,76507,192904,41412.9,41382.6
65923.2,70360.2,61440.8,67923.7,96960.8,121530,35311.7,43451.7
63360.9,66123.9,55477.7,41256.6,87788.2,86670.7,40930.3,41787.7
69768.9,61133.4,63859.4,44956.8,114208,73290.5,39214.4,44575.8
63906.3,67698.9,49311.6,50800.3,84035.2,90653,43018.6,40752.7
74980.8,68049.9,58606.6,45425.2,91389.7,86880.6,36901.2,41873.4
57219.3,66954.6,52604.6,47710.4,86587.3,83625.2,41052,40294.6
74659.5,71602.2,51306.3,38236.1,85750.5,91120.1,44738.8,44436.4
71618.4,105051,64559.9,60092.5,103934,97779.5,41484.7,45264.8
61647.3,63215.1,69074.7,52415.5,105921,89478.5,43909.4,41260.6
49427.1,56819.7,23837.1,48873.8,79430.2,87905,40482.5,44292.4
53214.3,64505.7,56805.1,67901.5,98213.2,119094,42940.2,44485.4
62547.3,58824,74191.2,47168.3,96425.7,83836.5,36368,43092.1
59580,65129.4,56299.2,49902.4,107996,90865.7,47172.3,43256.8
71287.2,65160.9,70926.1,50772.5,96420.1,83323.5,40131,42216.3
60574.5,59120.1,56877.4,41395.6,80376.8,101060,44543.7,39801.7
44541.9,57493.8,59430.8,64283.3,91342.5,100840,40431.9,33048.8
61286.4,62857.8,55023.1,52982.6,90224.9,92496.2,40315,44359.4
69337.8,70438.5,57689.2,60364.9,78579.5,104698,39713.7,42250.5
62721,60623.1,53647.1,40878.5,79583.1,77567.6,41069.3,37827.7
61359.3,58550.4,56411.8,54696.5,101919,93649.9,42620.1,42925.7
60825.6,101804,51879,43659.9,78056.8,83409.7,41112.5,38116
40421.7,60071.4,12207,56263,128631,92774.2,36516,38049.7
63044.1,58818.6,50116.4,53615.1,86159.1,81937.7,41401.1,38043.2
62048.7,61738.2,53876.4,39673.4,81345.6,94053,42526.5,43877.9
63718.2,60616.8,44769.1,48908.5,84550.9,98678.9,35715.6,42565.3
89840.7,114201,85863.1,72962.5,221723,138008,41152.6,46116.4
78534,66269.7,62105.2,55550,106247,113168,44303.3,37574.8
47965.5,66986.1,65724.8,49706.4,99504.5,101242,44663,42730.2
76368.6,69109.2,65887.4,68103,90833.7,75723,41002.8,42309.4
73360.8,66680.1,53862.5,60902.8,73379.5,100115,42568.7,40995.9
66997.8,59859,57543.2,50400,86601.2,90817,36681,43305.7
65755.8,66164.4,62251.1,67442.8,73300.3,110933,42958.6,44881.6
66637.8,63317.7,52009.6,38915.8,89407.6,77215.9,37965.1,44529.8
97400.7,71240.4,83659.9,46980.6,123468,82158.7,39593.9,44212.2
59499.9,56683.8,65829,31404.3,96249.2,74348.3,42685.3,44798
69909.3,68517,51303.5,65755.3,83683.6,118899,40050.6,40713.9
54787.5,65981.7,41538.8,52341.8,73811.8,100928,36487,39328.9
67339.8,63108,64911.6,46628.9,96000.4,90678,42214.3,42491.4
77471.1,64011.6,65273,52133.3,78988.1,83293,39846.8,43287.1
62273.7,67608,52234.8,52136.1,76805.8,95466.6,35325.6,42775.6
61884,69361.2,42579.9,42265.7,81993.3,74965.5,43442.7,43137.6
75678.3,70475.4,65806.8,67405.3,105419,108125,40958.9,42922
57402,84788.1,75236.5,62387.4,107829,73795.1,32440.3,47666.5
66634.2,61107.3,72485.7,44459.1,85487.8,76380.5,41797.1,44722
59562,60619.5,51022.7,50583.5,74385.9,73624.1,40804.9,42981.6
65840.4,64100.7,124220,58858.2,164445,106235,45967.3,43795.4
63657.9,59895,64412.6,50994.9,116823,89624.4,39866.9,43849.4
59383.8,80613.9,57961.6,55101,96675.9,91557.9,44310.2,41593.1
99247.5,74570.4,76904.5,76006.6,95099.6,113086,39915.4,37673
67245.3,66049.2,56101.8,53036.8,75649.4,88423.5,40876.7,42607.6
64437.3,60911.1,64372.3,45371,101673,91193.7,34976.5,44041.3
65769.3,65597.4,48256.6,75698,95031.5,125827,41862.9,46982.8
60501.6,58225.5,48210.8,40522.7,83457,79948.6,41261.4,41028.6
67126.5,72967.5,54349,50138.7,88926.6,95493,42099.6,44005.5
63486.9,63534.6,64653.1,53830.5,94499.1,107020,41627.6,43885.7
57164.4,65623.5,42714.7,52248.7,77902.5,94581.2,38624.2,42694.2
76278.6,66151.8,71765.7,48251.1,94500.5,86294,43776.5,40615.7
63466.2,59386.5,41608.3,39503.8,75748,74951.6,38445.1,39785.7
43750.8,70057.8,28552,97530.7,124398,140594,39034.4,47622.6
59927.4,69522.3,57686.4,70758,87621.4,108331,40187.3,45721.2
56952,48475.8,48176,82167.1,78479.4,77959.5,35791.8,37086.1
76857.3,62446.5,47365.6,43411.1,80261.4,79717.9,41713.9,44319.1
67133.7,59732.1,44370.2,43754.4,79926.4,82003,43106.6,44602.8
59496.3,65153.7,59899.3,47458.8,90354.2,78017.9,38561.1,42538.3
61274.7,56847.6,50411.1,78066.6,77008.8,115052,44131.2,42349.4
69116.4,74476.8,67984.9,72168.8,124968,122472,45634.9,44490.1
54264.6,68067.9,55116.3,49484,101606,96354.8,43594.5,42222.9
73976.4,47304.9,62056.6,39235.5,91762.2,100557,37129.7,27302
61747.2,66363.3,50262.4,54814.6,79310.6,78220.9,44785,45548.9
69668.1,62586.9,76247.1,86148,84318.8,114776,42403.4,36101.7
61263,70919.1,44819.2,45358.5,75135.1,79984.8,43598.3,42364.9
59199.3,66462.3,54572.8,56819,98448.1,78119.4,36306.5,43464.7
71974.8,66135.6,69237.3,45849.1,85490.6,97926.9,42326.5,40955
61493.4,60324.3,79501,47683.9,99280.8,76202.6,33316.4,43648.8
57505.5,66499.2,50590.4,56092.1,94636.8,98888.8,38641.7,41619.6
61331.4,56171.7,93014.6,47970.3,123250,84901.2,32870.1,37549.5
45085.5,67697.1,69272,58263.2,81326.1,113341,32996.5,39435
51887.7,62207.1,37071.3,48135.7,186254,94243.4,34935.2,42149.4
59109.3,60962.4,43921.2,38863,77973.4,82554.9,42224.1,42783.8
59882.4,64270.8,98449.5,37924.8,133368,79353.7,44309.3,41703.4
61000.2,58280.4,65498.2,38120.8,120546,75030.8,39633.2,44245.5
74219.4,57086.1,80728.4,36363.8,104005,73426.8,42714.6,39753.8
59664.6,58705.2,55809.9,38586.4,74212.1,73692.2,42442,41511
70358.4,67080.6,59644.9,53442.7,84595.4,98648.3,35286.1,42999.5
66655.8,68950.8,51664.9,57908.8,80524.1,96785.7,43511.6,41698.5
68025.6,60740.1,75468.7,52626.8,121300,106714,46857.6,38382.2
57790.8,63959.4,45093,55369.3,74416.4,99660.2,41157.5,38961.3
79299.9,64721.7,74287.2,54610.3,106941,79271.7,45516.9,44909.7
69195.6,61368.3,76409.7,61774.4,164479,114593,45018.7,40556.9
59912.1,60552.9,47603.3,42528.4,86565,87807.7,40565.5,42947.4
66844.8,64523.7,55493,65434.2,86403.8,115091,43390.3,44615.5
66782.7,54560.7,60444.1,31468.2,90473.7,75681.3,42415.1,42377.3
57285.9,54364.5,47533.8,38094.3,81460.9,81937.7,34714.5,44074.4
53494.2,59580,56467.4,46273.1,90879.6,82094.8,44316.5,42249.4
61694.1,74590.2,57669.7,51581.5,90158.2,118459,35379.1,40018.4
54108.9,60823.8,61647.9,44217.3,84585.7,73599.1,42760.7,40076.7
67610.7,62912.7,53057.7,52914.5,75326.9,74747.2,40307.4,40720
57146.4,66367.8,57408.4,62563.9,76324.9,106431,41857.9,42579.5
64876.5,54456.3,86078.5,57942.1,97489,75321.3,41607.7,44434.6
72108.9,58268.7,74276,47935.5,113566,75592.4,46889.5,44359.4
61027.2,80142.3,48562.4,59393.3,87546.4,98610.8,35181,43603.7
53930.7,118801,90675.3,58455.1,98564.9,90347.2,44213.9,27237.2
71732.7,50231.7,54798,65988.9,81274.7,100448,39916.3,42081.7
59793.3,63254.7,87829.9,54180.8,121113,103231,43541.5,42675
59777.1,72232.2,52860.3,71277.8,84240.9,127752,43239.4,42430.7
67940.1,59549.4,52590.6,42941.3,77391,83671,38714.3,43776.5
69515.1,74386.8,110980,51328.5,127945,109945,42138,42105.9
62872.2,64741.5,59632.4,56065.6,96357.6,117159,42813.4,42630.2
55858.5,62362.8,53692.9,48024.5,79166.1,88707,42621.4,41202.8
54156.6,59070.6,59462.8,44249.3,77557.8,87920.3,45181.4,37127.4
56460.6,85799.7,42457.6,57933.8,74274.6,94750.7,34775.1,41043.5
65277.9,69525.9,61337.9,63985.9,74301.1,108752,32953.9,40623
66369.6,60967.8,65096.5,44548.1,126102,75592.4,34712.9,44788.9
66973.5,69132.6,55176.1,42329.7,89909.4,73273.9,42661.4,38259.3
81763.2,61624.8,75310.2,41597.1,104803,81434.5,35904.1,39343.5
53640.9,58711.5,44143.6,43463.9,81388.7,85496.1,43031.2,43028.2
53136,69542.1,44776.1,56556.3,80312.8,102642,44540.7,43481.6
53622.9,58046.4,97215.2,40123.7,102763,76280.4,39003.9,40096.7
62134.2,70768.8,69356.8,70445.2,77990.1,119487,37704.2,43022.4
71798.4,55444.5,81928,47854.9,120641,87367.1,41566.4,43668.3
50634.9,61619.4,43918.4,44164.5,84478.6,74207.9,35453.2,38947.8
63510.3,76382.1,48536,60670.7,77439.7,96460.4,42041.7,44654.4
57945.6,63584.1,83658.5,54336.5,95183,113370,34767.3,45144.7
58019.4,58619.7,63257.5,43069.1,92155.6,93895.9,42038.4,42269.7
78235.2,64319.4,76708.5,49432.6,113994,91881.8,43946.8,42482.1
64265.4,99108.9,54474.1,98945.8,103417,125250,37758.2,35534.4
66593.7,93002.4,50628,78465.5,80967.5,94814.7,38014.4,45418
63351,65036.7,51758,42520.1,96958.1,74951.6,41241.7,37846.7
67340.7,70896.6,54560.3,67805.6,90963,102674,41858,42380.1
59742.9,61652.7,43861.4,53127.2,74447,91328.6,42616.5,41052.8
51307.2,64380.6,49108.7,48700,87985.6,96895.5,42077.3,41241.4
63616.5,57925.8,67756.9,38054,114850,90380.6,40536.8,42812.9
61521.3,63113.4,55174.7,39417.6,79701.2,75025.2,43212.3,41079.4
78065.1,70088.4,83509.8,61917.6,98566.3,105911,40376.1,39855.3
65665.8,59708.7,71821.3,38660.1,102303,78518.3,46812.2,42371
67919.4,74571.3,90511.2,71312.6,97578,116418,40226,44216.2
67372.2,69083.1,49785.6,45788,80233.6,86723.5,38018.2,43164.7
66147.3,71299.8,65478.7,56101.8,103732,111664,43471,42481.6
48071.7,60172.2,38461.3,39489.9,82657.7,86392.7,40378.3,38206.3
73629,67811.4,69722.4,55009.2,97947.7,95310.9,41413.8,44279.5
62012.7,66776.4,57056.7,54349,95024.6,75684.1,33973.7,40115.6
70231.5,72533.7,57090.1,67693,93801.4,126993,39531.7,43025.4
59771.7,63336.6,53524.7,46890.3,96835.7,73733.9,40847.5,43180.6
58278.6,66962.7,62898.9,56845.4,110826,103798,33668.1,39718.1
63427.5,57808.8,66860.4,48078.7,88269.2,93223.1,42230.7,45986.5
60358.5,66386.7,70410.5,47326.7,106699,79847.2,35621.2,46667.1
53321.4,60564.6,49771.7,42485.3,75236.5,74757,42852.5,37066.5
66289.5,65885.4,59088.9,50703,94221.1,98279.9,43082.1,44194.1
65404.8,58399.2,67234.3,38054,112790,75271.3,41447.1,36669
70920,55530.9,68043.3,86456.6,96685.6,90591.9,41133.4,43116.7
62867.7,72666,48676.4,64640.6,77377.1,109987,41602.2,44325.9
70693.2,59400.9,63356.2,36924,99465.6,73571.3,37413.8,38812.1
59064.3,66015,51698.3,48651.4,80396.2,81819.6,44021.3,43427.1
75391.2,94014,71498.8,55399.8,82486.8,78004,40241.5,42137.4
63637.2,60641.1,62670.9,44890.1,86599.8,89778.7,42082.6,43923.3
63682.2,69071.4,57338.9,47412.9,91270.2,109476,43333.2,38151.2
65160,67646.7,62918.3,52890.9,87105.7,93045.2,43166,44374.1
107133,64854.9,68253.2,52336.3,73699.2,95077.4,47030.2,44018.7
69435.9,67830.3,59959,58058.9,108362,100649,46778.5,43858.2
76951.8,62571.6,61895.3,41848.7,110192,77170,36990.6,43769.6
61159.5,62281.8,46487.2,56228.3,74258,107781,39738.4,41912
65411.1,55055.7,60636,41266.3,75452,75382.5,44009.5,37562.8
67103.1,72797.4,74816.8,70049,114922,82807.9,40829.8,41760.3
68182.2,66863.7,47098.8,49905.2,79319,90105.4,35364.4,40112.5
64253.7,75345.3,55424.9,56026.7,81203.8,100202,38479.3,42594.5
65589.3,66061.8,38977,45970.1,88491.6,86831.9,41088.3,38596
69144.3,50235.3,63093.5,27396.9,93556.7,238915,42060,30793.2
54634.5,64377.9,47864.6,33688,88263.6,80464.3,35910.7,43372.1
64654.2,61956.9,42718.9,45301.5,81490.1,81718.1,40382.5,43694.7
60651,118539,48943.3,83710,75126.7,87228.1,38054.1,44857
71732.7,54281.7,39706.7,40176.6,73877.1,73578.3,42721.3,39403.8
64056.6,68434.2,51949.9,40543.5,93837.5,83936.5,36037.8,40689.6
61422.3,67589.1,53944.5,43636.3,75093.4,84107.5,38919.3,43841.2
66997.8,63476.1,48281.6,44402.2,81801.5,84482.8,40321.5,43250.8
60560.1,69766.2,64131.8,53419.1,99678.3,98906.8,39713.6,46251.3
55444.5,66831.3,66800.6,56910.8,88479.1,103239,34386.4,44852.6
69876.9,65679.3,81679.2,55056.5,93395.5,111371,42031,40619.1
66953.7,83757.6,74893.2,63816.3,124317,92248.7,41453.8,44012
74241,63474.3,70500.8,45956.2,94002.9,91332.7,41865.5,43095.8
44017.2,57213,46357.9,49803.7,78026.3,73375.3,38128.7,44813.8
65347.2,58415.4,56531.3,58056.1,78195.8,91635.8,42735.7,44607.4
58964.4,60296.4,77924.8,42016.9,136577,78605.9,41226.1,43634.7
66542.4,68901.3,56923.3,51888.7,108984,87682.6,37489.5,41609.6
62505.9,61797.6,50184.6,59557.3,86220.3,96260.3,41155.4,44347.1
61543.8,65230.2,73478.2,39826.3,121831,75060,35551.8,35275.4
73206,69461.1,72416.2,72767.9,95258.1,148741,42318.7,44366.7
73741.5,77892.3,53191.1,57311.1,98854,99433.6,40181.7,42574.1
72502.2,56455.2,64957.5,44557.8,100565,81066.2,41781.1,41969.8
73199.7,60705,69315.1,51143.7,89935.8,86327.3,38745.5,38349.3
73250.1,63696.6,80141.8,56104.6,137909,106589,47718.2,43125.7
55607.4,56317.5,51346.6,43932.3,144994,78879.7,37825.6,44939.6
79906.5,68598,86787.4,55459.6,136873,84348,39431.3,43232.8
59424.3,67515.3,45150,50206.8,82042,89566,42023.3,43619.5
54257.4,80137.8,57072,67980.7,201358,101316,33419.2,42825.7
60656.4,83780.1,66432.3,95940.6,101541,133932,43062,46809.7
56492.1,64858.5,37413.2,43705.8,78949.2,88171.9,37885.2,41548.7
55881.9,67306.5,42514.5,52109.7,73528.2,85437.7,39381.9,43002.6
53690.4,59629.5,44901.2,37994.3,74390,75472.8,36859.9,44321
63212.4,54156.6,50383.3,64345.9,84517.6,77644,42834.4,42758.8
69623.1,53257.5,71034.6,37710.7,95961.4,80949.4,31042.5,44381.7
58805.1,61266.6,48037,68798,80378.1,99895.1,44342.1,41309.8
62162.1,66578.4,46452.4,50034.4,81012,88531.9,43625.9,43977
51343.2,78061.5,30588.3,61171.1,106125,92840.9,40898.5,44937.2
60234.3,65098.8,75172.6,40645,85005.4,81572.1,37021.8,42600.1
54521.1,57544.2,45957.6,34940.4,73811.8,76979.6,39004.3,44102.4
69420.6,65268.9,63621.7,49688.3,139008,81797.3,39458.8,42158
58335.3,64155.6,42471.4,40486.5,75157.3,74851.5,38914,45108.7
53317.8,59875.2,72635.8,42050.3,125482,76598.7,39343.9,42048
59589.9,60260.4,49998.3,48305.3,87421.3,75706.4,39055.7,42402.2
46807.2,53385.3,12287.6,87585.3,104285,77492.5,41465.7,40845.8
52237.8,59163.3,52904.8,41948.8,76912.9,84010.2,41537.9,44325.4
55737,66057.3,57972.7,61023.8,82614.6,100159,41356.7,44454.2
51064.2,71496,52380.8,58549.6,91224.3,96646.7,43905.9,37684.5
60123.6,73176.3,51762.2,65728.9,89171.3,107772,41723,45710
76881.6,61167.6,84438.3,45803.3,113542,82782.8,45413.4,42406.9
76431.6,61735.5,107760,70388.2,149207,83525.1,39620.2,41535.2
64773,69576.3,59843.7,69811.4,103041,77100.5,42948.1,44232.6
46946.7,68875.2,20505.3,50486.2,104888,91628.8,40380.3,40025
66882.6,71073,60054.9,59649.1,110180,109050,43514.7,43066.2
61905.6,54134.1,57856,55433.2,96946.9,99336.4,46528.5,34565.4
60163.2,62510.4,56258.9,44751.1,76209.5,88181.6,41901.2,36259.2
64343.7,65879.1,55208,45911.7,91531.5,82830.1,42160.5,44055.2
72428.4,64981.8,58630.2,47588,90616.9,94040.4,38800.6,41091.7
70048.8,85316.4,86572,89204.6,100758,108335,27484.1,41723.3
114997,61169.4,104864,36862.8,145230,78468.3,46114.8,44202
79526.7,66768.3,31947.8,54057.1,154300,96328.4,35106.6,41864.5
64223.1,60292.8,67089.7,36719.6,104763,74484.5,42745.4,44041.7
65898,75731.4,60579,52154.2,94709,94310.1,42445.8,43289.3
64174.5,66516.3,52886.7,76420.8,85339,129041,43995.6,39233.1
60388.2,85026.6,56575.8,66022.2,87153,111550,43721.9,45741.3
65280.6,72873,98973.6,72677.5,106072,117573,43888.9,42081.9
63821.7,70735.5,49980.2,57982.5,74769.5,106638,42404.7,42666.7
60559.2,65435.4,47586.6,52355.7,79031.2,84122.8,42050.1,44982.8
59350.5,67282.2,36194.2,95637.6,76479.2,100198,42386.2,42854.7
66262.5,59934.6,100914,47347.6,83943.5,88340.1,45755.7,44348.9
60765.3,73344.6,59803.4,75468.7,94488,124039,43452,43517.2
65963.7,69183,63842.7,52140.3,96643.9,111631,44148.2,42839.5
62202.6,92271.6,53163.3,60766.6,84457.8,97732.3,38569.5,40637.6
58085.1,68848.2,91790,51154.8,90106.8,84106.1,39484.1,40630.4
69989.4,54253.8,65609.4,35881.5,96185.2,76240.1,42749.1,42164.8
69577.2,65917.8,57327.8,58873.4,80415.7,111541,47482.6,41025.6
61941.6,59692.5,59711.6,43028.8,90901.8,80483.8,45296.5,44221.6
70123.5,77432.4,52218.1,103755,81612.5,167598,38971.1,39047.1
70753.5,85634.1,74345.5,53855.6,96548,94210,36687,43202.3
66763.8,58614.3,65028.4,50269.3,96396.5,89311.7,38452,42937.5
76447.8,73647.9,78547.5,57199.9,100129,108546,41955.5,41774.2
73578.6,74133,63869.1,51161.7,101441,93737.4,43201.6,38701.6
54013.5,61701.3,41230.2,46763.8,74733.4,77035.2,41636.9,42675.6
67063.5,68552.1,60494.2,56983.1,98667.8,90336.1,43619.6,43592.6
54540.9,97839.9,48248.3,48898.8,103491,118311,41014.5,46612
64077.3,63248.4,48078.7,44467.5,83630.7,78694.9,43569.1,42636.7
47656.8,68963.4,56111.5,76001,84274.3,130289,41437.3,42786.4
66434.4,61937.1,43123.4,44370.2,74940.5,78608.7,42174.4,41411.9
65026.8,59311.8,69370.7,54146.1,88277.5,75401.9,40460.7,38737.6
73114.2,59798.7,54465.8,47857.7,176772,85999.3,35559.3,45119.5
53062.2,71266.5,41424.8,47240.5,75160.1,75080.9,41521.4,42139.3
56639.7,71798.4,30513.3,68390.8,159951,121182,36984.4,37417.1
69959.7,66574.8,79720.7,62993.4,113740,91662.2,47775.3,38929
74310.3,58438.8,68066.9,44431.3,104179,78579.5,43964.5,42698
61864.2,72368.1,59421.1,62227.5,100718,119174,41504.8,41746.3
59936.4,56088.9,73797.9,45882.5,96169.9,81683.4,37754.4,36655.1
59711.4,65725.2,52675.4,47657.5,81522.1,82433.9,42233.4,42646.7
60598.8,,65567.7,,109208,,44422.8,,
59454,,27474.7,,190265,,36040.4,,
68073.3,,67674.9,,116793,,45000.6,,
65326.5,,53439.9,,76586.2,,40054.1,,
62786.7,,34288.5,,213881,,33742.2,,
70948.8,,70600.9,,114397,,41405.9,,
59728.5,,44029.6,,74420.6,,42616.7,,
64451.7,,71604.5,,98045,,37001.5,,
56390.4,,91448.1,,95751.5,,40406,,
69404.4,,63582.8,,87108.5,,38028.4,,
84488.4,,76270.7,,99920.1,,40777.2,,
63162,,63859.4,,85856.1,,42182.9,,
49843.8,,25174.3,,187084,,32790.4,,
60624,,51022.7,,75920.4,,41442.3,,
66517.2,,70163,,92075,,38717.1,,
70186.5,,50728.1,,206511,,28981.1,,
57933,,61111.3,,88483.2,,39210.9,,
47095.2,,63005.9,,82510.4,,42657.3,,
65013.3,,59604.6,,99428.1,,42071.2,,
63592.2,,83152.6,,122879,,46588.7,,
62314.2,,58801.2,,90109.5,,42361.3,,
53349.3,,53118.8,,94337.9,,40994.1,,
53302.5,,55476.3,,112828,,40877.7,,
57885.3,,52551.7,,87283.7,,41644.1,,
54886.5,,60123.1,,80336.4,,43414.8,,
71357.4,,82499.3,,125974,,41722.2,,
77926.5,,73677,,98239.6,,42641.1,,
63245.7,,53856.9,,80111.3,,41770.5,,
55172.7,,49421.4,,80312.8,,43184.1,,
60354,,58720.6,,104011,,39657.6,,
51950.7,,16664.7,,90918.5,,38745.8,,
59552.1,,51589.8,,90419.5,,42264.2,,
63760.5,,55337.3,,85387.7,,41234.8,,
71753.4,,76476.4,,108209,,44238.7,,
76006.8,,68899.5,,77136.7,,44750.2,,
71649,,45850.5,,94535.3,,39502.9,,
65711.7,,59612.9,,110901,,41553.1,,
64454.4,,53556.7,,98321.6,,37020.5,,
78561,,64673.9,,126725,,40832,,
61855.2,,40229.4,,99947.9,,40006.8,,
59112,,61157.2,,78049.9,,39861.9,,
53662.5,,37931.7,,100391,,35769,,
68453.1,,61753.5,,85551.7,,43579.3,,
59305.5,,58931.8,,124487,,41447.5,,
69094.8,,47054.3,,78369.6,,43249,,
60684.3,,51610.7,,95538.9,,41542.3,,
74180.7,,90924.1,,105612,,35331.4,,
78737.4,,81366.4,,120124,,45654.5,,
66828.6,,85733.8,,110864,,41105.1,,
62351.1,,66225.2,,111842,,47168.8,,
109926,,100350,,124960,,45157.3,,
113391,,65349.5,,76167.8,,39385.1,,
54544.5,,62513.9,,84756.6,,42782.1,,
68042.7,,65299.4,,79499.7,,39847.1,,
61471.8,,44331.3,,83212.4,,41380.8,,
57039.3,,43753,,74812.6,,40141.9,,
67244.4,,63314.5,,108268,,44121,,
68399.1,,66361.4,,109076,,42799.1,,
55341,,55673.7,,74695.8,,44601.3,,
57145.5,,53086.9,,81764,,42670.2,,
64006.2,,46712.3,,76746.1,,41238.2,,
65018.7,,51388.3,,83102.5,,42888.8,,
69043.5,,60662.4,,97447.3,,41831.3,,
56410.2,,48822.4,,76975.4,,41229.6,,
71547.3,,58920.7,,84131.1,,42016.1,,
65439,,57227.7,,96934.4,,39924,,
55485.9,,47608.9,,74188.5,,38165.1,,
61810.2,,108591,,143566,,40891.5,,
66823.2,,86274.5,,114925,,40857.4,,
56180.7,,36741.9,,80108.5,,36042.4,,
67748.4,,54194.7,,77648.2,,42013.5,,
67833,,61027.9,,116318,,41207.5,,
59055.3,,42963.5,,85683.8,,40650.7,,
57793.5,,43796.1,,77017.1,,41210.3,,
64542.6,,66348.9,,114090,,41505.5,,
54693,,43188.7,,78347.4,,38990,,
62848.8,,77214.5,,103078,,45585.4,,
64442.7,,55629.2,,79378.7,,43034.9,,
62568,,51838.7,,76814.2,,39827.3,,
61930.8,,59214,,77170,,44535.4,,
48319.2,,46053.5,,86667.9,,43280.8,,
67780.8,,55873.8,,85287.6,,38499.9,,
58145.4,,86873.6,,88167.7,,42167.5,,
69522.3,,56036.5,,97835.1,,44250.8,,
67742.1,,78696.2,,110102,,44644,,
68676.3,,65142.3,,112070,,40092,,
57319.2,,47567.2,,74901.5,,39252.3,,
74270.7,,90165.1,,119312,,41650.2,,
46627.2,,15221.9,,95808.5,,40862.6,,
66834.9,,57929.6,,78150,,35948.4,,
65810.7,,41666.6,,84068.6,,41063.6,,
56616.3,,63346.5,,83684.9,,42566.4,,
74474.1,,74630.5,,122309,,43354.8,,
58427.1,,45592,,100604,,35390.3,,
64953.9,,61855,,110992,,41065.2,,
68897.7,,55305.3,,76465.3,,44598.6,,
58636.8,,37837.2,,83775.3,,42256.4,,
59189.4,,60843.1,,95637.6,,44071.6,,
50942.7,,24715.6,,107270,,38928.7,,
53777.7,,81092.6,,116285,,39408.2,,
78894.9,,73380.9,,127687,,41367.3,,
59068.8,,46812.4,,81266.4,,38449,,
69642.9,,23239.4,,135600,,39645.1,,
63771.3,,44742.7,,76580.7,,43407.2,,
63533.7,,59661.6,,85514.2,,41681.5,,
59801.4,,53073,,75132.3,,42649.1,,
81259.2,,47839.6,,111820,,39705.8,,
65907.9,,68832.8,,105180,,41618.7,,
65403,,82566,,78294.5,,42789.4,,
62604.9,,60597.1,,81265,,33969.1,,
57591,,55577.8,,76468.1,,43355.8,,
64717.2,,63985.9,,79548.3,,44493.6,,
65976.3,,60100.8,,85801.9,,41726.2,,
60376.5,,98956.9,,81821,,42159.3,,
64248.3,,59272.4,,91965.2,,43575.1,,
76430.7,,74387.2,,105985,,41447.9,,
69084,,68107.2,,116672,,47508.7,,
58373.1,,45398.8,,84450.8,,42852.5,,
71964,,56788.4,,85618.4,,39845.8,,
67593.6,,72121.5,,123896,,41869.2,,
72261.9,,60555.3,,83537.6,,41852.7,,
57942.9,,54493.6,,93445.5,,43701.5,,
78146.1,,77423,,126199,,43826.6,,
69118.2,,58509.3,,90427.8,,36368.7,,
64443.6,,63948.3,,93776.4,,43732.4,,
77933.7,,62067.7,,120025,,42128.6,,
60655.5,,54374,,76133.1,,42268.7,,
57823.2,,47671.4,,87336.5,,34411.4,,
61281.9,,54036.2,,78664.3,,40998.4,,
64121.4,,70414.6,,86223.1,,43298.6,,
62052.3,,46334.3,,73973,,43226.9,,
60690.6,,45480.8,,85854.7,,40508.1,,
49993.2,,39353.7,,87978.7,,42314.1,,
61136.1,,57672.5,,98848.5,,34523.3,,
60564.6,,50319.4,,75653.5,,41307.4,,
48193.2,,31548.8,,92982.7,,34467.2,,
56005.2,,51389.7,,98104.8,,43661.4,,
60950.7,,61696.5,,81370.6,,42741.8,,
82467,,77809.4,,95513.9,,47287.3,,
58281.3,,57918.5,,95085.7,,41514.8,,
70013.7,,55498.5,,77284,,41656.6,,
75818.7,,81782,,108110,,42066.7,,
68806.8,,56103.2,,76873.9,,41761.3,,
59202,,41996.1,,73893.8,,42738.4,,
54213.3,,47647.8,,88968.3,,38723.5,,
57920.4,,55588.9,,73508.8,,42628.8,,
62676,,65949.9,,99786.7,,42892.7,,
59915.7,,58318.8,,73487.9,,42113,,
62727.3,,61307.3,,91968,,42054.2,,
63541.8,,49356.1,,84731.6,,40983.6,,
85430.7,,70646.8,,110769,,43918.7,,
72844.2,,60613.7,,86203.6,,41491.4,,
63036,,56535.5,,108556,,41819.4,,
68139,,57058.1,,84866.4,,42088.6,,
77062.5,,74209.3,,120909,,45618.3,,
61695,,50281.9,,75342.2,,37630.7,,
63995.4,,50009.4,,91024.1,,41480.3,,
71379,,71067.9,,112383,,40990,,
64387.8,,42502,,73487.9,,40846.7,,
64091.7,,74624.9,,124108,,43654.7,,
65326.5,,44778.8,,78455.8,,40984.9,,
59345.1,,57732.3,,83960.2,,36459.7,,
102854,,112254,,86687.4,,42310.7,,
68130.9,,56713.4,,88130.2,,41434.5,,
52916.4,,40114,,75850.9,,35065.1,,
62208,,58691.4,,104328,,46066.7,,
55422,,49442.3,,80246.1,,42885.2,,
82653.3,,59487.8,,100002,,39775.5,,
64098,,67737.5,,104816,,42169.5,,
68310.9,,68677.1,,80264.2,,38650.2,,
62761.5,,77019.9,,126015,,46675.1,,
63171.9,,64276.4,,90757.3,,41930.5,,
80972.1,,66094.5,,132883,,46014.4,,
56006.1,,52906.2,,85419.7,,42896.7,,
55588.5,,46890.3,,74971,,43954.5,,
65545.2,,56392.3,,92387.7,,45642.2,,
76532.4,,53565,,74196.8,,42716.8,,
65924.1,,45528.1,,73392,,42677.7,,
48248.1,,59632.4,,73980,,35763.6,,
53039.7,,51142.3,,74114.8,,40919,,
80132.4,,79149.4,,95463.8,,41351,,
56360.7,,86269,,116318,,34991.5,,
69496.2,,53816.6,,78027.6,,43544,,
69893.1,,57098.4,,92551.8,,38744.6,,
66872.7,,53570.6,,133163,,33858.1,,
59814.9,,50085.9,,182802,,37934.8,,
54714.6,,49516,,82585.5,,42680.4,,
49246.2,,50555.7,,77132.5,,42170.6,,
63264.6,,45690.7,,77360.4,,41749.2,,
63865.8,,52775.5,,81602.7,,38329.5,,
62610.3,,60957.1,,108695,,44399,,
68435.1,,58450.9,,99204.3,,35737,,
61580.7,,63101.8,,73389.2,,43721.8,,
76689,,95056.5,,131064,,46409.3,,
60007.5,,37620.4,,75428.4,,43047.7,,
59582.7,,58713.6,,83523.7,,37166.5,,
63589.5,,51892.9,,80148.8,,44185.3,,
72569.7,,59273.8,,90361.1,,38503.7,,
66864.6,,64037.3,,94888.4,,39711.7,,
65769.3,,83237.4,,117045,,36828.5,,
65653.2,,47364.2,,74819.5,,38763.9,,
69705,,43304.1,,86242.5,,40028.1,,
63144.9,,43327.7,,74105.1,,38581.7,,
44946,,44500.8,,75350.5,,38671.2,,
60650.1,,67841.7,,96339.5,,38971.2,,
72433.8,,55719.5,,88356.7,,43695.9,,
64233,,63200.5,,108952,,42047.9,,
60119.1,,45434.9,,83147,,36251.6,,
71688.6,,78864.4,,98008.9,,41978.5,,
65750.4,,64193,,90601.6,,36313.4,,
68359.5,,69836.4,,103618,,42596.8,,
59859,,56668.9,,82579.9,,41310.2,,
68616,,66827,,112206,,41566.7,,
64970.1,,42931.5,,74706.9,,42421.1,,
59318.1,,60007.7,,87549.1,,42242,,
68218.2,,51603.8,,81958.6,,43247.5,,
56683.8,,53021.6,,75509,,44356.3,,
65905.2,,48342.8,,111154,,43204,,
50142.6,,60993.2,,93230.1,,42925.3,,
70517.7,,70987.3,,118509,,38554.4,,
65936.7,,68515.9,,113598,,41757.1,,
57081.6,,57461.2,,93135.6,,44382.4,,
71129.7,,69683.5,,96421.5,,41258.2,,
60043.5,,83523.7,,110833,,37982.3,,
73252.8,,56983.1,,90915.7,,43434.4,,
59290.2,,55053.7,,77934.5,,43560.9,,
56259,,47494.9,,79420.4,,33897.2,,
66887.1,,84897,,90444.5,,40989.4,,
74765.7,,77591.2,,127174,,46795,,
61639.2,,70477.2,,99419.8,,43792.6,,
60227.1,,44242.3,,75044.7,,43767.9,,
59767.2,,74105.1,,102882,,43703,,
72614.7,,89889.9,,149401,,45920.1,,
58953.6,,48588.8,,89985.8,,41571.1,,
63345.6,,42957.9,,96969.2,,42304.3,,
61291.8,,43637.7,,74773.7,,39941.3,,
68893.2,,53399.6,,79424.6,,43650.6,,
52347.6,,32888.8,,188145,,35722.9,,
62937,,45226.4,,79951.4,,42173.7,,
59361.3,,62554.2,,93961.2,,42546.4,,
81013.5,,97031.7,,127962,,41968.7,,
68326.2,,59354.4,,79141,,42895.4,,
52860.6,,36996.2,,76344.4,,42575.3,,
56618.1,,62620.9,,83127.6,,40642.4,,
61946.1,,53430.2,,78316.8,,40258.2,,
74177.1,,59560.1,,96892.7,,41919.9,,
66758.4,,47039,,197320,,31594.2,,
68016.6,,60292.6,,126847,,40878.6,,
70790.4,,63948.3,,91051.9,,43195.2,,
61390.8,,67755.5,,110865,,38985.2,,
62205.3,,35253.2,,159768,,40190,,
71815.5,,57031.7,,83286,,42196.3,,
59376.6,,54724.3,,76857.3,,43194,,
76633.2,,53713.8,,81063.4,,40268.6,,
59783.4,,69155.3,,98099.2,,45271.4,,
61614.9,,51146.4,,82356.1,,43107.5,,
59914.8,,44179.8,,79095.2,,41213.5,,
77598,,61656.2,,108510,,40175.1,,
65459.7,,58649.7,,81943.3,,39749.8,,
75384,,70820.5,,97473.8,,40781.6,,
60820.2,,54414.3,,77196.4,,40911.5,,
63568.8,,52765.8,,88747.3,,42822.4,,
62759.7,,58018.6,,81266.4,,42915.1,,
69158.7,,56794,,89332.5,,38556.4,,
47254.5,,20260.6,,76052.5,,39071.1,,
74171.7,,60441.4,,88252.5,,43941.5,,
62721.9,,54084.9,,73863.2,,40410.6,,
76555.8,,62130.2,,87846.6,,42458.5,,
45521.1,,18798.4,,105405,,38813.6,,
74284.2,,55761.2,,78836.6,,42943.4,,
59261.4,,71653.1,,78565.6,,38091.1,,
72746.1,,51550.9,,105405,,43436.8,,
74321.1,,72337,,92284.9,,42291.7,,
76843.8,,72951.4,,112739,,42216.2,,
57247.2,,47094.6,,79697,,41080.3,,
83882.7,,56092.1,,79022.9,,47107.4,,
54996.3,,59820,,90112.3,,43824.8,,
61783.2,,49051.7,,76969.9,,42517.1,,
64703.7,,49342.2,,78879.7,,41509,,
59877.9,,44406.3,,74370.6,,43317.6,,
86869.8,,101716,,132239,,41980.2,,
55777.5,,72191,,111079,,46678.1,,
67393.8,,56876,,90305.5,,42383.9,,
79281.9,,85239,,149415,,44815.6,,
66314.7,,58892.9,,121467,,36206.8,,
71760.6,,64608.6,,84645.4,,36087.8,,
59945.4,,47446.3,,86246.7,,41791.8,,
76762.8,,66966,,119958,,43196.1,,
52591.5,,25594.1,,205555,,31143.5,,
75257.1,,73449,,128251,,46881.1,,
65839.5,,54914.7,,99583.8,,42382.7,,
61295.4,,55480.5,,86870.8,,43918.7,,
76320.9,,74722.2,,110911,,41282.9,,
66237.3,,49755.1,,80654.8,,43200.4,,
58473.9,,63867.7,,84053.3,,37126.7,,
68539.5,,62156.6,,100824,,40836.6,,
52310.7,,45030.4,,131020,,34214.8,,
75542.4,,56121.2,,98544,,43025.4,,
53577.9,,37089.4,,75713.3,,43761.2,,
55826.1,,47768.7,,73750.6,,38842.7,,
65626.2,,55056.5,,91488.4,,44093.9,,
72459.9,,72831.8,,103624,,44853.8,,
68820.3,,46430.2,,97270.8,,42139.7,,
78678,,66725.6,,121332,,41529.1,,
60450.3,,58802.6,,82916.3,,43018.5,,
56975.4,,53081.3,,92385,,42485.7,,
71397.9,,50580.7,,83543.2,,42807.3,,
65054.7,,56742.6,,85604.5,,42420.9,,
63226.8,,48429,,80916.1,,43137,,
83980.8,,53059.1,,91434.2,,43755.3,,
75156.3,,63479.9,,103258,,45040.5,,
76970.7,,69922.6,,106741,,41904.2,,
57557.7,,56390.9,,98620.5,,42865,,
55945.8,,71838,,81726.4,,30557.3,,
56518.2,,62687.6,,103381,,45707,,
58431.6,,50817,,81296.9,,35252.9,,
66420.9,,62461,,103559,,41127.1,,
66344.4,,64259.7,,109946,,43023.2,,
70502.4,,72962.5,,97080.4,,45002.4,,
51291,,39259.2,,81467.9,,42389.7,,
75035.7,,56174.1,,81859.9,,41361.8,,
69770.7,,50976.9,,93495.6,,40184.5,,
66627,,50498.7,,86761,,39384.4,,
106664,,136601,,196931,,47387.9,,
63621.9,,56976.1,,93145.3,,34525.3,,
64161.9,,39851.3,,84913.7,,42726.5,,
75741.3,,66918.8,,95840.5,,42839.9,,
62975.7,,57105.4,,107843,,44823,,
43940.7,,23941.4,,194125,,32330.3,,
64535.4,,62765.4,,101566,,44239.1,,
62217.9,,49496.5,,77302.1,,43495.9,,
68377.5,,72560.8,,113108,,44236.6,,
58512.6,,66145.9,,97974.1,,43023.2,,
62842.5,,44610.7,,90750.3,,40172.6,,
46954.8,,24907.4,,87075.2,,39722.1,,
55116.9,,59315.5,,95342.9,,46234.6,,
65359.8,,50557.1,,85897.8,,42933.7,,
61962.3,,41137.1,,84229.8,,40524,,
48680.1,,61891.1,,75756.4,,41164.8,,
58323.6,,66340.5,,88245.5,,41642.8,,
55248.3,,76490.3,,84664.9,,38066,,
76353.3,,73360,,109222,,44843.1,,
64038.6,,55833.5,,84503.7,,44037.7,,
70488,,95108,,132324,,46720.4,,
67389.3,,50896.2,,82308.9,,34532.7,,
53837.1,,47521.3,,80255.8,,37178.7,,
57578.4,,33799.2,,80626.9,,42062.4,,
71548.2,,57516.8,,84392.5,,40729.4,,
57966.3,,52642.1,,79505.2,,42529.4,,
72152.1,,79708.2,,113414,,45503.4,,
67068,,53501.1,,80517.1,,37988.1,,
68528.7,,60191.2,,87756.3,,41082.4,,
63865.8,,73424,,131465,,45293.3,,
54443.7,,54066.8,,76729.4,,36464.6,,
63713.7,,36602.9,,74763.9,,41671.1,,
77846.4,,98747,,127450,,47543.8,,
102634,,82037.8,,131608,,40597.3,,
54574.2,,71883.9,,74900.1,,38059.8,,
68609.7,,63081,,82959.4,,44255.7,,
52281,,56566.1,,79717.9,,36490.6,,
73314,,50294.4,,74665.2,,42352.8,,
59943.6,,88454,,106992,,45627.7,,
67547.7,,74822.3,,110252,,40416,,
81594,,69534.8,,103290,,40354.3,,
55781.1,,52161.1,,79854.1,,39801.5,,
66429,,49909.3,,76051.1,,43168.9,,
64172.7,,56283.9,,86848.6,,42897,,
46960.2,,75468.7,,140144,,42506.2,,
69934.5,,66906.3,,104269,,41526.4,,
66154.5,,50099.8,,89944.1,,41345.7,,
56779.2,,64401.5,,91309.1,,37904.2,,
64717.2,,56250.5,,94888.4,,43589.8,,
56052,,56926.1,,87885.5,,43003.7,,
65448,,60566.5,,89639.7,,42301.4,,
62828.1,,55708.4,,96648.1,,42924.7,,
64463.4,,64198.5,,98731.7,,42222.8,,
63550.8,,40822.9,,75791.1,,40221.6,,
57682.8,,26325.2,,75240.7,,43449.9,,
64568.7,,50380.6,,78091.6,,40230.5,,
65361.6,,58531.5,,111477,,40045.4,,
59618.7,,59713,,90584.9,,42900.3,,
62140.5,,47868.8,,74527.6,,44582.5,,
54158.4,,56984.4,,83302.7,,42925.1,,
52046.1,,53709.6,,76758.6,,42698.3,,
69340.5,,59906.2,,76548.7,,42657.1,,
62622,,66639.4,,76095.5,,43583.2,,
81333.9,,48000.9,,79849.9,,41514.2,,
63774,,64117.9,,88406.8,,40366.5,,
54079.2,,41619.4,,75353.3,,44418.7,,
59945.4,,44370.2,,87365.7,,34113.5,,
64488.6,,59708.8,,96791.3,,42258.4,,
46633.5,,22858.5,,194681,,30445.7,,
43877.7,,47550.5,,98224.4,,43085.5,,
55440.9,,46546.9,,105418,,45490.4,,
79981.2,,66177.9,,134191,,44029,,
63830.7,,62994.8,,76926.8,,41044.9,,
70521.3,,71831,,114450,,44056.1,,
70321.5,,47934.1,,86223.1,,37614.9,,
72779.4,,71551.6,,125499,,41625.2,,
70326,,75891.2,,136702,,41204.4,,
65063.7,,56710.6,,77655.1,,42979.1,,
58502.7,,45012.4,,74013.3,,37517.1,,
60284.7,,52422.5,,80429.6,,41435.2,,
66540.6,,49129.6,,78907.5,,38296.4,,
74265.3,,67663.8,,125461,,34997.3,,
65835.9,,88092.6,,116620,,41726.8,,
85058.1,,82825.9,,120235,,46186.9,,
62178.3,,57265.2,,101148,,43832.8,,
69532.2,,84457.8,,134895,,45398.9,,
71869.5,,63634.2,,96201.9,,40642.2,,
68220.9,,50287.4,,78630.9,,41253.4,,
43583.4,,16869,,76388.8,,40919.8,,
54943.2,,63256.1,,116312,,45547.5,,
55921.5,,44090.8,,80727,,40625.8,,
73062,,60549.8,,93879.2,,40969.7,,
67782.6,,67827.8,,87557.5,,40313.6,,
73268.1,,62951.7,,75364.4,,38928.9,,
72685.8,,77456.4,,116615,,42954.4,,
69337.8,,68882.8,,105295,,35822.2,,
61082.1,,49325.5,,81725,,41934.5,,
62832.6,,49698.1,,77524.5,,38166.7,,
70449.3,,66136.2,,79499.7,,43935.1,,
61794,,52667.1,,82397.8,,44949.4,,
53234.1,,53692.9,,86616.5,,43185.3,,
68787.9,,51492.6,,83654.4,,40427.7,,
62206.2,,58977.7,,91499.5,,41833.1,,
73759.5,,55825.2,,94585.3,,40792.4,,
53758.8,,54279.5,,78165.3,,32967.3,,
67797.9,,57533.5,,105761,,44435,,
52630.2,,29684.8,,74820.9,,30757.5,,
66954.6,,59410,,99139,,44090.8,,
50804.1,,54692.3,,80604.7,,42740.7,,
53149.5,,61467.2,,107255,,41759.7,,
56407.5,,41038.4,,81937.7,,36464.2,,
66872.7,,52443.3,,82044.8,,43147.6,,
53136,,49575.7,,85137.5,,43025.4,,
64718.1,,80973.1,,103259,,42111.7,,
59955.3,,69946.2,,97430.7,,45760.4,,
57348,,56794,,81449.8,,37947,,
69407.1,,70741.3,,88725.1,,41850.8,,
57960.9,,53801.3,,87935.6,,43318.9,,
67678.2,,67730.5,,96927.5,,38609.5,,
42448.5,,60932,,79478.8,,41064.6,,
74779.2,,51712.2,,81861.3,,38530.3,,
48178.8,,53791.6,,83023.3,,35542,,
49708.8,,63593.9,,88857.1,,36890,,
59786.1,,46544.1,,73411.5,,40644.3,,
53834.4,,50790.6,,89774.5,,36724.7,,
58628.7,,49521.5,,73795.1,,38838.6,,
67418.1,,67098.1,,91674.7,,42603.4,,
55227.6,,53976.5,,105327,,40113.9,,
66919.5,,57793.4,,104567,,43530.4,,
51392.7,,27502.5,,212628,,31967,,
65044.8,,69308.2,,125331,,43765.1,,
61001.1,,42951,,119258,,38869.4,,
58976.1,,38590.6,,183344,,33622.8,,
61807.5,,57067.8,,96814.9,,37867.3,,
61542.9,,48609.7,,79442.7,,32818.6,,
52706.7,,54532.5,,88109.3,,42201.7,,
46431.9,,60017.4,,74679.1,,41950.2,,
52748.1,,96603.6,,110765,,42730.6,,
68957.1,,64184.6,,102030,,44491.1,,
62742.6,,54700.7,,88722.3,,37134.7,,
61222.5,,47336.4,,73622.7,,38090.3,,
67730.4,,54425.4,,202305,,35084.1,,
74135.7,,70602.3,,95776.6,,44228.3,,
60228,,38266.7,,77353.5,,40155.3,,
64650.6,,54617.3,,81003.6,,41587.3,,
71868.6,,52694.9,,87314.2,,42815.3,,
54694.8,,36355.4,,158707,,33682.4,,
49663.8,,40294.7,,88427.6,,34136.7,,
62206.2,,55872.4,,80956.4,,43092.8,,
62530.2,,52637.9,,75282.4,,44089.5,,
68766.3,,65195.2,,122341,,46772.2,,
78418.8,,89349.2,,128854,,45007.6,,
56817.9,,105924,,132607,,47696.7,,
67214.7,,65652.5,,96774.6,,43142,,
52985.7,,40180.7,,126596,,39284.6,,
