"FSC-A","FSC-A","SSC-A","SSC-A","FITC-A","FITC-A","Comp-PE-A","Comp-PE-A"
73355.4,73175.4,65570.5,61924.5,84954,101096,87508.4,95410.5
77222.7,74709.9,106698,26077.8,177364,72092.4,83608.2,86704.5
64629.9,76698.9,38250,26415.6,73439.3,64279.2,81754.6,86261.8
49229.1,81036,48533.2,60508.1,74966.9,89713.4,87889.9,88218.3
73361.7,81319.5,31608.6,53481.6,68600.7,95848.8,92350.4,86595.2
147026,56037.6,189075,61716,243585,109970,89867.8,85719.7
46940.4,61944.3,38225,42603.5,62918.3,74819.5,82725.2,83517.8
54431.1,69409.8,33579.6,66770,66782.5,111265,86488.9,96306.3
87063.3,85712.4,41423.4,32342.5,77905.3,68749.4,84923.6,84573.8
45674.1,61478.1,49552.1,36059.4,135464,65655.3,95834.6,85352.2
123543,84710.7,119066,21219.7,176939,66140.4,83269,89608.9
70387.2,47208.6,61229.5,91314.7,79606.7,105483,88238.9,81752.9
76497.3,128945,106382,82464.5,173530,168091,84631.3,96322
86371.2,80499.6,130372,53918.1,166340,89985.8,89298.5,82566.3
87432.3,87324.3,62447.1,69123.3,95487.4,89717.5,85208.2,82424.5
68351.4,71638.2,62839.1,35941.2,86641.5,77367.4,83338,82974.8
76293,81450,49219.9,112811,76664.1,172721,82565.2,95626.3
66186,83105.1,58473.1,78358.5,106128,113649,83102.9,83330.2
88550.1,46559.7,87052.9,72748.4,129929,124127,88860.8,85092.2
76735.8,61567.2,87114.1,43014.9,86434.4,70200.6,83425.9,87224.9
71833.5,55089,50355.5,40753.4,76989.3,70852.5,83615.4,84447.6
118289,111758,59917.3,112240,89616.1,193341,96646.3,97599.1
89886.6,78705.9,70242.3,36372.1,102123,76723.8,84482.6,87974.2
71448.3,56295.9,130317,28581.2,140658,60726.3,90072,81877
80334.9,68122.8,60633.2,39235.5,111092,68643.8,91164.3,82469
68806.8,67272.3,143669,79013.2,148224,135198,83634.3,89707.2
89032.5,82358.1,107093,60205.1,131762,105782,84805.1,92688.9
79175.7,107333,143702,105283,221214,161892,81733.2,81914
82394.1,75898.8,72082.6,58467.6,89591.1,90502.9,85797.5,84344.1
104641,111686,154721,51877.6,193064,110640,82349.9,86004.8
78596.1,63825.3,36689.1,60423.3,70054.6,82606.3,90542.2,85638.5
61475.4,67170.6,59271,61711.8,84733,96998.4,84429.4,85327.2
76682.7,71874.9,56349.2,55593.1,92647.7,88007.9,83174.1,95098.9
69171.3,74964.6,32024.2,54602,65546.8,79024.3,84969.8,83724.1
83169,88579.8,96901.1,36846.1,117092,71685.1,86586.1,86843.8
71232.3,74524.5,108120,30482.7,132146,75531.2,83779.1,84635.7
65655,86317.2,49602.1,47257.2,79647,81284.4,82807,85858
92841.3,54170.1,37222.8,45808.8,78245.9,81096.8,86256.3,84216.9
66928.5,82224,32887.4,29912.8,69972.6,66772.8,84842.7,87406.9
67026.6,70293.6,110367,41046.7,176821,89778.7,82044.8,84136
91134,67514.4,109658,68189.2,158258,92340.5,82946.8,95693.5
90524.7,76054.5,76098.3,45765.8,102328,80326.7,84875.8,85675.5
45973.8,83205,77999.9,39755.4,104379,75085,95875.6,83358.1
70895.7,78836.4,35268.5,39249.4,66539.3,78252.8,83258.3,86852.2
,70978.5,,75899.6,,92389.1,,100650
,71996.4,,79959.8,,139503,,84696.2
,74577.6,,72699.8,,84389.7,,86689.9
,84965.4,,32616.3,,70094.9,,84204.1
,71644.5,,23863.5,,66729.7,,92847.2
,82779.3,,27663.8,,64526.6,,81624.7
,48343.5,,61855,,92537.9,,86351.5
,96856.2,,65767.9,,131915,,84470.3
