"FSC-A","FSC-A","SSC-A","SSC-A","FITC-A","FITC-A","Comp-PE-A","Comp-PE-A"
58290.3,53987.4,69194.2,42269.9,75967.7,51730.2,81046.1,51258.5
50481,85076.1,20606.8,67374.7,44125.6,147232,53377.1,60872
73752.3,73797.3,70317.3,57459.8,135878,127482,57846.6,48831.7
75317.4,84088.8,104250,85505.9,138735,154202,50149.6,62651.3
82619.1,61728.3,105091,50115.1,153663,111301,68757.7,49174.7
58784.4,84385.8,24470.9,49190.7,54868.9,77512,60247.6,48413.2
72680.4,70173.9,76103.9,83219.3,153948,117891,50272.5,53632.5
74007.9,80150.4,43323.5,85715.7,68924.5,174289,53207.3,69918.3
60918.3,59994,65767.9,69733.5,124530,161978,50161.5,53149.5
60039.9,63454.5,28946.8,37869.2,49243.5,78322.3,50343.8,54572.1
57344.4,68137.2,22379,74124.5,46150.8,153630,48775.8,52182.6
49277.7,69682.5,19764.4,75211.5,45404.3,143502,55640,52286.5
68676.3,98995.5,79617.8,70755.2,145411,154151,49712,48573.8
76217.4,43628.4,94884.2,18952.7,135126,46947.2,49353.1,54658.9
72533.7,92315.7,85917.3,40804.8,133466,77409.1,56754.8,50461.5
71438.4,62156.7,123842,69055.2,212243,120036,79799.9,50615.3
49366.8,58461.3,16382.5,48378.9,47859.1,63969.2,58568,49831.1
100524,54615.6,81675,20547,157002,55119.1,76155.4,58480.7
103494,64488.6,78131.9,87328.1,73089,144810,54699.2,64594.5
41896.8,74709.9,26587.9,89104.6,47740.9,200014,51489.1,49126.1
58048.2,52036.2,73461.5,91715,93816.7,92219.5,48817.3,49230.5
58232.7,62343.9,28632.6,32559.4,68438,45692.1,79358.4,58920.6
60499.8,165010,80257.2,157423,93647.1,122768,73995.2,51812.3
81087.3,64809,108416,31169.4,154615,67162,51308.4,62002.7
78380.1,70982.1,137711,92123.6,155380,153822,53984,52797.6
83828.7,60410.7,106042,66649.1,172129,135241,69443.4,48965
63342,79929.9,26330.8,74705.5,56659.2,112306,73765.6,54436.1
55469.7,76329,25645.5,99219.6,49566,190615,48933.8,79467.3
72486,72820.8,45829.7,55690.3,70930.3,79178.6,75573.2,75823.5
51209.1,74209.5,31471,74041.1,46295.3,145544,48139.9,50471
70865.1,75423.6,93759.7,55365.1,117769,71712.9,49991.3,79108.1
75536.1,60465.6,87091.8,52222.3,126090,77047.7,63921.7,57306
51111.9,60800.4,22205.2,89920.5,47625.6,164766,60111.5,50562.2
68311.8,86476.5,100006,86437.1,166612,141485,68128.6,78380.9
46088.1,94248,52568.4,66515.7,79320.4,89112.9,70680.1,57379.4
71307,126977,73600.5,92603.2,112120,81209.4,49903.7,52191.3
55388.7,71109,90566.8,107494,137121,119363,54733.8,55508.1
78948,63808.2,116278,53588.7,164500,102426,78994.5,57540.9
101235,74142,47536.6,69323.5,67851.5,132315,50721.8,55726.7
102319,62507.7,102405,29601.4,107273,49197.7,80642.5,59013.2
71525.7,58736.7,62563.9,32419,125100,53547,50294.4,49965.7
45768.6,66006,27838.9,104390,44455,163720,48413.9,64684.2
63963,68615.1,50530.7,79053.5,75586.8,155694,75302.6,64168.5
65815.2,70598.7,31225,58619.1,53859.7,128729,52668,51844.4
71856,98050.5,79064.6,26600.4,120822,86205,49082.1,48674.9
71347.5,71507.7,72230,71985.3,93747.2,124144,50596.7,55118.6
63290.7,80368.2,79313.4,51598.2,118913,78333.4,57098.4,80832.7
121884,65878.2,75596.5,68856.4,101854,141325,57721,57921.7
71882.1,75001.5,62825.2,43782.2,108056,69639,73878.8,80076.2
42868.8,55524.6,20139.7,13723.5,43862.8,42699.4,53706.2,52252.1
66622.5,67209.3,94436.6,84937.3,172095,159414,67930.5,49575
60569.1,48231.9,82146.2,84393.9,124680,100136,53213,68145.5
72068.4,73417.5,96188,85289,146609,170197,54525,60663
77835.6,68965.2,99529.6,75645.2,148872,145880,77419.8,48917
72549,68936.4,74636,63289.5,137165,92291.8,48633.1,48212.7
74754,83721.6,23339.5,82638.3,54343.4,100131,55484.7,63297.4
80719.2,66327.3,101218,97603,153157,173789,60075.1,70312.1
58843.8,68921.1,19090.3,90484.8,46952.8,162975,61534.9,64758.2
83001.6,106654,83931,54198.9,136088,82137.9,53837.3,50367.1
59092.2,66581.1,47853.5,65142.3,82529.9,147922,49481,61425.5
93792.6,66112.2,101591,36671,135506,63160.2,63167,57655.5
95056.2,65165.4,114811,66120.9,196988,124041,62792.5,48457.1
77706.9,67095.9,80431,60670.7,118115,96356.2,50634.3,69896.3
73896.3,86165.1,88751.5,59170.9,126961,120475,52301.5,49413.5
74553.3,77921.1,79777.7,87369.8,112728,187119,49210,56454.4
63879.3,68370.3,27649.9,78952,62277.6,169901,51763.8,58988.4
72460.8,70388.1,47834.1,47411.5,76197,100676,74447.4,50610.5
68993.1,47031.3,77050.5,89806.5,116563,77637.1,49515.7,57215.3
51566.4,53600.4,68685.5,19197.3,81779.3,43718.3,73231.2,49083.6
89682.3,75504.6,98824.8,70072.7,131178,134659,53291,55466
90781.2,100272,126705,105861,195341,116264,68392.1,56844.2
81618.3,74571.3,85687.9,47355.9,156917,73917.4,58554.9,72052
64226.7,96027.3,100889,59993.8,134038,115642,60038.7,70896.7
59521.5,128902,42041.9,65869.3,56060.1,126098,50210.2,65030.4
75599.1,74884.5,86020.1,44664.9,141965,80204.4,48585.7,53557.4
64060.2,73242.9,83551.5,52599,158630,101078,50118.4,56053.8
67289.4,69073.2,88025.9,63022.6,119646,144460,57469.9,54013.3
66665.7,63815.4,85004.1,22488.8,130460,52450.3,47950.7,61975.2
76110.3,83489.4,106071,45832.5,127859,74155.1,50620.9,52849.7
70326,82299.6,31541.9,89949.7,62351.2,183940,77496.5,62464.5
60521.4,44286.3,95797.4,19205.6,146580,43722.4,54975.8,48309.2
65393.1,59518.8,85307.1,17912.9,140587,59341.9,52139.2,76908.8
81277.2,66231.9,90359.7,90810.1,145658,153328,65331.4,65265.9
67451.4,72156.6,19439.2,78946.4,53046.6,146606,55883.4,61208.3
60730.2,62544.6,25553.8,90274.9,44689.9,122383,56762.9,62026.3
72041.4,69113.7,72011.7,88479.1,164235,163207,56947.4,70606.8
57431.7,86054.4,69115,82561.8,105042,159350,50474.6,78728.7
77569.2,57462.3,99859,100240,119158,185778,57614.2,81347.7
68001.3,63314.1,80312.8,54923.1,100875,117922,75782.1,49869.3
76001.4,56778.3,91681.6,97908.8,141088,84158.9,56378.2,58358
48060.9,71093.7,18580.1,75913.5,50896.2,118463,66263.8,71357.1
60034.5,104481,18528.7,40638,44574.5,114863,58628.5,49315.3
61475.4,64549.8,72323.1,79904.1,135283,93027.1,50109.2,63137.4
67770.9,49305.6,93647.1,12900.6,117234,43073.3,53542.6,48866.5
84096.9,68462.1,65395.3,84264.6,95818.3,118878,56086.6,52110.4
76101.3,64974.6,67162,75044.7,78475.2,136469,67771.8,52929.7
82329.3,83159.1,96842.7,76131.7,159151,68458.9,58875.1,49216.3
60465.6,56986.2,77703.8,30356.2,139908,44377.1,50136.6,50562.1
82583.1,86050.8,90865.7,36986.5,149387,60444.1,50982,49556.2
62634.6,65722.5,26037.5,71250,49802.3,122747,57141,57772.5
60735.6,67126.5,68830,79199.4,122791,142468,52947.9,58454.1
67552.2,71169.3,47664.5,54218.3,75150.4,79754,58941.5,62824.7
48996.9,86430.6,87923.1,60936.2,75700.8,84979,58355.6,59301
84365.1,51013.8,41334.4,20843,65797,46894.4,48362.5,53906
75185.1,73129.5,25941.6,66897.9,61570.1,146154,55381.4,55132.8
66625.2,45734.4,96068.5,28097.5,119466,65150.7,64774.4,73280.8
55115.1,68031.9,114276,65820.7,150908,127683,49978.6,48720.6
70425.9,72693.9,64237.5,58388.3,84006,78074.9,73303,78396.7
66969.9,68949.9,75210.1,71159.7,132774,133988,50929.2,48397.8
66420.9,86000.4,94889.7,79478.8,124670,147587,56282.7,51869.2
84362.4,60562.8,87098.8,24186,150633,53552.5,71148.7,67162.5
62612.1,71723.7,99013.9,64505.7,109460,111803,70963.1,47963.5
60658.2,76144.5,19403,57964.4,48032.8,105843,60807.7,73957.7
71529.3,66968.1,73091.8,67339.9,110480,113146,48905.9,55204.1
65478.6,113939,54971.7,38191.6,115123,87813.2,49956.6,50272.3
60735.6,96690.6,113888,56869.1,202883,65834.6,66680.4,49947.6
59199.3,67012.2,21080.7,36486.1,44343.8,53346.8,52775.6,48260.1
58941.9,72207.9,69247,37302,91749.7,61083.6,77547.5,54155
50866.2,64090.8,26757.5,65206.3,53032.7,137563,50568.9,70759.5
150650,68286.6,121262,17017.8,207930,60510.9,66074.2,54108.5
83361.6,53359.2,79894.4,21590.9,126247,46990.3,48858.3,71354.3
69424.2,75347.1,34844.5,59896.5,48455.4,101084,48334,69778.3
71460.9,50365.8,82721.7,38813,131281,55412.3,51598.6,49017.5
76730.4,102100,90247.1,75315.8,136167,92098.6,49497,79441.3
80580.6,102130,109073,48686.1,166541,69780.8,63279.1,49647.3
56421,66586.5,103509,61945.3,128752,130249,51032.6,48611.6
78648.3,63308.7,129914,74848.7,194578,115528,67590.1,51656.5
87487.2,60048.9,104395,29358.2,132667,61029.3,51785.1,48161.9
58878,72588.6,24045.6,18603.8,50785,64073.4,50622.1,55347.1
62577.9,87229.8,45924.2,91199.3,78198.6,134786,70442.4,70795.5
62288.1,102218,27659.6,76654.3,47507.4,115619,50903.1,66186.1
70862.4,62829.9,59699.1,55719.5,95896.1,72925,48214.4,74165.2
64154.7,93741.3,85141.7,85329.3,151007,84163.1,54927.9,58783
80452.8,76255.2,51249.3,43127.5,79559.4,67167.6,73432.7,55277.6
89928,65481.3,112245,67801.4,162074,115469,70047.4,51066.7
72967.5,81314.1,70210.3,100810,119169,145192,56486.2,63424
72106.2,62325,77567.6,48162.1,119621,88189.9,51507,48603.2
76363.2,84601.8,110543,52173.6,186790,89378.4,54526.1,75756.9
54878.4,71100,17956,80939.7,55219.1,142775,53897.2,52096.7
95214.6,69987.6,137793,72635.8,190743,164128,61192,55302.8
78719.4,79258.5,69424.9,43598.7,102147,90654.4,50370.6,71884.4
91385.1,66932.1,54736.8,50090,67302.4,86941.7,53394.1,47820.2
59712.3,68187.6,107646,70277,113728,110502,57508.8,74843.3
117321,76777.2,61711.8,61440.8,92276.5,118999,52004.2,48477.8
74764.8,71799.3,69894.8,55401.2,97988,140208,57546.4,54142.1
63585,55353.6,30008.7,38637.8,59590.7,49471.5,69526.4,48590.7
74565.9,89578.8,82189.3,62091.3,140202,58838.7,59553.7,48193.4
70922.7,65907.9,96322.8,38101.3,155157,75443.6,54951.3,51221.3
56096.1,81564.3,47285,102239,73788.1,209310,64587.4,79976.2
78361.2,69983.1,84040.8,57325,125182,122245,57641,48251.6
55066.5,68062.5,34276,80098.8,54866.1,138526,57980.7,58295.4
84382.2,120221,65293.9,65406.4,99701.9,102374,64074.6,57535.9
66338.1,71726.4,60609.6,70871.9,98752.5,130900,59418.6,48432.2
63100.8,98095.5,70224.2,68322.7,116823,131972,50047.2,54223.2
85464.9,51642.9,123218,45230.6,202782,61196.1,59107.1,50110
81261,72818.1,71674,74611,104315,230336,49004.6,55611.2
70945.2,86747.4,61754.9,65382.8,55645.9,117123,49743.9,53232.6
51204.6,77471.1,78069.4,87212.8,137161,160512,50243,53239.1
68337.9,42011.1,40953.6,19394.7,57889.3,43261,69843.2,57187.9
49258.8,81083.7,36384.6,63261.7,67252.4,117726,77159.2,50630.6
91720.8,52650,74123.1,65203.5,85102.8,106955,50172.1,49426.1
72199.8,71896.5,79581.7,54642.3,123463,103039,71504.4,50682.2
82237.5,77348.7,100293,33582.4,151668,66351.6,64117.8,47987.6
88037.1,68868.9,123361,61497.8,166718,113239,56026.2,49566.1
75335.4,75437.1,97705.9,91766.4,136711,188105,54717.5,69369
73144.8,61168.5,113042,30217.2,130678,60046.6,53714,81366
61431.3,54907.2,67466.4,23663.4,71220.8,46637.3,76732.5,53428.5
75654.9,65954.7,134528,62759.9,152874,129141,72366.4,50902.9
66603.6,66573.9,93852.8,31122.1,163777,56525.7,59746.2,54420.9
72153.9,89935.2,68143.4,161058,82542.4,158902,49394,75060.4
124926,51921,121751,43138.6,127841,73229.4,48003.3,61472.3
122121,76833.9,117527,62285.9,154195,114778,50615.8,61118.9
114538,72266.4,125253,71749,94044.6,93601.2,53074.7,78188.9
69624.9,52834.5,68518.7,86774.9,101590,102822,48498,53178.2
59382,92812.5,76580.7,80777.1,140779,177604,53693.8,67518
50398.2,101192,19336.3,59457.2,49891.3,90312.5,56441.8,52777.8
62292.6,64445.4,77257.6,78863,120296,128885,50665.9,47832.9
71533.8,73560.6,71813,67649.9,136574,151481,48369.5,65851.7
60480.9,67105.8,22908.6,59258.5,43716.9,76308.2,56563.3,80752.5
54779.4,67296.6,22818.2,79640,64540.5,144720,66124,52685
85970.7,67239.9,91013,71222.2,135364,114068,59703.5,48691.8
76783.5,78810.3,88251.1,78022.1,124171,152066,58013.6,48507.1
91625.4,65430,117869,61265.6,148020,116560,56700.4,52115.2
55846.8,70529.4,62223.3,73278,105570,146738,54991.3,53573.2
59430.6,73781.1,49834.3,79025.7,50867.1,145019,49015.7,57525.9
64038.6,89058.6,25644.1,49410.3,44425.8,63459.1,50609.1,56697.3
79723.8,86634.9,41547.1,79223,52838.1,123863,47837.1,51656.8
57146.4,76743.9,64473.8,32562.1,104228,68331,49771.7,51776.3
75766.5,72960.3,94982.9,25355,148210,54725.7,60192.8,80104.3
67333.5,51804.9,25071.4,46277.3,62323.4,72667.8,65977.9,64469.2
103784,55480.5,76159.5,12953.4,79385.7,45582.3,54062.7,60431.4
51515.1,52051.5,27802.8,16710.6,49817.6,44741.3,48088.3,52354.8
65185.2,58085.1,67747.2,57547.4,116938,115923,62587.6,52467.4
54873.9,67970.7,13606.7,55141.3,42998.3,121920,52297.5,50098.2
62467.2,64876.5,21695.1,61111.3,51890.1,124732,54449.7,52774.7
85312.8,45329.4,59430.8,63289.5,76115,109678,70973.3,62744.4
74339.1,73711.8,73795.1,76308.2,117401,109575,55361.5,77833.7
70340.4,66508.2,38674,34506.8,65909.6,60958.4,56480.1,49313
76464,82564.2,87696.5,78187.5,132934,119148,60636.8,50998.4
63992.7,79862.4,28849.4,80396.2,47905,161253,47915,57404.8
53360.1,77820.3,97648.9,33214.1,124445,62565.3,49909.6,49894.5
68832.9,62535.6,129427,80988.4,168464,144207,64758.4,50830.6
70887.6,70137,108314,67982.1,200242,98388.4,64618.8,75839
64751.4,126514,73177.9,89541,120879,104781,52885.7,53415.4
63179.1,56604.6,24637.8,25462,53458,47481,54233,75974.8
55272.6,101899,29722.4,74298.3,51842.8,87148.8,56147.1,51069.7
71348.4,76751.1,82920.4,87642.3,115848,190847,59009.2,55016.8
51516,58317.3,26679.7,65623.3,58591.3,117291,80044,49259.3
62379.9,98765.1,28902.3,70707.9,58216,97978.3,69250.2,80598.8
60644.7,52856.1,24871.3,14375.4,54130.8,46736,56976.8,61963.9
48773.7,60340.5,19245.9,60762.5,51203.4,120273,53848.7,49253.7
67518,44137.8,52462.8,23286.7,105634,52643.5,79436.1,68422.6
82982.7,76414.5,76044.1,39027,117588,88857.1,50961.6,58147.3
102118,64774.8,85226.5,79745.7,74084.2,154747,56451.4,48667.5
90207.9,79512.3,73087.6,54139.1,132660,122270,65143.4,52952.4
97878.6,77268.6,36525,28600.6,66804.8,75510.4,52053,76739
78298.2,79742.7,91367.5,83911.5,124031,94325.4,62941.5,63207
84786.3,85884.3,38311.2,63281.1,57981.1,135034,54614.2,52443.2
59829.3,72187.2,35999.6,78945,65908.2,159818,79591.7,61117.5
80929.8,70229.7,88531.9,79477.4,164006,142029,48870.5,58599.5
77265,86352.3,62648.7,69173.4,106114,102740,67159,55376.7
67163.4,81649.8,57405.6,48629.1,80033.4,81604.1,81312.4,81127.5
62753.4,73667.7,111481,74851.5,143808,141873,69475.7,57811.3
60725.7,57815.1,84259,67223.2,91851.2,96115.7,60845.9,72279.8
77175,49599.9,55358.1,21408.8,79473.2,47196.1,75655.1,53414.7
58352.4,58063.5,27944.6,14722.9,53975.1,58149.3,54359.4,52378.4
83531.7,67308.3,59241.8,52252.9,82189.3,62569.5,75478.4,64973
65132.1,67775.4,67759.7,28524.2,109827,61510.3,62814.5,76802.2
64843.2,69756.3,31484.9,69302.6,48490.1,129155,57971.5,57284.9
60291.9,44226,25890.1,27114.7,43333.2,43276.3,53294.2,56742.2
73176.3,50202,89417.3,25920.7,148412,49789.8,48931.1,61278.4
77809.5,53139.6,56012.8,20897.3,100430,43871.2,72594.7,48148.4
84726.9,76839.3,122438,74131.5,212671,132428,79564.9,49449.4
56092.5,77434.2,105636,63796.8,207774,84124.2,75162,67944.2
75124.8,76914.9,27955.7,34399.7,46064.6,88295.6,56541.5,48687
73170.9,78726.6,99768.6,68862,138063,98236.9,54703.2,78830
72240.3,69677.1,46638.7,65688.6,77053.3,129786,73507.5,50319.4
67313.7,71634.6,65706.7,74098.1,92109.7,138493,74453.3,53321.3
75670.2,64230.3,50673.8,25702.5,64808.8,63228.3,74597.5,77112.7
56871,64987.2,27099.4,30456.3,55427.6,48643.1,70140.4,48247.3
94158.9,74907,126672,86224.5,173289,148891,78417.7,56209.9
73689.3,80285.4,86196.7,79403.8,144226,148570,67502.4,50921.4
64186.2,57495.6,68083.6,28255.9,86319,61180.8,80550.2,54281
72537.3,48487.5,77778.8,23315.9,124636,49099,48973.5,59170.9
61959.6,74784.6,76873.9,80169.6,148862,143944,56681.6,53796.4
66177,65789.1,85938.1,57354.2,133642,100714,64976.9,48424.4
79004.7,66284.1,83854.5,47369.8,123753,86576.1,50997.8,78245
46469.7,65586.6,20548.4,60029.9,46979.2,106935,72002.7,48154.1
70222.5,81697.5,70703.7,65685.8,108588,105926,51972.8,68972.1
48103.2,75011.4,45967.3,21051.5,71382.1,75645.2,61008.6,51350.6
67689,76705.2,106719,55983.6,167350,107421,57846.9,64229.9
53531.1,63923.4,22928,62725.1,47025.1,111489,49394.3,48718.3
73053,56522.7,107543,39819.3,168895,76395.8,58797.8,77766.9
67147.2,81441.9,79653.9,61620.1,142658,116429,51371.4,52644.5
55111.5,83213.1,23256.1,52649,60866.7,72710.9,74451.3,58467.3
82063.8,68477.4,91666.3,52526.7,144053,65642.8,51852,52190.4
56800.8,80922.6,16186.5,52289,45090.2,88484.6,63197.4,59111.4
112318,66611.7,132446,68410.2,118238,131028,78351.7,54160.8
69028.2,77085.9,77254.8,70317.3,114330,144771,48474,60084.9
65697.3,104002,22158,85838.1,48919.7,150879,61984.2,80798.1
75070.8,83240.1,92943.7,44196.4,206525,59522.6,48037.1,55534.7
64815.3,54473.4,98114.5,21305.9,151382,48990.6,58613.1,61326.5
80732.7,68258.7,75428.4,68093.3,116379,112407,53106.3,48490.4
73314,53236.8,54682.6,32589.9,81470.7,53381.6,81212.2,65634.3
58578.3,80736.3,41476.2,45323.7,68812,84630.1,76356.4,75802.4
69493.5,73368,21781.3,69316.5,48645.8,129337,51943.2,57350
66652.2,68683.5,77311.8,27551.2,104283,47308.6,54317.7,50217.7
60274.8,103807,24748.9,49775.9,45821.3,82402,54310.3,53168.2
77800.5,64579.5,89851,54547.8,114236,110494,54003.7,48456.1
59010.3,66096.9,30809.3,109431,45098.6,123246,47841.6,71068.9
52155,68094,102392,25036.7,131903,53624.8,60005.7,76636.4
63332.1,55247.4,31504.3,30916.4,70979,61311.5,81287.2,71043.2
107179,,43651.6,,74506.8,,48767.7,,
80289,,69084.4,,57757.3,,54262.5,,
44447.4,,72616.4,,134089,,54440.8,,
49885.2,,79968.1,,127305,,48413.2,,
67531.5,,49607.7,,68322.7,,52065.9,,
58341.6,,95335.9,,163910,,54019.4,,
62145,,25931.8,,65922.1,,80903,,
83459.7,,64921.3,,72491.3,,48625.8,,
66176.1,,72613.6,,117561,,58445.7,,
88466.4,,51411.9,,55434.6,,49088.4,,
67698.9,,37902.5,,66718.6,,77801.2,,
69236.1,,79135.5,,113456,,60512.8,,
64088.1,,83059.4,,121954,,55986.8,,
69451.2,,75015.5,,129342,,49094.5,,
51023.7,,21094.6,,47047.3,,53504.6,,
85123.8,,71148.5,,116357,,53288.4,,
78755.4,,32211.9,,67396.9,,50809.8,,
59269.5,,74989.1,,117879,,52906.3,,
69368.4,,128439,,201116,,74451.7,,
50508,,21267,,44056.1,,52272.2,,
66547.8,,76233.2,,134705,,48631.3,,
65453.4,,86531.7,,123610,,57320.1,,
58911.3,,33457.3,,61018.2,,65320.7,,
74564.1,,91360.5,,148214,,48258,,
76525.2,,53495.5,,65049.2,,54623.6,,
53477.1,,17331.9,,48916.9,,52754.8,,
49451.4,,20865.3,,48241.3,,49031.2,,
130794,,117597,,121874,,51496.6,,
90146.7,,116507,,182963,,71676.8,,
59041.8,,31833.8,,51687.1,,49907.3,,
77432.4,,85719.9,,134977,,64627.3,,
68509.8,,93331.5,,172264,,66416,,
85575.6,,78507.2,,135863,,51602.3,,
62407.8,,96026.8,,135476,,71269.7,,
62613.9,,107398,,162709,,64381.3,,
84701.7,,92479.5,,148199,,52691.7,,
105811,,90320.8,,147699,,50812.8,,
58216.5,,86599.8,,117601,,51454.3,,
60013.8,,69183.1,,109079,,54233.1,,
74495.7,,90215.2,,167920,,61511.7,,
50850.9,,27740.2,,51537,,52668.8,,
51371.1,,25519,,45202.8,,67236.8,,
60820.2,,77252,,154526,,60743.6,,
77598.9,,87417.1,,119564,,51577.3,,
54988.2,,24548.8,,55474.9,,75440.3,,
63699.3,,27844.5,,42927.4,,50671.4,,
68006.7,,75019.7,,119198,,48700.4,,
67455.9,,76548.7,,109521,,54681.1,,
82664.1,,29815.5,,65331.4,,59044.3,,
82151.1,,60823.6,,115907,,73551.9,,
58224.6,,27638.8,,48693.1,,55853.1,,
61705.8,,29962.8,,59658.8,,52262.6,,
98613.9,,115883,,192718,,71623.8,,
65659.5,,104828,,131854,,52773.8,,
77652.9,,80772.9,,111399,,51230,,
65951.1,,93754.1,,93542.8,,67314.3,,
78193.8,,78485,,154643,,49149.4,,
66808.8,,61126.6,,88334.5,,53313.3,,
76023,,92455.9,,129947,,55911.1,,
70872.3,,100590,,157679,,58974.7,,
75402.9,,85069.4,,118599,,49775.9,,
81255.6,,99161.2,,155316,,77741.6,,
83120.4,,43907.3,,68969,,52960,,
89299.8,,57963,,76551.5,,80780.5,,
63810.9,,77523.1,,129203,,73818.7,,
61884,,71257,,135146,,59151.3,,
75288.6,,88796,,140494,,50871.7,,
58481.1,,43092.8,,75674.4,,70767.1,,
70390.8,,71033.2,,116885,,50891.3,,
57181.5,,92233.4,,157217,,73295.3,,
53883.9,,61032.1,,114536,,47899.7,,
64690.2,,36099.7,,55609.7,,48331.1,,
51600.6,,31291.7,,74184.3,,54560.4,,
60221.7,,30920.5,,59400.3,,76356.2,,
75086.1,,80553.3,,127706,,51785.5,,
66108.6,,88921.1,,135051,,50202.8,,
61025.4,,85733.8,,119711,,50796.7,,
45568.8,,14671.5,,44696.8,,56711.1,,
68166,,66846.5,,98772,,52242.2,,
76438.8,,85415.5,,174002,,60767.7,,
70026.3,,30393.7,,57509.9,,48905.5,,
55980,,90056.7,,128642,,53451.1,,
75467.7,,53542.8,,76912.9,,80357.8,,
64219.5,,37906.7,,58278.5,,57328.5,,
58031.1,,55502.7,,77856.7,,68970.8,,
61692.3,,72628.9,,114492,,58673.5,,
49912.2,,52158.4,,65134,,59149.7,,
57776.4,,80364.2,,167836,,67204.8,,
59587.2,,25913.8,,69757.1,,68572.2,,
67852.8,,30365.9,,49671.6,,56704.3,,
84090.6,,49214.3,,74540.1,,75970.7,,
61919.1,,79506.6,,162445,,58340,,
64083.6,,93053.5,,146776,,48865.7,,
69709.5,,89866.3,,146977,,53594.5,,
111093,,73553.2,,92981.3,,68520.9,,
103402,,49206,,64907.4,,56059.9,,
46872.9,,18527.3,,53419.1,,70420.6,,
85039.2,,81900.2,,137140,,49803.6,,
61409.7,,85126.4,,124597,,50219.9,,
62862.3,,26333.5,,49689.7,,50033.9,,
49525.2,,67206.5,,138422,,48891.6,,
53610.3,,21360.1,,50886.5,,67926.9,,
67026.6,,81574.9,,140952,,47891,,
57281.4,,74595.7,,150265,,50165.9,,
53672.4,,43272.1,,64591.9,,70094.8,,
47717.1,,24430.6,,49655,,49574.6,,
107134,,36516.7,,70760.7,,59597.3,,
70441.2,,100350,,158663,,56136.5,,
102730,,74331.6,,121396,,50558.8,,
79820.1,,91102,,141767,,54812.6,,
108384,,106203,,165773,,61551.7,,
56627.1,,21381,,56673.1,,61265.8,,
55323,,17804.5,,43652.9,,55478.9,,
59822.1,,27829.2,,51160.3,,55548.6,,
69313.5,,79562.2,,114262,,68648.5,,
78117.3,,93412.2,,139035,,58019.2,,
41095.8,,14114.1,,47601.9,,50181.4,,
62874,,43957.4,,64446,,48153,,
72572.4,,104175,,163885,,55098.2,,
89352.9,,49167.1,,61347.6,,47964.2,,
58857.3,,25482.9,,45576.7,,50672.6,,
74190.6,,77051.9,,130559,,48873.1,,
64395,,73792.3,,107144,,51805.2,,
60045.3,,57621.1,,67929.3,,54959.3,,
78278.4,,92811.7,,144097,,48534.1,,
