"FSC-A","FSC-A","SSC-A","SSC-A","FITC-A","FITC-A","Comp-PE-A","Comp-PE-A"
76333.5,90098.1,97744.8,95655.6,141774,132602,89997.3,86990.9
83304.9,72454.5,79344,89327,114772,144440,81903.9,82901.5
114376,83345.4,132253,111853,221578,149759,85626.3,86192.7
72744.3,93170.7,146491,104938,190894,177035,86047,86196
51947.1,79758,61642.3,68381,87335.1,126056,85185.4,85492.4
58352.4,66170.7,31154.1,61813.3,68925.9,86887.5,82147.1,92348
102749,76114.8,209266,97584.9,222123,153200,81611.5,83295.2
63293.4,79651.8,134420,126117,153487,141920,86095,84100.2
58693.5,67296.6,88288.6,75542.3,179329,95961.4,83526.7,97535.9
78982.2,94500,91107.5,42547.9,155187,74509.6,83291.6,83445.2
95191.2,94311.9,139602,89724.5,157052,139853,88615,86368.9
45535.5,44984.7,69572.3,72431.5,86622,108477,86661.3,93974.4
102912,65265.3,118835,73159.9,137143,143153,82788.2,82097.2
85176,90660.6,118564,141167,151425,157184,81588.5,89082.2
82624.5,79704,95841.9,138038,140504,161840,84164.4,85572.9
79401.6,77409,83647.4,112160,166949,149180,82214.8,84938.6
85442.4,69093,119666,92410,190342,171169,96246.2,81583.5
63872.1,76143.6,123222,101620,201646,148501,87498.7,85353.3
94686.3,66022.2,143688,132370,156101,196228,87870.5,84944.8
107438,71902.8,174569,78532.2,190443,147150,87235.6,84896.3
89723.7,74049.3,118005,149278,154220,214590,88608.5,85391
93022.2,64512.9,102729,102928,153293,161670,82758.5,88010.4
74174.4,54772.2,101038,85779.7,149992,142084,88127,89872.4
77100.3,57257.1,80539.4,72756.8,140546,95971.2,85692.2,88333.5
57580.2,80473.5,113805,129365,156578,182374,86822.1,85042.1
73810.8,58354.2,102247,101338,132901,98353.6,90195.8,97557.2
69210,86917.5,122128,111874,171880,149064,85852.5,86908.5
100524,87403.5,161646,128660,206252,190180,88337.6,85667.3
96567.3,67646.7,132393,60250.9,157721,111135,86870.8,82403.2
77728.5,79974,100443,123476,134546,207747,83697,90867.9
96947.1,72991.8,104578,112047,163866,210680,84260.2,81770.6
77628.6,87997.5,107815,130535,200078,172211,85000.8,82464
89895.6,70982.1,143933,100528,172823,156839,82565.1,86226.3
66430.8,80702.1,108496,113759,185487,164192,88763.3,82125.8
98188.2,74589.3,122748,121462,160577,166273,84376.6,88354.6
90168.3,96714,115458,105737,134292,178070,95666.7,91857.2
156516,70683.3,188470,54122.4,239447,100585,84879.8,82110.8
62726.4,79308.9,127595,120926,174171,173818,86387.4,88106.5
78895.8,61353,132912,108332,156062,147004,87610.2,82871.8
60413.4,48390.3,67152.3,41588.8,116774,77585.6,88693.6,84267.8
99608.4,77699.7,151375,137484,174584,180929,86728.8,88448.2
67257,62779.5,119661,110709,194792,190422,89868.3,85648.1
83642.4,52415.1,106641,48847.4,124365,87889.7,82693.6,87824
66428.1,61447.5,45669.8,48459.6,79613.6,74052.2,87864.5,97269.3
55601.1,60479.1,110912,90441.7,177725,144236,84399,86004.1
59859,92255.4,89532.7,186114,155440,192008,85844.6,82518.2
91080.9,61052.4,163001,117184,210825,174651,90948.1,85501.4
81223.2,86816.7,124178,120300,185028,219216,85528,91758.1
75064.5,67026.6,107585,115635,137326,135668,82336.2,87543
73269.9,67709.7,131199,117441,188517,162063,87890.1,83336.5
53121.6,52750.8,63347.9,80329.5,87927.2,119594,82189.4,88253.3
63549,88828.2,60833.3,76052.5,78229.2,135518,85911.2,81932.6
67743,75888,110968,121664,130365,181195,86131.5,85721.2
77389.2,50953.5,106699,80226.6,129370,120452,84262.5,81917.3
74372.4,61030.8,110764,62616.7,142601,82101.7,88868.8,88371.9
96635.7,69955.2,120877,114870,155374,193392,82626.7,83139.9
55527.3,85048.2,109433,153349,147632,177720,85276.5,85042.9
72261.9,55637.1,88978.1,124244,137577,221980,85234.1,86315.8
53685,89798.4,116108,108127,156296,103438,84016.5,91802.8
55808.1,60606,76976.8,77694,126863,148649,83557.6,88057.3
56171.7,57860.1,86214.8,122719,143214,166842,85622.6,86160.7
44753.4,51350.4,44860.9,84154.8,71594.7,160524,91856.2,87265.5
76806,88882.2,81851.5,100276,109098,145184,83232.8,95482.1
75015,72338.4,109576,105673,160487,163898,88841.3,87636
84373.2,73170.9,181470,157500,237747,179801,89347.1,88600.1
87531.3,72406.8,103502,125963,171418,164608,82962.2,86789.9
55023.3,68247,131251,112626,197190,170185,88913.4,87147.5
92388.6,61014.6,162501,61696.5,180503,123464,84139.2,98452.3
78076.8,61067.7,97786.5,64939.4,175519,92622.6,86929.3,83235.5
51232.5,51197.4,116274,46200.8,205061,74030,83673,86339.8
72519.3,60314.4,86870.8,114857,134275,204013,92993.4,87721.7
90921.6,56992.5,102906,69883.6,146128,148452,94089.2,82669.4
77354.1,76514.4,133995,105390,133671,154312,87450.1,83433.4
93195,72606.6,67916.8,97989.4,110301,174339,84997.3,85605.5
108878,99141.3,123866,169316,171611,183922,82708.4,97148.9
74437.2,54781.2,87692.3,92055.5,115230,165498,84736.2,82473
62931.6,101401,139764,121828,211170,93220.4,89080.8,94539.4
82025.1,70412.4,103726,119995,144716,177143,83718.4,89622.6
94469.4,48747.6,94337.9,92814.5,158792,158869,83835.3,86343.7
88847.1,69289.2,138083,135129,175647,198623,86509.9,94828
80962.2,76223.7,107304,108966,127086,137054,85610.7,90071.7
59233.5,64060.2,99526.8,70625.9,175706,113471,81560.7,93003.1
69738.3,77910.3,130707,130723,199012,189572,84027.2,81856.1
69283.8,80215.2,109322,158283,158671,209574,86747.9,89956.7
65711.7,67650.3,94344.9,100587,142077,165423,82568.4,87021.6
96810.3,76075.2,124213,120199,167908,187733,86668.7,88690.7
73650.6,69171.3,99739.4,99358.6,146733,136296,83801.8,88723.1
64523.7,91513.8,85754.7,96459,130123,144244,82162.8,85094.5
80935.2,76831.2,194209,121044,201781,184251,83909.7,91522.6
87354.9,65414.7,125602,71733.7,178739,98858.2,84496,81718.8
77461.2,60997.5,128992,118061,145165,211083,87756.3,86876.1
71815.5,58730.4,118018,99379.4,199300,168579,89452.6,86938.4
113801,63099.9,76985.1,38640.6,105921,68928.7,83684.2,94608.2
78931.8,83897.1,106546,104218,158589,172398,83442,82599.8
74641.5,48943.8,100294,54061.3,178561,96675.9,85114.5,89196.1
76191.3,64231.2,82999.7,87757.6,118592,148652,85108.7,86254.3
52803,50236.2,45685.1,64508.5,67194,117411,86571.8,93296.8
63794.7,70941.6,112657,51053.3,181577,80251.6,85678,88344.8
88173.9,57919.5,100426,118097,116848,164436,91095.2,87196.7
73830.6,79963.2,106531,100589,157183,150609,84550.9,81637.7
67626,93017.7,79120.2,120835,150160,161856,85917.6,86000
54103.5,51327,50279.1,62926.7,66428.1,94147.5,85753.3,92827.8
76802.4,60103.8,84788.6,124046,107083,175290,95785.8,95568.5
72911.7,76158.9,129969,80671.4,152348,136374,83866.5,82146.4
79988.4,78070.5,157041,113334,189659,143433,88586.7,90318.4
91244.7,68980.5,145532,44313.2,195035,94275.4,85092.5,94629.7
84306.6,59270.4,81134.3,108323,118614,197872,86640.5,87912
67822.2,54957.6,74185.7,44764.9,116497,63741.2,83620.6,82489.4
88806.6,62721,95536.1,149021,124850,205749,86456.8,86128.1
41530.5,69222.6,39414.8,98453.7,65708.1,149546,85856.3,85813.9
58786.2,88383.6,115868,158899,202107,255061,82860.9,85878.6
63868.5,64189.8,103504,104514,141908,154925,89990.4,84511.5
87857.1,67002.3,184548,82080.9,174498,147163,94083,81945.9
72562.5,70955.1,107295,98157.6,143098,160343,89150.7,88964.1
76036.5,74164.5,121959,80344.8,168068,127809,85965.2,82699.7
82043.1,68771.7,109871,51824.8,163934,95518,85226.2,87980.7
70883.1,103600,136398,144492,213223,235430,87510.7,83643
75145.5,68077.8,71398.7,125623,143940,195915,82323.7,85470.2
71903.7,78765.3,107462,104460,149344,179731,87031.5,85072.5
49871.7,81231.3,106316,113102,219455,172799,85314.6,85366
72315,58527,107783,49449.2,167273,82292.2,85616.9,88586.7
61679.7,93227.4,98092.3,84309.1,147624,129391,82096.7,87117.7
71748,97016.4,75442.2,90034.5,107985,148883,95071,85839.7
55614.6,77274,36780.8,42076.7,63168.6,75684.1,86881.1,83051.3
51869.7,51934.5,91122.8,70795.5,151303,119124,89149.4,90313.2
90372.6,57765.6,133768,131615,169073,191531,81552.2,89474.2
73208.7,76905.9,99649.1,92882.6,156083,143727,94846.7,90578.1
77850,69768,177147,142978,227747,190440,87312.1,89833.7
126012,123319,206141,179888,224623,203807,86448.1,87450.9
72145.8,58124.7,125727,106335,196312,196407,84225.1,87770.7
85968.9,57546.9,104215,92924.3,160831,149119,82263.3,86144.8
77318.1,69059.7,108302,103291,149653,164469,87433.5,81608.2
47641.5,68625.9,92631,136762,171183,186406,82169.2,88632.6
70769.7,66027.6,121347,40882.7,177121,63499.4,86349.1,83692.8
77813.1,63787.5,144484,108188,204156,160032,86543.8,86147.9
70594.2,78339.6,118108,88098.2,156852,143100,86885.8,89011.6
66102.3,69252.3,130534,109702,163091,183551,89167.7,85555.7
76002.3,63470.7,129170,91778.9,187248,160648,84282.5,82779.2
82692.9,92628,109428,102930,158859,134713,84196.8,91758.4
75763.8,68760.9,93775,125065,140649,146257,86867.3,84203.8
57152.7,58865.4,121337,111175,171935,161448,84706.6,89404.4
69401.7,62582.4,89375.6,121316,125122,167584,82100.4,96489.7
72234,87022.8,110622,146350,121644,188722,82439.7,86324.8
80291.7,70555.5,93091.1,118157,130315,176146,89114.8,88046.9
68508,68130.9,31491.8,73554.6,65296.6,85257,85812.3,82876.2
64216.8,113664,104812,209604,140255,189963,88420.7,84199
58088.7,65954.7,104527,105865,192985,177168,87105.8,84525.3
78381,78977.7,124814,142710,154936,176889,84449.7,88586.1
70002,53522.1,112329,36106.6,180947,65246.6,85302.9,89380.8
51432.3,73557.9,75185.1,84462,119110,133476,91925.1,84113.6
86192.1,100150,139999,99211.2,191067,131240,83799.8,81854.5
46833.3,80747.1,46916.7,109442,63974.8,150584,87908.4,87150.6
50818.5,61659,37927.5,134195,73127.9,165935,88382,85583.1
59207.4,75126.6,78801.9,93032.7,122294,149690,81907.4,85317
50733.9,70988.4,116146,78443.3,167034,128494,82184.6,90320.2
83430,66443.4,134179,143960,191018,182183,88806.8,82490.7
94051.8,65249.1,116602,111813,175586,145508,84817.9,81794.2
50844.6,50204.7,31947.8,48530.5,69507,90737.8,84178,94022
75172.5,74620.8,125196,130663,163812,202176,84648.6,86766.7
61608.6,75429.9,89392.3,116642,122565,164532,82033.8,87243.6
43994.7,82683.9,46324.5,87012.6,85906.2,118634,87721.8,86596.2
72231.3,75265.2,131936,95602.8,170724,150518,87978.6,83868.8
73372.5,76298.4,125385,121227,171106,179930,89514.5,86312.5
81061.2,51900.3,100230,114555,159946,146482,85841.8,83827.1
70829.1,58066.2,131237,109008,176214,165599,81562.5,82880.9
111052,54771.3,153571,101291,159443,182667,85282.3,82761
90029.7,67042.8,109763,122232,156190,178134,84777.8,88536.7
69627.6,42779.7,96570.2,45743.5,117159,62066.3,84889,81717.5
76993.2,75280.5,92813.1,159454,120184,200630,82403.8,83555.7
57503.7,43247.7,111983,40715.9,181515,74700,85519.3,92059.8
69330.6,69985.8,123086,98574.6,169542,135013,89173.6,82125.1
79853.4,59276.7,106569,95512.5,155194,177693,82849.1,87360.3
86247.9,79962.3,163674,116690,203161,216593,89193.7,84514.8
46432.8,64125.9,50675.2,100979,123802,116232,87695,82261
68316.3,57888.9,117087,117112,168594,201097,88053.7,92574.3
72875.7,59350.5,115652,100411,186232,178202,83250.2,87351
63766.8,62818.2,100215,131634,163449,219195,83350.6,86202.2
80346.6,84205.8,123864,134608,157491,164712,87001.8,89683
81116.1,64304.1,111256,82646.6,158926,128778,85015.5,84243.7
50398.2,83118.6,100846,97712.8,173162,127808,91814,82266.1
66507.3,84655.8,105580,119979,180635,148264,86603.8,88345.3
83394.9,49995.9,149319,105957,206592,124565,85401.8,87625.4
66699,73376.1,100683,109389,170460,171106,84841.1,81547
55503.9,92102.4,112881,111125,170471,127788,89173,86020.3
63597.6,60191.1,107070,85647.6,183152,134235,85086.9,86293.3
83515.5,80376.3,121758,111043,182262,161902,84905.8,88172.5
96050.7,84793.5,120442,97017.8,198318,177481,87737,87998.9
67633.2,43319.7,137855,38815.8,178782,62698.7,84350.1,89427.5
75146.4,64823.4,107992,76133.1,149200,93681.8,85850.6,89426.2
60912.9,58533.3,112429,99718.6,172625,173845,84813.9,82750.6
56201.4,85681.8,101843,129091,168120,155975,85839.6,88601.2
71105.4,81579.6,102105,122973,176433,181640,98274.9,84987.5
69122.7,60492.6,115502,28893.9,177517,84182.6,87661.7,96336.9
77367.6,64277.1,127388,86494.1,161373,125019,82514.6,84549
79605,71919.9,109068,100932,155506,179780,86276.9,83248.5
82207.8,71418.6,108103,127186,178069,183344,83208.7,88472.2
73286.1,77232.6,109611,117894,95411,177946,82697,90848.8
62290.8,66756.6,72925,81961.4,136356,202595,83620.9,85570.3
61378.2,69685.2,89200.5,144404,167366,214205,86416,84386.3
99785.7,67404.6,146502,119533,203496,180770,82930.5,89592.3
77258.7,53111.7,65956.9,55612.5,107824,76997.7,85054.9,84194.5
62777.7,87137.1,115569,128276,156310,205695,89930.1,89765
79254,78002.1,104132,75806.4,136466,142107,87189.2,82027.3
77372.1,67117.5,101344,152152,173511,225141,86693.8,82877
107478,83146.5,142034,101136,182122,147041,82212.3,87202.1
72325.8,67943.7,105523,92770,130155,147170,84134.6,81560.4
83258.1,67585.5,107614,74102.3,148050,128282,88664.4,88854.5
59399.1,78179.4,94696.5,102678,161164,152226,84049.7,88543.1
86837.4,61846.2,135166,101298,174530,137698,85030.8,84389.8
78012,57749.4,95290.1,43216.5,139963,84681.6,89327,86381.3
77887.8,90108.9,138287,108553,161942,161120,86914.9,91031.6
84924,75946.5,157426,119882,188945,160492,87560.6,84683.5
86963.4,99106.2,119151,100020,152928,115704,81803.9,84961.1
56030.4,62995.5,60437.2,83523.7,88045.4,146238,89397.6,81796.2
78471,62019.9,101861,96356.2,138109,135450,84068.2,84939.2
79409.7,86974.2,124409,95921.1,154611,180593,86650.8,89316.9
140615,59825.7,150440,142665,200784,183673,83227.9,84883.7
72304.2,79857.9,112906,137286,180582,184085,86597.4,88483.3
59766.3,51359.4,130567,105115,176506,165717,84430.1,87930.4
74057.4,63750.6,121764,99499,202844,162087,85938.5,82530.2
64767.6,62803.8,86294,75866.2,123859,123349,86383.4,95710
60219,55443.6,95026,102116,145272,156970,88093,86308.5
63783.9,56700,121118,58663.6,182829,100265,88270.6,84882.8
62087.4,57004.2,118977,54942.5,157348,80667.3,85961.2,85298.6
80909.1,82457.1,102019,137780,146714,186421,81947.3,82939.6
76314.6,52880.4,88658.4,37885.8,135066,69115,87491.4,86714
76798.8,64071,112204,77941.5,143334,138462,85619.4,83676.6
64524.6,88861.5,117474,113142,210675,174634,85195.8,85940.3
57807.9,80846.1,35953.7,89372.8,61275.4,121718,89583.9,82934.1
67597.2,76172.4,95876.6,158375,155466,200627,86939.7,88997.8
72166.5,72544.5,117565,82856.5,158531,120039,86523.1,96847.9
74595.6,86203.8,119847,79031.2,164883,109891,86286.3,82647.2
75633.3,54854.1,118845,125258,173295,178387,85158.7,84655.4
79641.9,81054,110452,135611,123318,215625,83067.1,85684
57954.6,57539.7,82246.3,137150,149721,171491,86625.9,88398.1
74214,49497.3,138247,26328,247843,62301.2,94036.5,82094.9
89676.9,67968,130717,127000,163435,183937,88539,89608.6
85715.1,66325.5,159222,131063,234254,197436,83795.1,85203.6
75328.2,79775.1,96475.7,146887,162264,194233,89057.7,84176.1
84240.9,82524.6,122674,65794.3,162055,182870,87787.8,82945.8
81117.9,64976.4,152593,80034.8,204376,143655,85418.2,93371
75765.6,91610.1,124629,55027.3,194222,71454.3,84428.4,81652.5
77740.2,58831.2,139015,79986.2,174580,133301,86288.4,83198.7
90917.1,60817.5,125930,97601.6,171324,127844,86469.4,84372.5
83432.7,64684.8,157073,138792,219334,148617,87947.8,86556.7
80463.6,54989.1,83575.1,73062.6,124708,109905,87782,86033.8
90963,48971.7,189262,74837.6,226353,160697,86711.9,84876.5
59049.9,63757.8,90912.9,81702.8,159275,126718,82236.1,88945.9
76845.6,73473.3,155644,115159,195374,176865,85835.9,85496.2
89003.7,78266.7,147059,107112,186380,188891,86463.1,88435.5
102399,66843.9,102588,97675.3,170803,145801,87253.7,85556.8
81453.6,65814.3,111935,96183.8,145526,161643,81819.4,83541.8
91467,65585.7,124053,78033.2,171778,149533,87625.6,83947.9
73622.7,63971.1,98506.5,105457,162385,172956,98530,88818.8
89653.5,71495.1,113881,107372,170699,173148,86590.2,86642.7
73898.1,67257.9,115300,122615,161451,185958,87651.4,85788.6
45357.3,66139.2,78029,31853.2,122915,71870,87225.9,86127.6
88098.3,72732.6,110926,124091,200513,178750,87373,84587
99101.7,61391.7,154129,95112.1,195045,154867,85834.1,85396.4
91638,75333.6,149253,89307.5,169238,172017,87063,87614.9
75882.6,60387.3,143479,107081,186392,181642,85753.4,86777.6
60233.4,75766.5,116171,98787.3,140767,127407,88890.8,86216.2
67265.1,61628.4,87664.5,122590,155857,181419,86943.3,84438.3
52855.2,78068.7,44247.9,83436.1,65762.3,118352,85501.3,85051.3
60669,74149.2,111057,102731,213728,147733,82460.1,82903
57554.1,53032.5,84698.3,61289.3,140038,87468.5,85021.7,82188.6
69411.6,61490.7,107714,72676.1,177428,129561,82126.7,87614.5
87322.5,80502.3,129922,107182,155559,165000,82683.3,84727.9
66636.9,70073.1,83514,129501,156280,189425,85119.7,87548.9
67345.2,53004.6,117583,68386.6,171368,93141.1,87111.7,83131
62715.6,51948.9,79321.7,123574,114900,156254,86467.7,87325.9
64868.4,74693.7,136374,112415,167284,180697,87241.2,83693.5
83360.7,83410.2,135582,138676,188970,211736,89204.8,86855.1
73580.4,,76607.1,,116255,,88089.2,,
75350.7,,74618,,115895,,84240.3,,
60520.5,,40645,,80018.1,,88888.9,,
53381.7,,84617.6,,159498,,89072.1,,
72026.1,,125720,,174680,,88149,,
93027.6,,156599,,191598,,87878.5,,
71947.8,,112750,,131106,,86227.4,,
60718.5,,35050.2,,78621.2,,97105.6,,
67254.3,,78626.7,,103373,,83398.8,,
59367.6,,87507.4,,147836,,97455.5,,
77796,,160640,,174495,,83206.5,,
84944.7,,97509.9,,129458,,82915.8,,
98822.7,,217777,,202253,,81727.3,,
68236.2,,138591,,185555,,92070,,
84024,,100069,,121508,,93034.4,,
67183.2,,124247,,160503,,87542,,
60387.3,,100307,,172813,,88583,,
60625.8,,66758.9,,92489.2,,94113.5,,
53693.1,,110000,,182960,,85065.5,,
66054.6,,102943,,157009,,85352.6,,
90185.4,,168105,,184452,,91393.4,,
54854.1,,134043,,175916,,87391.2,,
70561.8,,105680,,142101,,83034,,
62919,,106327,,169491,,86717.9,,
59004,,101980,,146350,,88640.5,,
84380.4,,128118,,176891,,83654.2,,
79047,,60078.6,,85444.7,,85194.2,,
61039.8,,89203.2,,157356,,86833.6,,
63965.7,,108613,,181627,,82710.1,,
59004.9,,139068,,190551,,84262.6,,
65510.1,,67492.8,,133933,,83194.3,,
69849.9,,74199.6,,126123,,86358.4,,
52668.9,,59315.5,,114384,,96660.5,,
60933.6,,71322.3,,118684,,93187.3,,
64300.5,,96959.4,,155492,,83510.3,,
63383.4,,90409.8,,144217,,85190.8,,
73268.1,,105290,,133715,,85290,,
67681.8,,101918,,187936,,84580.4,,
80416.8,,133885,,153469,,84284.9,,
71769.6,,90179,,174184,,85305.2,,
71660.7,,90092.9,,187346,,87772.4,,
79845.3,,90954.6,,133632,,83345,,
81796.5,,97528,,134852,,87126.6,,
70752.6,,109279,,181006,,85214.5,,
62129.7,,91927.6,,160688,,88158.8,,
47888.1,,80246.1,,145302,,81631.8,,
61745.4,,106068,,144357,,86652.7,,
96209.1,,109118,,153684,,88498.6,,
88811.1,,145867,,188445,,85446.8,,
58523.4,,87315.6,,155534,,88172.6,,
64314,,64454.3,,91520.4,,90698.6,,
56951.1,,86074.4,,155387,,83913,,
74893.5,,90010.8,,151534,,84999.8,,
62725.5,,98797,,166769,,89798.7,,
86286.6,,160330,,196824,,88790.1,,
80040.6,,112031,,163414,,88978.1,,
62166.6,,113088,,180094,,87157.2,,
85345.2,,106714,,143235,,82766.3,,
52354.8,,43518.1,,74358,,86280.5,,
69237,,110088,,156443,,85197.2,,
102712,,143317,,147624,,82117.5,,
90133.2,,129378,,183032,,88000.9,,
100418,,142187,,226216,,81933.3,,
59632.2,,105711,,166169,,84841.6,,
91847.7,,103801,,164537,,83502.8,,
93461.4,,74149.5,,136430,,84204.3,,
95307.3,,153532,,218650,,86388.9,,
93363.3,,110367,,135831,,88424,,
84994.2,,134573,,162175,,82912.5,,
83483.1,,200056,,191878,,82829.3,,
65768.4,,126277,,157469,,94662.1,,
96987.6,,130590,,154069,,87001.3,,
67022.1,,89477.1,,181945,,84765.6,,
91079.1,,140674,,187992,,84244.8,,
81092.7,,139179,,197728,,88276.8,,
76453.2,,138776,,183843,,90615.2,,
65727.9,,113765,,195328,,87005,,
67518.9,,88515.2,,160455,,83222.1,,
94832.1,,128839,,167330,,86347.3,,
87299.1,,99529.6,,145647,,83631.5,,
100688,,121443,,170478,,82525.6,,
60543,,96609.2,,160970,,82479.9,,
63171.9,,89225.5,,145739,,82308.1,,
100251,,151873,,185052,,87611.5,,
90944.1,,123261,,156054,,86754.5,,
79066.8,,85270.9,,168945,,84155.2,,
72520.2,,103462,,169886,,83068.3,,
91166.4,,127663,,172072,,84440.9,,
86783.4,,136691,,194141,,87679.1,,
71190.9,,104004,,169630,,88439.8,,
93150.9,,139235,,168204,,84575.1,,
51845.4,,109713,,174738,,86894.3,,
87903,,83010.8,,156588,,85531.6,,
83347.2,,123828,,171896,,87554.3,,
64818.9,,44795.5,,72211.9,,83033.1,,
121004,,185597,,207039,,90309.9,,
79621.2,,93787.5,,158124,,85856.1,,
81351.9,,131587,,171065,,87040.1,,
103518,,114935,,156628,,83203.6,,
60871.5,,77592.6,,161658,,87437,,
76489.2,,130962,,165165,,84381.2,,
75424.5,,95953.1,,143018,,87810.1,,
62441.1,,92522.6,,154277,,84825.5,,
46591.2,,62729.3,,95109.4,,88741.4,,
43538.4,,72369,,142051,,82759.1,,
59559.3,,53634.5,,82432.6,,93833.5,,
53177.4,,97040.1,,169802,,87860.6,,
66516.3,,81932.2,,145818,,89800.8,,
88698.6,,90698.9,,140981,,83968,,
109028,,188613,,234810,,92311.9,,
63010.8,,113974,,183045,,82185.7,,
82003.5,,116048,,149913,,82228.6,,
87021.9,,134988,,149551,,87538.5,,
71921.7,,100632,,139260,,84204,,
87807.6,,136451,,192281,,88032.1,,
74929.5,,117490,,160040,,85335.6,,
59494.5,,50843.4,,77259,,83980.9,,
103435,,117178,,152961,,85112.9,,
96440.4,,143145,,183066,,88570.1,,
76011.3,,106449,,124637,,84625.5,,
57497.4,,108916,,150452,,85286.5,,
85784.4,,138736,,180251,,88031.5,,
85536,,88805.7,,133892,,85830.9,,
80644.5,,151659,,191138,,85546.8,,
65203.2,,115724,,180975,,87252.7,,
91186.2,,123656,,150367,,86367.6,,
64385.1,,110657,,159471,,81629,,
84263.4,,104642,,140672,,97285.3,,
87651.9,,110456,,143804,,87458.4,,
87628.5,,94393.5,,142122,,88870.7,,
81467.1,,113944,,166195,,86348.1,,
104170,,181109,,183269,,83807.9,,
81028.8,,63826,,81459.6,,90338.3,,
68350.5,,113851,,182429,,87143.1,,
108619,,139534,,195926,,87574,,
88834.5,,161988,,199173,,87607.6,,
54103.5,,86178.6,,140665,,81671.8,,
63510.3,,30849.7,,69812.8,,95860,,
63257.4,,87825.8,,135285,,84654.8,,
101843,,105222,,129399,,85125.3,,
76846.5,,77717.7,,118000,,82073.5,,
117987,,140674,,205635,,88690,,
62856,,44096.4,,76718.3,,85212.6,,
84883.5,,101993,,150992,,86611.1,,
79337.7,,97133.2,,154418,,86202.7,,
91041.3,,108965,,144825,,82306.3,,
66284.1,,80570,,105415,,88370.7,,
85472.1,,119120,,138269,,84604.6,,
83394.9,,113188,,151509,,81691.8,,
76092.3,,88034.3,,135203,,81868.8,,
93094.2,,112186,,155345,,86591.4,,
81583.2,,98136.8,,124312,,83715.7,,
74522.7,,70242.3,,115562,,90203.3,,
69884.1,,144221,,199263,,90120.6,,
93132.9,,134370,,190983,,87245.2,,
92097.9,,109709,,187594,,83585.5,,
66191.4,,87529.7,,145444,,89666.9,,
69705.9,,95860,,131633,,87483.3,,
91557,,124174,,171641,,83437.6,,
126022,,167598,,209591,,83057.1,,
83559.6,,132076,,164334,,82952.4,,
63583.2,,133033,,161457,,85806.5,,
59399.1,,89908,,135614,,87572.8,,
103565,,172562,,177246,,88244.2,,
60742.8,,150187,,240512,,82100.5,,
55779.3,,90226.3,,164024,,83321.9,,
77104.8,,100112,,135282,,83239.9,,
68799.6,,77125.5,,122833,,92133.5,,
90783,,166073,,201571,,82229.7,,
82966.5,,146008,,211217,,90046.7,,
83765.7,,91984.6,,128941,,86282.4,,
58397.4,,113880,,159840,,87217.5,,
81085.5,,102070,,141327,,82567.7,,
71616.6,,117615,,170064,,88977.3,,
73296,,97733.7,,146441,,88833.7,,
60561,,104001,,172733,,87940.3,,
97611.3,,162549,,191024,,90416.1,,
74760.3,,114400,,163671,,84714.3,,
66834,,96788.5,,177397,,87032.5,,
89221.5,,98997.2,,137201,,87004.6,,
84006,,112849,,175275,,88758.4,,
83721.6,,125133,,157399,,86312.5,,
93032.1,,117498,,155121,,85216.6,,
67024.8,,76947.6,,147899,,91510.8,,
62840.7,,114540,,196504,,85633.8,,
100503,,117299,,154821,,87545.4,,
88353,,91859.5,,137818,,81909.5,,
81954,,122912,,185373,,88648,,
79022.7,,47821.6,,84111.7,,85111.4,,
63855,,123030,,197020,,87668.8,,
78439.5,,108979,,195989,,81648.7,,
78120,,110743,,155498,,84063.2,,
80041.5,,112338,,157804,,87474.5,,
61896.6,,71721.2,,96214.4,,88027.9,,
51312.6,,119951,,197437,,85058.9,,
69962.4,,82767.5,,135407,,82214.7,,
63607.5,,112554,,161938,,88756.9,,
80872.2,,103538,,153530,,86285.5,,
70493.4,,127913,,164573,,86230.5,,
80247.6,,118161,,169701,,83941.6,,
79519.5,,95144.1,,177648,,89175.7,,
53020.8,,79634.5,,97701.7,,85368.4,,
67127.4,,117477,,181933,,87932.8,,
69714,,127641,,144509,,88307.1,,
85639.5,,144627,,207135,,83996.1,,
65439,,110342,,163304,,86559.4,,
88953.3,,133989,,248005,,82203.1,,
90021.6,,115876,,170058,,82434.9,,
79404.3,,113163,,145764,,83307.3,,
67956.3,,89873.2,,129182,,83602.8,,
74620.8,,151061,,212751,,86321,,
82018.8,,119793,,159086,,94282.4,,
119212,,108036,,133978,,83601.6,,
50637.6,,117426,,178771,,87964.8,,
79305.3,,123878,,143948,,87702.4,,
62864.1,,59404.4,,87843.8,,84784.1,,
55746.9,,92504.5,,162188,,82694.9,,
63525.6,,94860.5,,130917,,90008.8,,
75547.8,,117112,,151903,,87271.8,,
75954.6,,116021,,159487,,83005.5,,
73017.9,,114580,,173179,,83934.4,,
57474,,89659.2,,212252,,86436.7,,
67113.9,,105345,,204188,,83688.2,,
112752,,104988,,182294,,92808.8,,
91665,,128139,,192607,,90511.1,,
56795.4,,106575,,133562,,81674.4,,
85689,,106905,,191331,,84349.1,,
70222.5,,82996.9,,139626,,82764.9,,
64079.1,,126297,,158542,,91810,,
73337.4,,86077.1,,88337.3,,86949.7,,
79057.8,,99244.6,,155534,,85092.3,,
60795.9,,94071,,106778,,82956.9,,
58467.6,,108546,,168696,,86304.3,,
78633,,101666,,99929.9,,94426.4,,
60923.7,,94185,,136812,,89305.5,,
82748.7,,131847,,159979,,86851.7,,
87980.4,,178608,,231340,,93155.3,,
54402.3,,85004.1,,130153,,94021.9,,
58566.6,,76209.5,,88335.9,,87607.3,,
76372.2,,115291,,146329,,87571.5,,
55593.9,,86566.4,,142279,,84914.7,,
63400.5,,103088,,164780,,87682.7,,
83901.6,,131384,,177293,,85382.1,,
88260.3,,152251,,221348,,86039.5,,
101842,,141559,,168353,,81691.3,,
67131.9,,122939,,150176,,88326.9,,
69131.7,,133286,,183160,,87435.5,,
88824.6,,121087,,200370,,83920.8,,
63927.9,,72698.4,,110555,,85836.3,,
76832.1,,150291,,206077,,86819.5,,
73680.3,,76343,,137186,,84623.1,,
57706.2,,110345,,187119,,83132.7,,
75035.7,,128301,,157637,,87736.4,,
58909.5,,52647.6,,96945.5,,86594,,
66596.4,,96488.2,,137183,,89047.6,,
72474.3,,120402,,167345,,87589,,
70309.8,,85836.7,,126900,,85873.8,,
58908.6,,93990.4,,174502,,86347.4,,
60030.9,,94362.9,,168771,,84923.6,,
68521.5,,129444,,159986,,85070.7,,
71044.2,,101388,,137941,,87468.9,,
87355.8,,141741,,193459,,85218,,
76959.9,,85129.2,,143337,,87729.2,,
60759.9,,121714,,182789,,88327.3,,
60210,,121229,,201528,,86164.7,,
47948.4,,94325.4,,157473,,82183.8,,
121218,,151260,,221307,,85658.4,,
