"FSC-A", "FSC-H", "FSC-W", "SSC-A", "SSC-H", "SSC-W", "FITC-A", "FITC-H", "FITC-W", "PE-A", "PE-H", "PE-W", "Time", "Event #", "Comp-FITC-A", "Comp-PE-A"
110478,65948,109788,85033.2,44576,125016,86482.2,46680,121416,92729,67206,90424.8,0.067,29,86482.2,89442.7
119292,71179,109835,108013,61900,114357,96318.6,56514,111695,97377,59714,106871,0.144,62,96318.6,93716.9
107619,69866,100950,104773,60683,113152,102026,60889,109813,94138.8,60530,101924,0.404,188,102026,90261.8
129684,68044,124904,120765,53434,148117,120001,57665,136381,98991.2,64675,100309,0.467,224,120001,94431.2
108683,61139,116499,98315,48341,133286,87672.2,40572,141617,95660.6,75193,83375,0.729,361,87672.2,92329.1
163805,66366,161757,194365,74029,172066,143301,48261,194596,97329.4,57850,110261,0.799,390,143301,91884
104048,65698,103792,93525.6,57764,106109,92787.8,53025,114681,99765.4,69558,93996.7,0.835,404,92787.8,96239.5
119317,67558,115745,122030,75671,105686,116320,70591,107991,93521.4,62480,98095.7,0.992,487,116320,89101.2
78754.5,57096,90396.1,46683,32689,93591.6,65128,40909,104335,92524.6,67123,90337,1.004,491,65128,90049.7
110284,67683,106786,101305,62752,105800,95163.6,57102,109219,98967.4,64843,100025,1.144,554,95163.6,95351.2
114886,65916,114224,113141,63991,115873,110964,56306,129154,99430.8,68821,94684.7,1.426,695,110964,95214.2
92833.2,51519,118091,138729,84771,107250,121437,69573,114391,96738.6,67407,94053.5,1.855,884,121437,92124
106990,67046,104581,81708.2,52941,101147,97361.6,54724,116598,101126,72295,91671.7,1.967,934,97361.6,97426.5
103506,66973,101285,104852,58312,117841,96014.8,56092,112180,100430,81359,80898.3,2.034,967,96014.8,96781.8
100004,64704,101290,134618,76787,114894,120718,62165,127264,101525,65417,101710,2.092,993,120718,96937.9
107434,67015,105063,116564,59463,128469,114352,55595,134799,98058.8,70581,91049.7,2.092,995,114352,93713.4
126464,71965,115166,123238,71676,112681,114849,61384,122617,102189,62710,106794,2.188,1023,114849,97824.5
111542,66866,109324,89276.6,53301,109770,88114.6,53642,107652,98096.6,70549,91126.1,2.435,1137,88114.6,94748.2
99176.4,62024,104792,98781.2,62657,103320,95146.8,60508,103053,96681.2,70345,90071.8,2.569,1181,95146.8,93065.6
103937,68057,100087,92254.4,58600,103174,91926.8,56317,106975,101682,70789,94136.5,2.607,1196,91926.8,98188.8
125962,67336,122595,191090,81680,153321,140050,66202,138641,106618,65396,106847,2.63,1200,140050,101296
110998,69309,104955,102329,61441,109149,93854.6,53204,115609,95848.2,63044,99636.9,2.633,1207,93854.6,92281.7
104222,63984,106750,96614,55400,114291,88765.6,51622,112691,95881.8,62140,101122,2.664,1220,88765.6,92508.7
139100,71159,128108,200539,107737,121987,131422,62755,137246,103363,62222,108869,2.758,1270,131422,98369.4
116678,70972,107741,122844,64923,124004,98767.2,54176,119477,95957.4,59041,106514,2.906,1343,98767.2,92204.2
109590,65377,109857,107712,63697,110822,101479,63423,104860,94358.6,70993,87105.6,2.934,1351,101479,90502.4
108461,65170,109070,104985,61941,111078,97862.8,62664,102348,97181,70682,90105.7,3.247,1488,97862.8,93462.2
120628,67530,117066,103989,55168,123532,110562,61130,118531,94872.4,71063,87493.6,3.309,1507,110562,90671
112790,68071,108589,111931,67526,108633,110244,65493,110317,102956,69458,97142.5,3.527,1608,110244,98766.7
98150.4,63632,101087,85393,53623,104364,86431.8,48955,115706,95890.2,57086,110084,3.741,1700,86431.8,92605.8
110441,61261,118148,106046,65851,105539,108252,64036,110788,99724.8,66007,99013.2,3.902,1766,108252,95611.2
102036,58966,113405,82467,44886,120406,88571,46951,123631,101298,72458,91621.2,3.916,1774,88571,97932.7
116844,65498,116912,114405,62667,119643,100183,59071,111147,102620,72421,92864,4.102,1873,100183,98813.1
154845,68436,148283,137332,53687,167641,140035,56809,161547,96503.4,71631,88292,4.715,2165,140035,91182.1
129541,63388,133930,147746,78099,123980,141750,69971,132765,99978.2,63679,102894,4.88,2239,141750,94591.7
108423,62987,112811,106936,61313,114302,98399,58295,110621,101101,66686,99357.5,4.935,2267,98399,97361.8
105289,66875,103181,118713,72991,106588,116969,73628,104113,105979,74152,93664.5,4.971,2285,116969,101534
89970.3,44869,131411,161937,97798,108516,139278,80339,113615,98578.2,71254,90667.5,5.161,2366,139278,93285.6
123902,69212,117321,167513,89654,122450,131043,77591,110683,99856.4,69728,93853.1,5.163,2368,131043,94876.8
116959,66221,115749,123428,72639,111359,106459,55913,124781,103776,64732,105065,5.182,2376,106459,99731
113868,70578,105733,105783,65222,106292,95177.6,56872,109677,102872,67679,99614.6,5.382,2476,95177.6,99255.2
132291,72569,119470,121083,62781,126397,118091,56311,137437,97883.8,68094,94206.7,5.852,2725,118091,93396.3
102818,64399,104633,96602.8,58426,108359,92022,56634,106486,96817,67099,94561.8,5.944,2769,92022,93320.2
101357,62784,105800,83332.2,51624,105789,81446.4,47766,111746,94343.2,64788,95432.4,6.177,2872,81446.4,91248.2
63161.1,41075,100775,109096,70800,100985,86270.8,58226,97101.7,95827.2,65953,95221.3,6.381,2965,86270.8,92548.9
107337,67138,104776,127421,74655,111857,95019.4,58183,107028,94813.6,63248,98243.5,6.416,2988,95019.4,91202.9
121905,69414,115094,103502,60136,112796,118040,61766,125244,101249,68014,97560.5,6.417,2991,118040,96763.9
130527,70243,121780,126069,61897,133480,103391,54391,124577,95057.2,57450,108436,7.032,3286,103391,91128.3
103211,67149,100732,104378,64502,106052,91768.6,56323,106780,96548.2,71150,88930.2,7.264,3401,91768.6,93061
150848,70021,141186,124419,69348,117580,129072,60106,140732,94544.8,61023,101537,7.27,3409,129072,89640.1
117634,67539,114145,122557,72938,110120,117188,74515,103067,103480,70993,95525.5,7.398,3466,117188,99026.4
91389.6,59991,99836.8,84861,55803,99662.2,109003,73580,97086.1,95370.8,68519,91218.8,7.625,3562,109003,91228.7
123785,72764,111489,132471,70690,122812,113072,63515,116670,98879.2,60485,107136,7.871,3670,113072,94582.4
127552,74313,112487,125468,68261,120459,115062,60037,125601,94262,62210,99301.6,7.872,3671,115062,89889.6
105520,61680,112116,106753,65541,106745,96769.4,54533,116294,96146.4,70042,89961,8.148,3810,96769.4,92469.2
112509,68937,106958,101513,57439,115823,104131,55893,122096,94614.8,68128,91015.1,8.176,3825,104131,90657.8
85350.6,51177,109298,108683,59675,119358,85510.6,48223,116211,109932,74038,97308.4,8.544,3995,85510.6,106683
125616,63196,130267,124919,70175,116661,147039,68604,140464,106952,64574,108545,8.729,4068,147039,101364
114309,66884,112005,119290,66099,118274,106648,58256,119975,102925,70073,96261.1,8.776,4089,106648,98872.6
98624.7,60161,107436,133258,77080,113300,116469,68835,110887,95748.8,73699,85143.5,8.817,4108,116469,91323
133400,70633,123773,86213.4,50441,112014,109848,53555,134423,96327,64644,97656.2,8.821,4113,109848,92152.8
105816,67250,103119,88179,52682,109694,92066.8,59996,100568,99304.8,68566,94916.4,9.243,4303,92066.8,95806.3
106288,61704,112889,108770,63918,111524,98316.4,57318,112413,96705,66910,94719.2,9.269,4316,98316.4,92969
98147.7,61027,105399,84114.8,55279,99722.3,96257,52763,119559,98823.2,65377,99063.5,9.893,4623,96257,95165.4
51489.9,34438,97986,70401.8,39828,115844,70935.2,45461,102259,104084,69147,98648.9,10.043,4685,70935.2,101389
111548,66224,110389,114870,68454,109973,112574,64718,113997,105609,68043,101718,10.207,4771,112574,101331
121792,69041,115609,160264,92014,114146,124212,75771,107434,101381,69057,96211.9,10.282,4798,124212,96660.9
133329,71844,121622,145025,70129,135526,129853,64854,131218,98973,68454,94754.1,10.33,4826,129853,94038.6
136125,68755,129752,116232,69640,109382,119403,54333,144023,98859.6,63253,102428,10.345,4834,119403,94322.3
95548.5,61916,101135,104727,56555,121358,94193.4,52348,117923,92741.6,66018,92064.5,10.582,4921,94193.4,89162.2
48672,35754,89214.3,90802.6,60503,98356.1,98036.4,69372,92615.4,94493,69866,88636.7,10.829,5030,98036.4,90767.6
129602,68419,124141,143508,80917,116230,110475,56652,127800,101462,63292,105060,11.166,5178,110475,97264.1
125681,60891,135269,143349,77626,121023,131961,66737,129586,94222.8,57546,107305,11.191,5194,131961,89208.3
117776,71083,108585,120659,70141,112737,95916.8,61291,102560,96156.2,69623,90511.6,11.401,5285,95916.8,92511.4
153440,72944,137857,148116,80771,120178,149577,74184,132140,101165,84447,78510.5,12.225,5682,149577,95481.5
96023.7,55905,112566,57199.8,45606,82196.3,79773.4,43892,119111,92276.8,73487,82292.8,12.345,5723,79773.4,89245.4
98271.9,64328,100117,73913,46413,104367,76482,43442,115380,92535.8,63163,96012.3,12.646,5836,76482,89629.5
107674,68624,102829,108885,66540,107242,98513.8,63104,102310,100650,68561,96209.4,12.705,5862,98513.8,96906.7
112820,73716,100300,107965,67381,105009,94071.6,58263,105815,98539,65364,98798.3,13.07,6050,94071.6,94964.3
106116,70811,98211.2,102637,67531,99604.7,95271.4,62292,100233,93303,61621,99230.9,13.386,6179,95271.4,89682.7
101738,66236,100663,98961.8,59907,108260,91852.6,57025,105562,97022.8,66736,95278.2,14.226,6535,91852.6,93532.4
132397,71919,120647,89129.6,49598,117771,111777,51826,141347,100209,71955,91269.7,14.388,6611,111777,95961.7
123159,64464,125207,99551.2,58293,111921,109073,56797,125855,95380.6,69010,90579.1,14.399,6616,109073,91235.8
114688,67181,111880,113138,67131,110450,116918,62649,122306,103341,62291,108724,14.721,6757,116918,98898.1
111472,66936,109141,106869,61433,114007,100848,58501,112975,99356.6,65091,100036,14.783,6778,100848,95524.4
95639.4,61824,101382,81638.2,50028,106945,92310.4,52928,114300,93594.2,63774,96180.1,14.819,6790,92310.4,90086.4
91127.7,51803,115286,48185.2,35491,88976.5,75587.4,40419,122559,94708.6,72775,85287.9,15.098,6923,75587.4,91836.3
117884,71547,107980,101763,61031,109275,94897.6,57818,107565,100674,68832,95853.3,15.256,6998,94897.6,97067.9
104756,61812,111067,125132,63189,129780,109061,59822,119479,95699.8,64401,97386.4,15.264,7005,109061,91555.5
104144,62567,109086,111051,56753,128237,100744,56583,116684,100258,62226,105591,15.283,7015,100744,96429.9
128327,67121,125297,88307.8,51969,111361,118038,60432,128008,95438,71967,86909.6,15.406,7079,118038,90952.5
116042,65874,115446,136606,79871,112089,118107,66609,116204,102649,67651,99440.2,15.569,7154,118107,98161.3
104138,64921,105125,80892,45661,116102,85348.2,47679,117313,100402,61196,107523,15.92,7319,85348.2,97159.2
112846,64938,113885,128040,78925,106319,111796,67626,108341,104350,79302,86236.2,16.148,7423,111796,100102
99675.9,59848,109149,96581.8,58688,107851,88305,54640,105914,99530.2,71878,90748.4,16.152,7428,88305,96174.6
117020,70336,109034,89853.4,52085,113058,99509.2,56854,114705,97860,67136,95527.8,16.403,7544,99509.2,94078.6
96804,63996,99133.5,82789,53109,102161,89777.8,58903,99887.6,99789.2,69435,94185.7,16.906,7747,89777.8,96377.6
99874.8,65910,99308.1,97666.8,63392,100970,84926.8,56587,98357.6,99593.2,72897,89536.5,16.931,7758,84926.8,96366
106938,66786,104936,107502,61817,113969,97120.8,58086,109577,95365.2,62792,99532.6,17.434,8003,97120.8,91674.6
103542,61271,110750,107514,67218,104824,104978,54528,126170,104420,70442,97147.9,17.519,8046,104978,100431
110119,71246,101293,91588,54252,110638,86895.2,52302,108882,95485.6,74084,84468.2,17.576,8078,86895.2,92183.6
111642,71557,102248,104031,63668,107083,101409,54881,121097,95662,64596,97054.1,17.786,8165,101409,91808.5
132253,69938,123929,139632,70940,128995,126028,62750,131623,104509,65625,104367,17.817,8178,126028,99719.5
105312,66818,103291,98026.6,63101,101809,96887,57369,110680,102859,69471,97033.2,18.326,8414,96887,99177.7
96884.1,62497,101595,86151.8,52997,106535,87235.4,52150,109627,96581.8,66358,95385.4,18.533,8511,87235.4,93266.9
109532,65250,110012,119210,70816,110322,99174.6,56915,114197,96027.4,58701,107209,18.558,8517,99174.6,92258.8
101219,63673,104181,109239,69365,103209,94117.8,58823,104859,98840,66351,97625.9,18.624,8548,94117.8,95263.5
114408,69865,107319,125251,70871,115822,108248,64668,109701,99932,75819,86378.7,19.064,8755,108248,95818.6
106424,67727,102981,87264.8,53609,106680,85272.6,54744,102083,97846,70075,91508.2,19.172,8799,85272.6,94605.6
120080,68647,114638,112431,66085,111497,126570,63526,130575,102831,65518,102860,19.214,8810,126570,98021.8
117481,68884,111771,150251,92570,106372,117824,66075,116863,100817,63875,103438,19.272,8837,117824,96339.5
105451,64001,107980,97203.4,58090,109663,99771,61824,105761,94038,65973,93415.1,19.428,8909,99771,90246.7
107094,63702,110177,122545,74844,107304,120739,71291,110992,102073,65488,102147,19.493,8951,120739,97484.5
117650,68225,113013,124852,67309,121563,112809,66281,111541,104100,69298,98448.5,19.538,8974,112809,99813
98412.3,63117,102184,93417.8,58381,104867,85633.8,54369,103222,98590.8,69738,92650.3,19.541,8976,85633.8,95336.7
104892,63305,108589,89763.8,51030,115280,89721.8,53265,110392,98096.6,61998,103695,19.551,8981,89721.8,94687.2
76832.1,51998,96835.8,126098,79834,103514,111000,77865,93424.8,94981.6,74957,83043.8,19.587,9001,111000,90763.6
121756,68478,116525,105895,55688,124621,97169.8,57437,110871,97785.8,62125,103155,19.628,9018,97169.8,94093.3
111097,60032,121283,115805,74440,101953,112963,64543,114701,97482,64963,98341.8,19.781,9093,112963,93189.4
115492,68818,109985,130129,70033,121773,114507,66490,112864,97991.6,66678,96313.3,19.886,9129,114507,93640.3
115473,65708,115170,122868,73879,108993,115661,68622,110460,96621,68756,92096,20.241,9259,115661,92225.9
126446,67498,122770,109921,59994,120075,110506,56170,128932,97504.4,63289,100966,20.67,9464,110506,93305.2
98225.1,61097,105362,88163.6,53942,107113,81090.8,50625,104975,98406,67846,95055.5,21.075,9630,81090.8,95324.5
106689,63829,109542,107020,64686,108426,112934,69576,106376,100114,74181,88446.8,21.111,9655,112934,95822.5
105556,66759,103622,111003,64076,113532,98131.6,63793,100813,94053.4,62716,98282.5,21.357,9767,98131.6,90324.4
107334,64707,108709,128089,72691,115481,113140,65835,112626,102602,68373,98344.5,21.363,9770,113140,98302.5
121829,73635,108430,109169,62218,114991,102439,55935,120023,101045,65391,101269,21.869,10014,102439,97152.3
106993,68739,102007,114227,65224,114774,103628,65828,103168,96038.6,67499,93245.6,21.876,10018,103628,92100.7
97343.1,49544,128764,37084.6,29817,81509.8,85596,36905,152002,96681.2,64458,98298.1,22.187,10147,85596,93428.5
108954,66696,107059,110543,63256,114527,101522,57011,116703,95636.8,69596,90057.7,22.33,10203,101522,91778.9
127354,66413,125672,148670,63980,152286,128451,59080,142488,94432.8,58577,105652,22.578,10301,128451,89551.6
116468,66847,114184,137161,82294,109230,107694,63453,111229,100026,59190,110750,22.845,10423,107694,95933.4
116725,62531,122334,120488,68348,115531,112893,57660,128314,96338.2,62398,101183,23.418,10668,112893,92048.3
100243,60985,107724,111003,63107,115276,105518,63613,108708,100941,68503,96569.4,23.459,10691,105518,96931.7
113624,68479,108741,95151,55914,111525,96734.4,55892,113426,94810.8,64292,96645.3,23.55,10727,96734.4,91134.9
107072,50099,140064,111451,58012,125906,119412,70289,111337,93426.2,76273,80274.5,23.72,10814,119412,88888.6
112029,69909,105022,93944.2,59844,102880,87935.4,51041,112908,103089,66127,102168,23.774,10841,87935.4,99747.5
78251.4,52388,97890.4,88394.6,58261,99432.4,100908,60654,109030,100432,71944,91486.4,24.093,10973,100908,96597.3
123874,70051,115890,92535.8,57861,104810,101573,60661,109736,100370,69386,94801,24.139,10992,101573,96510.4
115736,71880,105521,128930,75818,111445,97624.8,56351,113537,101616,71025,93763,24.34,11087,97624.8,97906.5
140782,63857,144484,177582,87073,133658,139969,67092,136723,102068,64990,102926,24.982,11425,139969,96749.6
119628,67837,115570,92089.2,52568,114807,106617,52434,133258,95965.8,68016,92466.7,25.085,11468,106617,91914.4
143280,76970,121996,158284,67073,154657,129983,61448,138630,101766,64693,103092,25.175,11520,129983,96826.6
125662,66937,123032,171816,89786,125411,126994,63335,131407,108529,66937,106258,25.262,11551,126994,103704
110718,68300,106237,99607.2,50766,128587,89734.4,51783,113567,100885,70072,94354.7,25.277,11556,89734.4,97475.5
121874,70959,112559,117515,70771,108822,120032,62971,124921,105154,64805,106340,25.291,11568,120032,100593
84096.9,56692,97216.1,62036.8,37751,107696,62585.6,37844,108382,98642.6,60919,106119,25.555,11683,62585.6,96264.4
122101,71301,112229,123134,66180,121936,105102,58698,117346,98050.4,61376,104696,25.729,11756,105102,94056.5
96566.4,63338,99917.5,81904.2,49688,108028,73620.4,44656,108043,95331.6,67289,92848,25.739,11761,73620.4,92534
131812,65902,131080,120250,57907,136093,124718,66256,123362,100629,71075,92787,25.952,11844,124718,95889.9
95883.3,64436,97520.1,97171.2,59950,106225,102302,70202,95502.6,97504.4,75181,84995.5,26.049,11898,102302,93616.9
151618,51595,192585,136567,35767,250233,110102,37056,194722,102109,63913,104702,26.091,11913,110102,97925.1
99867.6,67527,96923,76676.6,49071,102404,84582.4,53837,102962,99281,72767,89415.3,26.223,11977,84582.4,96066.9
74030.4,43166,112395,82689.6,47856,113239,71285.2,42255,110561,92969.8,63020,96681.5,26.48,12081,71285.2,90261
119185,72047,108414,120400,77679,101579,112567,68363,107912,103207,73551,91960,26.715,12192,112567,98929.1
127346,74489,112040,128307,63822,131753,111709,62147,117800,93704.8,74458,82476.5,26.838,12255,111709,89459.9
104520,68766,99610.3,106112,66458,104639,97617.8,56936,112363,95485.6,60656,103168,27.079,12369,97617.8,91776.1
136080,68535,130125,135993,69616,128023,126815,59800,138979,102157,60840,110042,27.203,12432,126815,97337.6
119498,74177,105577,98905.8,64962,99779.7,109782,68477,105067,101140,66290,99989.8,27.221,12443,109782,96968.5
104318,63379,107868,110547,70063,103404,105186,59654,115558,106464,70236,99340.1,27.592,12607,105186,102467
100462,68288,96413,92899.8,60119,101270,84662.2,55046,100796,93921.8,68701,89594.9,27.947,12768,84662.2,90704.6
119632,70090,111859,132051,69258,124954,105980,56994,121864,99877.4,75195,87047.9,28.278,12909,105980,95850.2
129441,74891,113272,150696,86933,113605,134189,71187,123536,103937,69613,97850.1,28.376,12955,134189,98838.2
99508.5,63890,102072,109529,69370,103475,105819,69454,99849.6,95065.6,66837,93215.1,28.449,12992,105819,91044.5
93428.1,61157,100118,88404.4,52210,110969,89476.8,52767,111129,98050.4,67651,94985,28.478,13009,89476.8,94650.3
115272,69309,108997,107240,60741,115706,102099,58502,114375,97344.8,61079,104448,28.5,13017,102099,93465
105349,62504,110459,124572,77957,104724,112316,68603,107295,104104,62527,109114,28.85,13181,112316,99836
123641,71749,112935,123647,63569,127473,111584,55962,130674,101150,64623,102579,28.905,13212,111584,96909.8
101683,65026,102480,80784.2,48788,108516,85568,56286,99630.2,102561,70632,95161.6,28.974,13235,85568,99309.6
112810,63944,115618,145391,83451,114179,120014,72319,108757,102467,66845,100461,29.2,13338,120014,97906.9
81809.1,55584,96456.6,101465,65672,101255,80036.6,55059,95266.5,92593.2,70926,85556.6,29.304,13385,80036.6,89551.8
89585.1,51184,114705,115441,74099,102101,113088,66361,111682,93661.4,61741,99418.4,29.307,13387,113088,89364.1
107736,61404,114986,120838,67238,117779,111497,62914,116144,94336.2,62549,98841.2,29.342,13393,111497,90099.3
105475,64437,107274,108884,63611,112179,98371,60937,105795,102610,69158,97236.2,29.505,13458,98371,98872.1
87986.7,59293,97250.9,80621.8,51436,102722,84330.4,56531,97763.7,95335.8,71156,87806,29.548,13481,84330.4,92131.2
150651,68054,145077,186621,55088,222016,158522,56154,185007,102886,64809,104040,29.76,13572,158522,96862.2
121151,68831,115351,127603,62100,134663,115164,60983,123762,101952,68749,97187.4,29.794,13594,115164,97576
110992,65944,110306,110751,66416,109284,103597,61211,110917,93774.8,60460,101648,29.847,13613,103597,89838.1
126240,73383,112741,96173,48750,129288,102539,57364,117146,99983.8,78224,83766.3,29.946,13671,102539,96087.3
120040,70546,111515,121580,61083,130444,99132.6,51599,125909,94696,59613,104105,29.96,13681,99132.6,90929
96607.8,62340,101561,93298.8,60443,101160,84918.4,54854,101455,93045.4,59625,102270,29.983,13688,84918.4,89818.5
98002.8,61445,104528,115924,62740,121090,108027,56878,124471,103652,65739,103332,30.504,13915,108027,99546.8
111496,66787,109407,101590,53516,124407,97469.4,52798,120985,95578,60242,103977,30.779,14033,97469.4,91874.2
63509.4,45390,91697.6,50772.4,34861,95448.2,68429.2,42998,104297,100435,67966,96843.8,30.841,14058,68429.2,97834.3
108749,63693,111896,108476,60057,118372,89964,48771,120889,93451.4,58863,104046,30.962,14113,89964,90032.8
122044,68004,117614,140043,63652,144188,119391,53748,145575,99230.6,63914,101749,31.152,14198,119391,94693.8
110097,68271,105686,131844,73076,118240,110040,66580,108315,96023.2,76004,82798,31.396,14302,110040,91841.7
99272.7,61066,106539,86997.4,48782,116876,104222,59321,115141,96195.4,64725,97400.7,31.464,14327,104222,92235
72078.3,53970,87525,67991,49523,89975.5,72591.4,49736,95652,93877,73679,83501.7,31.62,14392,72591.4,91118.5
103978,63807,106795,86711.8,55801,101839,107517,61549,114482,98519.4,58526,110320,31.922,14529,107517,94433.7
94560.3,64793,95644.7,143165,89142,105253,128290,74207,113300,96412.4,66752,94656.1,32.201,14636,128290,91537.4
136313,72175,123774,131846,67679,127672,139150,69203,131777,97710.2,61861,103515,32.392,14726,139150,92422.5
138354,85121,106521,133503,78415,111576,118625,67917,114466,99673,63611,102689,32.783,14903,118625,95165.3
113314,71141,104386,94137.4,60220,102447,90136.2,55705,106044,93300.2,62436,97932.6,32.817,14921,90136.2,89875
148676,63670,153033,137742,56018,161145,119862,57671,136209,99495.2,80764,80735.4,32.946,14976,119862,94940.4
126832,76348,108871,111216,64939,112238,106994,61662,113716,100381,64427,102109,33.017,15016,106994,96315.6
134907,69326,127532,152506,77893,128313,139394,60384,151287,100937,64067,103252,33.018,15017,139394,95640.2
114592,67329,111541,101795,59064,112950,101363,57702,115124,92825.6,62736,96968.5,33.527,15239,101363,88973.8
100364,64978,101225,83087.2,52441,103835,86067.8,54334,103812,95993.8,74261,84715.4,33.967,15432,86067.8,92723.2
103236,67517,100207,89126.8,57733,101173,83606.6,53402,102604,93905,66755,92190.2,34.242,15564,83606.6,90728
110979,66653,109119,122587,70186,114465,98567,57050,113229,104912,74128,92751.7,34.263,15576,98567,101166
105556,67758,102095,88601.8,52513,110575,91805,55674,108067,97407.8,69170,92290.3,34.676,15784,91805,93919.2
119007,77232,100985,111279,67188,108543,102969,61472,109776,95995.2,66045,95255.4,34.864,15855,102969,92082.4
90652.5,58321,101867,126381,82145,100828,101401,65662,101206,97826.4,72361,88599.5,34.923,15883,101401,93973.2
90024.3,64036,92133.1,107418,60097,117140,104353,64066,106748,102025,74828,89355.7,35.146,15995,104353,98059.6
109867,66566,108167,109115,65636,108948,110873,63189,114991,101326,69623,95378.4,35.702,16235,110873,97113.2
92628,64630,93926.5,110781,70834,102495,90879.6,64186,92791,104475,71657,95550.6,36.081,16426,90879.6,101022
115012,65590,114917,133762,69229,126626,137063,75134,119554,103781,63019,107926,36.185,16471,137063,98572.2
111588,62088,117785,139038,82760,110102,105315,62755,109982,95684.4,61238,102400,36.188,16474,105315,91682.4
75712.5,49062,101135,101080,64799,102230,89635,56569,103843,94402,61591,100449,36.411,16573,89635,90995.9
102866,64647,104280,108559,64516,110275,107113,64847,108251,97809.6,69874,91737.3,36.621,16649,107113,93739.3
116928,70035,109417,113128,66235,111935,100218,63010,104235,97038.2,64444,98682.5,36.671,16672,100218,93229.9
122059,73331,109084,115608,54239,139687,114699,56220,133706,104681,70480,97337.7,36.79,16736,114699,100322
110110,69361,104038,107598,60100,117331,94756.2,55135,112632,98135.8,69644,92347.2,36.804,16743,94756.2,94535.1
78562.8,47809,107693,120793,72366,109393,130507,80681,106009,101941,77834,85834,36.876,16779,130507,96981.8
119720,61762,127035,130133,66983,127322,116465,62867,121409,104369,76713,89162.2,37.024,16848,116465,99942.9
111560,68490,106749,129431,71399,118803,106548,59443,117470,94840.2,64684,96089.4,37.1,16884,106548,90791.4
121189,72818,109069,98936.6,54897,118110,92057,56121,107501,98001.4,70049,91687.5,37.143,16903,92057,94503.2
119031,64489,120964,141410,81205,114124,118073,64909,119214,99323,69844,93196.7,37.205,16928,118073,94836.2
133692,69352,126336,160549,80328,130985,109600,61940,115963,94519.6,77154,80286.7,37.327,16983,109600,90354.8
92421.9,62366,97119.6,75338.2,50036,98676.2,83622,51457,106502,93347.8,68956,88718,37.559,17075,83622,90170.2
145895,67092,142512,177300,71843,161735,137127,67422,133291,107958,65232,108461,37.677,17122,137127,102747
92906.1,62033,98152.5,130703,75239,113847,100120,56343,116455,97339.2,65574,97282.8,37.82,17202,100120,93534.6
104235,63974,106780,85873.2,58539,96137.4,95790.8,56887,110355,96264,66424,94977.1,38.044,17312,95790.8,92624
112412,61393,119998,128216,71598,117360,124947,66207,123681,103232,66080,102382,38.044,17313,124947,98483.8
127005,68806,120969,99765.4,45892,142470,96635,47007,134726,93066.4,61064,99882.1,38.319,17444,96635,89394.3
109756,69673,103239,85055.6,48959,113855,87942.4,50928,113167,99824.2,68637,95314.2,38.608,17575,87942.4,96482.4
122244,72289,110825,130456,76183,112224,95041.8,53930,115495,96425,68835,91803.7,38.654,17591,95041.8,92813.4
101943,65948,101306,88547.2,55808,103982,90204.8,53853,109774,98917,68911,94072.4,38.783,17657,90204.8,95489.2
129384,65377,129699,120526,73501,107465,145106,79298,119923,96537,66581,95021.8,38.902,17730,145106,91023
95194.8,67111,92960.7,101577,68951,96546.1,87229.8,61067,93613.4,94635.8,69008,89874.4,39.083,17808,87229.8,91321.1
100340,65914,99764.7,128145,90853,92436.1,124415,83704,97410.8,97785.8,68934,92965.6,39.455,17974,124415,93058
133132,75849,115031,162705,87565,121773,121685,68838,115848,102802,64357,104685,39.536,18017,121685,98178
97818.3,61972,103444,100647,57233,115249,82063.8,47446,113353,92549.8,60025,101047,39.606,18045,82063.8,89431.4
105268,57120,120778,122116,67747,118131,120527,72051,109629,97302.8,70096,90972.9,39.709,18079,120527,92722.8
71393.4,44343,105515,71451.8,37960,123358,71773.8,35408,132845,97330.8,63478,100486,39.76,18093,71773.8,94603.4
102190,64972,103078,79766.4,48406,107994,88998,55402,105277,97421.8,70491,90573.8,39.988,18204,88998,94039.9
102738,66797,100798,87785.6,57168,100635,87536.4,49533,115817,98463.4,66915,96434.2,40.033,18233,87536.4,95137
133451,75997,115082,131317,72139,119298,124258,67087,121386,100719,68614,96200.6,40.252,18336,124258,95997
102218,60616,110514,131100,73975,116144,119538,68058,115108,103459,65340,103769,40.462,18428,119538,98916.2
115262,66109,114263,114036,64446,115964,115011,64395,117049,101367,59941,110829,40.485,18438,115011,96996.6
112818,60241,122734,85241.8,50461,110707,94432.8,48284,128174,97531,66435,96211.2,40.896,18633,94432.8,93942.6
119378,73934,105818,130948,70148,122338,99156.4,50449,128810,96411,60551,104348,41.179,18762,99156.4,92643.1
108620,68390,104087,135610,85546,103889,97284.6,55522,114831,102851,70482,95633.5,41.817,19058,97284.6,99154.2
114439,68714,109146,116714,70745,108120,95523.4,56001,111788,94140.2,64333,95900.6,42.017,19133,95523.4,90510.3
101088,59585,111184,94726.8,57325,108295,105295,58923,117113,95340,67226,92943.2,42.254,19232,105295,91338.8
106722,65704,106449,109945,63758,113011,103639,53809,126226,96024.6,69649,90354,42.283,19245,103639,92086.3
125175,73167,112120,116423,64239,118773,107751,56217,125613,103625,70625,96158.3,42.644,19384,107751,99530.7
98714.7,63684,101585,85586.2,54484,102947,84889,52760,105445,92160.6,62816,96151.2,42.86,19486,84889,88934.8
100193,60754,108080,104910,63598,108107,107213,62190,112982,92913.8,56436,107896,43.078,19605,107213,88839.7
104534,64741,105818,106901,58881,118984,92990.8,53620,113656,92985.2,67601,90144.8,43.094,19617,92990.8,89451.5
105620,69348,99813.7,100614,63976,103067,87255,54678,104582,96320,69377,90987.3,43.248,19683,87255,93004.3
91475.1,59115,101411,115056,76657,98364.4,107400,75197,93601.3,100331,75379,87229.8,43.293,19697,107400,96249.8
165812,75985,143011,188311,91679,134613,147024,59493,161958,102731,62266,108126,43.35,19717,147024,97143.7
121687,67618,117940,131606,69580,123957,112185,60420,121684,102922,69138,97560.3,43.351,19719,112185,98659.4
97958.7,63604,100934,102897,62169,108470,101549,61771,107739,94070.2,63240,97485.5,43.361,19731,101549,90211.3
121714,64394,123873,153796,86874,116020,119083,65312,119491,103257,68581,98672.4,43.813,19939,119083,98731.9
97245.9,60779,104857,105032,65126,105693,106550,61377,113770,97304.2,63897,99800.1,44.751,20335,106550,93255.3
98283.6,63117,102050,95013.8,58154,107075,83195,54374,100273,95151,61876,100779,44.764,20342,83195,91989.6
117083,66090,116101,95604.6,58281,107506,110996,58070,125267,95466,66065,94701.6,44.969,20435,110996,91248.1
100746,61546,107277,121948,69904,114328,107127,62519,112296,95760,67475,93008.2,44.975,20447,107127,91689.2
78364.8,48518,105852,115825,70516,107645,110300,64981,111242,98268.8,73528,87587.6,45.327,20582,110300,94077.4
128424,68667,122568,116512,60401,126418,99220.8,48766,133342,96810,63546,99841.7,45.362,20599,99220.8,93039.6
111887,66831,109719,103888,56425,120663,95485.6,52959,118162,93513,62020,98814.4,45.584,20693,95485.6,89884.5
121550,65045,122468,71908.2,47057,100146,99829.8,57908,112980,93307.2,64386,94973.8,45.589,20698,99829.8,89513.7
104918,66768,102982,91099.4,55970,106669,101207,64198,103317,94768.8,63875,97233.2,45.67,20726,101207,90922.9
113350,67008,110860,102250,51402,130366,104066,57089,119464,103016,67999,99284.8,45.835,20801,104066,99061.7
119794,63871,122916,95935,54238,115919,107426,54835,128390,97438.6,69474,91915.5,46.131,20947,107426,93356.4
111393,72057,101312,138184,76868,117813,109724,65191,110304,96433.4,64895,97385.9,46.179,20976,109724,92263.9
135115,78607,112648,132544,87363,99428.6,137059,80805,111160,95369.4,69615,89781.4,46.411,21084,137059,90161.2
117993,61893,124938,132814,62084,140199,126706,64119,129506,107163,73281,95837.1,46.835,21267,126706,102348
106899,65437,107061,117113,58640,130885,89313,48191,121459,95538.8,68733,91095,47.115,21401,89313,92144.9
115131,68075,110837,110890,68232,106508,103701,58874,115435,101213,68386,96994.9,47.182,21428,103701,97272.4
106655,63146,110692,120848,63275,125166,109729,55253,130151,100709,66710,98936.7,47.388,21508,109729,96539.3
105862,70299,98690,116799,69624,109941,111489,65956,110779,94999.8,61078,101934,47.619,21597,111489,90763.2
111678,67509,108414,121174,64906,122350,114376,65633,114207,93807,58822,104514,47.676,21622,114376,89460.7
118329,64834,119611,120534,61107,129271,104398,58106,117747,98065.8,77932,82467.3,47.718,21641,104398,94098.7
109254,67728,105718,112391,67915,108454,102617,59659,112726,106425,72191,96614.3,48.04,21764,102617,102526
110346,69046,104737,112270,68270,107774,97160,61365,103764,101850,66453,100445,48.681,22048,97160,98157.9
98575.2,55175,117086,185275,114438,106102,130563,72944,117303,107170,71408,98357.2,48.855,22130,130563,102209
128602,67909,124108,105911,51155,135686,110810,50854,142802,98520.8,61635,104756,49.119,22245,110810,94310
109266,68178,105032,108888,66533,107256,99101.8,60686,107022,103776,67314,101035,49.47,22383,99101.8,100011
115712,66056,114801,110751,62734,115698,109883,60422,119183,102565,75150,89444.1,49.572,22433,109883,98389.8
106067,64371,107986,113404,62956,118052,107234,58134,120888,98603.4,66854,96659.5,49.846,22546,107234,94528.5
157421,77094,133820,147885,59401,163158,129840,59785,142330,99234.8,65196,99752.3,50.395,22772,129840,94300.9
108414,65537,108412,113639,68339,108978,109659,62898,114258,102228,71245,94036.3,50.4,22774,109659,98061
124202,77155,105498,203017,115523,115171,127894,76052,110210,99117.2,65392,99335.5,50.635,22872,127894,94257.2
103794,66521,102257,100584,59560,110677,94402,59133,104624,95082.4,69404,89783.3,50.672,22884,94402,91495.1
100575,62549,105378,112633,65376,112908,98732.2,59751,108291,100075,72686,90230.6,50.728,22899,98732.2,96323
85339.8,57400,97436,66039.4,42817,101080,73514,42103,114429,92024.8,67759,89005.7,50.763,22910,73514,89231.3
119652,68987,113667,132082,70466,122841,124074,61136,133003,103086,64932,104045,51.085,23067,124074,98371.4
81265.5,56026,95059.7,76913.2,51825,97261.6,80721.2,45589,116040,101763,69922,95379.9,51.088,23070,80721.2,98695.8
114393,68754,109039,118024,65405,118261,114649,63633,118077,103988,62236,109502,51.172,23120,114649,99631.1
112101,67251,109243,88015.2,52037,110847,110018,68103,105871,102199,67237,99613.1,51.207,23138,110018,98017.9
117176,65419,117386,115618,54899,138019,109417,55566,129049,98884.8,67720,95695.7,51.556,23281,109417,94727
107870,62453,113194,128890,73256,115307,108867,60575,117783,94519.6,58788,105369,51.851,23397,108867,90382.7
99480.6,56679,115026,85393,36278,154262,74334.4,34705,140371,94647,63899,97071.7,51.952,23427,74334.4,91822.3
119732,67588,116096,83339.2,55544,98331.4,112083,63435,115795,94392.2,72130,85763,52.283,23582,112083,90133.1
84861,65073,85464.8,108622,62184,114477,146553,70693,135862,97381.2,64830,98441.7,52.283,23587,146553,91812.2
112033,68811,106701,110075,65812,109613,98495.6,55541,116221,97955.2,61922,103672,52.331,23614,98495.6,94212.4
99009,61206,106013,107890,66049,107052,101034,66022,100290,92955.8,62729,97115.4,52.338,23617,101034,89116.5
106129,66457,104658,99705.2,58348,111988,97179.6,57008,111717,99866.2,65451,99995.9,52.369,23627,97179.6,96173.4
170379,73825,151249,214330,92259,152249,187698,80872,152104,111831,73235,100074,52.54,23705,187698,104698
105419,66997,103120,116417,68046,112123,101304,53754,123508,99311.8,63570,102383,52.891,23830,101304,95462.2
136273,66626,134043,167744,71694,153336,149173,69353,140963,107947,71710,98653.1,52.999,23876,149173,102278
111040,71083,102375,89258.4,54960,106434,86158.8,50040,112840,100311,66833,98364.7,53,23877,86158.8,97037.4
116194,69082,110230,107631,62422,113000,99729,51392,127176,97659.8,61794,103574,53.166,23951,99729,93870.1
104655,62278,110130,100223,58803,111699,102666,65050,103433,97694.8,67128,95377.9,53.177,23955,102666,93793.5
116437,62911,121295,97732.6,57908,110607,106014,58160,119459,93030,61766,98708.3,53.449,24058,106014,89001.5
130480,69629,122810,162481,85599,124398,127000,70096,118738,101198,64074,103507,53.666,24138,127000,96371.6
104761,65325,105099,96671.4,56830,111481,87166.8,52127,109589,97910.4,70138,91486.2,54.128,24359,87166.8,94598.1
114899,69006,109122,122693,69245,116121,110293,61347,117825,103705,66537,102145,54.29,24431,110293,99513.9
90046.8,59719,98817.9,111104,64944,112117,95398.8,58356,107136,97605.2,67933,94161.2,54.322,24449,95398.8,93980
114322,71376,104969,93321.2,58226,105037,103467,55033,123214,99019.2,62822,103297,54.365,24466,103467,95087.5
115066,68260,110474,123239,68398,118082,98861,56889,113888,99194.2,66393,97913.8,54.661,24597,98861,95437.5
130712,63645,134596,140176,70563,130190,131719,67899,127135,95368,67730,92278.7,54.663,24598,131719,90362.7
127922,70337,119190,103348,49618,136503,94619,45222,137122,95897.2,65517,95925,54.669,24604,94619,92301.7
108508,67155,105893,103585,58348,116345,126246,59249,139643,98016.8,60916,105451,54.693,24620,126246,93219.4
141011,69461,133043,121229,70610,112517,122205,53479,149756,104024,66642,102298,55.183,24826,122205,99380.4
98911.8,62520,103683,99134,60203,107916,94248,58042,106417,97433,68360,93408,55.661,24991,94248,93851.6
112207,65108,112944,94817.8,53324,116533,94969,51441,120991,101766,66859,99752.3,55.69,25007,94969,98157.2
133114,72098,120998,110457,60113,120422,100912,56299,117469,94824.8,65631,94687.5,55.793,25064,100912,90990.1
107595,65823,107126,114633,70955,105879,98032.2,60713,105820,98796.6,66736,97020.1,56.179,25248,98032.2,95071.4
129458,66671,127254,158682,90817,114509,115147,57260,131790,93700.6,62502,98249.1,56.788,25530,115147,89325
108788,67519,105592,140864,92836,99440.4,110855,67653,107386,102858,65944,102222,56.824,25550,110855,98645.5
121851,69593,114748,114846,69578,108174,110309,62041,116523,101371,65494,101436,57.432,25836,110309,97179.5
130404,70944,120463,110526,59059,122647,111835,57178,128182,102936,67306,100229,57.475,25852,111835,98686.7
107029,64403,108912,95282.6,56302,110910,92401.4,55208,109687,99236.2,66240,98181.5,57.703,25937,92401.4,95724.9
118898,70658,110279,87530.8,48074,119325,89940.2,50112,117623,97466.6,66121,96604.3,57.926,26020,89940.2,94048.9
122527,71070,112986,133104,70551,123642,119126,74093,105368,97101.2,64096,99282.7,57.962,26045,119126,92574.4
125367,74044,110962,112788,70077,105479,143198,76558,122582,96597.2,60525,104595,58.142,26114,143198,91155.7
118290,70195,110439,119843,65841,119288,107219,60454,116232,102554,70402,95465.9,58.261,26154,107219,98479.9
120791,67038,118084,161783,94851,111781,127942,77895,107642,102397,74259,90369.1,58.319,26184,127942,97535.6
81740.7,51389,104243,53873.4,34229,103148,68488,36528,122876,98966,66120,98091.9,58.448,26240,68488,96363.5
166608,68917,158434,201453,72172,182930,165281,69520,155809,104941,65477,105036,58.607,26309,165281,98660.5
123659,67172,120647,122597,68837,116718,116927,61804,123987,99349.6,72050,90367.5,58.815,26400,116927,94906.4
147247,67302,143383,132720,50606,171876,115979,49170,154582,93332.4,62523,97830.1,58.851,26410,115979,88925.2
109555,67992,105598,111334,64898,112428,100033,59835,109564,98784,64467,100422,59.189,26567,100033,94982.8
109319,64550,110989,88972.8,48456,120334,94950.8,52841,117763,97039.6,68728,92532.7,59.308,26635,94950.8,93431.5
104990,68206,100880,86018.8,55067,102372,101105,58303,113648,99418.2,71599,90999.5,59.378,26667,101105,95576.2
113511,63794,116610,123729,77203,105031,116152,66992,113628,100601,67839,97186,59.547,26726,116152,96187.4
142456,70042,133292,143273,73036,128561,139734,66075,138594,99628.2,62924,103764,59.649,26781,139734,94318.3
115879,69084,109927,114267,70786,105792,101574,64795,102736,103296,62980,107488,59.774,26832,101574,99436.4
130266,71097,120077,145932,79745,119930,124293,69071,117932,98914.2,60999,106271,59.841,26865,124293,94191
100144,62021,105819,115882,66198,114723,112672,66029,111831,95702.6,65365,95953,59.933,26905,112672,91421.1
50418,36460,90625.2,94318,62938,98211.3,77253.4,54853,92299,97379.8,77050,82827.8,59.992,26920,77253.4,94444.2
65253.6,42871,99751.8,108716,74956,95052.9,116836,78604,97411.6,101021,73957,89518.6,60.059,26951,116836,96581.4
103501,63965,106043,105505,66559,103884,91704.2,58219,103230,93128,61474,99281.6,60.173,26996,91704.2,89643.2
134161,65553,134126,148361,78648,123626,150837,75893,130253,100661,62347,105810,60.268,27039,150837,94929.6
118243,67296,115150,86340.8,41173,137431,78605.8,38846,132614,95723.6,58917,106478,60.383,27107,78605.8,92736.6
126032,67932,121586,140174,72950,125928,131193,64380,133548,95554.2,59908,104531,60.73,27252,131193,90568.9
130964,70831,121173,178787,88921,131768,158864,79750,130549,103550,66380,102233,60.912,27319,158864,97512.8
102596,63835,105330,91558.6,55441,108230,84035,51145,107680,92419.6,63205,95828,60.951,27338,84035,89226.3
111740,71376,102598,108053,62210,113830,105910,60356,115000,99811.6,66902,97773.7,61.9,27739,105910,95787
106261,69955,99548.8,91904.4,58545,102879,91217,57276,104372,101304,71118,93352.7,61.941,27754,91217,97837.8
86275.8,58991,95848,65395.4,42148,101683,65265.2,46764,91464,96322.8,75769,83313.9,62.053,27798,65265.2,93842.7
117798,68493,112713,124933,68427,119655,113655,60742,122625,94960.6,66201,94006.7,62.175,27845,113655,90641.7
108292,65703,108016,96028.8,60723,103640,93181.2,60036,101718,103216,73186,92427.4,62.379,27933,93181.2,99675.5
129376,67447,125710,99877.4,50792,128870,108104,51840,136665,94817.8,66991,92758.4,62.409,27958,108104,90709.9
113033,70816,104605,102651,62895,106961,108926,61549,115982,98445.2,71425,90328.4,62.54,28018,108926,94306
113750,63470,117453,119966,74070,106144,110372,63754,113457,95999.4,70602,89111,63.181,28305,110372,91805.3
138520,72719,124837,134053,66727,131660,128201,57486,146153,98079.8,57871,111070,63.251,28322,128201,93208.2
120622,67670,116818,111408,64024,114039,99012.2,50796,127744,96145,60347,104412,63.251,28323,99012.2,92382.5
77869.8,44233,115373,94848.6,38713,160566,81523.4,40199,132907,95694.2,61025,102768,63.632,28507,81523.4,92596.3
117017,69965,109610,113788,66523,112100,101892,57298,116541,98789.6,66333,97602.6,63.753,28557,101892,94917.7
99743.4,63279,103301,83993,51637,106601,86406.6,50205,112792,92468.6,64015,94665.7,63.806,28585,86406.6,89185.1
105318,64284,107369,90546.4,55286,107334,88076.8,52460,110031,96845,66977,94761.4,64.067,28715,88076.8,93498.1
88272,61940,93396.7,82868.8,50505,107532,101237,51515,128791,96223.4,67606,93277.2,64.071,28718,101237,92376.4
110853,67050,108350,120242,70477,111812,107295,62095,113240,104115,72471,94152.1,64.077,28722,107295,100038
95315.4,63103,98990.4,108478,71655,99214.1,107446,64522,109134,103083,65466,103194,64.155,28757,107446,99000.5
104124,65245,104588,99219.4,56986,114106,91117.6,52485,113775,99667.4,65822,99234.4,64.163,28761,91117.6,96204.9
118736,64351,120923,114972,63733,118225,119619,65110,120401,96846.4,67283,94331.8,64.177,28769,119619,92300.9
101452,67485,98521.6,101683,59889,111271,104539,65844,104050,99803.2,76310,85712.2,64.256,28805,104539,95830.7
116201,62235,122364,123171,70619,114305,113137,62553,118532,101324,61361,108218,64.703,28988,113137,97024.4
110222,63977,112908,156122,79808,128203,133787,64327,136301,96649,69678,90903.7,64.714,28990,133787,91565.1
111870,67387,108797,124401,71972,113277,93296,50080,122090,101500,66669,99775.1,64.725,28994,93296,97954.8
106746,69872,100122,123477,81035,99860.6,123348,85348,94715.3,97377,74728,85399,64.877,29066,123348,92689.8
100790,66538,99272.3,80754.8,52016,101745,77470.4,46144,110027,93066.4,63361,96261.1,64.951,29104,77470.4,90122.5
130154,70891,120323,139551,69447,131692,116519,69356,110102,109509,74027,96948.5,65.065,29183,116519,105082
129836,70479,120730,137627,71022,126996,130894,70302,122021,104198,68111,100258,65.217,29238,130894,99223.8
90771.3,53556,111076,98431.2,66368,97197.2,98575.4,64174,100668,97214.6,72636,87712.1,66.012,29554,98575.4,93468.7
126827,74975,110860,109484,60228,119133,105910,60465,114792,106263,70271,99102.6,66.023,29559,105910,102238
105550,67013,103224,125784,72261,114078,108486,65026,109337,98068.6,67000,95925.7,66.038,29568,108486,93946.1
117252,70480,109027,133760,74766,117247,95537.4,55587,112637,95681.6,61643,101724,66.239,29650,95537.4,92051.2
60530.4,45283,87602.9,66498.6,51276,84992,61296.2,35719,112464,91673.4,57897,103769,66.674,29838,61296.2,89344.1
86070.6,55944,100828,112899,65767,112502,112503,69845,105562,100908,68754,96184.9,67.037,29994,112503,96632.7
115747,68805,110248,129186,71187,118931,106583,56825,122922,98560,60377,106982,67.312,30092,106583,94509.8
110177,69662,103651,97717.2,62132,103071,93926,56092,109740,93702,63926,96061.9,67.664,30236,93926,90132.8
144532,71840,131849,111038,55284,131629,121831,53846,148280,100779,64213,102855,67.754,30272,121831,96149.4
154111,77053,131076,174814,94358,121416,164692,82493,130838,106778,63042,111002,67.756,30277,164692,100520
125795,67891,121431,114965,64798,116275,111838,58765,124724,95429.6,62381,100256,67.981,30373,111838,91179.8
112445,67262,109560,105071,62790,109666,106777,64208,108985,95855.2,63768,98512.8,68.052,30407,106777,91797.7
122959,74352,108380,93314.2,51272,119274,88386.2,48248,120056,96356.4,66933,94345.3,68.231,30473,88386.2,92997.7
100763,68039,97056.3,79553.6,51532,101173,89693.8,56415,104195,93044,68773,88664.6,68.232,30476,89693.8,89635.6
103462,60233,112571,123158,75421,107016,97615,61409,104175,94418.8,57620,107390,68.361,30540,97615,90709.4
117979,71314,108420,108874,61540,115943,108821,63484,112338,104959,70066,98173.4,68.43,30571,108821,100824
117907,70436,109705,86556.4,48576,116777,127718,63877,131035,98093.8,57982,110874,68.53,30630,127718,93240.5
87516,56975,100666,109407,68762,104274,118500,70432,110263,107111,72330,97050.2,68.532,30632,118500,102608
113395,63960,116189,101114,58743,112806,113329,62323,119171,101332,63324,104872,68.689,30691,113329,97025.5
103746,64463,105473,85104.6,53890,103496,90171.2,58432,101134,94379.6,63083,98049.6,68.894,30770,90171.2,90953.1
105702,69710,99373.2,118903,69837,111581,118548,55746,139367,98455,58343,110593,69.324,30952,118548,93950.2
106643,64257,108765,106704,62697,111535,106183,57356,121327,93837.8,65316,94153.9,69.343,30959,106183,89802.8
119933,72108,109002,106877,63906,109603,105851,57801,120016,101269,67117,98883.5,69.393,30982,105851,97246.7
119255,65853,118681,119204,71256,109635,157018,74955,137287,102208,71012,94326.7,70.065,31243,157018,96241.7
111911,70197,104481,94024,53646,114863,91275.8,50457,118553,101273,65375,101523,70.272,31326,91275.8,97804.7
83050.2,64386,84533.6,68481,44317,101270,95621.4,56407,111097,95002.6,66651,93413.3,70.409,31391,95621.4,91369
112240,63281,116240,123466,73675,109827,115448,63537,119080,105995,63967,108595,70.496,31434,115448,101608
106503,64792,107726,105802,64557,107407,100969,56408,117308,99486.8,71818,90784.6,70.5,31435,100969,95650
150232,75339,130684,174250,88271,129370,133836,67562,129822,95774,62090,101089,71.027,31674,133836,90688.2
102335,67086,99971,86182.6,55289,102155,90014.4,55579,106141,102130,67941,98514.8,71.304,31767,90014.4,98709.5
80308.8,54416,96720,71773.8,43375,108444,72014.6,47609,99131.4,97661.2,78537,81494.4,71.531,31867,72014.6,94924.6
131578,68456,125966,122767,50682,158748,109817,50531,142427,93731.4,59316,103560,71.591,31888,109817,89558.3
84264.3,52182,105829,112997,66386,111550,103516,65191,104064,93829.4,66476,92502.6,71.649,31919,103516,89895.8
108461,65446,108610,102255,57777,115987,94343.2,51513,120026,95811.8,69207,90729.6,71.711,31952,94343.2,92226.8
93320.1,62147,98409,79863,50275,104105,83655.6,56718,96661.6,99685.6,73257,89179.1,71.785,31979,83655.6,96506.7
105904,66220,104810,96366.2,58329,108273,106870,58188,120366,100954,73217,90363.2,72.002,32069,106870,96892.9
120647,70013,112932,135664,81506,109083,102141,60508,110629,98305.2,65200,98811.8,72.328,32226,102141,94423.8
117393,70338,109379,111740,64399,113712,95305,51943,120245,94147.2,65005,94916.2,72.595,32350,95305,90525.6
115364,68511,110354,101644,63583,104766,90070.4,48399,121962,93025.8,58396,104400,72.864,32460,90070.4,89603.1
100222,58284,112692,98425.6,60469,106673,108170,63135,112283,102084,65155,102681,73.115,32592,108170,97973.4
93219.3,51540,118534,108277,50142,141519,119776,64379,121928,100967,75840,87248.8,73.158,32606,119776,96415.1
118534,69042,112514,94568.6,51900,119415,98075.6,53822,119421,96616.8,67844,93330,73.676,32829,98075.6,92889.9
93776.4,65953,93183.5,91821.8,61697,97535.3,107594,63578,110908,98687.4,70147,92200.3,74.032,32975,107594,94598.8
116213,67423,112961,115375,68388,110564,99572.2,50314,129697,100341,68375,96174.5,74.032,32976,99572.2,96557.1
99432.9,63329,102898,85309,51022,109576,87010,53487,106611,97804,64558,99285.6,74.749,33281,87010,94497.6
107029,70226,99881,106004,63643,109157,115195,78364,96337.7,102085,69356,96462.5,74.756,33285,115195,97707.8
110933,66598,109164,108609,62716,113493,96475.4,57028,110869,93448.6,64414,95076.3,74.933,33359,96475.4,89782.5
94719.6,64310,96525.3,71615.6,45079,104115,99272.6,58023,112127,102390,74565,89992.1,75.071,33411,99272.6,98618
101708,62925,105928,135114,72473,122181,99843.8,62654,104436,95970,73237,85878.6,75.117,33423,99843.8,92175.9
118891,67155,116025,115490,58349,129715,101832,50675,131695,98327.6,69289,93001.8,75.38,33532,101832,94458
120901,72108,109882,127756,75512,110878,107751,61896,114088,98352.8,66162,97422.2,75.437,33561,107751,94258.3
113612,65989,112832,93773.4,51070,120335,104721,63931,107350,96639.2,72240,87670.9,75.499,33594,104721,92659.8
110238,67293,107360,124832,70306,116363,107731,61435,114923,106319,73080,95343.6,76.101,33823,107731,102225
104234,66343,102966,90447,56901,104173,92862,56736,107265,99915.2,68570,95494.3,76.247,33875,92862,96386.4
112987,68630,107893,95622.8,56805,110320,98715.4,58297,110973,94449.6,65961,93841,76.413,33944,98715.4,90698.4
123652,74311,109050,146206,81985,116872,102340,61630,108826,95909.8,67136,93624.1,76.651,34038,102340,92020.9
129912,69595,122335,135120,68828,128657,111325,61501,118629,102742,70046,96126.6,76.655,34041,111325,98511.4
115882,67300,112845,99717.8,60605,107831,116977,60096,127566,101895,71827,92970.3,76.973,34179,116977,97449.7
125552,70442,116808,133955,63238,138823,112181,59902,122732,102326,69710,96199.1,77.014,34200,112181,98063.1
113299,68383,108582,99230.6,58718,110753,99313.2,55545,117177,99482.6,68396,95322.7,77.226,34293,99313.2,95708.7
102520,65017,103338,120155,74959,105050,101471,59905,111009,100325,68692,95716,77.389,34365,101471,96469.5
109608,68170,105373,97132,54980,115781,107647,66731,105720,97223,61304,103935,78.109,34666,107647,93132.4
109462,67450,106355,111880,64110,114368,100661,61247,107711,93496.2,65267,93881.5,78.203,34717,100661,89671.1
122643,69728,115270,134245,78441,112159,95230.8,57618,108318,96315.8,64281,98196.2,78.241,34742,95230.8,92697
117205,64594,118914,123803,64931,124957,97505.8,55627,114875,93380,63776,95957,78.341,34782,97505.8,89674.8
114745,68556,109690,109703,61549,116809,108861,58681,121578,95477.2,59629,104935,78.415,34804,108861,91340.5
113785,71435,104389,122074,71449,111972,114650,66798,112484,103543,67145,101061,78.83,34983,114650,99185.9
121979,64910,123155,133291,66011,132332,107631,58406,120770,95445,62882,99473.4,78.982,35054,107631,91355
124219,72461,112347,102413,66745,100558,113442,56695,131132,93507.4,66901,91599.5,79.217,35160,113442,89196.6
110448,65956,109745,129944,69748,122097,110622,62054,116830,100254,67392,97493,79.275,35193,110622,96050.4
110347,73948,97794.6,107654,64219,109862,110067,70774,101921,101361,73237,90703.1,79.317,35206,110067,97178.9
111511,64621,113090,115013,67598,111504,94711.4,57321,108285,99185.8,67741,95957.3,79.44,35267,94711.4,95586.8
93874.5,66298,92795.6,77063,50134,100738,79002,50720,102080,94553.2,71878,86210.5,79.441,35268,79002,91551.1
114677,70886,106022,129381,73522,115328,101186,55909,118610,101808,68876,96871,79.797,35422,101186,97962.9
119825,68229,115096,140360,73232,125609,96612.6,51240,123568,100722,68372,96543.8,79.851,35439,96612.6,97050.3
122782,65554,122748,120194,55463,142023,113604,57442,129612,102252,68209,98244.7,79.935,35483,113604,97934.8
122531,57333,140063,151455,41908,236846,103984,47927,142189,103277,63921,105886,79.943,35486,103984,99325.2
102750,60473,111353,107358,62472,112623,96896.8,55833,113736,95705.4,59161,106018,80.008,35514,96896.8,92023.3
91019.7,59231,100709,95407.2,58682,106551,109442,67322,106539,94726.8,69352,89514.6,80.444,35692,109442,90568
107678,67197,105016,88865,53128,109619,101017,57339,115458,98630,68390,94514,80.673,35785,101017,94791.4
107229,64484,108978,106856,63043,111082,103048,60188,112205,104048,63622,107178,80.836,35849,103048,100132
104855,64294,106881,107205,59011,119059,105988,57916,119933,104194,70791,96459,81.031,35922,105988,100166
108376,65728,108060,94934,62664,99285,97935.6,62458,102762,99281,67534,96343.8,81.032,35923,97935.6,95559.4
142724,70718,132265,125427,65620,125267,121937,58192,137326,98477.4,70286,91822.2,81.439,36108,121937,93843.8
148033,74642,129974,143501,68113,138072,128712,67242,125446,104279,64851,105380,81.659,36204,128712,99388
100397,63596,103459,107328,66159,106318,90771.8,52183,113999,98642.6,66820,96747.1,82.426,36528,90771.8,95193.3
111355,67974,107361,105252,58093,118737,105013,56171,122521,97762,63036,101639,82.66,36624,105013,93771.5
95739.3,63996,98043.2,72671.2,47529,100204,73326.4,50084,95949.2,96859,70766,89700.6,82.765,36653,73326.4,94072.6
113556,70298,105863,107559,62905,112058,104258,60432,113063,100936,72022,91845.9,83.445,36949,104258,96974
121218,67453,117773,145450,76941,123890,123511,62033,130485,100415,64854,101471,83.737,37075,123511,95721.6
103630,67766,100219,80757.6,54401,97287.4,91841.4,54713,110009,99608.6,67505,96703.2,83.98,37183,91841.4,96118.6
84340.8,56351,98088,87607.8,54517,105315,77344.4,41429,122350,98043.4,61477,104517,84.103,37226,77344.4,95104.3
97914.6,56475,113624,113929,67177,111146,110797,61485,118097,99734.6,63870,102336,84.203,37272,110797,95524.3
103977,66843,101944,131802,77632,111265,100226,55312,118752,95944.8,64820,97004.6,84.675,37468,100226,92136.2
120970,71595,110732,103506,60172,112733,106014,56303,123399,96867.4,62170,102112,84.712,37480,106014,92838.9
103129,65269,103551,101784,61676,108154,91306.6,50510,118469,94113.6,66746,92407.5,84.775,37511,91306.6,90644
116800,70026,109311,140932,83465,110659,116459,63991,119271,95936.4,61554,102143,84.813,37528,116459,91511
101318,66732,99502.5,90732.6,54605,108896,94735.2,59816,103794,99775.2,69529,94045.2,85.261,37688,94735.2,96175.3
100444,64936,101373,80995.6,50801,104489,86609.6,51094,111090,92876,63771,95446.5,85.289,37698,86609.6,89584.8
126415,66720,124172,123179,71269,113270,112288,59418,123850,101650,69744,95516.8,85.354,37729,112288,97382.8
120311,74338,106066,144465,85015,111364,104945,68043,101079,98389.2,72323,89156.1,85.578,37821,104945,94401.3
118751,67928,114570,123869,70105,115796,106798,64092,109204,100695,69363,95139.3,85.663,37865,106798,96636.7
105153,65134,105802,125807,76959,107133,91180.6,60141,99360,100775,68371,96596.2,85.944,37982,91180.6,97309.9
106196,66480,104688,112098,61116,120205,109071,57993,123258,96419.4,67907,93052.9,86.13,38064,109071,92274.7
141903,75747,122774,115340,65789,114897,142519,64045,145836,100685,63197,104412,86.141,38074,142519,95269.5
104761,64390,106625,100482,65505,100530,92675.8,57194,106193,96941.6,64657,98259.5,86.218,38111,92675.8,93419.9
106100,68133,102056,99076.6,54262,119662,101681,61069,109118,99409.8,71163,91549.3,86.839,38322,101681,95545.9
99893.7,64174,102014,157492,94184,109587,100293,66703,98538.5,93790.2,68690,89483.7,86.911,38354,100293,89979.1
112162,66738,110142,114027,67033,111481,94215.8,49859,123840,98036.4,61603,104295,87.048,38412,94215.8,94456.2
64964.7,36287,117329,80154.2,39864,131773,80852.8,51632,102626,93536.8,73782,83083,87.165,38470,80852.8,90464.4
100460,62438,105444,88573.8,53855,107785,93760.8,64715,94950.3,101546,68413,97275.8,87.242,38494,93760.8,97983.3
102387,61726,108706,145926,86548,110498,102203,60082,111480,101870,71645,93183.4,87.257,38507,102203,97985.9
99496.8,65439,99644.3,100150,64328,102031,82013.4,56146,95729.5,94430,67098,92231.7,87.386,38558,82013.4,91313.5
136496,64133,139482,117212,53986,142289,113284,60705,122299,95179,70899,87979.4,87.472,38598,113284,90874.2
114623,68327,109941,116610,62729,121828,109752,55826,128841,99268.4,64139,101431,88.284,38942,109752,95097.8
111758,67765,108081,109438,61732,116182,113530,65441,113695,102847,69574,96877.7,88.313,38954,113530,98532.6
93219.3,61058,100056,66383.8,43209,100686,77994,49502,103257,95845.4,66065,95077.9,88.859,39187,77994,92881.6
135482,72960,121696,183910,81961,147054,140988,61600,149997,103561,62760,108142,88.864,39189,140988,98203.2
104022,65904,103441,92267,55649,108660,86839.2,50491,112715,100845,61267,107872,88.876,39196,86839.2,97544.9
118950,66227,117709,98338.8,58907,109405,101900,54971,121485,102805,68882,97811,89.079,39273,101900,98932.6
102657,68635,98021.6,89825.4,55633,105815,87677.8,57220,100420,93906.4,69361,88727.8,89.346,39400,87677.8,90574.6
107649,66194,106579,131090,80181,107147,100582,57023,115597,98551.6,71197,90715.6,89.436,39444,100582,94729.5
94617.9,59815,103668,89132.4,56811,102821,87040.8,51560,110634,92972.6,66625,91453,89.961,39668,87040.8,89665.1
110401,61564,117524,135384,81071,109442,110181,63366,113955,93948.4,61510,100098,90.266,39811,110181,89761.5
132844,70761,123035,124670,75637,108021,132516,63643,136457,97641.6,57546,111199,90.49,39908,132516,92606
104540,66862,102466,78678.6,49625,103905,82525.8,50208,107720,94116.4,63809,96663.7,90.798,40036,82525.8,90980.4
137116,69733,128863,141294,67283,137625,125882,65214,126504,95132.8,65261,95533.7,90.81,40043,125882,90349.3
157482,77792,132671,216362,96231,147348,183553,91515,131446,105917,76170,91130.1,90.88,40072,183553,98942
113183,68012,109063,101518,61912,107461,117204,67589,113644,93737,63287,97068.1,91.039,40139,117204,89283.3
110610,68034,106549,114901,65005,115839,105360,59897,115279,93319.8,59898,102104,91.049,40145,105360,89316.1
134579,70837,124508,146689,77599,123886,130913,67749,126636,104240,69050,98935,91.201,40203,130913,99265.1
119066,68717,113555,167453,91877,119444,122116,65009,123106,94043.6,60194,102390,91.394,40298,122116,89403.2
104758,65906,104170,108025,66439,106557,93527,59347,103280,93548,58130,105466,91.491,40337,93527,89994
108561,62005,114743,102145,59351,112790,100484,61886,106410,95310.6,65181,95829.7,92.08,40572,100484,91492.2
93800.7,57913,106148,126627,75829,109439,104285,65662,104084,101581,72863,91366.3,92.124,40586,104285,97618.4
145106,71507,132989,150581,64604,152754,135828,63358,140497,102004,61970,107874,92.238,40637,135828,96842.5
114621,67338,111554,109990,61844,116556,103022,55735,121138,93534,57707,106224,92.243,40640,103022,89619.2
81720,53605,99908.6,61262.6,41124,97629.3,63264.6,37984,109154,97307,66335,96134.9,92.39,40706,63264.6,94902.9
110480,66437,108981,93163,57699,105817,92250.2,50740,119151,97276.2,64682,98560.5,92.541,40774,92250.2,93770.7
68118.3,47266,94448.5,67806.2,48631,91376.8,61222,40740,98484.2,92762.6,62909,96636.2,92.67,40829,61222,90436.2
114157,68824,108703,109697,62798,114480,107993,59970,118016,99710.8,62821,104020,93.286,41105,107993,95607.1
121714,65974,120906,101034,57651,114852,116376,56417,135187,101149,69687,95123.6,93.419,41179,116376,96726.3
116330,65260,116821,137890,78158,115622,114513,62288,120484,94962,65182,95477.7,93.564,41240,114513,90610.5
121719,69677,114485,139762,78996,115948,115549,72639,104250,102168,64685,103512,93.678,41290,115549,97776.9
124904,65097,125746,115367,64944,116419,118398,62450,124249,97227.2,69075,92245.8,93.836,41352,118398,92728.1
129316,69261,122361,127571,64792,129036,110475,53513,135296,101774,63803,104539,93.857,41369,110475,97576.3
125266,69256,118537,108794,59002,120842,114580,60141,124859,96971,57171,111159,93.861,41371,114580,92617
128224,66702,125982,178233,96960,120469,148537,77606,125435,101098,60224,110015,93.878,41375,148537,95453.8
80595.9,57785,91406.6,73245.2,50697,94684,69062,50488,89646,91599.2,62837,95533.6,93.916,41397,69062,88974.8
99730.8,62865,103968,95991,58458,107613,98387.8,59801,107823,93469.6,64093,95574,93.977,41424,98387.8,89730.9
102573,65370,102833,100022,64346,101871,103246,62591,108104,100670,76658,86064,94.256,41546,103246,96746.5
109601,67823,105905,99559.6,56169,116163,87999.8,53273,108257,95960.2,67736,92843.5,94.407,41607,87999.8,92616.2
90235.8,68306,86576.5,107638,64653,109108,106620,62932,111032,96258.4,65573,96204.1,94.601,41693,106620,92206.8
113053,72222,102587,81940.6,49163,109230,81048.8,51762,102616,94029.6,66754,92313.9,94.623,41697,81048.8,90949.8
147464,79635,121356,162028,87082,121938,134553,71272,123724,101431,65163,102012,94.679,41714,134553,96318.4
139731,66914,136854,106352,56912,122468,115608,51959,145816,93524.2,58299,105134,95.064,41881,115608,89131.1
109743,58616,122699,121639,60577,131597,113835,61140,122020,103267,68810,98353.3,95.095,41893,113835,98941.1
110158,68375,105584,109997,66487,108423,105160,61960,111229,95246.2,62117,100489,95.144,41916,105160,91250.1
97496.1,58217,109753,99593.2,62247,104855,111821,68958,106272,102024,76918,86926.6,95.181,41933,111821,97774.4
98376.3,60733,106156,113070,64154,115505,102385,55568,120751,98985.6,71458,90782.3,95.518,42071,102385,95095
88033.5,55925,103163,84249.2,55138,100137,103351,56877,119085,101315,68693,96658.9,95.553,42090,103351,97387.9
111146,69612,104638,95083.8,60354,103248,89066.6,56086,104074,95790.8,66150,94901.7,95.841,42217,89066.6,92406.3
116200,68788,110706,102824,61479,109610,99794.8,57864,113026,95338.6,62367,100183,95.87,42233,99794.8,91546.4
126238,69766,118584,144423,75707,125020,117519,61235,125773,93870,57585,106831,95.93,42259,117519,89404.3
141019,69674,132644,124597,69899,116820,126059,58730,140667,101639,60443,110203,95.96,42284,126059,96848.4
97533,64182,99590.6,84903,53723,103572,77581,52090,97607,92772.4,65383,92989.5,96.054,42313,77581,89824.3
114871,61514,122381,135230,76112,116440,143072,77610,120814,101212,60435,109754,96.344,42421,143072,95774.9
142361,73596,126770,120891,65075,121748,111100,56528,128804,95578,63297,98958.9,97.176,42773,111100,91356.2
102517,62782,107014,107360,69817,100777,91515.2,58103,103223,92321.6,63724,94946.8,97.75,42998,91515.2,88844
123079,71583,112681,120848,65315,121257,112053,60570,121240,98232.4,67565,95282.5,97.836,43035,112053,93974.4
115698,72551,104511,126207,77535,106676,103498,61321,110612,101506,68196,97546.4,98.008,43124,103498,97572.7
90011.7,58783,100352,107505,65087,108246,101294,53633,123775,101128,71496,92697.5,98.26,43240,101294,97278.4
100778,62320,105978,107429,61886,113765,99709.4,56332,116001,96097.4,58469,107712,98.463,43324,99709.4,92308.4
119707,67935,115480,136987,83771,107168,112246,63445,115946,97189.4,69996,90996.7,98.796,43446,112246,92924
139994,63921,143531,123735,53781,150780,118080,54377,142312,102585,71605,93890.2,98.874,43480,118080,98098
107294,65716,107000,102911,62993,107066,108069,60739,116604,102973,63995,105452,98.963,43521,108069,98866.2
92723.4,57586,105524,118803,71155,109421,118117,69874,110784,96779.2,57438,110424,99.16,43603,118117,92290.8
129169,72652,116517,175168,100952,113716,117911,73553,105059,99096.2,58573,110876,99.499,43761,117911,94615.6
113543,67267,110621,105522,60360,114571,93298.8,54214,112783,97213.2,65212,97696.2,99.927,43953,93298.8,93667.8
102741,62616,107532,90553.4,50545,117410,99887.2,61648,106187,104072,73109,93291.5,100.28,44098,99887.2,100276
98171.1,62071,103651,133668,81608,107343,120299,73694,106982,94248,62755,98424.6,100.294,44107,120299,89676.6
136559,66506,134567,121808,67163,118858,133949,60322,145527,98060.2,64928,98978.5,100.318,44118,133949,92970.1
108292,65485,108376,97024.2,60026,105930,89777.8,53026,110958,94227,60603,101897,100.343,44137,89777.8,90815.4
104102,61890,110235,101576,60586,109875,102228,63237,105945,97071.8,64443,98718.2,100.736,44304,102228,93187.1
107096,63255,110958,101633,59385,112160,103865,56349,120798,96045.6,62842,100163,100.963,44408,103865,92098.8
105767,64336,107740,105416,48245,143197,89402.6,49754,117761,92275.4,76402,79151.9,101.3,44543,89402.6,88878.1
110738,64653,112250,106575,58364,119671,96682.6,49776,127294,98879.2,63193,102545,101.696,44679,96682.6,95205.3
86411.7,56805,99693.3,101590,62185,107064,111054,65725,110734,100268,68560,95845.4,101.828,44736,111054,96048
106579,64875,107665,104530,60605,113034,105494,63804,108358,96633.6,66094,95817.8,102.024,44819,105494,92624.8
89671.5,60856,96567.5,66257.8,48968,88675.7,71390.2,45661,102464,92429.4,55723,108707,102.092,44853,71390.2,89716.6
117734,68285,112995,115676,60100,126139,106726,59892,116784,100033,65115,100680,102.19,44892,106726,95977.2
152342,71143,140336,128419,51648,162951,139182,56321,161955,95827.2,67930,92450,102.934,45219,139182,90538.3
99313.2,64949,100211,99822.8,62657,104410,82108.6,50015,107589,93214.8,68469,89221.8,103.149,45294,82108.6,90094.7
143187,75936,123577,145972,66501,143854,148424,57794,168306,99555.4,65348,99841.8,103.233,45329,148424,93915.3
112377,68489,107531,106197,60875,114328,106628,62666,111512,101795,68138,97908.1,103.445,45434,106628,97743.5
102078,60120,111274,98795.2,56361,114878,85311.8,47343,118095,99142.4,72123,90087.7,103.486,45453,85311.8,95900.5
99540,61415,106219,113903,70083,106513,104411,60278,113518,94857,59360,104726,103.571,45489,104411,90889.4
111240,69381,105075,87070.2,50408,113201,92127,53036,113840,93605.4,67717,90590.6,103.626,45520,92127,90104.6
117274,66051,116360,106799,64527,108469,118070,67739,114231,96135.2,63118,99818.1,103.668,45540,118070,91648.5
79772.4,54835,95339.9,88421.2,62979,92011.2,78831.2,55977,92292.9,93577.4,60445,101459,103.739,45568,78831.2,90581.8
98775,63016,102725,115861,68110,111483,105445,64631,106922,94851.4,69599,89314.2,103.788,45596,105445,90844.5
122882,69831,115324,180355,102408,115418,130522,67975,125839,101630,61921,107563,104.196,45763,130522,96670.4
121360,67787,117330,115774,65217,116341,111720,63952,114487,99405.6,63601,102430,104.413,45853,111720,95160.2
96748.2,59078,107324,99716.4,59985,108944,126676,65477,126790,93725.8,64891,94657.4,104.844,46062,126676,88912.1
108954,65257,109420,121964,65010,122951,109007,58650,121805,98849.8,66620,97241.4,105.198,46167,109007,94707.5
122918,74851,107622,119066,65248,119591,84791,49773,111644,97812.4,65939,97214.6,105.469,46283,84791,94590.3
80470.8,58015,90903,77096.6,57727,87525.8,69689.2,42842,106605,92740.2,57509,105685,105.705,46390,69689.2,90092
136370,73936,120877,136310,64552,138387,126767,65890,126086,100128,69672,94184,105.833,46447,126767,95310.8
107343,68878,102135,95338.6,59661,104727,87599.4,56084,102363,95482.8,59812,104620,105.867,46468,87599.4,92154
102878,58131,115983,120273,68051,115828,112076,61758,118932,94746.4,64140,96808.5,106.144,46613,112076,90487.5
136742,65101,137655,100107,52705,124478,118742,50022,155570,95992.4,64052,98216.4,106.325,46699,118742,91480.2
117516,70317,109526,107017,60021,116851,103198,58744,115130,95862.2,61409,102305,106.346,46712,103198,91940.7
94305.6,58735,105225,97265,55091,115706,94019.8,56572,108918,92895.6,59858,101707,106.56,46803,94019.8,89322.9
97155,61322,103831,93956.8,59095,104198,90680.8,53050,112024,97035.4,66042,96291.9,106.712,46868,90680.8,93589.5
130340,64985,131445,188867,100836,122750,162504,80353,132538,109627,68734,104526,106.963,46972,162504,103452
133093,83119,104938,112829,60527,122166,124457,68499,119074,97127.8,75377,84447.1,107.21,47098,124457,92398.4
137217,61880,145324,157881,75068,137833,153278,79614,126174,106464,77289,90274.8,107.532,47230,153278,100640
113220,69622,106575,108249,67531,105052,104255,63334,107880,101553,61697,107872,107.542,47231,104255,97591.5
115798,65602,115681,107341,62659,112269,114412,60814,123296,94992.8,66605,93468.2,107.604,47261,114412,90645.1
99553.5,61303,106428,82777.8,51678,104976,93669.8,55820,109974,96201,69543,90658,107.916,47379,93669.8,92641.5
116264,72669,104852,79241.4,40601,127907,82272.4,49761,108354,97486.2,67688,94386.8,107.931,47389,82272.4,94359.8
73956.6,49919,97093.7,66488.8,44374,98197.4,62843.2,44089,93413.1,94518.2,73669,84083.5,108.289,47548,62843.2,92130.2
111277,66105,110319,103851,60348,112778,113589,65464,113714,102299,68131,98403,108.345,47567,113589,97983
103576,67421,100681,117883,70432,109688,93857.4,50989,120635,94092.6,66648,92522.7,108.383,47584,93857.4,90526
158422,68488,151594,170485,83013,134592,181166,75541,157171,104094,69812,97718.4,108.392,47593,181166,97209.9
155493,73266,139088,158463,83399,124522,156822,72641,141484,103568,68651,98868.5,108.393,47595,156822,97608.5
75220.2,47386,104031,142113,86024,108266,126421,77005,107592,96241.6,60921,103532,108.729,47740,126421,91437.6
67243.5,43614,101043,104737,74535,92091.4,88366.6,58954,98232.4,96441.8,61970,101991,109.09,47902,88366.6,93083.9
76885.2,55036,91553.7,79532.6,56275,92621,78474.2,48998,104961,98450.8,66188,97481,109.094,47904,78474.2,95468.8
113706,70206,106142,114689,61465,122286,100128,52846,124172,101249,70563,94036.3,109.633,48113,100128,97444.5
93880.8,59761,102953,76522.6,45069,111274,82392.8,47954,112602,95208.4,69431,89867.3,109.731,48150,82392.8,92077.5
112178,67242,109332,119328,68218,114636,108094,56745,124840,96415.2,59218,106702,109.962,48263,108094,92307.6
84463.2,54955,100726,75157.6,46237,106528,69217.4,37047,122445,93559.2,60953,100594,110.436,48453,69217.4,90928.9
106150,67154,103593,99797.6,62425,104771,106414,67605,103157,102514,65203,103037,110.447,48456,106414,98469.9
115560,65181,116189,140511,77134,119384,128225,64527,130230,95310.6,58342,107063,110.484,48473,128225,90438.1
112794,65638,112619,106474,56318,123902,109005,65654,108809,103851,74599,91233.8,110.691,48553,109005,99708.4
106573,68029,102667,83116.6,47321,115110,96877.2,62228,102027,94290,69316,89148.1,110.781,48592,96877.2,90608.7
138352,79713,113746,165981,90755,119858,140293,81624,112641,102344,62658,107045,110.802,48602,140293,97013.1
124660,60082,135976,107365,44313,158785,125804,57877,142452,98273,62505,103038,111.119,48751,125804,93492.4
106430,66144,105451,90902,54359,109593,98593.6,56175,115023,94280.2,60406,102287,111.285,48825,98593.6,90533.6
155964,67146,152224,138081,46561,194353,128920,47003,179753,96724.6,63624,99631.3,111.658,48989,128920,91825.6
120465,65990,119636,116444,63974,119287,115199,61802,122159,102732,61984,108619,111.952,49121,115199,98354.4
104081,65842,103598,101828,61083,109251,103942,59089,115282,103849,65426,104024,111.982,49138,103942,99899.4
122623,58670,136973,108741,58249,122344,118268,61640,125743,103592,79265,85649.1,112,49146,118268,99097.4
113338,65409,113558,96230.4,54331,116077,107124,59138,118713,105041,70236,98011.6,112.112,49183,107124,100970
113480,70726,105153,97857.2,59190,108349,82549.6,54149,99909,95884.6,60918,103153,112.15,49203,82549.6,92747.7
111226,69637,104676,115552,67799,111695,120858,63977,123803,102022,68426,97713.2,112.385,49302,120858,97429.6
123262,70267,114963,135818,72733,122379,117400,65492,117479,100493,61789,106588,112.418,49319,117400,96032.2
113494,69598,106870,102676,57239,117559,101563,61484,108256,97995.8,66958,95914.6,112.495,49355,101563,94136.4
105082,67615,101851,119161,78631,99316.2,98434,56571,114033,101165,72195,91834.3,112.747,49453,98434,97424.9
104363,61646,110949,109372,65299,109769,102953,56688,119022,94497.2,60925,101649,113.018,49572,102953,90585
97349.4,65713,97087.2,86707.6,51570,110189,95011,59813,104102,92598.8,72121,84144.1,113.311,49707,95011,88988.4
99859.5,60445,108270,105189,64695,106556,97045.2,55897,113780,94777.2,59659,104114,113.314,49708,97045.2,91089.5
78834.6,56763,91018.9,62972,43958,93883.6,66264.8,46621,93149.6,99366.4,76960,84616.4,113.325,49720,66264.8,96848.3
115991,66481,114342,112209,62639,117398,112367,67362,109321,102140,64334,104048,113.452,49756,112367,97869.9
135491,66721,133085,117335,51045,150645,104017,49887,136646,97392.4,61731,103396,113.605,49816,104017,93439.7
124844,64298,127248,98812,59288,109225,106666,55977,124881,98691.6,72207,89573.8,113.668,49851,106666,94638.3
128537,70596,119324,147874,75614,128165,129963,64023,133035,95243.4,61576,101369,113.785,49900,129963,90304.8
102018,61135,109362,85089.2,51920,107404,83560.4,49240,111215,95852.4,65802,95464.9,113.877,49941,83560.4,92677.1
113924,68352,109230,103872,64056,106272,92016.4,56201,107300,101699,66042,100920,113.896,49951,92016.4,98202.2
114212,66280,112930,112052,65710,111755,101370,55653,119371,97846,65468,97947.6,113.901,49954,101370,93993.9
101178,66227,100122,76595.4,46535,107871,83640.2,54064,101388,99003.8,68607,94572.2,113.933,49971,83640.2,95825.5
119480,68015,115125,131965,72657,119032,116736,63785,119941,99727.6,60233,108508,113.954,49979,116736,95291.6
111812,67437,108660,130266,77028,110831,101524,59872,111128,98453.6,67365,95780.5,113.979,49987,101524,94595.7
131613,74698,115470,109137,59013,121200,116868,60625,126335,102089,68490,97686.2,113.996,49996,116868,97648.4
134231,71202,123550,113583,62550,119006,122765,65261,123282,103614,69068,98315.4,114.041,50015,122765,98948.9
127210,70124,118888,150608,81363,121311,126818,70059,118630,104303,71039,96223,114.051,50018,126818,99483.7
113546,67358,110474,95949,55670,112953,101118,60547,109450,99208.2,69621,93387.2,114.18,50076,101118,95365.7
117103,65838,116565,125965,72975,113124,101940,56667,117894,94913,61893,100500,114.244,50108,101940,91039.3
107660,65939,107002,125427,76114,107996,110404,64111,112858,97283.2,64600,98692.7,114.941,50405,110404,93087.8
107664,61138,115409,92821.4,42217,144092,93349.2,50132,122032,95446.4,66358,94264.1,115.018,50453,93349.2,91899.1
114528,66881,112225,89416.6,47736,122759,90938.4,53703,110976,92768.2,64017,94969.4,115.251,50546,90938.4,89312.5
118292,65590,118195,152418,80693,123789,121199,63043,125992,104357,66512,102826,115.536,50660,121199,99751.8
93426.3,59382,103108,97332.2,57047,111816,103698,58980,115225,94528,67568,91685.2,115.57,50678,103698,90587.5
115307,68632,110106,114244,65413,114459,110667,55978,129563,98420,60438,106722,115.626,50708,110667,94214.6
120675,68410,115605,122034,60024,133240,114947,62149,121211,102971,72716,92804,115.648,50714,114947,98603.4
100364,62819,104704,78801.8,47604,108486,78464.4,44830,114705,92393,68759,88062.2,115.693,50730,78464.4,89411.4
103035,66796,101091,98807.8,62950,102867,101321,60273,110168,95860.8,66127,95004.1,115.699,50735,101321,92010.6
101460,64614,102907,77834.4,48321,105564,90078.8,50745,116335,97318.2,69841,91319.5,115.873,50811,90078.8,93895.2
106484,62350,111926,98351.4,59960,107498,101083,59006,112269,92960,64391,94613,115.922,50846,101083,89118.9
115856,54579,139115,132707,60095,144723,118794,61773,126031,96366.2,74160,85159.9,115.937,50850,118794,91852
137734,69589,129712,121607,69854,114090,124081,63122,128826,95981.2,61294,102624,116.301,51026,124081,91266.1
107020,67042,104616,107416,62820,112061,103223,61319,110322,102169,72336,92564.7,116.499,51115,103223,98246.7
116398,69369,109966,108616,62808,113334,115989,64755,117388,96955.6,69381,91582.5,116.734,51207,115989,92548
109549,67930,105688,127336,75848,110024,97094.2,62412,101954,100877,68129,97037.6,116.765,51209,97094.2,97187.4
95304.6,58284,107163,94691.8,60040,103360,109199,69407,103108,102796,69396,97078.6,116.834,51236,109199,98646.9
113457,64723,114882,114598,67439,111365,108308,68540,103561,103988,74094,91977,116.993,51320,108308,99872.1
125363,67451,121804,86823.8,44114,128986,92257.2,54718,110497,93357.6,74397,82238.3,117.3,51436,92257.2,89851.8
114503,68952,108831,115605,67353,112486,114253,67959,110179,95499.6,57904,108087,117.312,51440,114253,91158
100912,63067,104863,89539.8,54990,106712,95568.2,57831,108301,98351.4,66993,96212.4,117.499,51516,95568.2,94719.8
114804,68297,110163,128565,78152,107811,112928,65501,112989,102504,64639,103926,117.986,51731,112928,98212.5
115870,68985,110077,107064,58858,119211,93563.4,50788,120733,94115,58253,105882,118.008,51741,93563.4,90559.6
110595,62950,115138,132705,74165,117265,133710,74591,117478,96567.8,58052,109017,118.042,51767,133710,91486.8
93207.6,62201,98205.1,70639.8,47821,96807.9,83410.6,46822,116748,96724.6,65263,97129.2,118.26,51856,83410.6,93555
108994,66828,106887,69745.2,45166,101200,84827.4,47574,116855,92558.2,65204,93029.5,118.45,51942,84827.4,89334.8
127655,69811,119838,138162,74851,120968,122913,55589,144907,103552,72563,93524.4,119.038,52183,122913,98881.7
116480,66055,115565,130967,65794,130454,113572,63641,116954,96357.8,62615,100853,119.307,52300,113572,92042.1
100119,62855,104389,99979.6,62427,104959,99113,62503,103923,96500.6,64823,97562,119.348,52320,99113,92734.3
104943,66810,102942,84736.4,49638,111876,86639,47200,120296,100961,70918,93299,119.631,52465,86639,97668.7
140378,70233,130990,125252,71509,114790,135859,68122,130701,99579.2,65000,100400,119.834,52556,135859,94416.6
87730.2,56675,101447,88016.6,50916,113290,90589.8,48506,122395,100356,66883,98335.1,120.672,52895,90589.8,96913.8
125117,67682,121150,91609,47333,126839,105483,50217,137661,100874,69779,94740.4,121.013,53038,105483,96865.8
100109,60268,108859,96567.8,57125,110786,95264.4,55613,112262,97479.2,58954,108362,121.014,53041,95264.4,93859.1
137906,74389,121494,121232,69655,114063,142600,69838,133816,103716,67790,100268,121.143,53096,142600,98297.4
104442,65935,103810,94074.4,58567,105268,98193.2,53678,119885,96444.6,67047,94271.1,121.225,53130,98193.2,92713.3
110791,72026,100808,106960,63408,110550,97305.6,58899,108270,98967.4,68155,95164.4,121.342,53184,97305.6,95269.8
140267,65433,140488,129262,73323,115534,126245,62863,131613,96450.2,67004,94337.1,121.5,53259,126245,91652.9
108300,66972,105978,121927,70179,113861,106016,65128,106681,100696,65474,100792,122.171,53505,106016,96667.8
113236,67979,109167,152933,94700,105836,148653,87213,111705,103594,65356,103880,122.256,53545,148653,97945.6
81331.2,57805,92208.6,74666.2,49850,98161,67165,45157,97476,92864.8,65532,92870.5,122.26,53548,67165,90312.5
101906,59503,112238,98063,57338,112084,99556.8,55843,116837,98771.4,68158,94971.7,122.275,53556,99556.8,94988.2
107704,63630,110930,115664,66088,114698,104196,55239,123619,96910.8,70480,90112.7,122.448,53631,104196,92951.3
113955,71713,104140,116964,70265,109092,103433,67149,100949,94362.8,78347,78933,122.538,53666,103433,90432.3
88157.7,62205,92878.4,98403.2,65782,98035.2,84324.8,55404,99745.7,95153.8,68497,91040.5,122.626,53704,84324.8,91949.5
118774,68002,114467,137941,73559,122896,102715,49365,136363,97326.6,66394,96068.9,122.681,53729,102715,93423.4
140570,74207,124145,130654,60413,141733,132268,60411,143489,94778.6,66651,93193.1,122.705,53737,132268,89752.4
114200,68080,109933,131642,80081,107732,108790,63642,112027,100731,65134,101353,123.018,53856,108790,96597.4
119146,69520,112319,115718,71300,106364,108249,59547,119137,96632.2,59041,107263,123.208,53937,108249,92518.7
104002,66285,102827,96993.4,56522,112462,90731.2,50784,117087,102112,65725,101818,123.309,53981,90731.2,98664
116044,69547,109352,90315.4,59212,99961.3,104902,66909,102749,100549,66620,98913.3,123.345,54001,104902,96563.1
118266,67203,115333,115423,65633,115252,112158,60889,120718,102575,66552,101009,123.445,54035,112158,98313.2
113605,61263,121529,129398,79089,107224,114719,64251,117013,103688,66328,102450,123.522,54058,114719,99328.9
117677,71601,107709,103597,61076,111162,111408,57351,127308,102659,68695,97938.3,123.635,54110,111408,98425.7
110696,71710,101166,86291.8,53464,105776,96294.8,51951,121476,92906.8,60757,100215,123.924,54235,96294.8,89247.6
77263.2,52596,96272,115811,70988,106916,138786,84165,108067,97542.2,75108,85111.1,124.094,54324,138786,92268.3
121027,66571,119145,139815,69168,132474,131253,74991,114704,104838,66592,103175,124.25,54381,131253,99850
125050,68916,118917,112715,66838,110520,118376,62652,123825,104149,68324,99899,124.255,54385,118376,99650.5
109012,66285,107780,98982.8,61226,105951,98372.4,56888,113327,104052,64754,105309,124.4,54459,98372.4,100314
123247,69218,116691,121976,74835,106820,113666,63265,117746,102911,67932,99281.5,124.581,54542,113666,98591.9
108551,63163,112629,129844,78684,108148,114216,67244,111315,97756.4,65786,97384.9,124.655,54579,114216,93416.2
73377.9,49797,96570,81894.4,57409,93487.6,80420.2,52912,99607.2,92601.6,60847,99737.7,124.726,54613,80420.2,89545.6
128895,66827,126405,133594,69164,126586,125286,58279,140887,102227,69014,97074.8,124.918,54719,125286,97465.7
106021,67481,102965,86296,53207,106292,93167.2,55761,109500,93762.2,59811,102737,124.918,54720,93167.2,90221.8
131360,63690,135167,143437,71416,131627,132754,62160,139964,99789.2,71598,91340.3,125.102,54813,132754,94744.6
115026,65109,115781,174496,90420,126474,123336,63917,126460,94453.8,58184,106389,125.295,54896,123336,89767
129276,72496,116865,161682,79768,132835,119517,59548,131535,96133.8,60966,103340,126.099,55225,119517,91592.2
122441,68774,116677,101102,62105,106688,112340,59866,122980,103096,72675,92968.7,126.233,55277,112340,98827.1
135144,68764,128800,123599,69730,116165,122707,57766,139212,106084,65580,106012,126.233,55278,122707,101421
121743,67900,117504,101462,61076,108871,105629,55519,124687,101591,60716,109656,126.233,55279,105629,97577.1
122926,71821,112169,120884,69360,114220,98084,57162,112453,99264.2,69793,93209.6,126.411,55365,98084,95537
103823,61022,111503,124554,73253,111432,128906,76413,110557,100279,62892,104495,126.51,55400,128906,95380.8
99387.9,57950,112398,105171,65382,105419,109452,57787,124129,94102.4,61588,100135,126.52,55402,109452,89943.2
136026,72218,123440,112070,62900,116767,125940,63199,130597,94641.4,64845,95649.9,126.876,55562,125940,89855.7
121677,70057,113825,137696,77265,116793,140062,83309,110181,102882,68301,98716.9,127.172,55703,140062,97559.5
88258.5,59992,96414.7,71976.8,39292,120052,62426,38075,107450,95191.6,66375,93988.4,127.49,55861,62426,92819.4
111028,69641,104483,114796,69589,108110,104664,64834,105797,96965.4,64341,98766.3,127.632,55916,104664,92988.2
120243,70793,111314,172542,97941,115454,99807.4,57626,113507,92792,60329,100801,128.452,56253,99807.4,88999.3
144592,70654,134118,153010,73488,136453,130771,58028,147691,101191,63537,104374,129.065,56524,130771,96221.3
110942,63693,114152,104152,60658,112527,103004,62237,108464,95333,67807,92140.1,129.275,56623,103004,91418.9
91206,61443,97281.7,94557.4,59715,103775,110559,69677,103989,97291.6,63357,100638,129.378,56674,110559,93090.3
111964,68398,107280,97673.8,62386,102606,88877.6,52369,111224,102655,68415,98335.1,129.406,56694,88877.6,99277.6
113057,64091,115606,107029,64269,109139,112724,58166,127007,97529.6,69986,91328.3,129.575,56769,112724,93246.1
133084,69294,125866,102063,57818,115687,128355,62341,134933,94784.2,76783,80900.4,129.602,56778,128355,89906.7
127925,60770,137958,175914,64789,177942,152001,61760,161294,95114.6,59548,104679,129.637,56795,152001,89338.6
121010,70968,111747,132469,72488,119765,119876,63586,123553,99472.8,65915,98900.9,129.703,56818,119876,94917.5
109939,65837,109436,95383.4,55455,112723,103046,56909,118667,99677.2,67772,96388.6,129.821,56878,103046,95761.5
121735,69818,114269,102606,60939,110346,101800,57149,116739,98065.8,61272,104890,130.021,56963,101800,94197.4
113103,70449,105215,102903,65923,102299,106561,64901,107604,94267.6,60405,102275,130.026,56968,106561,90218.3
122602,68295,117650,109882,60447,119133,107884,54299,130210,97074.6,71166,89395,130.227,57062,107884,92975
128854,70739,119376,153198,84925,118222,126102,68978,119810,104976,71313,96472.2,130.259,57087,126102,100184
141016,71498,129257,133116,74174,117614,122987,67523,119368,94603.6,64402,96269.4,130.461,57190,122987,89930.1
121360,72037,110408,90799.8,54685,108817,92401.4,57531,105258,103319,72667,93179.7,130.939,57393,92401.4,99807.4
99756.9,62053,105356,90802.6,55834,106581,86520,52859,107270,95268.6,65457,95383.6,131.335,57543,86520,91980.8
110084,67911,106234,89107.2,50497,115645,109554,62333,115184,101795,73448,90829.8,131.625,57677,109554,97632.3
150836,72623,136116,149191,62911,155416,119472,55406,141315,101881,65323,102213,131.893,57804,119472,97340.9
118454,69485,111722,133913,80128,109526,127847,69405,120720,100874,66726,99075.2,132.458,58072,127847,96016
119178,66886,116773,112846,56238,131503,106546,53009,131724,101591,72894,91336.3,132.516,58096,106546,97542.3
102733,60314,111628,99164.8,60802,106886,104153,65993,103432,97816.6,66241,96775.5,133.254,58390,104153,93858.8
112986,68668,107833,112634,63558,116140,103062,58632,115198,97686.4,61861,103490,133.316,58423,103062,93770
145344,73332,129892,147113,72052,133809,121190,64866,122441,102571,68468,98178.6,133.502,58502,121190,97965.8
106621,68338,102250,102347,65251,102794,94689,53488,116017,99503.6,64778,100668,133.646,58564,94689,95905.4
110767,65254,111245,101521,62351,106707,105249,59180,116553,94430,63515,97434.7,133.794,58628,105249,90430.5
97992,59563,107819,109264,66327,107961,112232,61018,120543,100512,67454,97653.6,133.85,58653,112232,96246.8
96194.7,64445,97823.2,91861,58244,103362,86682.4,57366,99027.6,93452.8,65865,92986,134.827,59063,86682.4,90158.9
107669,66339,106366,126403,74490,111209,112501,62625,117731,102669,71154,94562.7,135.16,59207,112501,98394
125209,73537,111586,129023,73622,114852,115790,67010,113243,95124.4,57711,108022,135.212,59221,115790,90724.4
131365,73467,117184,166487,93350,116881,147862,83396,116196,98002.8,68279,94065.7,135.513,59362,147862,92384
119871,67320,116694,106898,67540,103727,98508.2,52009,124129,93851.8,67755,90778.1,136.144,59643,98508.2,90108.5
102393,62842,106783,124895,71404,114631,117137,59995,127955,98715.4,68195,94866.4,136.224,59677,117137,94264.2
110662,65903,110046,104173,58379,116944,114181,66034,113320,100351,68715,95708,136.486,59775,114181,96011.7
114459,69455,108001,104929,59688,115209,90267.8,51868,114055,101076,68470,96744.6,136.486,59776,90267.8,97645.6
102131,62660,106819,129637,83797,101387,110324,60768,118980,97713,62804,101964,136.645,59858,110324,93520.7
122798,69207,116284,145795,82006,116513,133294,74072,117933,104563,71139,96327.7,136.711,59886,133294,99498
84537.9,56430,98179.6,88449.2,58421,99221.3,93510.2,61013,100442,96299,66594,94769.1,136.797,59917,93510.2,92745.6
146288,66474,144224,125117,62492,131211,133042,66294,131521,96399.8,68342,92441.8,136.804,59923,133042,91344.2
114751,66295,113437,120028,73796,106593,121323,66122,120247,101069,63104,104964,136.919,59980,121323,96458.5
134849,69896,126437,135365,84011,105596,154356,85280,118619,111730,71055,103052,137.095,60059,154356,105864
129675,70985,119721,101958,60826,109853,112004,61271,119801,100927,63723,103799,137.256,60125,112004,96671.2
163660,66322,161721,204043,92392,144733,163040,69459,153831,97679.4,62445,102514,137.256,60126,163040,91483.9
125921,73052,112965,123518,73805,109679,116126,65468,116246,102507,72102,93171.8,137.42,60204,116126,98093.8
112523,68688,107360,120392,72363,109033,98249.2,57696,111600,94662.4,60672,102251,137.587,60286,98249.2,90928.9
111945,64316,114068,98495.6,59769,107999,108265,61189,115956,95097.8,67711,92043.1,138.475,60693,108265,90983.7
102567,65934,101948,93825.2,57857,106278,96014.8,62685,100382,94680.6,63739,97349.9,139.11,60952,96014.8,91032
118184,61314,126321,154844,86799,116912,141655,73463,126370,105900,70350,98653.5,139.477,61109,141655,100517
99788.4,64738,101018,89000.8,54623,106782,91768.6,54636,110077,97564.6,65135,98165.3,139.543,61148,91768.6,94077.4
137578,68899,130863,158396,77195,134473,141308,64452,143684,97105.4,66896,95131.2,139.665,61198,141308,91735.7
113299,68655,108152,134473,76491,115214,126081,71052,116293,101998,73116,91424.1,139.756,61245,126081,97207.3
