"FSC-A", "FSC-H", "FSC-W", "SSC-A", "SSC-H", "SSC-W", "FITC-A", "FITC-H", "FITC-W", "PE-A", "PE-H", "PE-W", "Time", "Event #", "Comp-FITC-A", "Comp-PE-A"
147355,76865,125637,196627,85256,151147,156209,74010,138324,99817.2,64940,100733,3.393,812,156209,93881.2
94710.6,63270,98102.6,44392.6,24923,116732,78913.8,40479,127762,94873.8,61686,100795,3.474,832,78913.8,91875.1
114484,71607,104778,112351,58373,126138,101396,57575,115417,97577.2,76454,83642.7,4.215,1021,101396,93724.1
86097.6,56767,99397.4,129265,86472,97968.1,115678,68137,111262,101567,61844,107631,6.691,1636,115678,97171.4
99743.4,64267,101713,129174,71183,118926,121803,63751,125213,97041,67021,94890.8,7.426,1823,121803,92412.5
96381.9,62300,101388,117769,73501,105007,140473,77433,118891,97865.6,66340,96679.5,7.505,1841,140473,92527.6
97004.7,51317,123883,149593,77915,125826,152582,83625,119577,99430.8,69633,93580.6,7.889,1946,152582,93632.7
121913,69356,115198,134641,71121,124068,130332,65839,129732,96024.6,66140,95147.7,8.832,2176,130332,91072
105304,66220,104216,72647.4,39386,120881,82331.2,40927,131836,96807.2,58382,108670,10.873,2665,82331.2,93678.6
96068.7,56536,111362,211917,139003,99912.7,155142,88153,115338,100717,65438,100868,11.558,2840,155142,94822
105757,66937,103544,143510,76530,122894,132079,68839,125741,98368.2,67626,95328.1,12.302,3030,132079,93349.2
88290,59237,97678.4,79382.8,42702,121831,84233.8,43158,127910,96558,65573,96503.5,12.649,3138,84233.8,93357.1
132020,71165,121578,169308,83554,132797,139727,62857,145682,100491,68787,95741.2,13.089,3256,139727,95181
80469.9,54334,97060.3,56222.6,38272,96274.1,75167.4,42165,116831,96084.8,70090,89841.8,13.551,3361,75167.4,93228.4
104567,53705,127603,144911,72094,131729,133295,64026,136439,96646.2,68016,93122.3,14.99,3726,133295,91581
107179,63897,109928,139524,83787,109132,123857,67708,119883,93522.8,59819,102461,15.053,3741,123857,88816.2
113206,63423,116978,156537,87597,117114,139671,81292,112600,96672.8,64812,97752.7,15.055,3742,139671,91365.3
99511.2,70253,92829.7,127425,91516,91251.1,112570,74465,99071.7,99762.6,68138,95952.9,15.224,3790,112570,95485
116715,74033,103319,77939.4,42579,119961,88975.6,42340,137721,97547.8,63469,100725,15.786,3914,88975.6,94166.7
81377.1,50147,106350,59364.2,38198,101851,105444,46485,148658,95447.8,63032,99239.5,17.648,4404,105444,91440.9
130401,71803,119020,145256,79656,119507,142905,70361,133105,100134,62669,104715,17.788,4451,142905,94703.2
104796,73425,93536.4,149183,93001,105126,153936,85563,117905,100323,68255,96326.2,18.101,4544,153936,94473
68479.2,45177,99339.3,84548.8,52270,106007,127331,79625,104801,96444.6,68027,92913,18.354,4616,127331,91606
140201,84511,108722,188719,109896,112542,159246,89184,117020,100195,65184,100736,18.498,4659,159246,94143.9
85991.4,58278,96700.9,139448,84299,108410,151451,87739,113125,103975,70142,97147.5,20.353,5143,151451,98220.1
140224,72827,126186,144060,66027,142989,168413,82665,133516,109890,69971,102925,20.405,5162,168413,103490
105625,63816,108472,126056,74873,110336,125980,68961,119724,101048,64889,102055,20.492,5185,125980,96260.5
108760,69765,102167,154714,74261,136536,169376,84289,131693,96993.4,64745,98178.4,21.148,5348,169376,90557.1
116155,59678,127557,164795,90131,119826,139881,76600,119677,99155,63969,101584,22.02,5586,139881,93839.5
119219,62022,125974,155960,78508,130190,151978,70965,140352,95033.4,58099,107198,23.068,5870,151978,89258.2
83817.9,60568,90692.9,47257,31624,97933.1,76427.4,48643,102970,98938,72103,89926.9,23.475,5964,76427.4,96033.8
106744,64077,109175,132093,76519,113133,149428,80962,120957,95683,58775,106690,24.334,6190,149428,90004.8
96216.3,55904,112794,106693,56267,124268,129476,66694,127228,94742.2,61756,100541,24.924,6371,129476,89822.1
94256.1,62969,98098.5,132980,77147,112966,153422,86341,116453,103338,77109,87828.6,25.164,6428,153422,97508.2
94593.6,62626,98989,137234,88347,101800,133483,83902,104264,95982.6,66316,94853.7,27.075,6965,133483,90910.2
89093.7,48921,119353,168685,102675,107669,168451,89718,123048,100262,72788,90273.1,27.908,7173,168451,93861.3
103787,66618,102101,96877.2,51353,123633,109561,61799,116186,97367.2,79134,80636.1,28.775,7468,109561,93203.9
166763,73678,148334,204754,78570,170787,203265,87288,152611,108994,67204,106289,28.783,7469,203265,101270
99779.4,60716,107700,114995,70446,106980,123431,62681,129053,96899.6,66402,95635.9,29.235,7613,123431,92209.2
76786.2,48383,104009,125468,72089,114063,142351,76546,121876,100047,66699,98302.3,30.171,7881,142351,94637.5
125175,69117,118689,134686,71975,122636,145778,73219,130481,97088.6,59557,106835,30.65,8007,145778,91549
95049.9,62576,99546,51931.6,39099,87045.4,98305.2,53586,120228,94218.6,72582,85072.2,31.076,8126,98305.2,90483
113029,60469,122500,109248,65801,108808,148296,78289,124139,99225,67103,96907.9,31.076,8129,148296,93589.7
126609,66100,125529,164608,84455,127734,169127,89168,124304,95531.8,65601,95437.1,31.216,8164,169127,89105
97974,63180,101627,110342,68780,105138,120956,75465,105042,101928,73380,91032.7,31.892,8353,120956,97332.1
110102,68673,105072,125762,71184,115784,150403,93269,105682,95550,67196,93189.5,32.776,8615,150403,89834.7
81620.1,49671,107690,116981,64542,118783,132411,75829,114437,100745,73742,89534.5,33.099,8687,132411,95713.8
152544,74431,134314,176436,78621,147072,174180,78196,145980,102812,61195,110105,33.38,8768,174180,96193
110739,69132,104978,165035,85373,126688,181637,100336,118639,101034,62411,106093,34.014,8965,181637,94131.6
121849,67278,118694,211194,107569,128669,193872,93918,135284,105636,63956,108245,35.426,9372,193872,98268.5
86652.9,62936,90232.7,129759,80455,105697,169352,111223,99787.6,102843,73179,92101.5,35.484,9392,169352,96407.2
122628,62522,128539,142268,63597,146606,141105,53802,171879,94204.6,67174,91907.5,36.116,9576,141105,88842.6
110260,53202,135822,153640,75788,132857,174020,89505,127418,100520,68906,95603.9,37.383,9933,174020,93907.2
108306,67606,104990,125586,71721,114755,124487,80597,101224,97484.8,67859,94147.6,38.446,10254,124487,92754.3
102778,62492,107785,156024,90698,112739,121331,64085,124078,96825.4,65623,96697,39.958,10682,121331,92214.8
102649,60558,111087,88191.6,33429,172896,82961.2,41468,131112,92348.2,67917,89110.7,41.102,10993,82961.2,89195.7
103355,60730,111534,131345,78965,109008,137162,75586,118925,97238.4,63036,101095,41.772,11208,137162,92026.2
130380,67692,126228,232197,118069,128884,182192,96707,123467,100975,69422,95322.8,41.838,11229,182192,94051.7
75871.8,46760,106337,101748,62860,106079,138438,89692,101153,97022.8,79415,80066.6,42.841,11505,138438,91762.2
97334.1,52459,121598,120561,72516,108956,127782,69519,120461,95957.4,64079,98139.2,43.608,11720,127782,91101.7
106943,67955,103137,121150,78772,100794,130014,78009,109226,100164,70830,92677.9,44.992,12103,130014,95223.9
136966,66531,134918,176940,69298,167335,169855,81968,135804,98736.4,60352,107217,46.879,12627,169855,92281.9
67449.6,48167,91771.9,65164.4,44543,95876.2,72245.6,43800,108098,101835,61188,109071,47.617,12825,72245.6,99089.3
98189.1,62013,103767,131571,58610,147118,133011,75941,114787,99666,65835,99213.4,48.07,12963,133011,94611.6
69834.6,31808,143885,101370,59632,111406,138816,70555,128941,94572.8,71831,86284.8,49.686,13427,138816,89297.8
98523,62500,103309,78577.8,43681,117893,95050.2,48778,127705,95271.4,69811,89437.3,49.781,13445,95050.2,91659.5
117290,60881,126258,135236,70821,125144,151346,76424,129784,101927,68165,97995.9,49.848,13467,151346,96175.9
102666,56092,119951,104047,64568,105606,153556,85194,118124,103527,70644,96041.5,49.857,13470,153556,97692.1
109940,67419,106869,144533,74711,126784,169126,86004,128876,101683,72244,92241.9,50.695,13712,169126,95256.6
107123,63706,110201,148875,101451,96171,179005,99468,117940,111971,81559,89973,51.976,14072,179005,105168
127710,67204,124540,148432,66301,146720,129748,62218,136667,99429.4,60945,106919,52.049,14103,129748,94499
93694.5,60566,101383,82527.2,53261,101547,110911,59785,121580,100022,65287,100403,52.889,14350,110911,95807
127286,70590,118173,153276,85477,117518,176385,91100,126888,102332,63644,105374,53.147,14432,176385,95629
90580.5,61687,96232.3,118500,77858,99746.1,112486,68739,107244,102036,75405,88681.7,54.37,14773,112486,97761.7
96720.3,57939,109402,128027,70958,118244,139399,76649,119188,95466,62585,99967.4,54.456,14803,139399,90168.8
86534.1,43097,131589,156450,67851,151112,157930,77554,133457,101196,61834,107255,54.521,14821,157930,95194.9
109448,62979,113892,160847,79523,132557,153189,83415,120355,99400,76644,84994,54.685,14878,153189,93578.8
89732.7,52049,112984,154319,86939,116328,154665,85232,118924,101161,65782,100783,57.051,15571,154665,95283.9
85813.2,52945,106221,91483,57593,104100,119246,68392,114267,102318,71334,94001.3,58.117,15877,119246,97786.2
111012,59565,122141,125318,70646,116254,136507,79564,112439,94199,68097,90656.4,58.121,15878,136507,89011.7
114696,72466,103728,140819,77511,119063,134697,77804,113458,95369.4,64980,96185.4,58.724,16060,134697,90250.9
133821,65907,133068,140885,75618,122101,150142,73399,134057,96787.6,61354,103385,59.586,16298,150142,91082.2
98597.7,68081,94911.9,62741,44911,91554.3,82779.2,45064,120385,99426.6,72767,89546.4,60.595,16597,82779.2,96281
97870.5,64882,98857,58986.2,35525,108817,93489.2,43813,139842,97088.6,62033,102571,60.958,16702,93489.2,93536
82248.3,48422,111318,67961.6,21563,206554,103566,39161,173319,101399,68717,96705.3,62.327,17080,103566,97463.7
127842,70966,118060,151605,82869,119895,167083,83573,131023,103186,67898,99596,63.092,17320,167083,96836.4
114413,60644,123643,227074,117206,126969,174143,81426,140160,98158.2,65883,97641.2,63.812,17518,174143,91540.8
128202,75009,112011,118763,63304,122951,147745,78846,122804,96576.2,74097,85418,63.87,17535,147745,90961.9
99938.7,60586,108104,88904.2,52740,110475,106747,53434,130924,94208.8,62639,98565.9,64.25,17648,106747,90152.4
95657.4,63528,98681,51545.2,31866,106008,77035,46456,108674,95757.2,72517,86538.9,64.305,17664,77035,92829.9
85455.9,55636,100662,136819,81080,110589,142026,82557,112744,103727,67587,100580,64.465,17703,142026,98330.4
108113,58864,120368,151469,87599,113319,140666,76344,120752,100593,64725,101853,65.624,18016,140666,95247.5
121382,66348,119897,171377,73538,152729,180176,88382,133602,102495,64528,104096,65.687,18033,180176,95648.7
108551,57646,123408,213424,96599,144794,200362,85345,153857,101781,62972,105926,66.268,18174,200362,94167.6
141502,72853,127291,193396,84215,150500,170789,79369,141022,96881.4,61486,103263,66.927,18391,170789,90391.4
105641,64600,107172,99822.8,59321,110281,109424,59291,120949,97434.4,63962,99832.1,67.372,18513,109424,93276.3
112110,61516,119437,116088,67775,112253,121247,61238,129757,101073,75256,88018.5,68.067,18715,121247,96465.6
112785,67730,109132,156191,80868,126578,124548,55229,147792,96441.8,64154,98519.3,68.323,18791,124548,91709
111406,66276,110162,133617,80255,109112,136745,79555,112648,98977.2,66297,97841.1,68.662,18883,136745,93780.9
66695.4,38288,114160,129315,67281,125961,129335,70747,119808,96847.8,69583,91215.1,69.06,19011,129335,91933.1
102233,54376,123215,150980,79903,123833,160009,79178,132440,102645,69169,97253.9,69.068,19012,160009,96564.9
133454,78716,111109,139906,78816,116333,140955,80717,114444,98628.6,63224,102235,69.933,19252,140955,93272.3
108321,68152,104163,95881.8,61033,102956,101836,64572,103356,93788.8,66931,91834,70.484,19417,101836,89919
102142,63028,106206,111562,58653,124654,110463,58469,123814,97846,69260,92585,71.77,19786,110463,93648.4
109709,73425,97921.6,67849.6,33566,132473,87914.4,50767,113490,93725.8,61744,99482,72.238,19922,87914.4,90385
76961.7,54958,91774.8,88452,59126,98041.3,115573,71123,106494,97895,67825,94591.2,73.357,20246,115573,93503.2
91037.7,67525,88356.1,92985.2,63396,96124,106687,69572,100498,98429.8,78661,82006.3,73.534,20296,106687,94375.7
85759.2,54812,102538,112217,77662,94695.6,108905,65242,109395,97333.6,65883,96821,74.293,20504,108905,93195.2
105995,68881,100847,153387,96598,104064,121947,73657,108502,94616.2,60040,103277,74.779,20625,121947,89982.2
100265,65578,100201,175301,109924,104513,145543,85181,111977,98222.6,70341,91513,76.448,21098,145543,92692
123127,73580,109667,102469,58123,115538,112897,57080,129622,95621.4,58161,107746,76.488,21114,112897,91331.3
100142,56758,115630,174653,93008,123065,158710,85931,121041,100866,75638,87394.4,76.504,21119,158710,94834.8
107522,57358,122852,127186,66712,124944,135005,70248,125949,94676.4,58581,105917,78.063,21545,135005,89546.2
106365,55859,124791,126223,69921,118307,145468,75252,126687,97619.2,66198,96643,78.191,21584,145468,92091.4
107437,54494,129206,178952,90569,129490,134373,69951,125892,95639.6,65631,95501.2,78.533,21683,134373,90533.4
91605.6,54842,109468,105857,62057,111791,128877,80550,104855,101695,70359,94723.6,78.606,21712,128877,96797.3
116298,65874,115701,129704,72623,117047,136287,67316,132683,94789.8,63496,97835.2,79.159,21887,136287,89610.9
119488,70626,110877,87540.6,46514,123341,108493,56895,124971,95246.2,62006,100669,79.274,21926,108493,91123.5
106304,59770,116560,155302,81406,125026,141576,69546,133413,96791.8,62177,102021,82.364,22861,141576,91411.9
92064.6,50531,119403,125938,60053,137437,162907,85686,124597,106214,65050,107007,83.43,23178,162907,100023
85133.7,45905,121541,150734,75310,131171,175500,91305,125969,98599.2,65958,97968.4,84.099,23374,175500,91930.2
131081,75583,113657,178293,92292,126605,179605,86311,136374,101375,67020,99130.7,84.616,23523,179605,94550.4
132018,73931,117027,70597.8,31894,145065,99352.4,45722,142408,99180.2,60308,107778,84.946,23600,99352.4,95404.8
137449,72899,123566,204365,94648,141506,182714,92054,130080,100285,61903,106170,85.42,23756,182714,93341.7
102030,61813,108176,143042,78205,119870,139909,79712,115028,94418.8,66810,92618.3,86.152,23982,139909,89102.3
103478,69795,97163.1,132128,80664,107348,142162,74628,124842,97388.2,59561,107158,86.542,24093,142162,91986.1
128059,68537,122452,165767,70979,153055,143601,68655,137077,99369.2,67282,96790.5,86.727,24150,143601,93912.4
107631,60149,117271,146105,84970,112689,161370,86373,122440,100209,66458,98819,87.477,24360,161370,94077.1
111982,63780,115066,139887,81269,112806,181478,97638,121810,101538,66435,100164,87.637,24408,181478,94641.6
147680,74289,130280,179799,81887,143897,177800,85200,136764,99654.8,62924,103792,88.562,24696,177800,92898.4
76217.4,48276,103467,116369,73301,104042,140745,86339,106833,106861,71482,97971.7,89.136,24869,140745,101512
97156.8,55402,114928,123241,79093,102116,135099,75693,116970,96961.2,67174,94596.9,89.523,24982,135099,91827.4
130129,67279,126758,122695,44695,179906,117008,44847,170986,96971,66614,95401.7,90.206,25165,117008,92524.7
118943,71162,109540,155716,76385,133600,172584,87971,128570,97692,62107,103086,90.736,25336,172584,91133.8
92774.7,50535,120314,144767,66125,143478,148011,77560,125065,102677,67632,99495.3,91.264,25477,148011,97053
111937,72869,100672,122326,68960,116253,144511,80817,117186,100057,65981,99381.8,91.361,25506,144511,94565.2
112857,59693,123904,163247,93646,114245,173753,84150,135318,95824.4,62771,100045,92.02,25681,173753,89221.8
119569,69020,113533,131212,66742,128841,131950,61069,141602,98896,64034,101216,92.886,25935,131950,93881.9
99233.1,65492,99299.8,57453.2,32675,115233,77142.8,41151,122856,97413.4,67565,94488,93.208,26042,77142.8,94482
119986,65777,119547,187097,98440,124559,166410,95219,114534,102458,67821,99005.6,94.075,26288,166410,96134
131039,73120,117448,102406,42121,159333,96485.2,43011,147015,94042.2,63462,97115.6,94.895,26533,96485.2,90375.8
66169.8,49429,87732,122927,77652,103747,128975,88273,95754.1,96835.2,68826,92206.3,95.619,26742,128975,91934.1
88524,59844,96943.9,40828.2,28307,94524.9,75247.2,40587,121502,95744.6,66286,94661.3,95.677,26762,75247.2,92885.2
89022.6,55243,105609,100948,53341,124028,92838.2,51264,118685,104983,71646,96030.2,96.158,26886,92838.2,101455
142355,69495,134245,167635,74942,146595,178423,76221,153411,103873,62793,108411,96.463,26970,178423,97092.9
91218.6,53347,112061,102430,61898,108450,110743,67430,107632,96195.4,68642,91842.6,97.24,27250,110743,91987.2
81932.4,47248,113645,131247,74867,114889,149050,75293,129735,99811.6,65001,100633,97.317,27277,149050,94147.7
123635,69293,116931,128016,71475,117379,133630,70960,123416,96665.8,66903,94690.7,98.536,27630,133630,91587.9
81045,59966,88572.9,55708.8,40016,91236.8,77765.8,52067,97882.7,92547,71321,85040.3,99.418,27903,77765.8,89591.9
103335,65217,103841,92939,57723,105519,109616,70882,101348,99117.2,66875,97132.6,100.456,28234,109616,94951.8
92492.1,65720,92233.1,68003.6,33413,133382,79476.6,42524,122486,95639.6,64468,97224,100.647,28285,79476.6,92619.5
100198,63518,103381,69417.6,43584,104381,83883.8,47804,114999,97055,63595,100017,101.369,28506,83883.8,93867.4
73014.3,47237,101299,179536,108167,108777,182743,117004,102358,105291,79459,86841.8,101.846,28635,182743,98346.9
90780.3,63253,94056.9,98179.2,58749,109521,119200,69189,112907,97504.4,70913,90111.1,101.867,28644,119200,92974.8
102929,64711,104242,142041,80949,114996,149597,84469,116066,101396,67835,97960,102.551,28835,149597,95711.7
109276,61966,115572,147920,82837,117026,157331,89672,114984,101793,70794,94232.3,102.632,28865,157331,95814
122972,67533,119336,141744,78537,118280,154531,80628,125605,100796,71881,91898.5,102.871,28933,154531,94923.6
87763.5,60903,94439.8,140368,77009,119456,155736,91137,111989,98079.8,67746,94880.3,104.497,29403,155736,92161.8
119227,66074,118256,140036,73625,124651,133022,64864,134401,101542,67078,99207.7,106.572,29982,133022,96487.1
113387,64398,115391,136402,81014,110342,144683,76897,123307,102479,65281,102879,106.769,30036,144683,96980.6
70934.4,48407,96034.8,82315.8,58201,92690,93431.8,58997,103787,103354,84307,80341.9,107.509,30222,93431.8,99803.2
123834,68207,118984,162333,74942,141958,166954,70799,154543,97468,67039,95282.8,108.089,30391,166954,91123.7
121494,71348,111597,187610,102504,119948,182752,93948,127484,101781,70618,94456.7,108.468,30510,182752,94836.8
98852.4,54894,118016,154637,85675,118288,157742,91805,112606,102516,64515,104139,108.724,30595,157742,96522.2
90142.2,59601,99118.5,45382.4,28230,105355,72805.6,38913,122617,91645.4,56152,106961,109.043,30673,72805.6,88878.8
97145.1,52537,121181,149090,75387,129608,146619,71294,134778,109378,73072,98097.5,109.389,30773,146619,103806
108569,58435,121762,123708,67899,119403,140169,69296,132564,99311.8,66341,98106.7,109.591,30811,140169,93985.4
129432,64132,132265,157723,78710,131324,145795,67792,140943,94803.8,59332,104717,109.897,30901,145795,89263.6
77148.9,50282,100553,39396,27894,92559.5,78100.4,48316,105936,100807,73003,90496.1,110.987,31226,78100.4,97839.2
93257.1,54579,111979,217651,127784,111626,156101,76956,132936,98232.4,72989,88201.8,111.161,31276,156101,92300.5
126858,72179,115182,104860,55786,123187,134119,63778,137816,98882,59365,109161,111.855,31470,134119,93785.5
116494,70647,108066,99724.8,57720,113229,105029,60041,114642,94942.4,65190,95446.3,112.139,31547,105029,90951.3
112262,75231,97795.2,67488.4,43564,101527,88461.8,46267,125304,99820,60022,108990,113.207,31876,88461.8,96458.5
95550.3,56961,109935,97860,49120,130565,105690,59688,116045,103195,76899,87946.7,113.643,31979,105690,99179.2
113462,63051,117934,208074,96699,141018,189328,87314,142105,98453.6,67413,95712.3,114.402,32169,189328,91259.2
76472.1,50882,98496,126801,76616,108463,122153,67954,117806,96833.8,65534,96836.8,115.334,32392,122153,92192
101425,62915,105650,142724,81829,114306,147465,77457,124769,101286,65472,101385,115.36,32402,147465,95682.1
84763.8,47162,117787,103838,58055,117219,141334,77140,120074,101226,75682,87655.2,115.481,32433,141334,95854.9
90842.4,63068,94397.3,81263,54151,98348.2,117676,76728,100511,98882,65858,98398.5,116.647,32773,117676,94410.3
66792.6,50514,86655.6,41851.6,33417,82077.6,70810.6,44195,105004,93618,74286,82590.9,116.848,32839,70810.6,90927.2
120622,70264,112506,157767,88563,116747,136791,77094,116283,98049,64904,99003.8,117.403,33003,136791,92850.9
67120.2,37858,116192,116897,67071,114222,139223,70939,128619,102826,70707,95305.9,117.656,33073,139223,97535.3
132491,68513,126734,164919,72720,148626,138919,59282,153575,96051.2,63931,98462.6,119.576,33635,138919,90772.3
121044,70049,113245,147385,71415,135252,129032,59570,141955,100516,68522,96135.6,122.53,34480,129032,95612.6
106662,66047,105836,101184,55241,120041,120448,57671,136874,96129.6,61133,103053,122.542,34487,120448,91552.6
125831,70949,116231,153475,75970,132396,152769,79290,126269,95305,61123,102186,122.654,34525,152769,89499.8
114458,69057,108623,183485,103391,116305,163072,87149,122630,104315,63643,107418,122.789,34567,163072,98118.7
145499,75258,126703,195175,87576,146056,149757,75087,130708,97147.4,57948,109868,125.13,35191,149757,91456.6
117387,63646,120873,174146,97865,116618,162883,81787,130518,99646.4,63112,103474,125.13,35195,162883,93456.8
94137.3,53086,116215,93842,54857,112110,114493,68817,109035,104024,81021,84142.8,125.637,35321,114493,99673.4
121056,56745,139810,133763,55058,159219,122990,57957,139073,94844.4,75278,82570.2,125.658,35328,122990,90170.8
62738.1,35431,116045,162701,80448,132542,168707,80517,137317,104264,71202,95966.7,125.836,35375,168707,97852.7
95604.3,58568,106979,147977,94830,102265,142957,90042,104049,95781,63078,99513.4,126.163,35466,142957,90348.6
107639,66739,105699,136837,81347,110241,143896,80862,116623,95134.2,68661,90804.3,127.285,35797,143896,89666.1
96381.9,66486,95004.7,127508,70976,117735,155075,82094,123797,97043.8,60321,105434,127.312,35805,155075,91150.9
141716,82245,112925,125647,73264,112394,156936,75623,136003,100307,60191,109215,128.263,36079,156936,94343.6
97120.8,55189,115329,105673,60734,114029,136646,70439,127134,97540.8,69310,92229.6,128.547,36154,136646,92348.3
111148,64824,112369,155198,74656,136239,155128,82341,123468,102505,71751,93626.3,128.556,36157,155128,96610.3
111974,65930,111304,152404,86905,114930,155779,77856,131129,98119,64138,100258,128.743,36209,155779,92199.4
96877.8,64031,99154.8,101032,63420,104403,129248,80126,105713,98348.6,66735,96581.6,128.945,36281,129248,93437.2
85137.3,45737,121992,88697,48306,120334,104132,60013,113715,98886.2,75178,86203.5,129.398,36382,104132,94929.2
129087,68583,123352,169337,88360,125596,146093,73635,130024,101098,62943,105263,129.965,36546,146093,95546.7
93587.4,57602,106478,122818,78974,101919,130056,73949,115260,93906.4,65858,93447.2,130.259,36624,130056,88964.3
106369,64874,107455,146961,84533,113934,133794,73382,119489,95711,62413,100500,131.394,36945,133794,90626.8
90192.6,57963,101976,56057.4,34458,106616,77404.6,37738,134421,99204,60855,106835,132.212,37157,77404.6,96262.6
55323.9,42065,86193,98338.8,68060,94691.9,127908,81436,102935,93984.8,65287,94343.2,133.234,37470,127908,89124.3
107448,64059,109926,115025,78872,95576.4,119249,67594,115618,93368.8,71069,86099.7,133.362,37512,119249,88837.3
97183.8,59208,107571,132149,75985,113976,133102,76417,114150,100176,69341,94678.6,133.952,37693,133102,95117.7
97931.7,67941,94465.1,95390.4,59904,104359,112829,69191,106869,93293.2,63500,96284.5,134.891,37957,112829,89005.7
111664,68007,107607,85965.6,48446,116291,119967,62049,126709,96112.8,65245,96541.5,134.929,37965,119967,91554
101250,64063,103578,100915,63781,103692,111567,63798,114607,93888.2,64599,95250,135.025,37989,111567,89648.6
114569,65489,114651,162074,81477,130364,148802,84926,114828,98645.4,69343,93229.7,135.325,38081,148802,92990.9
95804.1,65822,95387.8,46900,33643,91360.4,86970.8,43199,131941,100038,72917,89912,135.672,38188,86970.8,96733.5
128702,63380,133080,179361,77376,151915,174576,79230,144402,102546,64333,104463,135.821,38229,174576,95911.9
131470,64501,133580,153013,75461,132888,177556,88681,131216,96157.6,67837,92896,136.203,38339,177556,89410.5
81141.3,48270,110165,147916,75566,128283,146833,72143,133386,96814.2,68396,92765.9,136.356,38378,146833,91234.5
154631,65688,154273,175076,54455,210702,151757,46898,212068,98487.2,61848,104360,136.762,38480,151757,92720.4
70678.8,39961,115913,185613,109907,110679,143485,79417,118405,95956,70042,89782.9,137.416,38651,143485,90503.6
145138,70592,134742,181495,68304,174140,155898,59145,172744,99745.8,60636,107806,137.491,38678,155898,93821.7
87246,55669,102710,86941.4,51280,111111,92303.4,52535,115146,97917.4,63456,101127,140.893,39611,92303.4,94409.9
116584,60035,127267,144115,70117,134699,143027,68514,136810,102708,68503,98259.7,141.841,39902,143027,97273.2
138060,72849,124201,126819,53354,155775,128428,59422,141642,103799,63282,107496,142.158,39993,128428,98918.5
140396,70059,131332,174836,98100,116800,155336,69365,146761,96265.4,63026,100099,143.21,40293,155336,90362.6
100354,68602,95868.5,57787.8,44544,85021.1,86664.2,49868,113893,98149.8,65778,97788.7,143.593,40420,86664.2,94856.6
97454.7,54243,117744,141803,77975,119182,156800,84791,121193,100281,65220,100766,144.224,40604,156800,94322.2
99482.4,54995,118550,121983,70012,114185,145317,81601,116708,99902.6,68045,96218.9,144.716,40743,145317,94380.5
117901,70336,109855,113478,64500,115301,128971,63674,132742,111145,69886,104226,145.782,41040,128971,106244
103560,59153,114735,151680,83236,119426,148224,82786,117338,97851.6,65314,98184.2,146.119,41149,148224,92219.1
122196,66460,120497,137851,74067,121973,135194,72759,121773,100338,65649,100165,146.378,41212,135194,95200.6
98638.2,59375,108873,148508,86579,112413,159470,87660,119222,98858.2,62484,103687,146.599,41278,159470,92798.3
108326,66324,107039,111916,65331,112267,125591,74988,109761,94357.2,68200,90671.5,148.375,41795,125591,89584.7
77616,42330,120166,119312,63411,123311,132266,66605,130144,98753.2,70629,91632.2,148.492,41829,132266,93727.1
67826.7,44635,99587.6,127639,72652,115138,139297,93279,97867.5,98408.8,68061,94757.9,149.211,42041,139297,93115.5
116804,64025,119560,192952,94243,134178,182125,87473,136450,99029,63656,101954,149.219,42045,182125,92108.3
75962.7,54044,92115.5,49700,30975,105154,78645,39827,129412,98410.2,59023,109269,150.449,42396,78645,95421.7
104138,68510,99617.5,125833,74000,111441,144719,79726,118962,97251,67350,94631.7,150.843,42507,144719,91751.7
127947,69451,120734,149904,76360,128655,170912,79857,140262,100895,66965,98742.1,151.313,42644,170912,94400.5
104845,61887,111026,129611,62240,136474,137805,64426,140179,97475,69257,92237.9,152.043,42835,137805,92238.4
112208,65334,112554,131895,57685,149847,119924,51518,152555,99156.4,69693,93242,152.074,42847,119924,94599.3
121150,58480,135767,195847,110376,116285,151441,80866,122732,98036.4,67054,95817,152.196,42901,151441,92281.6
101117,59180,111977,125821,80868,101966,128303,74416,112993,99968.4,66249,98892.5,152.244,42913,128303,95092.9
122404,72042,111350,125595,66707,123391,135440,78472,113113,98627.2,66359,97404,153.683,43345,135440,93480.5
92425.5,61718,98143.1,126406,74217,111621,144696,90300,105014,104717,75489,90910.6,154.326,43551,144696,99218.8
108755,63895,111548,131396,78131,110214,144879,72491,130979,95004,59142,105275,157.849,44539,144879,89498.6
106295,65244,106771,100682,62109,106238,111769,58665,124860,99353.8,68363,95245.2,157.942,44568,111769,95106.6
122390,74046,108324,137669,81087,111267,137204,80532,111655,98138.6,62462,102968,158.753,44784,137204,92924.8
125929,61480,134237,186078,82229,148303,180853,85234,139057,98296.8,77343,83291,158.765,44790,180853,91424.4
144984,49606,191542,219279,113293,126845,192013,91168,138028,108973,74779,95503.7,160.252,45186,192013,101677
128632,58840,143270,149289,57686,169604,102253,40009,167494,97501.6,62432,102349,162.578,45831,102253,93616
106643,60893,114774,65884,30104,143429,84176.4,41671,132384,96709.2,69954,90601.4,162.672,45871,84176.4,93510.5
130866,69007,124284,172218,84300,133885,150912,69644,142010,96299,62559,100882,162.723,45885,150912,90564.4
144292,66457,142292,198768,85525,152312,163145,69827,153119,101107,66277,99976.2,164.65,46396,163145,94907.1
121819,72403,110265,141546,62363,148747,161202,81434,129731,96815.6,70426,90093.2,164.677,46404,161202,90689.9
102362,59516,112716,53887.4,31717,111346,95635.4,43030,145656,97862.8,60153,106620,165.016,46492,95635.4,94228.6
78991.2,48862,105947,130640,76562,111826,155547,77025,132346,100940,70131,94326.4,165.125,46522,155547,95029.2
85512.6,56261,99609.9,53621.4,23414,150087,92121.4,47044,128332,95846.8,76222,82409.5,166.432,46907,92121.4,92346.2
88594.2,48944,118628,136774,72163,124214,153584,76645,131324,103992,72735,93699.3,166.514,46918,153584,98155.8
115072,66795,112903,138568,78768,115290,159813,93286,112273,102771,61822,108945,167.13,47078,159813,96698.3
102683,56804,118467,83638.8,36812,148901,92247.4,46496,130022,95600.4,63654,98426.9,167.627,47203,92247.4,92095
102267,60831,110177,129034,75064,112655,133305,71657,121918,94574.2,57990,106881,170.876,48077,133305,89508.6
113683,71728,103869,156201,86818,117911,162862,93235,114478,100792,69181,95481.1,171.151,48136,162862,94602.8
97245,53525,119067,154182,86686,116564,156631,86352,118873,98779.8,64761,99961.9,171.217,48155,156631,92827.8
89624.7,55621,105601,205414,105985,127018,150987,80154,123451,95359.6,64533,96841.7,172.247,48429,150987,89622.1
127238,73928,112795,164521,92419,116665,166656,79700,137038,102059,61210,109272,172.783,48571,166656,95725.7
94155.3,53579,115168,185032,99515,121854,191561,101791,123332,102203,68771,97395.2,174.79,49096,191561,94923.5
111711,60688,120635,140104,72480,126681,151215,73738,134395,102082,62573,106916,174.836,49112,151215,96336.2
84455.1,61875,89452.1,128208,80245,104707,138313,89258,101554,98928.2,76311,84959.7,175.045,49187,138313,93672.3
75402.9,51621,95728.6,118957,78693,99067.8,154456,96781,104591,95631.2,64904,96562.4,175.771,49376,154456,89761.9
89849.7,53575,109909,126356,67813,122113,128667,64928,129872,96147.8,59200,106438,176.549,49586,128667,91258.5
125180,68499,119765,160507,85935,122406,151925,75591,131716,100428,65703,100172,177.534,49848,151925,94654.4
118166,66897,115762,165610,86408,125607,156038,81530,125428,99059.8,65042,99812.2,177.701,49896,156038,93130.3
89019,59237,98484.9,96271,62516,100922,105189,73190,94188.6,95774,68095,92174.8,177.994,49982,105189,91776.8
71024.4,43605,106746,154182,104294,96884.5,143332,89296,105194,101972,69087,96730.6,178.262,50068,143332,96525.2
123895,66596,121923,98372.4,56750,113602,107513,60893,115711,101920,73528,90842,178.579,50155,107513,97834.5
108802,66385,107410,140176,83844,109568,141375,80328,115341,97584.2,68047,93983.2,179.021,50280,141375,92212
125420,72734,113008,185172,71365,170048,216868,105491,134729,111882,71957,101899,179.034,50283,216868,103641
111344,65727,111020,186451,115548,105750,148942,84552,115444,95401.6,60055,104109,179.265,50337,148942,89741.8
102639,66510,101136,64937.6,41878,101623,99785,45311,144325,102917,61264,110093,179.285,50345,99785,99125
87369.3,61688,92819.2,120718,76408,103541,133692,77492,113065,99681.4,62308,104846,179.461,50384,133692,94601.1
105346,60237,114613,132160,63335,136753,150867,77071,128287,96663,67032,94505.7,179.923,50517,150867,90930.1
110691,69705,104071,227913,125647,118877,233479,127216,120278,104125,69911,97608.9,181.37,50910,233479,95252.8
71705.7,43270,108604,117314,74922,102618,136352,74753,119540,105584,76397,90573.5,181.78,51008,136352,100402
105963,58606,118493,139528,68529,133434,152746,79042,126646,97031.2,63587,100005,183.148,51378,152746,91226.9
97311.6,60874,104764,113175,72712,102005,133631,73705,118821,95662,68281,91816.2,183.411,51450,133631,90584
100085,57804,113473,122331,75675,105941,128632,74021,113887,96986.4,61912,102663,183.435,51453,128632,92098.4
95589.9,54321,115325,126557,78290,105940,120733,67560,117116,97204.8,65155,97773.2,184.994,51834,120733,92616.9
99558,58853,110863,65298.8,40716,105104,84897.4,46310,120143,97092.8,72860,87332.9,185.137,51866,84897.4,93866.7
105726,61492,112679,139646,75962,120479,142590,81948,114033,98294,78042,82542.7,187.549,52482,142590,92875.6
104860,66946,102651,77683.2,44165,115273,131719,77902,110810,109624,66982,107258,187.616,52504,131719,104619
77058,48690,103719,106869,62215,112574,131858,72608,119015,100992,67040,98726.1,188.571,52750,131858,95981.2
106991,63849,109818,125033,71665,114339,127530,63495,131630,102833,74817,90076.5,190.235,53180,127530,97986.6
111699,69839,104817,89958.4,53749,109686,108108,61397,115396,100575,61978,106348,191.675,53544,108108,96466.5
88380.9,55845,103718,112196,72673,101178,110911,63979,113610,93149,68824,88698.9,194.574,54250,110911,88934.4
98283.6,64288,100192,89671.4,50142,117201,103960,61727,110375,96976.6,68200,93188.5,195,54368,103960,93026.1
91835.1,55916,107635,111455,63662,114736,127802,77697,107798,96280.8,65215,96754.7,195.898,54591,127802,91424.3
77539.5,52724,96381.7,90557.6,62365,95162.1,110152,73431,98308.9,96747,69774,90870.7,196.081,54635,110152,92561.2
88479,57963,100039,50269.8,33010,99802.5,81571,41149,129914,95925.2,57643,109060,196.125,54643,81571,92825.5
85570.2,55033,101901,129714,86434,98351.9,131942,76472,113073,99852.2,68079,96122.3,196.266,54685,131942,94838.4
93342.6,55150,110921,124244,71424,114002,137528,74660,120721,99650.6,71630,91172.7,196.394,54708,137528,94424.6
73861.2,42749,113232,78757,42019,122835,94397.8,39166,157955,100059,61278,107012,197.078,54886,94397.8,96472.3
88995.6,59827,97488,43057,30034,93953,85337,44713,125079,96212.2,71993,87583,197.684,55039,85337,92969.4
121572,62110,128278,89912.2,41296,142689,109011,44968,158872,93856,55890,110055,197.685,55040,109011,89713.6
115802,63480,119553,114846,62877,119703,128731,64099,131617,95715.2,68500,91573.6,199.103,55378,128731,90823.4
132454,64029,135571,149499,69799,140368,154479,73446,137842,100758,70155,94124.1,201.688,56010,154479,94887.8
79965,57047,91864.4,51004.8,38472,86885.3,66987.2,46722,93961.6,99678.6,80182,81471.4,202.185,56135,66987.2,97133.1
103033,67550,99961,120133,75013,104955,121974,73419,108877,93751,59815,102718,202.514,56207,121974,89116
125449,63116,130259,157651,83181,124209,152604,70358,142145,94875.2,60470,102824,204.31,56602,152604,89076.2
121085,66623,119110,133517,72949,119949,149310,73649,132862,104033,68007,100253,204.356,56617,149310,98358.8
105424,66457,103963,69202,38787,116926,83865.6,42993,127840,95803.4,63963,98159.4,204.465,56648,83865.6,92616.5
119273,64006,122125,99696.8,31857,205096,118768,46721,166596,103468,62134,109134,205.277,56812,118768,98955.2
100122,60983,107597,104531,56352,121567,152215,76581,130262,99918,69016,94879.8,206.939,57186,152215,94133.8
96592.5,58734,107779,152771,84109,119036,135222,79910,110898,96338.2,65124,96947.7,208.453,57516,135222,91199.8
106945,62626,111915,115476,67106,112775,131985,71104,121650,93903.6,59061,104198,208.571,57549,131985,88888.2
89179.2,46197,126511,149566,80385,121938,148368,79767,121898,97974.8,62005,103554,209.063,57671,148368,92336.8
82945.8,58408,93068.3,88643.8,57777,100548,99650.6,55264,118173,93303,56572,108087,209.857,57868,99650.6,89516.3
127886,75839,110513,93556.4,45453,134893,98585.2,47393,136326,94957.8,67362,92383.8,209.898,57879,98585.2,91211.6
119619,58181,134741,177796,79899,145834,197786,94936,136535,97659.8,59684,107235,213.248,58615,197786,90143.9
130649,84102,101808,134977,85432,103542,148298,82278,118122,103949,75961,89682.5,213.736,58723,148298,98313.3
83050.2,54058,100684,98502.6,65489,98573.3,124628,73811,110656,98844.2,67465,96018,214.437,58886,124628,94108.3
130448,64972,131580,212852,100479,138830,179969,88529,133227,103673,61925,109718,215.429,59104,179969,96834
103316,59095,114577,120354,74159,106359,142138,76475,121806,100132,63313,103648,215.715,59179,142138,94731
124830,68547,119347,178535,105494,110911,155749,90288,113051,101840,63689,104794,216.727,59382,155749,95921.8
68596.2,50707,88656.8,37963.8,29407,84605.6,65272.2,40550,105491,91880.6,72343,83235.2,218.427,59738,65272.2,89400.3
121032,72193,109872,165579,80979,134003,167719,88723,123887,99349.6,76661,84932,223.411,60761,167719,92976.3
113651,47548,156647,188234,85758,143848,235866,100770,153396,104723,65486,104803,223.413,60762,235866,95759.9
125917,69823,118186,181986,87700,135994,154900,79588,127551,95989.6,62443,100744,223.936,60907,154900,90103.4
102087,65568,102037,123697,75351,107585,139012,77834,117047,98980,65655,98800.6,224.274,60978,139012,93697.6
119287,69456,112555,146761,77195,124595,144046,75983,124241,100073,70714,92745.6,225.474,61242,144046,94599.6
155603,67156,151849,206511,63266,213921,203375,68567,194385,106123,72360,96114.7,225.928,61325,203375,98394.5
75005.1,45916,107055,157192,87031,118369,128537,66994,125739,101636,68983,96557.2,226.78,61500,128537,96751.4
144061,73004,129324,183830,79441,151653,142020,71456,130254,95866.4,63692,98641.9,227.378,61623,142020,90469.6
99990,61155,107153,74635.4,43023,113690,89661.6,49463,118797,101231,63387,104663,229.583,62089,89661.6,97824.1
120618,70634,111912,142874,77725,120468,149596,83028,118079,97435.8,67210,95009,230.263,62227,149596,91751.2
84566.7,50807,109083,137766,80493,112166,139731,78968,115964,100195,73446,89404.4,231.035,62411,139731,94885.4
120133,63925,123160,108202,65287,108614,159169,74302,140390,100687,59501,110899,232.976,62807,159169,94638.2
106265,59099,117839,90902,46539,128008,92680,49620,122408,95911.2,64138,98001.8,233.003,62814,92680,92389.4
103380,65914,102787,126427,86201,96118.6,104730,55911,122759,93601.2,58737,104436,233.643,62935,104730,89621.5
99916.2,60520,108197,102621,60346,111447,112853,64260,115094,101287,67813,97886.2,234.011,63009,112853,96998.8
132644,67392,128991,145036,71934,132136,137421,69760,129100,99510.6,66886,97502.1,234.547,63149,137421,94288.6
106126,59468,116955,132125,71626,120891,128398,64597,130265,102116,64221,104207,235.13,63282,128398,97236.9
72636.3,44106,107928,66361.4,49262,88284.3,93651.6,61339,100060,97890.8,73800,86929.1,236.174,63492,93651.6,94332
113210,63409,117008,74646.6,30089,162586,89115.6,40741,143351,95757.2,63290,99155.4,237.322,63695,89115.6,92370.8
142900,80815,115883,131222,57101,150606,149660,57810,169661,98926.8,64821,100018,237.333,63699,149660,93239.7
124573,68488,119203,105809,56830,122019,135846,69564,127980,95312,67321,92784.8,237.395,63712,135846,90149.8
108603,62663,113582,169238,100120,110779,171017,102220,109644,103218,72202,93688.3,239.446,64105,171017,96719.1
115155,67054,112548,145631,84824,112516,148810,76398,127653,97963.6,69612,92227.5,240.225,64245,148810,92308.8
101935,62350,107144,119980,73697,106694,158868,81942,127060,98163.8,60254,106769,242.116,64547,158868,92126.8
93259.8,58133,105136,125237,70593,116266,136644,77210,115984,100719,71532,92276.3,242.594,64647,136644,95526.3
100701,56717,116359,166904,89065,122812,148263,78025,124531,98065.8,64000,100419,243.56,64820,148263,92431.8
102718,63812,105493,99206.8,56480,115114,104343,65082,105071,98891.8,73291,88427.9,243.841,64877,104343,94926.8
143983,74986,125838,138285,69434,130522,146355,72270,132718,102554,73944,90893,244.693,65046,146355,96992.7
104178,55249,123575,121034,68495,115805,143489,79639,118079,99758.4,69961,93448.7,245.766,65256,143489,94305.8
110771,65933,110104,108928,62298,114590,129343,75120,112841,97140.4,70692,90055.4,246.545,65419,129343,92225.4
103834,59564,114244,152061,93330,106777,142450,80025,116659,94925.6,58375,106570,247.135,65541,142450,89512.5
130288,68956,123826,141061,70562,131014,132908,59801,145654,95627,57957,108132,247.177,65547,132908,90576.5
107800,61716,114473,124559,71473,114213,119323,64438,121357,97202,70453,90418.1,247.959,65682,119323,92667.7
95466.6,58915,106195,126146,72248,114426,141259,84663,109346,99905.4,77095,84926.4,248.754,65830,141259,94537.6
118498,60354,128673,166533,78935,138264,166102,79970,136121,97759.2,59444,107778,252.218,66463,166102,91447.3
123188,68995,117012,232940,124080,123033,156421,82795,123814,97846,70997,90319.8,252.978,66590,156421,91902
134032,62646,140216,169259,92541,119866,166621,75759,144137,96394.2,62270,101450,255.721,67062,166621,90062.6
116516,72427,105430,94739.4,57233,108484,159860,61343,170787,98679,75777,85342.9,256.132,67140,159860,92604.3
123033,67859,118821,137094,78520,114424,157196,82133,125431,98660.8,63287,102167,257.223,67337,157196,92687.3
122254,72596,110365,151711,86961,114333,121745,58712,135896,95669,65290,96029.5,257.425,67376,121745,91042.7
