"FSC-A", "FSC-H", "FSC-W", "SSC-A", "SSC-H", "SSC-W", "FITC-A", "FITC-H", "FITC-W", "PE-A", "PE-H", "PE-W", "Time", "Event #", "Comp-FITC-A", "Comp-PE-A"
68600.7,50971,88203.4,42348.6,26174,106035,69465.2,42855,106230,79228.8,62878,82578,0.044,14,69465.2,76311.3
58554,39138,98047.8,37065,28874,84127.3,85849.4,46641,120628,88543,54768,105952,1.143,248,85849.4,84937.3
68677.2,48008,93751.6,62098.4,47434,85796.7,76692,41363,121512,84656.6,59891,92635.9,1.433,328,76692,81435.5
51460.2,33856,99612.9,63595,41119,101359,77270.2,45467,111377,87837.4,60571,95037.4,1.592,368,77270.2,84592
78499.8,55748,92282.5,46730.6,27684,110625,68329.8,35399,126502,88124.4,54451,106065,1.644,377,68329.8,85254.5
59226.3,43262,89719.7,27615,18671,96929.8,57731.8,32283,117198,79739.8,49203,106210,1.736,399,57731.8,77315.1
65106.9,38721,110195,40686.8,19954,133630,128076,71221,117853,67072.6,45160,97335.5,1.763,404,128076,61693.4
67204.8,42413,103844,32354,15154,139920,129601,83183,102106,61121.2,41937,95515.6,1.815,417,129601,55678
65590.2,43808,98121.8,42894.6,28608,98264.1,67447.8,42678,103572,79833.6,58912,88810,2.678,583,67447.8,77000.8
68274,48372,92499.9,33898.2,24679,90017.9,70893.2,36180,128415,78668.8,55664,92620.7,5.06,1117,70893.2,75691.3
48985.2,36157,88787.6,28200.2,21749,84975.3,128122,87281,96202.3,61479.6,40402,99725.9,5.606,1245,128122,56098.5
85844.7,45876,122633,135793,59381,149868,170481,74647,149673,95183.2,72920,85544.8,7.014,1543,170481,88023
70997.4,57454,80984.5,35708.4,25568,91527.9,60338.6,44032,89806.3,89614,67772,86657.4,7.095,1565,60338.6,87079.8
87577.2,54239,105818,81072.6,36673,144880,79975,40317,130001,79590,50890,102496,8.643,1884,79975,76231
61810.2,40647,99657.9,82895.4,48789,111350,91280,46782,127872,69781.6,56446,81019.2,8.663,1886,91280,65947.8
54710.1,42097,85171.9,31673.6,24578,84456.1,84833,50366,110384,91861,69067,87164.7,8.938,1960,84833,88298
51788.7,40508,83786.5,38578.4,32199,78520.3,72769.2,45684,104391,88842.6,65914,88333.1,9.769,2141,72769.2,85786.3
77619.6,52012,97802,50794.8,27514,120989,77474.6,31129,163108,82073.6,49571,108506,12.176,2670,77474.6,78819.7
53438.4,42730,81959.7,35659.4,25614,91238.2,61681.2,41501,97403.4,80396.4,67547,78002.9,13.563,2982,61681.2,77805.8
67462.2,49186,89887.4,38729.6,23119,109788,70375.2,43052,107129,83106.8,65898,82650.3,14.273,3149,70375.2,80151
52316.1,39890,85951.1,49903,39501,82793.9,70271.6,47523,96907.2,87981.6,65619,87870.3,15.772,3481,70271.6,85030.2
71900.1,49873,94480.9,49476,33151,97808.8,79254,43261,120062,91506.8,62750,95569.5,16.495,3647,79254,88178.1
61730.1,40817,99114.2,64836.8,40856,104003,73927,34199,141667,71593.2,54827,85577,17.15,3791,73927,68488.3
63052.2,47719,86594.2,57614.2,38157,98954.4,76700.4,48686,103246,82343.8,64947,83090.6,17.202,3799,76700.4,79122.4
70049.7,48422,94807.7,58955.4,43667,88481,66773,39669,110314,75150.6,47388,103931,17.976,3976,66773,72346.1
48724.2,36385,87761.1,50589,41397,80087.9,67576.6,44980,98459.3,74872,46753,104952,21.643,4765,67576.6,72033.8
59078.7,47147,82121.5,50366.4,43866,75247.6,74771.2,55612,88114.2,88645.2,73828,78689,22.76,5021,74771.2,85504.8
64939.5,46887,90768.8,48035.4,34229,91970.2,80712.8,47886,110462,90259.4,64641,91509.1,22.784,5026,80712.8,86869.5
65007,48308,88190.3,41490.4,30395,89459.3,64939,41237,103204,77263.2,60073,84289.5,22.941,5058,64939,74535.8
52770.6,37512,92193.8,53935,38090,92798.2,88137,55966,103208,87235.4,65640,87097.2,23.034,5075,88137,83533.6
61694.1,49252,82091.8,27186.6,21078,84528.9,57475.6,38733,97248.4,83862.8,65624,83750.3,23.041,5077,57475.6,81448.8
60874.2,39882,100031,49273,29457,109623,87459.4,39955,143455,91063,54878,108749,23.291,5144,87459.4,87389.7
100392,60449,108841,59967.6,27258,144179,71824.2,36402,129308,87784.2,53895,106745,23.367,5158,71824.2,84767.6
73407.6,47686,100886,45497.2,18483,161321,64688.4,32708,129614,87854.2,55005,104674,23.448,5179,64688.4,85137.3
71037.9,54679,85143.1,36575,30541,78484,72515.8,47500,100050,77911.4,56568,90263.1,23.789,5282,72515.8,74865.7
70391.7,48920,94300.7,41017.2,26840,100153,66157,36065,120218,87567.2,58925,97391.7,23.883,5296,66157,84788.6
45509.4,37143,80297.9,25029.2,19331,84854,53659.2,37053,94907.5,70931,45306,102603,24.035,5318,53659.2,68677.3
63839.7,44498,94022.2,49015.4,28551,112510,56684.6,27547,134856,65854.6,43582,99028.2,24.604,5462,56684.6,63473.8
78048,54900,93168.6,45774.4,27895,107542,78457.4,42619,120645,90486.2,58906,100671,25.046,5559,78457.4,87191
59340.6,43221,89978.1,69490.4,49465,92067.6,86163,56765,99476.4,85961.4,68545,82187.9,25.895,5761,86163,82342.6
61590.6,45831,88071.4,51773.4,39898,85042.4,76466.6,53383,93874.7,87183.6,66836,85487.8,25.98,5782,76466.6,83972
84309.3,50416,109594,89857.6,30259,194617,101979,42137,158608,82236,55744,96681.6,27.857,6219,101979,77952.9
68735.7,52188,86316.1,34584.2,27740,81705.5,61745.6,38970,103838,77474.6,51072,99416,27.895,6226,61745.6,74881.3
69353.1,40978,110916,44727.2,23751,123416,70868,29817,155764,90001.8,53655,109931,28.218,6267,70868,87025.3
70131.6,44236,103901,38823.4,29204,87122.7,82173,32664,164869,73169.6,47781,100359,28.362,6286,82173,69718.3
72708.3,51461,92594.6,69596.8,38957,117080,91037.8,49245,121154,90283.2,68856,85930.1,28.576,6365,91037.8,86459.6
69642.9,47983,95119.5,56211.4,30307,121552,67709.6,35227,125966,73136,47372,101179,29.188,6486,67709.6,70292.2
53157.6,36257,96084.5,33238.8,26048,83627.8,65123.8,27228,156749,58235.8,37528,101698,29.325,6513,65123.8,55500.6
69879.6,49348,92802.7,47805.8,34174,91677.9,66759,36290,120560,82895.4,52454,103569,29.901,6631,66759,80091.5
54110.7,37247,95207.6,24326.4,15521,102716,77914.2,34376,148539,89117,59809,97650.4,29.961,6648,77914.2,85844.6
66429.9,52675,82649.3,28952,19732,96158.4,58777.6,42155,91378.2,88648,69291,83844,30.382,6759,58777.6,86179.3
73903.5,49685,97480.9,55871.2,30099,121651,78002.4,45755,111725,90319.6,68183,86813.2,31.865,7134,78002.4,87043.5
68752.8,45728,98534.5,33100.2,24005,90366.8,69353.2,34512,131697,69784.4,44261,103328,32.073,7174,69353.2,66871.6
73477.8,46869,102743,61124,30505,131317,86254,40128,140868,90253.8,62226,95054.7,32.073,7175,86254,86631.1
76636.8,52186,96241.7,71776.6,37973,123876,88496.8,43808,132390,82787.6,59757,90793.9,32.509,7237,88496.8,79070.7
67923.9,43148,103167,44767.8,36835,79649.9,95697,51386,122049,92197,72504,83336.4,32.547,7247,95697,88177.7
66015,49667,87107.3,50538.6,35901,92256.4,69483.4,44690,101894,87280.2,70834,80752.1,34.179,7635,69483.4,84361.9
52608.6,38639,89230,36649.2,28338,84756.9,58251.2,37392,102095,84963.2,56437,98661.3,36.398,8139,58251.2,82516.6
60397.2,45950,86141.2,52075.8,37235,91656.8,69144.6,41229,109910,86753.8,66825,85080.4,37.062,8291,69144.6,83849.7
62883.9,46440,88741.6,43334.2,29035,97811.3,70670.6,44645,103740,83515.6,67369,81243.3,37.28,8336,70670.6,80547.4
57409.2,31122,120891,30485,20907,95559.6,143560,42966,218972,77929.6,56220,90843,38.215,8478,143560,71900.1
58651.2,33647,114238,63414.4,30543,136068,66908.8,31805,137869,64076.6,39668,105862,38.62,8605,66908.8,61266.4
72833.4,46776,102044,51814,24796,136945,75978,30249,164610,77463.4,49267,103043,39.679,8875,75978,74272.3
80261.1,55636,94543,50037.4,21445,152914,79199.4,41732,124375,91845.6,61156,98423.6,40.808,9136,79199.4,88519.2
55747.8,42146,86686.5,36146.6,25575,92625.7,65146.2,40172,106279,75987.8,60047,82934,42.405,9451,65146.2,73251.7
61434.9,45703,88094.8,63848.4,43777,95583.7,80712.8,48165,109822,80574.2,62810,84071.2,42.753,9535,80712.8,77184.3
61243.2,49268,81465.3,23849,14692,106382,45988.6,28156,107043,78755.6,50413,102381,42.921,9574,45988.6,76824.1
78566.4,55472,92820.3,50044.4,31929,102719,78374.8,38416,133704,90517,61639,96239.8,42.973,9592,78374.8,87225.3
64715.4,48537,87380.5,36449,29117,82038.7,69650,46309,98567.9,81254.6,53479,99573.7,44.019,9835,69650,78329.3
58210.2,44339,86038.6,43768.2,34707,82645.9,67881.8,44545,99869.8,87262,62885,90940.6,44.229,9880,67881.8,84411
60549.3,44293,89588.9,25625.6,17135,98009.9,57860.6,31003,122309,88216.8,61715,93678.6,44.565,9965,57860.6,85786.6
60084,37984,103666,94962,41837,148754,98207.2,45619,141084,91511,58871,101871,45.105,10090,98207.2,87386.3
69247.8,52367,86661.9,63945,38747,108155,81610.2,53859,99303.8,88988.2,73013,79875.2,45.606,10206,81610.2,85560.6
45299.7,34854,85177.1,54119.8,31018,114346,87203.2,39749,143776,78244.6,52185,98262.7,45.707,10225,87203.2,74582.1
68570.1,43869,102437,50173.2,33119,99282.9,62826.4,27724,148514,67407.2,43119,102451,46.66,10452,62826.4,64768.5
79398,59024,88157.8,47685.4,22386,139601,68405.4,33150,135234,86881.2,56200,101314,46.804,10485,68405.4,84008.2
65592,43878,97967.9,68838,35424,127353,81893,43882,122304,87222.8,69336,82442.5,46.826,10493,81893,83783.3
65415.6,42558,100735,56175,38935,94554.6,77394.8,40143,126352,82572,50394,107383,47.224,10584,77394.8,79321.4
71594.1,47681,98403.8,52696,37893,91137.8,75416.6,43574,113428,88897.2,53275,109356,47.909,10764,75416.6,85729.7
71366.4,44762,104487,43304.8,28390,99965.6,68787.6,35177,128154,79714.6,50519,103410,47.974,10779,68787.6,76825.5
63380.7,46955,88461.7,45392.2,29060,102368,65307.2,37868,113023,84212.8,58563,94239.9,48.848,10975,65307.2,81469.9
63831.6,42071,99433.5,60291,30406,129949,72954,36254,131878,78215.2,56681,90434.4,52.527,11798,72954,75151.1
47131.2,34821,88704.8,54028.8,27396,129246,75770.8,34451,144138,84639.8,51871,106937,54.633,12221,75770.8,81457.4
62422.2,50689,80705.9,41741,32378,84487.6,77308,49461,102433,88683,72999,79616.6,55.77,12538,77308,85436.1
66068.1,44392,97536.5,46380.6,34620,87798.9,83312.6,41184,132575,90064.8,66957,88153.4,56.198,12639,83312.6,86565.7
64060.2,44551,94234.7,42516.6,27555,101120,70551.6,39317,117600,86591.4,64008,88658.5,56.771,12763,70551.6,83628.2
53603.1,40709,86293.8,49539,40347,80466.6,73512.6,46296,104063,75847.8,55884,88947.8,56.888,12791,73512.6,72760.3
82193.4,56226,95803.1,61476.8,28967,139087,89665.8,46817,125517,92538.6,74099,81844.7,58.378,13122,89665.8,88772.6
55818.9,39276,93139.5,57113,38719,96669.8,73887.8,44748,108213,88188.8,66713,86632.9,59.21,13322,73887.8,85085.5
61494.3,44054,91480.7,44049.6,30173,95676.1,76421.8,45227,110739,89462.8,69538,84314.1,59.838,13493,76421.8,86253.1
61926.3,41480,97840,40835.2,30373,88110.3,92793.4,41497,146548,81011,61071,86933.9,60.437,13593,92793.4,77113.7
49209.3,34116,94529.9,78307.6,55498,92471.2,77210,44186,114517,69385.4,47827,95076.9,61.273,13834,77210,66142.6
70064.1,37218,123374,37581.6,21587,114094,130847,73219,117117,65626.4,41221,104337,62.14,14042,130847,60130.8
66095.1,47099,91968.2,67993.8,48601,91686.2,86311.4,40970,138065,73938.2,54834,88368.8,62.64,14164,86311.4,70313.1
77118.3,47257,106948,41661.2,24101,113286,76613.6,32413,154905,91753.2,60574,99269.3,63.345,14331,76613.6,88535.4
75233.7,49638,99329.5,50412.6,34713,95175.9,81680.2,41708,128345,84611.8,51887,106869,64.19,14535,81680.2,81181.2
88446.6,63331,91526.1,39324.6,25484,101129,78323,43351,118405,90680.8,56179,105784,64.44,14594,78323,87391.2
77759.1,54012,94349.8,47867.4,37171,84394.8,77302.4,52370,96736.5,86496.2,56770,99852.3,64.803,14683,77302.4,83249.5
60685.2,41248,96418.4,39068.4,27897,91780,66176.6,40793,106316,79385.6,48908,106376,65.67,14894,66176.6,76606.2
48488.4,32421,98014.7,82936,52836,102871,84898.8,53552,103898,63196,47600,87008.7,66.247,15030,84898.8,59630.2
52695.9,35268,97921,50279.6,22904,143867,73189.2,36687,130742,84715.4,63750,87088.8,68.754,15610,73189.2,81641.5
64857.6,45425,93572,59402,42260,92119.5,75670,49816,99548.5,89810,62285,94497.7,70.412,16037,75670,86631.9
45225,33922,87373,27118,19799,89762.4,187265,119110,103036,66280.2,46079,94267.2,70.656,16087,187265,58415.1
81248.4,45381,117333,61476.8,28820,139797,95107.6,41878,148836,87115,53527,106660,70.684,16092,95107.6,83120.5
74102.4,52014,93366.7,51945.6,35192,96735.2,78344,45352,113211,90396.6,64266,92183,70.826,16136,78344,87106.2
64669.5,38003,111522,85575,44318,126545,85293.6,33737,165688,80826.2,51078,103705,73.412,16751,85293.6,77243.9
40626,31707,83970.9,30104.2,21517,91690.7,53138.4,33101,105208,81599,51876,103086,75.052,17116,53138.4,79367.2
69345,51442,88344,58273.6,38048,100374,81795,50354,106457,87305.4,70540,81112.1,75.601,17225,81795,83870
145039,55028,172735,197379,61953,208794,211789,53045,261661,77683.2,49819,102191,75.975,17317,211789,68788
68031,47492,93878.5,41045.2,23269,115602,68374.6,33587,133415,72752.4,48104,99116.5,76.297,17402,68374.6,69880.7
59467.5,46112,84517.3,46326,37034,81979.3,61292,39396,101960,75915,55511,89624.9,76.713,17513,61292,73340.7
46143.9,31109,97209.4,38836,32229,78971,107019,49936,140451,91953.4,67715,88994.4,77.338,17631,107019,87458.6
57104.1,38859,96306.5,61805.8,42721,94813,84334.6,51261,107820,92157.8,56675,106566,78.163,17884,84334.6,88615.7
71500.5,51493,90999.9,27458.2,19353,92983,70967.4,41093,113180,88342.8,63680,90917.6,81.612,18641,70967.4,85362.2
56082.6,38553,95334.5,47374.6,35697,86974.9,70985.6,41063,113292,90727,55596,106948,81.702,18674,70985.6,87745.6
64585.8,42315,100028,41902,31621,86843.9,71108.8,41171,113191,88536,54672,106129,82.01,18740,71108.8,85549.4
74992.5,51598,95250,53823,37745,93452,76151.6,39822,125324,82513.2,52846,102327,82.809,18923,76151.6,79314.8
78233.4,52022,98556.5,61717.6,29471,137244,83794.2,39492,139054,84407.4,54413,101662,85.708,19573,83794.2,80888
61726.5,42303,95627,35518,19251,120914,57474.2,29343,128366,72009,46216,102111,86.322,19727,57474.2,69595.1
87595.2,57218,100329,62336.4,31081,131440,78457.4,43107,119280,77583.8,51678,98388.7,88.153,20138,78457.4,74288.6
70326,50393,91458.8,44020.2,28158,102454,64101.8,34023,123475,82800.2,53052,102284,88.558,20232,64101.8,80107.9
70369.2,50398,91505.9,36660.4,21062,114072,67673.2,40699,108971,89013.4,67861,85963.7,88.995,20322,67673.2,86171.1
67311,52141,84603.2,31355.8,21931,93700,168960,123612,89578.6,69652.8,48440,94235.5,89.292,20401,168960,62556.5
75277.8,47506,103848,43624,31729,90105,78663.2,38427,134158,80246.6,53266,98731.7,89.541,20464,78663.2,76942.8
58182.3,40536,94065.4,62049.4,32111,126638,82149.2,46408,116009,88459,70338,82419.9,89.821,20527,82149.2,85008.7
60012,42650,92214.5,50244.6,36968,89072.4,73635.8,46051,104792,89625.2,70085,83807.9,91.396,20892,73635.8,86532.5
90210.6,63802,92662.3,33724.6,20511,107756,63015.4,37621,109773,91428.4,54626,109689,91.405,20897,63015.4,88781.8
66737.7,48645,89911,25972.8,19050,89351.9,68745.6,44147,102052,89282.2,57388,101959,92.854,21238,68745.6,86394.9
66606.3,48952,89171.2,45969,32548,92559.4,75691,45023,110177,86849,65640,86711.4,95.863,21917,75691,83670
86549.4,58611,96775.4,43103.2,22954,123064,74960.2,36699,133862,91863.8,59435,101294,95.926,21933,74960.2,88715.5
65339.1,44392,96460.2,66722.6,35081,124647,79884,42666,122704,77518,60639,83778.1,96.363,22027,79884,74162.9
78117.3,57505,89027,41718.6,26357,103732,64923.6,35188,120917,87214.4,55060,103808,96.598,22078,64923.6,84487.6
66621.6,52373,83365.7,54572,41812,85536,60359.6,40695,97204.2,84806.4,64967,85549.2,98.354,22467,60359.6,82271.3
69748.2,49933,91543,48358.8,28608,110782,65499,37573,114245,79822.4,59132,88467.2,99.001,22602,65499,77071.4
134685,45784,192790,107611,35242,200113,190956,43003,262143,83806.8,61077,89925.2,99.197,22658,190956,75786.7
70508.7,44372,104139,81957.4,40952,131157,106772,55711,125602,83078.8,49892,109129,99.678,22783,106772,78594.4
75916.8,59528,83578.9,34612.2,25341,89512.8,64958.6,42306,100627,91369.6,65431,91516.2,104.887,23990,64958.6,88641.3
59353.2,43631,89151.6,39396,29005,89014.2,73183.6,46624,102869,80435.6,59118,89167.9,105.636,24149,73183.6,77361.9
70778.7,41541,111662,72144.8,45032,104994,90231.4,48514,121891,78008,56421,90610.5,105.822,24170,90231.4,74218.3
79687.8,34859,149816,47156.2,30245,102180,132665,39286,221309,71092,47789,97492.8,105.826,24189,132665,65520.1
52401.6,36757,93429.6,44062.2,34001,84928.7,73799.6,39102,123690,84788.2,51706,107467,105.856,24206,73799.6,81688.6
59543.1,47185,82700.4,25639.6,20627,81462,51231.6,33087,101475,74032,49330,98353.2,106.319,24293,51231.6,71880.3
71829.9,41067,114628,74662,46554,105105,131473,51709,166628,72602.6,47859,99418.8,106.809,24366,131473,67080.8
69391.8,50700,89697.5,29398.6,20188,95436.2,66868.2,37265,117598,89973.8,54818,107565,106.83,24388,66868.2,87165.3
