"FSC-A","FSC-A","SSC-A","SSC-A","FITC-A","FITC-A","Comp-PE-A","Comp-PE-A"
110996,112499,154972,106648,109815,82684,87972.2,62481.6
88376.4,90689.4,95603.2,85821.4,77890.4,85180.2,55428.6,56221.2
116960,94221.9,100607,82990.6,77004.2,82055.4,85293.4,81847.9
95117.4,104382,105248,92194.2,113771,97913.2,87054.7,82457.7
119565,109121,101665,99174.6,83140.4,84667.8,63091.5,85279.4
96919.2,74794.5,144899,62623.4,116701,68518.8,78973.1,58429.3
118078,92259.9,141173,112325,107939,111264,58181.5,86963.8
111466,105944,120952,137995,101300,122717,60710.2,85979.8
133021,102375,136767,126468,109690,101181,66957.4,57832.1
116251,107811,148918,102844,100678,95151,66401,73389.9
86355,67109.4,96972.4,102263,89292,100614,81021.3,80493.1
104660,113773,118748,105776,105167,125966,65188.9,87715.5
117915,149308,114708,168064,114804,153696,84195.8,84070.3
130683,88007.4,167299,119917,103732,122920,69407,81472.4
97189.2,93856.5,109872,99318.8,90276.2,79564.8,66548.5,79369.3
128326,102825,134525,102259,113186,102424,77726.3,58111.1
89237.7,71723.7,97517,59276,72752.4,64492.4,56745.2,67844.7
78373.8,75834,70753.2,73543.4,66918.6,65146.2,75896.3,65080
78046.2,112574,103302,115815,84750.4,96810,57571.7,82018
102724,91511.1,116542,108223,102088,116308,83805.5,61682.7
121189,75841.2,125299,58674,113446,58184,87398.8,55770
104607,133305,80026.8,110268,75229,111966,66544.9,72952.5
89396.1,96234.3,67691.4,97266.4,77523.6,98609,71178.5,80987.9
110717,104213,114213,95408.6,111335,109522,79277.9,88372.6
140764,132545,161322,172775,127229,135670,74056.7,84401.1
118523,106321,100127,100387,84074.2,92223.6,55407.8,73774.1
90786.6,135902,123949,115801,85653.4,104084,59013,69077.2
72013.5,86396.4,98280,76494.6,95554.2,83015.8,73545.3,55995.4
69951.6,82312.2,62372.8,103984,54856.2,112031,64535.9,79733
124181,145923,122921,138827,126993,115539,63191.9,81740.3
101824,77855.4,102792,95893,77292.6,97823.6,58412.3,84055.7
85091.4,78858,144155,63145.6,109080,75080.6,60210.2,73169.7
122651,137863,157626,134035,130515,131072,87143.6,64900.3
91577.7,95518.8,110124,113221,109630,106453,67631.7,66566.6
148977,69075,163972,51038.4,122000,58517.2,56555.2,66530.3
93028.5,74893.5,107128,59220,87036.6,64577.8,75215.8,83350.6
121450,110333,119913,107192,90041,101209,54870.2,74526.1
89633.7,89750.7,114941,83995.8,87697.4,71860.6,55946.3,57217.3
126310,105996,177961,120651,119661,105043,81545.9,63240.5
108323,82691.1,159849,118115,125628,124183,72094.5,70818.1
114109,99307.8,117564,71024.8,94029.6,107425,65532.3,80893.7
80195.4,74614.5,117176,122111,130054,107857,59170.9,65026.4
126941,91062.9,198632,63887.6,128009,91067.2,84283.5,60883.4
119564,89870.4,138765,95305,112790,106064,83643.8,60245
116539,80207.1,134701,90552,124803,101181,87871.7,62505.3
60832.8,109074,102823,115906,77982.8,94700.2,72597.5,65904.4
95492.7,64176.3,183492,44296,155236,62760.6,81392.4,64899.1
131867,97660.8,140480,103606,100800,97710.2,74375,72729.8
78486.3,87303.6,72319.8,107677,67156.6,106474,56773.1,78671.6
126774,125086,131706,134567,100772,112217,62032.3,57032
119831,84992.4,135881,113043,112864,119757,81486.4,87615.4
124489,106429,158308,93230.2,128607,90097,83678.3,71068.9
113290,111456,127081,92166.2,94420.2,104782,78118.8,86858.7
127765,101656,154035,169747,109612,155270,61538.2,85732.5
93656.7,81132.3,139950,106383,102901,99520.4,62287.3,58708.6
105656,115992,120669,112973,119337,84662.2,68627.8,56715.4
105697,106549,116134,90449.8,104801,90297.2,88510,78563.9
129545,75779.1,134275,49397.6,104490,69771.8,59152.6,81931.1
115259,132345,116767,151025,86431.8,133633,55794.2,74201.1
119588,105694,157161,69952.4,113057,83696.2,56876.8,79343.9
100337,113667,132705,141961,114094,110027,84320.8,63037.2
102162,101906,121583,98813.4,93849,78836.8,69317.7,69210.6
123596,104610,169201,105083,138648,113355,84535.8,76605.5
114874,96675.3,125156,96555.2,95593.4,84856.8,58600.2,57492
113495,105785,93830.8,72573.2,100213,83591.2,76297.1,59077.3
117194,89979.3,108016,95432.4,98953.4,109984,63428.6,78819.6
62968.5,115412,100692,114087,89030.2,116472,62551.2,82397.9
100310,72498.6,117702,43975.4,93142,51205,67699.6,57058.6
75690,89415,124988,113945,118366,94652.6,57309.3,69698.8
124361,92130.3,137406,93024.4,110293,106238,76208,76792
80991,117507,110768,133116,92913.8,109621,57842.5,73671.6
112997,87624.9,128183,82527.2,102150,81902.8,54760.1,69372.7
89255.7,106952,77576.8,99261.4,87497.2,117249,54693.9,75367
111482,108334,130003,109749,103267,112778,62363.1,65879.6
103377,127902,87565.8,205218,94439.8,131674,62103.5,79338
96769.8,64617.3,148312,55343.4,108718,74076.8,57500.9,83525.9
106373,82188,130483,101458,115898,119060,87805.5,86726.3
93771.9,114759,101272,151386,126556,104597,87490.1,74820.1
71262,80461.8,168372,96150.6,131229,91558.6,64806.1,61618
109518,105303,148009,109582,108770,107664,76148.3,55301
72060.3,115124,48889.4,140584,51590,154952,66240.6,81628.6
104226,126883,140511,143839,103408,128387,57281.3,83665.7
95647.5,120858,67256,117323,62524,111992,58861.5,65196.9
104501,112622,119034,122955,97356,92300.6,84874.3,62390.6
100019,108239,99674.4,103960,79181.2,108699,72105.3,74983.4
89691.3,104132,127828,124023,101081,119629,68751.7,82256.9
101970,87007.5,118159,59973.2,104684,69035.4,71781.6,87410.7
135708,102616,133556,97953.8,128254,120645,83316.5,58702.5
99213.3,131100,143123,86287.6,110564,102095,76846,62886.4
119725,84462.3,123038,115338,113571,95993.8,55153.5,60319.6
103885,97106.4,120183,118377,86478,98435.4,63625.4,75262.9
101777,97807.5,93626.4,116665,99750,120264,82719.7,74283.6
116514,122593,132889,125623,108643,95834.2,59634.6,55102.3
91030.5,84494.7,139537,109945,128373,83038.2,81361.8,61191.3
101259,95716.8,104373,99475.6,96306,92068.2,63487.2,65079
107470,136629,85640.8,187159,88643.8,120126,75065.1,60577.2
104992,113111,126512,94662.4,109999,103820,72667.4,86885.5
108029,136921,107019,129518,96042.8,113914,75813,77551.7
114113,79220.7,112389,84361.2,91245,92929.2,70776.1,61957.9
140137,138218,143507,124134,104835,123691,61737.9,71000.5
54181.8,87685.2,92363.6,73158.4,88678.8,100192,66389.4,62939.1
69802.2,53597.7,53072.6,76507.2,49883.4,97024.2,56277.2,71981.7
96443.1,108401,104867,96607,85127,92849.4,55785,71146.3
85148.1,113892,49907.2,119092,66257.8,107131,83510.8,88372.4
119300,105682,191542,109318,124845,105686,75313.5,69600.1
78088.5,123208,79815.4,138851,67225.2,109836,81682,69728
86083.2,104061,115433,101730,105728,114309,80942.7,73163.1
118675,124279,111594,176275,91679,138981,62643.8,84202.5
86756.4,78021.9,115199,143709,90867,111929,60413.7,74057.1
117350,120906,119629,114251,108871,121507,72561.9,88722.1
105951,106882,116183,116000,106137,97098.4,56606.4,62195.7
101246,118491,153580,120137,100764,175673,80796.8,76821.8
114143,108446,111066,97221.6,93122.4,111268,83708,82770.6
100958,117329,74089.4,124825,74089.4,104161,73306.8,55802.3
122220,68145.3,143514,47805.8,101569,55423.2,54818.6,57528.3
106652,61099.2,96745.6,33941.6,87813.6,69970.6,58908.5,84405.7
129876,95069.7,129717,99198.4,106173,99481.2,70652.6,66501.1
73923.3,101945,94724,93037,75391.4,101185,61333.5,67900.8
106003,99115.2,117106,82335.4,98795.2,79431.8,73572,56676.2
122662,121758,134271,109171,109721,110771,61388.4,88235.5
109599,120220,140906,151297,120774,131355,86123.6,83397.5
84908.7,81669.6,122947,108471,95551.4,114629,73880,86673.5
125032,140714,123612,146397,85612.8,132150,61377.7,59760.5
102160,109191,124394,122905,103354,100983,65425.8,66682
79300.8,105999,91953.4,94831.8,104241,111479,71760.6,82401.4
117949,93516.3,162373,68345.2,111324,85895.6,77619.3,80138.2
92011.5,111319,116841,114394,112745,126518,60856.3,85091.9
95153.4,106431,86056.6,109964,90981.8,105136,56044.1,62419.4
111503,93736.8,140057,127485,124055,101909,72165.5,70992.5
75837.6,62124.3,89486.6,43023.4,82943,76998.6,55970.2,58164.5
72845.1,93725.1,47374.6,81880.4,52348.8,76000.4,58221.9,84579.8
119554,107430,142122,132318,109777,123036,68706.9,87392.8
113268,111893,99192.8,154631,109131,126658,76448.2,86454.4
121190,100004,106424,70978.6,118478,85205.4,58398.4,83215
125428,47133,152382,45697.4,122900,57565.2,70551.8,55002.5
96285.6,78258.6,91826,131621,80536.4,93528.4,74489.8,62670.1
71795.7,111028,110862,112235,101234,114804,60872.3,88430.8
88405.2,110747,101570,105599,76493.2,115685,61217.5,80001.6
81472.5,107628,131467,114923,106232,128012,75770.2,64919.9
111146,89516.7,129550,106170,118828,108756,84756.9,74368.1
116596,93402,133972,77274.4,117291,85531.6,83705.2,86352.6
64215,100408,37758,120820,47929,134970,56576.9,88423.3
89030.7,91540.8,119251,115035,108405,103260,67713.2,80952.5
81625.5,100417,136997,112412,96602.8,125234,55263.5,79204.7
99831.6,82602.9,110740,77261.8,89042.8,72881.2,72945.8,57156.1
87822,105327,118856,89495,92171.8,121313,55784.7,74002.9
113687,66433.5,111695,75055.4,87619,82903.8,58036.7,74198.3
113525,96768,163055,80578.4,122322,109504,83824.8,81132.5
129229,83044.8,148343,69809.6,106117,70470.4,63723.3,58370.5
120652,98148.6,103569,105589,95103.4,110211,67233.1,77906.6
105061,105288,136462,92176,123263,84117.6,74416,64588.7
100105,52147.8,134168,47728.8,103373,77324.8,70791.2,74240.9
135660,73589.4,166855,83878.2,113631,106774,64233,84151
108245,105599,154102,127285,118285,139171,73009.2,83262.9
115595,86562,112235,88517.8,85601.6,89831,58263.1,73757.2
107839,116420,110257,120519,103174,110253,84496.4,73012
113702,128816,116885,156864,97707.4,139642,56478.7,85900.8
96262.2,73392.3,62886.6,39265.8,81373.6,82615.4,57968.8,56163.2
131296,114612,146353,133556,113365,121936,66208.7,56463.8
116544,92750.4,193570,99989.4,123697,100485,64004.5,74569
94117.5,106972,98921.2,91889,69116.6,94152.8,59439.8,64161.2
100458,73339.2,167721,91431.2,140675,98896,81646.2,63180.1
76898.7,89093.7,87162.6,116568,88741.8,122734,64494.2,62876.3
119517,98440.2,101168,114871,102067,119918,65152.6,62932.9
75518.1,105324,55792.8,118341,66123.4,123486,82166.3,81865.3
108774,84356.1,116354,106602,105038,102941,72669.8,76418.9
103379,82038.6,88006.8,56847,80756.2,80525.2,69039.7,64173.6
103688,104157,154990,112626,129182,110438,83706.9,69212.4
123285,68784.3,123151,47912.2,127253,61342.4,73567.2,63708.4
134778,81382.5,148054,86910.6,132289,143448,82684.4,61620.2
102663,68201.1,136578,55596.8,107192,69706,69702.5,77253.4
98477.1,105632,73231.2,105790,60498.2,97235.6,56600.5,70675.8
111876,89175.6,136703,74475.8,118539,78131.2,87786.3,57387.8
115128,84923.1,80253.6,78852.2,73680.6,85734.6,54860.5,59967.5
93178.8,69895.8,118441,80407.6,121075,84785.4,77432.2,61389.6
96945.3,102701,127506,133994,87505.6,107828,62501.4,83937.3
116783,97596.9,121177,100857,97410.6,104563,70155.4,64033
120164,85258.8,144845,94894.8,109050,132912,88139.9,85936.8
120901,75453.3,141555,84497,118945,83304.2,77515.9,75445.8
74780.1,107389,92489.6,90671,95715.2,105521,67676,63851
120175,108788,109082,144214,113308,119307,83937.7,82146
91980,114541,82010.6,127928,65021.6,110698,55671.2,68827.3
110210,67212,136311,62741,133881,50710.8,87390.9,59409.8
84559.5,96650.1,104425,117652,83420.4,115653,60579,58980.4
115658,101936,144726,86361.8,112797,88334.4,56448.5,62187.1
119736,84297.6,132793,58429,117936,61859,66922.6,66087
101929,93980.7,121176,134109,96691,110254,68694.5,55885.7
104485,66982.5,118437,82510.4,90375.6,106100,56015.3,85330.2
113978,91244.7,134708,83449.8,113072,71908.2,69577,55930.3
66660.3,110807,62413.4,102266,63567,110103,56023.3,72334.5
97092.9,140614,137815,164191,130228,158203,88221.3,79074.7
71564.4,75464.1,54437.6,57101.8,48182.4,63495.6,55294.7,72589.4
96785.1,95488.2,122549,75945.8,101198,114577,75548.5,77655.3
107934,77300.1,178557,95198.6,117286,88690,81797.1,57490.6
109063,111574,131509,104894,115010,93375.8,66000.6,77948.5
111465,63587.7,123904,40269.6,123199,51954,67008.2,55379.6
103881,78533.1,90860,100320,96426.4,95557,70211,57817.6
134359,56907.9,130117,64030.4,105274,60902.8,87846.6,55894.9
114220,64084.5,138690,45668,110249,64411.2,77048.4,57020.2
105458,131158,113096,127144,104675,131809,65040.9,84595.5
119016,81686.7,174462,80876.6,152153,103194,77544.8,83861.4
112511,118570,174871,142751,147532,139229,86401.8,87494.3
86094.9,94456.8,70624.4,86347.8,72927.4,93907.8,73706.6,75759.7
158336,102401,155849,130262,172658,104630,80937.6,86126.6
99427.5,97260.3,116571,84029.4,103575,88025,72760.4,77190
92345.4,91713.6,82842.2,79160.2,66344.6,83680.8,78030.7,82173.9
99648.9,105360,92127,133024,99457.4,103558,64823.4,57506.6
95148.9,72951.3,142384,46578,98095.2,62196.4,68501.2,61735.5
101538,78907.5,89238.8,99100.4,85752.8,112517,61422.8,68174.4
83286.9,120403,81741.8,153594,77222.6,119382,66334.7,76809.1
88083,119304,85950.2,111808,86531.2,94362.8,84714.4,72946.6
108349,106746,129283,135108,138772,118220,83339.7,80855.8
113075,122343,132929,131888,109532,101937,58947,56774.4
96926.4,92009.7,108994,126377,105185,113620,70767.2,80208.8
86644.8,63970.2,79700.6,168214,85881.6,144416,55070.3,69213.4
127087,72469.8,127068,86378.6,117638,93851.8,88754.4,85025.6
85232.7,84203.1,108835,132685,93062.2,127774,64197,86795.6
119839,111542,137994,132014,117610,119346,60539.8,82760.5
104211,106254,130059,126987,101513,157804,68320.9,86785.6
122984,94036.5,136879,87586.8,105011,80564.4,73813.2,65528.8
129068,63867.6,94215.8,80018.4,84691.6,100962,87932.9,88437.4
122872,113499,134054,113618,97249.6,120172,70048.1,84696.1
101374,100739,111583,94336.2,108329,100183,79541.9,63519.1
67969.8,72776.7,75584.6,104639,98611.8,104492,81565.9,67986.5
115844,83280.6,138198,86249.8,105319,84326.2,85029.5,66291.6
117349,122907,142082,102882,98809.2,110226,64381.9,56145.8
105724,127761,127490,128810,114436,127050,73140,68399.1
120642,87867.9,121092,105718,148417,121538,81940,66186.5
87167.7,62844.3,129858,36061.2,115563,59978.8,74806.6,57506.4
99628.2,94577.4,129938,91466.2,103240,95547.2,70290.9,71648.6
122359,103582,137626,84967.4,96304.6,94109.4,58923.2,87915.2
120980,103342,145837,92089.2,107246,88076.8,85108.9,77445.7
102493,78845.4,128461,83119.4,107185,104692,87481.4,74630.3
124678,101486,120856,93585.8,115139,100183,82573.1,69670.7
87013.8,115290,109077,121460,107603,101762,60294.3,68186.9
115644,76186.8,99211,70729.4,109077,77980,55595.9,68799.4
106757,89853.3,138459,103361,127373,90917.4,67713.4,55086.1
134272,109860,135495,114289,149009,99870.4,72309.3,56378.3
113265,65967.3,133413,78262.8,105213,99839.6,61045.9,62547.9
72900.9,110186,107446,102304,89866,83818,57063.7,62089.9
92282.4,95567.4,146014,96667.2,121334,128612,76138.5,77044.9
105107,94219.2,107428,92033.2,95354,102824,55798.1,84555.9
133185,95457.6,162327,106299,137210,86842,79869.6,55435.6
79252.2,74708.1,62475,63098,60790.8,69573,62190.8,60476.6
100817,70699.5,166863,85636.6,134278,85290.8,84160,70408.8
102359,95640.3,146412,123396,129165,108562,83532.5,67022.7
67598.1,83322.9,123021,97916,94903.2,91525,55780.3,65621.8
96629.4,76960.8,138734,104608,115739,116732,77814.1,88548
106078,113151,86935.8,97414.8,130686,110274,70303.5,66898.8
97943.4,119720,122709,127967,116334,106176,84791.5,55351.9
137898,53397.9,100801,70086.8,114682,78971.2,79276.7,59475.5
114096,101539,134518,97676.6,132528,101801,72700.3,75570.4
101870,79086.6,131544,111849,115889,149657,67564.6,86920.2
128168,74471.4,148407,68917.8,131893,77446.6,83475.1,56540.2
130149,86927.4,115310,79917.6,112878,101539,61898.4,74320.3
94142.7,120158,131166,86475.2,126601,111465,76624.4,68455.1
117212,130432,109494,121425,99433.6,107818,84550.3,78980.3
90205.2,100966,104847,78912.4,107603,90137.6,81253.7,62253
136166,75628.8,152419,91502.6,114622,103680,56333,86959.4
98252.1,122195,85514.8,177800,91606.2,142898,66841,81606.5
111038,81249.3,106417,85015,109215,77624.4,77741.4,84784.1
99048.6,82107,144232,113228,107160,104744,65934.9,77197.3
107986,147038,126645,166117,112169,152831,86016.6,85464
110452,112085,118411,126140,96660.2,124215,56074.7,76237.6
123605,100349,134723,99544.2,119080,93954,71465.6,69758.9
99287.1,133563,147517,139910,151929,122758,88749.1,64904
116560,88176.6,141835,98905.8,114926,202315,70675.6,74149
119361,96529.5,155089,92275.4,121996,92219.4,71483.5,69466.5
109888,109188,134525,122818,99062.6,90500.2,73441.4,62177.6
112559,90684.9,138474,75202.4,132590,89572,60949.2,83120.5
93008.7,101006,123593,95930.8,101188,111208,57187.9,67332.3
111902,111247,122832,123112,100671,89650.4,60223.1,58135.9
114466,84535.2,138002,80886.4,114752,90995.8,73062.2,86103
73570.5,88361.1,94553.2,135152,110489,112484,55119.4,70503.8
104736,78926.4,96251.4,78020.6,88891.6,79616.6,55252.7,64842.4
110740,70778.7,109092,92745.8,172819,97112.4,76791.7,54917.9
78875.1,83557.8,120067,48682.2,108039,54227.6,55632.5,68629.5
89689.5,82554.3,91942.2,89415.2,78040.2,95708.2,57291.9,76795.9
68461.2,76763.7,54642,59500,69836.2,73917.2,61400.4,74616.8
97137.9,118815,108185,124510,94536.4,107001,63376.6,86040.8
87134.4,119153,102922,93710.4,104650,90221.6,64816.5,63074.4
106522,89258.4,85636.6,73603.6,96122.6,94509.8,54802.9,86418.8
115644,116356,150172,109995,104637,104103,58742.4,63651.5
100295,109984,102087,103001,102238,111913,71841,59062.3
84091.5,119076,91142.8,103218,90623.4,92857.8,64593.5,56640.6
99189.9,93802.5,78527.4,94466.4,86356.2,85859.2,60023.7,79344.4
77193.9,117554,52173.8,93027.2,59155.6,109824,78294.1,70900.3
99946.8,90720,88305,90315.4,77418.6,75763.8,86777.1,62305
122788,80635.5,97623.4,122763,108592,127128,79111.9,88211.7
123252,106027,181934,98795.2,128604,110797,82303.6,57882.5
94790.7,100991,110271,102701,126755,134130,78266.3,74368.5
94243.5,82104.3,97641.6,92139.6,80028.2,93143.4,58087.1,55651.1
84555.9,89912.7,86350.6,75506.2,95450.6,138282,75096.3,71995.9
99106.2,104494,126536,153936,111966,129136,68751.1,76617.6
92843.1,80280.9,99429.4,88177.6,76645.8,101287,55352.7,81021.9
95220.9,80243.1,138544,74565.4,122766,69881,59229.5,79059.7
106959,97367.4,135811,93503.2,119393,100990,83448.9,83988.6
99195.3,98187.3,128499,105875,97227.2,119090,59493,67654.4
82863,70076.7,153024,48020,148025,64058.4,85736.2,59444.4
88778.7,92468.7,112924,91068.6,96987.8,93224.6,66320.1,70614.1
105415,116510,95649.4,107274,86284.8,106453,57667.4,77258.4
137144,103372,141470,102697,119794,101472,66719,82067.7
132674,80076.6,152967,92061.2,130756,98572.6,79018.7,80745.6
141277,97103.7,180060,85005.2,116319,91697.2,81059.7,56348.7
115755,94261.5,143076,86930.2,115822,87789.8,86953,73794.2
97978.5,152374,126489,215450,99366.4,193077,65076.1,58401.5
104735,85816.8,154169,136699,107505,127086,55129.2,86796.5
100305,84979.8,113901,138148,102437,117277,62960.2,75423.3
98792.1,94709.7,92282.4,68955.6,91092.4,76419,74822.3,85048.3
110330,79465.5,167308,58129.4,145265,64482.6,86349.3,64053.9
101885,89937,130404,108377,107285,119216,73402,87302.8
98190,102118,113242,133588,89947.2,131068,60842,59986.4
118118,107133,111535,117011,84404.6,111748,58301.6,62208.8
90336.6,140005,119815,126477,99243.2,141637,67974.6,88760.8
96053.4,93337.2,112069,123339,97606.6,112106,66258.8,87372.8
119080,121100,132208,129770,129198,119057,87812.5,84571.8
98136.9,115941,108909,120827,103603,107968,78363.5,67510
124102,109900,162050,92737.4,125882,89444.6,84194.9,59745.3
97568.1,120713,153217,113497,113533,108468,73161.8,84284
62906.4,84039.3,89187,53656.4,91669.2,62914.6,84362.4,57277.2
107118,75645,127135,86179.8,108599,93199.4,62761,63052.2
128814,117696,156530,108121,126195,111639,55007,70461.7
113548,106037,108030,133764,111594,126582,75868.8,87245.5
116222,75411.9,121068,113312,100162,142675,61201.5,81921.5
141549,91021.5,164711,85790.6,125251,91236.6,78415.9,75022.6
91170.9,114484,110943,152223,104336,122781,68889.8,59245.7
106965,134370,126949,127940,112795,108814,79954.6,59882.9
71298,83085.3,69963.6,79794.4,84245,103856,63018.7,72548.1
83778.3,118830,115524,143276,98653.8,132826,60509.8,84755.6
101651,84069.9,119351,110894,125720,113474,76874.8,75115.6
87053.4,72748.8,137333,80330.6,119979,89276.6,58144,61697.7
104681,98622,136927,108825,118126,96903.8,88709.2,69252.1
112243,87246,134238,63568.4,102301,79465.4,75433.8,63176.5
78610.5,94226.4,70406,57234.8,78464.4,72010.4,81232.5,64788.4
95384.7,78656.4,122479,116938,105781,107493,69687.5,60333.4
105701,83171.7,112981,88818.8,89754,81860.8,76052,54679.9
99226.8,86521.5,99086.4,84873.6,108069,98088.2,63390.2,64564.6
73420.2,52306.2,53079.6,43401.4,57090.6,59110.8,57642.8,56262.6
116244,98303.4,120303,111199,124166,104154,84066.9,77988.3
100382,95541.3,119941,80910.2,126965,97074.6,78375.9,72699.4
87039.9,98599.5,98214.2,150576,106112,109147,54773.4,84977.8
116294,87661.8,129889,73547.6,121103,70210,70215.5,62868.8
129416,111755,131257,106443,100297,102465,55608.9,63559.7
129749,71388,150574,49763,131272,72676.8,82608.2,58527.5
96255,112889,122760,193150,119343,164445,84236.2,68679.1
97673.4,125265,88051.6,142664,97767.6,145988,67557.4,87523.1
100449,82594.8,105343,46519.2,87178,73246.6,57485,76547.6
120191,88687.8,116518,107691,109109,112742,80082.1,60964.2
120322,114938,157762,104871,127464,97470.8,64499.8,55038.7
110508,89585.1,100832,104146,87092.6,96422.2,70266.1,86160
100471,69595.2,122261,71962.8,96433.4,65977.8,56861.7,64989.6
113764,107477,172015,102967,133885,92324.4,83442.8,67069.9
101161,61341.3,160397,57703.8,132324,52052,80618.1,65622.4
76261.5,112880,130291,130161,97347.6,115210,57878.4,58531
129566,48653.1,157241,76581.4,111429,89416.6,70273.7,56866.6
103686,84356.1,118129,118793,93487.8,129721,72988.3,80670.8
105600,152033,102698,196288,104265,163933,80246.5,78609.1
104582,80031.6,127760,79567.6,110054,90003.2,65354.6,77490.1
111489,103241,126470,81068.4,88765.6,92877.4,56083.5,57258.7
137233,87014.7,130602,108100,129490,100666,77307,78876.9
118701,64545.3,127116,88040.4,124382,95722.2,75202.3,70978.4
117831,89588.7,124436,73837.4,110180,89321.4,88694.8,65933.8
81533.7,122436,100647,186523,102277,130218,62346.1,61359.9
112226,121258,162579,101920,119234,96409.6,79936.7,73795.6
83060.1,115796,120819,105742,108483,94474.8,62747.2,77167.6
136558,54534.6,102340,37574.6,109284,55804,75389.6,69992
100271,112645,124769,154116,104090,119896,73403,58493
133262,73434.6,93703.4,80864,126476,86440.2,86178.5,79259.3
107580,85351.5,142614,126792,116182,111783,68228.3,68909.2
136893,121190,164248,121307,138334,102095,74677.7,55668
115191,104622,163540,86430.4,115069,85649.2,65554.6,62713.3
95819.4,128423,98684.6,121519,107187,106956,86519.5,76935.5
133653,119031,159664,161183,190817,136465,87353.9,87995.5
122173,95310.9,153380,101375,109004,98756,69614,56689.5
141253,86232.6,196703,114079,183302,86990.4,88171.5,74421
89014.5,82026.9,60979.8,92356.6,68800.2,99901.2,57657,61428.4
111577,112866,119552,116603,103335,158196,63547.7,65378.8
114543,116157,153209,112203,116105,128607,71774.6,65741.5
100502,94052.7,100108,96240.2,101423,89063.8,69848.9,66773.8
61618.5,126560,35886.2,134638,59386.6,110951,66451.1,64606.4
98988.3,62106.3,104565,36625.4,92678.6,67289.6,63364.6,77115.6
112659,102543,116949,98397.6,94297,98212.8,58232.3,70458.1
116724,74253.6,128128,83290.2,118733,101102,74372.6,79452.5
90319.5,93428.1,146580,130953,109700,142485,83296.4,60646
125189,121828,160142,122951,117379,131480,75198.2,62387.2
102750,99327.6,116280,92758.4,98222.6,85521.8,71357.9,73288.2
149066,141534,141194,116754,152607,128241,77457.5,76501.8
110438,107981,116943,97858.6,93035.6,89061,61920.2,76849.7
118256,69304.5,175358,122784,131964,132448,55640.4,87880.8
100771,101862,115189,84760.2,93328.2,94067.4,87786.7,87131.4
116423,88346.7,190229,78080.8,158477,102528,87034.5,75618.4
154903,97878.6,136751,124369,125591,123698,85041.7,69747.3
100605,93913.2,169259,80182.2,133869,85969.8,82572.6,87926.3
119586,63015.3,132797,74956,107164,66235.4,60575.6,61642.3
94783.5,112359,99829.8,77911.4,92198.4,105678,79911.3,61304.1
76660.2,113930,77837.2,118758,69039.6,129035,61321.5,71091.5
114083,128536,135566,130134,106418,134565,59266.9,84303.1
108942,46620.9,153482,35042,102115,53893,79057,61835.5
91348.2,87771.6,136451,109411,128898,100369,84664.1,66750.2
65537.1,107535,101493,116190,102715,104763,78034.6,69943.2
84942.9,120657,110681,120924,101023,105897,83432.9,54784.3
57447.9,55119.6,44776.2,84180.6,49474.6,116924,65320,81497.3
98553.6,96110.1,107740,61657.4,92068.2,79793,69753.6,55707.7
107330,89634.6,114190,81218.2,91492.8,83827.8,68948.1,58231.1
110692,81284.4,135773,61385.8,127662,81257.4,73907.2,69776.6
70720.2,70180.2,104460,103641,110706,123378,77057.6,68162
115750,110792,143931,112059,109948,100919,69478.8,65364.3
106418,58058.1,147678,43122.8,114813,59508.4,63215.1,76639.9
125914,58760.1,121160,37597,138558,61892.6,83430.4,61854.9
109360,107842,141527,111101,91743.4,103193,54903.6,63023.9
109949,96130.8,135150,106637,100841,97344.8,70432.5,81773.7
128469,120958,140470,132608,113470,99649.2,77831.7,55422.1
133549,77067,153315,76547.8,170282,88102,85426.7,65288.5
131212,111316,108476,131548,100019,103116,54929.3,84022.6
71019,53013.6,64048.6,84764.4,59502.8,88263,55253.7,59941.4
127464,120638,134403,113123,128054,98452.2,87059.4,67128.2
113087,124165,153847,111461,100778,170738,60367.5,70901.1
100055,124309,127918,122214,140532,136339,58450.8,88437.1
112238,90320.4,98782.6,65737,136115,78316,77317,66605.4
120770,114691,152816,113351,132406,139899,86943,86578.4
82034.1,107689,105895,122790,97056.4,118399,69558.5,73980.6
73180.8,55811.7,103942,61640.6,117683,76301.4,70370.7,64688.3
106227,82926,143501,132434,119546,119638,60448.1,83632.7
84152.7,74266.2,83748,53939.2,91875,64773.8,56921.6,61784.6
106758,61352.1,126441,32475.8,92612.8,53211.2,61586.3,71480.8
105223,98029.8,135794,120994,107810,143049,55877.8,85342.9
84855.6,130183,146174,150737,124722,130827,84554,63340.2
122422,113734,95778.2,233650,107563,210710,69289.4,76532
78246.9,98956.8,47972.4,82594.4,58783.2,82623.8,72370.8,72135.5
88596,95907.6,117729,108868,95715.2,103810,63170.8,83730.2
86654.7,112072,112151,99520.4,90724.2,114449,56049.7,71042.4
118075,103428,137131,100142,102157,97237,58649.1,68560.4
85960.8,73472.4,114047,83746.6,103664,82195.4,66594.1,60474.4
129333,109751,171868,102973,125618,111153,88745.1,70204.4
117454,77980.5,130438,129514,98547.4,125034,63437,60980.1
128133,132653,120548,124898,92275.4,197047,64382.3,72918.4
130199,104355,163323,98386.4,107366,90619.2,54767.7,56398.1
104029,121404,95996.6,138267,89643.4,143832,54973.6,87547.6
87103.8,69464.7,93485,66348.8,91133,78017.8,83224.9,63645.9
114723,90775.8,128856,80703,93268,93934.4,61729.4,64453.7
115788,100531,124872,102515,98166.6,102889,64130.5,60437
82381.5,83524.5,101731,110440,89615.4,100579,57199.2,83790
81231.3,97577.1,100944,103853,97510,95365.2,66147.6,85474.9
102271,94906.8,120285,104965,97077.4,98942.2,64066.9,87446
112079,79600.5,121983,132364,97360.2,121551,60075.9,77908.3
77456.7,131334,90825,106378,79692.2,114967,55934.1,56443.1
108392,91556.1,160955,129175,126654,136311,75109,88299.6
130189,104942,182056,105951,131470,96720.4,68722.5,61655.6
118902,88370.1,135022,128269,98387.8,89142.2,61063.1,74143.2
129754,77905.8,128717,90305.6,126423,95590.6,62731.9,57221.4
150502,125184,131659,110145,124327,116553,88393.8,72284
120982,100193,123257,121184,97104,93293.2,55108.6,55113.5
99096.3,77093.1,145898,64045.8,99101.8,84841.4,63100.9,59437.2
99948.6,93822.3,102981,84471.8,96490.8,95537.4,81775.4,79897.8
108220,107099,130932,133134,90080.2,131548,56499.8,87889.8
92876.4,102508,72105.6,135134,77541.8,137260,86407,86191.5
103764,88401.6,75664.4,70114.8,77716.8,81768.4,56738.6,74611
89970.3,75013.2,63365.4,49830.2,71478.4,66325,73687.4,60863.2
91887.3,104967,116774,110645,114164,91268.8,82360.9,68921.6
112042,92924.1,109536,78758.4,99626.8,83696.2,58909,60295.5
101073,109604,91099.4,132101,85239,127455,70018.7,73751.3
88786.8,128343,179077,121584,115255,142027,78286.1,85475.6
104850,102754,103859,107008,98242.2,105497,61406,59257.1
97706.7,69001.2,136577,82019,129619,86128,73012.5,56243.9
90457.2,107003,118150,96492.2,88891.6,101343,58875.9,60102.4
118820,77000.4,134221,89303.2,111845,85562.4,82776.7,73360.8
84234.6,94073.4,88530.4,121786,101028,110579,61666.9,65176.4
100975,96701.4,121472,90589.8,112965,80337.6,59298.1,79852.4
73395,117822,111637,117460,93002,152698,54773.1,67113.7
127380,108080,146140,104945,120670,125464,77289.3,81996
105585,79535.7,117009,115906,95527.6,91905.8,62216.1,56415
117277,128511,113331,119013,105773,122637,76119.4,87104.2
75185.1,92385,104982,98635.6,110873,89689.6,73985.2,63055.4
124115,81847.8,114727,132476,89871.6,122977,73093.5,83091.5
82169.1,77788.8,101678,50065.4,71069.6,69255.2,60208.4,63133.3
108415,104162,155189,86700.6,123166,101340,56736.3,77847.5
115060,120667,108028,124909,96178.6,114253,70391.2,78174.4
100125,53339.4,134056,38956.4,128426,52854.2,80497.4,62579.1
94582.8,105254,149124,88846.8,134189,107958,82864.2,79784.2
133880,107226,118464,116176,115955,116291,73075.3,68635.7
101264,104954,133459,133393,107283,125264,75699.4,87078.6
142186,94057.2,122270,62328,130935,80115,86871.5,61981.4
109247,101942,131834,123057,101184,112132,70013.4,73237.4
120250,129778,151187,117467,131755,193390,62275.9,74552.6
79164.9,96560.1,74418.4,130007,70915.6,97038.2,63852.8,87831.9
83534.4,89258.4,92534.4,81202.8,113651,82996.2,77693.3,56894.9
112101,104576,106894,120162,94029.6,102862,68529.7,61961.2
93560.4,84743.1,143661,91673.4,124263,80305.4,83479.4,65947.4
92298.6,98298,120800,107598,102858,102967,78802,73651.4
101934,119183,81239.2,130949,73717,119066,61632.4,80720.1
75232.8,118732,95593.4,115508,87928.4,105997,56064.9,63128.7
132773,99720.9,199997,111727,148093,105858,85875.1,76656.6
127328,92219.4,142411,100114,112732,101335,70148.6,65988.3
110915,129922,143685,121085,133773,120884,67645.2,84053
149759,104255,139510,114706,114465,124445,72224.7,74414.5
95392.8,129506,155676,108431,125706,95877.6,70411.6,62151.1
66838.5,149288,123413,164251,107061,209700,79291.9,83247
138768,137517,135814,128213,83990.2,155273,57053.2,88161.4
111483,95454,104210,83536.6,98487.2,80463.6,55029.5,54808.6
115220,52306.2,115247,55871.2,95848.2,72455.6,54813.4,61191.7
57321,102373,84858.2,109050,96558,108038,72262.6,60380
86256,91781.1,125698,80612,93172.8,83228.6,60635.4,70720.9
112982,99150.3,122480,124795,103985,126293,56877.2,60804.9
126656,92873.7,163478,101394,110690,95481.4,55786.6,70911.9
109457,116586,126424,147246,108947,141375,64259.8,84999.2
81578.7,106261,106386,122732,101821,115497,56113.8,57713.7
80961.3,110309,94242.4,121751,79485,87612,76967.2,62827.7
114770,85898.7,142981,86072,114577,89709.2,81753.1,66945.2
101381,98629.2,121694,91883.4,93986.2,90084.4,56761.5,79410.6
120099,45401.4,151577,25106.2,113711,54850.6,58691.6,77564.5
78614.1,123847,99052.8,143438,90069,141764,56864.2,88235.2
145013,94309.2,165854,128191,147361,116598,65447.5,72667.3
76786.2,85400.1,52932.6,65959.6,63376.6,78031.8,71753.9,64024.8
119455,110104,129682,132745,129221,136938,71311.2,80883.8
112774,93879,127627,97335,100663,121391,57650.2,82621.1
112931,99868.5,127205,71271.2,87679.2,76552,55826.6,65124
96281.1,103342,64355.2,87221.4,65116.8,89143.6,77073.6,67836.1
123414,54474.3,138817,34692,125170,64449,83957.3,77111.5
85628.7,104682,113866,138107,103680,109768,79102.6,56853.4
102795,66468.6,100094,104549,86472.4,116061,64080.7,72921.5
77073.3,52047.9,132986,42152.6,90319.6,46429.6,55801.9,54988.9
92708.1,144569,132902,122522,131817,232106,78769.8,79114
137092,84174.3,119169,92345.4,125672,128723,79707.4,72599.9
95027.4,59344.2,81970,29927.8,64745.8,49726.6,57784.5,71498.4
94826.7,117326,139411,130270,120319,115518,77301.3,62169.1
103148,123454,120660,155898,106907,169218,64641.1,86638.9
121619,113669,149843,109701,100568,100321,65712.2,54815.6
69553.8,110419,91634.2,113770,91148.4,99341.2,59599.4,76534.6
83967.3,118971,93073.4,134884,90350.4,123635,54763.3,57860.9
80564.4,102478,93326.8,109448,87407.6,102333,58621.5,77804.1
140208,107659,127761,127970,113817,132439,65037.9,80846.1
128171,89905.5,140704,119910,114188,104188,60100,79976.5
109827,88702.2,121178,91341.6,98225.4,106067,67990.8,69071.9
108553,113574,180180,117244,136410,111880,80948.6,77727
113742,113945,175277,117897,130901,102852,67246.1,56431.6
87663.6,91319.4,70442.4,109162,78580.6,100755,55707.5,72003.7
75486.6,76567.5,55451.2,52488.8,81236.4,60733.4,55973.4,54821.9
102253,118505,142380,75495,128779,99835.4,80534.4,79782.1
97039.8,86529.6,101947,83378.4,96014.8,83738.2,70004,68751.3
110805,100574,119952,106715,119738,115331,77463.4,76081
85446,93405.6,133469,83347.6,110013,71426.6,55897.7,54793.6
144859,95168.7,136494,105479,156272,115017,88119.3,73764.8
125050,82971,184346,115237,158945,100918,86351.7,67044.3
61426.8,66525.3,138417,77317.8,106243,77385,63185.2,63783.4
107112,107377,153248,91371,129784,87955,85537.6,74941.5
97723.8,88161.3,123992,93632,149358,86388.4,62920.2,59652.8
102369,97524.9,136926,82493.6,123193,84379.4,86469.9,55595
108924,85062.6,150641,103205,112801,126479,70413.4,85509.2
117392,63249.3,135660,49357,127079,54304.6,82979,56032.2
80028.9,79049.7,103783,97167,94728.2,104678,58970.5,74782
75681,54955.8,97643,33867.4,87966.2,53953.2,58849.5,72893.2
118849,97988.4,113618,114776,99072.4,105419,84918.2,80575.1
94313.7,119417,90993,123551,100811,130525,58368.4,77558.9
76554,101646,74436.6,79182.6,96012,85171.8,54940.1,59479.3
125130,83828.7,133251,128296,94589.6,103781,66793.4,64748.7
114838,102610,142881,118993,125748,111047,84544.4,73777
91772.1,144617,93002,134450,73623.2,163684,55408.7,88334.6
84903.3,117449,74929.4,106957,63886.2,106088,68902.3,76639.5
97997.4,82753.2,124305,113312,90108.2,134637,56843.1,77457.2
126521,106184,107089,143256,100940,136665,66297.3,86082.5
109397,97103.7,123630,90960.8,103159,101185,75749.8,83516.4
116474,106918,147419,112295,123710,115398,83513,57324.1
107315,122578,120492,166466,114334,147739,82718.5,73844.3
124673,93939.3,154153,118454,113123,111465,78385.3,77402.5
69421.5,99927.9,98947.8,82238.8,90573,91302.4,55174.8,55292.7
94136.4,113235,114219,103923,91197.4,99548.4,55716.7,58140.6
88544.7,106678,99880.2,107678,119995,97462.4,67684.4,63831
99783.9,107634,108269,119855,90746.6,110141,56947.6,80314.4
134096,81953.1,141343,111605,114062,83286,61334,60805.3
114883,71730,137768,105892,123617,93973.6,85200.7,55698
68353.2,105309,106907,138246,125958,111595,82577.8,68423.6
146556,83155.5,177299,58513,140819,71544.2,87373.7,80497.3
101899,90073.8,73899,84753.2,100985,91954.8,61870.2,56621.7
91037.7,112352,132360,125521,93804.2,97195,55592.4,77642.4
102243,63872.1,83081.6,54059.6,79776.2,73081.4,59356.7,80517.3
77895.9,78798.6,129129,78617,121325,78582,86396.6,66186.5
111950,102917,124020,137794,127635,125836,64784.5,59157.6
107185,124020,99841,104317,99472.8,120516,70779.8,76140.2
91570.5,150684,99999.2,170625,81236.4,128442,64316,74927.6
127330,94059.9,109722,88060,111621,91929.6,80693.6,84451.9
105917,108101,114895,109880,118434,114498,64547.5,86773.7
105211,114136,93448.6,127690,77337.4,114699,63625.6,84569.4
108567,91386,104699,74239.2,108893,84847,68933.7,56683.2
95617.8,103987,132013,77621.6,143878,78834,74952.8,55812.7
87838.2,86688.9,114083,88681.6,100295,98632.8,57367.4,71856.1
104521,77951.7,96227.6,63044.8,101741,59449.6,71915.9,59738.5
112420,91528.2,115310,84329,86045.4,88722.2,59156.3,74503.6
103826,86899.5,166993,82919.2,128339,96566.4,78539.3,65419.1
104711,90054.9,106240,82814.2,80283,74718,66764.4,67401.5
127032,104193,148973,108283,127127,99873.2,80719,57769.8
96744.6,74793.6,147125,67023.6,90819.4,72783.2,66688.9,59910.8
114862,109611,163107,85230.6,126133,97815.2,70211.9,54660.2
121374,64318.5,103639,40345.2,114146,52721.2,55142.8,65861.6
106242,120114,164167,94985.8,126365,102861,82301.9,65186.9
113532,86499,103320,79500.4,100618,90666.8,62844.5,56414.5
73166.4,102678,76783,107716,91497,97192.2,57999.9,77195.9
133209,110214,169981,115112,134033,129584,88318.9,86728.2
69914.7,120084,30542.4,114390,57722,99874.6,77447,79779.2
115640,107823,135379,93192.4,116311,95086.6,74096.4,57747.3
113998,95812.2,116943,104321,115636,89567.8,80035.6,60811.6
95328.9,98168.4,103919,116376,100654,114366,72686.5,85462.7
118708,105825,154713,94802.4,122135,113194,87751.9,79980
100382,98300.7,105647,69851.6,88172,85521.8,61094.3,58397.8
126663,90954.9,139689,131405,138327,122238,84353.4,79830.9
99778.5,114909,111985,129244,114766,93951.2,71745.7,56845.5
109332,106023,145258,112865,125290,101189,68454.8,63013.2
130552,111117,118371,131013,98312.2,113233,61359.9,69668.9
98415,107728,136594,118101,135647,129318,74333.2,83666.7
111531,56113.2,135906,62529.6,115976,65150.4,83115.3,58404.7
54117.9,45528.3,88733.4,30506,82951.4,49348.6,61866.6,59115.8
111634,96755.4,130897,85054.2,119136,93718.8,74437,58562.3
68832,64008.9,77492.8,62981.8,74009.6,76343.4,74821.8,64802.9
85075.2,83610.9,71988,86500.4,79881.2,92570.8,71305.9,78359.9
118996,110832,118821,129829,100936,114503,73399.6,66462.3
124310,107133,128412,146817,94211.6,118450,78965.4,83487.5
123133,67560.3,74636.8,66082.8,79028.6,84007,57287.9,72882.3
127366,112184,120532,127716,107181,122948,78661.5,65532.4
71818.2,89717.4,33667.2,72408,51371.6,72207.8,58704.3,64475.7
100592,83859.3,117291,88265.8,100831,85055.6,63607.8,83866.1
104819,86685.3,124335,83301.4,103838,89716.2,69942,55105.2
103920,125739,133277,117942,117365,126287,55070.9,83986.3
104578,76263.3,131111,46949,99713.6,57820,69205.5,60907.8
111684,97213.5,127932,95099.2,101696,106975,66820.2,82016.7
96784.2,115999,96607,114953,98728,108479,74512.5,75887.8
129302,69011.1,159531,55204.8,145747,85496.6,87949.4,72997.9
88740.9,63506.7,111537,70999.6,100034,76967.8,61882.5,82871.4
100064,80757,113130,82665.8,93312.8,75714.8,68870.5,55368.4
98535.6,103111,119108,110723,102084,97683.6,61148,63191.2
102310,122524,137964,94423,117320,106065,58753.2,74979.9
84987,85059.9,76308.4,72746.8,77614.6,91604.8,54678.8,85246.8
118830,87940.8,134763,85575,111254,73353,86233.4,71909.6
72976.5,99891,93275,104724,102164,107320,60904.2,88292.5
69949.8,57651.3,109574,32625.6,98635.6,63484.4,58029.6,62955
116635,98730,136800,149897,104877,152914,55733.1,80968.3
113101,119095,122506,107681,92052.8,90413.4,58477.2,88029.1
143294,129823,144962,120484,125880,116991,87972.2,80118.5
79152.3,141184,48475,116469,65843.4,109816,70823,82683
89360.1,77202.9,81067,58471,98730.8,79926,69501.8,60485
101121,129652,100822,127621,98957.6,119095,62654.2,82316.4
65367,76974.3,102869,117407,97752.2,109073,85331,54757.4
141515,91683,137806,83372.8,150090,79028.6,87680.8,63803.5
121016,62015.4,143499,48245.4,115307,62157.2,55871.5,54812.6
99632.7,99250.2,105035,80931.2,96392.8,101067,61809.5,70621.2
98313.3,102361,123696,114092,147399,105906,72721.8,83603
84905.1,145663,107233,138470,95593.4,135106,73067.9,72637.4
108172,72260.1,105447,56938,83916,63833,82103.4,64600.7
111147,106091,135073,88533.2,89444.6,100292,72926.3,76032.3
125016,101798,156943,74051.6,121444,92300.6,79558.7,83683.2
124743,96339.6,95736.2,86853.2,101518,98806.4,87686.9,82047.2
104830,109354,100625,114806,94761.8,105833,75193.9,83748.5
105548,90777.6,106036,123497,89448.8,116829,64302.1,58609.5
135073,88377.3,148372,121001,114227,132383,55116,80519.3
72196.2,85018.5,149012,93440.2,109284,82672.8,78814,59980.2
112292,113440,115261,142673,90739.6,114418,58279.3,68915.5
138731,77615.1,131568,101240,144644,124863,80260.5,59148.4
100707,119490,97550.6,171930,96614,134389,55627.1,86874.6
114981,94938.3,140487,111098,129613,133966,81787.9,75613.7
139010,118771,148464,106091,128009,101949,75081.3,86953.7
113998,71958.6,124551,83608,97918.8,84540.4,55891.1,63547.9
110110,134270,90360.2,114436,98980,96069.4,54737.8,60420.4
127707,123485,114957,127014,109028,128701,63819.9,62758.8
95507.1,96269.4,121825,93928.8,101912,83091.4,57759.6,58422.9
59516.1,73619.1,71272.6,129381,84215.6,114059,67201.6,79035.7
107059,116073,149808,124928,111566,155960,74581.9,84005.3
104280,88483.5,116031,64324.4,101114,78631,72534.7,65838.8
104554,74604.6,103369,49127.4,95013.8,66061.8,78432.3,84072.6
110700,103194,113763,142902,92201.2,116456,78134.5,74193.1
90593.1,75503.7,143154,89831,148011,89243,72012.6,55172.2
63387,86255.1,139913,75968.2,113611,96761,60361.4,80323.1
85411.8,125091,60656.4,140902,84753.2,127221,81620.8,85467
105286,100469,125390,118843,115671,117320,75421.3,83355.4
68861.7,74272.5,59357.2,61559.4,68082,69690.6,79916.3,56137.8
145311,109647,133682,100150,112228,90393.8,59867.9,58765.6
155204,125694,155631,139335,123143,121797,56460,66798.3
83133.9,69632.1,86535.4,79625,97525.4,107380,72185.2,56231.6
88173.9,95202.9,140783,123025,113242,115364,57625.8,75888
75270.6,83525.4,97112.4,77383.6,109663,94554.6,65918.2,66167.5
99179.1,130180,111045,152881,98056,131142,64133.3,71773
115828,98767.8,132019,113634,114380,191874,70254,65986.2
110841,98828.1,108227,101753,101783,89957,55616.9,60754.8
99321.3,89078.4,126791,59029.6,103288,70602,72809.1,55781.1
87025.5,96606,98764.4,147792,77333.2,114370,60017.9,64246.9
112990,106643,108202,83644.4,104355,95110.4,57010.1,86061.4
81234,82584,127218,113751,96678.4,131572,67817.2,62949.3
109603,81066.6,127442,67320.4,117529,75812.8,68910.7,74200.3
128384,107122,105682,81271.4,104877,79783.2,80759.5,55114.4
116178,90927.9,147227,96112.8,115975,89380.2,68372,57465.8
104412,83004.3,118798,60671.8,100897,69301.4,68991.1,73232.5
110391,120242,100246,107797,97413.4,111658,56041.9,72822.8
113463,99272.7,127173,94291.4,116896,107757,78764.2,75710.9
101335,98439.3,157878,120161,132997,103646,82948.7,61934.2
94351.5,102087,96059.6,90594,80761.8,104619,67005.2,77673.9
110027,99383.4,141432,112039,186017,92044.4,76326.6,59670.3
134927,70101,116837,113127,130346,112442,78209.7,63518
90757.8,119610,131200,131016,87334.8,123458,58449.3,73039.4
99612,95363.1,111322,78922.2,87753.4,88921,72731.6,82796.6
141682,78148.8,159097,97858.6,141730,85008,83756.4,74556.5
110265,59506.2,109792,71559.6,102708,58737,60336.1,62030.8
115016,78192,125926,68546.8,89061,92474.2,60182.7,61320
124903,137967,146600,117145,112960,121391,63019.5,74968.7
58624.2,111236,95191.6,108009,116595,97020,56736.8,70954.2
130093,105926,118987,71292.2,101567,84931,66300,56337
127957,101265,121555,72599.8,91904.4,79639,54980,87080.5
139339,90144,138198,58534,114726,76533.8,54972.4,80108.9
104590,65964.6,139194,41053.6,113170,53502.4,82379.1,65935.5
82359.9,87472.8,71751.4,106158,71751.4,84618.8,85010,59585.7
87653.7,101683,92247.4,91771.4,90855.8,91253.4,60309.1,61923.6
102290,69337.8,92164.8,60643.8,85149.4,70595,64581.7,73168
60253.2,97388.1,90840.4,78587.6,78645,94690.4,86135.5,70473
82430.1,115773,100146,112042,82846.4,101443,61720.8,79543.2
61564.5,111544,61905.2,132583,112161,115636,80265.7,82323.2
80181.9,123911,46454.8,152760,68966.8,133535,88359.7,81984.7
111915,108802,123382,124536,106826,128992,57784.2,88055.5
89703,106324,118474,113156,110113,121876,79724.7,83277.5
87932.7,89188.2,129284,97757.8,114073,113008,70534.4,63954.3
123551,79931.7,147231,78937.6,117404,75371.8,80710.4,58730.3
103630,107804,111117,60043.2,83858.6,76017.2,59319.2,84944.5
144774,98469.9,150940,113014,119706,118504,72013,77408
82526.4,84992.4,93280.6,92258.6,84774.2,80057.6,58139.2,56338.8
74612.7,111388,111094,118346,96765.2,98022.4,87052.7,69045.8
73458.9,91983.6,139087,64925,136560,81025,86349.7,77236.2
71958.6,123769,121415,132871,97126.4,112067,59803.4,64824.4
90585,85215.6,86004.8,65093,89877.2,70537.6,57082.9,82400.4
112253,82665,167292,79384.2,145120,85908.2,83322.4,66283.3
68367.6,93039.3,94697.4,118415,106222,119297,77191.6,86049.5
128128,71250.3,122416,65664.2,105561,88159.4,55091.1,69601.1
78858.9,101948,91001.4,94242.4,83195,103009,62192,77254.8
106941,42790.5,121944,24242.4,106680,47825.4,73453,56153.8
68806.8,102757,43579.2,104727,56268.8,128339,79859.8,82599.3
126633,89604,122564,90515.6,106386,91936.6,64607.7,61339
95201.1,112521,124893,132958,108184,142162,61606.4,76923.5
115002,108016,125231,106218,106084,104944,67156,63989.1
66048.3,107043,131708,106065,109087,97617.8,67272.9,57021.1
108839,131234,106249,149519,93480.8,141422,66859.3,82303.8
82434.6,99241.2,149516,80364.2,106443,105302,58465.2,86568.7
79678.8,117710,45911.6,145260,64831.2,122560,63658.4,55006.5
130534,114647,140920,118072,129941,106231,86816.8,81357.6
90792.9,60918.3,115002,61280.8,95478.6,69969.2,73712,67673
114222,126632,80906,164623,112515,132194,75866,60737.4
95796,110572,87403.4,177213,87168.2,163104,84704.2,80236.6
95527.8,93339,124569,96649,102934,93758,58583.1,66973.4
124400,82063.8,130924,100668,106438,91315,61798.8,63931.6
74202.3,84570.3,96145,108914,110148,104420,62160.4,75616.4
112749,122826,151696,119333,107916,108450,83211.6,69605.7
127130,69485.4,124069,50433.6,127481,52546.2,81972.5,56421
55215,94570.2,27960.8,121645,43923.6,117090,63562.5,63716.6
99045,88346.7,97136.2,86242.8,72084.6,91656.6,59229,58133.9
107215,103297,125828,153343,121141,116409,87982.9,68216.9
84078.9,77085.9,115641,40216.4,100258,63161,57356.2,75740.9
101380,110588,96860.4,136928,97862.8,117901,80961.6,87098
92327.4,117610,144528,129805,116463,108213,77937.8,67483.9
79538.4,105764,128208,108989,120845,122284,67523.3,82213.4
73567.8,113069,151008,103811,118580,128400,81274.8,80663.6
98414.1,112004,122420,123710,134302,140336,64741.1,81390.2
114455,104189,101518,86143.4,92961.4,74886,73786.7,60985.9
66567.6,89545.5,46740.4,114845,57054.2,117964,54818.9,73983.2
107147,92764.8,70085.4,96350.8,75532.8,115536,56008.2,76570.2
56405.7,117089,58851.8,107633,69633.2,100318,63358.3,68315.9
86692.5,108267,149738,97868.4,114822,99992.2,67994.4,62623.3
103619,113954,154997,128895,139562,134859,84660.6,87691.1
111660,83590.2,94599.4,103330,97994.4,91698.6,73804,55421.9
87602.4,101586,68468.4,122259,71577.8,116960,66847.4,72510.7
128938,98775.9,128167,110076,98497,97825,56584.5,72246.6
70436.7,125840,127072,137252,109039,134218,84729.9,70461.9
113482,99148.5,115885,107446,114243,110358,62450,62519.2
154454,86537.7,118642,70753.2,127106,71531.6,60356.8,57445.4
97866,123822,69217.4,153132,75808.6,146440,59675.5,85123.1
117456,159776,117299,161491,87502.8,158000,63195.9,85731
126338,111689,152740,99444.8,122259,99768.2,78047.9,58371.6
111176,84750.3,137137,77100.8,127470,68213.6,87523.9,58982.7
119243,69821.1,181156,116437,130533,124212,62378.3,82845.7
106295,110246,100128,118348,107643,113372,68243.4,86302.7
113334,108094,153766,78096.2,111483,98562.8,81828.6,83222.6
103255,97552.8,129240,81638.2,113340,81939.2,67786.1,59676.3
108356,92239.2,121568,92842.4,110421,87074.4,83952.2,76522
120012,101134,115328,109876,108482,105930,74836.3,55852.7
87531.3,105796,149055,78925,125625,89439,87742.5,71569.9
75704.4,102449,127271,114530,89703.6,102757,65639.3,76115
119990,121360,135842,229167,116249,142596,83620.1,65568.4
133721,90452.7,185102,96804.4,133304,101473,82386.9,75741
65741.4,89488.8,55329.4,66887.8,57309,92981,55486.9,58586.1
103658,76982.4,131165,76223,119727,63105,70356,58819.8
124801,103946,180741,95141.2,141648,106207,86639.4,66525.5
78815.7,50958.9,110258,41484.8,117729,45803.8,77608.3,59239.3
93564.9,109788,89475.4,82133.8,112113,110131,57580.5,62775.6
76823.1,100635,71218,118245,92835.4,106964,66357.5,64070.6
104636,65476.8,151134,107446,120190,120193,63950.2,80443.5
93152.7,113713,153187,131013,108191,122375,71896.2,73679.7
92251.8,104574,154232,122258,119449,116341,86976.1,76843.4
107128,129860,109542,105421,99201.2,101857,61677.6,58575
143641,101571,134637,95204.2,108294,86121,66286.6,54786.8
103970,82605.6,132857,135271,107587,172054,87942.1,82899.5
117689,87727.5,114395,98610.4,106863,86240,58475.8,57272.9
115530,107605,166454,167755,118888,133580,87843.1,81144.4
111870,118324,118167,135895,100957,124954,55698.6,64019.7
128828,84738.6,108766,82038.6,96034.4,87047.8,79866.3,80938.6
97863.3,83427.3,90326.6,108986,97708.8,113728,59324.9,62493.4
104539,109435,120086,159457,119574,133475,85207.4,78344.2
117193,95437.8,98737.8,138064,108592,119942,72755.9,77686.6
98436.6,75116.7,136087,75374.6,123039,91599.2,80595.7,55019.6
153770,85043.7,134602,105181,114192,106079,79285.5,67412.4
99668.7,144080,74146.8,196923,92598.8,192874,79252,81192.8
81107.1,124629,108963,121650,105045,112910,54745.3,82230.8
97263.9,90068.4,115493,89633.6,109458,76987.4,79279.2,57539.1
90582.3,64556.1,85719.2,106397,89713.4,95067,56627.1,58350.1
114332,99999.9,143823,87833.2,121113,118133,63131.1,82592.3
55208.7,103846,42536.2,111831,68726,99157.8,66913.8,56801.6
116837,84411,117366,84719.6,104462,83199.2,56840.8,69494.2
117382,114039,112815,126365,119227,134008,77482.8,86245.1
91491.3,89379,130000,114106,119253,119666,70607.8,86137.7
108729,103547,145951,168291,108699,150377,61542,85212.9
103109,93665.7,87637.2,90036.8,99593.2,73707.2,61697.7,64085.5
65132.1,113044,121514,96278,107750,113448,59955.5,63156.4
80615.7,84218.4,69143.2,79599.8,69342,86983.4,70310.6,77512.4
138275,89298.9,141595,77141.4,133151,101007,86507.3,88367.1
108303,145515,74086.6,145202,89602.8,152767,67701.1,71698.9
87328.8,84505.5,116696,85796.2,111240,108566,56896.9,62732.9
97565.4,95118.3,110629,83141.8,114537,86562,77668,66824
127962,92821.5,131841,138559,101961,114586,65417.1,77734.7
101172,90506.7,133272,98586.6,127998,88137,78480.9,70470
92816.1,109362,134666,158844,113495,120037,56837.8,83014.2
123574,111587,148337,111878,114638,94396.4,72632.6,56682.9
84642.3,103702,62920.2,126650,74450.6,104727,62875.7,60378.4
97758.9,77730.3,78635.2,71611.4,97728.4,95886,75376.5,70722.9
83598.3,88279.2,34920.2,98142.8,56851.2,115101,65923.1,77235
128311,90598.5,135101,71381.8,126559,81912.6,84485.6,70051.3
116086,102041,100019,110583,102788,109585,74205.7,84903.8
114062,93774.6,135379,96026,96741.4,100792,58089,72321.5
84599.1,117576,90738.2,152127,113298,130508,77878.9,68036.7
92352.6,98478.9,82762.4,82539.8,86721.6,94119.2,62591.4,59413.7
99446.4,102795,164408,119022,111930,105633,83169.7,85524.4
118050,125883,140966,135786,109887,107237,73966.7,82582.2
118336,94806,152113,107968,112498,87801,87378.9,70993.8
152762,85896,160257,103531,137787,101996,79993.3,80643.6
79824.6,101902,94180.8,93125.2,95901.4,118539,61240.1,67651.5
91626.3,104482,108289,148326,97903.4,116696,62908.5,80041.6
90212.4,123517,109865,91445.2,105447,93478,65329.4,80716.6
98315.1,69994.8,92985.2,106014,86762.2,116536,70858.2,70597.6
61398.9,75060,51682.4,71621.2,59753.4,83025.6,63726.8,76083.6
113540,81213.3,101248,90904.8,99369.2,78821.4,60607.2,56195.4
84494.7,91224.9,90851.6,93286.2,93448.6,99099,54964.8,56998.4
100204,97235.1,114055,115527,90823.6,130705,73247.7,74432.8
108732,82523.7,139686,115129,105815,118635,57058.2,77468.9
157008,56922.3,164592,77366.8,141676,100932,72265.9,80432
94388.4,101857,119661,88641,109367,95145.4,82985.7,59153.5
108202,104114,149451,115828,93384.2,136217,59121,70618.4
106099,129570,120532,96924.8,92895.6,99488.2,65568.4,71455.4
123034,86475.6,131909,102460,118511,89674.2,70424.6,58034.2
80092.8,106043,93709,87817.8,87204.6,95932.2,60051.6,60667.8
99873.9,130423,84021,152660,77420,143949,72838.6,83701.5
118287,85818.6,90150.2,137187,99358,129137,61817.2,69817.8
112837,75650.4,138702,63021,115975,89999,78824.4,86451.6
110981,98438.4,115373,120870,105585,126136,56931.2,81943.8
103348,117256,62498.8,111695,92794.8,81662,61167.8,59525.8
111164,74733.3,138891,139847,102676,110624,81650.9,82155.3
90305.1,114749,70957.6,118208,85146.6,109935,74143.8,85402.9
116966,102254,117281,115536,98715.4,106002,57664,71510.3
126413,89713.8,143175,118171,108178,134754,79943.8,87165.9
120401,59897.7,104530,48858.6,93777.6,67935,81093.1,75728.9
105742,86432.4,122965,84802.2,103170,94777.2,74430.5,76397.3
122574,107602,103453,127785,106978,111901,67977.4,58266.2
76151.7,82971,61957,88473,63106.4,94516.8,63617.6,65679
121292,78078.6,96734.4,55234.2,100264,70278.6,71141.8,79244.8
91498.5,55976.4,91166.6,66701.6,69371.4,103965,55970.7,81109.1
104482,97722,121832,96248.6,110403,83693.4,77539.5,58299.2
88962.3,93973.5,112118,76666.8,87043.6,98813.4,55962.7,75711.9
105385,103587,122972,96713.4,100208,114638,70775.7,71014.2
123998,77984.1,135716,94060.4,112056,106438,77683.9,58016
107516,98506.8,117813,99395.8,97525.4,118832,61345,68430
96269.4,71549.1,120043,105302,106183,131590,61172.8,80368.8
128535,114468,115560,149292,109948,128120,63794.8,88006.1
108444,95025.6,91054.6,124872,82489.4,109857,59057.6,75412.6
103933,96675.3,185186,59889.2,150147,85409.8,77481,86530.8
96163.2,92214,105552,71339.8,86363.2,85205.4,72977.6,57560
108950,91505.7,131026,112888,115416,108136,59543.8,57651.8
90118.8,101174,111745,88503.8,94732.4,96962.6,57928.8,64795
108015,75499.2,123605,61965.4,110167,73130.4,58318,63589.4
103539,101930,109330,79181.2,84205.8,82632.2,65867.8,61159.2
115745,113933,96828.2,127238,105909,111649,73181.3,80575
105840,108791,129195,109568,108202,127823,65542.5,61022.5
88924.5,89955,138851,82588.8,114981,78527.4,59014.3,65046.2
81345.6,111776,69216,92797.6,97022.8,97791.4,77380.1,83403.1
145601,120828,149807,130488,132317,124869,86739.2,80876.2
68601.6,107617,110999,166597,108947,146873,56474.4,88357.4
106793,113126,151872,118380,145650,118089,81164.5,82654.2
118035,96752.7,149160,76294.4,109098,80021.2,62880.7,63911.4
98558.1,109011,78534.4,142869,96243,115080,75756.4,68939.4
112569,102855,120574,76298.6,94813.6,92688.4,73901.1,77701.6
106546,80235,104870,128867,91116.2,139679,64539.8,86225.6
121826,106418,174028,144341,133125,109851,87549.9,76930.5
100092,65601.9,129139,50471.4,122826,69185.2,66932.8,73559
110057,114599,163429,128748,115438,120494,66806.1,86349.8
98234.1,101237,104787,70505.4,110432,79363.2,57862.8,70347
87188.4,71844.3,109641,107960,96166,94736.6,64612.5,56180
102238,114297,151157,111990,123040,125170,79225.1,85322.3
85494.6,86400.9,104720,84799.4,100741,87750.6,83132.8,59900.7
122953,109193,165711,122230,126417,91785.4,87688.5,79243.8
98584.2,97894.8,108906,98298.2,84302.4,100008,60423.7,70893.9
66370.5,95380.2,26768,101840,50773.8,96927.6,60285.2,78517.8
58077,100834,31858.4,129982,52598,89429.2,54671.9,67041.3
102715,93988.8,152110,63935.2,107989,76864.2,67019.2,58866.8
112381,121904,99328.6,119311,113588,108051,72400.9,82118.7
108594,113349,110776,106933,121328,98252,86186.5,71933.6
122925,68870.7,132629,37514.4,105018,54119.8,55547.1,70621.6
135316,105917,114772,111957,165773,95834.2,70664.2,69555.9
86928.3,102831,103582,116771,90906.2,121100,56854.8,62132
101835,90414.9,117880,109525,101549,107703,68291.5,64139.1
130649,120665,146075,120684,136136,100101,71112.8,59088.3
109067,111932,167583,79594.2,121804,102182,65692,87149.3
94577.4,53580.6,83245.4,36983.8,85783.6,60243.4,63866,71811.4
120717,95625.9,130050,101752,105017,92363.6,59569.4,75419.4
140278,106930,199359,133935,145397,104672,80866.1,60064
119459,123208,138449,109582,127166,101898,72146.7,87608.1
120246,100592,127295,110351,110897,97277.6,78413.9,73159.2
121055,95018.4,144864,65765,99766.8,85015,65307.3,62261.4
121805,133525,163090,116889,133515,99960,74795,64556.5
134409,107937,146622,114300,130934,105283,76098.5,82615.9
78894,127156,90378.4,120924,113872,129126,78467.5,55149
76149.9,78089.4,123250,56610.4,128811,84242.2,80218.2,61180.6
114806,53868.6,118880,51059.4,111642,64362.2,56941.8,67608.8
102325,113098,104765,173667,94816.4,131974,67315.4,65868.4
79555.5,80982.9,114460,101594,98277.2,113372,62159.3,80902.9
107849,81628.2,93599.8,63410.2,111348,59508.4,81115.6,61280.5
104979,73021.5,109805,62094.2,121311,67302.2,55961.2,67879.3
78763.5,146034,67172,149106,49082.6,153538,57721.7,80377.6
110685,107770,114982,119673,89259.8,108788,59172.7,76811.2
154266,115011,114699,98312.2,108585,137238,68455.4,88725
105261,111668,105839,87810.8,105119,81751.6,75659.9,77690.2
110987,71267.4,123204,94220,112826,103963,81980.6,62479.4
93409.2,123746,144985,155014,130455,108108,65968.1,56520.3
99163.8,95010.3,93786,117155,82191.2,128453,58738.5,88395.2
103035,87556.5,127718,69000.4,125661,82292,57173.5,78456.5
126210,98226,119823,94210.2,101675,82640.6,56522.6,56467.5
148183,83287.8,178552,79916.2,133496,79167.2,81816.8,63389.4
93015.9,99979.2,162603,99012.2,107373,89975.2,68295.6,61636.1
94476.6,89070.3,97543.6,144651,134004,119935,66048.9,63100.3
78525,111321,114510,155896,106826,169084,64628.8,83337.2
114694,53995.5,83273.4,78404.2,83745.2,69967.8,64364.9,59462
98579.7,81334.8,95678.8,58265.2,105081,58412.2,58956.5,56563.5
88727.4,110066,85274,187639,104143,137924,55345.2,80328.3
106003,106160,124134,143256,113130,118804,76772.3,70452.6
99832.5,72649.8,91697.2,76000.4,99764,97560.4,75680,61051.1
85890.6,115425,129892,111146,109593,102575,78462.1,77635.3
129440,114153,142173,105252,119109,99166.2,79195.2,72262.9
132668,96120.9,141121,115462,121141,121265,81380.5,80363.5
69265.8,76785.3,105533,55162.8,89096,74881.8,66407.1,72124.5
77184,103669,63872.2,91502.6,71999.2,99951.6,87671.8,64751.4
80842.5,119559,133928,133360,96679.8,110215,62353,86299.4
127518,60714,179325,46946.2,162681,62918.8,74383.9,76510.3
86413.5,106632,94822,107090,98091,104350,70462.7,76106.3
98900.1,72733.5,111728,96500.6,113051,106837,66143.6,82303.4
116267,75209.4,121855,72592.8,104350,74992.4,61641.5,84847.7
104134,86992.2,149254,98488.6,127880,116263,87158.4,86225
85648.5,81117.9,90963.6,75769.4,86315.6,81079.6,76608.2,55604.2
110454,83515.5,127121,83034,108423,77371,64124.3,87365.5
108819,92015.1,109899,88538.8,100132,105484,62490.6,69246.6
116228,87346.8,98749,89497.8,91603.4,115177,62029.3,62018.3
115355,113448,118140,119251,130082,102579,70472.1,71126.6
111355,66293.1,109648,50573.6,101069,70673.4,74033,82409.2
95578.2,103517,136175,143270,120593,119239,64716.1,84877.1
69670.8,56900.7,78218,39114.6,81333,59668,54730.7,67980.4
85411.8,65882.7,119127,84579.6,92720.6,97616.4,59063.6,67518.4
99183.6,105920,126538,95737.6,114248,101441,80551.8,57430.2
78660,87472.8,109875,87532.2,101385,90322.4,73662.6,71782.8
89172,131983,81888.8,152302,79325.4,123603,62865.4,88725.1
108723,125978,69435.8,124557,83372.8,107988,60141.2,76469.3
97862.4,83710.8,113421,89702.2,124394,106121,64603.8,81737
90370.8,87343.2,100996,95134.2,93023,109875,78106.1,88457.2
122354,107930,106484,93571.8,89832.4,120607,59667.6,76418.1
114614,110206,103811,98635.6,112000,87747.8,83662.6,56672.4
106304,88600.5,96213.6,80145.8,99082.2,82602.8,73208.3,77818.9
113865,61095.6,170456,39135.6,134268,52173.8,71930,56219.6
104429,98748.9,161263,89112.8,148016,99241.8,87301.8,79204
136841,78531.3,148121,58867.2,128923,60562.6,85374.3,61157.8
106318,101454,137077,110818,109824,91393.4,73550.5,64483.1
111782,74093.4,106093,47056.8,97501.6,72002,71682.1,82549.1
134276,100085,143714,79727.2,132958,88739,70693.2,80205.1
117295,88725.6,99247.4,116477,96822.6,112069,67247.5,64415.6
76080.6,126218,139334,144606,123343,117368,72520.2,84550.6
91701.9,81334.8,128951,98518,93977.8,106901,66853,66034.4
100737,70945.2,122697,114692,125651,103265,83824.2,60202.9
125215,103289,110086,98562.8,87189.2,89373.2,55737.4,57750.2
114452,86098.5,155837,67090.8,126120,92691.2,82381.2,75891.3
106817,103034,149475,98457.8,113848,103628,66681.8,69475.3
93285.9,108436,152050,133512,140948,106037,84241.2,70676
102565,78428.7,114352,111621,103502,112903,80524.7,66688.3
96065.1,47616.3,76137.6,20846,80299.8,57237.6,77550.8,75613.2
107812,112410,119662,118286,99362.2,91823.2,77813.4,61231.3
105083,108550,119067,86672.6,101213,88841.2,58641.5,73975.4
82911.6,121542,124932,141084,100321,133024,71229.2,82186.1
131412,101905,122713,142814,122788,113663,87400.8,76197.6
111821,103530,139496,102326,109633,112605,72415.4,86232.4
95198.4,100710,141691,122461,118632,101928,80308.2,57469.1
107965,70373.7,110181,58753.8,100957,64891.4,74262.6,54802.5
58580.1,82734.3,116991,75286.4,120592,70428.4,73044.7,59511.7
88993.8,107913,160997,108576,154106,110093,84809.4,55903.1
97510.5,62513.1,99057,62427.4,99636.6,65710.4,62362.4,71921.4
100889,76028.4,100570,88922.4,96863.2,92254.4,64968.2,80061.7
115777,77013,114220,54066.6,86076.2,60337.2,56013.5,55289.2
96136.2,90078.3,129353,80274.6,133792,84299.6,82651.1,76962
113430,71557.2,152744,96623.8,125346,116383,79796.8,68203.8
109138,80686.8,128216,92136.8,116351,89608.4,83876.7,62376.7
102496,89871.3,112361,137729,93636.2,136010,57138.8,74150
86756.4,79003.8,148061,111280,125320,120021,78105.2,81152.8
110743,114872,102651,202913,103344,122714,78101.7,60161.1
110812,87139.8,151858,112867,129562,101893,72605.9,62038.7
112582,109211,138561,110891,130206,117275,84933.6,72656.9
109246,115887,161658,122872,139251,113914,81483.3,62017.3
87309,111569,94753.4,125244,90325.2,100243,54944.8,58055.4
146862,89243.1,151054,98380.8,136920,109292,83754.4,66626.7
123007,75105.9,118388,68833.8,115753,98651,73980.4,55569.3
114464,87374.7,148849,61349.4,122444,69088.6,74946.9,62193.2
74889.9,90507.6,109774,93464,96630.8,99485.4,59928.6,75539.4
120538,94788,140563,117347,107485,102955,81623.6,71458.1
113655,102009,126745,121646,101289,220534,79078.6,56109.3
108715,98732.7,141441,141915,114841,128044,73453.7,57760.5
96233.4,81496.8,116171,79464,119976,80711.4,87241.7,85476
107042,91675.8,160171,103680,110065,104685,72379.3,84161.8
109425,79048.8,116145,102973,95604.6,94750.6,59283,77714.3
126100,126090,155508,159750,120147,145342,76579.8,74580.8
107064,115841,102052,95439.4,87144.4,87402,64556.3,55719.5
84294.9,90590.4,48811,88242,71456,84693,57024.1,66335.1
65739.6,102930,40511.8,117876,62853,110284,78407,87534.4
90806.4,103828,106355,116379,101021,86648.8,65602.6,55490.5
106123,90400.5,159891,107863,150734,116732,83261.7,58782.6
102629,57744,131739,44373,110480,65207.8,74991.4,70571.3
91575,122980,128122,132737,112970,106460,62569.7,56791.5
91273.5,119720,154496,112402,140020,118947,71298.5,69740.2
130279,90167.4,137540,86135,112018,82335.4,82732.3,60176.5
96932.7,103479,92365,102509,86683.8,100453,65665.8,60878.2
123074,104630,130579,91819,120912,84452.2,79809.9,65088.4
100228,110247,94928.4,151234,102061,127750,74083.5,81539.5
131777,120603,136191,134494,103834,145904,59993.7,75519.9
143965,82071,110859,85282.4,119766,101984,75488.3,73649.6
94384.8,142879,125500,149916,124159,120343,85269.8,83596.2
85346.1,123892,86416.4,114514,100667,115555,59230.7,79092.3
88255.8,98488.8,71141,119213,69700.4,96829.6,63276,54693.5
110191,102472,114769,99638,106191,99495.2,79144.3,75805
106700,73485,138652,119064,120165,107212,83457.3,78768.1
118246,122446,159879,121898,135603,119844,77437.3,85899.9
136039,107950,193677,99400,104741,93329.6,67734.8,64041.3
73249.2,93293.1,110965,81064.2,114911,85568,85768.2,67252.4
81468,88983.9,111756,109474,101553,84308,59481.2,76019.5
63345.6,77022.9,72993.2,84975.8,98030.8,88905.6,66223,58466.6
115195,104916,135342,100236,109505,88571,84010.8,79984.7
119875,87631.2,154876,95613,133580,105263,81733.8,63708.2
114088,93521.7,140539,159650,104826,105007,72402,77885.9
111722,93629.7,117380,125693,98618.8,113208,56967.7,56612.1
97094.7,103734,101664,109277,93769.2,80735.2,76424.4,58359.9
118201,85667.4,122772,71855,134208,77954.8,80802.7,81865.1
96998.4,110067,125185,116613,124442,96663,64666.4,56931.4
120542,127501,139527,109970,118808,101826,85344.3,60246.4
113279,78777.9,152078,87263.4,114863,83333.6,66948.4,76764.9
70664.4,138884,106708,114052,110149,110492,61502.3,87936.7
87126.3,113542,126641,89322.8,111283,105587,59353.6,74697.1
101953,101710,77040.6,136140,89996.2,110705,65114.3,81606.2
77630.4,126778,82569.2,128001,84075.6,117782,57915.1,79149.1
87939,111227,99699.6,91257.6,96922,97189.4,62649,56946.4
94674.6,98508.6,66201.8,124015,84347.2,104460,59874.6,76501.1
91450.8,114883,127984,86146.2,92180.2,98617.4,61709.2,67907.3
87972.3,92487.6,119309,147924,107965,152527,62272.7,88414.2
105409,79832.7,119172,111607,105119,77910,57520.1,63311.2
132167,90371.7,140118,100220,110271,73530.8,61227.5,76125.2
84756.6,91693.8,49471.8,106142,63393.4,101818,64966.1,71452.3
131811,149983,132525,187328,130561,163309,75050.1,55016.3
97772.4,89064.9,141663,69619.2,116973,73495.8,82916.4,72544
131842,119394,161316,147022,136938,115500,85733.4,67660.6
110408,104353,142848,112727,109449,88922.4,57219.7,66133.7
109583,83455.2,130291,99712.2,93123.8,83920.2,54947.7,88033.6
119372,114953,129060,103652,100771,123843,59194.5,55205.6
102846,99225,127610,94242.4,112144,90458.2,77726.7,64795.8
91239.3,75294.9,73347.4,151168,76946.8,100356,59206.6,67275.7
113573,94853.7,125556,128464,100992,125971,62487.3,87044.7
77525.1,108688,81302.2,115073,66831.8,109708,70337.4,88193.3
92096.1,104385,71864.8,98065.8,77967.4,98880.6,73055.8,78626.9
111154,108878,92293.6,86080.4,75413.8,99808.8,58494.9,79078.9
87049.8,96127.2,123616,87311,101256,88474.4,80020.7,77175.8
100061,98777.7,67905.6,79843.4,68161.8,85857.8,61699.2,70017.6
85026.6,111130,108310,108391,91725.2,87122,58724.8,57473.2
84638.7,84340.8,66885,74160.8,71780.8,79940,63453.1,56413.3
106674,132546,130449,166779,104355,146959,85010.1,86854.7
108878,88714.8,113935,80935.4,104537,89833.8,61375.4,79322.1
108782,96750,114736,133584,107383,106102,69488.1,62553.5
107078,112812,139517,95825.8,117639,117971,59196.1,81365.1
84918.6,117127,157335,102595,145383,110373,85791.8,78832.8
109831,84956.4,134201,78426.6,104103,77618.8,81519.7,86910.9
107024,87712.2,110554,111808,101217,134765,67478.1,86270.9
109904,79397.1,97395.2,94022.6,114541,63203,66180.8,55325.9
58765.5,166016,110135,203787,99296.4,125439,56545.7,59647.3
111050,110456,101154,124226,92150.8,105125,64377.3,70135.3
103896,120136,92780.8,143429,87560.2,130350,68799.3,86252.5
72699.3,99883.8,51665.6,86987.6,70589.4,80992.8,73886.4,55600.5
98355.6,88197.3,109480,77819,92814.4,88127.2,80783.9,85041.6
93822.3,134404,103481,142803,109306,131778,74407.4,63109.4
79366.5,108738,131201,89969.6,121411,98747.6,85398,56488.2
111171,141382,126998,158662,99136.8,145270,75962.8,68744.2
112122,120201,122179,94276,92439.2,93836.4,74460.3,56151.2
72801,82620,116875,65772,100135,73782.8,61115.7,58932.1
84325.5,111003,118957,99269.8,109900,92394.4,85045.8,55716
121166,120868,92414,158668,96391.4,133480,79368.3,88092.1
121493,103208,149118,127193,106536,135950,75295.2,71892.7
123709,96723.9,173328,68777.8,133347,74775.4,87383.2,58094.9
91245.6,76996.8,129455,86588.6,100661,87796.8,63307.7,80508.3
98577.9,144060,132598,177013,120856,152321,78252.5,74325.4
119760,93676.5,153160,104983,133713,116336,81580.3,55608.4
90453.6,81362.7,177793,93290.4,148154,84361.2,83170.8,70424.5
111982,118874,112174,105902,128517,128100,75273.3,88085.2
119323,99249.3,167948,90365.8,133792,92425.2,81165.7,72656.2
98528.4,68895,129398,76840.4,101003,62993,60386.9,56859.9
122062,46564.2,153775,48686.4,127354,88452,79751.4,73088.6
86571.9,121036,78394.4,107271,69217.4,120042,68710.9,71640.4
128039,94806,184751,90689.2,143849,110800,84328.4,68918.6
87255,115390,78225,134634,89538.4,114243,59432.3,70227
76126.5,117668,101270,130959,118763,112277,58545.8,71028.3
94304.7,124905,79178.4,128822,77588,102778,82471.3,61814.6
78753.6,95993.1,138669,98049,113924,110335,75400.9,76997.5
92889,155457,73019.8,165707,61349.4,142174,54794.3,71654.8
120104,90632.7,191986,87269,128558,88347,87566.6,71619.8
103983,86719.5,130347,89020.4,104579,103802,86172,72830.1
102329,74053.8,154344,73792.6,117508,75049.8,79012.5,73030.9
90865.8,101354,95883.2,74076.8,72515.8,87983,69191.8,78755.4
115704,117204,130295,110849,106054,109038,75853.9,72432.4
93810.6,135742,112833,131419,107194,121598,59226.2,61380.9
113916,100288,143920,76619.2,121153,123186,75710,80175.7
93001.5,82411.2,116365,85659,111194,100636,86685,62608.6
123041,102020,117485,120436,96425,119616,72635.9,66718.8
101058,106137,111406,111143,114680,104502,78604.8,57763.3
146528,111042,166730,112168,140042,125866,80639.8,85773.3
118752,86094,130997,70998.2,108157,100562,70749.4,64061.8
84763.8,99373.5,111864,114236,74547.2,113796,62043.2,81350.1
60519.6,113634,54453,108181,53102,120495,61166.9,78970.4
134883,102226,119585,86802.8,84970.2,98254.8,59363.7,79870.1
105237,84853.8,110089,55722.8,95027.8,66878,56093.3,66856.6
142315,92583.9,161035,68649,114365,76097,84453.3,54770.1
99124.2,52902,143566,56282.8,105017,154525,83750.2,84724.8
111054,89938.8,94560.2,116798,104518,139532,63175.1,84918
95707.8,98678.7,121965,107099,109721,93717.4,74435,71594.9
127606,111945,117421,126997,97804,121604,64383.6,86016.4
114420,73559.7,105934,61090.4,92530.2,63250.6,59007.9,63469.3
119804,123377,109936,122429,120596,108515,73524.8,77275.2
67566.6,95714.1,117569,99148,107072,109365,71375.9,62619.9
115618,110491,118196,90398,106889,100885,57676.8,82924.4
96597,74018.7,99253,67156.6,94365.6,72322.6,65243.7,58039.7
132247,113583,103796,92244.6,90900.6,102374,58654,65843.8
126715,94004.1,131387,75453,94378.2,89437.6,59221.8,82177.8
93806.1,115515,89994.8,126983,86979.2,95858,63495.8,65884.2
132957,116420,128706,99726.2,124219,108804,84424.7,60468.5
65475.9,98691.3,70057.4,84134.4,61766.6,74473,65649.5,88438.8
100264,134218,70184.8,135729,76510,127820,55250,62733.4
99872.1,69766.2,107873,109683,82475.4,112515,54883.3,76675.2
97767,105850,155033,202936,103356,164234,83186.1,83849.1
118058,97002.9,155694,126848,117491,107205,68825.4,74568.4
95283.9,88117.2,143685,149505,132924,155516,85563.9,87588
100643,56578.5,90246.8,48223,91012.6,63263.2,59696.9,67303.4
70928.1,85401.9,149450,69168.4,125891,83854.4,78488.1,59988.5
93082.5,75988.8,123915,79067.8,126083,103333,87292.5,70518.4
97991.1,71637.3,56940.8,94248,64115.8,111349,54934.2,81231.7
84815.1,111923,86597,116271,100922,128863,58015.6,82270
109332,110141,125779,96492.2,94112.2,101773,65323.3,61263.4
77107.5,113741,119053,116470,104041,87728.2,57848,71142.1
116565,84946.5,130353,101690,107961,99174.6,69530.5,71134.2
112481,116400,133193,117471,122048,128345,85054.6,61621.5
78455.7,81972,108465,82516,108178,100292,82031.2,75480.7
98824.5,78116.4,75264,86748.2,82714.8,99694,70331.6,85082.2
92435.4,93086.1,120757,88537.4,109690,95237.8,60245.8,65497.6
131204,129983,143266,123213,118826,97165.6,87841.2,60609.7
111001,101227,126790,85503.6,125371,96573.4,86833.7,83638.4
111379,79198.2,132245,126823,125042,125734,71416.8,86458.7
122083,73163.7,154413,49053.2,139689,62476.4,68462,69200.9
100521,89018.1,66488.8,82314.4,75598.6,76462.4,58776.3,55149.6
107954,88080.3,88281.2,90210.4,98103.6,96842.2,67820.5,82715.4
90904.5,132191,118121,155749,103874,146787,65912.8,57104.3
120542,91776.6,124433,115269,107738,108730,74937.3,58430.1
123658,125183,127907,134728,116157,113981,74019.6,58517.5
113688,48958.2,122122,57794.8,143025,61927.6,83791.2,57783.8
115366,69676.2,112958,82027.4,118573,68086.2,58406,68527.1
127079,99243.9,134585,121647,103464,119477,77356.6,80988.7
86947.2,128703,100905,123859,103407,113681,69602.7,73623.7
98319.6,85805.1,139601,117848,132728,105370,75555.7,56148.4
95566.5,67706.1,116278,64611.4,89240.2,77113.4,60269.7,68248.5
126850,108541,131135,125062,99464.4,120075,69902.4,57494.9
81254.7,110123,62791.4,120088,99128.4,103825,78159.7,88318.8
133846,128290,122024,118026,106711,132695,66603,65148
110053,116794,99913.8,99122.8,92330,89280.8,67978.3,63989.3
136226,74124,156331,102116,156624,118565,87095.1,86204.7
116680,90952.2,136711,149731,122252,100509,84478.4,58094.3
114425,76160.7,154731,70767.2,117898,73817.8,86325.3,86841.1
64610.1,117519,118763,104517,95825.8,112939,72447.2,84353.5
62730.9,123620,55045.2,153597,66829,126816,80201.9,66715.4
106974,57358.8,126704,45641.4,111416,54090.4,79909,55784.2
97533,113592,153140,125255,123173,129422,70892.8,77403.4
97280.1,106654,129448,85083.6,120952,101455,78335.6,64501.1
107897,114638,130138,104258,100810,105102,59771.2,64401.7
78826.5,96583.5,101366,105263,97029.8,146385,74346.1,87943.4
114104,93190.5,71617,155901,80981.6,135421,60020.7,66858.8
113180,110393,79459.8,112542,76080.2,115116,67184.6,63332.4
111541,87608.7,108485,83510,112368,78713.6,66343.2,56130.9
99937.8,109061,85715,106639,81048.8,93990.4,69280.5,87935.2
109589,86237.1,152968,113898,136994,102206,87804.6,73233.8
82984.5,104314,128555,130729,94778.6,108255,65545.8,59379.1
131045,79362.9,143956,48092.8,122654,64142.4,59032.1,70854
68049.9,51172.2,135677,86860.2,121526,95436.6,80444.6,71109.6
56539.8,77777.1,55946.8,78761.2,59462.2,74887.4,55099.8,55875.9
68425.2,107661,102045,106641,107201,109724,72888.6,87909.9
113674,83000.7,172875,68126.8,128107,85782.2,76663.7,66559.7
100900,99941.4,115598,126707,118996,108692,79784.8,73069.9
100867,104950,103937,102911,88190.2,92838.2,57705.6,62813.9
118400,75272.4,150353,128947,123861,146454,57918.1,73004.1
87514.2,111213,128715,107031,112816,124690,85863.2,87713.6
114529,96749.1,117369,117075,102211,107681,54984.6,81054.7
90317.7,78426,73844.4,175384,84327.6,124173,61580.6,65086.8
92724.3,90909,125898,64157.8,112503,73707.2,76306.1,56837.7
135466,110651,170318,111465,148400,102840,60698.4,85351.9
97270.2,113936,88680.2,127697,86223.2,119045,63482.5,60637.9
136749,83034.9,153268,76473.6,142208,71348.2,77344.5,57712.8
88575.3,111151,106338,94099.6,100804,97433,75928.8,61130.1
95058,142783,113081,170195,92440.6,131169,56342.9,82158.6
96809.4,95902.2,110298,61167.4,107698,73232.6,69403.3,56153
110924,127862,128663,144459,103491,144010,58585.8,57986.8
93325.5,70808.4,78106,59528,88272.8,79724.4,55262.2,83580.1
110569,107871,117722,96922,99439.2,96058.2,81159.3,75521.2
148375,88467.3,141425,70389.2,134870,90868.4,85176.3,86578.2
82688.4,122036,104343,101865,104128,125968,63457.3,58652.8
102960,102776,93972.2,98637,87718.4,86854.6,61628.1,67378.5
97808.4,104797,120469,114526,95754.4,89177.2,60684.3,63193.9
100518,116690,89712,122542,100974,162035,76787.6,75139.3
80100.9,114528,143028,106453,119914,86459.8,75057.1,60275.9
99280.8,91861.2,125798,131662,105426,99351,66605.6,81322.3
126609,95263.2,114513,105861,96394.2,90302.8,64865.6,55942.5
109131,110344,128734,105778,126368,118965,71295,77950.5
75369.6,100084,88929.4,91981.4,121520,108301,86872.2,88699
102914,120168,107737,133944,90543.6,105928,63265.1,64545.3
114858,109004,158771,84231,105993,105771,59973.3,70032.3
93009.6,67545,124818,40668.6,103390,67312,80662,87778.5
122924,131587,161596,129399,118271,124412,85735.7,73544.9
78651,116526,110314,105736,114946,87599.4,82545.5,72251.6
82647,89262.9,128369,73623.2,107887,80012.8,72331.9,60093.9
122717,122504,101566,153878,91922.6,132146,55061.9,65787.6
119923,85430.7,98683.2,103197,84758.8,92349.6,58557,55380.3
83820.6,112170,128037,140720,121923,114243,77244.5,85464.6
95338.8,112644,144130,132742,101752,125009,60999.6,61297.5
97373.7,88097.4,131512,122909,106984,131916,68276.8,66342.4
119794,60316.2,181979,81569.6,156425,90073.2,85046.1,59203.4
101706,80997.3,89236,123049,81856.6,117569,57268.6,73204.4
88788.6,113078,99449,116980,103418,102143,82913.5,58194.6
97798.5,97492.5,106030,122991,88771.2,148646,65561.3,58171.8
118873,119863,130561,105545,110607,128775,87125.9,68888
137333,127170,198209,118140,154031,105151,76483.6,73155.5
110936,99761.4,176882,102484,125300,98805,84285.6,63239.6
76637.7,89023.5,94539.2,96566.4,100397,89731.6,61948.5,76992.2
75465.9,102238,79657.2,80449.6,78223.6,98170.8,58199.1,72974.1
92512.8,97111.8,76830.6,108773,74162.2,96889.8,58331,65909.4
87835.5,111319,74985.4,69386.8,64618.4,100659,55123.7,72511.4
79936.2,122819,127078,118440,106687,113397,78713.9,77630.1
93149.1,91703.7,68874.4,91966,79403.8,90783,72778.7,59383.6
87464.7,88101,126252,81176.2,106098,91250.6,65220.7,59648.7
131465,101139,103834,86270.8,97410.6,93914.8,60758.6,83515.4
113388,96186.6,96009.2,94995.6,100092,107986,66365.9,72997.3
86639.4,142756,129223,214024,104916,150573,55675.6,71836.8
86445.9,108608,92904,95030.6,94400.6,95810.4,55698.6,83748.6
93287.7,94914.9,134606,71972.6,107313,74279.8,81446.7,55448.2
123992,66647.7,163128,54826.8,113854,59376.8,54776,70686.5
63353.7,87295.5,96460,81219.6,99009.4,86856,58490,59118.5
124988,104899,123382,79227.4,106753,91623,73615.4,59318.1
81624.6,84933,94400.6,90260.8,82730.2,91796.6,57543.5,57256.3
123072,96282.9,137584,98869.4,123271,94647,87571.5,63357
104798,103161,120326,88123,106806,97332.2,78579.2,63270.4
93995.1,99836.1,109375,131286,116172,115573,86274.7,84189
96918.3,119233,120786,124041,102844,140295,77514.5,80950.8
126389,137648,152592,172652,132695,139279,81102.4,54760.4
129274,110132,123756,97105.4,104936,99992.2,76344.4,63744.7
120007,112990,154910,138370,118776,106859,68741.5,71120.8
85801.5,101107,88968.6,100390,101556,108739,67064.9,77073.5
82971.9,101471,125049,115529,122727,112148,78332.6,80610.6
55368.9,73928.7,46267.2,59603.6,72091.6,74033.4,84824.9,77604.1
123916,94460.4,97410.6,67655,84562.8,74678.8,85872.8,68044.2
138679,133906,123281,126699,124299,110785,79586,65126.6
98198.1,99583.2,117548,92453.2,114320,84511,74746,70894.8
127199,101864,98701.4,154213,96495,116574,66912.8,76222.8
86310,89431.2,148694,99989.4,111982,100565,77791.7,64861.1
67553.1,85261.5,102460,109414,98798,117407,61963.1,56626.1
100138,131892,139993,138975,109626,108585,61390.6,56765.4
85052.7,103768,134980,109392,125672,106053,80607.6,77395.4
73215.9,89388.9,124858,85407,121016,88452,66956.8,76013.2
142475,75049.2,146341,88179,144210,100092,87439.4,80938.5
115904,67041.9,162203,108031,106987,136611,59446.9,86823.8
135411,95373,165452,103449,135507,108090,82913.5,86328.4
82584.9,111236,112388,112584,88912.6,101676,64987.5,71111.9
93666.6,86162.4,103911,112524,95230.8,114285,54814.4,67587.8
75825.9,92268,110732,129381,94248,97174,65886.6,70962.4
94845.6,123185,105437,110517,94579.8,95720.8,62980.2,67271.2
109285,88970.4,114878,96637.8,115770,101090,82441.3,58567.8
119413,110610,103435,113611,93633.4,105671,61896.1,57233.1
,108543,,98338.8,,104975,,80947.6
,117199,,105634,,118597,,65328.1
,107126,,110639,,107801,,63562.7
,89992.8,,84858.2,,92559.6,,63131.1
,77888.7,,125870,,127523,,54966.3
,105714,,126354,,126169,,87343.8
,58447.8,,34449.8,,50407,,61412.1
,97649.1,,97699,,89735.8,,71126
,135069,,117827,,130606,,60166.4
,69734.7,,65580.2,,67461.8,,56606.1
,100926,,129723,,89518.8,,67218.5
,93263.4,,76440,,77392,,54694.3
,95182.2,,129844,,108461,,57341.3
,88848.9,,101541,,98917,,64794.9
,111211,,118616,,112547,,72476.8
,87707.7,,80550.4,,86940,,63542.1
,74886.3,,78698.2,,78022,,64179.2
,97010.1,,78990.8,,99573.6,,64663.6
,135345,,175071,,158924,,85833.1
,58878,,62353.2,,65601.2,,60797
,99777.6,,86651.6,,85156.4,,59031.9
,51560.1,,24651.2,,52049.2,,57890.3
,69685.2,,44181.2,,59430,,58906.3
,112790,,80248,,75436.2,,62236.2
,108241,,92608.6,,102024,,62795.3
,107965,,150153,,129443,,64993
,112193,,97615,,95100.6,,56824.2
,98874.9,,79695,,92136.8,,55315.6
,113835,,110727,,104041,,55591.2
,86375.7,,69182.4,,77477.4,,63670.7
,105187,,113007,,106425,,60057.6
,137345,,163976,,147438,,79009.1
,124686,,156331,,125604,,67493.7
,97994.7,,96548.2,,93437.4,,65294.4
,75044.7,,88845.4,,98259,,80399.2
,113716,,121824,,111378,,67752.8
,81595.8,,65228.8,,71296.4,,58843.1
,94736.7,,102679,,108559,,66815.6
,60464.7,,102403,,71566.6,,60161.5
,87075,,82444.6,,97746.6,,59742
,77504.4,,71229.2,,93510.2,,62015.6
,83617.2,,98907.2,,96790.4,,65526.8
,108916,,128348,,93716,,81329.2
,120210,,131060,,111314,,88427.7
,99000,,85108.8,,103398,,60262.3
,108336,,99535.8,,81909.8,,65445.4
,110290,,127746,,114269,,60468
,74845.8,,59026.8,,71813,,88717.7
,104054,,109901,,123764,,61144.6
,75268.8,,97619.2,,134259,,74659
,79077.6,,62377,,69358.8,,87954.2
,83354.4,,118271,,92911,,56255
,79220.7,,94563,,88302.2,,77348.9
,114203,,121898,,119241,,77275
,79180.2,,44828,,49347.2,,59460.2
,145546,,118756,,153811,,78256
,104284,,122860,,122150,,64225.7
,112259,,109389,,123474,,80141
,61817.4,,95390.4,,92646.4,,67460.8
,73571.4,,101465,,112406,,79289
,114881,,116859,,123882,,85845.9
,58894.2,,39937.8,,63242.2,,73740
,97804.8,,69339.2,,97001.8,,64194.3
,138028,,192310,,146724,,83076.7
,113839,,120261,,105218,,75044.3
,123560,,114096,,118665,,80532.3
,79542,,92596,,96765.2,,56969.5
,79623,,85821.4,,69326.6,,58506.4
,97427.7,,67093.6,,78205.4,,58388.8
,94275,,101672,,113030,,74407.2
,81335.7,,153559,,109427,,60267
,117820,,119679,,104059,,58488.6
,85837.5,,70666.4,,76546.4,,58692.6
,115036,,103590,,117169,,83596.4
,83476.8,,75805.8,,94379.6,,66034.2
,113053,,86870,,97883.8,,75082.2
,96542.1,,110648,,117390,,61727
,144892,,127282,,135394,,81995.2
,54513,,54128.2,,61643.4,,73625.8
,86614.2,,80262,,87459.4,,55038.3
,85474.8,,103537,,100741,,56646.2
,145105,,99850.8,,125831,,70707.8
,109899,,122534,,116103,,75277.5
,88034.4,,120050,,112998,,76287.3
,143529,,157699,,128352,,72709.2
,103892,,120649,,117884,,79065.4
,95591.7,,122468,,118142,,68079.6
,120038,,98407.4,,99344,,55194.3
,113895,,98032.2,,101574,,88615.8
,91647.9,,107822,,95907,,56894.3
,49293,,35231,,56595,,77118.8
,139675,,108786,,115685,,60242
,115799,,134291,,115979,,86709
,100152,,90064.8,,93468.2,,57626.8
,107668,,119991,,124939,,79820.7
,107983,,126076,,112391,,59175.8
,72898.2,,85827,,104209,,56427.7
,102840,,83903.4,,93987.6,,87491.5
,66761.1,,112456,,99604.4,,69183
,97607.7,,65622.2,,73448.2,,62349.6
,124762,,138158,,120869,,70682.2
,86424.3,,66347.4,,73423,,64946.1
,75278.7,,80794,,111161,,69614.7
,96872.4,,109738,,93063.6,,72552.2
,142089,,148544,,126913,,82033.3
,138280,,156038,,122979,,60442.2
,110648,,155106,,123704,,74313.9
,90799.2,,118173,,100695,,60261.4
,102625,,112239,,113261,,68547.9
,118171,,144823,,122723,,60801.9
,88333.2,,88422.6,,81484.2,,63097
,140151,,132485,,122667,,65719.5
,116227,,169277,,137451,,83888.3
,104683,,106172,,119857,,55425.6
,93270.6,,105164,,107311,,74403.4
,66526.2,,107085,,114386,,62412.3
,88661.7,,101947,,91471.8,,57538.9
,150283,,144997,,134653,,73557.6
,111702,,124631,,106673,,77451.6
,91031.4,,81963,,83640.2,,58021.3
,90559.8,,89684,,86238.6,,75505.1
,82584,,82943,,78465.8,,72439.1
,106879,,73899,,81942,,56328.8
,70545.6,,47672.8,,60506.6,,54889.3
,60106.5,,77051.8,,98877.8,,84486
,105316,,96910.8,,84599.2,,59134.2
,127669,,116621,,124489,,75908
,118433,,99072.4,,104188,,75790.5
,101793,,94463.6,,105573,,88113.8
,81825.3,,54920.6,,76525.4,,64328.4
,115235,,126672,,110855,,83342.1
,115622,,130642,,106665,,55499.9
,93445.2,,109533,,128355,,87983.1
,106385,,136707,,103709,,75842.2
,107968,,86940,,99570.8,,88469.3
,105243,,91117.6,,99974,,71416
,106074,,98761.6,,96990.6,,68100.8
,93213,,147676,,147062,,79656.3
,97643.7,,139224,,137417,,87745.2
,91728,,112710,,108590,,84846.4
,91060.2,,60900,,81330.2,,86960.2
,119353,,203038,,127561,,58669.3
,125711,,126549,,112475,,76816.8
,114561,,109469,,102948,,59299.4
,94059.9,,116523,,133977,,87887.1
,98846.1,,119843,,112829,,57920.1
,115892,,131813,,138750,,86294.5
,103354,,162715,,141616,,88604.8
,98566.2,,93179.8,,110559,,75411.1
,112652,,119816,,105965,,82699.1
,90994.5,,92995,,83946.8,,87742.8
,98770.5,,96629.4,,96314.4,,77814.5
,112426,,132755,,162197,,84335.3
,127774,,119228,,133743,,85976.5
,116348,,123680,,108311,,73237
,143050,,152488,,147860,,65757.5
,116292,,100239,,80239.6,,55186.7
,92632.5,,84838.6,,80750.6,,66934.3
,109084,,103029,,109185,,83775.2
,75423.6,,78302,,68882.8,,60963.5
,89718.3,,117622,,123894,,58159
,97437.6,,88344.2,,79466.8,,62685.1
,65997,,65059.4,,63672,,67906.7
,131170,,121094,,114055,,59840.5
,89646.3,,107876,,101758,,74904.2
,97707.6,,122377,,110578,,85182.5
,87109.2,,97741,,96040,,77382.5
,93615.3,,87750.6,,87320.8,,85752.6
,94643.1,,111887,,103848,,80634.8
,114667,,102803,,110531,,80319.2
,103745,,86616.6,,109501,,87187.6
,123055,,135365,,118030,,85625.9
,100206,,104427,,98957.6,,58508.8
,132676,,102704,,104177,,57347.3
,119411,,132504,,116864,,62591.2
,90506.7,,119732,,117424,,78087.5
,93682.8,,109928,,109221,,73203.8
,102324,,92230.6,,102290,,76187.4
,112656,,109410,,117440,,86153.7
,97484.4,,120194,,107968,,58036.2
,103280,,85724.8,,81230.8,,66056.4
,114732,,83620.6,,106508,,71649.3
,85871.7,,134522,,97694.8,,55847.8
,109109,,96178.6,,119938,,74070.6
,113926,,111010,,87271.8,,57804.9
,115968,,121664,,116186,,84290.3
,94546.8,,99656.2,,138400,,76152.2
,131651,,124284,,212421,,58019.2
,79596,,88309.2,,97556.2,,80654.1
,108735,,139579,,156575,,85173.4
,105182,,94852.8,,100036,,86227
,97222.5,,86963.8,,78549.8,,55068.9
,118594,,111056,,89836.6,,59222.2
,83513.7,,71918,,95043.2,,70010.2
,105344,,113924,,97428.8,,58033.5
,114376,,112668,,102614,,66817.5
,125002,,112267,,124397,,83677.3
,117483,,160262,,138366,,75282.7
,112447,,123697,,118765,,65360.9
,84914.1,,83658.4,,90087.2,,61855.9
,78277.5,,137330,,101725,,62808
,93424.5,,93443,,119924,,78496.5
,130457,,175976,,150347,,73059.2
,138425,,100353,,98711.2,,62887.6
,90201.6,,79746.8,,73340.4,,57847.1
,84475.8,,89094.6,,96768,,66840.8
,86248.8,,106641,,95666.2,,56994.5
,107355,,131233,,118342,,62753.4
,136372,,119798,,110267,,74594.9
,113437,,142362,,98539,,56346.3
,113980,,102477,,114163,,79583.4
,78903,,68180,,76444.2,,80178.1
,103875,,85983.8,,77477.4,,56582.5
,117312,,122864,,132191,,88023.5
,106910,,97619.2,,95583.6,,58575.4
,87261.3,,90245.4,,96436.2,,56769.2
,95254.2,,137915,,83151.6,,56243.6
,93296.7,,82702.2,,76077.4,,68247.3
,130726,,154066,,122772,,67331.1
,89388.9,,72914.8,,82371.8,,60592.3
,103855,,113484,,109621,,65644
,107413,,208390,,158659,,74129.4
,99827.1,,94143,,106389,,59812.6
,96829.2,,160201,,119406,,74386.2
,131595,,110471,,99545.6,,63205.9
,102690,,102549,,97335,,56095.3
,73683.9,,77595,,79196.6,,64960.5
,105252,,115291,,115643,,81037.8
,89918.1,,89132.4,,84364,,57610.2
,123025,,94539.2,,110375,,85978.4
,104842,,128310,,124782,,75342.5
,152949,,167819,,141779,,74273.8
,99441,,99047.2,,93343.6,,60714.3
,90908.1,,92958.6,,100299,,74002
,94345.2,,120687,,122310,,88324.8
,69162.3,,141702,,108478,,83937.9
,97382.7,,76308.4,,88454.8,,64898.5
,122897,,155007,,156783,,78232.6
,130165,,117065,,106575,,64678.9
,113900,,66869.6,,84725.2,,78219.8
,104216,,152744,,134222,,86990.2
,75537.9,,50253,,66004.4,,72914
,112046,,166908,,144217,,87288
,127378,,132289,,105399,,60789.6
,83132.1,,78024.8,,82803,,73637.9
,71119.8,,91691.6,,82993.4,,56510.1
,94333.5,,137535,,136647,,85874.6
,115597,,126427,,103747,,70793.8
,96008.4,,100962,,105760,,63844.7
,71379.9,,122325,,121120,,58198.7
,97827.3,,73187.8,,83568.8,,64907.8
,97317,,96405.4,,93620.8,,65549.2
,73476.9,,104986,,93269.4,,56387
,101132,,105042,,104318,,70380.1
,91287,,76675.2,,89440.4,,73066.5
,89022.6,,55428.8,,79494.8,,82226.6
,79992.9,,70023.8,,69830.6,,76734.8
,101854,,86818.2,,87200.4,,55632
,67984.2,,114407,,126367,,84091.1
,104881,,143067,,110569,,56442.2
,106334,,115906,,110572,,55403.3
,114232,,117496,,99769.6,,61453
,76988.7,,89695.2,,116189,,84200.6
,108869,,135839,,121212,,84895.9
,120560,,98145.6,,99051.4,,61288.4
,87227.1,,104626,,110207,,76916.9
,103849,,116574,,106816,,56036
,115676,,107632,,109049,,84086.9
,93505.5,,76759.2,,88685.8,,64074.9
,106404,,83560.4,,122028,,63008.1
,97134.3,,97874,,102465,,88091.9
,78009.3,,101583,,109711,,68803.2
,101372,,92124.2,,98415.8,,70691.2
,138504,,142801,,131659,,77340.8
,144272,,103260,,119295,,82972.4
,99845.1,,105300,,105218,,68889.9
,102733,,72793,,91807.8,,81404.5
,101891,,99607.2,,115335,,69283.9
,93883.5,,70842.8,,103753,,87756
,81373.5,,77001.4,,77305.2,,57247
,77125.5,,86716,,82401.2,,78827.6
,91390.5,,78367.8,,104392,,80030.3
,71837.1,,73060.4,,118534,,61970.5
,98680.5,,86420.6,,95510.8,,58977.2
,82293.3,,126493,,124082,,85104.7
,116065,,148968,,126848,,73053.4
,73803.6,,74550,,102039,,70344.9
,99917.1,,111346,,111472,,62527.3
,91928.7,,93115.4,,99670.2,,83681.7
,57014.1,,58644.6,,69251,,57077.1
,97652.7,,82941.6,,86490.6,,61840
,126364,,124050,,125458,,78272.2
,104188,,93140.6,,93956.8,,62322
,71557.2,,79063.6,,100551,,57492.1
,112083,,147629,,101525,,58372
,99822.6,,123432,,130710,,71474.4
,88929.9,,133389,,124716,,64644.8
,111992,,104472,,108700,,79483
,85995.9,,108119,,107465,,62568.9
,109655,,143410,,100596,,55600.4
,142014,,92552.6,,116682,,81492.5
,95351.4,,80627.4,,90713,,74957.1
,93564.9,,99521.8,,93429,,60824.5
,105243,,115704,,117688,,88360.5
,74495.7,,91798,,109158,,81281.4
,113975,,154714,,127750,,74762.1
,97488.9,,112818,,110076,,64284.1
,120511,,94893.4,,93497.6,,63558.9
,57673.8,,34574.4,,53761.4,,67461.5
,91485.9,,91005.6,,91079.8,,69094
,114339,,156750,,116171,,86066.1
,104951,,121100,,111682,,77271.1
,90529.2,,90147.4,,87019.8,,70158.2
,102676,,127737,,120313,,74795.5
,86471.1,,55013,,61854.8,,55505.9
,111267,,111097,,114453,,62716.4
,76308.3,,64478.4,,76550.6,,77487.5
,115441,,111343,,99696.8,,58942.7
,86562,,57958.6,,62601,,59028
,80585.1,,79437.4,,83253.8,,70281.8
,77901.3,,86018.8,,123043,,87612.4
,47129.4,,48105.4,,59865.4,,75485.3
,107570,,93853.2,,106869,,72986.6
,94746.6,,65896.6,,79231.6,,76330
,76973.4,,89457.2,,91904.4,,58985.4
,104774,,114901,,101688,,62164.1
,89622.9,,74040.4,,96712,,59712.7
,60813.9,,85836.8,,101266,,66653.1
,113695,,105805,,104223,,70162.5
,133204,,124351,,119780,,72921.6
,91706.4,,96510.4,,103530,,69694.7
,135176,,136622,,152319,,78239.9
,103212,,120225,,123469,,88665.8
,103821,,105321,,103400,,77109.8
,108922,,89700.8,,90213.2,,69201.1
,52835.4,,40016.2,,58069.2,,55409
,86152.5,,92489.6,,100250,,78559.5
,113953,,93620.8,,102752,,77473.2
,85846.5,,93973.6,,93557.8,,87702.4
,89830.8,,98872.2,,86549.4,,58358.7
,119000,,112759,,135006,,86996.8
,121048,,140084,,113544,,63609.1
,101733,,102012,,102579,,56531.6
,120855,,70098,,75639.2,,55332.1
,82546.2,,94432.8,,82175.8,,55010.9
,122505,,126882,,122812,,75043.5
,131571,,161150,,137435,,71349.1
,144247,,159383,,135423,,71817.5
,121213,,112687,,90405,,57995.2
,82665.9,,75894,,73245.2,,74680.1
,111793,,110443,,119035,,55067.7
,101267,,76643,,98579.6,,84643
,140371,,182232,,149379,,86873.4
,69192,,67079.6,,80964.8,,56743.9
,103176,,110186,,104418,,74854.9
,96125.4,,103351,,119755,,87940.3
,82490.4,,82189.8,,89226.2,,57597.6
,139354,,180898,,149463,,69226
,97937.1,,78187.2,,88051.6,,64955.8
,74633.4,,66987.2,,75010.6,,60048.8
,75384,,55826.4,,77504,,85672
,108763,,99568,,86623.6,,86677.9
,102972,,109005,,101996,,75600.8
,112472,,99342.6,,95645.2,,65923.1
,102320,,100696,,105857,,74649
,89535.6,,60788,,84623,,56330.5
,85405.5,,137350,,110076,,70731.1
,91095.3,,74870.6,,79906.4,,55123.8
,97858.8,,103030,,94564.4,,61687.2
,105734,,109351,,112423,,84485.1
,91282.5,,110474,,130236,,79804.2
,80082,,88495.4,,90962.2,,64877.4
,76315.5,,70841.4,,74176.2,,74545.3
,123217,,135640,,109760,,56993.7
,95383.8,,101919,,72493.4,,58405.6
,116204,,103244,,109803,,84432.1
,102479,,82821.2,,101482,,58879.1
,106374,,89684,,90501.6,,61518.1
,111378,,126665,,111752,,73459
,98535.6,,82961.2,,89075,,66048.1
,133647,,124513,,116495,,80217.2
,122018,,165273,,122387,,82105.9
,109273,,94544.8,,99204,,80627.9
,102694,,122259,,109337,,72908.2
,116118,,158847,,103425,,62987
,107723,,162658,,142304,,87472.6
,107241,,102116,,98656.6,,55709.1
,103234,,100688,,107293,,75522.7
,94625.1,,98536.2,,87722.6,,61452.9
,69056.1,,61454.4,,66591,,72533.3
,110264,,124313,,110015,,84523.4
,126971,,202047,,147517,,75812.8
,104116,,124403,,110965,,81704.1
,99460.8,,99335.6,,99234.8,,77345.1
,94136.4,,137333,,148737,,88085
,79225.2,,66992.8,,74237.8,,72919
,121684,,107414,,99146.6,,70102
,115254,,124022,,128989,,88129.8
,54926.1,,31526.6,,50341.2,,55614.4
,120927,,116852,,113954,,73390.7
,88578,,81198.6,,85185.8,,82930.1
,99990.9,,92535.8,,102956,,77828.1
,109084,,108595,,121412,,79579.5
,122172,,168658,,155347,,73776.4
,128914,,105116,,118730,,69909.5
,100617,,121576,,117085,,72552.2
,118301,,100859,,108990,,73877.6
,91107.9,,91355.6,,96762.4,,64046.6
,93363.3,,68027.4,,94043.6,,55612.7
,112728,,122310,,103195,,56537.6
,101747,,136420,,121986,,57877.3
,69347.7,,59662.4,,64923.6,,58299.9
,97624.8,,105682,,114975,,77682.1
,107899,,91156.8,,98845.6,,56058.9
,110376,,118405,,109802,,74962.5
,80521.2,,76350.4,,65097.2,,55675.3
,113408,,143521,,116280,,82408
,104175,,113385,,101591,,58008.3
,137584,,140844,,134394,,83823.8
,114618,,114573,,95116,,54705.4
,69338.7,,41568.8,,55812.4,,81313.5
,63779.4,,46328.8,,65928.8,,76772.5
,101184,,102971,,98131.6,,87551
,107323,,99285.2,,113637,,60258.2
,122346,,134819,,127729,,84453.7
,105985,,100051,,129618,,84387.5
,100668,,196694,,172801,,83246.4
,117426,,99736,,102490,,73248.2
,127360,,92481.2,,190530,,77917.6
,76648.5,,68503.4,,82749.8,,82501.9
,100435,,81083.8,,82860.4,,62495.9
,122661,,154729,,134806,,68670
,104051,,107510,,116764,,87074
,75154.5,,55792.8,,79262.4,,65849.8
,93765.6,,109369,,101674,,56528.2
,123269,,109830,,115342,,83329.8
,59803.2,,51647.4,,70137.2,,76329.8
,111992,,134827,,129326,,67397
,81846,,94018.4,,101891,,69906.8
,68388.3,,109949,,141726,,70361.4
,89032.5,,85258.6,,76031.2,,58681.4
,98759.7,,130409,,116953,,72690.2
,101641,,131944,,133647,,80902.4
,88484.4,,115345,,120000,,76862.6
