"FSC-A","FSC-A","SSC-A","SSC-A","FITC-A","FITC-A","Comp-PE-A","Comp-PE-A"
131800,106219,163171,148849,144826,116666,83113.8,76695.3
122391,91791,154196,84117.6,135663,81181.8,68559,58495.5
85467.6,107624,87747.8,109109,90755,116728,63720.5,73853.7
98532,74652.3,123368,88909.8,104028,84051.8,86911.1,78482
88410.6,75138.3,95109,70253.4,102318,70949.2,68364.5,57118.9
132801,87103.8,181854,98396.2,154980,100377,73658.8,67638.9
90328.5,90053.1,78285.2,70621.6,74919.6,73848.6,60196.5,60136.4
120981,92330.1,141149,69531,125049,79867.2,85331.1,68807.4
78727.5,90423.9,108553,81243.4,102675,84511,62626.4,60687.4
98098.2,94794.3,102049,80642.8,117958,96111.4,67348.8,57000
81729.9,101588,99495.2,108784,119365,89223.4,87754.9,54794.9
96540.3,89348.4,83596.8,78373.4,87312.4,76867,60104.9,66344.1
96296.4,97214.4,106667,107255,95636.8,112528,56974.6,66372.1
100657,91132.2,76776,93240,82863.2,95655,66183.4,61179.5
91871.1,109290,107782,107409,113890,103701,77790.6,81598
93935.7,92652.3,92363.6,92572.2,106162,115969,62561,81056.2
107149,71319.6,117225,124694,106718,84303.8,77385.5,57193.9
68359.5,109714,113480,86846.2,115039,98905.8,60455.5,71509.8
108364,86691.6,110253,84485.8,92358,97139,66776,62986.5
108552,101269,108909,91092.4,95275.6,108987,67309.1,85373.1
83685.6,111668,91544.6,121771,97020,93356.2,72341.6,70830.3
87707.7,60107.4,108798,70232.4,104489,93220.4,63911.2,65336.2
106344,98019.9,129177,112491,102495,93170,65595.6,75458.7
76091.4,85329.9,63182,79315.6,82702.2,113159,84966.3,80085
125976,116001,147997,108440,122762,109416,55221.4,74798
62562.6,117222,59588.2,116551,72630.6,101025,59020.6,67841
82400.4,125203,84117.6,118800,86703.4,134784,71370.1,83593.4
105294,107688,120900,99401.4,115770,179477,81527.1,68940.9
75889.8,79998.3,95274.2,65580.2,101417,91030.8,80480.7,56837.4
110000,86790.6,126857,97791.4,120623,105178,74456.1,79535.6
86596.2,93476.7,85500.8,72658.6,96252.8,88988.2,61991.2,69419.8
71735.4,104605,68311.6,108560,77942.2,108224,74154.4,64280.3
87710.4,94333.5,85562.4,74498.2,81366.6,81848.2,72748.9,56674
104581,77976.9,101259,92759.8,117674,91756,72801.4,61075.7
128368,85615.2,166006,88513.6,131509,81783.8,58032.1,56809.4
108778,94137.3,88970,87857,105650,94844.4,61505.3,65719.7
82577.7,105844,88313.4,74131.4,88566.8,98702.8,59169.7,58930.1
97740.9,63003.6,101478,57142.4,116477,73910.2,75075.7,78671.4
70362,89375.4,93219,80784.2,111427,77397.6,73432.2,59617.9
108571,84728.7,87176.6,66036.6,101770,71229.2,55176.3,60059.5
91687.5,89001,101956,95337.2,103985,94039.4,56150.6,73899.7
90574.2,89259.3,117926,90956.6,117513,108090,75740.5,88802.2
116021,83963.7,147666,80061.8,134393,88902.8,66367.3,62407.7
94057.2,97563.6,94085.6,107881,94137.4,94736.6,71828.2,74422
81801,92331,103543,62938.4,102955,86363.2,57745.1,54776.2
84439.8,98958.6,87801,112169,72664.2,97888,65159.8,58052.5
95311.8,79228.8,155082,82425,122357,123501,78784.8,70027.8
107714,96779.7,129185,67037.6,151385,127275,71835.4,54674.7
75412.8,103954,128331,97739.6,104931,99450.4,75053.8,81975.1
94319.1,86247.9,85521.8,45061.8,96276.6,72042.6,84710.9,58464.8
89090.1,71871.3,124160,64562.4,132920,68845,73752.2,57392.1
127087,74120.4,127984,99551.2,116610,101562,84839.8,57049.1
72682.2,116212,61779.2,97442.8,68965.4,102053,75570.7,82506.2
169676,90916.2,203302,58406.6,148606,79254,58557,60222.1
91576.8,87508.8,116812,105872,117603,131769,75777.7,84667
113370,98250.3,114429,154834,113393,136410,74562.9,83212.4
94292.1,87142.5,110606,93888.2,95289.6,113663,67433.2,77807.6
104644,113928,140444,187940,120625,128594,75791.6,85738.2
91893.6,106951,79716,106560,83430.2,94733.8,63718.8,61094.1
108158,88477.2,115710,73264.8,95706.8,82651.8,68173.3,60655.8
73825.2,111794,72286.2,111863,87609.2,126945,71720.6,80119.7
96600.6,58372.2,105105,31886.4,101920,51391.2,62961.6,55466.7
99615.6,89602.2,95254.6,88776.8,94761.8,103096,71262.7,62624.4
110718,113367,121470,86738.4,123495,108594,87449.6,75406
100098,70305.3,94220,70681.8,99225,81425.4,57732.8,66298.2
127885,105051,121682,107327,99933.4,112214,57966.3,80974.9
74058.3,55043.1,75968.2,87159.8,90388.2,89448.8,64406.4,70165.3
112874,85287.6,108289,78799,113992,82464.2,61338.1,59359.6
114311,93153.6,121953,74095,130873,84179.2,86801,56112.2
133225,77755.5,136422,99001,143864,86940,77911.6,55324.1
136185,81753.3,138569,63131.6,131795,91056,69579.6,56350.7
84990.6,79686,77189,97500.2,76680.8,98057.4,60865.9,61525
95252.4,92238.3,99758.4,76475,103704,82861.8,69797.3,66473.2
62631.9,78219.9,40923.4,55391,59129,75843.6,55057.9,58251.7
90937.8,99466.2,92230.6,70467.6,72549.4,76144.6,55263.3,63880.9
79292.7,94806,119734,81345.6,99947.4,111679,57092.2,71454.2
84558.6,60808.5,131683,43612.8,112309,75570.6,85447,63398.7
162681,105774,183589,119654,143030,116029,81996.3,77685.5
85639.5,95020.2,103432,77775.6,111927,87206,62074.6,60951.8
99196.2,92307.6,130770,121442,133671,84609,84575.1,67228.7
88836.3,101739,81209.8,97897.8,94536.4,95517.8,62874,75634.1
99539.1,105140,85719.2,118415,121661,111194,85149.1,74639.4
73578.6,100515,105015,99062.6,105694,87577,70060.4,54885.5
87183.9,103906,112038,90022.8,132948,109990,80353.6,71666.8
106664,81406.8,67516.4,75409.6,100670,94992.8,58722.3,55804.9
96966.9,131697,83034,196890,86140.6,157163,55582.7,72285
89052.3,100542,75878.6,83028.4,79373,96762.4,63934.6,86322
113173,111504,150912,104248,140101,97627.6,86030.4,73243.9
106215,98881.2,106551,71058.4,101041,92114.4,68929.6,77416.9
116939,91499.4,124415,98502.6,110260,100867,59057.9,63547.6
95274.9,113346,88459,142710,99923.6,117356,77674.5,59647.9
87303.6,91591.2,135566,86445.8,114552,91420,85835,70289.2
91603.8,53457.3,118199,33243,116252,75997.6,74560.6,57888.9
103693,110950,102494,103249,107027,98974.4,85230.6,72648.2
63177.3,114443,137060,71737.4,138569,89978,70795,56822.8
112300,93330.9,151680,85507.8,106074,112020,56893,83958.7
101799,118884,79269.4,145999,95505.2,110747,77982.4,59116.4
116063,87017.4,124298,73101,117807,110489,59060.9,68548.2
98463.6,84026.7,110480,85857.8,121764,101517,70378,57083
72639.9,81157.5,72455.6,106628,79976.4,90745.2,80294.5,69249.5
67357.8,100585,40559.4,68374.6,58357.6,94236.8,55651.4,68296.4
95068.8,81032.4,98268.8,60981.2,95201.4,79822.4,58596.9,58244.8
91588.5,77499.9,96507.6,105277,101763,118342,69644.2,81692.6
54059.4,102424,69704.6,96362,96608.4,118128,72556.1,74203.7
111962,85116.6,159573,77154,149929,85470,82919.9,67110.5
105996,87951.6,89110,60495.4,103334,76795.6,74480.3,58975.8
111463,112570,128605,124412,118157,97871.2,65942.6,78459.5
86034.6,91371.6,75728.8,102526,80673.6,102767,62360.6,77406.9
93028.5,71866.8,72508.8,93836.4,82825.4,105414,82980.6,74846.4
86295.6,107804,120121,96601.4,137519,95582.2,86869.1,74307.3
110537,97325.1,145022,82356.4,130901,107883,73518.1,75374.3
82436.4,97117.2,100712,78661.8,118089,94844.4,76005.6,61624.7
79638.3,88597.8,103307,102484,94984.4,101135,59582.4,60587.7
69522.3,91654.2,123781,69525.4,101730,95622.8,59863.7,60991.7
96971.4,92844,133203,99381.8,115132,95107.6,71759.8,68929.7
97231.5,93144.6,89635,84326.2,99668.8,92583.4,73601.8,60298
79234.2,154401,106042,186088,118759,148998,86632.8,76807.9
77035.5,83286,130515,99454.6,92729,139903,68992.1,75656.9
81881.1,102620,146283,75587.4,99107.4,84996.8,60415.5,59421.5
72461.7,85121.1,66752,81040.4,80259.2,86091.6,54803.8,66246.9
91179.9,97067.7,96775,72902.2,95785.2,92138.2,62965.2,83935.8
87395.4,98571.6,92506.4,75482.4,114171,101933,61983.7,70034
95699.7,92099.7,101622,68665.8,113884,87292.8,64234.6,70803.1
69079.5,104530,89894,97328,101319,101158,81808.9,62164.6
94757.4,88384.5,107911,87866.8,120170,76182.4,80256.7,56906.1
90738.9,99434.7,84446.6,114167,94546.2,121115,59566.8,80197
80341.2,81341.1,156912,52955,140445,82713.4,76661.1,58479.3
65700,101556,75349.4,161063,70814.8,132030,58910.4,78774.3
153832,74825.1,164937,89828.2,137822,83087.2,86569.2,55089.7
109134,104145,103478,90521.2,112521,99113,77509.4,83357.1
81282.6,98714.7,111612,92437.8,97031.2,88800.6,64302.4,78805.6
80214.3,86118.3,82705,90168.4,89983.6,105286,60688,63864.1
59504.4,94053.6,50983.8,88520.6,63898.8,87964.8,63871.6,79127.1
103324,97493.4,97150.2,173932,74953.2,161339,56241.6,87537.5
101858,47935.8,142129,35128.8,128526,60488.4,76542.8,72602.8
79602.3,105794,97238.4,99615.6,103260,109143,67014.1,81695
116908,101363,176056,91065.8,144665,94448.2,80416.5,59056.8
97326,65040.3,101655,41323.8,119900,64324.4,76167.8,56611.9
49431.6,77475.6,67306.4,131772,76169.8,140102,55279.7,81217.1
100166,68751,100236,64213.8,100912,85115.8,56901.5,80110.4
86463,90935.1,93877,84144.2,81076.8,111698,56363.1,71741.9
75929.4,64915.2,119918,71149.4,117144,59287.2,79873.3,56869.1
93467.7,94001.4,72063.6,68896.8,108886,87957.8,82427.1,70160.4
86774.4,109022,78684.2,90609.4,106709,98162.4,68630.2,63513.2
68485.5,94400.1,21961.8,128790,50390.2,125658,55695.2,56654.2
126491,89651.7,176838,81526.2,175213,83053.6,79408.3,66841.2
78236.1,91376.1,67513.6,124193,103797,95866.4,71374.3,78118.5
88801.2,102108,85565.2,116369,91865.2,99436.4,55806.1,57507.8
80480.7,119309,121876,139651,143094,117032,88088,75032.2
79987.5,72727.2,74918.2,62904.8,85901.2,86265.2,56219,61385.1
94582.8,110858,102672,174461,114365,155422,61273.5,75156.8
83715.3,103632,102766,79283.4,121120,98641.2,81678.1,66944.6
87408.9,83466.9,76396.6,155116,69966.4,165824,56172.1,83736.9
95568.3,91541.7,151472,117736,116549,101839,81968,63636.7
96066,101876,94283,103947,105487,127427,68126.5,83009.2
130912,87678,185907,72268,134855,89469.8,83590.7,72841.3
113677,70723.8,152943,78335.6,134574,89584.6,70664,61982.8
86283,91191.6,103873,121891,108584,121533,58921.4,76740
99538.2,102690,164759,111119,146752,112297,63862,85689.7
86672.7,88569.9,103824,118019,122123,96483.8,81709.9,73965
67052.7,78120.9,103600,93394,98159.6,90470.8,78011.7,55219.3
131847,104553,141581,125448,128454,123208,81423.1,86971.9
60087.6,131885,83568.8,145904,82031.6,122763,74795.6,60871.8
115613,78828.3,109299,60092.2,98175,82670,58329.9,63730.9
81293.4,91494,111185,77791,117802,87988.6,82350.1,56633.8
118207,103952,126057,135675,109425,138506,59632.8,83628.4
103731,88055.1,94487.4,73040.8,104336,102126,86804.2,84240.8
83542.5,96030,116259,70670.6,131562,100899,75791.8,72268.4
118523,65196.9,84161,87183.6,112343,95951.8,65421.6,58429.8
91328.4,87924.6,79378.6,106828,85174.6,117335,70371.2,86678.5
81945,108000,136675,98943.6,143072,105300,84859.1,66273
82737.9,124325,80255,91518,93436,114237,56625.6,61912.6
119370,105211,127662,125129,125563,113981,68767.8,66374.3
96758.1,100258,85390.2,82934.6,105882,86279.2,63837.3,61094.8
122800,72300.6,99034.6,120978,103303,125951,65546.7,56783.1
99031.5,102638,108735,86049.6,93042.6,116179,70660.2,76678.8
98072.1,110161,113260,100674,89632.2,97797,63845.8,64866.9
107928,86768.1,124513,82822.6,111356,93742.6,85711.5,63969.6
107977,87991.2,103363,63002.8,109684,70660.8,58286,55993.1
81833.4,81987.3,70809.2,65769.2,88314.8,88508,60498,61735.3
107968,126230,109749,199496,105437,155810,86167.4,75742.6
103639,70048.8,133157,94619,146495,102262,81679.8,68093.7
77202.9,90963.9,39646.6,109550,64332.8,106207,55301.2,56802.5
112895,72065.7,121698,70364,103614,78671.6,64980.5,61267.7
93649.5,85882.5,91616,77841.4,106053,76253.8,61583.8,56146
93403.8,127250,59032.4,141840,82871.6,127145,73044.5,82010.5
124448,113281,100698,82667.2,109655,98793.8,64501.7,60080.2
70074.9,96912,104744,107631,119319,117922,82137.1,78516.6
119363,97918.2,84161,90426,121325,81625.6,79466.6,59567.8
98723.7,99842.4,106550,85205.4,101581,107862,56654.9,75967.3
85947.3,96840,59274.6,91956.2,78568,96387.2,56567.6,78305.9
147550,139738,156306,215795,140641,143177,81864.4,68860.1
105924,104233,97969.2,119379,109977,125600,73071.5,88517.6
91944,148498,90939.8,196216,126577,154832,83024.7,81340.6
114538,117766,137452,126833,145586,110351,84602.5,60597.3
116474,69137.1,133129,57565.2,121540,83164.2,73697.5,59312
80340.3,84089.7,159760,77767.2,125937,84112,61694.8,66505.5
85661.1,88119.9,63771.4,88734.8,67208.4,91040.6,57898.1,65403.7
78295.5,100183,85551.2,65780.4,94924.2,85558.2,68565.7,66341.4
88296.3,102208,131548,100012,129172,99804.6,81397.2,64313.2
93799.8,115584,148131,116640,158330,122304,56475.3,83905.2
99019.8,112261,106747,111661,95986.8,103555,67289.1,62270.9
103972,123592,88970,112816,102231,109010,85890.2,76297.4
104685,84191.4,81541.6,59196.2,99178.8,77613.2,80997,55993.5
77362.2,117567,74309.2,158304,85751.4,150892,56513,83992.1
86320.8,102008,105045,79067.8,107064,103225,76356,56453.9
107871,154382,98702.8,205492,96586,186656,57975.9,60279.3
87278.4,98665.2,185042,76741,171420,94990,86222,60244.4
94110.3,108444,106373,108843,106715,113707,70025.8,72653.9
138580,83289.6,115069,102522,122304,96604.2,59868.6,61475.2
96976.8,103262,90934.2,107927,97050.8,108709,74686.9,66693.7
83180.7,148274,63261.8,136898,89090.4,134285,59222.6,78708.2
136181,92763.9,133413,87908.8,142939,94959.2,55535.5,78231.3
76860,93804.3,85519,86933,102484,86255.4,58059.8,68046.7
94859.1,80058.6,84624.4,70567,111703,76952.4,83235.7,55429.2
98860.5,91233.9,94812.2,77130.2,94617.6,96444.6,60923.5,69175.7
84071.7,97790.4,73955,72437.4,84382.2,100188,84062.5,74837.9
78255,82719.9,101419,83126.4,133896,101616,81310.1,84834.2
108716,97340.4,125045,75258.4,114803,89482.4,81079.5,60663.7
100368,131082,124278,128747,99908.2,107832,74438.3,67533.4
137089,80960.4,225172,103403,177240,90567.4,88497.1,68708.8
83396.7,88281.9,97714.4,124880,86924.6,103368,57927.3,74770.2
87470.1,41781.6,104282,25572.4,102245,49114.8,67601.5,75483.6
91172.7,87427.8,117071,78832.6,107922,111457,75623.4,88044.2
78869.7,101439,134456,80634.4,138132,116154,74196.8,78425.6
91292.4,80298,97178.2,68721.8,97311.2,94372.6,65920,85075.8
154937,112262,158137,107583,162821,122151,87558.2,65333
92511.9,148002,90785.8,174006,101471,159515,67345.3,62408.2
89352,84888,80756.2,145256,91616,132734,66989,55427.7
98765.1,79477.2,83421.8,62213.2,90204.8,83011.6,60767.8,64741.4
99601.2,63413.1,80796.8,85766.8,98317.8,94995.6,54926.7,55719.4
67078.8,78856.2,54370.4,74771.2,78302,111341,66960.1,84901.5
78649.2,96479.1,80934,71901.2,93276.4,99884.4,71583.7,79482
91289.7,132772,69832,121433,81856.6,128610,55347.8,65199.6
107811,90866.7,111196,70698.6,120113,72490.6,83462.1,57269
89033.4,94986,80536.4,89927.6,98634.2,105078,63828.5,80249.2
93384.9,102485,102771,106749,98610.4,108724,63143.4,87474.7
97456.5,91443.6,164959,86192.4,170568,100055,78641.2,60539.1
100328,77468.4,110729,77506.8,110333,83550.6,78198.8,73948.3
99522.9,83866.5,119692,85093.4,119714,106487,84467.1,75953.7
92002.5,88163.1,73220,114995,85509.2,139205,65433.3,80166.2
85380.3,79358.4,52470.6,85810.2,76897.8,98571.2,82871.3,55855.1
112909,97752.6,96567.8,76041,101396,105084,63164.9,77233.4
66648.6,95931.9,65018.8,86465.4,82017.6,100743,54899.3,84602.8
89078.4,93265.2,78895.6,84532,100481,95573.8,82133.3,82174.2
56083.5,118818,130018,111724,130612,108238,78754,83393.9
101657,88216.2,135094,61944.4,123071,81376.4,79204.3,85243.5
129640,113960,162585,126399,191111,128692,88534.2,61353.5
96332.4,73737,127229,73374,102998,94089.8,70365.9,70823.4
124498,121526,111639,130242,103561,119699,76780.3,82097.5
85520.7,141152,65787.4,173081,97664,141378,88259,79616
94063.5,99758.7,120162,80686.2,113729,79584.4,65401.1,62654
104245,108569,114688,129966,129262,136860,77543.8,57880.5
95826.6,93602.7,100059,72178.4,96387.2,90385.4,54946.9,62760.2
60626.7,99156.6,114499,74354,141204,78936.2,87679.6,69197
110307,92835.9,83841.8,63463.4,94824.8,79990.4,59407.9,55353
89883.9,85930.2,76519.8,65165.8,92176,79378.6,63466.3,55397.2
138784,55616.4,213651,101695,172777,113180,77769.1,78838.2
93545.1,97904.7,90960.8,131722,98532,97055,60591.4,54782.9
101362,96686.1,113312,95195.8,145495,101934,88661.8,71842.7
91775.7,116133,144995,111535,129531,127445,81635.6,73701.3
99909.9,101511,105255,103545,114541,103642,56828.8,69896.2
117323,97612.2,101543,82224.8,107759,101177,64593.3,63453.3
69772.5,82295.1,77669.2,91044.8,81851,124844,57935.3,58146.7
117804,98906.4,101304,88811.8,107941,88788,60061.6,73864.1
81827.1,93122.1,73980.2,72507.4,65808.4,100367,56248.9,63965.6
87348.6,72863.1,122037,42900.2,109697,68731.6,79537.5,76398.6
94225.5,85625.1,74901.4,75476.8,85797.6,85730.4,65346.7,61300.4
114818,98576.1,91375.2,100862,83395.2,104460,55566.6,80528.9
98646.3,88797.6,95726.4,91466.2,114024,86133.6,78031.9,57892.9
105344,93815.1,113936,85596,96118.4,86171.4,58956.9,63999.7
107781,92847.6,110099,83038.2,109215,106420,73531.6,72436.7
70994.7,93705.3,55738.2,48888,67958.8,108184,56349.2,82098.2
70321.5,130627,53160.8,79571.8,52238.2,232490,62335.1,58033.6
114872,116595,92106,113394,104761,147281,69607.3,87359.1
100903,93410.1,94626,88146.8,88187.4,94876.6,56167.1,77814.5
107164,95695.2,154855,78807.4,134088,76070.4,59784.9,55198.1
125244,98350.2,131709,85815.8,129130,122688,76580,87943.7
97456.5,103492,109971,66980.2,134940,100503,83908.1,76466.7
101540,92793.6,109004,95417,129690,95789.4,74849.4,63617.4
117062,62128.8,106698,60838.4,108000,72689.4,63586,61220.6
94340.7,94076.1,87267.6,80990,92834,106168,75695.5,76528.6
107030,84673.8,99047.2,71240.4,96037.2,80498.6,64387.8,64699.7
107596,97342.2,112473,153832,108584,132943,70729,56069.4
55125.9,81580.5,27671,82930.4,48032.6,77809.2,69740,59458.1
113372,153763,160229,183688,132486,146430,72644.5,79558.5
96936.3,87472.8,117163,80523.8,108422,80369.8,78179,54819.1
127700,116346,114727,100502,125154,115611,72168.5,73259.2
80102.7,104240,111593,78069.6,131711,89854.8,77417.2,73497.3
97997.4,141062,118943,182057,119461,133426,57378.3,55253
84886.2,149391,77747.6,151743,107915,149829,65090,86233.3
132555,105782,102932,111007,107085,110866,56346.4,57444.5
123580,91710.9,219932,95523.4,158365,88697,56094.5,75121.9
57369.6,85448.7,81411.4,74692.8,93774.8,92288,68690.6,56319.3
121212,108784,151201,105487,142797,105846,86454.3,79553.7
93929.4,102269,78040.2,100783,108899,101836,65075,72497.4
87668.1,76609.8,58732.8,62861.4,87589.6,92740.2,61546.2,57665.7
88731,103878,87731,99486.8,102193,91099.4,73052.3,59587.2
85948.2,107303,96188.4,86664.2,69752.2,117489,56204,71524.6
95104.8,129687,120637,126339,104083,129464,62780,67734.8
87856.2,118058,102136,116787,101536,116283,75873,80764.3
113147,102761,122283,98593.6,112585,97827.8,74452.2,71694.9
82988.1,79218.9,116525,87133.2,131925,97347.6,69805.7,56810.2
97214.4,100138,67419.8,86571.8,81405.8,93910.6,55750,68455.8
96742.8,103897,102665,102502,131131,89177.2,81801.6,55295.1
102489,100854,85086.4,97148.8,112918,98943.6,84504.1,64679.1
102879,98022.6,91833,122790,95439.4,106274,67022.9,78872.4
90717.3,98688.6,104054,84882,101325,89868.8,61958,66599
103251,60610.5,81684.4,65248.4,86640.4,73238.2,70699.1,56336.1
88920.9,74111.4,98221.2,105203,103590,103460,55044.2,68277.7
113090,86188.5,133605,65727.2,137287,80620.4,82068.9,55326.2
84508.2,110653,100461,85988,104814,106394,67097.9,65867.4
104241,95726.7,97811,73355.8,94719.8,103438,58058,87045.6
81288.9,97838.1,73192,84625.8,90125,92260,59160.8,68581.5
76167.9,77268.6,101738,83560.4,102330,95621.4,67267.9,67270.8
115814,131911,116584,117069,114471,109530,79045.3,75657.4
78017.4,96857.1,73325,96915,71191.4,89957,86925.5,64334.6
101868,114980,99498,113635,111749,127158,68185.3,82179.4
80957.7,91376.1,96423.6,78400,112239,95628.4,55867.7,72183.1
104747,106654,126766,126150,114206,113579,76772,60435.4
82747.8,100087,123190,77056,113583,109817,56429.8,75136.9
111493,84955.5,162186,97521.2,130927,113439,69094.6,70884.7
91285.2,101550,96139.4,102775,83052.2,110639,58715.6,63271.5
69516,110786,64661.8,81198.6,78979.6,95937.8,76014.8,62956.6
116914,109106,106357,103824,141121,107526,85146,55786.4
102096,102931,110067,86965.2,104639,108083,69130.3,57252.1
92417.4,92457,107629,71750,102868,80500,62056.2,56630
77513.4,79586.1,83785.8,113810,95172,113086,61190.9,60848.9
67392.9,113090,68020.4,106764,82497.8,109553,57171.5,79779.6
70156.8,107736,69867,133630,95125.8,128192,78961.4,83918.1
78901.2,87512.4,85715,86097.2,91817.6,96618.2,68094.3,70790.3
95418,98272.8,70347.2,110541,92989.4,107281,77918.4,78738.9
86688,124666,43766.8,132681,69984.6,125104,85220,86801.8
87123.6,111793,104801,108549,95930.8,97451.2,56124.8,61591.5
93701.7,90129.6,97497.4,78243.2,83993,93452.8,57620.1,58006.8
103874,98450.1,111268,77036.4,111528,85183,63701.1,59835.8
88318.8,84080.7,77758.8,108487,94470.6,114765,55182.1,56271.5
77851.8,80893.8,99789.2,58191,99766.8,82385.8,74404.5,55502.7
97666.2,88434,92986.6,64943.2,128232,108634,82037.8,78046.3
113385,96092.1,161454,74667.6,159088,112249,86825.1,85844.1
106071,86712.3,136279,65231.6,125065,89292,80532.7,59753.9
78776.1,92312.1,77098,136991,99365,120459,79963.7,70350.6
86393.7,100714,102255,95572.4,123715,107933,82150.6,76276.7
74642.4,114746,82460,113088,98399,112136,68995,65652
122519,80304.3,149997,146437,135824,111972,88591.1,73058.7
88486.2,71694,101843,131422,109469,159800,57658.6,88728.6
105722,92413.8,117065,70074.2,108142,83945.4,69732.2,56924.7
88965.9,100975,107324,105067,99446.2,90659.8,58796.8,61383.3
86380.2,84663,81720.8,76608,85687,104173,55987.7,60518.4
62448.3,86659.2,111086,100267,126631,104444,86622,81790.9
114346,73032.3,115377,52029.6,109245,59299.8,61482.1,73154.8
113069,84885.3,118658,97199.2,102073,113239,60315.4,78390.7
99927,93106.8,108588,91331.8,97312.6,93032.8,58247.9,71772.1
102756,79605,88022.2,66714.2,80147.2,81088,56349.4,62732.7
86236.2,86501.7,86752.4,64891.4,87045,67841.2,58103.3,56483.8
97000.2,88092,92003.8,117725,96805.8,143268,61599.2,66471
68320.8,148902,76006,129503,99257.2,130312,68748.2,62112.3
107712,43713,121142,26048.4,104744,45182.2,61574.7,55298.1
111429,95454,184401,82038.6,158068,98211.4,79649.6,64912.8
110212,93887.1,126311,102236,125462,99953,78489,55526.8
94660.2,79587,92947.4,71227.8,85667.4,101193,58875.2,63858.7
148025,103702,144481,114297,142155,140934,85540.7,88564.9
97554.6,68256,83126.4,45743.6,80129,63240.8,55167.1,78753.5
99522,107403,125705,93014.6,131753,99149.4,70100.6,76917.1
80674.2,106323,88935,90190.8,122333,111597,65830.1,78329.9
91608.3,85714.2,85513.4,65842,97937,83906.2,61459.6,57889.4
94177.8,97323.3,74291,98498.4,106035,82957,73389.3,58449
62667,97470,76707.4,70991.2,104877,93464,61190.3,68047.2
78042.6,114194,84466.2,117103,90525.4,109896,55696,69489.2
94857.3,79480.8,113618,104286,107624,112662,68123.7,79416.4
94802.4,106195,127568,145901,111955,117011,56096.9,80192
125069,108735,101546,92696.8,108259,102761,71834.8,81619.7
93918.6,98643.6,104688,98270.2,118653,111345,74084.4,64471.1
85946.4,116629,99566.6,118786,110956,107576,66367.5,59918.7
113818,101273,117579,72522.8,109344,87381,60163.7,75160.7
91935.9,97347.6,127546,85400,130689,94078.6,86887.8,68238
115513,94583.7,194946,86753.8,148868,106025,62518.8,85607.5
119380,88606.8,129227,87764.6,133728,87841.6,84830.5,64870
84575.7,97523.1,78601.6,94971.8,210066,99621.2,65937.5,72641.8
101948,149598,111034,202798,134004,188660,67884.3,87662.7
91017,97563.6,130658,89803,133378,82353.6,79446.8,60408.2
70360.2,91245.6,89997.6,65535.4,107974,81370.8,77914.6,56475.1
110821,96386.4,86163,86822.4,102028,97745.2,67396.9,69631.7
111390,90648.9,120984,100150,130431,81975.6,87100.6,67344.1
111965,92904.3,175949,87798.2,180519,101928,86768.1,71023.9
76696.2,74132.1,90272,90738.2,100183,85652,64048.3,87232.8
87278.4,87232.5,189029,101357,169005,90319.6,80904.2,55425.3
95923.8,73322.1,89048.4,77152.6,84345.8,93405.2,61921.5,61756.4
96533.1,92331,108548,96450.2,103541,102698,73092,72432.5
81969.3,89656.2,107365,82042.8,112491,98526.4,70689.7,71933
101992,91413,78486.8,88454.8,90178.2,97655.6,59982,71121.9
99522.9,115775,97577.2,114688,114034,104993,66821.7,80440.1
109084,89105.4,127107,79751,135755,77684.6,88008.5,57320.8
91381.5,109101,68815.6,94357.2,75752.6,113931,77827.2,82301.2
114463,104041,132306,98351.4,95123,98849.8,57577.9,84158.1
80015.4,68995.8,112308,74636.8,126283,93807,62654.7,71930.3
99218.7,86202.9,77028,97727,92495.2,125499,55695.4,82152.8
90768.6,114795,107379,186015,124578,155949,65785.5,79440.3
87603.3,132251,89558,111153,92860.6,118412,60314.1,64433.5
85642.2,88800.3,128780,78261.4,146825,91880.6,80305,58304.5
89856,90434.7,57338.4,90067.6,77744.8,109785,62588.1,80993
84319.2,92245.5,91596.4,77288.4,105049,98508.2,72932.5,70852.9
100387,86815.8,117152,61237.4,101812,83353.2,65474.5,65280
95213.7,96345.9,66325,116495,90392.4,115049,58030.7,81110.7
73798.2,92046.6,118485,83780.2,127835,89875.8,85993.9,57130.5
109912,97963.2,133126,84175,135416,91581,84678.2,56855.7
100956,90792,98726.6,97815.2,116882,101450,68233.9,69726.1
114148,92116.8,122874,56849.8,129858,84046.2,65979.6,55326.2
75320.1,85709.7,111777,71985.2,104096,88564,78956.6,56792.6
111414,104513,120085,103880,114971,110799,71649.7,84721.8
92666.7,96358.5,119531,99687,141634,121086,83085.3,82319.1
115648,89038.8,110202,62612.2,95545.8,87896.2,67787.5,64114.7
88987.5,108447,91245,96514.6,89213.6,109010,59993.5,64522
50805.9,92471.4,35116.2,151127,51779,97316.8,56810,64372.8
108458,143292,118397,204546,126643,125751,72264.6,77667.5
75213,123377,135633,151768,94809.4,132663,66740.2,71711
84370.5,92223,73056.2,69658.4,90766.2,82538.4,67900.5,58175.1
97020.9,108453,76318.2,98998.2,85282.4,120473,61584.9,78265.6
88244.1,101616,107682,72947,146075,88677.4,56854.2,60060.1
102429,107588,151049,83704.6,109980,93353.4,58683.6,88747.6
113194,85828.5,137889,90176.8,121233,120039,72526.1,58026.9
107216,95156.1,183439,84281.4,156992,102337,54848.9,68209.8
77174.1,76538.7,101963,79599.8,111908,93357.6,63798.7,64699.6
93860.1,91216.8,87684.8,98411.6,107016,98534.8,66958.2,57075.9
91197,91251,88754.4,84866.6,110513,99111.6,70734.1,65144.6
74148.3,94999.5,48199.2,75895.4,70982.8,94157,72535.9,77657
80295.3,92918.7,133860,88961.6,119962,130036,65787.2,80899.6
92923.2,100514,89003.6,99771,97172.6,109735,66784.8,72811.9
88773.3,104347,96447.4,105668,111376,104247,69479.1,66672.8
99316.8,67842,88142.6,97231.4,99141,102032,62501.6,72291.2
103733,106055,118761,110659,144775,99647.8,73935.9,79219.4
66619.8,104396,93514.4,70837.2,111349,91859.6,68371.3,64216.1
91308.6,106340,108676,107540,125929,110761,74537.3,84832.5
68625,123003,61132.4,177993,79028.6,172879,57895.5,88044
137066,92310.3,183977,71087.8,124097,76554.8,85911.9,62918.9
88479,90039.6,108966,71479.8,111355,95421.2,62052.9,57789.2
77067.9,99597.6,111664,117015,104544,116439,70731.3,80668.7
130431,67276.8,94200.4,30360.4,134161,66792.6,56073.5,81638.3
109012,97025.4,145438,79279.2,166130,104586,83147.1,69277.9
119877,93816,93945.6,85157.8,127103,106256,84603.5,87436.9
102032,130221,147818,97528.2,136814,106824,85850.1,69257.3
93147.3,95063.4,98127.4,96752.6,103548,105841,69992.2,68187.2
66564.9,112945,65832.2,95683,66096.8,113543,72393.9,86779.2
91300.5,89031.6,86520,116332,89486.6,110237,71761.3,55127.6
57893.4,82577.7,59742.2,57471.4,51454.2,72034.2,55215.1,61438.7
95490.9,83264.4,82681.2,98309.4,97540.8,84775.6,62425.2,62582.7
101994,100741,113602,111398,101550,135912,67062.3,81982.5
88862.4,94383,89390,72331,88767,79025.8,69768.5,65133.6
108583,101722,100563,81527.6,111839,90909,80361.9,65411.5
104864,103727,113705,96474,91322,97447,56610.8,65186.8
119086,115741,107290,94278.8,82629.4,98756,56110.9,71372.7
89296.2,87925.5,96100.2,88779.6,98421.4,122765,72855.4,78517.3
102626,102783,86651.6,102333,93108.4,102868,81749.9,78285
96160.5,102731,84802.2,108149,93874.2,94372.6,61782,60955.2
95502.6,101624,101101,107328,104929,105939,77747.5,60510.1
99864,121370,101919,99117.2,116672,111066,80221.7,62581.9
87300.9,87994.8,124135,90279,136850,110466,76184.5,72123.3
52684.2,102604,75801.6,109698,97447,113609,59687.6,64715.5
88033.5,109796,75000.8,101408,81877.6,113782,69208.4,68165.5
100840,95950.8,143993,77271.6,138764,88578,59391.6,68967.8
99655.2,88307.1,115266,65399.6,124359,81055.8,69468.8,62396.5
105156,60200.1,107142,84439.6,105669,88485.6,56606,72248.7
72901.8,120976,79681,111404,85927.8,113008,70566.5,71365.9
127800,86979.6,129609,113516,132581,95505.2,77213.3,57342.2
75353.4,103105,73430,98266,81989.6,99835.4,56714.8,58709.3
81474.3,66991.5,79800,62560.4,95915.4,95876.2,72361.2,62645.3
102695,83962.8,111549,69122.2,111115,80346,60783.8,60940.9
109024,83881.8,101671,77369.6,101949,79191,55627.3,57700.3
109391,86274.9,126531,79548,114955,99066.8,70771.1,74852.5
87950.7,86730.3,144669,84392,120799,92703.8,82001,72486.1
102359,96808.5,119497,86874.2,95505.2,95762.8,68690.6,56696.8
97565.4,82322.1,90426,103032,128303,108954,79757.3,58551.8
80827.2,104492,72552.2,145727,94575.6,126085,69420.3,56920.8
76128.3,103114,98390.6,162463,101492,114285,73554.9,78096.2
78532.2,93595.5,109978,85258.6,123571,94333.4,75059.5,71942.5
88177.5,112478,127967,79962.4,121604,101416,73752.4,55160.4
95541.3,107673,111891,115185,102483,137141,57931.1,80589
87317.1,90025.2,109719,212909,112479,81160.8,67523.4,59106.7
86781.6,101269,118664,90181,97930,91669.2,58140.5,64227.6
94880.7,69539.4,126575,82660.2,115780,109488,80413.8,60635.6
99387,92439.9,140195,80946.6,110226,90053.6,66552,66953.2
88592.4,77621.4,88698.4,78404.2,91224,78692.6,56793.7,59385.3
85923,85916.7,82310.2,71867.6,92124.2,89100.2,64193.5,57150.2
97166.7,103188,96332.6,80952.2,101636,101912,82449.2,63736.2
98779.5,94086.9,121835,108434,128408,92729,78889.5,60646.7
91503,47209.5,143738,33870.2,107911,52600.8,70088.2,58604.4
94364.1,111843,74621.4,76392.4,99650.6,103358,57230.9,56427.8
77403.6,68417.1,115128,64156.4,126032,89454.4,69097.2,56214.1
87278.4,110441,92905.4,108616,91644,118938,61604.9,83585.1
45135.9,102344,47118.4,84725.2,49770,101766,59523.9,68125.1
92587.5,99327.6,140776,90732.6,140832,87060.4,79068.4,61175.7
100378,106042,77644,92422.4,93367.4,105493,59156.6,75169.7
72675.9,114350,110685,130466,103030,90126.4,59797.4,57461.2
86106.6,89433.9,105662,86336.6,97697.6,78737.4,64995.3,60639.4
89743.5,108692,100646,113107,112291,114873,73194.9,77065.8
104796,96282.9,84151.2,88872,113079,92905.4,60107.2,56867
91809.9,94444.2,139832,76806.8,136464,94103.8,86268,62966.1
91604.7,64327.5,106581,61983.6,109992,93654.4,64431.5,66560.1
88438.5,101300,104660,79524.2,109551,114737,88521.2,80390.4
82318.5,91062.9,114446,102826,88093.6,90368.6,62565.8,64712.4
95915.7,98696.7,105815,141158,117032,112091,64256.4,62218.1
98604.9,101231,56243.6,101553,67342.8,90906.2,81940.8,62730.6
111110,114376,127256,108070,107535,121246,68534.5,66666.7
82911.6,96420.6,75551,80712.8,77635.6,92736,77927.8,58826.4
114449,70952.4,106359,44959.6,125320,68559.4,71735.2,81533.3
70940.7,92067.3,27738.2,92712.2,60398.8,95107.6,62806.2,71028.3
106959,79831.8,72819.6,72816.8,92215.2,81029.2,63726.6,62526.3
103241,106730,126266,77973,111350,87204.6,65271.7,65226
142400,112370,127436,91315,126952,109131,59120.8,65809.6
72135.9,103549,102026,102915,68684,143853,61472.2,87244.4
118232,156017,103250,163370,110806,142544,67665.4,67820.1
95767.2,100764,116032,94144.4,138372,121142,71309.3,67818.6
102419,78947.1,137554,56670.6,159109,74862.2,73640.5,79315.6
114371,104417,139427,100538,133928,119323,87113.3,76144.9
122749,125598,142447,133064,129850,104290,70220.5,71252
94452.3,105316,80353,84666.4,85419.6,110613,56772.1,76954.7
85791.6,89109,73934,131424,88999.4,116448,56578.6,61663.4
88323.3,114097,77771.4,103604,95421.2,105487,82748.4,86375.5
73537.2,106004,129030,79038.4,125163,93958.2,71048.2,72757.6
100105,76197.6,87848.6,113389,106358,106511,75626.8,77079.8
98307,105736,95599,123036,92947.4,102498,65086.2,56356.9
94560.3,101599,81949,83246.8,84742,80442.6,73656.6,62015.2
115767,64620.9,84964.6,85055.6,99793.4,99629.6,55261.2,77339.9
81693,126923,80526.6,140335,107628,132896,67847.7,72694.7
79285.5,83740.5,141298,79304.4,135888,86074.8,88098.6,54949.6
125851,93822.3,100656,80626,103543,94550.4,54736.6,66366.5
88627.5,98016.3,121051,87959.2,106084,90764.8,55988.2,70802.7
107380,90691.2,100713,66641.4,99576.4,70404.6,71449.3,54887
75088.8,94050.9,184680,97448.4,156894,113532,60608,75904.4
90585,82802.7,123749,100372,115415,126316,67648.4,72004
78279.3,81839.7,127226,65107,127274,115598,76871.8,83752.7
103134,104564,99233.4,109080,103886,108675,72275.3,66689.4
99640.8,85259.7,69111,82903.8,84915.6,95057.2,66729.8,65263.6
91248.3,112133,106103,88460.4,77467.6,86287.6,56620.6,70054.5
97702.2,76789.8,122685,84747.6,142115,69804,88546.6,58069.6
97308.9,140789,94434.2,164661,91378,143956,62560,61389.5
81965.7,76789.8,121531,112522,122889,108632,80808.6,55583.4
101281,107408,108987,106497,114295,117548,87690,75200.2
70817.4,86356.8,37784.6,69897.8,66406.2,82902.4,60259.6,59529.1
91378.8,92604.6,100338,87455.2,105809,86760.8,68495,55125.1
91888.2,86728.5,98106.4,82201,86753.8,96329.8,55098.8,83111.5
129730,114835,127407,106534,119753,137357,77080.6,82451.2
120819,90593.1,119195,98358.4,128177,103821,78835.3,56350
67347.9,85973.4,83071.8,57010.8,107813,71940.4,75442.7,59214.9
107305,99804.6,117319,99367.8,109908,87232.6,63337.1,67658.2
121177,106487,162376,93850.4,144323,101374,83929.5,79037.6
122090,84981.6,94367,82411,94008.6,89710.6,77048.1,62671
99699.3,93504.6,108217,82317.2,94507,98357,75087.3,74417.4
79387.2,94135.5,99953,87257.8,116984,86787.4,70538.6,69784.9
76898.7,99347.4,53074,91856.8,60190.2,102197,62159,60937.9
104585,113150,107659,115256,117677,105302,66922.7,62207.3
132332,75360.6,141901,52868.2,124734,89712,66367.5,75668.5
104578,101460,108325,120231,112633,112741,70744.6,84223.9
81734.4,79272,58822.4,56956.2,81559.8,83357.4,68696.9,68578.2
103882,111259,101144,102291,122556,87318,86655.1,57245.9
108572,96034.5,152888,65632,131552,93086,64884.8,72003.9
95249.7,87639.3,62752.2,84908.6,83213.2,106365,86577.9,63200.1
86101.2,99294.3,79585.8,103412,83326.6,93168.6,60976,55973.6
57760.2,89572.5,30532.6,93731.4,47660.2,107324,72639.5,66264.7
92404.8,92595.6,80438.4,77799.4,81828.6,81172,59543.3,58112.3
88276.5,101938,111469,89744.2,90039.6,92783.6,56735.1,76529
123282,77184.9,136695,60055.8,136310,102022,69699.2,56159.4
71704.8,129038,143574,157951,157128,153707,74008.3,56180.5
62621.1,100815,50877.4,90150.2,61019,109974,60069.5,68497.8
105719,110206,132643,107114,161542,97886.6,88726.8,58331.1
102928,83350.8,90496,100299,122590,105960,86806.4,84996.7
108041,107822,116166,95356.8,106492,96558,58062.9,72259.8
98478,96036.3,113953,82370.4,126560,94495.8,76028.1,63704.4
129680,103512,151760,77235.2,148743,105004,77009.4,65246.8
113206,102082,129080,80963.4,120235,91063,59114.3,60950.8
109326,97765.2,116217,106870,104583,96601.4,73466.9,65643.1
98223.3,104081,64482.6,95894.4,84477.4,109501,55048.1,77771.2
108410,100124,132090,108486,105442,97777.4,80438.4,79237.3
87367.5,89383.5,97316.8,82381.6,89915,89387.2,63280.6,79221.5
78200.1,87837.3,70715.4,89177.2,73101,88463.2,57318.6,65239.8
100278,92021.4,112316,74730.6,120791,93851.8,76104.6,58709.8
106496,104077,131124,87903.2,99234.8,106673,55481.3,83096.4
79007.4,105126,117970,101370,108630,96884.2,74277.7,64858.2
86280.3,110712,76021.4,113890,87383.8,102957,56236.8,62163.4
113290,91747.8,165092,73791.2,149773,88929.4,63801.8,69707.7
101990,80991.9,121409,56126,135912,73361.4,80522.3,58420.3
114073,78273.9,124407,67610.2,129664,93786,79546,65904.1
100640,99620.1,102193,84072.8,91763,88590.6,59304.4,70854.6
99969.3,80600.4,111471,88727.8,97452.6,82290.6,56562.6,57434.2
78073.2,117990,69003.2,114905,78296.4,129466,58640.1,77977.1
74637,91295.1,94956.4,49467.6,92943.2,81628.4,66007.6,62399.9
116799,83936.7,123000,114778,101524,109656,68529.1,82556.1
111912,89060.4,225677,92464.4,148770,105468,77735,77169.8
87201.9,135698,111423,162926,129240,153803,79146.3,74038.1
81939.6,71964,94903.2,54283.6,99390.2,63651,59987.6,58701.1
104804,74142,125387,69384,97326.6,89590.2,56781.6,58239
96604.2,104583,137194,94663.8,109508,100653,54756.3,57653.4
73115.1,106168,99986.6,106796,115459,109504,87816.5,74175.9
70574.4,104816,35562.8,68777.8,54031.6,118637,68513.8,84580.8
60634.8,86473.8,39762.8,62064.8,49071.4,73806.6,70009.9,54892.1
73079.1,98112.6,132254,66659.6,108599,92061.2,61660.6,63833.3
78540.3,136230,76939.8,157966,68049.8,125623,54665.7,59441.5
90004.5,91445.4,82465.6,98869.4,83014.4,124527,62477.5,88190.2
92393.1,94690.8,118784,86935.8,111698,100974,56162.7,81168.2
76504.5,72329.4,77957.6,99451.8,109514,100134,81248.3,60834.3
93549.6,95021.1,89202.4,96742.8,93951.2,129692,76935.5,73046.1
81853.2,103514,133399,104913,142058,103979,55508.8,70332.8
99365.4,102908,128551,113431,127589,105931,81111.6,55417.2
83559.6,107945,71411.2,140395,72529.8,132056,56169.9,66822.9
55050.3,92011.5,133088,83531,153201,94693.2,80123,66781.1
123592,88902,126122,104516,139429,95624.2,65936.5,58359.7
118279,59193.9,109452,40205.2,130816,63242.2,85890.4,62715
72655.2,96400.8,80378.2,65815.4,113499,90179.6,69209.4,63290.2
86734.8,93574.8,79121,90550.6,78341.2,105742,56752.6,66327.6
87342.3,86015.7,98187.6,72606.8,88405.8,95474.4,58137,60741.2
80554.5,100501,64124.2,85521.8,80246.6,94438.4,58447,55996.7
84266.1,88236.9,140185,83584.2,101867,104947,65100.1,81098.4
82825.2,85887,68745.6,75839.4,87334.8,100460,62671.7,75474.3
119293,124171,113224,131778,120172,117684,88025.3,70983.8
116187,91207.8,104894,75843.6,113691,96119.8,59753.5,67783.8
110842,66506.4,149726,61069.4,144015,79843.4,80910.2,57844.9
76994.1,80313.3,65452.8,54461.4,80703,77900.2,72221.1,79534.8
103090,90302.4,104131,68076.4,105279,81419.8,60788.6,57369.2
151744,115276,168259,126076,142428,129468,57990.9,86392.4
131507,99099,163181,69784.4,168500,93758,83419.6,75624
91980.9,102545,105227,140055,115962,116560,88021.4,60028.1
98399.7,93078,90238.4,72611,118530,80015.6,68724.3,61051.4
83502,114597,116004,87829,125324,109850,64035.1,76114.3
84722.4,98325,96723.2,91463.4,115115,115240,71717,77063.1
91496.7,98312.4,110893,83305.6,135017,95939.2,87073.3,76732.5
99516.6,99275.4,149866,87350.2,124211,112286,70027.4,70305.5
153771,90638.1,132276,95314.8,147020,97958,81710.3,63025.4
91146.6,97155.9,87052,91754.6,102728,119185,78307.1,70186.2
95976.9,90819,94168.2,74046,113252,82331.2,86139.2,55616.8
88312.5,77176.8,81589.2,72753.8,96735.8,90952.4,57723.8,68803.4
89535.6,63183.6,86375.8,76657,109173,86800,69519.4,61119.8
83976.3,98354.7,89325.6,89367.6,100708,90063.4,62055.7,65389
103230,81721.8,76799.8,59098.2,77726.6,76451.2,64481.6,57059.7
120900,88920.9,154948,100054,135079,106672,86074.2,85435.9
111693,103680,127110,100288,150982,110368,79510.1,75243.4
100385,106375,109434,124326,125117,114355,88467.4,69407.9
111578,97178.4,140312,125520,108786,115290,63764.8,70188.6
95287.5,102346,102607,72933,117985,85429.4,83449.2,55245.7
81196.2,97658.1,86216.2,104343,84107.8,97594,59634.5,60513.6
94297.5,105439,76895,102000,82972.4,104156,58911.9,57885.7
96087.6,85749.3,103268,96943,118418,116015,70467.3,68335.4
87893.1,111055,67496.8,129088,71617,124730,56817.8,62780.9
89999.1,103739,71373.4,97001.8,80248,102236,55306.8,85430.8
117603,87174,120875,104677,115983,92454.6,67573.6,57984.5
99266.4,95104.8,132135,81579.4,137491,86811.2,81890.3,64578.8
79389,120178,106515,138858,124376,110211,79073.5,60315.6
119611,111319,145590,109018,114468,108451,83248.2,87004.9
72813.6,96920.1,63079.8,101724,94054.8,99775.2,68178.7,66510.9
95274,110810,68180,87577,87798.2,115409,57954.3,88245.5
108481,85697.1,160950,76105.4,126804,94988.6,76403.9,61573
89109.9,72324,117075,87306.8,91009.8,91912.8,61343.4,67658.1
92387.7,88587.9,109714,97853,103291,96231.8,66181.4,55459.6
62792.1,94852.8,55139,73970.4,61593,112662,70985.9,66162.6
79396.2,110727,62398,104720,80778.6,101990,88246.8,80293.8
67360.5,61670.7,44681,65031.4,61230.4,94378.2,79252.6,56119.4
77376.6,115474,45185,98403.2,78043,111486,83771.4,75732.9
95385.6,102866,85324.4,105259,93786,113746,55705.1,59187.3
81843.3,93901.5,105627,92167.6,114622,103022,82970.8,62315
83294.1,104566,105700,96717.6,115727,104209,74803.2,67818.1
96394.5,87744.6,82608.4,80798.2,93314.2,73368.4,77073.1,55779.6
89617.5,97097.4,76319.6,75094.6,74321.8,91760.2,60660.2,58241.9
111775,89876.7,80393.6,82700.8,101192,89973.8,80683.9,62346
101873,97895.7,114155,94578.4,110386,103638,74579.1,75219.2
92097,107808,82859,140160,119294,124286,64274,76514.9
112554,73383.3,119808,80242.4,100068,112902,59984.2,82530.7
82746.9,90235.8,77922.6,64059.8,104080,82539.8,56788.2,55480.1
58836.6,116147,43608.6,109997,54035.8,104021,73585.8,74395.4
85569.3,91494,131016,80249.4,113800,112193,75107.4,67325.7
84762,101300,65634.8,95295.2,78281,110694,55667.1,73593
89366.4,91098.9,127491,76819.4,121241,97371.4,78848.2,63400.5
107020,83826,119456,83249.6,135657,96465.6,58550.6,61235.5
111051,101248,117068,79081.8,104566,94981.6,67166.1,68528.5
98596.8,102830,105346,97298.6,108346,100072,77543.5,63206.9
101039,97135.2,131599,82334,119633,96212.2,78373.1,63450.1
105257,107666,177720,89723.2,155561,111457,68920.1,72637.2
103766,101019,102250,90903.4,99960,101637,57570.5,64492.8
91396.8,91898.1,100244,83938.4,102430,90454,60461.5,60236.1
86069.7,112133,79625,139030,88550,145391,58219.7,68560.3
88816.5,97751.7,114009,94570,109371,109907,83633.7,84015.1
92089.8,134664,91992.6,147255,80648.4,124921,57240.4,72194.2
68356.8,99415.8,40469.8,72473.8,55773.2,92649.2,64775.4,59210.5
101367,78491.7,101097,68110,105720,80504.2,60111.1,67838.2
98772.3,98675.1,109372,96642,127656,109151,86354.9,74332.1
103224,99160.2,108238,87522.4,111041,102831,59045,70223.8
132048,103183,162497,99782.2,147707,98226.8,86571.5,80764.4
87581.7,71842.5,115438,103272,117470,122429,76285.3,66449.5
101517,96570.9,138621,73581.2,130183,83550.6,86615.8,65093.3
89542.8,88302.6,125475,95379.2,129294,116222,66062.6,65058.6
77597.1,119586,53524.8,84291.2,80892,99575,62794.7,68961.5
74504.7,92534.4,53186,90860,67219.6,101206,55869.1,72777.6
98344.8,77915.7,85687,77058.8,89752.6,99702.4,72035.4,58228.5
101869,102937,89857.6,140378,107285,128089,57384.6,77616.4
104351,85418.1,114325,106869,106572,95992.4,62644.9,57312.5
82346.4,118142,95209.8,105300,111222,112272,63183.6,63012.1
93678.3,102926,99590.4,84428.4,107754,95257.4,76230.4,76092
104630,82635.3,120183,124779,92192.8,129930,76726.5,54853.9
87084,52419.6,90295.8,17799.6,102281,56739.2,79724.1,54725.9
94198.5,76791.6,100330,90995.8,100572,121181,55654.5,71090.3
83658.6,110125,81583.6,158484,83136.2,142117,64368.4,88545.2
76698,102196,48231.4,97186.6,58657.2,117845,54668.4,88759.1
108310,69471,102448,119496,120179,106585,87129,60863.6
108117,106535,121764,83176.8,136371,103939,77427.7,70920.9
98071.2,109123,80260.6,90680.8,94922.8,103886,86803.5,55002.1
94141.8,120188,137486,85562.4,145174,116694,85825,71959.4
111998,83805.3,108613,128748,113623,125570,62064.7,65667.9
82863.9,87256.8,90239.8,78999.2,99967,84417.2,76006.9,60633.5
105520,95345.1,88767,105132,91942.2,97084.4,54960.4,72405
160238,83840.4,183401,114608,148443,107390,58389.6,64034.8
85896.9,91648.8,85185.8,90861.4,81821.6,108378,55532.6,83089
103346,102143,110205,104439,92905.4,140400,74655.4,84371.2
109737,120616,152380,137743,119522,151281,57496.4,86199.1
81062.1,80118.9,75290.6,66110.8,92062.6,74718,56878,57987.9
118651,103785,110916,120624,123869,127396,66435.4,80969.2
68203.8,91893.6,87196.2,83263.6,93885.4,83266.4,75329.4,54678.3
64352.7,83201.4,63470.4,74660.6,102871,101004,74275.3,65212.6
77929.2,106642,56044.8,94700.2,58760.8,111455,55825.1,59002.7
77372.1,117993,109316,115122,93354.8,131921,57617.1,80522.8
74850.3,105696,81450.6,83230,106350,92274,76903.9,76353.8
76013.1,83586.6,152856,69097,128752,78862,62776.4,56703.4
124090,111899,113995,163947,113413,126451,58546.1,81597.3
54905.4,87795,27938.4,74303.6,46215.4,78582,54885,56366.9
81946.8,89704.8,67600.4,105907,66260.6,115007,60780.3,71236.7
88315.2,84099.6,119435,124481,110608,95489.8,59162.3,57393.2
66947.4,72677.7,85631,105175,111048,104378,82784.6,58260.8
110685,131069,116659,171594,126882,161643,66313.9,55480
91004.4,90136.8,94624.6,70330.4,93830.8,87747.8,62020.2,60879.4
86778,71646.3,63144.2,28728,79667,57799,80954.5,60806.4
161627,78255.9,197130,59739.4,156272,72674,62439.1,59367.6
98634.6,92330.1,91684.6,58738.4,109260,83109.6,81220.1,54832.6
88435.8,85484.7,65028.6,80756.2,87561.6,94414.6,60472.1,67704.4
101990,93098.7,94026.8,74134.2,108171,77341.6,72143.3,60636.4
71595.9,65678.4,93710.4,118128,125454,95221,75106.9,55948.8
91730.7,94118.4,104839,70786.8,114409,93793,62771.2,59872.7
118087,93917.7,97564.6,70005.6,98539,86884,56193.7,65813.6
113230,111830,130907,177026,127264,66976,67469.8,61728.9
84075.3,58638.6,86242.8,91014,100702,89227.6,68369.9,64887.4
92708.1,108080,115578,84956.2,100386,98439.6,55193.9,71008.1
78031.8,98826.3,120624,98775.6,105983,95450.6,65559.7,65278.1
114896,101111,94634.4,88543,110074,94868.2,87728.6,62153
87389.1,90771.3,103432,181280,104412,163036,61752.5,79108
105157,104362,144809,140239,141638,105855,58133,61057.9
76323.6,78928.2,67992.4,71156.4,95523.4,87659.6,61579.3,69365.3
99837.9,73702.8,105239,57986.6,107213,80641.4,68220.5,55413.6
108670,100080,128698,70870.8,124478,100467,86489.6,76199.3
115374,96325.2,139100,78325.8,118296,88426.8,71134.2,64712
97204.5,91714.5,84093.8,81026.4,82608.4,96224.8,74829.7,79579.1
126109,96157.8,135772,97902,128493,116949,74165.4,74686.7
66554.1,106362,104523,88923.8,115200,94232.6,70707.2,56650
94029.3,124184,114885,126013,123753,129676,86528.4,74606.3
104215,116446,85849.4,165698,90816.6,151733,65972.2,66672.9
109684,96426.9,103803,80302.6,109284,92699.6,71116.8,54977.8
90981.9,78296.4,87683.4,80126.2,116224,93403.8,62317.3,78353.5
94369.5,108803,173071,93619.4,121954,121737,63066.9,80093.6
54788.4,92829.6,62609.4,83034,66756.2,79445.8,66075.9,63359.3
68932.8,101767,103209,117996,103060,134280,63602.9,72107.4
114168,107517,125908,117362,136742,134310,88274.8,86377.8
92887.2,83824.2,138076,52658.2,135815,96545.4,88710.4,66005.1
113079,84812.4,105364,62279,122511,80756.2,57507.4,55108.3
83582.1,51138,77288.4,77387.8,78701,99731.8,56351.2,87882.2
99936,88028.1,97150.2,101224,97546.4,131844,60470.6,69860.5
90585,97983,133976,96052.6,141189,104216,61794.2,79120
58393.8,98407.8,78638,113935,102514,119855,76631.1,79910.3
80730,99479.7,97984.6,106310,110247,124870,55550,86421.5
86623.2,99263.7,130614,83203.4,106648,87432.8,66951.2,63053
118124,74810.7,138580,66192,129224,110838,65580.9,78385.4
78174.9,69047.1,58192.4,113366,70261.8,99174.6,75606.9,64545.8
86434.2,75050.1,102071,76092.8,99909.6,84147,70178,79653
82801.8,89876.7,138067,79819.6,109876,91730.8,86491.5,72982.2
78354,115717,100405,106973,101879,129206,57823.8,86580.2
97503.3,89208.9,99873.2,88303.6,101070,94292.8,59761.3,54806.7
85746.6,105276,96838,131342,135429,129742,54714.9,68400.4
84413.7,82895.4,102896,60344.2,95209.8,86115.4,61988.8,61963.4
91115.1,109459,82576.2,114554,97879.6,129416,66056.6,88087
90083.7,95842.8,119378,125475,105741,117307,63846.9,77813.3
110553,100010,100992,95783.8,90344.8,117522,60399.9,70658.2
118685,79020,101482,96469.8,95382,87341.8,61035.9,56913.2
64189.8,91756.8,88093.6,73050.6,108647,99997.8,62078.8,73569.7
101492,89641.8,122773,85849.4,132170,105594,82483.1,73463.4
117957,99324,99516.2,70961.8,89832.4,89601.4,59435.2,66659.5
74508.3,104162,65797.2,106341,71528.8,112449,63745.5,68448.5
84217.5,104266,95450.6,111485,103452,103503,56173.6,66339.9
80847.9,86645.7,72200.8,70092.4,87816.4,99374.8,55640.8,79775.8
105600,97695.9,108468,103138,98942.2,100807,61898.8,54906.3
80357.4,101767,96692.4,100498,94766,119756,56615.7,73716.3
161798,98465.4,169340,77355.6,173522,90342,87294.4,78271
118606,100815,108342,93912,99927.8,119315,59906.9,82120.4
119387,95191.2,148578,90734,149909,97585.6,81594.9,73722.9
113167,96393.6,129188,85100.4,128127,89426.4,69779.2,59984
114594,114948,132514,125041,121024,104983,60474.5,55509.2
103409,117392,97855.8,95298,102192,120896,56243.9,83408.6
102776,81882,89307.4,94217.2,126267,89408.2,60887,58013.5
72861.3,103548,86648.8,110277,110074,113044,55441.8,80638.1
99600.3,101665,124319,89518.8,103513,95949,67855.7,84665.9
88398.9,98833.5,108233,81257.4,91945,95754.4,74039.5,57350.9
104782,84589.2,111936,58846.2,119314,79550.8,55282.5,58382.5
126357,100579,146448,111901,135146,119983,86486,80013.3
89197.2,76956.3,64212.4,101798,74331.6,107695,56682.4,69530.8
130943,98044.2,160199,73229.8,122821,116725,58423.8,73158.1
86783.4,102084,97186.6,85948.8,123536,139787,76567.2,84411.3
113783,68374.8,110391,39256,99688.4,58776.2,54800.4,55639.7
67634.1,81236.7,107717,80196.2,116228,91410.2,66763.5,63764.2
75834,103175,144497,129451,95397.4,88387.6,74252.7,56173.5
86456.7,112701,63569.8,111101,64089.2,122158,55806,73878.4
92991.6,65272.5,147319,37808.4,144116,74559.8,77169.8,71075.5
109662,108076,94771.6,81919.6,126554,90321,75249.9,82396.2
92937.6,131711,87291.4,104888,89611.2,115877,56778,87390.5
73182.6,111275,32159.4,121323,51570.4,120464,61929.3,69574.8
107919,93169.8,113180,87101,100570,112262,70280.3,76771.7
98664.3,104214,108153,91743.4,100132,92428,58194,66301.5
94483.8,87414.3,63824.6,84544.6,69482,89982.2,60533.3,59477.1
94516.2,89442,126052,40537,110303,78353.8,55900.7,56244
72330.3,97376.4,37788.8,99157.8,51167.2,111898,56911.6,73928.1
77646.6,101984,64514.8,70613.2,79674,90923,59336.8,84758.9
84155.4,92186.1,91954.8,86308.6,83736.8,85951.6,57783.8,60424
100220,91837.8,179953,69529.6,131719,84564.2,88685.5,58787
88481.7,105375,92080.8,88632.6,106378,100745,73696.8,61257.7
112578,100079,116427,140988,114884,138022,72991.4,87604.6
99752.4,104529,113768,96042.8,105328,104045,70381,81768.3
83317.5,95525.1,100765,86142,106555,88438,63314.7,68362.8
80446.5,97062.3,138702,101198,130017,120674,79074.8,67591.4
86622.3,99330.3,52899,110919,77645.4,121449,86016.7,81409.4
127407,104142,124200,85209.6,103782,97918.8,63925.5,78450.7
92673,86715,81114.6,102416,84742,95071.2,56807.6,63916.3
106554,84215.7,195513,83944,141022,89915,57484.4,57567.2
103845,44154.9,154280,29570.8,155735,56606.2,69481.9,55312
64278.9,85708.8,83085.8,110495,99733.2,91091,59736.5,70517.3
85296.6,103316,97501.6,113053,114265,118506,78593.9,84403.8
46232.1,103560,86053.8,120963,117510,135251,55456,87862.5
98784,96306.3,108682,88286.8,90918.8,93042.6,62980.7,64900.6
104296,87261.3,112904,57398.6,98466.2,87129,68461.9,57682.9
82537.2,139706,105913,138898,101388,162823,66633.1,78302.7
99924.3,99069.3,75390,82593,111674,81043.2,85266.8,63370
145446,85935.6,158596,108452,154778,92243.2,55757.6,55717.6
130379,87837.3,84326.2,88327.4,109823,91901.6,83899.3,64162.7
103366,100679,134296,90463.8,128121,90813.8,77409.4,63758.9
122677,85326.3,113478,89696.6,124715,102445,86403.6,59808.5
129456,110351,131757,98770,137973,125002,67627,76214.7
97267.5,112732,81918.2,110839,95569.6,111485,61184.2,81622.8
90583.2,87976.8,85632.4,111675,120012,103117,55009.5,62011.8
92458.8,71076.6,87679.2,113389,90692,111254,60453.9,67822
127488,99499.5,131527,109382,132747,112822,61217.6,81737.2
93718.8,90796.5,115010,74830,138856,85727.6,83879.7,64992.4
100763,127600,108851,102115,98831.6,108683,61176.4,73750.6
66282.3,117811,88853.8,98144.2,108256,99790.6,82291.5,81955.2
120316,84298.5,135250,76010.2,110942,73928.4,76952,56694.9
97533.9,56172.6,123731,63208.6,118073,57586.2,80948.2,60425.3
103446,117631,95198.6,148498,106315,145382,66077.6,77092.3
103504,124211,124025,110389,111245,128608,73118.5,72580.5
77843.7,125585,115777,177723,105213,148667,85103.5,55585.2
89182.8,93712.5,100971,83658.4,101073,112451,67690.8,61358.9
91702.8,91305.9,69504.4,75429.2,69164.2,83395.2,59617.2,55517.6
116039,56618.1,135857,92643.6,122685,123747,64765.4,59256.6
54684.9,89883,39279.8,67015.2,48634.6,83022.8,63351.3,57728.3
90899.1,107207,108443,105108,127568,109287,78613.4,76919.7
93791.7,87622.2,128433,75618.2,124907,92607.2,67968.1,65199.9
105653,90906.3,95466,59749.2,98036.4,83675.2,57664.6,59165.1
101843,92946.6,93580.2,71593.2,104472,81011,68877.7,66161.4
104220,84514.5,127820,97616.4,134698,119854,87439.7,79722.7
102668,108322,98541.8,97363,135645,100241,86630.9,60009.8
88997.4,106149,127625,117950,106441,108140,56862.3,58074.5
100818,109665,109931,170785,107215,161662,68093,69837.6
110593,93101.4,128772,90945.4,118692,103221,56392.5,55322.8
94107.6,88730.1,137711,103531,155302,118397,86926.9,81326.5
129187,87433.2,131492,78289.4,140767,84982.8,76004.8,62440.4
91231.2,86088.6,104947,66096.8,103975,78790.6,69658.1,55288
103035,87765.3,117076,69343.4,101801,76307,69255,57920.5
100060,103309,88104.8,99710.8,99418.2,95116,62103.3,74309.6
96671.7,83444.4,98946.4,66591,110925,74467.4,76710.5,57945.6
90747,85887.9,82906.6,66953.6,98707,86933,56639.5,67350.3
90835.2,86379.3,77499.8,72062.2,88706.8,122429,55616.7,64607.1
75123.9,65336.4,118446,95086.6,140536,104475,80896.8,70262.1
103239,138489,139723,104692,144148,144225,86578,65751.4
83061.9,94712.4,87292.8,93613.8,111695,112448,75825.8,79885.2
78684.3,101444,124467,97561.8,135583,119829,74293.6,84154.7
78256.8,95346,89553.8,97945.4,93070.6,105025,62380.9,87812.6
93678.3,87921,73148.6,64029,81338.6,76683.6,57790.9,60598.4
103253,101506,123921,94096.8,118237,112622,77460.2,60187.6
110407,95787,110389,110671,125618,113649,70412.1,72478.3
100279,105582,97111,97844.6,110722,139966,82752.2,88296.5
81734.4,103916,84819,52194.8,105591,142855,75605.5,63380.1
109359,91290.6,88292.4,135716,99589,117622,82146.2,58493.9
72923.4,95207.4,77516.6,73288.6,97315.4,103551,67053.8,82558.5
71444.7,105490,105693,100477,108382,114636,72156.3,66355
70722,95530.5,93174.2,82846.4,110862,106936,76319.4,69832.6
90909,110131,99794.8,124242,97641.6,132100,88664.4,88379.8
88302.6,93816,106221,70303.8,117776,87075.8,73997.3,54945.1
87579,86699.7,31568.6,72382.8,72723,97878.2,60334.5,70855.8
97336.8,79939.8,93844.8,85534.4,127130,90729.8,71544.7,61929.5
93762,103090,98602,89691,74145.4,107006,56854.7,74025.8
92685.6,90292.5,101584,99124.2,99362.2,112668,62850.2,81555.4
110336,72357.3,125331,87859.8,123738,118482,67472.2,71845.3
102121,86145.3,122730,129273,102220,115259,65065.7,64732.6
105692,78440.4,107864,68010.6,106670,81970,68595.3,62939.9
82737.9,111594,100296,123155,89898.2,116606,59051.9,61370.4
111255,95888.7,128779,114174,117261,136522,84787.1,85571.3
96957.9,98163.9,81218.2,103020,84856.8,104013,58273.2,56850.9
103654,83406.6,103953,57485.4,97482,71136.8,57272.7,55216.2
111261,102102,165788,107355,144437,105255,81879.8,78246.1
94117.5,49978.8,60082.4,21630,88418.4,46204.2,66035.3,55283
86727.6,110980,159596,106128,165427,106375,85933.2,58264.8
104739,88297.2,119701,88631.2,101483,96853.4,55054.2,81081.2
106340,80640.9,123759,55426,113663,80393.6,79011.6,62826.2
104472,91070.1,133518,77274.4,133386,98056,82176.5,55555.5
103234,88312.5,126431,89891.2,117488,96651.8,78402.9,78951
103545,103537,111467,93198,103438,103398,79492.6,64014.3
87415.2,102869,103214,76139,103362,100254,67560.4,64314.3
136321,94706.1,198390,74719.4,174545,89693.8,84549.3,55058.4
91532.7,104753,96752.6,89692.4,100167,98669.2,73081.6,76894.8
92137.5,82916.1,130684,96271,112651,103517,84225.9,81147.1
97761.6,158988,109248,197147,111864,148933,80055.8,57927.1
91752.3,95137.2,94808,62573,102914,85549.8,72043.5,64863.3
124376,87263.1,148562,47833.8,142299,70635.6,75074.4,58844.4
131990,96449.4,93121,70120.4,129759,85096.2,84172.2,76902.3
78225.3,153870,108191,191666,102795,184138,56646.6,55412
74635.2,94632.3,68451.6,136843,80805.2,116806,61003.2,84531.4
84303,129662,89390,147251,114397,129023,68711.9,60012.3
82423.8,102939,68404,97577.2,71191.4,104472,69102.1,63594.1
140314,88117.2,147440,83941.2,126244,93433.2,57228.3,74563.9
93410.1,67819.5,99675.8,60071.2,112739,90069,72591.3,62245.8
94061.7,119094,81631.2,106744,91761.6,140564,59977.9,84836.8
116524,91775.7,83113.8,68332.6,91417.2,91001.4,56936.1,66645.5
114283,72552.6,112913,83505.8,116920,109161,69156.5,74246.3
94965.3,87039.9,69202,89885.6,75031.6,84226.8,83125.6,54703.4
99431.1,120048,102878,130302,95235,120345,55392.5,77970.9
82954.8,103286,68833.8,78654.8,85500.8,100765,77603.8,77015.3
117816,89623.8,120243,95576.6,126015,84550.2,77073.6,54763.9
60537.6,68184.9,38021.2,92234.8,44667,86079,70742.9,63315.8
116970,92380.5,99015,78607.2,136451,92274,70241.3,75396.2
57693.6,68190.3,106966,44116.8,86455.6,62307,56526.9,78979.3
84682.8,96766.2,66890.6,102862,78759.8,93493.4,58747.1,60957.8
82709.1,78453.9,115653,108739,123851,142978,61981.3,85208.4
64463.4,89541.9,25214,62683.6,63389.2,81862.2,87520.2,55001.8
95710.5,97061.4,116137,77630,107436,96985,69105.2,73122.8
95931,129815,116967,134086,112959,142388,74516.4,81827.4
80279.1,105037,78745.8,89518.8,71754.2,103054,55629.5,78878.5
119120,109488,118460,123319,106553,110746,73697.2,63114.9
110699,106287,118982,90290.2,133557,84337.4,69057.6,72014.4
120691,85128.3,138421,94547.6,138902,95621.4,86901.9,73569.4
92047.5,97738.2,68003.6,85170.4,84201.6,116938,61070.1,85796.2
84749.4,111009,69722.8,105312,81638.2,115087,84841.5,69195.3
92216.7,70531.2,120505,94288.6,106894,113022,71699,68225.2
124051,78758.1,167306,47121.2,150331,58767.8,83669,57430.6
105870,66099.6,97365.8,67776.8,90745.2,76255.2,60377.7,66946.9
105458,85521.6,127910,100120,125418,112622,76270.3,59132
72903.6,96284.7,81782.4,112486,100915,101965,74318.8,85425.7
77013,95564.7,85908.2,78937.6,106485,95454.8,55466.2,70025.3
129605,102598,154909,204567,129567,116179,61055.6,63161.8
86734.8,102201,131965,82775,120852,100580,68084.4,64286.6
52425,98876.7,19055.4,82577.6,44738.4,86130.8,54775.9,70586.8
63224.1,94947.3,76536.6,71118.6,103608,87893.4,60272.5,58136.9
81671.4,87367.5,70572.6,142696,69154.4,111689,68958.3,72599
67894.2,107909,110750,102364,117485,107523,65404,66773.7
109697,118653,152090,118121,136429,122718,76143.1,62637.5
91925.1,95974.2,98949.2,92211,93710.4,111661,76243.2,65475.5
97672.5,89370.9,79790.2,94221.4,84415.8,107937,55282.8,70699
91608.3,79323.3,87626,90654.2,91630,102812,64952.9,62483.9
91341.9,101622,109459,102091,99832.6,102509,84206.2,58646.8
114499,106935,161052,105925,136347,99204,72003.6,79577.9
104262,85146.3,97419,105937,113268,113831,68841.6,73342.2
69190.2,84910.5,104401,64877.4,86878.4,88886,64222,58355.3
112990,98055.9,132289,92390.2,132142,99514.8,83601.4,59630
92544.3,167568,78330,194657,95362.4,146936,58040.6,59502.4
120131,104483,117057,151857,117057,118677,56289.4,58711.5
106036,89054.1,115822,69526.8,113525,92932,64396.7,62583.6
108386,86367.6,147209,77600.6,130728,82171.6,68679.3,56896.9
61101.9,90522.9,70329,76395.2,77326.2,87343.2,58357.8,59900.8
70539.3,73782,97543.6,63589.4,90454,81552.8,69330.5,65946.2
87003.9,98454.6,76482,119314,107999,107542,74142,63558.6
113377,86721.3,78160.6,87875.2,104749,102089,78850.5,88333
98323.2,109858,100111,100310,109102,107321,72190.5,88737.6
75994.2,80140.5,90725.6,73831.8,123490,88233.6,77868.2,57414.1
85653.9,97788.6,69378.4,66182.2,77509.6,113413,59217.4,73310.5
99135,120410,88716.6,111268,94634.4,130207,59431.9,73436.7
71558.1,82344.6,92664.6,101746,107015,111884,69863.2,67504
82049.4,80020.8,137368,74986.8,156699,104982,57168.6,79652.3
106600,65429.1,114960,75224.8,105748,100997,63918,72870.9
98602.2,98987.4,160626,100642,113856,97851.6,63184.3,78663.2
80531.1,89296.2,85038.8,88380.6,71295,121587,77655,71552.3
74024.1,91486.8,116777,64283.8,117443,83619.2,69264,59406.7
104587,46919.7,117407,37755.2,111646,51665.6,85729.9,56341.1
119120,98035.2,135590,123652,128615,100647,74331.6,59444.2
89651.7,66150,91425.6,57505,109078,61521.6,61092.2,64436.6
102172,85084.2,143321,90504.4,141757,82626.6,85975.8,58941.8
77074.2,115522,51332.4,125677,70599.2,137959,57154.6,77885.4
87941.7,61927.2,81373.6,33713.4,112977,54952.8,65081.1,77240
80783.1,99378.9,58664.2,106320,79434.6,123246,58673.9,80436.6
100825,102692,70254.8,75187,90388.2,100110,60202.2,73076.8
55762.2,108591,30674,75360.6,51613.8,98760.2,63917.1,84084.5
63937.8,81182.7,113583,78894.2,133461,90281.8,81643.1,66035.9
101486,73484.1,80824.8,91246.4,75895.4,121997,65560.6,71869.9
101380,86303.7,76798.4,76689.2,104672,117131,69617.6,76091
75330,62910,109623,116997,94011.4,106270,58100.4,75863.9
92373.3,102315,83536.6,68412.4,96931.8,105001,62683.6,86529.7
75047.4,135058,155480,151760,111812,160339,60904.3,76787.1
83146.5,81498.6,66428.6,102822,83319.6,118363,54652.5,86423.8
123265,111313,114685,108781,118460,116901,76673.3,56912.7
88928.1,93990.6,100789,75471.2,108277,105035,72837.9,58059.5
64845.9,105663,98635.6,81956,106193,100016,62410.1,69474
59128.2,81315,45575.6,109063,59231.2,78071,70273.4,58293.1
120241,93557.7,145727,75528.6,138040,83020,73661.3,75334.8
84641.4,116948,145807,113985,149710,111516,72825.8,64197.2
55148.4,106843,83140.4,90871.2,98044.8,105099,61713.1,77582.8
89628.3,71870.4,151024,30721.6,171836,59460.8,81790.6,56495.7
80399.7,91485.9,67681.6,78454.6,86163,84910,58244.6,65223.6
67524.3,147199,59462.2,165774,74639.6,222821,54734.5,84166.6
106504,102841,109843,84434,107937,119685,84454,84172.8
73904.4,109461,92009.4,119000,109207,111957,79879.5,67929.6
102239,63342,126965,72581.6,112410,74135.6,72605.2,60878.6
99198,76073.4,89920.6,48673.8,108541,61863.2,55148.7,70874.8
80546.4,91337.4,109733,83890.8,100169,92432.2,66465.2,65066.6
91877.4,96870.6,82784.8,131923,92232,118545,69254.6,54716.7
58963.5,76093.2,22901.2,72062.2,46971.4,98883.4,74313.5,56053.2
82989,114937,92167.6,155753,114467,132369,58980.7,59986
83944.8,89205.3,91511,84886.2,110827,98204.4,74506.4,63042.6
93806.1,117811,143634,124912,125159,130822,71103,63988.6
87665.4,112547,104159,157028,114603,139065,67745.1,65013.7
87575.4,43432.2,94612,15125.6,98042,55973.4,72427.4,55695.8
91494.9,97631.1,70746.2,77653.8,105757,99530.2,65845.4,61567.1
58229.1,83457,58487.8,99890,69885.2,111951,56172.4,86188.7
82818,96884.1,95124.4,93052.4,94910.2,123920,63702.6,72302.2
57654.9,102406,136807,84375.2,127516,102080,75966.6,81669.4
94579.2,87219.9,98301,75863.2,92447.6,90007.4,55446.6,61181.3
88732.8,74382.3,106613,96720.4,99780.8,110688,87874.7,71672.5
90285.3,73507.5,114584,70928.2,132843,88078.2,82755.8,59697.8
102318,126548,137239,129711,100901,109235,60400.6,55246.9
104309,77488.2,110993,50477,110464,81265.8,81706.4,86377.5
103642,41763.6,99044.4,19929,115590,44699.2,74522.8,56713.6
152296,99270.9,147850,98921.2,144955,106302,59343.9,76085.3
99243.9,105651,78521.8,131547,89621,101339,61735,55874.5
84078,88181.1,87757.6,94918.6,102798,87603.6,60854.9,64726.5
95385.6,92978.1,97972,82367.6,87249.4,102122,55957.7,69132.2
70695,96057.9,143448,82551,145982,84208.6,76736.3,62259.9
106362,116280,119995,119049,125931,143018,84258.8,84942.3
86739.3,78888.6,98441,52764.6,102014,75040,79419.3,58609.9
107370,102718,110057,91747.6,114415,93167.2,56426.2,80899.2
113278,139134,167187,123326,142653,141663,79986.2,68055.2
97497,107986,99656.2,95684.4,90953.8,98670.6,58682.8,80137.1
104071,103821,103055,114596,103040,101002,60987.1,81896.5
90514.8,110958,74641,84098,80826.2,94991.4,56434.2,68178.1
102116,102921,127170,85139.6,130278,82530,75115.4,57710.7
130682,88368.3,107705,84343,109414,92468.6,69177.1,69294.6
42588.9,112878,28106.4,129847,55351.8,134155,78389.6,87496.7
95921.1,94840.2,73435.6,91386.4,82877.2,103376,56423.5,60768.5
120221,88806.6,153777,71573.6,131825,89786.2,74766.8,69312.5
77658.3,104515,90521.2,112043,115025,113257,79255.2,77071.2
67908.6,73574.1,164622,104940,95842.6,104598,67739.8,81181.7
86319,86361.3,100521,56121.8,97202,86986.2,73552.7,55151.5
94145.4,75688.2,93545.2,94157,106317,103898,82090.7,79753.7
78061.5,90574.2,60505.2,111607,81874.8,106351,63036,75334.5
78349.5,85550.4,35526.4,59568.6,60181.8,90984.6,55311.9,67553.4
99382.5,85195.8,76234.2,88618.6,78087.8,93331,61578.3,61813.8
100534,112018,89387.2,107085,95235,107695,61399.9,65001.8
107601,76877.1,126141,81075.4,128482,101325,86323.5,69765.8
115784,88708.5,120411,92167.6,124803,97277.6,77205.1,65590.9
111331,98623.8,151780,74065.6,128016,97066.2,85651,68891.7
89107.2,77415.3,57299.2,89261.2,70730.8,83875.4,55493.4,71254.9
98841.6,123850,76776,87493,77905.8,106821,57725.4,77226.2
98775.9,74397.6,104587,142387,96301.8,110977,61808.7,72313.9
75415.5,140875,50429.4,155960,57152.2,111301,56145.2,86651.5
116648,71210.7,105266,100540,108277,94113.6,79198.1,57243.9
89214.3,91216.8,150368,87970.4,141831,94766,81105.2,68287.5
88283.7,104792,68034.4,90105.4,82952.8,97196.4,54856.8,72323.7
57577.5,100040,90885.2,73598,117905,103146,82097,81792.6
106103,108644,98651,122700,112010,123438,70269.8,77399.8
90144.9,109024,87430,98866.6,113193,122723,78091.5,79650.1
92849.4,95353.2,79480.8,83295.8,104756,84499.8,72928.3,78201.8
98861.4,85860,106744,71548.4,117236,79559.2,76171,58779.8
94338,109156,77732.2,154916,88863.6,151661,55739.6,83577.9
89961.3,90489.6,71026.2,77390.6,88352.6,79255.4,58244,57121.1
135504,126315,178220,124597,160831,154134,68460.8,79829.9
86430.6,124297,95937.8,149800,79427.6,127877,63926.9,75618.3
95448.6,76619.7,107552,67590.6,97417.6,98042,65189.3,63782.4
86508.9,103661,59654,83917.4,77434,96880,69739.9,59808.6
94247.1,110298,125332,114870,122637,113014,83322.8,85962.1
94770,100090,101006,101289,109582,76011.6,87213.9,56767
95578.2,65249.1,94333.4,26796,85552.6,48739.6,59387.8,60975.7
103832,120448,140792,99202.6,117258,102537,70125,82655.8
85511.7,93609.9,95880.4,78734.6,77253.4,94106.6,59147.4,61442.8
88624.8,97533.9,76053.6,69722.8,95145.4,81247.6,59059.7,80747.4
64927.8,79224.3,61692.4,73904.6,83799.8,78381.8,65431,57299.9
119023,103525,139758,91420,121377,116474,70521.5,88272.2
44338.5,95031,40002.2,106215,50318.8,108238,70234.1,87131.9
93932.1,101019,76491.8,80159.8,98488.6,96394.2,56556.8,55828.6
105164,111544,93310,132850,112496,106809,75449.6,55761.9
60921,107574,99111.6,78684.2,82611.2,101189,56447.6,67267.8
141314,67633.2,179781,44564.8,101079,58830.8,59383,54853.6
102382,81642.6,93625,86531.2,86683.8,93121,67501.2,60867
90577.8,99105.3,110134,99331.4,101158,115829,67481.8,84016.9
72945.9,103106,86361.8,142577,83101.2,110258,56693.6,56398
97656.3,110923,89490.8,142983,109752,127308,74856.6,82408.9
119146,106232,123745,88477.2,128849,94430,88599.9,76546.3
104098,80140.5,63522.2,54591.6,99549.8,74396,70319.1,55450.8
82064.7,105564,82609.8,106320,94257.8,112725,59960,69979.4
83333.7,87973.2,108171,62346.2,90449.8,78918,59961.9,61858.9
77419.8,88933.5,36449,79018.8,51480.8,88415.6,70685.5,79502
91094.4,94347.9,94442.6,71541.4,112426,93493.4,72415.6,54800.6
101295,73081.8,112319,89065.2,119815,83760.6,83897.6,56223.3
66124.8,122765,76158.6,101802,87138.8,120891,56346.9,81303.1
89865.9,119097,108800,102196,121946,122273,64632.5,88372.4
81313.2,130158,57787.8,152439,80074.4,139093,76027.8,80605.9
114914,124932,117421,185956,114159,180848,60493.2,84469.4
149921,92614.5,162028,83907.6,127994,102694,60930.6,60746.8
125914,75039.3,132889,43822.8,95951.8,74006.8,87162,55661.5
89184.6,97968.6,111887,102133,82061,86486.4,55578.1,66048.5
106954,92324.7,84200.2,103190,97715.8,93044,58747.8,63399.7
104967,81713.7,118181,81407.2,112200,104630,78399.4,69696.2
112687,101694,108751,79570.4,125238,91177.8,78662.7,62578.8
91663.2,98264.7,87593.8,92528.8,101620,94141.6,70057,72284.4
79314.3,99637.2,80120.6,96402.6,88799.2,96579,67989.2,81413.6
116662,76848.3,95649.4,66138.8,122350,68651.8,74711.1,54978.8
108691,67617.9,120134,91144.2,111692,101788,86062.7,61460.2
44561.7,82229.4,54842.2,70431.2,48538,87117.8,59663.2,55608.5
123841,94699.8,107152,82405.4,112573,94651.2,58697,55897.7
104683,90377.1,138634,83461,106190,97337.8,56941.8,77658
106466,85429.8,118371,74901.4,107352,84228.2,70546.2,57644.7
75762.9,77087.7,42663.6,53631.2,50811.6,139653,72784.4,83317.4
79381.8,61443.9,103230,35611.8,101384,45502.8,71132.8,67183.1
155114,105424,169218,136387,140921,107838,79406.6,55064.8
93042.9,86796,78783.6,94732.4,102712,113410,73554.7,80684.4
97650.9,81491.4,83550.6,73325,105861,84863.8,79320.7,62037.6
93879,83825.1,147211,75952.8,136097,86368.8,78779.3,60451.6
109309,117297,68976.6,123452,98540.4,126728,85721.1,86516.1
85097.7,88316.1,54170.2,64934.8,72332.4,84872.2,84724.8,55583.3
106558,101388,86990.4,83438.6,96149.2,91602,65881.5,56412.5
80118.9,102144,75513.2,81677.4,78824.2,96059.6,59972.5,68277.5
65781.9,80484.3,101627,72506,127133,82313,66325.4,77090.7
107306,97936.2,155449,74313.4,121454,84165.2,82478.7,57738.1
95649.3,77726.7,62627.6,82761,84684.6,100853,83470,68963.4
95821.2,87826.5,119679,87564.4,115849,109348,73273.9,77863.8
101747,91778.4,80350.2,82693.8,90988.8,104675,78317.8,65203.3
96333.3,110715,117184,112585,118534,110743,88510.3,76359
132846,70044.3,111133,79942.8,121951,103937,66512.5,78950
132144,141698,154608,138104,145702,110662,69286.3,55469.9
88945.2,120982,71639.4,108835,65045.4,116686,55447.7,58752.1
90714.6,107470,136597,93373,119543,103737,58561,78644
78406.2,92773.8,81065.6,64003.8,79220.4,81572.4,60926.2,57570.6
91665,107028,100848,102201,106240,94067.4,75796.5,68841.8
149741,99924.3,204175,96023.2,179221,90238.4,86524.8,55916.9
77426.1,125435,86480.8,162644,119424,170593,71274.7,84579.1
104558,101215,129966,102220,107681,115879,57957.5,79456.6
82941.3,104339,100083,159923,91681.8,130348,66388.7,55535.2
119120,101465,141204,73841.6,140777,100876,75731.5,76024.1
85213.8,95900.4,72062.2,92107.4,96685.4,105909,61041,76608.5
57721.5,70503.3,78068.2,86602.6,79389.8,121892,58938.8,72183.3
91798.2,113762,117624,85191.4,108403,121621,72756.1,76831.8
103344,93850.2,134775,68675.6,124669,86094.4,72720.4,69063.6
117555,106604,112277,96630.8,135843,98991.2,83724,77453.7
107396,111950,98070,109241,91627.2,107909,71558.2,76984.6
79508.7,80455.5,52364.2,66476.2,72735.6,80896.2,79603.6,55542.5
66357.9,105810,109043,86251.2,113700,110403,65307,79905.5
114700,89450.1,94633,88481.4,110221,89285,79934.8,59881.6
90394.2,85460.4,79769.2,105837,66950.8,101179,64107.1,80566.8
89823.6,94335.3,129366,76673.8,122458,87361.4,75327.2,63614.3
102056,86516.1,84344.4,94546.2,81564,103009,64828.6,86774.8
107595,118450,153240,107355,119332,118383,88779.6,81766.7
127670,138369,148477,132493,117029,122921,82075.7,73222.2
95337,106096,66269,108018,72636.2,110337,76449,76212
107590,54037.8,78505,30868.6,78591.8,54465.6,55875.1,76937.9
102501,116697,140517,105661,149415,113373,85150,88762.4
108521,87938.1,128068,85155,131974,101192,88635.2,68893.1
85121.1,100966,97077.4,95869.2,87815,102820,56360.4,66850.2
95500.8,90234.9,77334.6,76263.6,93137.8,84245,56989.8,61362.5
85305.6,93319.2,72472.4,87493,62202,91959,55058.7,62813.8
95538.6,110714,83668.2,111084,107908,118401,78205.5,82936.4
92733.3,98673.3,110970,83868.4,127786,92327.2,66803.1,55799.8
99612.9,97716.6,116896,163911,106947,113519,67126,77488.3
80808.3,86634,107538,64302,93209.2,71628.2,70361.2,58684.9
94623.3,87101.1,72608.2,87570,92085,100534,58877.8,68339.9
116473,76122.9,115024,48776,123424,61216.4,87120.5,55146.6
107193,111398,143406,140136,134015,134898,86492.6,80922.1
83632.5,94954.5,82454.4,77190.4,91163.8,90174,61420.2,56293.2
102066,100442,112049,71534.4,101030,86311.4,55548.9,70713
108775,62891.1,97484.8,65450,117950,100661,58513.7,65500.1
119462,93525.3,123197,76034,120421,97690.6,54674.8,64675
99865.8,72701.1,91463.4,76647.2,93564.8,98422.8,62784.9,70067.9
98057.7,134574,144803,173341,119055,135923,72855.3,86439.7
82431,92171.7,83378.4,71680,112851,102802,72035.5,66061.3
80818.2,86373.9,81006.8,85920.8,89217.8,113868,56564.7,87042.6
124180,107215,136560,106567,121344,99380.4,78667.9,80609.9
103669,99407.7,97399.4,80347.4,116010,104748,74617.4,57042.8
88276.5,94689,84814.8,78687,85474.2,91603.4,57534.4,57864.3
80824.5,91732.5,99073.8,166249,123287,114787,83831.5,87319.9
61656.3,109158,59872.4,97046.6,76661.2,113646,54835.5,80867.2
61368.3,96773.4,116159,76868.4,118756,88758.6,73831.3,59120.4
84239.1,100537,101976,104203,84579.6,122913,77624.8,65589.7
109112,71088.3,120149,87997,127163,101209,78123.4,67293.7
78100.2,85432.5,45077.2,71647.8,59207.4,92288,55533.7,61269.7
88920,91170,73390.8,72538.2,105398,83535.2,88338.9,56159.1
109256,57452.4,121393,67706.8,102794,61580.4,73781.2,56430.5
115962,91853.1,124923,73115,117128,94253.6,80649.5,61694.8
93035.7,102491,59105.2,88533.2,69150.2,101690,76585.7,72890.8
100329,90605.7,100692,112029,89006.4,107587,63869.6,67360.7
109519,93164.4,141435,88324.6,147244,90154.4,85695.9,62647.1
91437.3,80565.3,119420,83319.6,129018,100398,85611.5,65286.1
62681.4,108644,74278.4,100104,85961.4,122947,60635.1,69473.4
103747,95731.2,76899.2,107421,105804,111009,65776.5,74211.1
101543,105484,85748.6,104181,111086,108571,59300.9,81219.7
91465.2,87787.8,131040,84135.8,124200,79262.4,62626,61190.6
76131.9,109444,76391,93265.2,86084.6,102641,59749.8,63040.6
97448.4,125366,127576,146647,129734,135066,85813.9,64852.1
123002,81436.5,137792,69920.2,123969,87106.6,58664.4,58257.8
94452.3,108039,97448.4,82724.6,116682,98620.2,59498.5,81848.4
93274.2,98051.4,95082.4,101451,108137,89290.6,77921,74192.2
117864,87702.3,135167,107680,100520,98935.2,59324.4,78132.1
87155.1,90498.6,79357.6,85500.8,72525.6,93220.4,55260,60222
115970,122679,107610,138929,118707,138327,63776.9,58429.6
68472,115147,101643,150102,110208,138604,70817.1,87123.2
104484,100922,97812.4,74804.8,110432,83584.2,76768.4,62016.2
95881.5,74602.8,120106,49225.4,111982,65100,81144.7,56509.6
88542,95616.9,119371,89485.2,151106,90805.4,82323.6,63707.4
100067,96067.8,106809,107696,99982.4,97780.2,76886.9,81727.8
100958,87651.9,130810,59792.6,101424,81338.6,54726.1,60282.9
126891,92750.4,177832,86016,126948,92309,65373.4,65564.1
86787,106276,45187.8,99496.6,79059.4,107096,58009.1,85107.6
110305,107219,131375,115570,109130,135982,66151.3,78365.1
77155.2,82459.8,114485,94771.6,119182,104713,61672.9,81283.7
110348,119193,143381,115074,132741,93811.2,86685.2,57427.6
88398.9,96828.3,64045.8,81047.4,83274.8,96682.6,86897.6,69844.3
64059.3,118890,59257.8,114430,79130.8,126344,64555.6,82887.9
105041,105945,101086,100052,100505,102936,72632,70155.4
90096.3,81991.8,91309.4,86881.2,116537,99439.2,86396.6,70443.7
116304,102579,109679,64152.2,126757,105178,82442.4,77442.6
121378,122692,141023,139478,131795,128275,83613.2,55462.8
73915.2,95700.6,85248.8,70127.4,100016,95253.2,62411,59076.6
120957,98051.4,115314,79492,108380,83234.2,69181.4,68323.9
106870,94805.1,95494,87019.8,107423,97078.8,69643.3,65207.8
102182,90770.4,92059.8,95348.4,78926.4,82775,56950.2,57638.4
100447,127274,107920,105078,94718.4,108191,57815.9,57116.4
100282,100806,124968,93587.2,118391,111913,83807.5,70382.7
89819.1,75362.4,93318.4,34171.2,87008.6,59939.6,68362.5,54678.5
82792.8,78803.1,100565,86622.2,106400,90665.4,79612.4,55473.7
89574.3,96620.4,137332,64397.2,114859,80423,70466.8,61982.3
89884.8,76581,148756,70681.8,126701,83083,81481.3,62774.4
128975,85292.1,174821,110396,151329,113658,86369.5,71986.6
109515,82569.6,128479,114451,128297,125290,84586.1,81725.4
61933.5,92786.4,95061.4,76469.4,86101.4,89255.6,64087.8,88199.1
112679,114500,101525,84239.4,116259,110293,75068.6,82680.2
76657.5,88512.3,84120.4,47090.4,90886.6,89679.8,64565.3,66673.4
105324,101851,104740,91135.8,107521,116683,62907,69494.4
104679,108482,89719,187208,101667,140298,58729.3,59144.3
95298.3,89572.5,83970.6,84165.2,96033,84492.8,56792.9,62380.7
81105.3,91304.1,84714,85268.4,103894,91735,68264,60604.7
84288.6,99335.7,81386.2,82525.8,64012.2,97778.8,54681.9,86641.8
101476,104834,85666,83715.8,85663.2,70736.4,56870.6,71681.4
91495.8,95042.7,54299,97566,67137,86808.4,55830.2,68601.1
88569,113408,78199.8,102942,79515.8,128624,60035.8,71674.1
92558.7,90344.7,97266.4,118355,111056,124314,77663.1,67868.9
105491,64993.5,112939,128521,96656,84470.4,56165.9,55569.1
106207,72292.5,107905,61997.6,117428,87061.8,79637.1,59875.1
72741.6,73950.3,35512.4,75310.2,65237.2,82129.6,85852.6,71675.5
114819,101763,103319,103650,103457,116518,63354,61778.3
106413,97137.9,93122.4,80939.6,103804,102214,71833.2,80429.5
65651.4,106320,77372.4,91541.8,74186,90949.6,54965.9,65671.7
90486,117295,107831,108427,103866,126062,58875.3,55258.5
100140,81129.6,74379.2,88445,90437.2,81597.6,68608.8,61506.5
117043,90595.8,186487,77233.8,168578,100335,87846.2,83089.5
104057,104264,213177,87789.8,144488,98375.2,78103.4,84271.3
111235,74973.6,124071,77457.8,129616,87158.4,88152.2,58761.2
90727.2,92565,110083,67830,109784,85524.6,81910,61733.9
85046.4,91317.6,61374.6,82843.6,70123.2,95904.2,55340.1,66693
88223.4,119373,86552.2,97928.6,93189.6,111377,56436.2,55990.1
100645,102364,90147.4,80057.6,108793,90552,81327.5,56234
80892.9,94796.1,125255,92771,104426,87197.6,71931.4,61689.9
111843,79239.6,140645,82990.6,128729,99999.2,68737.1,56307.6
94456.8,107285,79508.8,96920.6,128978,97423.2,58889.8,67920.5
105420,96772.5,141084,114981,140190,109018,64670,75476.7
129109,96277.5,146730,86028.6,133010,101308,64654.4,66270.7
88108.2,109695,85177.4,92734.6,114783,102021,74466.6,66728
103186,72570.6,108240,59123.4,114079,91855.4,84453,60829.7
67508.1,101200,116719,81464.6,105321,108921,54940.6,70035.8
98955.9,90713.7,89182.8,75535.6,97706,80019.8,60218.2,56567
102612,98780.4,102358,85416.8,88942,108546,57537,65456.6
107426,90261,151620,94075.8,136507,100220,83200.3,67889.8
94393.8,96933.6,68952.8,81137,87435.6,97154.4,63926.4,81748.7
99846.9,70368.3,91414.4,87812.2,99717.8,104192,71729.5,71612.7
107307,93966.3,77683.2,125535,89348,100915,55347.4,62931.2
90972,95971.5,65438.8,99943.2,74825.8,101399,56772.8,84040.2
78355.8,74250.9,101076,96591.6,85293.6,87725.4,54751,59257.6
98073.9,103723,73019.8,88369.4,80595.2,96681.2,60932.8,58731.1
82300.5,112485,49210,91635.6,55948.2,102595,86386.2,75769.8
130709,78309.9,152495,70512.4,130117,80053.4,81978.7,57411.4
86532.3,109030,64982.4,127112,85162,118321,58061.4,88248.2
103559,111694,125110,87507,121792,104457,57160.9,61848.8
106027,91476,146044,99181.6,145165,123280,64881.3,78084.8
67437,67639.5,41335,58150.4,53356.8,74170.6,75105.4,76240.9
115460,100299,147129,104913,126167,97920.2,86510.9,65635
59517.9,92531.7,22796.2,54880,52248,89870.2,79529.6,61049.3
91110.6,120867,110432,120688,127775,137203,85977.9,75657.3
63165.6,96096.6,110676,107576,99275.4,98614.6,71200.3,55240.2
136650,106849,157811,101289,134971,104311,73948.7,56275.4
87222.6,102642,100029,105683,79433.2,105953,64440.5,65157.6
107003,82143,124211,111161,117037,121183,69651.8,65918.7
79855.2,102080,39454.8,78583.4,63306.6,103569,57647.3,78549.6
,104242,,75329.8,,92775.2,,62480.3
,106874,,105777,,99103.2,,56743.5
,73527.3,,67652.2,,84273,,61808
,106702,,120169,,119113,,88064.1
,94613.4,,75604.2,,90785.8,,68827.9
,90932.4,,67188.8,,83655.6,,55271.1
,127412,,106672,,116764,,58123.4
,100606,,91529.2,,88751.6,,68005
,91632.6,,107519,,114723,,65830.9
,95246.1,,75318.6,,99895.6,,76788
,58950,,37240,,64940.4,,72419.7
,90677.7,,109593,,112237,,86666.4
,92272.5,,68348,,78048.6,,55055.8
,120364,,115531,,110639,,80270.3
,143543,,176284,,141788,,66535.7
,100731,,58546.6,,96832.4,,66929.4
,100321,,81683,,93847.6,,54945.4
,86875.2,,98628.6,,110533,,74265.5
,87967.8,,40567.8,,71513.4,,54826.7
,106729,,136847,,141280,,84696.2
,87091.2,,88569.6,,112249,,76454.3
,81495.9,,62631.8,,85694,,64800.4
,132048,,115199,,120971,,72936.5
,110490,,123428,,113950,,81323.3
,113432,,92351,,129396,,87446.5
,99092.7,,102726,,107192,,64360.1
,83835.9,,114680,,116943,,82197.9
,72664.2,,63033.6,,93217.6,,62638.5
,87413.4,,82483.8,,93847.6,,88657.4
,92502.9,,87448.2,,103228,,59277.6
,124414,,109022,,119024,,74537.9
,127895,,98016.8,,125304,,71020.4
,77507.1,,68759.6,,89007.8,,62582.9
,101369,,88009.6,,107622,,58204.8
,93173.4,,70721,,80668,,57311
,91626.3,,82091.8,,99062.6,,77675
,90826.2,,70358.4,,101062,,58274.9
,99223.2,,78496.6,,93339.4,,79783.9
,100563,,79752.4,,112431,,67073
,88755.3,,109291,,123141,,81076.2
,103149,,82033,,108872,,75014.6
,83666.7,,76503,,81543,,54946.8
,81678.6,,53757.2,,84204.4,,59565
,92540.7,,71148,,81814.6,,61727.8
,95035.5,,96352.2,,94735.2,,62097.9
,107909,,102484,,109336,,75820.2
,58716,,27350.4,,50031.8,,55155.8
,118672,,140889,,123602,,70074.3
,112182,,113315,,113436,,85769.6
,96652.8,,81496.8,,91131.6,,69010.8
,100438,,102528,,113126,,82893.2
,102421,,99554,,123998,,68849.7
,128306,,116745,,125112,,58319.9
,75237.3,,58835,,66063.2,,65697.6
,83463.3,,109921,,85383.2,,57677.8
,122789,,107675,,125152,,74996.6
,108750,,99170.4,,107888,,86084
,84224.7,,70404.6,,76323.8,,65894.3
,96569.1,,93034.2,,111686,,78155.7
,104861,,59012.8,,91645.4,,70066.5
,105872,,91347.2,,102886,,69341.1
,126164,,166022,,140500,,60770.4
,99160.2,,72226,,99467.2,,56526.6
,84649.5,,67410,,96807.2,,71561.5
,61689.6,,130936,,119622,,58285
,80677.8,,65226,,74711,,65759.6
,95463,,93140.6,,93734.2,,67063.9
,100378,,115101,,127473,,82149.2
,98720.1,,102585,,107227,,79625.8
,106185,,137061,,118821,,82282
,95987.7,,86221.8,,102941,,68707.7
,80878.5,,45150,,68535.6,,69413
,99408.6,,150111,,123063,,59793.6
,98234.1,,78444.8,,89525.8,,71346.8
,74796.3,,82713.4,,104896,,59013.9
,119540,,100988,,116557,,60123.4
,113769,,97953.8,,121481,,69093.7
,100604,,91784,,109228,,59994.5
,106767,,92051.4,,111600,,60906.8
,117628,,133577,,133235,,69319.1
,86817.6,,74179,,90288.8,,64596.4
,100287,,89787.6,,110517,,83832.3
,88155.9,,73414.6,,85534.4,,56559.1
,104350,,112370,,121979,,83205
,97177.5,,112150,,106504,,88351.5
,93234.6,,61930.4,,101356,,75053.9
,103294,,91170.8,,103496,,74527.3
,105025,,80983,,102883,,61168
,90856.8,,73053.4,,77929.6,,61518.5
,119133,,97140.4,,99409.8,,64298.8
,89115.3,,76687.8,,85376.2,,72607.7
,91946.7,,78737.4,,90227.2,,65514.4
,107903,,88932.2,,99101.8,,71047.3
,97323.3,,84103.6,,103628,,57155.3
,93770.1,,91725.2,,92121.4,,59807.4
,76691.7,,73164,,78397.2,,60970.1
,88811.1,,63418.6,,102852,,85415.8
,105962,,88698.4,,99454.6,,67025.7
,104184,,99321.6,,113079,,81271
,90013.5,,70183.4,,87523.8,,70064.9
,97922.7,,104157,,101921,,78491.8
,117582,,118653,,112528,,79483.1
,89800.2,,84569.8,,96420.8,,67496.6
,107731,,77828.8,,104895,,73504
,95136.3,,81729.2,,111815,,72217.6
,110434,,117922,,118552,,73440
,100058,,77950.6,,87599.4,,62209.4
,117914,,107523,,116211,,73229.4
,96458.4,,98159.6,,107376,,72331.7
,99328.5,,63498.4,,92099,,56936.8
,85842,,57688.4,,72276.4,,55578.9
,107898,,108216,,123663,,77822.4
,91420.2,,70099.4,,80501.4,,62838.9
,72709.2,,53796.4,,85947.4,,57958.8
,91721.7,,65165.8,,88946.2,,67479.6
,93200.4,,66456.6,,85111.6,,68472.4
,90188.1,,107880,,88387.6,,62557.5
,97981.2,,90771.8,,104234,,71345.1
,98070.3,,64719.2,,80896.2,,58048.5
,92484,,75420.8,,92891.4,,61388.1
,91734.3,,92505,,122982,,70958.9
,98132.4,,99743,,103431,,65110.6
,57663,,32600.4,,60712.4,,55169.9
,143510,,104948,,114506,,64344
,73765.8,,69645.8,,94248,,72767.6
,90747,,74611.6,,93788.8,,61828.6
,93690.9,,67043.2,,91914.2,,61419.7
,110835,,167922,,136935,,85986.9
,94160.7,,82455.8,,91912.8,,57116.1
,103690,,111630,,100960,,80905.5
,95235.3,,76721.4,,89313,,57704.9
,94363.2,,61546.8,,80283,,58521.2
,103908,,84497,,102494,,79809.8
,89896.5,,67582.2,,80095.4,,59781.4
,103928,,91705.6,,98452.2,,56222.2
,97080.3,,120411,,118957,,56672.2
,104715,,80185,,85562.4,,59685.6
,86756.4,,48609.4,,89324.2,,61240.9
,82517.4,,51536.8,,68425,,56261.4
,104391,,86592.8,,105829,,81144.7
,98207.1,,71758.4,,96223.4,,67077.1
,99601.2,,90454,,81184.6,,55106
,97169.4,,91683.2,,92195.6,,58243.6
,101600,,108119,,124554,,59532.6
,90691.2,,86535.4,,88501,,64203.8
,70451.1,,45946.6,,70100.8,,60152.8
,85556.7,,90868.4,,96625.2,,85596.4
,91846.8,,78757,,103741,,64407.2
,100562,,86938.6,,82035.8,,61093.6
,91935.9,,69183.8,,83258,,55300.2
,86248.8,,84823.2,,90482,,56033.7
,110813,,125262,,107234,,54982.7
,86118.3,,92062.6,,102098,,56499.5
,82998,,110680,,120280,,81794
,103215,,75054,,108532,,60705.6
,95424.3,,67970,,90449.8,,58837.7
,89452.8,,64355.2,,81174.8,,55880.6
,101387,,101254,,112759,,85686.2
,62814.6,,38785.6,,52357.2,,54678.2
,97568.1,,77765.8,,107937,,78275.8
,94624.2,,91494.2,,102040,,54935.1
,109181,,89940.2,,119714,,73674.5
,127876,,101636,,112794,,70126.6
,88185.6,,83262.2,,84109.2,,64162
,100847,,83468,,107517,,69089.5
,90175.5,,69496,,95580.8,,55712.5
,90772.2,,78066.8,,87439.8,,68131.9
,115870,,132510,,92150.8,,56617.1
,101774,,89894,,105911,,81893.4
,99215.1,,99003.8,,99636.6,,55068.4
,112702,,99356.6,,78807.4,,55718.5
,82520.1,,72930.2,,88958.8,,80310.2
,96070.5,,96530,,103030,,71728.2
,105507,,143392,,114537,,79124
,67451.4,,63530.6,,84274.4,,63794.6
,108663,,109085,,104705,,54726
,75046.5,,70466.2,,94719.8,,63900.2
,101987,,100198,,95148.2,,64084.2
,76306.5,,69780.2,,92255.8,,55990.1
,106042,,81649.4,,93651.6,,71499.4
,88584.3,,137243,,106600,,63618.2
,104773,,91337.4,,108079,,73640.6
,92994.3,,91095.2,,93399.6,,76792.6
,78922.8,,78768.2,,77711.2,,55663.6
,87076.8,,61902.4,,76055,,60840.7
,83680.2,,76269.2,,87813.6,,66153.5
,91265.4,,61982.2,,109691,,55559.9
,100702,,79433.2,,95481.4,,63291.7
,89903.7,,58965.2,,87551.8,,59356.6
,108118,,115819,,112603,,57900.7
,95134.5,,56882,,84977.2,,65624.3
,81654.3,,72612.4,,84707,,63575.1
,97234.2,,76886.6,,98781.2,,72438.5
,101867,,88695.6,,103706,,68869
,116742,,105458,,114509,,61389.9
,100013,,68738.6,,107940,,63662.5
,82146.6,,91425.6,,82747,,69377
,104839,,70093.8,,89748.4,,64891.4
,90525.6,,93802.8,,104492,,75399.5
,87523.2,,102395,,103125,,75226
,98744.4,,117349,,132741,,80715.6
,93834.9,,140274,,107958,,62560
,97305.3,,84603.4,,112122,,58479
,73643.4,,62049.4,,58801.4,,55855.7
,164736,,207833,,155620,,57346.8
,114721,,126491,,116222,,69076.5
,101249,,94187.8,,120319,,76923.3
,99510.3,,71982.4,,94201.8,,55603.9
,99365.4,,91750.4,,98981.4,,83216.5
,91644.3,,79039.8,,96643.4,,63030.6
,96288.3,,89611.2,,96763.8,,80153.6
,72527.4,,94109.4,,127138,,55220.3
,49926.6,,30534,,52094,,66908.8
,68699.7,,91621.6,,99537.2,,71047.6
,80475.3,,86497.6,,116631,,79506.4
,99738.9,,76235.6,,96257,,66321.2
,105492,,101657,,106071,,79644.5
,91348.2,,94362.8,,104289,,68582.2
,96308.1,,102908,,120488,,70804.4
,117734,,126507,,150758,,71762.6
,95761.8,,88408.6,,91354.2,,62668.7
,93366,,83973.4,,89509,,65908.5
,89692.2,,54419.4,,150903,,58819.7
,90842.4,,78670.2,,89294.8,,63953.8
,80469.9,,94136,,91987,,64341.5
,85158.9,,75842.2,,96784.8,,56408.8
,110238,,114300,,120268,,80493.8
,88320.6,,93189.6,,98268.8,,81824
,135320,,125766,,140458,,88573.2
,106519,,111345,,102911,,62121.8
,81790.2,,121089,,100069,,63852.4
,78021,,58900.8,,67767,,56618.3
,94584.6,,89257,,95484.2,,76985
,106753,,83246.8,,110460,,70094.9
,92091.6,,59253.6,,89791.8,,61700.5
,79893,,91512.4,,89867.4,,65775.8
,140926,,135813,,116771,,55015.1
,92228.4,,65115.4,,81649.4,,55464.9
,155214,,152382,,195527,,75489.2
,70884,,78258.6,,106992,,84298.1
,97645.5,,82628,,115039,,71736.7
,99828,,98900.2,,124047,,88124.4
,70857,,81272.8,,115332,,79312.2
,98458.2,,93746.8,,97946.8,,76549.8
,91681.2,,93671.2,,104679,,62380.8
,86978.7,,78709.4,,94036.6,,56201
,87435,,63075.6,,78225,,56075.2
,100999,,86074.8,,100050,,75695.7
,119307,,92671.6,,104377,,81073.9
,99777.6,,92743,,108142,,67619.6
,94639.5,,77144.2,,92706.6,,55121.7
,83434.5,,87166.8,,89847.8,,88796.8
,48275.1,,43939,,74207,,64123.9
,95494.5,,74351.2,,87936.8,,62720.2
,86040,,79402.4,,113000,,66802.2
,111515,,108753,,105041,,68485.1
,109829,,87529.4,,96825.4,,60940.4
,104681,,107031,,119707,,77734.7
,84116.7,,67858,,87462.2,,61719
,84371.4,,80171,,95597.6,,55856.1
,79676.1,,63008.4,,81548.6,,55989.6
,105828,,92058.4,,102865,,57587.5
,66261.6,,60334.4,,91443.8,,57131.1
,97641,,76983.2,,91186.2,,67334.3
,100715,,74040.4,,95358.2,,71405.2
,108256,,111758,,123162,,81202.8
,95406.3,,83825,,107099,,76729.9
,90914.4,,66893.4,,91341.6,,59902.8
,115736,,114066,,128171,,78022.1
,102160,,106610,,95690,,68405
,77511.6,,89077.8,,99638,,67030
,59292,,39426.8,,59238.2,,55140.5
,93102.3,,107031,,92302,,72894.7
,76548.6,,63226.8,,97025.6,,59383
,103709,,68716.2,,88256,,69335.7
,95220,,73596.6,,86811.2,,55868
,165458,,186159,,154475,,63785.6
,103997,,92220.8,,102273,,69788.6
,95739.3,,80883.6,,103274,,68193.8
,114939,,97717.2,,92814.4,,55771.5
,81671.4,,77000,,81904.2,,55595.2
,111838,,110608,,121131,,72776.4
,105081,,98560,,111737,,70157
,108106,,94269,,117139,,82109.3
,103450,,70266,,97631.8,,56471.8
,89482.5,,98497,,127050,,83185.9
,97673.4,,96059.6,,92796.2,,81403.3
,98326.8,,93311.4,,101702,,65824.5
,105538,,105143,,109438,,85358.8
,77776.2,,97764.8,,109410,,70126.4
,105394,,100654,,102508,,65096.7
,113180,,101962,,128701,,85882.6
,81767.7,,59334.8,,78717.8,,64327.7
,96174,,92855,,105070,,73292.9
,92675.7,,127037,,130089,,55734
,81126,,49256.2,,59606.4,,69809.8
,92176.2,,68679.8,,78925,,60766.7
,81700.2,,91366.8,,79623.6,,65785.7
,129774,,155533,,131222,,62257
,105958,,94210.2,,106905,,67248
,134518,,106198,,110772,,55635.1
,63802.8,,37543.8,,58038.4,,73915.3
,89417.7,,84044.8,,95743.2,,62579
,93808.8,,75552.4,,101146,,71582.9
,96644.7,,72786,,92255.8,,78237.5
,88677,,58340.8,,80959.2,,59905.4
,57841.2,,40265.4,,57244.6,,58891.3
,91987.2,,90143.2,,122436,,76235.2
,100678,,78248.8,,93994.6,,73226.6
,82069.2,,71939,,76997.2,,55895.1
,100039,,65342.2,,103190,,60134.4
,143716,,124727,,117370,,55053.9
,104564,,88177.6,,95338.6,,87314.1
,111580,,129087,,124865,,79931.3
,89731.8,,83560.4,,102234,,64272.7
,111532,,91606.2,,106814,,67832.5
,104282,,114573,,106201,,69726.1
,101157,,86968,,98168,,74580
,101418,,73574.2,,99761.2,,82653.5
,94627.8,,71384.6,,95706.8,,67880.7
,100876,,80740.8,,90448.4,,62150.2
,116907,,112238,,131734,,78217.1
,92897.1,,56410.2,,62259.4,,79805.7
,104396,,115230,,108508,,82700.5
,92969.1,,78125.6,,89128.2,,58799.7
,93005.1,,93156,,84870.8,,57421.5
,102159,,67880.4,,91044.8,,78758.1
,96440.4,,73584,,86087.4,,59807.1
,93636.9,,70894.6,,87346,,57592.1
,101745,,88550,,122966,,83583.3
,88446.6,,66029.6,,77655.2,,67225.5
,86434.2,,57251.6,,85174.6,,64183.2
,112389,,97694.8,,101956,,73535.9
,92776.5,,87515.4,,113963,,78889.6
,81067.5,,106336,,108682,,61160.5
,94487.4,,82920.6,,108468,,55117.8
,81339.3,,70912.8,,98191.8,,71031.5
,92145.6,,68912.2,,92339.8,,59982.5
,70056,,41708.8,,61609.8,,68315.4
,81837,,60288.2,,82436.2,,55950.2
,101329,,94728.2,,101125,,67012.7
,113117,,118259,,105675,,57303
,96549.3,,89499.2,,93839.2,,57005.1
,101334,,87733.8,,103814,,87672.5
,100343,,85748.6,,96804.4,,54984.2
,109756,,105956,,118073,,73575.8
,101679,,113667,,106695,,82817
,100057,,77623,,92878.8,,65836.4
,94033.8,,74040.4,,102500,,68730
,93698.1,,102648,,99629.6,,63288.1
,101906,,101426,,121506,,83161.4
,106585,,90603.8,,112652,,80272.2
,110523,,95788,,102164,,70722.4
,105949,,78264.2,,88708.2,,73738.3
,82150.2,,52330.6,,87099.6,,57549.6
,107855,,102351,,106942,,77063.4
,99168.3,,82870.2,,88348.4,,72177
,106688,,101052,,91207.2,,58933.5
,107653,,100528,,140354,,69194.1
,74128.5,,71986.6,,97109.6,,63381
,83178,,103067,,126249,,78380.7
,137722,,161119,,129560,,59611.1
,80990.1,,68899.6,,103874,,58914.2
,97502.4,,103999,,88894.4,,64657.8
,84438,,68297.6,,82059.6,,55779.7
,84138.3,,58059.4,,92649.2,,60963.3
,68916.6,,81855.2,,68352.2,,59316.2
,100284,,107696,,120690,,86223.4
,128417,,138299,,148785,,87204
,97648.2,,99197,,98673.4,,61609.4
,91161,,73283,,110558,,67680.4
,89479.8,,110492,,132489,,83714.2
,69606,,80131.8,,114493,,82505.2
,90749.7,,69133.4,,92650.6,,56262.1
,114668,,128797,,129790,,59559
,84191.4,,95307.8,,92825.6,,56795.8
,116959,,111798,,124862,,80205.9
,73112.4,,105354,,126346,,82311.1
,66898.8,,94274.6,,113147,,81645
,94785.3,,82230.4,,82199.6,,61795.8
,90049.5,,70327.6,,108535,,83539.5
,102582,,87026.8,,105088,,67403.8
,81936.9,,74554.2,,83027,,57906
,65503.8,,82045.6,,96128.2,,60087.7
,102573,,97035.4,,122006,,77426.2
,105151,,74790.8,,96439,,72618.5
,97653.6,,124828,,98340.2,,56482.7
,67743.9,,33539.8,,51952.6,,56795
,104350,,102274,,121022,,78225.2
,92498.4,,78675.8,,103296,,70207.5
,114519,,94595.2,,106113,,68102.7
,92440.8,,89874.4,,87950.8,,60082.1
,105412,,95047.4,,115977,,82201.1
,90476.1,,78248.8,,96105.8,,71152.8
,88087.5,,68215,,79569,,57520.8
,97911.9,,73361.4,,97643,,82930
,133718,,124475,,137897,,73273.3
,99389.7,,69868.4,,97395.2,,75042
,98082.9,,82180,,101392,,66707.1
,95436.9,,104944,,117694,,72580.8
,137370,,144603,,152391,,83639.7
,111543,,119260,,118486,,75737.1
,85997.7,,68216.4,,82875.8,,59864.7
,90898.2,,92450.4,,108828,,82241.8
,97623,,82724.6,,91564.2,,59223.8
,90795.6,,77002.8,,77896,,57599.8
,103206,,96191.2,,121292,,79071.7
,103367,,99325.8,,107530,,69685.5
,100447,,76797,,98676.2,,78273.5
,97803,,108052,,104026,,84500.4
,90751.5,,71078,,100951,,79826.5
,92286,,85590.4,,107614,,71596.1
,102705,,103215,,113270,,74622.1
,98763.3,,103590,,102927,,66591.4
,79870.5,,94907.4,,91751.8,,58348.6
,102130,,89772.2,,95214,,77731.7
,84088.8,,85520.4,,93934.4,,59797.3
,74367,,69830.6,,79886.8,,61873.9
,90961.2,,125055,,110746,,70134.5
,108108,,97055,,124191,,78779.5
,102926,,84068.6,,119108,,73413.3
,72013.5,,34984.6,,61618.2,,55939.1
,97925.4,,95904.2,,102641,,77620.2
,84677.4,,96986.4,,108406,,76611.6
,72169.2,,84032.2,,90508.6,,77468.1
,86403.6,,68698,,87670.8,,54958.9
,65227.5,,72850.4,,94004.4,,87283.6
,131872,,236891,,189801,,71865.2
,98465.4,,72501.8,,92583.4,,60331.6
,110854,,109602,,129601,,79834
,96549.3,,87724,,92547,,69511.4
,91890,,80668,,90620.6,,70043.8
,137336,,163654,,128866,,60379.5
,82162.8,,64355.2,,69022.8,,54935.3
,95594.4,,79125.2,,106141,,73819.2
,75420.9,,131501,,95277,,58508.7
,98824.5,,124341,,107835,,73628.9
,90123.3,,87971.8,,100244,,64734.7
,91719.9,,86191,,87301.2,,58377.8
,74301.3,,101423,,94196.2,,61796.3
,110823,,101735,,110793,,86872.5
,102154,,86231.6,,94619,,58007.3
,91793.7,,83083,,89530,,61276.5
,88793.1,,68951.4,,92045.8,,55862.3
,89683.2,,73624.6,,98784,,70941.8
,83973.6,,78241.8,,92724.8,,63602.3
,97291.8,,102742,,101409,,55930.7
,108083,,99747.2,,112126,,84299
,102010,,89517.4,,82322.8,,60584.3
,97659,,124064,,115230,,79479.9
,96640.2,,127144,,131867,,76634.2
,89885.7,,67937.8,,99643.6,,76282.3
,106695,,86388.4,,107143,,79918.8
,96669,,77550.2,,92092,,61433.9
,91993.5,,130591,,118506,,73971
,97484.4,,104433,,115165,,87899.1
,97971.3,,78572.2,,104269,,61727.2
,83412,,45427.2,,78068.2,,55566
,95269.5,,69735.4,,95704,,55895.4
,103534,,77029.4,,109647,,78243
,84362.4,,72548,,91665,,69775.9
,102412,,88718,,115104,,74290.7
,97861.5,,90297.2,,98257.6,,63330.4
