"FSC-A","FSC-A","SSC-A","SSC-A","FITC-A","FITC-A","Comp-PE-A","Comp-PE-A"
90596.7,101815,97517,88688.6,103061,99012.2,93952.1,95956.7
107648,80569.8,105511,88209.8,112178,103746,89638,91270.3
92972.7,141398,140423,117078,102763,133452,96969.2,94621.4
106389,83448,138349,166965,123474,132390,93033.6,94650.6
101090,126530,149439,162578,131435,130526,95746.7,93581.8
86040.9,97874.1,67603.2,139590,77148.4,122324,93031.4,92984.9
124433,142379,138958,182466,109546,150003,90362.5,100059
134909,133005,172445,117544,150452,112122,97195.4,95957
100392,101489,142157,82847.8,144540,98267.4,97124.7,97457.8
103277,91654.2,106931,99433.6,110582,124138,93368.1,92939.8
131855,111854,152138,136837,125441,147815,92492.6,95050
129496,122898,140902,115952,119433,136200,90278,94784.4
123883,133335,162908,150014,122552,142331,91432,95909.4
125578,118696,180566,204187,123374,162763,93835.4,105808
144481,138357,176583,151731,150606,145481,91386.6,94542.3
130440,107338,191079,101081,120410,99699.6,93067.4,94903
79837.2,125276,120688,132880,109850,123312,89548.7,98341.5
112408,109933,122440,101718,112623,95586.4,92206.9,92977.5
130692,163064,181731,214521,139273,174117,94732,93816.8
127541,99054.9,134051,143304,120235,124761,91958.3,92609.5
61724.7,125243,116404,160719,135344,151166,91526.9,90381.1
108843,99522.9,107110,151526,105532,145767,90496.8,100938
105527,89541,111828,143031,137113,147812,95602.3,100022
142507,81873,179012,98323.4,128369,98582.4,91720.6,90685.3
104119,155002,133036,164324,105953,165990,91040.8,94239
141088,91130.4,200539,122297,134494,110543,97125.6,89214.4
108719,106875,147958,87494.4,132832,103372,92512.8,91395.1
132656,137696,190498,180555,150364,191380,94198.6,98956.8
130022,100965,187092,109507,153167,118378,94475.7,92084.8
109621,81424.8,131904,159195,92124.2,143671,93174.9,88998.5
101092,126825,96929,106760,112154,121785,89879.8,94884.2
147701,99560.7,155709,75482.4,146231,92272.6,94214.2,88830.6
113231,122476,171550,147581,159005,129542,91385.2,98929.4
119315,131883,166708,177185,136877,170159,96778.9,94602.8
96551.1,118130,90703.2,132481,109871,123620,93578.5,92076
140042,134899,156642,148574,128758,125443,95627.2,94490.4
97578.9,132232,153398,138379,129199,136188,92643.8,94377.5
77247,122011,58511.6,165934,67944.8,166323,91572.3,95906.3
113029,131563,193201,120830,107430,148162,92551.2,96106.4
127736,134600,192095,110067,120646,115994,89597.6,89893.4
139019,121122,142722,127978,130248,131671,95952.8,94458.1
123736,95832,151294,129762,121167,144796,94864.2,95735.9
124797,123833,156723,129032,116320,142695,95622.4,89144.8
116320,110294,146836,135579,113918,149848,93057.9,95808.6
125840,143968,184114,108732,147490,135568,95591.6,89925.2
100876,129532,195765,133354,155371,116354,95996.3,93500.1
116215,109948,119675,174094,103303,126930,89044.3,98292.3
121285,102334,169512,133533,165399,133874,98500.6,98276.2
122126,108604,137360,143226,134966,135279,95091.7,95571.2
144248,109925,184054,118349,141477,118219,89713.3,94834.9
121547,117363,191509,95856.6,147150,129532,92413.9,91617.6
127614,108372,143982,118786,151071,134404,96680.5,97872.4
82574.1,127648,86121,231441,80995.6,204029,93831.6,96752.7
107238,130910,177709,139576,166158,133844,89852,90239.9
97225.2,130279,119858,157986,121869,153483,96890,97792.8
125324,121396,186535,147706,146175,125439,89249.1,98526.7
106700,104910,104948,188334,114932,132528,90129.8,97298.3
110347,139118,159545,188399,128569,155288,91410.6,95639.7
133887,91166.4,166751,132080,130309,138481,89964,97791.7
112136,120560,112973,132730,121383,143839,89590.6,101203
104302,126075,109557,177825,111390,139341,92833.4,94107.9
115481,116507,159737,130998,135904,107180,91764.7,89115.4
149546,109793,151787,147414,132280,143114,96816.3,92278.9
97312.5,137216,123095,160317,125574,156174,89697.4,97633.2
108965,106124,119267,155784,116637,140577,95821.8,97923.5
108320,68392.8,151844,173460,150303,180837,94636.3,94215.2
119462,116058,180995,137532,150226,141684,97545.6,96583.6
81491.4,120372,142579,127816,139181,146593,89880.3,95054.5
96812.1,148669,141722,139793,135432,143354,96510.4,95405.7
105488,129924,158039,210144,123669,169964,96275.6,92615.2
111416,126252,158393,181714,129672,213184,90026.1,100669
101485,137895,117478,155123,113331,180146,90854.2,93290.8
99215.1,123632,116175,106841,116789,155138,99187.2,96129.8
133143,123229,155214,133269,149365,120469,90296.9,89282.4
104581,131460,92493.8,127120,104748,166328,98548.6,94882.7
133491,151368,130183,155505,115336,125444,95029.8,94280.3
132192,122354,157555,161762,141063,135874,89988,104954
99107.1,118410,143405,156395,132338,161302,98732.2,97099.5
105083,105746,165677,120543,148207,131307,97097.3,97801.1
103496,139000,141974,180237,136800,144350,88838.2,96835.1
130057,121514,159446,154186,130109,164888,97745.9,89376.7
134601,113193,190242,120485,133230,109712,88847.9,98798.1
103868,92397.6,103454,118565,95522,140452,92159.6,92336.6
72806.4,130270,67319,224490,90428.8,178867,104267,92292.3
110641,147180,89962.6,170306,100764,153359,92576.4,98560.6
106893,124808,135115,159590,139385,157833,94422.5,98641.1
123242,98100,192728,137206,160714,136000,95706.5,97505.2
119336,113859,144036,157165,115611,146180,93207.8,92324.8
139147,93026.7,190474,168049,143987,144640,95518.9,96762.5
145372,127288,123073,186567,154276,163440,90653.5,104767
147480,136368,170663,158952,164062,148177,97725.4,97291.7
119109,129226,155324,152608,134557,145209,96942.6,91514.6
109516,132566,138860,162288,122291,174888,89794.1,96475.5
86506.2,100142,148793,128677,151355,136462,91841.1,90822.2
99008.1,127328,110909,141952,117690,136930,98440.4,98398.1
138314,139283,180652,176838,168266,162516,89756.5,96818.2
81853.2,117068,172123,123830,145239,131554,96862.9,90913.6
69454.8,106500,129097,93643.2,154722,117772,99383.7,95848.7
80048.7,153336,116808,208212,114579,158943,89864.6,93606.5
135449,138884,184001,149026,184957,137473,97756,93285.6
128326,108382,184475,111329,141249,115003,94353.1,98112.7
77799.6,153931,74720.8,164804,81040.4,148581,93204.1,89583.3
116392,121631,104486,147816,111427,154939,93956.2,92423.1
148936,80490.6,134336,128267,115440,109945,92673.9,89384.1
119566,89700.3,132157,86895.2,123752,101223,93542.4,91623.7
115463,148647,156818,154648,140395,188441,94802.8,96608.6
97212.6,98639.1,169456,107457,159183,112974,91545.1,96577
83516.4,123592,109547,134728,114397,117911,95261.5,90333
126986,106386,157018,120256,140928,113784,95012.1,96341.8
141726,121119,156211,142702,120399,121170,90186.6,92377.7
116102,133501,143574,160059,162693,155299,100787,93948
147913,141242,141099,121685,134823,138110,93958.9,97723.2
116015,124037,167055,169128,137430,153369,94319.1,97765
132451,97289.1,127396,143014,120635,128820,91014.9,93060
129992,141443,179197,141754,131891,136322,96199.7,99878.6
76180.5,105250,56950.6,174507,70130.2,155203,94191.2,97156.3
105330,122008,108053,163547,123864,135867,90477.8,94368.6
124377,85068.9,144337,106156,129410,124796,95440,91258.5
117521,75414.6,145970,67943.4,122214,93308.6,94897.2,104655
114055,116990,124078,106651,125944,109606,91220.5,89262.6
115817,136609,102578,169053,117649,164854,92994.5,99399.1
110174,99665.1,144718,110380,136889,140322,90162,89638.2
117334,105957,123273,161847,125923,166928,93181.3,90701.9
107426,111544,117999,134494,107390,116053,99424,94365.6
79667.1,130862,102126,153244,96714.8,164842,97427.2,97323.4
96911.1,134259,152673,176854,141695,175111,89119.8,95356.8
92619,138283,128740,158561,125850,130628,98057.5,88889.3
71001,121903,144918,179158,130322,136587,92191,90457.7
119011,101369,107904,113726,122947,120352,89529.8,93659
127810,141818,137495,127249,124844,125441,92848.5,91617.6
110306,121903,163100,152664,136732,125056,97550.2,88921.9
132595,147578,189704,173844,161287,155504,94573.1,101217
92432.7,113601,101312,130221,87966.2,131303,95948.1,101108
117067,113698,124506,147199,111362,152390,90573.5,93460.8
108584,114404,106253,114639,100304,123918,98556.4,91744.1
154310,124963,122307,136668,131268,122144,92741.6,94065.5
88182.9,116337,86027.2,135111,82279.4,158260,90519.4,97458.7
128908,126354,162764,159251,143843,150367,95440.4,96113.7
108168,125310,139114,143080,131985,143661,102230,91611.3
127210,124365,131617,167315,121156,154707,92857.1,95541.3
116664,93592.8,162315,104602,147552,140395,99376.2,99303.8
97815.6,120337,141410,176611,127919,148407,89388.5,96791.5
99018,130207,82747,122658,83986,147799,95417.5,99919.8
79965,111406,146602,126715,154381,140350,101179,91275.1
148930,118305,155446,135099,139318,156213,94033.1,91139.9
130314,132523,175335,153926,149173,191146,100502,93263.4
115874,138589,113469,166082,109033,143555,94805.9,106059
128164,107603,178641,102717,136716,116098,97697.8,92584.5
100899,145248,168056,189820,141228,147396,96150.1,101745
145685,136877,194240,170579,165333,147631,94473.9,98807.6
84499.2,87629.4,78044.4,133780,89073.6,133711,95514,93152.8
140966,136295,200875,137038,150832,144626,92317.4,90436.4
72817.2,129739,126204,155575,108895,152503,96009.6,98047.1
118672,127763,140580,150763,100409,123096,95998.8,94250.5
145924,107984,182409,115359,140426,117078,94307.4,98812.2
125654,93196.8,99299.2,160853,106912,170824,99710.9,98749.5
89549.1,123175,121545,99506.4,104058,110302,97992.4,93573.3
117845,83341.8,129326,107607,111532,127641,90964.6,93305
102312,146596,72137.8,135887,91301,122744,93277.6,98227.3
74028.6,113898,101111,129923,113040,121527,91379.1,96988.4
107276,115982,164248,147612,144871,144641,98736.1,93433.2
129187,139919,141042,170360,130497,119505,90514.1,99394.8
124692,82752.3,126665,168703,120774,166627,92727.4,94521.4
125278,141768,172556,134425,158675,140788,97472.4,97764.2
122877,145279,156678,153252,115591,143751,91618.1,95764.5
127422,96035.4,155989,121044,124530,122258,92059.7,90687.2
128087,148149,170465,156321,138466,166480,97104.9,94200.8
128619,136974,150748,133732,121491,152839,94051.2,89005.7
131202,99144,177451,94505.6,160758,135106,93823.2,89871.4
131345,106568,123676,122832,113904,123788,96918.2,96446.1
136915,127039,154244,104674,133350,122114,93788.1,90407.1
132539,89266.5,152547,135517,139978,129570,95303,94578.5
109765,104971,132684,154840,140004,127852,97512.6,100114
92817.9,129636,118804,114264,111406,144133,92338.6,96118.1
109190,117905,181024,165176,137248,151203,97666.4,94221.3
109721,135340,132329,201431,105935,164881,89137.5,99678.1
149977,123253,170247,117965,144960,121971,95929.9,99516.7
133968,84750.3,171791,112545,134379,134845,96456.6,100439
113099,134225,142734,214045,124016,160304,91587.8,96731.4
139224,130643,173453,142702,137102,125339,93162.5,98408.7
129715,150364,187803,215285,146926,214161,97921.6,99990.9
126033,118646,167300,127698,130075,140384,95810.9,96218.6
118554,153501,137704,173225,120607,153598,91419.1,98666.3
118512,128546,123389,119825,108441,130756,93750.4,91936.5
76331.7,145811,169491,125740,140158,197243,94524.8,91267.8
93391.2,133932,136455,146525,120414,170194,98975.3,93765.6
119571,117269,189532,130829,138608,115934,90000.1,98483.3
113517,131095,150529,119266,132087,142282,93434.3,99099.1
111269,97320.6,144584,120343,121040,120337,92367.3,100031
120714,114388,130159,113102,118622,142304,98651.4,91380
74922.3,116734,43190,176837,62575.8,142786,89834.5,91347.7
123055,119100,123339,149989,113564,123040,92685,93185.9
98966.7,135747,77436.8,139390,89670,156422,91383.7,97924.8
114854,94222.8,146278,111518,136669,156170,96623,99723.5
115063,123029,117111,138341,109196,141908,92673.2,92824.5
97751.7,110163,137724,147055,119288,170681,93987.8,104657
112913,136141,169039,143969,126151,118665,89893.9,94061.9
139674,118790,198631,141842,158831,149925,92509,96396.5
112987,90551.7,100538,103943,108154,133197,93289.5,94601.7
121572,149888,114178,137302,101322,137861,90577,96313.1
104308,139205,156555,120525,141511,123325,91380.8,90701.3
139498,125195,156272,144346,142576,135481,93189.7,95979.3
89651.7,140275,158025,153530,131396,143542,94261.4,96805.6
142425,131521,201484,123960,161287,135143,94972.1,100971
132200,126948,121458,127362,118040,133234,99965.7,96197.7
105386,119732,155351,121146,117261,115777,96488.3,94405.5
93324.6,114422,114369,132716,122377,129353,91895.1,90699
117082,122385,191491,144242,150312,136877,95156.7,98778.1
129887,150188,197684,136494,147853,120957,90389.4,91272.8
111137,140422,121124,153839,121002,159921,89087.1,97955.6
92713.5,161916,142985,166548,119067,153495,101026,98101.8
120875,153970,157850,156517,165491,145260,92685.7,96330.1
120604,131790,167681,148373,119227,142913,94992.6,96487.9
134033,131048,166058,177363,126536,166576,90598.8,97790.9
75451.5,110705,131775,151777,117936,131404,97374,101533
105333,117922,131352,130291,115574,128512,95832.8,94548.8
99324,142418,163541,120100,132609,173779,89864,98368.4
120515,113102,144221,114929,123441,104901,90769.6,89239.8
124564,87565.5,144332,76036.8,126116,88589.2,89066.4,97146.6
112853,112754,118091,144227,121366,142139,89862.9,100531
90736.2,109904,104681,162358,81533.2,152677,99749.9,96805.7
104069,78318,182815,177237,159285,153875,96693.2,96411.5
126839,132084,121782,132744,136940,109371,96299.1,91120.9
146667,73820.7,189087,122528,160881,126830,97441.7,94742.9
100335,100643,165101,97449.8,139419,97375.6,95863.3,94589.5
113060,125890,166415,146752,127427,136366,89968.6,91867.5
66524.4,95220,120406,127208,124104,138125,94636.4,96683.8
123883,119930,101765,92975.4,161438,109463,91596.5,99139.4
130245,119017,156687,137028,128670,136655,94093.3,102407
111462,117224,116997,105630,122606,110040,93419.4,96911.1
120254,96973.2,156985,144322,114516,152876,96048,100720
78756.3,132036,137810,180172,132572,143934,90719.5,97763.7
98116.2,142822,90935.6,195429,95653.6,167811,90673.4,98180.8
140742,104432,174584,121262,139007,148267,91025.1,98476.9
151254,104232,144682,171097,153664,163890,92398.8,100182
90213.3,97858.8,117083,130248,122955,132850,97796.5,97661.3
131973,109180,158953,139560,137563,130375,97679.6,100506
108616,87160.5,153570,106137,125188,117911,95603.3,97401.6
128655,125162,138510,134205,116344,144444,93508.9,97357.9
89668.8,89378.1,170120,72787.4,131258,127064,98392.4,90849
104167,90011.7,155383,109376,131897,133627,93974.9,90974.8
121832,141296,196276,183578,150753,153762,94853,88962.2
134116,99232.2,144486,137808,120592,122378,89332.3,93272.6
128279,71266.5,197540,137262,160406,149838,93734.4,88986.8
122529,109905,154360,132094,136893,140347,95500.1,99664
122293,133516,131006,120547,115731,122338,91612.8,92395
131279,139690,165130,168420,114310,137962,96219.6,99463.5
104047,77082.3,139209,69715.8,126475,89885.6,93761,92886.1
126009,133470,162462,173544,132087,179991,90387.9,94770.9
120761,134288,117677,213080,138856,159624,90837.7,91921.7
108963,125384,140129,105718,121622,124790,94665,89704.8
115188,102291,143541,152631,123882,138795,94674.3,98177.4
111831,127208,135433,121811,125756,120095,90305.1,105047
114866,132207,101284,142526,113777,146335,98180.3,92076.7
122255,123106,86389.8,104672,92099,111489,94221.6,94274.4
127617,142970,139530,165444,121040,142037,95989.1,101525
152500,155184,156608,167096,167366,154809,97622.3,99026.2
111062,143294,185387,113834,181853,131169,98757.4,93693.2
112022,116374,134315,137550,109437,114605,90454.8,98295.8
116070,122900,126224,160153,117597,156251,90914.7,100580
79685.1,124075,108858,132843,115902,144955,94098.3,92822.1
99783.9,114102,85443.4,111997,94228.4,128341,98276.3,100525
69248.7,111115,165945,141481,146791,142276,93890.5,99666.3
138884,103442,197173,104010,157902,94437,96716.3,96913.2
78252.3,130801,25627,129683,73670.8,126734,91756.5,89465.7
121211,103309,133434,157072,115969,147890,96951.8,90508.4
141560,115861,163461,149568,139255,173174,95383.7,98730.2
113627,131575,141646,146731,119913,129815,97444.5,90632.4
116585,131667,180865,133433,138289,132544,93027.8,100827
115196,141878,123066,144082,106175,148168,89558.2,89750.2
123240,109680,154013,122877,131307,143349,95453.3,95270.1
138006,98645.4,179719,120960,130063,113337,94867.8,98037.4
90537.3,105618,133839,131753,120292,160819,100502,101623
137390,134263,146098,164752,125719,147125,95245.7,99077.5
123055,126453,154452,103333,151273,118083,98574,89744
115482,135829,159223,138300,121162,142349,97496.5,97716.1
102536,132045,182715,156318,144416,138653,96562.4,97678.8
140672,85384.8,178402,162046,138226,148264,95424.2,90730.8
122054,89234.1,155820,125936,147343,119449,93697.4,91988.1
108122,119116,156730,156985,146320,147196,98686.7,90910
135042,105664,167885,132539,126364,128486,91592.4,94997.7
128548,122143,134763,120810,126745,117697,92035.7,98484.9
120455,111620,111478,107075,116437,111626,92053.6,92856.6
134194,140030,125416,165960,116957,166117,91598.4,98015.6
131195,97397.1,155961,123040,125257,155107,91907.4,90551.9
123728,131152,132166,117452,123453,126435,89776.6,91073.1
110344,122360,160402,127505,134480,111534,93391,98049.9
94514.4,107247,164770,99348.2,140770,111727,96909.5,95972
113990,117686,128159,119889,121152,132527,88975,94089.6
112631,132770,126911,175937,121925,155715,91355.1,98101.4
93292.2,127017,163915,143676,139719,136944,92657.1,91306.5
141772,119529,119932,127701,118581,121832,100022,99274.2
83250.9,107627,150914,105588,159359,133294,96456.5,89796
118060,125067,185224,164220,120232,144595,91567.8,99754.6
90206.1,115678,142264,161238,128734,175339,92739.9,95609.9
105706,123606,144053,122952,119192,116698,96224.5,92899.1
142654,86456.7,154027,149877,121517,142033,98572.1,101882
101021,122067,118446,157791,130490,161158,92254.6,100431
104994,86681.7,91229.6,129724,83220.2,120516,96932,91152.4
105737,121509,131331,183245,108160,139706,96794.9,93014.6
111893,117895,153065,163079,115853,112914,95669.6,89353.9
140667,71327.7,192326,99262.8,154675,114530,97429.8,100567
128873,149559,154717,193491,144943,146005,97100.9,98954.8
130414,99111.6,177201,96247.2,167741,100996,95848.2,99029.9
129636,121999,121090,131027,111222,133230,90454.2,94279.9
97367.4,114722,176403,106666,153810,109003,93378.8,99403.3
110671,74871,121981,46183.2,98553,73658.2,94374,99024.4
116276,128121,128971,155631,124762,126626,95970.8,92652
105204,128212,132174,114943,131905,122445,90604.8,99402.1
114209,121103,151348,105066,137049,140288,93990.5,96958.6
123784,121955,160881,169364,108217,162924,91276.8,97757.5
81303.3,109994,124957,81337.2,119326,108654,96121.4,98225.1
118491,102378,141239,120799,132903,101454,94219.5,94655.8
97888.5,125360,148767,140246,123145,136206,97435.1,101588
137389,108722,139460,141939,130056,123323,90698.9,101652
107571,116420,157773,127303,114983,120616,90613.6,88977.2
111308,109602,108220,117340,99600.2,118870,93369.6,99752.1
132558,114297,152186,121706,130493,140729,90477.9,101495
92871.9,125250,106862,137357,103649,127646,94698.3,100296
132070,138787,138901,184239,123826,164345,94738,98669.5
145745,137416,179025,190967,120590,145233,90712.8,98656.5
134405,125580,198568,169071,138531,135064,92066.6,96014.8
108122,88766.1,135254,124664,117319,124291,89869.7,90593.2
81801,122194,104490,118688,101772,129529,93036.5,94900.7
122332,109059,119301,221756,111353,133748,90501,92310
104985,136032,161363,155337,143039,148253,91746.9,95615.8
121690,118175,167590,133083,149806,146619,97344.6,95026.9
114772,107458,170650,112974,131711,117005,97305.6,96362.2
117851,113290,132964,151858,118780,150559,95557,98004.8
95245.2,113764,76956.6,126557,72517.2,132755,95772.1,103514
115921,138708,148560,120870,143444,138128,94896.9,96840.5
91011.6,106729,135716,186032,130148,173806,93417,97240.4
121999,120480,137462,130792,154423,135349,95280.5,97819.7
119361,113619,153555,139558,145813,131355,92643.9,98502.1
111902,104222,141022,112413,118209,117639,96823.2,95306.3
115502,121262,167580,136615,123679,157388,90298.6,92992.3
114354,114911,162571,104859,142255,104517,97088.3,89384.5
115229,104558,134326,103183,134973,110036,97141,88885
125983,150970,166271,145790,138607,144617,88959.9,99426.1
119178,114989,147634,123263,142134,130515,98163.9,95428.8
117246,116642,188983,132481,135510,116999,96738.4,97842.2
119109,135230,188615,101553,148788,140119,95277.7,99881.3
142432,125164,104910,132468,144313,136938,96472.5,97762.1
139333,81834.3,179997,118751,145333,104093,93398.6,106821
119494,138737,122507,125342,104839,134219,89632.7,100695
114472,122552,122153,148875,108101,134308,91541.6,92418.9
137621,144410,158217,141364,152494,126314,96423.4,98556.5
136117,100927,148526,112391,132807,107628,90899.5,91586.1
99971.1,138238,164457,121668,146413,142667,98123.1,96080.1
105515,114956,143744,144740,151466,144126,96605.3,98641.2
97969.5,136785,154496,92439.2,133757,197999,99236.8,96258
124813,122764,170852,117048,153702,120873,90875.5,100186
96679.8,101561,139773,160161,124006,128019,96520.4,90013.3
93906.9,133897,124516,170108,137515,163926,96900.2,98033
68820.3,143445,35642.6,130281,73043.6,150704,93701.1,98329.6
129722,127819,175685,149607,131571,143606,90504.1,98955
89523,132148,128055,144928,127940,141679,96097.9,89848.4
132800,111705,119455,117867,133598,110443,92059.5,89139.8
109477,111614,105965,102179,110193,115051,94885.1,95859.7
135201,124907,176040,120655,140336,120632,96536.8,98425.2
122512,96077.7,131291,115604,129997,125525,93435.3,91785.2
96895.8,118250,127845,127904,131993,143301,88962,98811.2
124889,112739,119515,112809,128849,138244,90915.5,97232.3
125848,99103.5,126916,136781,134065,124635,89551.1,91116.3
123738,125413,124491,164972,117194,140872,90749.4,98613.7
108850,154022,125068,141652,116637,195878,98131.8,94993.2
104863,127222,127428,180271,112461,186914,89866.7,98966.9
137806,110222,146866,125465,136541,120985,94056.1,89593.2
109082,126259,162740,147423,132642,126538,94746,98497.6
108060,138264,147017,161427,120198,159046,94510.5,97294.5
138167,111622,139636,137613,141837,137311,97230.2,93212
97123.5,121067,92703.8,128302,78090.6,148978,92897.6,91351.8
113445,142192,106126,154420,108868,147477,89972.4,100274
111225,93155.4,153426,110219,153779,153884,98701.4,100970
82161.9,113296,101322,121649,117902,147851,90791.1,99096.1
135292,125887,162693,103895,128649,130347,95303.7,97755
136263,119254,122909,111510,111198,121468,89976.3,99122.8
110175,113466,164336,116759,133911,109500,92123.2,89338
96767.1,132237,179410,166246,124813,131821,89314.7,100048
156960,110967,158056,155849,133648,146814,92658.2,97638.9
108292,101120,102288,136772,117243,147476,93808,98288.5
125669,101418,146426,121993,152537,97447,97775.6,97216
147212,140218,174114,153321,138543,134271,89043.6,102552
113600,130867,133581,156671,124004,168021,90571.9,101638
90902.7,93711.6,150427,106239,120252,135943,89966.8,89785
112983,154273,129233,160455,126689,139236,90559.4,93245.2
143489,125265,175778,148329,126433,134764,95956.4,97942.8
124840,135796,150049,144479,132055,153777,90648.1,97592.7
129240,126418,124141,165241,125455,119246,95999.1,89781
132875,63846,156377,33352.2,114996,65619.4,89865.5,90537.9
114456,86615.1,106288,149993,125024,171758,96967.5,104815
122559,128532,161928,152583,121073,149290,91992.2,97991.4
79950.6,114323,49777,154510,70659.4,142170,96525.9,90006.1
116933,131350,124235,167327,118422,196335,90708.4,97182.3
90029.7,113923,79007.6,134761,96525.8,125320,96933.2,98480.9
74361.6,116764,143395,114282,160185,120009,99173.4,98189.8
113290,150111,137438,156428,128066,153191,95169.1,99222.1
131062,109980,159085,171081,150014,150594,90409.5,92519.6
84964.5,126940,114295,159946,128568,150955,93596,97510.9
122838,78412.5,151043,93226,135869,92230.6,93768,98140.8
123603,125505,130179,163212,129601,138179,89204.2,93579.4
91201.5,125019,133203,127989,145293,131421,97231.9,97169.6
102739,97596.9,154322,181097,137588,161896,93744.7,93724
113088,92730.6,145349,126603,139685,131187,98461.4,90385.7
116001,144840,111961,153581,116683,154246,94142.8,100127
103431,109658,106925,114108,105596,141014,92091.7,89042.1
125744,134682,180834,160392,145648,148039,99249.8,103321
87516,134018,146859,179354,123400,140924,98240.2,93111.1
115399,128528,115448,132874,115359,129592,90795.4,95543.7
117681,105228,152390,114911,139551,148278,94818.1,91246.8
120954,103139,192395,226439,144214,153392,89292.9,100278
128988,137482,161039,149010,141683,146342,105227,97892
126076,126226,165194,170639,146803,136074,95015.7,97401.6
98133.3,124787,90225.8,156223,96157.6,219449,94021.2,100168
107585,136471,141793,113330,142366,137277,99259.7,97292.9
114705,122810,138898,121702,129748,134659,92964.6,95586.4
108556,94008.6,138419,95643.8,130151,133722,99194.7,103447
98636.4,82295.1,142842,80612,137588,125135,97374.9,99988.7
122044,129645,137892,189132,122401,159328,88807.2,96923.9
96702.3,78839.1,132016,98838.6,148079,112917,98780.8,92674.6
128438,116025,199343,147650,137551,178626,93044.6,93660.8
117276,126225,117349,134120,104611,157114,91028.8,96434.1
94437,95130.9,119018,104679,120599,126512,88945.6,102099
119732,98687.7,151784,98589.4,120544,127065,95718.1,93112.7
103660,130900,119921,136527,99405.6,152541,90207.4,99440
116178,126275,186775,133480,154045,162980,95388.7,98015.8
112820,129209,156590,91309.4,137094,102628,98250.4,96019.5
117593,102218,168825,94015.6,122697,108028,96542.1,101729
109086,142231,169845,194134,168897,180387,95492.1,99818.3
129582,152932,114892,207883,106771,156219,96139.3,97103.7
116617,152548,198097,180527,164490,186291,92778.4,97946.1
116046,135197,153836,117022,133253,142384,94767.6,98018.6
121602,110380,158630,139346,136938,154531,92569.5,94076.6
74357.1,93638.7,101606,118902,110470,101506,94982.3,92406.8
116274,132614,163418,150903,180405,146852,99315,98663.6
97431.3,123148,146301,134823,144070,121366,98177.1,97477.5
,167174,,199557,,183823,,98508.9
,128380,,170222,,152295,,98532.4
,99801,,96371.8,,108913,,98083.7
,124202,,149380,,130998,,92788.3
,75824.1,,37100,,76542.2,,97803.2
,132817,,138691,,134866,,99772.9
,99139.5,,101387,,107216,,92773.6
,87204.6,,127148,,140872,,103094
,159980,,166601,,163449,,98357.8
,115115,,131599,,158752,,95797.8
,101843,,139098,,153485,,95858
,124251,,125294,,115494,,97216.2
,120197,,119930,,130652,,101213
,114705,,112077,,130806,,98150.6
,117238,,160835,,148754,,90647.7
,120596,,121087,,143769,,98937.6
,124534,,135824,,138834,,95192.5
,95207.4,,123330,,118140,,95724.1
,111070,,145502,,136006,,100651
,119911,,154543,,132147,,98931.2
,118193,,132014,,170465,,89934.7
,126062,,160752,,169246,,93502
,128816,,129377,,148385,,97260
,97362.9,,89863.2,,104380,,94170.8
,114505,,143592,,154636,,100805
,105947,,134736,,132796,,94801.8
,122918,,113352,,126669,,94579.6
,142623,,153570,,142846,,97386.4
,142043,,140353,,151775,,90770.9
,124338,,131450,,147578,,95103.8
,70875.9,,58191,,76342,,90400.6
,127535,,100395,,135400,,92052.6
,128488,,150566,,124762,,94989.4
,109667,,108518,,130901,,93735.5
,139909,,153527,,139124,,102344
,124540,,134267,,130376,,90863.1
,110843,,126031,,142950,,96790.3
,114889,,100729,,122704,,91007.6
,127334,,138678,,149528,,97712.1
,141856,,137830,,148366,,90131.9
,131909,,104216,,115569,,92960.2
,126398,,116589,,116845,,99113.7
,106207,,124562,,138942,,89529.6
,86346.9,,96570.6,,106012,,93303.7
,113943,,142318,,155208,,97266.7
,125786,,104444,,135297,,95335.3
,105436,,90652.8,,123504,,95649.1
,117489,,132282,,134677,,89250.7
,92798.1,,87523.8,,106607,,98976.3
,108282,,152222,,140253,,90654.4
,110768,,135534,,139712,,99896.8
,126598,,136472,,125831,,91002.2
,152930,,212442,,180607,,96542.3
,136478,,163253,,144708,,98059.1
,139224,,142087,,141049,,99029.8
,141593,,126452,,133046,,97593.6
,90060.3,,44308.6,,74792.2,,98809.1
,126405,,87939.6,,101317,,90392.4
,120992,,187690,,154987,,99823.1
,90296.1,,119046,,132969,,95163.4
,130124,,137882,,127963,,100704
,112092,,159369,,158350,,101217
,98644.5,,132675,,140981,,96445.1
,143823,,198101,,171196,,95340.3
,84301.2,,193834,,170058,,96401.4
,105479,,122542,,132091,,98209.5
,86154.3,,115303,,138545,,98465.5
,151734,,147735,,164315,,97942.6
,127043,,136584,,129683,,96534.2
,112212,,135737,,132586,,95849.9
,133240,,190544,,154076,,98470.3
,130610,,140346,,140540,,102349
,131821,,108636,,124338,,93319.9
,131943,,103886,,128783,,99571.4
,133942,,131963,,134176,,91512.5
,130466,,167870,,165333,,97191.3
,157869,,201669,,170129,,94715.9
,118716,,181453,,173428,,95574.7
,97247.7,,81242,,112769,,100628
,115196,,126970,,139968,,91660.6
,153195,,161606,,151316,,99433.4
,135173,,147532,,141728,,93409.5
,93956.4,,125859,,135747,,101768
,144822,,147442,,135607,,98316.7
,124543,,198271,,163526,,93582.2
,130819,,153363,,140722,,93776.7
,113980,,112253,,126703,,97215.9
,149351,,184920,,170674,,90332.8
,111247,,96138,,105930,,90628.7
,137561,,140308,,140619,,93964.1
,87499.8,,82961.2,,89770.8,,92295.5
,113841,,112568,,142673,,94243
,129675,,135099,,123633,,95596.6
,121466,,160482,,155499,,99883.4
,104987,,145267,,131907,,91559.5
,149741,,169618,,187109,,98056.5
,123605,,100260,,101718,,96045.7
,147348,,140312,,161126,,97603.2
,120650,,146700,,133949,,100105
,123112,,121285,,147161,,94415.5
,134916,,192153,,179662,,101649
,130864,,182564,,155198,,99210.3
,108206,,134631,,136059,,95333
,150689,,179843,,167962,,94078.6
,124476,,149128,,149617,,99993.6
,118643,,188023,,161403,,98562.9
,118346,,128562,,132721,,96521
,114898,,143847,,131279,,95059.6
,115891,,86405.2,,102087,,98672.1
,107644,,186824,,158375,,90840.8
,130359,,118160,,107513,,91325.9
,145144,,133409,,154784,,96049.4
,99864.9,,97573,,105629,,96262.5
,146161,,145818,,135061,,98532.1
,104056,,210739,,192332,,103240
,123859,,136755,,129240,,97944.1
,110132,,116362,,135885,,96727
,116834,,115773,,136683,,100509
,62860.5,,130512,,165619,,96794.1
,134968,,224018,,177425,,94545.1
,133410,,122703,,133729,,89563.9
,121685,,142337,,141099,,95165.2
,95446.8,,115531,,151840,,103535
,146750,,130339,,139574,,92812.4
,89923.5,,138611,,160780,,97848.8
,111735,,106863,,119336,,91529
,150248,,177097,,191839,,98341.5
,126140,,141079,,165669,,98531
,115280,,104003,,101109,,90093.6
,104598,,192629,,173130,,98682.9
,90096.3,,104553,,125558,,97435.8
,115075,,140203,,182795,,97671.6
,148585,,166124,,164777,,100669
,114269,,212281,,168902,,100753
,145839,,179960,,191111,,102883
,107629,,142734,,235554,,98315.5
,93610.8,,144777,,142806,,98622.8
,108448,,100043,,122137,,91533.2
,108937,,84354.2,,99969.8,,102860
,142198,,207991,,160546,,96389
,116752,,145691,,142394,,98460.6
,107960,,118712,,114335,,98153.5
,89479.8,,125005,,131006,,96632.4
,102393,,164620,,139229,,101303
,133240,,132189,,137220,,92805.3
,77718.6,,101419,,92996.4,,96064.9
,98832.6,,113392,,135339,,98212.1
,135002,,112673,,138676,,96590.1
,112557,,127708,,131537,,98234.8
,94709.7,,96303.2,,115681,,100016
,126413,,150079,,135143,,96963.8
,125496,,127501,,169956,,99971.1
,147784,,194555,,144105,,95441.6
,112880,,132350,,135611,,96737.4
,152756,,175518,,147925,,97476.2
,124038,,142769,,135806,,93477.8
,114368,,167189,,150039,,99806.7
,123319,,191288,,146348,,94754.4
,94388.4,,100075,,139821,,96895.2
,99909,,171857,,162583,,96565
,110004,,130987,,134032,,99127
,122074,,120180,,146385,,101105
,127055,,141932,,114482,,95997.5
,120666,,117746,,109381,,98011.3
,133461,,182183,,143468,,95124.2
,154040,,214679,,211904,,93230.6
,103262,,152942,,187177,,100243
,124386,,139461,,130036,,94927.6
,118345,,152821,,134236,,95015.8
,145967,,184944,,169393,,91683.5
,128939,,120429,,133018,,99554.7
,146698,,136738,,143349,,95509.5
,128740,,155172,,136433,,99366.2
,121630,,152271,,142859,,100413
,110202,,96674.2,,129510,,95861.8
,130514,,170603,,147354,,88815.1
,109946,,117760,,116318,,96504.5
,78894.9,,79368.8,,125126,,97523.6
,100524,,144564,,132812,,100888
,97389.9,,151400,,171137,,94872.2
,125109,,107303,,120628,,94184.7
,122936,,124352,,132937,,98001
,118148,,116308,,133560,,99055.3
,103088,,145487,,140953,,98452.4
,127064,,159062,,175129,,95885.3
,130218,,154529,,146881,,96471.5
,123743,,132380,,122160,,92704.1
,116942,,142432,,128138,,92794.8
,130110,,132994,,123837,,93739.4
,126310,,199098,,149920,,91640.8
,152480,,160999,,148308,,89016.9
,136953,,157277,,147692,,102009
,101111,,150665,,138243,,90211.4
,122661,,190441,,152576,,100100
,128169,,159491,,159568,,91144
,142497,,159957,,157940,,99911.1
,120236,,111243,,133790,,100353
,96781.5,,112729,,127935,,99511.3
,115276,,178210,,158647,,97260.6
,131869,,181212,,148239,,95439.9
,124050,,150580,,128464,,97170
,109359,,162964,,163205,,102909
,105376,,114107,,120147,,97295.6
,134032,,119547,,129679,,91087
,108426,,121904,,140255,,101980
,91714.5,,109392,,120436,,97162.8
,105897,,121898,,128513,,92424.9
,134605,,157517,,194134,,97873.5
,74774.7,,48861.4,,74456.2,,91114.9
,79434.9,,147776,,133421,,90307.8
,125909,,108035,,146672,,100972
,105146,,137663,,154267,,100237
,62335.8,,111780,,134848,,92558
,139596,,188871,,146419,,93766.1
,118989,,135723,,145047,,95739
,153602,,170108,,152925,,94738.3
,106286,,156617,,146640,,97939.5
,113736,,116299,,136773,,98545.4
,148537,,159701,,155687,,97958.3
,116136,,186042,,186165,,99559.5
,135783,,141659,,130129,,101374
,127821,,131964,,139574,,100251
,101600,,96048.4,,107656,,97948.1
,131042,,169876,,152089,,98029.2
,124839,,148453,,143364,,93362.8
,124999,,140059,,132005,,97672.4
,155917,,178248,,149681,,94545.1
,100091,,110328,,125525,,97585.4
,104378,,135337,,137880,,95549.3
,98194.5,,141410,,142465,,97913.3
,82214.1,,176261,,153814,,98050.5
,93024,,106348,,124876,,92406.3
,117647,,117635,,127648,,101453
,129391,,155134,,127638,,93327.6
,97969.5,,165827,,154666,,93764.9
,107680,,115132,,121905,,101770
,90994.5,,122049,,129247,,88887.2
,111361,,124321,,131524,,94971.9
,114445,,138477,,134436,,99068.2
,112698,,101037,,127831,,96058.6
,91055.7,,141432,,143919,,96815.1
,125646,,178245,,158168,,97381
,101032,,79878.4,,89125.4,,97395
,88915.5,,135352,,156157,,99487.4
,157862,,164184,,151029,,99251.1
,124760,,128302,,130820,,93208
,107042,,96761,,108683,,90704.6
,92342.7,,114285,,127179,,89924.8
,119854,,119193,,108454,,93167.6
,129618,,129462,,135862,,92085.5
,129426,,161106,,150863,,97888.2
,113838,,103447,,146555,,96777.9
,95421.6,,146068,,118733,,96905.6
,126644,,161645,,151386,,97577.1
,126688,,93004.8,,129490,,88819.2
,131824,,121951,,123283,,96403.7
,142053,,140213,,145970,,97174
,120117,,123670,,165946,,95474
,90018,,98693,,128734,,96297.3
,133457,,147752,,139019,,94036.1
,81504.9,,117671,,148375,,100402
,129093,,137936,,166678,,96956.8
,91494.9,,189799,,123484,,97275.2
,114207,,125891,,126083,,89876.9
,117452,,137976,,140528,,94150.9
,140358,,177670,,165560,,96983.9
,115546,,155350,,170505,,101410
,144849,,186834,,137956,,99133.3
,135192,,105794,,115560,,95941.1
,125912,,163629,,149843,,96268
,144531,,123829,,127765,,89919.3
,125047,,163626,,129408,,92770.3
,151156,,171332,,175764,,100582
,82719.9,,130614,,137753,,99418.2
,126771,,135778,,121563,,98557.8
,124396,,125258,,139405,,93180
,142528,,111076,,128941,,97784.6
,131376,,129784,,132845,,96607.3
,112199,,103313,,106660,,95397.3
,115268,,131300,,120938,,95748
,123820,,157466,,149226,,101666
,141013,,149201,,157685,,99040.2
,99639,,168788,,165843,,94591.8
,116981,,110141,,126594,,95972.6
,96017.4,,191087,,127028,,94640.1
,118861,,127870,,126799,,95532.2
,135216,,185625,,144172,,89385.5
,141308,,153349,,141975,,94612.5
,121093,,121290,,117214,,94685.5
,107639,,86090.2,,114145,,99179.9
,108052,,188115,,161860,,97286.9
,138927,,161718,,120112,,99350.8
,108107,,133256,,122444,,94385.9
,161724,,172130,,147749,,99969.3
,134919,,222328,,168785,,92710.4
,79047,,109591,,119778,,100756
,134817,,166054,,150093,,91928.3
,142935,,106112,,111065,,90265.5
,113149,,137883,,123315,,91555.6
,104220,,129818,,127897,,88858.7
,119643,,141768,,140935,,91098.9
,111706,,102234,,109180,,89114.9
,127801,,136332,,136916,,93081.4
,109568,,97728.4,,116694,,98283.6
,117025,,97147.4,,108902,,94316.7
,105034,,129601,,117382,,96009.1
,139877,,138082,,133382,,96955.1
,129118,,131193,,134324,,90787.3
,108683,,112456,,144505,,103524
,129673,,128860,,174728,,92771.5
,124600,,113336,,138824,,94235.3
,113864,,198706,,149821,,96256.2
,123114,,195059,,181616,,93866.4
,115344,,149094,,132272,,93073.1
,151007,,175039,,157583,,97186.3
,112198,,115669,,149475,,97698.7
,134799,,146350,,133377,,91050.1
,123786,,127754,,143223,,95937.1
,127648,,153993,,125111,,95770
,125656,,124699,,125632,,96373.2
,89491.5,,119566,,115255,,92332.3
,125699,,167279,,134795,,95812.2
,75519,,99332.8,,124193,,98117.7
,95493.6,,119419,,126767,,97805.6
,123911,,120649,,110928,,93123.9
,89940.6,,173039,,164585,,98748.6
,116466,,153793,,147269,,97705.6
,122561,,155800,,176575,,95897.5
,98841.6,,101203,,123297,,96375.1
,109718,,170656,,157227,,105117
,102138,,108034,,98418.6,,92969.3
,156773,,176390,,166985,,100715
,134284,,183427,,163033,,101155
,120773,,143745,,167160,,99226.1
,132047,,155144,,133003,,92664.5
,127533,,176156,,150990,,96171.2
,120983,,133076,,123598,,94609.5
,109346,,165140,,145445,,96744.5
,146951,,161059,,147669,,100551
,127514,,134095,,157926,,91126.6
,116341,,127205,,138949,,90915.4
,117849,,85468.6,,102089,,100738
,110726,,115525,,132938,,95436.1
,124565,,149180,,141442,,96854.6
,121756,,123774,,136924,,100577
,105458,,125030,,119234,,100433
,113224,,104966,,105294,,95018
,139456,,144705,,130092,,92895.5
,135373,,161297,,132258,,98026.8
,122968,,155767,,151803,,90104.9
,110246,,150263,,140515,,93556.4
,138737,,136731,,162180,,98303.8
,117040,,127019,,130444,,91655.7
,119221,,131496,,126826,,97048.8
,70636.5,,72168.6,,93405.2,,104286
,124945,,112297,,126897,,89169.7
,109308,,119977,,138037,,90409.6
,124001,,93105.6,,103424,,97756.1
,139453,,174677,,160138,,94507.6
,106003,,158407,,151035,,98129.5
,144802,,158519,,157622,,98773.8
,121823,,136363,,114698,,91236.3
,125939,,169858,,162264,,100263
,143149,,184618,,144155,,95912.9
,85120.2,,163037,,175171,,95887.9
,131260,,148095,,136853,,98307.2
,151945,,156097,,160408,,99407.1
,130183,,139265,,149745,,101998
,122743,,166593,,144798,,102928
,103715,,159355,,145858,,90190.8
,62591.4,,90620.6,,92626.8,,98888.8
,120064,,147479,,147347,,96183.6
,110110,,121422,,136102,,93928.5
,81180.9,,107645,,128001,,90309.4
,133712,,91648.2,,148625,,99766.6
,143323,,155555,,122121,,98281.8
,148790,,146593,,183275,,99704.3
,152052,,171025,,154228,,100567
,129161,,131740,,140728,,91589.7
,123446,,104033,,152032,,98975
,132232,,148921,,149149,,97075.5
,112260,,112505,,115389,,94788.4
,120505,,120260,,148168,,100189
,156751,,186943,,174685,,99920.2
,88280.1,,119970,,142125,,91101.2
,121988,,136823,,145264,,99639.6
,97436.7,,115045,,164422,,93098.8
,113322,,91812,,108335,,91689.5
,78424.2,,50079.4,,82755.4,,99300.3
,127274,,128884,,127277,,98850.3
,136579,,178571,,152701,,96793.6
,102459,,129244,,139329,,98130.5
,133422,,145845,,118828,,95399.7
,128176,,166394,,157857,,97978
,108992,,105937,,116990,,94759.8
,110675,,109698,,118693,,99602
,127860,,169660,,153101,,90867.6
,135860,,143338,,129293,,92847.5
,106325,,193403,,163324,,98551.5
,125384,,113750,,134219,,89346.5
,107830,,114002,,156783,,92781.4
,99351.9,,78262.8,,101125,,99995.3
,124736,,108725,,150436,,100811
,135083,,159741,,166795,,98775.2
,100624,,122469,,135134,,101845
,123338,,136536,,152162,,99145
,141196,,130154,,137890,,97257
,93012.3,,80267.6,,90654.2,,98251.1
,120106,,127019,,133543,,101535
,115029,,165572,,179697,,97043.1
,122224,,135017,,151703,,102958
,147804,,150133,,128982,,88804.9
,136426,,137775,,128100,,96567.8
,89874,,64190,,78783.6,,90449.2
,135390,,163395,,134604,,95827.8
,134188,,142776,,151038,,96536.2
,78365.7,,128988,,166160,,95713.7
,126674,,143503,,146430,,95944.1
,93727.8,,193826,,221409,,98738.3
,91699.2,,119951,,140347,,96138.8
,140022,,113942,,136475,,93283
,134132,,123381,,132040,,100240
,119855,,104847,,112739,,90376.9
,133527,,163573,,134529,,94521.7
,115058,,168648,,148502,,99825.9
,128508,,171734,,135309,,95424.5
,70366.5,,48561.8,,78632.4,,97704.2
,126646,,134989,,125926,,97770.4
,117578,,157202,,170094,,99677.4
,111407,,119456,,130967,,93453
,115004,,104285,,116071,,95944.1
,121035,,157524,,121939,,92781.1
,88761.6,,136203,,142309,,96880.5
,146826,,100670,,121418,,95911.7
,102226,,185601,,174492,,97998.3
,107197,,98835.8,,125936,,99083.2
,113732,,153094,,141613,,99110.5
,121092,,151642,,135100,,96569.2
,80152.2,,138387,,151799,,93112.2
,128650,,158404,,128936,,98008.8
,130964,,128492,,122184,,96966.2
,126979,,125091,,125128,,96845.9
,112360,,124937,,149082,,97139.7
,95964.3,,145715,,144935,,99874.7
,119456,,174073,,131467,,96256.5
,104000,,126832,,112683,,89777
,118113,,178314,,166688,,104602
,134054,,180341,,135486,,99582.7
,139146,,137246,,148189,,97481.6
,129713,,195740,,180281,,93106.5
,122526,,145274,,161244,,106149
,112613,,102148,,120618,,91666.5
,112658,,161895,,135775,,91773.8
,97666.2,,117970,,136630,,99234.1
,105237,,109623,,118199,,89629
,127697,,169042,,135660,,97855.5
,135147,,207830,,169925,,100168
,89121.6,,48349,,88166.4,,95065.5
,142232,,181461,,134455,,98444.5
,117666,,117986,,119328,,88807.8
,79585.2,,120827,,126178,,99967.2
,137366,,156857,,138408,,95918.5
,116201,,152636,,169240,,96390.5
,126503,,124002,,129301,,101200
,118768,,134446,,136515,,101036
,94486.5,,157931,,145071,,96937.9
,97294.5,,94008.6,,101616,,98685.8
,132816,,145471,,156717,,96601.7
,113513,,119241,,141330,,93339.3
,128529,,136462,,131116,,94784.4
,115712,,136961,,130204,,95727.6
,100704,,112147,,113669,,101152
,95846.4,,109528,,118437,,92700
,139043,,176847,,150504,,91541.6
,118390,,147440,,152993,,99246.4
,102126,,114101,,118630,,94189.2
,140801,,130402,,148264,,97071.4
,103737,,158301,,142779,,105466
,115762,,143823,,146307,,97116.3
,114022,,115602,,135839,,95884.5
,134823,,131905,,134835,,92173.5
,146647,,119749,,117891,,89245.9
,111855,,141474,,117016,,103330
,162843,,181622,,162163,,96021
,132839,,126629,,126543,,95435.6
,120499,,137956,,122884,,96249.4
,130811,,132243,,122709,,96428.3
,72189,,47909.4,,74135.6,,97401.8
,118302,,120777,,122934,,90682.5
,81199.8,,155523,,125493,,96627.7
,119467,,128505,,110279,,91891.4
,139934,,170464,,144794,,99283.6
,130111,,154129,,135229,,98266.7
,120791,,135260,,147689,,94816.8
,101502,,118989,,141337,,96826.4
,105381,,173659,,139957,,99606
,129545,,165959,,144126,,92146.6
,123026,,129858,,148665,,98815.9
,92619.9,,91008.4,,103097,,97971.5
,134900,,177544,,147739,,95808.9
,119930,,145691,,167055,,101232
,142723,,150921,,129724,,98488.5
,104673,,107282,,100124,,94651.7
,124029,,187083,,155350,,90566.5
,127551,,161637,,132695,,93141
,109760,,177446,,174287,,104877
,134572,,153318,,172131,,94105
,136805,,150730,,125080,,96808.6
,124478,,161113,,143681,,95060.1
,130154,,158599,,153219,,95781.3
,117219,,157263,,151038,,98009
,137132,,136066,,136374,,92732.4
,158522,,158742,,186619,,97127.3
,143336,,144843,,147511,,95760.2
,110588,,102155,,112414,,89832
,143195,,155866,,152747,,99362.2
,102163,,89993.4,,107594,,100444
,83736,,121948,,151284,,102116
,118044,,122280,,110375,,90332.4
,147551,,155516,,138263,,98544.8
,122457,,140409,,141133,,96229.4
,94164.3,,110611,,114456,,94363.3
,147423,,183001,,156030,,97291.5
,126673,,129669,,122962,,96714
,113312,,115041,,105043,,95787.8
,104850,,132602,,145762,,99365.8
,162166,,184422,,157931,,100806
,116856,,121787,,121717,,95767.3
,119744,,125983,,113305,,91076.4
,134947,,169434,,151271,,93868.7
,121913,,126882,,127245,,94218.9
,89629.2,,105307,,130964,,88966.1
,79655.4,,100687,,108254,,102130
,89452.8,,85012.2,,106414,,95191.1
,93725.1,,109323,,128920,,97121.8
,84370.5,,153770,,159354,,98061.2
,120308,,109950,,143508,,96605.3
,127870,,165710,,161472,,99173.5
,141798,,159401,,152495,,94452.2
,116738,,131379,,148420,,101369
,122972,,157459,,167989,,96291
,135493,,154370,,137168,,99776.4
,144360,,176788,,160077,,91722.5
,133271,,107555,,117268,,99643.6
,117822,,158901,,157500,,97251
,139630,,167233,,149209,,89734.4
,93383.1,,74991,,89404,,89750.2
,130006,,130019,,126267,,98530.2
,113909,,148505,,138635,,96875.9
,113301,,160098,,129801,,95871.8
,112223,,141338,,117547,,96337.4
,72936,,118821,,123798,,100034
,108446,,118782,,128026,,93982
,125794,,108655,,118817,,97560.4
,131322,,126472,,138667,,96820
,105753,,138526,,147759,,90528.8
,108623,,103604,,118450,,92086.3
,107735,,215454,,156867,,95890.4
,130244,,137616,,141249,,96772.3
,111243,,155239,,153006,,89768
,113386,,161784,,141471,,94851.5
,114698,,222236,,125584,,96683
,128930,,141470,,127459,,94972.4
,114143,,85716.4,,133757,,101481
,130201,,140150,,133074,,92184.4
,155087,,206902,,198500,,96036
,107898,,172109,,147063,,96786.6
,132033,,132094,,140158,,88948.6
,118423,,205976,,215578,,104155
,139638,,151827,,132236,,90324.8
,116514,,117454,,130771,,96634.3
,113871,,146217,,154102,,100488
,82561.5,,102565,,120141,,90979
,120585,,115671,,123064,,94659.2
,154588,,178384,,139472,,97574.9
,92010.6,,119090,,127077,,91870.5
,97311.6,,117516,,104409,,99601.6
,100999,,133410,,173113,,93978.1
,83088.9,,120149,,133225,,99306
,129812,,152062,,140658,,97949.8
,132513,,159502,,145877,,98368.9
,152230,,184930,,164905,,94854.2
,132545,,137817,,121292,,93001.7
,129049,,168661,,141323,,102612
,93219.3,,76592.6,,106294,,91195.8
,83065.5,,117263,,129359,,90228.4
,114650,,157448,,158523,,93895.5
,135248,,142891,,141315,,96664.8
,106213,,137260,,143333,,90860.7
,130822,,209362,,162554,,99688.1
,112388,,195775,,185380,,95176.6
,117274,,155473,,144248,,97933.8
,104288,,114323,,132828,,89558.9
,136167,,171340,,163645,,98133.3
,124237,,197855,,169778,,100553
,101845,,113407,,132303,,90599.5
,140278,,180246,,145699,,91291.6
,80803.8,,148366,,137504,,90670.7
,115285,,106487,,110109,,92942.3
,121260,,121660,,130936,,96931.8
,142189,,142383,,148613,,96537.3
,142707,,156778,,137861,,98273.1
,121712,,124081,,156386,,99179.1
,118349,,129130,,143966,,89562.7
,148394,,163090,,142713,,98813.9
,89830.8,,114204,,144943,,99905.1
,116100,,131897,,122119,,91381.3
,108886,,117467,,133727,,97437.6
,132092,,148826,,160999,,104030
,140296,,171805,,158505,,98491
,144666,,176299,,163090,,96662
,114808,,133349,,118381,,96080.3
,125978,,154385,,160544,,102014
,114484,,90489,,137609,,94835.9
,127274,,166443,,138389,,92717.4
,155423,,184853,,143616,,96406.6
,136166,,172610,,139520,,97546.4
,119628,,112532,,124635,,94801.1
,122181,,164130,,145729,,98440.3
,101276,,77564.2,,101557,,95430.2
,148553,,152439,,157356,,99997.7
,131204,,126795,,144292,,93191.7
,107054,,169698,,157424,,90525.5
,137170,,154601,,143944,,95726.3
,130641,,132048,,114170,,96735.9
,97136.1,,109938,,155350,,89761.5
,140754,,161591,,160128,,94708.1
,140032,,140384,,130862,,95037.6
,96274.8,,118486,,127372,,89965.1
,143746,,151427,,157990,,95233.2
,83164.5,,150755,,186980,,104975
,116469,,128905,,132185,,93826.8
,84150.9,,153133,,164242,,101794
,116022,,146096,,164392,,101326
,142291,,130529,,121694,,92164.6
,92722.5,,129713,,161924,,99598.7
,107905,,110837,,115371,,97531.7
,127100,,169407,,156334,,98910.9
,124161,,170125,,165061,,101518
,122972,,166214,,154818,,91227.9
,74642.4,,121390,,132574,,90575.2
,107096,,93727.2,,112298,,98218.3
,117612,,172427,,161157,,100501
,128678,,140540,,138799,,97008.2
,119336,,113422,,119868,,90233.4
,77764.5,,148152,,117401,,91144.8
,121854,,99044.4,,112822,,90306.6
,122528,,151340,,133813,,90248.1
,143293,,172417,,137451,,97807.1
,133581,,144319,,135615,,92436.4
,122025,,147885,,155225,,99130.9
,77520.6,,126685,,146352,,97127.2
,127674,,167100,,170803,,98921.1
,112511,,192690,,160462,,91759.6
,82027.8,,130865,,126284,,91923
,139365,,170058,,173905,,98169
,126220,,186560,,155742,,96979
,128066,,123245,,115128,,100391
,131612,,173967,,142269,,97254.4
,149991,,156275,,114243,,96803.2
,114800,,98876.4,,127205,,103962
,121018,,131174,,120621,,91772.8
,143769,,129934,,126616,,99177.8
,117298,,164490,,157388,,100633
,128203,,132758,,127198,,97505.1
,137769,,193327,,161256,,93345.1
,122645,,150170,,138219,,98244.1
,124398,,234696,,176123,,96847.1
,112364,,138060,,148851,,92531.3
,106920,,167647,,165512,,94119.9
,130669,,125296,,189939,,95785.9
,140242,,149293,,144291,,98011.9
,112436,,125622,,134824,,92712.9
,136412,,183635,,146947,,92024
,117896,,125450,,121381,,97490.9
,133441,,207630,,145414,,98470.5
,115479,,124082,,130458,,95351.2
,139380,,164633,,143325,,94237.8
,130528,,119154,,131027,,100322
,98630.1,,72793,,92122.8,,103980
,119362,,152968,,144522,,98473.6
,114057,,119164,,102049,,95253.3
,126417,,139007,,142842,,97942.4
,121988,,149355,,138881,,90632.3
,94493.7,,111933,,112951,,92296.7
,114686,,184985,,143189,,98893.8
,123417,,97727,,132175,,101039
,132850,,129466,,143802,,97036.5
,96273,,128897,,150972,,100575
,120923,,124064,,148222,,98719.4
,96792.3,,111272,,137591,,95850.2
,127930,,138912,,127597,,97796.5
,101964,,128831,,147727,,94700.6
,98609.4,,71563.8,,93804.2,,92674.2
,121089,,101651,,119752,,97135.6
,143773,,213434,,171384,,95194.6
,133391,,124034,,153857,,99908
,154931,,164707,,146639,,98776.7
,114216,,145991,,165683,,101190
,107971,,180151,,139436,,94907.8
,121037,,118019,,110922,,95500
,132191,,149619,,144267,,89730.4
,89545.5,,145298,,131243,,92373
,122887,,152551,,135113,,96472.1
,157901,,152600,,165021,,103615
,109796,,110867,,103200,,97315.2
,112145,,132058,,144859,,97923.1
,121792,,152037,,126644,,101502
,116904,,144379,,153691,,98121
,107211,,103636,,116883,,97188.6
,98816.4,,157032,,121017,,90839.3
,152644,,155373,,160282,,91431.9
,134898,,132241,,136959,,97183.1
,134970,,132395,,138057,,96003.2
,90303.3,,158246,,138435,,101069
,86178.6,,67349.8,,99818.6,,98622.5
,146296,,190176,,152387,,98841.1
,116364,,136772,,141768,,99376.2
,126338,,132217,,130460,,98086.7
,137550,,194814,,150296,,94575
,131641,,145578,,138036,,95990
,124918,,157024,,152338,,96394.3
,111734,,111076,,137148,,94787.6
,116464,,126739,,125191,,99700.9
,104840,,89525.8,,116904,,98562.6
,148601,,160243,,141658,,99512
,135398,,178116,,156825,,93792
,125041,,157613,,139768,,97203.8
,139177,,127987,,130904,,101868
,123418,,148015,,127317,,91978.9
,90512.1,,125485,,154340,,98131.3
,100431,,149904,,153082,,99376.1
,113810,,121037,,135159,,95890.8
,123847,,122613,,133734,,98390.7
,139324,,177982,,151364,,100011
,98384.4,,121167,,133168,,97176
,112226,,148007,,159411,,101728
,134716,,134952,,142208,,98294.1
,140252,,133974,,124092,,91428.1
,153699,,174567,,159449,,97490.5
,97079.4,,115802,,120292,,94135.9
,113997,,105771,,114188,,89067.5
,85401.9,,98119,,124407,,91988.7
,155207,,184545,,140085,,97046.2
,113324,,105426,,106008,,90583.7
,105641,,112668,,110131,,97074.2
,132439,,138414,,123696,,90382
,120768,,116253,,140165,,92528.1
,76871.7,,149876,,169096,,94617.9
,136779,,186250,,162928,,98369.1
,131228,,209481,,180221,,95211.6
,117867,,166713,,151144,,98654.5
,109625,,121730,,134828,,94165.9
,150069,,185472,,174525,,94561.4
,118084,,177097,,149489,,97027.6
,126882,,113240,,147868,,98725.8
,114983,,152701,,147298,,92574.9
,67311.9,,121757,,142936,,90952.8
,112060,,93031.4,,101018,,95499.7
,96209.1,,101622,,121799,,96651.9
,115315,,111838,,107131,,94409.2
,128938,,155994,,137683,,96947
,111730,,113774,,134197,,96775.7
,95119.2,,134098,,142972,,91209.1
,117274,,144974,,146765,,100239
,127133,,132321,,130088,,89888.5
,135337,,164580,,154580,,96625.6
,106322,,115539,,116336,,96013.8
,82277.1,,162256,,162497,,92915.7
,132818,,209170,,169673,,96172.4
,131978,,149310,,136847,,100655
,149414,,137885,,138270,,91373.8
,144170,,160314,,155753,,91786
,116906,,140942,,159355,,97800.7
,167708,,199401,,244528,,96735.5
,123376,,147722,,134928,,96607.9
,119471,,118551,,119071,,95340.1
,88608.6,,112434,,142232,,93396
,129889,,162796,,143970,,91484.7
,151811,,216139,,163778,,101124
,92998.8,,77582.4,,93769.2,,98494
,104006,,170090,,173627,,100148
,82749.6,,55239.8,,76547.8,,99645.4
,92613.6,,185536,,147388,,98692.3
,100175,,153728,,140652,,100378
,118198,,194538,,161127,,97967.2
,130591,,110023,,129970,,95858.3
,129246,,184863,,158003,,96170.7
,113462,,131086,,141459,,100360
,126770,,155403,,111437,,98286
,116544,,99915.2,,108223,,94080.7
,131645,,187541,,153117,,95138.4
,128573,,158808,,137564,,94249.6
,121658,,123033,,137078,,97483.8
,107895,,146450,,157826,,92391.8
,73781.1,,57181.6,,85299.2,,91477
,114638,,139775,,122294,,95178.4
,105106,,127141,,121727,,96234.6
,101555,,168021,,152254,,94339.5
,114125,,123400,,126570,,98117
,96483.6,,144984,,141960,,98477.1
,102501,,130239,,151540,,97236.7
,90954.9,,113044,,122525,,89863.6
,89771.4,,104857,,126482,,92327.1
,143672,,218618,,185328,,98201.1
,139903,,146699,,153943,,98367.6
,119773,,113644,,144099,,89211.8
,110102,,87385.2,,94803.8,,100905
,119063,,128300,,117128,,99522.9
,110856,,96314.4,,104499,,96015.6
,158647,,174698,,190217,,97028.4
,87575.4,,98981.4,,123551,,89700
,105914,,126088,,120022,,96964.4
,128977,,139311,,147122,,99003.4
,118518,,97608,,101511,,99578.8
,91672.2,,114685,,160581,,98648.7
,134313,,132915,,134989,,100218
,107793,,163300,,169709,,100991
,111039,,122066,,115989,,92676.8
,114978,,113875,,138978,,95835.2
,144326,,133899,,156429,,99331.5
,156449,,181658,,171801,,98918.2
,124581,,133776,,120786,,98755.3
,144063,,120695,,146110,,100471
,111416,,121696,,126503,,95101.1
,84069.9,,99873.2,,129210,,95611.4
,111813,,152502,,133595,,98215.4
,161049,,176855,,177776,,98364.9
,98685.9,,108076,,137547,,102174
,129291,,111999,,124079,,91724
,114503,,79368.8,,87189.2,,98963.8
,87011.1,,132873,,146364,,98171.2
,150090,,158509,,143622,,96689.2
,141101,,110972,,130780,,100749
,94887,,116844,,137514,,101352
,109727,,162523,,150441,,96486
,111308,,115345,,130115,,101044
,111840,,168805,,148620,,94536.4
,102214,,171592,,158138,,100408
,119523,,160289,,159029,,96908.7
,102657,,113193,,114803,,94849.9
,129783,,173130,,129853,,103105
,120965,,116719,,114958,,95422.2
,102034,,115654,,124694,,89789.6
,119655,,136959,,150667,,98765.1
,126092,,123178,,125629,,98109.3
,124880,,104261,,119045,,99373.1
,108349,,146420,,121782,,92633.1
,99016.2,,179031,,159109,,96345.7
,117145,,142838,,146056,,101848
,122301,,232203,,217179,,92284
,112085,,110235,,144318,,98387.5
,111970,,149759,,148604,,99227
,89178.3,,104104,,126609,,101617
,112648,,141337,,132658,,101559
,93716.1,,148548,,137444,,96348.5
,114751,,126735,,152134,,93737.9
,102469,,65387,,92582,,94980.3
,104323,,163005,,125461,,92686.5
,134032,,162462,,134600,,92210.4
,108029,,84987,,103012,,95121.5
,105986,,122808,,124767,,96796.7
,133631,,133944,,126083,,97081.3
,137175,,121477,,158771,,89242.3
,141548,,182395,,156415,,98333.8
,123666,,196489,,162456,,94621.1
,109154,,169725,,142493,,101037
,95017.5,,173320,,166544,,92885.1
,149683,,150384,,167922,,98025.4
,112138,,145153,,149204,,99929.5
,88127.1,,130551,,120460,,90090.5
,109942,,122742,,106298,,88861.9
,97325.1,,156142,,155627,,99181.4
,124600,,122822,,118777,,91341.7
,130158,,128566,,129423,,89887.1
,126233,,155865,,186675,,96586.2
,110703,,129203,,128765,,94589.5
,112190,,91408.8,,111734,,95432.7
,127130,,176004,,160996,,92739
,109438,,103636,,122430,,99681.3
,107797,,132793,,131230,,97995.8
,133771,,176749,,165515,,95483.4
,112298,,100719,,109173,,101166
,90090.9,,159060,,157345,,98112.3
,118239,,111749,,131695,,98500.4
,146363,,138524,,140098,,89820.3
,101882,,68933.2,,121555,,100550
,106235,,134796,,124964,,93583.2
,118149,,159998,,149671,,96730.9
,139226,,128113,,149129,,103268
,132178,,137782,,135677,,95981.7
,141606,,114122,,122864,,90990.4
,119003,,151949,,149568,,94828
,89977.5,,99386,,116407,,92480.3
,103180,,89093.2,,118773,,98403.4
,96734.7,,120345,,174607,,101514
,106130,,125733,,133594,,90756.2
,162072,,202296,,162172,,101980
,168852,,193098,,169086,,97495.3
,86625,,122611,,148593,,93061.9
,134317,,149992,,132768,,99126
,116450,,95533.2,,138998,,97643.3
,124067,,157742,,148266,,102845
,105846,,127949,,137120,,89878.8
,110090,,155960,,164700,,100830
,138419,,180183,,160072,,99692.9
,133784,,163022,,172005,,99561.4
,105243,,165753,,158624,,100264
,139775,,164851,,158336,,99379.4
,100125,,145792,,147560,,96242.7
,129521,,109591,,123417,,92576.6
,153052,,172414,,166050,,95755.7
,126724,,133505,,146717,,96543.5
,144970,,161757,,137442,,94804.4
,141212,,161921,,136024,,96153.3
,131057,,113977,,140343,,90424.2
,105401,,97627.6,,111577,,91217.7
,141934,,160031,,131708,,95305.1
,146281,,148000,,144634,,100953
,135794,,136781,,154300,,102572
,112900,,100083,,115353,,98077
,114538,,110597,,126507,,92569.7
,134204,,154896,,168140,,94421.9
,126083,,139782,,138044,,92996.5
,77266.8,,120424,,149272,,99917.1
,113516,,135321,,136819,,101195
,87624,,62812.4,,91893.2,,96491.9
,81651.6,,62559,,86399.6,,96210.6
,104782,,106256,,110478,,92261.8
,150337,,141819,,169119,,99241.3
,81108.9,,104776,,121409,,97552.8
,133500,,133220,,121080,,98934.5
,110874,,155088,,163097,,96639.3
,111920,,131089,,155620,,97325.2
,104115,,115531,,116673,,96836.8
,126207,,136303,,137987,,92101.3
,114280,,94922.8,,113525,,94824.3
,89745.3,,110790,,145470,,95696.3
,121751,,148238,,130511,,98576.2
,145312,,158452,,146864,,98178.8
,91475.1,,126510,,132086,,97604.9
,143438,,147977,,152475,,89862.3
,123390,,148106,,139903,,97239.3
,123748,,156775,,146425,,99608.1
,108540,,135344,,126802,,92181.9
,109406,,142317,,145387,,89080.3
,118993,,99726.2,,113268,,94295
,119573,,133480,,144423,,99922.1
,118478,,134890,,161718,,92089.9
,107240,,122041,,136130,,92596
,118969,,164727,,166811,,96978.4
,109423,,117443,,136640,,96314.7
,133700,,140367,,151481,,100827
,99290.7,,106252,,130851,,98293.1
,142772,,200334,,158892,,97270.9
,132821,,145376,,134638,,100874
,104943,,143555,,162690,,102328
,119601,,129003,,143998,,95354.7
,130272,,137407,,135701,,99002
,113560,,103600,,126196,,96080.2
,118405,,173425,,173552,,100749
,121655,,150977,,143584,,95595.8
,99050.4,,70046.2,,93867.2,,90508.8
,100419,,127743,,124128,,100128
,75114,,63740.6,,75544,,91007.7
,120494,,179494,,147375,,92937.3
,128409,,179764,,155497,,96925.3
,147520,,142531,,135526,,96905.8
,88640.1,,130400,,132698,,93952.9
,140644,,165563,,131075,,98865.5
,111450,,109288,,108480,,90377.7
,136335,,149605,,135163,,100464
,81085.5,,130316,,164643,,96051.4
,143841,,143814,,149813,,97040.5
,125009,,140934,,131428,,90478.7
,127334,,195714,,166352,,97648.2
,124679,,155137,,172143,,96519.6
,139092,,106866,,132133,,94801.7
,136454,,168116,,154769,,98000.2
,122810,,106408,,106534,,91214.7
,130589,,181762,,145739,,98621.9
,147532,,191367,,175461,,93698.5
,119080,,131977,,124827,,91977
,135839,,161063,,122619,,98314.7
,136041,,153735,,157258,,99241.2
,115931,,110881,,113324,,100754
,138185,,131194,,136576,,99362.1
,77300.1,,133010,,138006,,94447
,133588,,142538,,143214,,99753.9
,130991,,137273,,142240,,93894.1
,123724,,130735,,126953,,94791.4
,138868,,126554,,144669,,100375
,129021,,161976,,137459,,100121
,94432.5,,133246,,150979,,98597.8
,129105,,154589,,168162,,97344.2
,118894,,145163,,140053,,91682.6
,100997,,128853,,121297,,98392.9
,130228,,148225,,152467,,100393
,115910,,148607,,148536,,97082
,122398,,131256,,124251,,91241.4
,143284,,142990,,145587,,96698.5
,130396,,144425,,142958,,98024.8
,126164,,155207,,164734,,99298.7
,114664,,150175,,152513,,92935.3
,100862,,111832,,122801,,89025.8
,130163,,174783,,159121,,94642.8
,106059,,137441,,147512,,100585
,131235,,125150,,152624,,90450.3
,106440,,129475,,137774,,96970.2
,98627.4,,141197,,149533,,99642.6
,111676,,116969,,112414,,95217.9
,134306,,187774,,169113,,96182.5
,110789,,127211,,132488,,91583.7
,91554.3,,91074.2,,92038.8,,92174.3
,127374,,117082,,110583,,88924.4
,120529,,93069.2,,136598,,98511.5
,145465,,144005,,144045,,100403
,151613,,197305,,219965,,98338.1
,91199.7,,140395,,147552,,102336
,105305,,146707,,133827,,101709
,100788,,180411,,132440,,92929.5
,140036,,131387,,121537,,99270
,111813,,227534,,158676,,91376.7
,141090,,146518,,150300,,100127
,125771,,148904,,170807,,101309
,108105,,157728,,165360,,106551
,126738,,180426,,169984,,96040.2
,136036,,149043,,142792,,98949.5
,125815,,146644,,166116,,94412
,105529,,139208,,111982,,90164.9
,99595.8,,135544,,142176,,99353.7
,124921,,146394,,157501,,98218.3
,118373,,114822,,152240,,96178.3
,104094,,131953,,151085,,92138.4
,137686,,164038,,147118,,95927.7
,85085.1,,84347.2,,110692,,98634.9
,136866,,151836,,139545,,97745.7
,121351,,126007,,124165,,95313.1
,130802,,117373,,127896,,98861.8
,105660,,125663,,129924,,88935.7
,104373,,104684,,115683,,102232
,129529,,175237,,134238,,90782.2
,120298,,140454,,125495,,95643.4
,118215,,131149,,119456,,91457.3
,135842,,192700,,167201,,103866
,81959.4,,133273,,140529,,94853.7
,109197,,147318,,167891,,102649
,103958,,111777,,134022,,94345
,124245,,123697,,116199,,88828.6
,126559,,176078,,151999,,94462.6
,62704.8,,48308.4,,81198.6,,104495
,117593,,149139,,129402,,89290.1
,109460,,122539,,149790,,95661
,84974.4,,137179,,144500,,93118
,65071.8,,36853.6,,72613.8,,95596.3
,142390,,137721,,164830,,100822
,103113,,178553,,186803,,100202
,108376,,95747.4,,120942,,95819.2
,154301,,159275,,132369,,99998
,122556,,137164,,120750,,97344.1
,126991,,152979,,164829,,97055.1
,116824,,140718,,128268,,98507.4
,123430,,146048,,123649,,100177
,135821,,146061,,138709,,88851
,124748,,141126,,126676,,95784.7
,109406,,109913,,138701,,95287.2
,103147,,93447.2,,113599,,92764.8
,123808,,173508,,135457,,96783.8
,115898,,169684,,155575,,94631.9
,123314,,159758,,140700,,96437.6
,120145,,115063,,112637,,88909.4
,122806,,142589,,110830,,97366.9
,116327,,133451,,132531,,91260
,155233,,190904,,166377,,92638.1
,123926,,206119,,210280,,95616.4
,102563,,151234,,100472,,96402.4
,146037,,179714,,143437,,99011.8
,129311,,121443,,140994,,91394.8
,144066,,199013,,138796,,99640.4
,132964,,124230,,113793,,95231.2
,83055.6,,128999,,161155,,98005.3
,124711,,141249,,151945,,101059
,132533,,149106,,134956,,96763.7
,149992,,205194,,148733,,99007.9
,128921,,129210,,121050,,95344.7
,114467,,135526,,151031,,98184.2
,108287,,117508,,129606,,89208.1
,134950,,158784,,120128,,98759.3
,123463,,132139,,116714,,93906.5
,109708,,96504.8,,101557,,95980.4
,108799,,133862,,154857,,99459.8
,130198,,157685,,155299,,90849.8
,67147.2,,125857,,123207,,98395.9
,112186,,156723,,161070,,100506
,130661,,83118,,116981,,91229.3
,127890,,138095,,138176,,94623.9
,92565.9,,70460.6,,86436,,97862.6
,112671,,132912,,125800,,94007.8
,96196.5,,113786,,132048,,100243
,119643,,191062,,169197,,101481
,122474,,128796,,124758,,89274.8
,135626,,162033,,143921,,99486.2
,136667,,170261,,155165,,99595.1
,94349.7,,128615,,149178,,96067.8
,124485,,154584,,164613,,89144.9
,99099.9,,81200,,105780,,96486.4
,117539,,119654,,111735,,97485.1
,116856,,108062,,123773,,89029.4
,119448,,144432,,120634,,91021.9
,92669.4,,101879,,136769,,96686.4
,111992,,115653,,155103,,102313
,127695,,120739,,117372,,91438.5
,131788,,152559,,145488,,92188.6
,98395.2,,163128,,152495,,95794.8
