"FSC-A","FSC-A","SSC-A","SSC-A","FITC-A","FITC-A","Comp-PE-A","Comp-PE-A"
147355,110919,196627,113669,156209,121433,93881.2,94679.1
94710.6,116974,44392.6,144071,78913.8,142531,91875.1,94248.4
114484,70690.5,112351,37273.6,101396,70848.4,93724.1,93548
86097.6,105950,129265,142376,115678,112472,97171.4,90139.3
99743.4,98672.4,129174,107575,121803,139483,92412.5,91856.8
96381.9,112662,117769,109075,140473,169130,92527.6,92659.5
97004.7,98771.4,149593,148980,152582,146936,93632.7,91341.2
121913,121556,134641,127449,130332,140564,91072,92639
105304,113652,72647.4,122324,82331.2,141490,93678.6,90810.4
96068.7,110502,211917,151705,155142,155323,94822,95464.7
105757,127026,143510,154217,132079,173844,93349.2,92621.7
88290,132199,79382.8,176623,84233.8,168225,93357.1,95708
132020,148442,169308,136472,139727,162467,95181,96799
80469.9,119392,56222.6,182984,75167.4,165689,93228.4,94428.2
104567,96357.6,144911,124744,133295,161606,91581,95321.2
107179,99440.1,139524,153391,123857,198506,88816.2,97127.8
113206,101690,156537,109291,139671,153502,91365.3,90561.1
99511.2,87795,127425,58577.4,112570,90445.6,95485,96227.7
116715,95800.5,77939.4,163657,88975.6,201544,94166.7,93883.3
81377.1,69128.1,59364.2,137558,105444,149163,91440.9,90121.2
130401,101458,145256,117286,142905,161973,94703.2,93382.2
104796,99737.1,149183,130578,153936,183994,94473,92559.4
68479.2,87214.5,84548.8,83409.2,127331,106802,91606,99666.1
140201,94329.9,188719,134264,159246,146625,94143.9,105282
85991.4,92941.2,139448,103377,151451,128834,98220.1,93144.9
140224,101492,144060,172386,168413,169627,103490,95110.2
105625,83955.6,126056,102197,125980,120973,96260.5,95325.2
108760,101326,154714,119062,169376,144620,90557.1,90653.6
116155,59058.9,164795,93182.6,139881,104908,93839.5,92130.5
119219,106287,155960,112413,151978,157991,89258.2,96494.5
83817.9,94168.8,47257,121562,76427.4,140816,96033.8,91891.6
106744,95210.1,132093,108409,149428,131900,90004.8,95384.6
96216.3,130986,106693,168941,129476,152121,89822.1,94396.4
94256.1,76034.7,132980,52505.6,153422,80906,97508.2,97067.6
94593.6,80560.8,137234,128073,133483,146349,90910.2,93053.3
89093.7,129422,168685,118314,168451,147323,93861.3,100618
103787,116114,96877.2,120795,109561,141316,93203.9,93166.2
166763,119725,204754,147150,203265,160601,101270,91194.4
99779.4,112281,114995,154081,123431,149800,92209.2,89838
76786.2,110997,125468,119528,142351,136850,94637.5,96830.3
125175,130933,134686,162112,145778,186582,91549,96397.9
95049.9,112398,51931.6,111019,98305.2,114183,90483,97037.9
113029,77759.1,109248,112143,148296,127609,93589.7,93687.1
126609,82837.8,164608,53306.4,169127,90577.2,89105,93932.3
97974,93766.5,110342,78055.6,120956,107423,97332.1,98455.3
110102,114781,125762,145275,150403,141859,89834.7,90807.5
81620.1,104159,116981,127684,132411,137151,95713.8,99442.5
152544,75023.1,176436,47014.8,174180,94955,96193,98072.3
110739,112580,165035,212877,181637,175875,94131.6,94461.1
121849,106605,211194,135408,193872,151040,98268.5,92278.7
86652.9,75567.6,129759,60663.4,169352,97750.8,96407.2,95150.7
122628,107694,142268,139098,141105,141950,88842.6,89243.1
110260,92627.1,153640,112851,174020,101741,93907.2,90986.6
108306,53829,125586,118517,124487,163530,92754.3,88841.7
102778,98721.9,156024,64110.2,121331,92362.2,92214.8,94337.6
102649,120501,88191.6,99729,82961.2,119594,89195.7,93330.8
103355,113254,131345,100828,137162,139196,92026.2,97443.9
130380,78070.5,232197,70459.2,182192,114170,94051.7,94584.1
75871.8,149927,101748,212264,138438,195121,91762.2,93269.2
97334.1,116687,120561,163822,127782,189945,91101.7,95159.9
106943,106850,121150,146521,130014,194188,95223.9,93518.8
136966,94680,176940,124729,169855,152428,92281.9,104286
67449.6,117972,65164.4,126904,72245.6,142288,99089.3,92156.3
98189.1,155755,131571,223321,133011,218091,94611.6,95490.4
69834.6,79998.3,101370,116838,138816,144837,89297.8,91673
98523,67849.2,78577.8,106151,95050.2,151059,91659.5,94859.6
117290,74515.5,135236,123995,151346,156068,96175.9,90609.2
102666,106494,104047,105867,153556,107722,97692.1,90742.6
109940,100043,144533,71475.6,169126,117356,95256.6,92514.2
107123,75542.4,148875,135230,179005,164583,105168,96043.9
127710,86813.1,148432,118192,129748,155617,94499,92634
93694.5,88829.1,82527.2,82630.8,110911,96749.8,95807,98790.9
127286,93955.5,153276,128468,176385,136065,95629,90099.5
90580.5,142077,118500,212953,112486,204047,97761.7,94174.6
96720.3,95050.8,128027,74893,139399,95559.8,90168.8,94806.9
86534.1,82967.4,156450,141845,157930,177164,95194.9,98446.9
109448,121282,160847,155088,153189,163324,93578.8,92866.1
89732.7,109868,154319,122060,154665,136968,95283.9,93355.2
85813.2,99690.3,91483,125238,119246,168755,97786.2,90864.9
111012,77405.4,125318,61621,136507,94117.8,89011.7,95165.5
114696,121992,140819,156850,134697,155497,90250.9,94917.7
133821,105331,140885,88258.8,150142,99636.6,91082.2,93462
98597.7,118336,62741,152529,82779.2,154519,96281,90963.5
97870.5,118241,58986.2,174968,93489.2,179131,93536,97392.2
82248.3,122699,67961.6,216887,103566,164248,97463.7,95185.8
127842,95505.3,151605,171094,167083,174600,96836.4,88857.8
114413,125861,227074,184565,174143,168265,91540.8,90863.9
128202,76040.1,118763,87375.4,147745,118275,90961.9,99419.2
99938.7,113862,88904.2,130476,106747,164721,90152.4,99418.2
95657.4,96018.3,51545.2,115711,77035,135780,92829.9,91220.5
85455.9,114374,136819,194099,142026,169219,98330.4,90680.7
108113,127245,151469,106382,140666,131408,95247.5,91558.9
121382,121457,171377,138600,180176,139124,95648.7,92529.9
108551,138946,213424,187156,200362,147570,94167.6,94876
141502,99769.5,193396,103547,170789,122609,90391.4,91940.9
105641,102799,99822.8,156040,109424,175661,93276.3,91137.3
112110,97112.7,116088,55118,121247,98659.4,96465.6,96268.3
112785,96888.6,156191,105267,124548,116388,91709,92831.1
111406,127809,133617,194743,136745,188719,93780.9,98776.5
66695.4,138403,129315,224283,129335,229652,91933.1,100052
102233,71393.4,150980,64951.6,160009,85668.8,96564.9,91988
133454,94384.8,139906,139934,140955,152848,93272.3,94479.4
108321,114538,95881.8,97809.6,101836,122445,89919,97265.7
102142,68516.1,111562,86865.8,110463,115826,93648.4,98379.6
109709,101284,67849.6,66375.4,87914.4,120365,90385,93500.3
76961.7,119455,88452,132856,115573,137941,93503.2,90833.3
91037.7,118828,92985.2,130557,106687,141925,94375.7,93194.9
85759.2,48890.7,112217,27718.6,108905,62605.2,93195.2,89731.2
105995,105152,153387,158830,121947,203813,89982.2,100383
100265,156344,175301,205183,145543,156582,92692,89662.9
123127,119478,102469,186516,112897,163810,91331.3,96011.6
100142,118210,174653,159004,158710,142737,94834.8,94627
107522,86974.2,127186,47936,135005,76893.6,89546.2,89629.2
106365,105717,126223,145145,145468,149134,92091.4,95389.1
107437,95912.1,178952,67279.8,134373,107948,90533.4,95569.6
91605.6,95481.9,105857,97928.6,128877,129093,96797.3,89268.3
116298,92303.1,129704,98919.8,136287,139740,89610.9,93788.9
119488,94074.3,87540.6,93739.8,108493,109855,91123.5,95611.9
106304,100625,155302,133872,141576,147965,91411.9,98281.1
92064.6,93298.5,125938,92507.8,162907,129517,100023,99367.2
85133.7,104658,150734,122619,175500,130694,91930.2,88927.4
131081,85206.6,178293,161749,179605,166657,94550.4,89470.4
132018,95906.7,70597.8,92839.6,99352.4,116560,95404.8,88841.5
137449,85331.7,204365,104121,182714,133497,93341.7,93313.5
102030,120473,143042,153045,139909,139314,89102.3,92070.5
103478,133365,132128,184183,142162,200999,91986.1,93176
128059,85827.6,165767,98985.6,143601,111251,93912.4,92459.3
107631,136723,146105,210262,161370,181034,94077.1,91908.9
111982,130304,139887,138792,181478,168069,94641.6,97856
147680,75690.9,179799,119109,177800,157877,92898.4,91635.3
76217.4,67208.4,116369,127193,140745,193565,101512,95257.5
97156.8,69832.8,123241,46683,135099,84484.4,91827.4,90232.6
130129,128388,122695,169509,117008,160979,92524.7,92147.4
118943,141279,155716,210631,172584,191374,91133.8,94871.8
92774.7,132717,144767,152699,148011,165816,97053,95670.8
111937,81599.4,122326,95720.8,144511,114080,94565.2,96112.1
112857,127191,163247,130728,173753,148322,89221.8,96820
119569,159111,131212,172465,131950,152349,93881.9,95262.7
99233.1,92739.6,57453.2,103123,77142.8,134879,94482,94960.6
119986,84502.8,187097,128792,166410,150703,96134,93438.1
131039,92700,102406,97972,96485.2,129669,90375.8,89058.8
66169.8,109145,122927,109103,128975,134120,91934.1,102167
88524,119357,40828.2,110760,75247.2,158592,92885.2,101030
89022.6,91892.7,100948,122912,92838.2,144302,101455,98582.7
142355,115716,167635,208554,178423,209674,97092.9,91950.4
91218.6,101849,102430,121509,110743,138491,91987.2,90560.4
81932.4,105175,131247,78283.8,149050,94053.4,94147.7,92534.6
123635,148270,128016,196182,133630,184685,91587.9,90811.2
81045,85404.6,55708.8,107174,77765.8,132776,89591.9,90148.9
103335,122603,92939,127175,109616,161230,94951.8,91765.5
92492.1,106540,68003.6,125450,79476.6,145681,92619.5,95773.7
100198,107002,69417.6,109383,83883.8,124155,93867.4,94421.7
73014.3,94716.9,179536,111170,182743,151418,98346.9,89005.1
90780.3,118328,98179.2,112944,119200,150062,92974.8,95757
102929,146122,142041,171322,149597,152305,95711.7,92136.8
109276,110988,147920,206564,157331,183252,95814,88865
122972,90225.9,141744,112840,154531,137082,94923.6,95338.9
87763.5,93285,140368,110046,155736,143714,92161.8,91372.7
119227,95769,140036,128759,133022,139590,96487.1,93699.4
113387,81547.2,136402,135080,144683,162855,96980.6,93380.9
70934.4,120820,82315.8,148117,93431.8,187320,99803.2,91208
123834,115697,162333,208671,166954,178755,91123.7,95373.7
121494,136910,187610,197758,182752,174702,94836.8,94196.3
98852.4,103136,154637,135390,157742,155354,96522.2,93223.6
90142.2,103299,45382.4,102826,72805.6,105097,88878.8,90238.9
97145.1,105845,149090,123508,146619,146782,103806,94455.1
108569,98852.4,123708,103909,140169,132905,93985.4,92034
129432,122350,157723,175637,145795,174418,89263.6,94509.5
77148.9,133791,39396,172928,78100.4,167832,97839.2,94239
93257.1,87909.3,217651,169484,156101,165389,92300.5,92731.6
126858,103796,104860,140752,134119,182676,93785.5,94295.1
116494,114092,99724.8,147209,105029,140428,90951.3,92785.5
112262,116429,67488.4,207274,88461.8,176701,96458.5,92087.6
95550.3,112319,97860,196106,105690,169973,99179.2,93831.4
113462,86880.6,208074,151717,189328,147568,91259.2,94048.6
76472.1,101027,126801,151249,122153,131831,92192,93326.4
101425,118597,142724,154791,147465,169508,95682.1,105640
84763.8,135566,103838,174810,141334,236998,95854.9,100667
90842.4,136766,81263,131323,117676,151339,94410.3,95683.3
66792.6,138987,41851.6,179627,70810.6,164640,90927.2,94062.1
120622,91662.3,157767,117565,136791,139441,92850.9,89334.2
67120.2,82822.5,116897,125520,139223,163866,97535.3,97987.7
132491,137873,164919,174191,138919,155008,90772.3,92113.9
121044,94985.1,147385,100824,129032,146807,95612.6,89800.5
106662,129228,101184,175820,120448,161984,91552.6,89111.8
125831,108915,153475,127075,152769,135818,89499.8,96641.3
114458,79597.8,183485,85610,163072,120365,98118.7,90816.5
145499,97704,195175,60624.2,149757,95331.6,91456.6,96477.4
117387,150524,174146,168571,162883,161426,93456.8,93107.6
94137.3,95912.1,93842,105031,114493,105585,99673.4,92401.6
121056,109890,133763,143514,122990,165239,90170.8,96571.9
62738.1,124885,162701,163461,168707,159281,97852.7,104182
95604.3,116524,147977,126360,142957,143116,90348.6,105418
107639,93238.2,136837,148009,143896,138895,89666.1,89723.2
96381.9,106408,127508,191542,155075,194590,91150.9,93372
141716,95380.2,125647,143178,156936,139103,94343.6,93533.1
97120.8,106679,105673,143525,136646,174425,92348.3,89991.5
111148,114160,155198,131117,155128,138540,96610.3,90947.7
111974,117716,152404,173111,155779,166733,92199.4,95910.3
96877.8,99160.2,101032,155382,129248,173477,93437.2,89260.3
85137.3,93759.3,88697,170955,104132,155098,94929.2,89058.5
129087,97005.6,169337,128145,146093,141341,95546.7,96333.4
93587.4,97916.4,122818,60592,130056,83526.8,88964.3,94653.8
106369,113875,146961,124872,133794,136186,90626.8,89294.1
90192.6,85966.2,56057.4,134270,77404.6,155568,96262.6,92857
55323.9,132837,98338.8,120508,127908,161655,89124.3,89947.5
107448,112999,115025,176483,119249,148316,88837.3,92473.2
97183.8,128825,132149,148534,133102,139495,95117.7,95763.8
97931.7,108935,95390.4,128489,112829,145249,89005.7,90685.8
111664,108703,85965.6,175813,119967,170115,91554,95475.2
101250,79357.5,100915,130509,111567,145277,89648.6,90523.7
114569,99754.2,162074,168188,148802,163722,92990.9,95469
95804.1,126804,46900,188269,86970.8,172840,96733.5,96666.7
128702,76105.8,179361,135538,174576,138708,95911.9,89752.7
131470,80523,153013,133280,177556,170071,89410.5,99574.7
81141.3,104359,147916,114876,146833,160845,91234.5,94967.9
154631,124646,175076,152281,151757,153878,92720.4,96163.6
70678.8,89405.1,185613,139777,143485,153035,90503.6,98007.3
145138,123512,181495,160940,155898,148854,93821.7,90634.2
87246,81165.6,86941.4,124755,92303.4,149934,94409.9,94839.3
116584,75824.1,144115,113422,143027,128435,97273.2,92721.9
138060,133015,126819,128083,128428,146041,98918.5,89807.2
140396,135103,174836,166995,155336,159440,90362.6,92127.5
100354,93880.8,57787.8,118455,86664.2,140273,94856.6,91919.2
97454.7,94297.5,141803,169266,156800,170828,94322.2,94743.9
99482.4,73416.6,121983,79486.4,145317,95519.2,94380.5,95243.9
117901,79903.8,113478,41228.6,128971,77368.2,106244,90876.8
103560,86737.5,151680,154122,148224,141718,92219.1,89715.3
122196,83939.4,137851,114559,135194,143422,95200.6,89472.8
98638.2,112377,148508,181870,159470,144416,92798.3,90172.8
108326,76879.8,111916,112626,125591,150585,89584.7,94506.6
77616,106586,119312,95071.2,132266,126528,93727.1,91447.5
67826.7,77767.2,127639,119501,139297,166141,93115.5,90244.6
116804,99549,192952,166281,182125,151959,92108.3,94069.4
75962.7,115854,49700,131879,78645,174789,95421.7,94106.2
104138,121433,125833,168476,144719,157548,91751.7,96911.8
127947,125997,149904,165869,170912,167241,94400.5,93924
104845,77787,129611,36097.6,137805,78129.8,92238.4,99995.5
112208,78737.4,131895,115647,119924,139665,94599.3,90624.9
121150,100424,195847,166824,151441,175731,92281.6,94182.4
101117,99959.4,125821,128745,128303,168063,95092.9,98434.4
122404,121632,125595,122359,135440,170174,93480.5,96671.4
92425.5,107273,126406,132817,144696,132678,99218.8,95902.4
108755,144294,131396,181377,144879,185634,89498.6,91116.7
106295,111133,100682,141915,111769,138919,95106.6,92816.3
122390,127826,137669,164980,137204,143522,92924.8,92079.9
125929,103666,186078,153976,180853,161808,91424.4,95351.3
144984,118182,219279,153768,192013,172414,101677,92760.1
128632,76215.6,149289,97090,102253,130060,93616,90289.9
106643,106934,65884,151809,84176.4,174308,93510.5,91274.1
130866,154791,172218,182692,150912,190655,90564.4,96167.5
144292,82979.1,198768,50611.4,163145,82521.6,94907.1,89955.8
121819,100010,141546,146833,161202,183375,90689.9,96847.4
102362,141039,53887.4,179390,95635.4,179010,94228.6,93717.6
78991.2,132323,130640,142089,155547,133237,95029.2,92489
85512.6,114106,53621.4,140272,92121.4,135552,92346.2,90337.4
88594.2,110734,136774,107107,153584,151943,98155.8,88877.3
115072,96606.9,138568,140274,159813,205036,96698.3,94600.4
102683,93060,83638.8,163530,92247.4,153199,92095,94264.4
102267,131278,129034,198887,133305,173774,89508.6,90149.2
113683,124632,156201,123227,162862,170145,94602.8,97558.7
97245,108168,154182,96339.6,156631,132922,92827.8,99029.2
89624.7,86842.8,205414,78720.6,150987,101541,89622.1,89650.3
127238,137229,164521,157220,166656,158182,95725.7,96155.5
94155.3,84554.1,185032,53340,191561,83342,94923.5,89812.6
111711,70298.1,140104,126462,151215,142047,96336.2,93289.6
84455.1,136714,128208,145345,138313,137393,93672.3,97303.9
75402.9,107009,118957,145753,154456,138054,89761.9,89627.7
89849.7,123663,126356,115623,128667,126609,91258.5,94339.7
125180,56377.8,160507,123040,151925,165274,94654.4,99703.8
118166,68764.5,165610,57605.8,156038,84575.4,93130.3,94919.1
89019,90133.2,96271,74979.8,105189,126329,91776.8,93146.3
71024.4,94616.1,154182,120649,143332,157931,96525.2,90786.2
123895,85142.7,98372.4,108769,107513,142152,97834.5,89987.2
108802,,140176,,141375,,92212,,
125420,,185172,,216868,,103641,,
111344,,186451,,148942,,89741.8,,
102639,,64937.6,,99785,,99125,,
87369.3,,120718,,133692,,94601.1,,
105346,,132160,,150867,,90930.1,,
110691,,227913,,233479,,95252.8,,
71705.7,,117314,,136352,,100402,,
105963,,139528,,152746,,91226.9,,
97311.6,,113175,,133631,,90584,,
100085,,122331,,128632,,92098.4,,
95589.9,,126557,,120733,,92616.9,,
99558,,65298.8,,84897.4,,93866.7,,
105726,,139646,,142590,,92875.6,,
104860,,77683.2,,131719,,104619,,
77058,,106869,,131858,,95981.2,,
106991,,125033,,127530,,97986.6,,
111699,,89958.4,,108108,,96466.5,,
88380.9,,112196,,110911,,88934.4,,
98283.6,,89671.4,,103960,,93026.1,,
91835.1,,111455,,127802,,91424.3,,
77539.5,,90557.6,,110152,,92561.2,,
88479,,50269.8,,81571,,92825.5,,
85570.2,,129714,,131942,,94838.4,,
93342.6,,124244,,137528,,94424.6,,
73861.2,,78757,,94397.8,,96472.3,,
88995.6,,43057,,85337,,92969.4,,
121572,,89912.2,,109011,,89713.6,,
115802,,114846,,128731,,90823.4,,
132454,,149499,,154479,,94887.8,,
79965,,51004.8,,66987.2,,97133.1,,
103033,,120133,,121974,,89116,,
125449,,157651,,152604,,89076.2,,
121085,,133517,,149310,,98358.8,,
105424,,69202,,83865.6,,92616.5,,
119273,,99696.8,,118768,,98955.2,,
100122,,104531,,152215,,94133.8,,
96592.5,,152771,,135222,,91199.8,,
106945,,115476,,131985,,88888.2,,
89179.2,,149566,,148368,,92336.8,,
82945.8,,88643.8,,99650.6,,89516.3,,
127886,,93556.4,,98585.2,,91211.6,,
119619,,177796,,197786,,90143.9,,
130649,,134977,,148298,,98313.3,,
83050.2,,98502.6,,124628,,94108.3,,
130448,,212852,,179969,,96834,,
103316,,120354,,142138,,94731,,
124830,,178535,,155749,,95921.8,,
68596.2,,37963.8,,65272.2,,89400.3,,
121032,,165579,,167719,,92976.3,,
113651,,188234,,235866,,95759.9,,
125917,,181986,,154900,,90103.4,,
102087,,123697,,139012,,93697.6,,
119287,,146761,,144046,,94599.6,,
155603,,206511,,203375,,98394.5,,
75005.1,,157192,,128537,,96751.4,,
144061,,183830,,142020,,90469.6,,
99990,,74635.4,,89661.6,,97824.1,,
120618,,142874,,149596,,91751.2,,
84566.7,,137766,,139731,,94885.4,,
120133,,108202,,159169,,94638.2,,
106265,,90902,,92680,,92389.4,,
103380,,126427,,104730,,89621.5,,
99916.2,,102621,,112853,,96998.8,,
132644,,145036,,137421,,94288.6,,
106126,,132125,,128398,,97236.9,,
72636.3,,66361.4,,93651.6,,94332,,
113210,,74646.6,,89115.6,,92370.8,,
142900,,131222,,149660,,93239.7,,
124573,,105809,,135846,,90149.8,,
108603,,169238,,171017,,96719.1,,
115155,,145631,,148810,,92308.8,,
101935,,119980,,158868,,92126.8,,
93259.8,,125237,,136644,,95526.3,,
100701,,166904,,148263,,92431.8,,
102718,,99206.8,,104343,,94926.8,,
143983,,138285,,146355,,96992.7,,
104178,,121034,,143489,,94305.8,,
110771,,108928,,129343,,92225.4,,
103834,,152061,,142450,,89512.5,,
130288,,141061,,132908,,90576.5,,
107800,,124559,,119323,,92667.7,,
95466.6,,126146,,141259,,94537.6,,
118498,,166533,,166102,,91447.3,,
123188,,232940,,156421,,91902,,
134032,,169259,,166621,,90062.6,,
116516,,94739.4,,159860,,92604.3,,
123033,,137094,,157196,,92687.3,,
122254,,151711,,121745,,91042.7,,
