"FSC-A","FSC-A","SSC-A","SSC-A","FITC-A","FITC-A","Comp-PE-A","Comp-PE-A"
131800,88818.3,163171,113919,144826,148484,83113.8,85352
122391,99144.9,154196,80376.8,135663,127273,68559,69776.6
85467.6,99958.5,87747.8,89271,90755,108641,63720.5,69304.4
98532,91949.4,123368,76112.4,104028,106784,86911.1,76368
88410.6,94088.7,95109,93902.2,102318,127385,68364.5,85920
132801,94216.5,181854,109381,154980,139503,73658.8,87952.9
90328.5,107254,78285.2,115576,74919.6,120344,60196.5,74528.3
120981,126523,141149,100887,125049,119069,85331.1,67740.6
78727.5,94740.3,108553,104329,102675,123642,62626.4,77261.8
98098.2,74913.3,102049,81503.8,117958,120001,67348.8,77204.2
81729.9,94637.7,99495.2,102031,119365,132754,87754.9,77874.6
96540.3,86480.1,83596.8,90246.8,87312.4,104202,60104.9,70983.7
96296.4,89925.3,106667,92673,95636.8,115732,56974.6,67835.2
100657,62707.5,76776,63414.4,82863.2,85503.6,66183.4,62644.7
91871.1,109244,107782,135345,113890,124978,77790.6,77057
93935.7,77761.8,92363.6,126043,106162,148512,62561,73905.9
107149,99983.7,117225,113077,106718,107734,77385.5,63008.1
68359.5,94959.9,113480,100649,115039,132255,60455.5,87764.9
108364,85264.2,110253,99864.8,92358,109025,66776,60692.4
108552,77677.2,108909,186078,95275.6,151428,67309.1,71875.7
83685.6,99488.7,91544.6,89815.6,97020,103159,72341.6,60159.4
87707.7,87665.4,108798,111693,104489,123098,63911.2,75874.1
106344,76438.8,129177,89058.2,102495,107398,65595.6,70610.3
76091.4,89430.3,63182,98504,82702.2,108308,84966.3,75808.9
125976,65760.3,147997,52942.4,122762,57783.6,55221.4,58729.4
62562.6,95847.3,59588.2,109190,72630.6,136942,59020.6,86066.4
82400.4,82098,84117.6,69004.6,86703.4,90941.2,71370.1,58534.8
105294,118661,120900,130507,115770,139972,81527.1,74871.7
75889.8,105817,95274.2,159901,101417,153754,80480.7,84268.4
110000,110239,126857,134911,120623,126406,74456.1,82114.2
86596.2,83756.7,85500.8,72447.2,96252.8,117947,61991.2,71410.6
71735.4,106648,68311.6,109166,77942.2,111083,74154.4,62253.6
87710.4,77653.8,85562.4,101276,81366.6,114699,72748.9,63773.8
104581,101965,101259,99941.8,117674,114520,72801.4,64280.4
128368,102525,166006,85012.2,131509,107510,58032.1,58148.8
108778,94145.4,88970,90277.6,105650,96779.2,61505.3,56712.8
82577.7,94406.4,88313.4,78227.8,88566.8,81569.6,59169.7,59431.4
97740.9,72651.6,101478,103279,116477,91921.2,75075.7,76301.4
70362,100579,93219,96650.4,111427,107437,73432.2,66606.2
108571,80162.1,87176.6,90004.6,101770,130967,55176.3,74743.4
91687.5,64543.5,101956,98166.6,103985,116284,56150.6,58299.8
90574.2,123891,117926,158399,117513,143840,75740.5,86164.1
116021,120528,147666,157375,134393,142316,66367.3,85412.8
94057.2,108734,94085.6,102900,94137.4,132175,71828.2,88229.9
81801,115925,103543,124600,102955,131187,57745.1,85274.3
84439.8,110704,87801,180830,72664.2,164661,65159.8,79513.9
95311.8,94700.7,155082,101195,122357,117760,78784.8,62772.7
107714,73788.3,129185,74811.8,151385,97616.4,71835.4,60199.2
75412.8,101975,128331,112827,104931,115444,75053.8,72578.1
94319.1,89662.5,85521.8,103670,96276.6,130059,84710.9,71457.2
89090.1,73347.3,124160,83444.2,132920,99958.6,73752.2,79900.6
127087,110978,127984,128022,116610,154297,84839.8,83880.9
72682.2,105789,61779.2,94640,68965.4,104101,75570.7,59483.8
169676,89816.4,203302,89535.6,148606,103389,58557,76343
91576.8,80302.5,116812,91455,117603,97392.4,75777.7,59105.9
113370,100397,114429,77474.6,113393,90699,74562.9,56204.6
94292.1,91250.1,110606,64464.4,95289.6,90647.2,67433.2,57729.8
104644,79053.3,140444,109500,120625,112486,75791.6,62191.9
91893.6,120254,79716,123556,83430.2,122361,63718.8,73831.5
108158,69965.1,115710,72716,95706.8,82105.8,68173.3,84312.8
73825.2,102506,72286.2,107671,87609.2,146801,71720.6,79678.8
96600.6,85744.8,105105,70012.6,101920,95660.6,62961.6,66195.5
99615.6,79470.9,95254.6,115122,94761.8,95638.2,71262.7,58651.8
110718,95526.9,121470,103531,123495,105319,87449.6,65887.3
100098,99834.3,94220,91025.2,99225,100195,57732.8,58256
127885,109679,121682,84676.2,99933.4,115765,57966.3,74304.7
74058.3,100769,75968.2,102960,90388.2,113341,64406.4,64410.6
112874,79469.1,108289,107253,113992,135603,61338.1,86995.1
114311,99224.1,121953,81285.4,130873,94210.2,86801,65633.2
133225,114290,136422,98497,143864,113490,77911.6,68757.6
136185,90454.5,138569,102561,131795,118472,69579.6,60239.7
84990.6,100235,77189,182748,76680.8,187230,60865.9,88513.6
95252.4,136798,99758.4,186676,103704,155196,69797.3,77114.2
62631.9,76016.7,40923.4,140025,59129,127660,55057.9,59565.7
90937.8,90386.1,92230.6,75717.6,72549.4,85779.4,55263.3,56857.8
79292.7,92241,119734,81166.4,99947.4,111272,57092.2,61953.9
84558.6,105032,131683,90855.8,112309,122006,85447,62136.8
162681,52380,183589,43561,143030,63987,81996.3,63901.9
85639.5,89132.4,103432,81984,111927,100761,62074.6,58737.1
99196.2,92431.8,130770,99181.6,133671,119654,84575.1,77230
88836.3,100847,81209.8,99093.4,94536.4,116773,62874,71808
99539.1,121009,85719.2,112533,121661,117806,85149.1,74353.2
73578.6,73560.6,105015,96236,105694,104181,70060.4,63074.5
87183.9,99206.1,112038,94834.6,132948,93994.6,80353.6,60929
106664,104865,67516.4,85019.2,100670,101748,58722.3,56592.6
96966.9,88931.7,83034,108693,86140.6,128513,55582.7,86928.5
89052.3,116355,75878.6,124802,79373,123175,63934.6,73008.2
113173,102693,150912,94553.2,140101,104700,86030.4,63008.6
106215,92954.7,106551,83903.4,101041,116330,68929.6,85414.6
116939,90801,124415,104341,110260,120604,59057.9,70140.6
95274.9,114277,88459,141190,99923.6,138485,77674.5,75954.4
87303.6,129354,135566,181373,114552,163587,85835,87529.1
91603.8,99975.6,118199,141452,116252,114264,74560.6,64069
103693,82349.1,102494,69972,107027,93069.2,85230.6,70880.4
63177.3,113072,137060,167537,138569,171191,70795,83549.8
112300,97362.9,151680,71880.2,106074,98956.2,56893,68661.7
101799,82878.3,79269.4,88082.4,95505.2,129661,77982.4,67529.9
116063,81232.2,124298,55448.4,117807,78958.6,59060.9,54669.8
98463.6,116679,110480,149029,121764,137246,70378,70696.8
72639.9,110751,72455.6,101163,79976.4,101226,80294.5,67123.6
67357.8,82962,40559.4,106334,58357.6,122766,55651.4,60080.7
95068.8,107665,98268.8,91252,95201.4,119503,58596.9,68505.3
91588.5,94779.9,96507.6,109095,101763,118640,69644.2,67069.5
54059.4,140193,69704.6,184289,96608.4,164153,72556.1,87563.6
111962,83357.1,159573,78694,149929,89840.8,82919.9,59803.1
105996,64543.5,89110,163104,103334,106140,74480.3,63945.1
111463,143029,128605,190064,118157,116360,65942.6,58284.3
86034.6,107130,75728.8,88897.2,80673.6,88403,62360.6,66880.1
93028.5,69381,72508.8,78967,82825.4,106557,82980.6,68771.8
86295.6,103100,120121,121094,137519,118012,86869.1,81656.2
110537,107902,145022,104937,130901,141786,73518.1,79104.9
82436.4,87716.7,100712,158103,118089,165477,76005.6,81532.5
79638.3,94299.3,103307,80834.6,94984.4,88278.4,59582.4,56051.6
69522.3,105284,123781,96621,101730,116731,59863.7,81570.4
96971.4,101723,133203,103372,115132,130413,71759.8,66326.7
97231.5,86636.7,89635,98938,99668.8,125017,73601.8,82222.9
79234.2,108984,106042,117932,118759,104374,86632.8,59243.8
77035.5,131993,130515,118716,92729,130871,68992.1,76413.1
81881.1,79405.2,146283,74809,99107.4,125315,60415.5,65445.2
72461.7,55639.8,66752,49063,80259.2,55524,54803.8,68633.5
91179.9,89037.9,96775,95488.4,95785.2,102977,62965.2,62616.3
87395.4,100088,92506.4,103753,114171,117422,61983.7,81178.8
95699.7,125993,101622,95872,113884,134817,64234.6,87465.9
69079.5,98781.3,89894,121241,101319,113263,81808.9,75028.4
94757.4,122846,107911,119857,120170,123484,80256.7,71357
90738.9,114133,84446.6,96943,94546.2,118520,59566.8,73470.6
80341.2,112138,156912,118159,140445,159132,76661.1,78072
65700,89223.3,75349.4,107544,70814.8,68934.6,58910.4,60946.1
153832,112396,164937,101058,137822,128759,86569.2,88020.9
109134,75840.3,103478,57377.6,112521,91676.2,77509.4,81154.7
81282.6,93012.3,111612,70368.2,97031.2,86823.8,64302.4,57831.7
80214.3,95713.2,82705,117176,89983.6,144162,60688,81523.4
59504.4,81961.2,50983.8,68486.6,63898.8,87837.4,63871.6,56310.6
103324,134701,97150.2,163454,74953.2,131516,56241.6,82926.6
101858,97874.1,142129,118069,128526,113473,76542.8,63859.6
79602.3,103735,97238.4,138886,103260,135275,67014.1,76791.7
116908,67044.6,176056,83428.8,144665,118549,80416.5,72220.7
97326,105411,101655,96156.2,119900,108683,76167.8,55302.8
49431.6,109717,67306.4,180719,76169.8,147335,55279.7,82706.3
100166,120354,100236,124667,100912,161714,56901.5,72022.5
86463,60291.9,93877,64359.4,81076.8,105087,56363.1,61705.9
75929.4,75731.4,119918,75962.6,117144,95191.6,79873.3,55689.5
93467.7,74409.3,72063.6,80453.8,108886,96973.8,82427.1,65182.4
86774.4,112450,78684.2,127329,106709,108205,68630.2,68084.8
68485.5,108879,21961.8,152179,50390.2,150836,55695.2,83248
126491,113320,176838,140403,175213,143749,79408.3,71541.7
78236.1,80740.8,67513.6,98012.6,103797,111600,71374.3,60430.8
88801.2,88488,85565.2,103649,91865.2,112042,55806.1,58664
80480.7,124648,121876,137981,143094,150363,88088,74992
79987.5,104878,74918.2,124162,85901.2,121908,56219,75706.5
94582.8,107679,102672,120967,114365,114240,61273.5,66084.5
83715.3,113466,102766,98396.2,121120,138232,81678.1,87442.6
87408.9,104456,76396.6,104287,69966.4,104353,56172.1,58602
95568.3,95227.2,151472,83262.2,116549,108286,81968,62964.7
96066,96147,94283,117379,105487,116095,68126.5,75882.6
130912,81846,185907,126837,134855,172486,83590.7,83276.5
113677,78787.8,152943,93608.2,134574,105755,70664,72068.5
86283,111269,103873,141442,108584,131835,58921.4,87344.1
99538.2,95793.3,164759,109213,146752,122928,63862,80779.1
86672.7,88590.6,103824,68679.8,122123,90998.6,81709.9,68110.1
67052.7,93440.7,103600,96117,98159.6,95838.4,78011.7,61903.3
131847,100012,141581,132996,128454,154867,81423.1,86838.5
60087.6,85064.4,83568.8,83374.2,82031.6,102353,74795.6,55127.6
115613,50754.6,109299,97889.4,98175,111985,58329.9,55402.8
81293.4,100090,111185,122804,117802,100199,82350.1,62766.6
118207,101970,126057,142645,109425,129279,59632.8,66610.6
103731,121655,94487.4,135608,104336,154585,86804.2,87966.4
83542.5,96595.2,116259,98274.4,131562,100079,75791.8,58936.6
118523,100512,84161,101132,112343,118822,65421.6,79780.2
91328.4,93243.6,79378.6,94638.6,85174.6,138818,70371.2,83111.1
81945,86429.7,136675,65807,143072,88125.8,84859.1,88274.2
82737.9,76408.2,80255,69484.8,93436,83487.6,56625.6,82410.9
119370,92728.8,127662,90029.8,125563,111178,68767.8,64002.8
96758.1,123436,85390.2,135509,105882,118416,63837.3,56426.8
122800,117460,99034.6,102148,103303,117585,65546.7,83682.8
99031.5,99072,108735,101483,93042.6,115500,70660.2,72319.8
98072.1,85734.9,113260,73404.8,89632.2,95251.8,63845.8,56439
107928,117601,124513,86465.4,111356,130591,85711.5,68728
107977,101842,103363,100488,109684,104135,58286,58130.1
81833.4,112256,70809.2,112400,88314.8,152277,60498,82647.3
107968,91668.6,109749,140924,105437,153157,86167.4,88131.2
103639,97416.9,133157,121449,146495,127133,81679.8,78431.2
77202.9,85003.2,39646.6,91708.4,64332.8,103657,55301.2,66877.2
112895,99516.6,121698,132741,103614,133774,64980.5,74704
93649.5,98383.5,91616,77434,106053,88463.2,61583.8,56869.2
93403.8,85133.7,59032.4,130983,82871.6,157412,73044.5,73588.8
124448,67739.4,100698,19693.8,109655,75427.8,64501.7,55047.5
70074.9,84469.5,104744,90706,119319,102487,82137.1,60107.9
119363,96516,84161,74310.6,121325,84254.8,79466.6,70326.3
98723.7,76821.3,106550,74127.2,101581,94539.2,56654.9,55432.9
85947.3,114224,59274.6,101674,78568,105238,56567.6,62586.4
147550,94178.7,156306,137487,140641,140003,81864.4,83305.5
105924,103821,97969.2,105634,109977,159995,73071.5,67547.6
91944,113066,90939.8,114689,126577,123735,83024.7,80593.1
114538,91809,137452,82996.2,145586,119279,84602.5,74813.8
116474,96672.6,133129,108475,121540,104149,73697.5,59512.7
80340.3,94278.6,159760,98373.8,125937,98768.6,61694.8,62958.2
85661.1,56517.3,63771.4,140487,67208.4,115790,57898.1,67558.6
78295.5,72463.5,85551.2,125474,94924.2,119287,68565.7,63956.5
88296.3,107738,131548,109294,129172,141100,81397.2,79534.2
93799.8,125558,148131,115466,158330,123920,56475.3,73009.2
99019.8,90223.2,106747,94141.6,95986.8,126914,67289.1,74126.1
103972,91939.5,88970,123749,102231,143262,85890.2,85950.8
104685,105802,81541.6,98635.6,99178.8,118595,80997,71111.6
77362.2,74422.8,74309.2,85398.6,85751.4,95831.4,56513,85969.6
86320.8,95050.8,105045,91609,107064,102879,76356,72344.4
107871,106160,98702.8,98870.8,96586,101101,57975.9,63400.2
87278.4,88074.9,185042,79679.6,171420,87451,86222,67544.9
94110.3,103673,106373,120247,106715,130701,70025.8,84270.8
138580,99459.9,115069,143465,122304,120407,59868.6,80524.9
96976.8,89901.9,90934.2,88624.2,97050.8,100657,74686.9,79917.4
83180.7,121928,63261.8,112223,89090.4,114638,59222.6,69538.6
136181,92061.9,133413,101510,142939,116771,55535.5,79117.5
76860,114262,85519,76512.8,102484,109477,58059.8,84744.1
94859.1,69309,84624.4,92465.8,111703,115423,83235.7,76070.5
98860.5,76044.6,94812.2,92985.2,94617.6,111318,60923.5,61912.9
84071.7,103299,73955,131519,84382.2,121909,84062.5,75352.2
78255,95091.3,101419,86947,133896,106253,81310.1,62543.6
108716,89759.7,125045,101382,114803,125761,81079.5,65573.9
100368,95485.5,124278,104341,99908.2,124680,74438.3,86231.4
137089,90027.9,225172,138834,177240,142894,88497.1,83653.4
83396.7,44881.2,97714.4,40175.8,86924.6,47630.8,57927.3,58894
87470.1,101425,104282,90927.2,102245,104360,67601.5,56886.7
91172.7,95479.2,117071,121561,107922,107295,75623.4,64349.2
78869.7,156299,134456,155687,138132,158523,74196.8,71576.7
91292.4,51223.5,97178.2,24798.2,97311.2,44682.4,65920,62381.5
154937,108948,158137,136725,162821,128271,87558.2,88393.7
92511.9,94964.4,90785.8,96609.8,101471,118583,67345.3,55905.3
89352,89632.8,80756.2,84347.2,91616,109115,66989,69754
98765.1,102744,83421.8,109001,90204.8,126484,60767.8,82914.8
99601.2,80524.8,80796.8,83615,98317.8,109190,54926.7,60141.6
67078.8,80909.1,54370.4,101318,78302,134296,66960.1,80865.1
78649.2,107707,80934,108427,93276.4,117393,71583.7,79014.1
91289.7,90432,69832,80572.8,81856.6,123781,55347.8,64480.1
107811,113873,111196,117450,120113,112951,83462.1,66092.9
89033.4,106517,80536.4,142633,98634.2,120050,63828.5,56395.5
93384.9,93632.4,102771,101700,98610.4,106562,63143.4,63451.6
97456.5,119974,164959,113274,170568,118300,78641.2,63168
100328,97512.3,110729,86745.4,110333,110107,78198.8,71256.3
99522.9,125291,119692,143702,119714,138999,84467.1,86037.2
92002.5,87022.8,73220,93781.8,85509.2,129469,65433.3,67612.8
85380.3,105552,52470.6,85775.2,76897.8,101133,82871.3,57492.3
112909,93556.8,96567.8,92201.2,101396,100866,63164.9,55882.7
66648.6,98271.9,65018.8,84478.8,82017.6,106694,54899.3,66859.8
89078.4,80796.6,78895.6,73038,100481,99976.8,82133.3,66172.9
56083.5,92782.8,130018,78143.8,130612,94740.8,78754,54702.9
101657,106808,135094,104843,123071,108728,79204.3,65442.7
129640,65817.9,162585,82741.4,191111,102726,88534.2,57465.4
96332.4,98333.1,127229,86770.6,102998,102873,70365.9,61137.6
124498,92772,111639,90004.6,103561,94456.6,76780.3,82185.8
85520.7,101290,65787.4,120401,97664,124884,88259,75032
94063.5,88101.9,120162,67459,113729,89602.8,65401.1,61944.3
104245,93330,114688,120263,129262,149474,77543.8,87474.6
95826.6,94923,100059,98704.2,96387.2,114268,54946.9,69153.6
60626.7,102364,114499,112281,141204,105539,87679.6,85697.3
110307,91130.4,83841.8,88900,94824.8,104332,59407.9,57114.6
89883.9,68478.3,76519.8,108256,92176,133539,63466.3,82984.1
138784,105680,213651,134982,172777,129878,77769.1,82658.4
93545.1,79146.9,90960.8,109546,98532,110620,60591.4,72008.2
101362,69861.6,113312,109602,145495,96836.6,88661.8,61669.4
91775.7,116084,144995,104160,129531,114650,81635.6,58921.9
99909.9,157761,105255,212022,114541,220758,56828.8,79678.2
117323,120013,101543,136395,107759,133503,64593.3,86062.7
69772.5,69278.4,77669.2,62077.4,81851,80068.8,57935.3,87783.8
117804,67116.6,101304,72409.4,107941,87206,60061.6,59448.2
81827.1,73029.6,73980.2,100034,65808.4,124540,56248.9,66278.3
87348.6,96966.9,122037,109998,109697,100890,79537.5,63026
94225.5,92731.5,74901.4,133643,85797.6,135160,65346.7,71736.5
114818,74769.3,91375.2,96164.6,83395.2,120278,55566.6,82321.8
98646.3,104955,95726.4,106308,114024,100531,78031.9,71345.8
105344,112126,113936,125822,96118.4,117288,58956.9,77983.5
107781,76186.8,110099,96916.4,109215,97122.2,73531.6,63251.8
70994.7,85217.4,55738.2,88289.6,67958.8,123105,56349.2,64962.2
70321.5,96680.7,53160.8,71699.6,52238.2,99682.8,62335.1,65066.9
114872,93503.7,92106,126893,104761,139143,69607.3,67067.4
100903,95181.3,94626,213602,88187.4,151943,56167.1,75102.8
107164,90449.1,154855,185030,134088,139924,59784.9,60905.7
125244,121081,131709,146003,129130,153181,76580,86639.3
97456.5,138562,109971,104509,134940,146870,83908.1,86198.7
101540,104094,109004,110543,129690,132804,74849.4,83495
117062,99538.2,106698,86811.2,108000,102123,63586,64857.9
94340.7,89747.1,87267.6,90528.2,92834,134511,75695.5,83641.6
107030,92039.4,99047.2,135713,96037.2,128647,64387.8,61607.2
107596,82721.7,112473,88974.2,108584,92698.2,70729,76442.7
55125.9,113062,27671,126227,48032.6,124928,69740,87190.8
113372,133377,160229,158523,132486,165161,72644.5,83879.7
96936.3,109452,117163,116827,108422,121953,78179,70897.2
127700,59067,114727,49067.2,125154,61135.2,72168.5,55401.7
80102.7,113792,111593,120603,131711,143744,77417.2,85317.9
97997.4,86707.8,118943,78062.6,119461,114166,57378.3,69053.9
84886.2,99910.8,77747.6,96006.4,107915,131062,65090,81514.4
132555,82827.9,102932,140385,107085,138918,56346.4,73945.7
123580,84346.2,219932,86513,158365,120315,56094.5,66545.2
57369.6,133244,81411.4,120413,93774.8,129454,68690.6,67795.4
121212,97569,151201,77308,142797,89661.6,86454.3,60255.1
93929.4,86841.9,78040.2,215130,108899,145466,65075,78057.9
87668.1,97362,58732.8,98908.6,87589.6,108219,61546.2,74256.9
88731,114885,87731,119143,102193,150094,73052.3,88596.2
85948.2,91359,96188.4,104324,69752.2,100093,56204,68720.7
95104.8,112315,120637,109577,104083,113716,62780,79690
87856.2,109865,102136,139705,101536,120256,75873,78016.3
113147,68882.4,122283,98551.6,112585,140556,74452.2,77023.7
82988.1,94688.1,116525,139166,131925,123983,69805.7,75164.3
97214.4,85417.2,67419.8,61576.2,81405.8,74768.4,55750,58424.2
96742.8,92696.4,102665,89444.6,131131,125702,81801.6,60783.9
102489,121973,85086.4,78269.8,112918,164307,84504.1,60702.9
102879,81590.4,91833,63764.4,95439.4,83860,67022.9,57364.7
90717.3,76047.3,104054,93213.4,101325,112951,61958,56252.3
103251,108663,81684.4,126168,86640.4,116285,70699.1,84716.4
88920.9,66429,98221.2,120887,103590,139518,55044.2,81226.7
113090,97385.4,133605,111534,137287,102544,82068.9,57119.5
84508.2,102208,100461,89362,104814,119581,67097.9,73280.5
104241,97813.8,97811,86104.2,94719.8,104044,58058,58700.5
81288.9,104288,73192,94424.4,90125,112328,59160.8,58760.9
76167.9,82665,101738,62442.8,102330,71166.2,67267.9,68457.7
115814,77175.9,116584,110664,114471,74216.8,79045.3,56028.8
78017.4,110794,73325,134596,71191.4,138270,86925.5,59773
101868,101956,99498,99194.2,111749,107324,68185.3,69735.3
80957.7,98571.6,96423.6,108875,112239,107369,55867.7,61690.6
104747,115114,126766,174196,114206,156800,76772,78190
82747.8,71471.7,123190,99913.8,113583,153448,56429.8,57148
111493,82693.8,162186,63228.2,130927,103824,69094.6,55407.7
91285.2,93444.3,96139.4,97638.8,83052.2,106197,58715.6,66129.7
69516,98920.8,64661.8,105769,78979.6,115991,76014.8,62492.7
116914,113835,106357,105980,141121,130078,85146,71658
102096,90684,110067,68769.4,104639,84828.8,69130.3,55374.9
92417.4,86686.2,107629,86247,102868,126931,62056.2,86084.2
77513.4,87761.7,83785.8,119200,95172,126722,61190.9,64026.7
67392.9,83544.3,68020.4,96005,82497.8,99591.8,57171.5,58703.1
70156.8,71285.4,69867,109494,95125.8,147421,78961.4,87534.4
78901.2,95996.7,85715,88086.6,91817.6,109357,68094.3,60566.4
95418,95749.2,70347.2,107717,92989.4,118734,77918.4,58199.7
86688,105479,43766.8,91750.4,69984.6,99586.2,85220,57559.5
87123.6,81260.1,104801,83490.4,95930.8,113725,56124.8,76115.5
93701.7,106496,97497.4,88470.2,83993,102739,57620.1,56755.1
103874,94821.3,111268,116252,111528,108679,63701.1,68332.8
88318.8,117306,77758.8,138732,94470.6,154675,55182.1,83595
77851.8,97158.6,99789.2,93221.8,99766.8,119829,74404.5,78862.7
97666.2,98751.6,92986.6,93858.8,128232,92622.6,82037.8,68293.3
113385,117640,161454,93409.4,159088,92348.2,86825.1,70627.8
106071,86512.5,136279,94494.4,125065,126207,80532.7,57127.5
78776.1,108822,77098,88062.8,99365,111784,79963.7,56685.8
86393.7,83615.4,102255,97959.4,123715,109130,82150.6,88272.7
74642.4,63694.8,82460,44314.2,98399,65517.2,68995,85279.1
122519,107708,149997,114101,135824,117012,88591.1,65336.5
88486.2,105796,101843,110720,109469,151900,57658.6,54864.6
105722,94818.6,117065,66404.8,108142,91803.6,69732.2,59200.7
88965.9,84497.4,107324,90248.2,99446.2,110796,58796.8,85710.4
86380.2,106259,81720.8,78120,85687,95537.4,55987.7,60792
62448.3,90251.1,111086,80809.4,126631,123015,86622,65517.2
114346,81509.4,115377,75392.8,109245,96576.2,61482.1,61040.9
113069,98638.2,118658,151969,102073,143368,60315.4,79901.6
99927,101282,108588,73318,97312.6,75140.8,58247.9,57448.2
102756,127328,88022.2,149787,80147.2,145320,56349.4,77665.8
86236.2,96953.4,86752.4,110502,87045,125924,58103.3,80087.1
97000.2,92137.5,92003.8,81417,96805.8,99209.6,61599.2,64531.8
68320.8,104784,76006,91868,99257.2,146798,68748.2,83411.3
107712,97290.9,121142,85306.2,104744,99727.6,61574.7,66350.4
111429,131626,184401,175917,158068,139194,79649.6,57327
110212,89091,126311,114092,125462,135827,78489,76150.6
94660.2,111392,92947.4,118990,85667.4,114979,58875.2,58206.6
148025,88305.3,144481,88988.2,142155,97925.8,85540.7,78233.4
97554.6,83690.1,83126.4,84172.2,80129,97885.2,55167.1,74365.4
99522,75205.8,125705,53862.2,131753,91890.4,70100.6,87309.4
80674.2,93255.3,88935,54968.2,122333,77532,65830.1,73121.4
91608.3,99349.2,85513.4,105120,97937,121057,61459.6,71638.2
94177.8,64380.6,74291,163744,106035,160170,73389.3,75670.7
62667,97430.4,76707.4,101499,104877,121066,61190.3,69721.3
78042.6,89180.1,84466.2,83900.6,90525.4,100796,55696,59529.6
94857.3,95031,113618,123508,107624,106116,68123.7,64839.2
94802.4,85366.8,127568,93566.2,111955,105685,56096.9,77591.4
125069,106279,101546,115623,108259,119274,71834.8,80089.2
93918.6,87573.6,104688,180107,118653,135607,74084.4,68162.1
85946.4,111933,99566.6,96856.2,110956,133188,66367.5,77460.5
113818,82880.1,117579,105585,109344,119630,60163.7,80263.3
91935.9,104656,127546,96392.8,130689,133279,86887.8,81056.4
115513,106414,194946,116502,148868,118805,62518.8,64940.8
119380,118396,129227,158308,133728,125576,84830.5,61897.5
84575.7,138549,78601.6,148711,210066,131316,65937.5,65852.8
101948,88942.5,111034,77142.8,134004,100425,67884.3,58975.3
91017,93160.8,130658,102588,133378,114474,79446.8,54842
70360.2,108809,89997.6,125201,107974,133021,77914.6,83895.6
110821,113744,86163,149887,102028,147167,67396.9,86446.5
111390,131368,120984,165358,130431,180152,87100.6,88385
111965,80199,175949,141225,180519,141868,86768.1,74767.4
76696.2,51617.7,90272,96374.6,100183,105343,64048.3,60782
87278.4,107723,189029,156198,169005,125576,80904.2,65095.1
95923.8,81760.5,89048.4,109820,84345.8,130633,61921.5,78183.4
96533.1,101117,108548,69602.4,103541,111682,73092,73240.5
81969.3,155630,107365,174439,112491,164125,70689.7,85160.9
101992,70969.5,78486.8,67110.4,90178.2,108275,59982,70896.2
99522.9,99899.1,97577.2,109892,114034,136224,66821.7,83482.7
109084,97501.5,127107,115135,135755,133669,88008.5,69882.2
91381.5,125375,68815.6,155305,75752.6,157004,77827.2,71333.4
114463,78653.7,132306,89558,95123,130364,57577.9,84826.8
80015.4,88590.6,112308,96135.2,126283,105533,62654.7,62065.5
99218.7,63599.4,77028,103152,92495.2,90200.6,55695.4,63499.4
90768.6,108275,107379,117782,124578,127256,65785.5,64224.9
87603.3,87222.6,89558,167544,92860.6,151649,60314.1,57415.1
85642.2,140373,128780,216497,146825,190245,80305,87435.9
89856,88590.6,57338.4,112868,77744.8,155029,62588.1,86273.7
84319.2,97239.6,91596.4,101258,105049,107064,72932.5,68012
100387,101254,117152,103215,101812,117398,65474.5,74609.5
95213.7,109747,66325,100948,90392.4,103720,58030.7,76462
73798.2,96146.1,118485,121579,127835,152589,85993.9,88711.4
109912,113361,133126,101669,135416,145502,84678.2,86648.3
100956,108487,98726.6,113007,116882,118716,68233.9,62900.2
114148,108606,122874,137445,129858,127490,65979.6,72772.8
75320.1,104243,111777,103926,104096,106176,78956.6,59017.1
111414,80502.3,120085,63226.8,114971,81256,71649.7,54921.3
92666.7,99728.1,119531,68807.2,141634,103296,83085.3,68923.7
115648,86101.2,110202,108868,95545.8,108434,67787.5,58190.7
88987.5,91242,91245,80413.2,89213.6,113274,59993.5,62414
50805.9,103911,35116.2,111948,51779,112644,56810,61963.3
108458,107995,118397,94753.4,126643,88820.2,72264.6,63325
75213,92034.9,135633,65633.4,94809.4,79270.8,66740.2,59595.7
84370.5,88823.7,73056.2,99908.2,90766.2,103929,67900.5,81008.3
97020.9,88860.6,76318.2,81310.6,85282.4,82664.4,61584.9,55616.8
88244.1,75209.4,107682,100885,146075,133552,56854.2,79746.8
102429,96838.2,151049,110666,109980,114269,58683.6,79291
113194,95901.3,137889,104719,121233,117484,72526.1,73543.6
107216,97731.9,183439,96920.6,156992,120152,54848.9,68442.8
77174.1,79461,101963,90426,111908,99478.4,63798.7,74744.4
93860.1,110517,87684.8,102446,107016,116490,66958.2,85755.8
91197,102040,88754.4,106980,110513,118306,70734.1,85616.8
74148.3,98361,48199.2,122387,70982.8,117937,72535.9,83192
80295.3,88840.8,133860,159466,119962,138509,65787.2,62247.5
92923.2,87730.2,89003.6,69626.2,97172.6,95288.2,66784.8,68743.6
88773.3,90002.7,96447.4,160576,111376,160972,69479.1,55968.9
99316.8,86746.5,88142.6,86401,99141,114491,62501.6,66206.6
103733,88473.6,118761,102539,144775,94805.2,73935.9,58383.8
66619.8,87901.2,93514.4,181524,111349,178877,68371.3,61844.7
91308.6,106678,108676,120732,125929,118574,74537.3,69620
68625,91966.5,61132.4,86784.6,79028.6,111237,57895.5,62200.2
137066,89430.3,183977,74187.4,124097,93128,85911.9,63099.7
88479,78469.2,108966,59262,111355,85195.6,62052.9,56499.2
77067.9,71584.2,111664,61023.2,104544,87514,70731.3,63180.1
130431,62836.2,94200.4,132296,134161,123676,56073.5,54740.1
109012,106381,145438,112864,166130,138754,83147.1,84846.8
119877,87390.9,93945.6,133659,127103,139209,84603.5,83360.9
102032,85187.7,147818,118901,136814,98974.4,85850.1,55020.8
93147.3,101673,98127.4,167014,103548,146156,69992.2,79062.1
66564.9,102859,65832.2,90519.8,66096.8,99696.8,72393.9,66511.1
91300.5,103443,86520,90715.8,89486.6,114450,71761.3,57917.3
57893.4,93137.4,59742.2,72690.8,51454.2,95953.2,55215.1,61326.4
95490.9,116324,82681.2,110097,97540.8,114895,62425.2,69205.4
101994,102694,113602,108067,101550,92750,67062.3,60038.3
88862.4,118553,89390,156975,88767,163948,69768.5,87330.6
108583,85957.2,100563,83864.2,111839,112241,80361.9,71263.5
104864,104234,113705,113467,91322,121139,56610.8,70629.9
119086,110038,107290,146483,82629.4,143525,56110.9,88465
89296.2,92023.2,96100.2,86126.6,98421.4,102395,72855.4,77437.8
102626,99695.7,86651.6,134956,93108.4,113662,81749.9,73292.6
96160.5,70375.5,84802.2,99699.6,93874.2,100127,61782,55213.6
95502.6,85625.1,101101,132434,104929,160597,77747.5,85899.7
99864,68995.8,101919,87781.4,116672,59082.8,80221.7,64169.5
87300.9,141989,124135,214064,136850,207691,76184.5,80447.7
52684.2,106254,75801.6,103954,97447,115149,59687.6,64237
88033.5,87838.2,75000.8,91821.8,81877.6,118055,69208.4,59548.5
100840,110820,143993,119993,138764,115643,59391.6,70752
99655.2,111581,115266,115038,124359,117825,69468.8,68002
105156,94195.8,107142,98848.4,105669,101238,56606,59628.9
72901.8,107655,79681,88471.6,85927.8,90011.6,70566.5,71670
127800,87374.7,129609,76358.8,132581,85722,77213.3,56767.6
75353.4,105728,73430,116241,81989.6,109200,56714.8,81678.8
81474.3,64168.2,79800,39530.4,95915.4,83543.6,72361.2,87552.3
102695,124934,111549,129690,111115,126883,60783.8,88060
109024,108012,101671,114533,101949,114726,55627.3,62969.2
109391,132376,126531,155306,114955,155158,70771.1,63182.8
87950.7,85042.8,144669,105245,120799,90301.4,82001,58605.3
102359,123061,119497,95194.4,95505.2,131285,68690.6,79765.8
97565.4,102434,90426,89791.8,128303,105715,79757.3,63604.2
80827.2,118508,72552.2,99369.2,94575.6,110628,69420.3,66633.3
76128.3,82322.1,98390.6,93175.6,101492,108402,73554.9,70895.5
78532.2,106930,109978,103722,123571,112546,75059.5,68815.9
88177.5,89975.7,127967,82756.8,121604,105179,73752.4,66652.8
95541.3,80291.7,111891,97003.2,102483,88457.6,57931.1,55624.8
87317.1,75771,109719,108753,112479,137301,67523.4,76329.8
86781.6,130324,118664,138397,97930,132685,58140.5,78350.4
94880.7,82901.7,126575,116431,115780,126589,80413.8,82661.6
99387,112918,140195,164486,110226,144388,66552,79225.9
88592.4,92484,88698.4,110090,91224,123670,56793.7,81548.9
85923,116563,82310.2,127254,92124.2,131125,64193.5,65146
97166.7,92049.3,96332.6,84651,101636,77715.4,82449.2,56604.2
98779.5,100139,121835,88118.8,128408,123970,78889.5,67887.5
91503,130894,143738,131408,107911,144557,70088.2,84518.4
94364.1,99915.3,74621.4,91989.8,99650.6,101107,57230.9,79838.8
77403.6,84831.3,115128,131372,126032,140186,69097.2,70285.5
87278.4,93613.5,92905.4,129277,91644,125831,61604.9,81611
45135.9,138844,47118.4,176833,49770,139744,59523.9,75725.9
92587.5,87355.8,140776,86594.2,140832,102726,79068.4,61707.4
100378,119140,77644,122625,93367.4,130787,59156.6,86098.7
72675.9,94317.3,110685,92871.8,103030,81348.4,59797.4,59381
86106.6,88134.3,105662,116245,97697.6,113803,64995.3,63343.1
89743.5,100084,100646,105476,112291,126738,73194.9,55295.8
104796,105318,84151.2,94921.4,113079,107769,60107.2,56335.8
91809.9,64069.2,139832,77957.6,136464,99398.6,86268,64408.5
91604.7,116158,106581,121731,109992,122895,64431.5,87385.6
88438.5,114142,104660,112626,109551,135839,88521.2,76890.7
82318.5,97089.3,114446,107226,88093.6,101587,62565.8,66957.3
95915.7,98242.2,105815,91121.8,117032,130809,64256.4,81034.1
98604.9,99563.4,56243.6,96152,67342.8,97111,81940.8,56586.8
111110,70667.1,127256,146343,107535,137073,68534.5,70770.6
82911.6,59090.4,75551,80211.6,77635.6,95515,77927.8,57624.6
114449,111576,106359,121531,125320,135852,71735.2,85538
70940.7,101976,27738.2,92554,60398.8,114295,62806.2,66113.2
106959,73191.6,72819.6,89096,92215.2,116760,63726.6,67594.5
103241,111385,126266,134918,111350,126556,65271.7,61863.1
142400,103539,127436,107488,126952,128415,59120.8,74092.8
72135.9,109932,102026,104769,68684,107211,61472.2,71486.8
118232,110737,103250,137889,110806,119144,67665.4,73693.3
95767.2,83961,116032,62475,138372,90279,71309.3,56451.6
102419,102822,137554,121705,159109,127863,73640.5,74907.6
114371,90497.7,139427,105503,133928,104912,87113.3,69124.1
122749,94900.5,142447,114768,129850,111083,70220.5,71531.4
94452.3,108940,80353,135237,85419.6,137334,56772.1,84321.1
85791.6,96336,73934,145489,88999.4,158803,56578.6,88235.9
88323.3,103348,77771.4,128054,95421.2,111593,82748.4,70571.3
73537.2,113620,129030,111797,125163,139062,71048.2,79058.6
100105,98635.5,87848.6,91075.6,106358,102064,75626.8,58234
98307,99211.5,95599,106203,92947.4,147994,65086.2,85311.8
94560.3,83952,81949,120579,84742,130474,73656.6,68071.6
115767,93446.1,84964.6,95050.2,99793.4,101363,55261.2,55002.8
81693,90690.3,80526.6,72360.4,107628,106163,67847.7,72176.2
79285.5,94541.4,141298,91910,135888,120576,88098.6,55955.5
125851,86180.4,100656,87770.2,103543,111909,54736.6,81423.3
88627.5,88423.2,121051,97083,106084,115868,55988.2,75672.8
107380,103517,100713,107586,99576.4,92335.6,71449.3,56835.4
75088.8,77524.2,184680,94068.8,156894,111845,60608,62230.3
90585,84857.4,123749,88669,115415,93156,67648.4,72272.9
78279.3,88070.4,127226,100363,127274,124807,76871.8,83544.1
103134,84130.2,99233.4,72836.4,103886,119074,72275.3,80941
99640.8,103379,69111,131838,84915.6,140228,66729.8,88371.9
91248.3,115348,106103,113042,77467.6,140416,56620.6,78714.6
97702.2,105543,122685,75118.4,142115,91467.6,88546.6,62941.6
97308.9,102294,94434.2,81890.2,91378,94738,62560,58989.8
81965.7,78428.7,121531,61475.4,122889,88291,80808.6,66129.7
101281,130949,108987,118758,114295,141858,87690,66992.2
70817.4,119757,37784.6,155588,66406.2,126610,60259.6,67476.4
91378.8,91206,100338,75031.6,105809,86450,68495,54716.9
91888.2,110627,98106.4,115014,86753.8,135254,55098.8,85184.1
129730,132558,127407,173982,119753,158098,77080.6,79117.9
120819,106329,119195,130001,128177,133473,78835.3,78886
67347.9,51389.1,83071.8,56156.8,107813,78078,75442.7,70209.6
107305,94815.9,117319,106982,109908,133483,63337.1,83928.4
121177,68607,162376,76393.8,144323,95872,83929.5,63150.9
122090,121713,94367,166390,94008.6,160507,77048.1,87961.1
99699.3,92169.9,108217,80985.8,94507,97721.4,75087.3,59892.8
79387.2,84776.4,99953,83717.2,116984,109998,70538.6,82680.3
76898.7,91106.1,53074,78726.2,60190.2,94956.4,62159,88210.7
104585,82593,107659,62878.2,117677,77833,66922.7,55465.7
132332,110857,141901,115377,124734,106765,66367.5,66469.3
104578,106460,108325,130179,112633,148102,70744.6,88642.5
81734.4,98158.5,58822.4,136118,81559.8,140255,68696.9,76680.9
103882,92952,101144,120301,122556,125033,86655.1,76147.8
108572,121913,152888,119832,131552,141616,64884.8,86009.2
95249.7,114677,62752.2,170437,83213.2,121460,86577.9,58453.1
86101.2,81074.7,79585.8,83123.6,83326.6,98088.2,60976,58817.6
57760.2,105098,30532.6,61752.6,47660.2,101884,72639.5,67626.4
92404.8,98117.1,80438.4,99664.6,81828.6,118609,59543.3,86539
88276.5,101833,111469,104252,90039.6,103548,56735.1,56139.2
123282,119130,136695,161139,136310,166685,69699.2,74670
71704.8,99539.1,143574,115339,157128,127329,74008.3,85145.1
62621.1,98037.9,50877.4,80691.8,61019,130546,60069.5,72719.7
105719,68351.4,132643,121664,161542,83501.6,88726.8,56825.3
102928,108386,90496,90206.2,122590,108473,86806.4,68300
108041,104532,116166,126265,106492,138408,58062.9,85015.3
98478,99401.4,113953,105900,126560,123407,76028.1,78974.5
129680,87991.2,151760,86566.2,148743,121492,77009.4,81711.5
113206,90716.4,129080,113855,120235,149129,59114.3,86549.7
109326,92173.5,116217,104875,104583,118650,73466.9,80632.3
98223.3,110855,64482.6,137815,84477.4,135331,55048.1,75687.8
108410,104112,132090,92486.8,105442,105251,80438.4,65741.5
87367.5,60813.9,97316.8,29927.8,89915,50339.8,63280.6,61120.7
78200.1,115416,70715.4,148995,73101,156633,57318.6,66996.3
100278,113114,112316,151917,120791,137812,76104.6,73013.3
106496,104720,131124,110740,99234.8,126298,55481.3,82735.7
79007.4,83906.1,117970,79221.8,108630,102256,74277.7,71946.7
86280.3,135323,76021.4,169644,87383.8,143592,56236.8,76705.3
113290,72859.5,165092,70121.8,149773,78185.8,63801.8,72553.3
101990,117212,121409,149492,135912,134438,80522.3,73103.8
114073,85148.1,124407,88848.2,129664,93612.4,79546,58171.5
100640,66555,102193,39872,91763,45750.6,59304.4,54988.1
99969.3,133619,111471,217288,97452.6,158627,56562.6,76684.2
78073.2,111698,69003.2,90794.2,78296.4,101300,58640.1,68441
74637,92522.7,94956.4,105055,92943.2,98805,66007.6,63745
116799,106430,123000,129997,101524,106364,68529.1,74704
111912,126379,225677,164448,148770,137886,77735,68320.5
87201.9,111586,111423,88734.8,129240,127460,79146.3,72206.9
81939.6,91653.3,94903.2,80850,99390.2,113194,59987.6,83265.8
104804,90684,125387,87913,97326.6,87844.4,56781.6,56115.7
96604.2,76151.7,137194,95291,109508,102512,54756.3,68758.9
73115.1,112863,99986.6,105927,115459,132321,87816.5,66034.4
70574.4,91689.3,35562.8,126685,54031.6,138212,68513.8,88545.1
60634.8,106914,39762.8,84219.8,49071.4,120799,70009.9,74481.6
73079.1,91278.9,132254,105343,108599,99472.8,61660.6,58409.4
78540.3,92041.2,76939.8,75052.6,68049.8,86891,54665.7,63016.1
90004.5,103465,82465.6,111328,83014.4,192102,62477.5,60411.1
92393.1,122530,118784,173611,111698,155390,56162.7,83856.2
76504.5,97218,77957.6,138912,109514,129826,81248.3,57313.4
93549.6,98558.1,89202.4,102827,93951.2,99523.2,76935.5,57237.1
81853.2,99320.4,133399,114843,142058,105302,55508.8,60198.3
99365.4,111930,128551,111618,127589,119812,81111.6,58412.1
83559.6,127546,71411.2,146019,72529.8,133766,56169.9,84313.9
55050.3,97849.8,133088,148085,153201,135341,80123,78486
123592,74626.2,126122,97353.2,139429,152376,65936.5,88674.7
118279,80083.8,109452,80056.2,130816,83570.2,85890.4,54785.7
72655.2,87260.4,80378.2,102161,113499,99447.6,69209.4,62785.4
86734.8,95619.6,79121,131051,78341.2,109180,56752.6,81237.1
87342.3,56861.1,98187.6,31266.2,88405.8,52383.8,58137,62651.6
80554.5,84178.8,64124.2,148918,80246.6,157440,58447,82431.5
84266.1,90694.8,140185,88744.6,101867,93392.6,65100.1,68395.7
82825.2,101593,68745.6,116703,87334.8,100262,62671.7,55382
119293,50861.7,113224,50286.6,120172,55843.2,88025.3,59132.2
116187,120672,104894,143641,113691,164112,59753.5,86139.9
110842,98226.9,149726,118700,144015,133759,80910.2,76820
76994.1,107463,65452.8,89192.6,80703,109635,72221.1,74597.9
103090,97247.7,104131,86233,105279,110445,60788.6,57177.7
151744,92468.7,168259,94675,142428,116208,57990.9,74702.3
131507,99065.7,163181,109168,168500,110907,83419.6,80804.7
91980.9,82303.2,105227,46032,115962,76974.8,88021.4,61948.2
98399.7,92169,90238.4,84831.6,118530,97871.2,68724.3,69533.1
83502,85393.8,116004,108594,125324,99208.2,64035.1,58824.1
84722.4,110887,96723.2,97487.6,115115,96644.8,71717,58259.3
91496.7,94252.5,110893,129630,135017,103950,87073.3,55113.1
99516.6,79645.5,149866,56296.8,124211,92755.6,70027.4,87293.3
153771,78511.5,132276,72958.2,147020,90449.8,81710.3,55536.5
91146.6,115523,87052,126986,102728,123346,78307.1,79473.9
95976.9,88888.5,94168.2,76263.6,113252,89924.8,86139.2,65378.9
88312.5,116113,81589.2,190452,96735.8,166783,57723.8,79007.6
89535.6,92206.8,86375.8,127432,109173,143853,69519.4,73238.8
83976.3,81543.6,89325.6,92625.4,100708,124488,62055.7,73732.5
103230,82913.4,76799.8,78198.4,77726.6,100954,64481.6,58546.3
120900,108525,154948,132877,135079,148151,86074.2,84500.9
111693,95112,127110,69244,150982,89737.2,79510.1,57313.6
100385,107600,109434,116463,125117,102396,88467.4,60587.4
111578,81537.3,140312,75065.2,108786,98817.6,63764.8,67789.1
95287.5,117724,102607,146237,117985,115931,83449.2,65276.8
81196.2,99360,86216.2,93557.8,84107.8,106215,59634.5,63210
94297.5,68344.2,76895,114103,82972.4,115308,58911.9,69639.1
96087.6,64124.1,103268,42331.8,118418,70106.4,70467.3,72223.4
87893.1,120475,67496.8,140400,71617,150077,56817.8,84815.5
89999.1,88571.7,71373.4,93310,80248,104965,55306.8,76855.7
117603,98448.3,120875,97958,115983,98491.4,67573.6,75259.3
99266.4,89484.3,132135,100913,137491,104206,81890.3,60599.8
79389,51828.3,106515,17306.8,124376,52042.2,79073.5,68250.6
119611,103937,145590,100419,114468,94444,83248.2,70412.3
72813.6,72526.5,63079.8,63247.8,94054.8,87199,68178.7,55294.6
95274,85830.3,68180,94374,87798.2,84137.2,57954.3,57296.8
108481,97727.4,160950,178962,126804,160710,76403.9,82774.8
89109.9,106660,117075,89558,91009.8,112988,61343.4,82239
92387.7,117580,109714,88386.2,103291,114505,66181.4,63533.4
62792.1,76700.7,55139,114563,61593,138051,70985.9,81976.9
79396.2,95436,62398,112192,80778.6,122732,88246.8,61809.6
67360.5,123421,44681,177656,61230.4,148292,79252.6,86283.3
77376.6,100949,45185,90976.2,78043,92194.2,83771.4,72064.4
95385.6,85263.3,85324.4,76683.6,93786,105486,55705.1,55218.5
81843.3,85481.1,105627,122896,114622,124040,82970.8,69132.3
83294.1,76229.1,105700,133867,115727,131723,74803.2,59302.1
96394.5,96800.4,82608.4,150836,93314.2,154141,77073.1,83851.8
89617.5,103522,76319.6,172813,74321.8,178371,60660.2,87905.3
111775,84615.3,80393.6,64285.2,101192,74877.6,80683.9,57617.9
101873,92269.8,114155,147458,110386,159519,74579.1,86180.1
92097,109297,82859,226712,119294,124818,64274,82815.7
112554,125929,119808,156800,100068,169238,59984.2,86376.4
82746.9,65973.6,77922.6,70158.2,104080,93053.8,56788.2,85698.6
58836.6,113254,43608.6,124250,54035.8,128904,73585.8,65616.9
85569.3,90219.6,131016,94843,113800,118342,75107.4,87795.2
84762,43602.3,65634.8,18571,78281,48889.4,55667.1,59890.6
89366.4,101797,127491,100744,121241,111215,78848.2,69149.2
107020,93901.5,119456,87452.4,135657,98071.4,58550.6,61462.9
111051,72821.7,117068,64667.4,104566,115251,67166.1,64849.1
98596.8,96712.2,105346,74736.2,108346,90431.6,77543.5,56017.4
101039,117951,131599,137474,119633,151805,78373.1,76022.2
105257,63702,177720,105155,155561,137108,68920.1,73719.1
103766,116842,102250,172326,99960,182357,57570.5,87059.4
91396.8,105605,100244,110589,102430,122608,60461.5,78547.1
86069.7,67554,79625,43015,88550,67034.8,58219.7,78451.1
88816.5,62404.2,114009,57415.4,109371,68926.2,83633.7,56215.8
92089.8,99850.5,91992.6,111611,80648.4,140193,57240.4,86130.5
68356.8,92871,40469.8,83543.6,55773.2,97045.2,64775.4,58788.7
101367,87210,101097,106404,105720,109802,60111.1,62565.5
98772.3,102965,109372,119942,127656,109434,86354.9,65904.5
103224,85603.5,108238,73746.4,111041,103022,59045,66583.6
132048,80544.6,162497,87404.8,147707,98981.4,86571.5,70442.9
87581.7,81316.8,115438,74205.6,117470,86690.8,76285.3,55315.3
101517,93548.7,138621,62070.4,130183,103305,86615.8,70604.8
89542.8,87745.5,125475,85491,129294,94158.4,66062.6,62735.8
77597.1,109037,53524.8,91831.6,80892,116168,62794.7,70669
74504.7,67932,53186,84162.4,67219.6,119904,55869.1,59035.8
98344.8,101278,85687,130155,89752.6,131111,72035.4,73504.6
101869,102153,89857.6,92209.6,107285,106925,57384.6,86782.9
104351,120088,114325,117503,106572,111516,62644.9,82957.2
82346.4,83475.9,95209.8,105883,111222,112370,63183.6,62167
93678.3,78953.4,99590.4,106765,107754,118220,76230.4,58962.6
104630,91594.8,120183,98037.8,92192.8,119396,76726.5,79906.7
87084,101338,90295.8,102648,102281,106064,79724.1,71375
94198.5,98946,100330,77176.4,100572,112650,55654.5,70412.1
83658.6,96751.8,81583.6,107601,83136.2,107314,64368.4,65040.1
76698,108341,48231.4,103656,58657.2,112718,54668.4,83213.9
108310,95202,102448,109953,120179,99159.2,87129,58837.1
108117,77974.2,121764,91728,136371,117740,77427.7,70686.3
98071.2,91584,80260.6,94494.4,94922.8,113847,86803.5,78486.6
94141.8,84691.8,137486,104094,145174,128999,85825,77986.4
111998,86452.2,108613,106697,113623,113705,62064.7,71382.8
82863.9,81785.7,90239.8,82150.6,99967,107030,76006.9,55724.1
105520,105164,88767,82455.8,91942.2,117544,54960.4,80884.3
160238,99515.7,183401,137641,148443,142673,58389.6,88456.8
85896.9,105132,85185.8,111111,81821.6,143759,55532.6,87619
103346,82600.2,110205,104422,92905.4,126160,74655.4,78533.9
109737,99264.6,152380,93409.4,119522,117996,57496.4,68034.8
81062.1,61145.1,75290.6,81457.6,92062.6,108401,56878,76669.2
118651,74081.7,110916,80528,123869,107887,66435.4,75528.1
68203.8,97497.9,87196.2,109071,93885.4,122282,75329.4,72746.7
64352.7,81022.5,63470.4,94151.4,102871,113197,74275.3,60766.3
77929.2,91969.2,56044.8,71877.4,58760.8,84662.2,55825.1,61352.2
77372.1,86137.2,109316,129622,93354.8,143185,57617.1,86008.4
74850.3,103547,81450.6,108724,106350,125555,76903.9,58703.5
76013.1,47525.4,152856,47968.2,128752,58108.4,62776.4,56048.7
124090,106307,113995,106403,113413,109168,58546.1,66786.8
54905.4,105510,27938.4,143374,46215.4,146602,54885,85613.9
81946.8,97608.6,67600.4,98371,66260.6,107079,60780.3,64398
88315.2,108795,119435,160909,110608,168178,59162.3,83319.8
66947.4,113232,85631,97437.2,111048,140071,82784.6,75852.1
110685,94482,116659,94717,126882,101548,66313.9,64682.4
91004.4,104033,94624.6,129072,93830.8,130596,62020.2,77024.1
86778,107219,63144.2,89322.8,79667,123400,80954.5,86343
161627,117461,197130,136021,156272,127959,62439.1,66176.4
98634.6,109370,91684.6,121582,109260,123731,81220.1,77020.4
88435.8,94687.2,65028.6,172169,87561.6,145960,60472.1,79342.5
101990,91424.7,94026.8,131166,108171,118301,72143.3,81836.9
71595.9,101530,93710.4,85922.2,125454,101966,75106.9,60014.3
91730.7,107585,104839,139483,114409,151185,62771.2,88651.4
118087,85547.7,97564.6,119956,98539,102360,56193.7,60420.7
113230,108976,130907,120712,127264,124677,67469.8,85345.3
84075.3,84455.1,86242.8,83078.8,100702,113418,68369.9,75477.5
92708.1,112569,115578,93858.8,100386,110214,55193.9,72330.3
78031.8,77528.7,120624,117950,105983,119416,65559.7,67223.4
114896,104418,94634.4,112416,110074,122485,87728.6,62464.4
87389.1,84716.1,103432,96577.6,104412,103620,61752.5,55135.5
105157,103233,144809,105382,141638,120544,58133,76381.3
76323.6,96062.4,67992.4,73346,95523.4,100299,61579.3,55942
99837.9,101006,105239,123701,107213,100768,68220.5,62693.2
108670,89713.8,128698,99195.6,124478,106232,86489.6,59470
115374,76892.4,139100,95074,118296,107037,71134.2,63299.2
97204.5,99961.2,84093.8,76701.8,82608.4,109953,74829.7,80968.4
126109,104568,135772,156989,128493,148592,74165.4,59543.1
66554.1,92178.9,104523,83595.4,115200,85111.6,70707.2,56641
94029.3,107452,114885,116582,123753,121422,86528.4,79535.8
104215,77739.3,85849.4,86401,90816.6,99948.8,65972.2,67025.1
109684,78730.2,103803,65577.4,109284,83438.6,71116.8,58447.5
90981.9,68423.4,87683.4,70036.4,116224,96730.2,62317.3,64539.3
94369.5,82173.6,173071,104558,121954,93454.2,63066.9,58328.7
54788.4,93352.5,62609.4,97601,66756.2,120407,66075.9,88523.1
68932.8,84515.4,103209,102899,103060,105644,63602.9,68092.5
114168,109812,125908,133276,136742,123134,88274.8,66645.3
92887.2,42984,138076,31942.4,135815,48603.8,88710.4,61925.9
113079,108772,105364,128674,122511,137767,57507.4,77908
83582.1,77290.2,77288.4,89377.4,78701,110757,56351.2,81205.2
99936,89307,97150.2,64892.8,97546.4,100758,60470.6,55461.2
90585,94678.2,133976,117762,141189,117169,61794.2,65882.2
58393.8,89253.9,78638,113019,102514,111434,76631.1,60691.9
80730,103842,97984.6,103531,110247,142888,55550,71165.6
86623.2,93728.7,130614,131748,106648,104332,66951.2,61313.2
118124,97939.8,138580,104405,129224,114901,65580.9,64690.2
78174.9,65588.4,58192.4,80392.2,70261.8,99821.4,75606.9,58891.8
86434.2,77461.2,102071,80736.6,99909.6,93619.4,70178,59180.7
82801.8,94761,138067,111656,109876,138107,86491.5,74490.3
78354,82085.4,100405,106509,101879,113141,57823.8,72228.8
97503.3,88041.6,99873.2,96264,101070,110285,59761.3,59680
85746.6,130368,96838,179820,135429,177769,54714.9,66579.6
84413.7,114829,102896,109521,95209.8,114293,61988.8,76322.1
91115.1,94187.7,82576.2,101688,97879.6,105351,66056.6,59691
90083.7,111034,119378,109201,105741,125098,63846.9,79558.5
110553,83553.3,100992,54811.4,90344.8,69629,60399.9,56406.1
118685,97873.2,101482,110040,95382,125777,61035.9,64661.9
64189.8,115299,88093.6,116173,108647,129216,62078.8,84402.8
101492,109454,122773,118090,132170,111429,82483.1,84569.1
117957,109395,99516.2,75300.4,89832.4,102946,59435.2,86383.8
74508.3,104303,65797.2,78583.4,71528.8,100255,63745.5,62971.7
84217.5,114444,95450.6,139899,103452,154722,56173.6,88459.5
80847.9,67045.5,72200.8,58378.6,87816.4,89163.2,55640.8,55740.8
105600,120146,108468,154168,98942.2,138354,61898.8,75799.8
80357.4,112576,96692.4,105035,94766,110803,56615.7,62673.1
161798,108148,169340,86476.6,173522,117520,87294.4,67375.2
118606,139114,108342,156666,99927.8,141140,59906.9,55294.5
119387,88758,148578,85229.2,149909,100395,81594.9,54752.6
113167,129603,129188,175085,128127,165557,69779.2,87892.4
114594,68119.2,132514,92559.6,121024,114185,60474.5,70377.6
103409,104886,97855.8,109421,102192,107926,56243.9,61656.8
102776,117438,89307.4,123326,126267,122220,60887,70499.2
72861.3,105668,86648.8,101182,110074,120173,55441.8,77666.6
99600.3,82521.9,124319,88249,103513,115214,67855.7,69233.9
88398.9,79208.1,108233,103660,91945,126706,74039.5,64301.8
104782,87727.5,111936,90882.4,119314,77296.8,55282.5,60862.1
126357,103827,146448,60824.4,135146,90139,86486,64449.5
89197.2,84213.9,64212.4,92801.8,74331.6,119715,56682.4,67529.8
130943,59921.1,160199,89244.4,122821,119081,58423.8,69347.3
86783.4,115538,97186.6,194551,123536,170159,76567.2,87772.2
113783,108727,110391,110804,99688.4,111937,54800.4,70955.8
67634.1,48778.2,107717,45697.4,116228,52021.2,66763.5,57183
75834,91637.1,144497,84980,95397.4,108080,74252.7,62446.2
86456.7,93651.3,63569.8,120336,64089.2,124877,55806,79873.5
92991.6,101812,147319,105815,144116,104300,77169.8,77441
109662,64108.8,94771.6,102960,126554,125394,75249.9,75515.2
92937.6,89762.4,87291.4,79583,89611.2,94185,56778,57189.4
73182.6,114987,32159.4,126956,51570.4,120697,61929.3,80263.3
107919,118890,113180,129037,100570,159769,70280.3,84105.6
98664.3,132613,108153,158718,100132,155886,58194,88065.3
94483.8,123746,63824.6,140337,69482,144962,60533.3,79906.9
94516.2,96858.9,126052,112816,110303,124181,55900.7,68775.5
72330.3,137010,37788.8,119634,51167.2,139679,56911.6,85851.8
77646.6,65881.8,64514.8,76512.8,79674,107667,59336.8,62125.8
84155.4,106440,91954.8,128461,83736.8,126424,57783.8,88406.5
100220,130821,179953,100444,131719,97452.6,88685.5,73967.4
88481.7,71312.4,92080.8,51304.4,106378,78111.6,73696.8,83182.2
112578,109994,116427,128572,114884,133267,72991.4,78535.4
99752.4,114750,113768,84487.2,105328,103467,70381,67074.9
83317.5,110432,100765,106974,106555,125210,63314.7,64242.4
80446.5,74063.7,138702,55127.8,130017,78688.4,79074.8,59679.4
86622.3,62900.1,52899,79137.8,77645.4,103431,86016.7,58683.2
127407,112254,124200,123277,103782,124460,63925.5,75630.5
92673,134258,81114.6,136990,84742,125881,56807.6,87872.7
106554,83314.8,195513,84814.8,141022,128531,57484.4,83630.8
103845,110508,154280,113764,155735,144502,69481.9,80134.3
64278.9,99605.7,83085.8,89157.6,99733.2,109592,59736.5,79206.9
85296.6,76846.5,97501.6,121542,114265,91625.8,78593.9,55724.2
46232.1,130841,86053.8,143210,117510,175962,55456,72309.9
98784,99980.1,108682,105750,90918.8,113375,62980.7,76417.2
104296,103134,112904,118285,98466.2,126301,68461.9,83833.2
82537.2,110466,105913,119260,101388,140542,66633.1,85273
99924.3,96235.2,75390,130642,111674,218765,85266.8,85478.5
145446,88677,158596,115301,154778,148796,55757.6,83633.5
130379,102791,84326.2,113095,109823,135079,83899.3,78109.6
103366,144422,134296,174867,128121,164920,77409.4,77122.6
122677,67236.3,113478,97801.2,124715,116131,86403.6,82735.6
129456,97334.1,131757,99110.2,137973,117179,67627,69398.6
97267.5,101084,81918.2,103499,95569.6,110424,61184.2,79507.1
90583.2,107594,85632.4,118685,120012,126041,55009.5,70446.5
92458.8,143223,87679.2,103039,90692,120361,60453.9,67349.9
127488,68910.3,131527,42193.2,132747,60354,61217.6,74275.3
93718.8,142224,115010,142512,138856,123540,83879.7,58838.9
100763,114930,108851,132143,98831.6,125188,61176.4,80122.1
66282.3,90842.4,88853.8,146314,108256,174845,82291.5,88231.1
120316,102539,135250,104304,110942,118670,76952,74839.8
97533.9,91130.4,123731,79717.4,118073,103163,80948.2,59275.8
103446,95078.7,95198.6,107925,106315,121899,66077.6,78082.6
103504,60699.6,124025,85734.6,111245,96598.6,73118.5,56840.1
77843.7,103083,115777,101695,105213,127417,85103.5,65532
89182.8,78376.5,100971,134592,101073,103201,67690.8,77618.6
91702.8,90952.2,69504.4,90867,69164.2,104969,59617.2,54891
116039,73929.6,135857,97259.4,122685,108177,64765.4,75113.9
54684.9,85500,39279.8,62932.8,48634.6,75987.8,63351.3,55213.9
90899.1,89843.4,108443,104056,127568,98009.8,78613.4,60671.4
93791.7,97875.9,128433,85015,124907,111145,67968.1,72868.9
105653,95355.9,95466,57036,98036.4,86525.6,57664.6,88707.4
101843,107871,93580.2,134572,104472,114486,68877.7,68660.9
104220,101427,127820,110705,134698,112213,87439.7,78772.7
102668,110448,98541.8,131331,135645,112881,86630.9,67858.1
88997.4,51537.6,127625,68129.6,106441,85464.4,56862.3,60187.8
100818,94385.7,109931,94515.4,107215,115004,68093,61166.6
110593,95915.7,128772,80060.4,118692,83503,56392.5,55202.7
94107.6,79458.3,137711,119584,155302,130131,86926.9,65718.6
129187,80676,131492,63030.8,140767,87416,76004.8,64700
91231.2,88285.5,104947,120732,103975,119374,69658.1,81937.6
103035,101563,117076,75107.2,101801,119153,69255,82783.2
100060,82291.5,88104.8,71087.8,99418.2,84707,62103.3,61960.9
96671.7,92781,98946.4,77998.2,110925,82061,76710.5,55673.3
90747,103882,82906.6,112218,98707,131788,56639.5,74411.3
90835.2,98514.9,77499.8,78087.8,88706.8,101700,55616.7,59262.8
75123.9,97141.5,118446,110845,140536,140487,80896.8,79584.1
103239,97049.7,139723,83399.4,144148,85432.2,86578,54680
83061.9,64191.6,87292.8,83962.2,111695,117814,75825.8,84147.3
78684.3,65960.1,124467,96769.4,135583,114691,74293.6,60220.9
78256.8,99612,89553.8,84716.8,93070.6,97146,62380.9,61755.7
93678.3,102646,73148.6,101693,81338.6,111940,57790.9,59223.7
103253,82320.3,123921,86377.2,118237,95538.8,77460.2,56825.7
110407,101451,110389,142731,125618,122273,70412.1,79649
100279,105786,97111,103016,110722,127516,82752.2,83750.6
81734.4,81536.4,84819,89457.2,105591,84214.2,75605.5,58185.7
109359,98161.2,88292.4,53890.2,99589,76053.6,82146.2,55537.6
72923.4,103875,77516.6,106358,97315.4,114306,67053.8,59334
71444.7,68050.8,105693,68952.8,108382,91814.8,72156.3,57824
70722,58388.4,93174.2,100477,110862,94187.8,76319.4,57691.9
90909,104955,99794.8,82495,97641.6,115835,88664.4,55991.5
88302.6,108703,106221,117223,117776,122485,73997.3,69061.2
87579,85430.7,31568.6,79247,72723,96276.6,60334.5,55889.1
97336.8,80965.8,93844.8,85703.8,127130,84450.8,71544.7,64692.3
93762,98493.3,98602,76889.4,74145.4,91651,56854.7,54708.3
92685.6,104215,101584,106372,99362.2,126171,62850.2,70172.7
110336,60097.5,125331,54259.8,123738,52399.2,67472.2,62953.4
102121,115335,122730,111944,102220,114978,65065.7,61463
105692,96201,107864,78241.8,106670,120009,68595.3,75630.2
82737.9,100386,100296,122693,89898.2,104174,59051.9,57348.8
111255,96298.2,128779,70194.6,117261,90239.8,84787.1,60912.1
96957.9,130864,81218.2,145272,84856.8,111922,58273.2,88450.8
103654,102858,103953,114342,97482,135995,57272.7,86007.2
111261,61002.9,165788,86518.6,144437,94421.6,81879.8,57321.8
94117.5,116296,60082.4,130024,88418.4,124172,66035.3,58792.5
86727.6,101765,159596,104006,165427,118510,85933.2,60305.4
104739,89103.6,119701,97720,101483,111773,55054.2,69612.4
106340,104302,123759,123599,113663,134158,79011.6,83734.8
104472,99202.5,133518,100968,133386,118734,82176.5,81714.1
103234,96683.4,126431,101527,117488,89476.8,78402.9,59353.5
103545,101745,111467,142646,103438,146104,79492.6,85743.4
87415.2,96785.1,103214,100765,103362,104353,67560.4,67387
136321,110814,198390,104702,174545,104341,84549.3,60747.3
91532.7,67642.2,96752.6,73234,100167,89854.8,73081.6,56966.1
92137.5,105244,130684,146569,112651,135104,84225.9,80424.2
97761.6,90287.1,109248,95424,111864,104777,80055.8,71216.7
91752.3,100614,94808,110426,102914,103211,72043.5,69036.2
124376,89766.9,148562,109385,142299,108583,75074.4,61991.7
131990,78503.4,93121,121104,129759,97099.8,84172.2,61021
78225.3,90387.9,108191,104005,102795,102775,56646.6,72223.7
74635.2,97708.5,68451.6,84641.2,80805.2,89780.6,61003.2,57071.1
84303,109269,89390,110732,114397,120642,68711.9,78203.2
82423.8,78462.9,68404,75577.6,71191.4,84141.4,69102.1,63439.8
140314,113014,147440,131369,126244,119448,57228.3,80868
93410.1,96984.9,99675.8,91996.8,112739,118104,72591.3,65710.8
94061.7,120237,81631.2,149810,91761.6,137495,59977.9,87200.4
116524,98616.6,83113.8,97063.4,91417.2,101072,56936.1,62893.1
114283,74311.2,112913,78254.4,116920,85629.6,69156.5,61854.5
94965.3,107933,69202,114572,75031.6,118264,83125.6,84176.4
99431.1,65605.5,102878,36839.6,95235,67176.2,55392.5,76348.5
82954.8,100818,68833.8,104420,85500.8,124569,77603.8,83011.4
117816,60228.9,120243,38537.8,126015,56002.8,77073.6,55981.7
60537.6,104716,38021.2,133962,44667,129566,70742.9,81018.3
116970,134436,99015,162772,136451,144427,70241.3,86798.4
57693.6,71635.5,106966,75846.4,86455.6,96005,56526.9,68598.8
84682.8,106389,66890.6,104363,78759.8,113070,58747.1,58010.4
82709.1,89554.5,115653,81232.2,123851,102185,61981.3,62576.4
64463.4,93624.3,25214,96439,63389.2,118175,87520.2,80072.1
95710.5,101264,116137,113652,107436,109823,69105.2,63441.1
95931,58428,116967,132451,112959,155673,74516.4,80881.6
80279.1,83447.1,78745.8,95390.4,71754.2,126778,55629.5,81275.4
119120,91111.5,118460,126080,106553,135017,73697.2,83097.3
110699,81805.5,118982,78607.2,133557,86678.2,69057.6,54886
120691,83435.4,138421,116802,138902,137015,86901.9,83074.6
92047.5,94877.1,68003.6,81442.2,84201.6,89432,61070.1,66598.8
84749.4,97852.5,69722.8,112753,81638.2,135782,84841.5,82719.7
92216.7,116256,120505,95221,106894,125086,71699,79469.3
124051,95693.4,167306,95421.2,150331,106177,83669,69057.9
105870,94285.8,97365.8,121509,90745.2,112771,60377.7,74092.3
105458,68210.1,127910,131159,125418,154161,76270.3,83921.1
72903.6,116957,81782.4,98278.6,100915,102948,74318.8,70402.8
77013,62901,85908.2,114495,106485,120870,55466.2,66057.9
129605,101237,154909,89285,129567,107642,61055.6,73802.8
86734.8,109634,131965,97301.4,120852,114825,68084.4,78312.2
52425,77392.8,19055.4,92160.6,44738.4,99554,54775.9,55954.9
63224.1,95356.8,76536.6,99454.6,103608,99527.4,60272.5,58018.2
81671.4,105782,70572.6,173188,69154.4,138400,68958.3,59926.2
67894.2,50747.4,110750,45252.2,117485,56599.2,65404,68561.8
109697,92556.9,152090,85603,136429,87238.2,76143.1,55024.3
91925.1,102820,98949.2,104082,93710.4,112994,76243.2,62080.2
97672.5,87868.8,79790.2,152694,84415.8,154704,55282.8,87012.6
91608.3,94059,87626,108153,91630,128411,64952.9,74959.6
91341.9,84335.4,109459,84646.8,99832.6,110690,84206.2,75866.8
114499,105969,161052,98795.2,136347,93849,72003.6,64081.7
104262,99849.6,97419,173699,113268,178233,68841.6,83877.2
69190.2,90216,104401,70457.8,86878.4,83200.6,64222,86871
112990,92700,132289,73589.6,132142,98484.4,83601.4,71016.2
92544.3,119722,78330,135145,95362.4,130116,58040.6,80707.6
120131,85572.9,117057,103531,117057,104173,56289.4,76376.2
106036,94344.3,115822,81236.4,113525,93329.6,64396.7,54762.1
108386,107928,147209,190163,130728,156276,68679.3,80771.9
61101.9,91033.2,70329,89971,77326.2,123480,58357.8,73429.2
70539.3,99252.9,97543.6,109952,90454,119720,69330.5,75651.1
87003.9,105854,76482,135527,107999,129223,74142,75190.5
113377,118029,78160.6,115053,104749,135548,78850.5,82254
98323.2,115466,100111,113649,109102,120319,72190.5,81893.3
75994.2,112277,90725.6,93193.8,123490,109810,77868.2,69759.8
85653.9,97017.3,69378.4,150975,77509.6,147599,59217.4,87657.8
99135,91765.8,88716.6,69379.8,94634.4,76781.6,59431.9,56330.3
71558.1,95159.7,92664.6,77312.2,107015,94791.2,69863.2,65900.9
82049.4,117756,137368,140160,156699,115919,57168.6,71993.1
106600,51136.2,114960,34666.8,105748,54700.8,63918,74423
98602.2,76332.6,160626,104418,113856,115618,63184.3,80548.7
80531.1,90546.3,85038.8,86440.2,71295,100863,77655,60869.6
74024.1,86188.5,116777,78913.8,117443,83739.6,69264,61377.5
104587,43746.3,117407,40854.8,111646,51612.4,85729.9,67631.3
119120,100440,135590,177409,128615,160296,74331.6,83105.6
89651.7,65257.2,91425.6,74996.6,109078,85449,61092.2,70864.7
102172,76272.3,143321,100064,141757,110201,85975.8,65759.2
77074.2,98837.1,51332.4,85562.4,70599.2,112053,57154.6,56454.4
87941.7,90848.7,81373.6,88510.8,112977,101227,65081.1,55880.2
80783.1,86272.2,58664.2,107090,79434.6,109899,58673.9,65674
100825,96507.9,70254.8,104250,90388.2,124723,60202.2,76702.7
55762.2,90655.2,30674,84463.4,51613.8,88719.4,63917.1,58189.5
63937.8,89709.3,113583,70910,133461,97270.6,81643.1,60901.1
101486,86337,80824.8,85388.8,75895.4,120935,65560.6,77703.5
101380,129044,76798.4,149545,104672,125322,69617.6,64186.4
75330,91539,109623,110978,94011.4,121771,58100.4,78941.5
92373.3,108951,83536.6,124691,96931.8,121106,62683.6,60828.4
75047.4,102315,155480,110649,111812,105230,60904.3,68498.9
83146.5,95809.5,66428.6,92548.4,83319.6,99631,54652.5,69879.2
123265,97793.1,114685,97952.4,118460,131849,76673.3,67219.9
88928.1,94245.3,100789,75187,108277,93706.2,72837.9,55404.4
64845.9,98300.7,98635.6,89860.4,106193,106190,62410.1,56066.8
59128.2,115705,45575.6,127564,59231.2,127016,70273.4,86123
120241,145520,145727,203018,138040,123491,73661.3,58546.7
84641.4,90567.9,145807,78362.2,149710,103282,72825.8,64564.7
55148.4,107554,83140.4,111035,98044.8,126659,61713.1,81526.3
89628.3,80699.4,151024,110265,171836,126157,81790.6,78921.8
80399.7,99888.3,67681.6,123834,86163,115160,58244.6,80801.3
67524.3,116570,59462.2,119718,74639.6,113933,54734.5,66825.5
106504,102224,109843,94351.6,107937,103779,84454,64583.6
73904.4,77240.7,92009.4,105185,109207,125476,79879.5,75524.7
102239,101408,126965,92155,112410,92596,72605.2,65571.4
99198,70808.4,89920.6,68605.6,108541,90391,55148.7,56377.3
80546.4,56524.5,109733,51482.2,100169,46382,66465.2,62594.1
91877.4,99257.4,82784.8,107716,92232,117370,69254.6,78442.3
58963.5,102011,22901.2,74674.6,46971.4,96412.4,74313.5,67786.7
82989,99603.9,92167.6,84590.8,114467,100390,58980.7,63712.8
83944.8,61690.5,91511,30794.4,110827,61047,74506.4,57164.8
93806.1,106582,143634,107603,125159,120753,71103,71759
87665.4,94955.4,104159,97504.4,114603,96203.8,67745.1,54784.5
87575.4,100768,94612,57220.8,98042,80869.6,72427.4,88179
91494.9,99297.9,70746.2,167023,105757,132552,65845.4,73101.2
58229.1,68481,58487.8,122039,69885.2,122409,56172.4,85001.7
82818,115131,95124.4,131509,94910.2,145968,63702.6,83731.2
57654.9,102591,136807,136200,127516,145694,75966.6,62432.2
94579.2,82482.3,98301,96601.4,92447.6,133818,55446.6,87830.1
88732.8,75361.5,106613,72003.4,99780.8,76855.8,87874.7,85612.7
90285.3,101267,114584,123397,132843,119220,82755.8,76441.4
102318,82193.4,137239,103746,100901,136763,60400.6,75235.8
104309,106381,110993,94964.8,110464,96854.8,81706.4,67058.7
103642,76048.2,99044.4,80458,115590,106350,74522.8,66368.9
152296,97037.1,147850,84235.2,144955,90440,59343.9,58521.7
99243.9,91686.6,78521.8,80614.8,89621,95793.6,61735,56013.8
84078,114330,87757.6,102161,102798,121736,60854.9,63601.6
95385.6,57613.5,97972,59707.2,87249.4,69168.4,55957.7,77336.8
70695,85750.2,143448,94694.6,145982,133689,76736.3,69637.8
106362,63834.3,119995,105046,125931,105452,84258.8,67357.8
86739.3,98027.1,98441,96734.4,102014,109858,79419.3,67967.4
107370,82075.5,110057,69284.6,114415,79332.4,56426.2,56066.8
113278,92272.5,167187,97400.8,142653,122927,79986.2,81455.4
97497,111965,99656.2,95708.2,90953.8,107579,58682.8,59095.4
104071,82923.3,103055,93289,103040,132514,60987.1,81663.7
90514.8,70481.7,74641,135136,80826.2,124677,56434.2,72980.5
102116,114304,127170,99253,130278,107950,75115.4,69466.5
130682,97580.7,107705,108970,109414,117989,69177.1,79058.6
42588.9,86762.7,28106.4,119211,55351.8,147409,78389.6,84369.5
95921.1,103490,73435.6,126132,82877.2,130280,56423.5,62609.2
120221,154323,153777,153355,131825,133525,74766.8,77587.6
77658.3,89183.7,90521.2,131870,115025,107656,79255.2,58164.3
67908.6,99135.9,164622,105154,95842.6,125882,67739.8,88163.9
86319,73558.8,100521,42457.8,97202,56418.6,73552.7,60560.7
94145.4,100052,93545.2,119483,106317,127081,82090.7,83072.7
78061.5,93436.2,60505.2,118079,81874.8,101009,63036,60595.3
78349.5,103114,35526.4,116768,60181.8,112461,55311.9,54725.3
99382.5,86242.5,76234.2,83841.8,78087.8,115291,61578.3,68655.5
100534,82177.2,89387.2,57643.6,95235,74823,61399.9,57754.3
107601,103856,126141,94351.6,128482,98660.8,86323.5,59812.3
115784,108676,120411,95831.4,124803,104359,77205.1,60476.4
111331,105883,151780,98870.8,128016,102095,85651,78348
89107.2,98464.5,57299.2,110634,70730.8,111787,55493.4,64979.3
98841.6,107215,76776,118216,77905.8,129361,57725.4,80454.9
98775.9,87814.8,104587,122363,96301.8,130579,61808.7,87809
75415.5,83604.6,50429.4,138951,57152.2,131533,56145.2,81093.4
116648,119134,105266,93042.6,108277,126904,79198.1,73660.2
89214.3,126253,150368,162855,141831,150038,81105.2,83533.2
88283.7,85733.1,68034.4,67113.2,82952.8,97974.8,54856.8,73039
57577.5,75740.4,90885.2,50181.6,117905,65581.6,82097,73789.7
106103,99620.1,98651,70292.6,112010,110341,70269.8,73497.2
90144.9,69940.8,87430,67030.6,113193,84658,78091.5,77935.4
92849.4,96831,79480.8,97155.8,104756,102817,72928.3,65395.7
98861.4,99809.1,106744,91959,117236,119675,76171,85699.2
94338,96084,77732.2,107694,88863.6,99471.4,55739.6,60484.3
89961.3,124085,71026.2,118794,88352.6,121121,58244,67155.8
135504,106938,178220,122485,160831,126447,68460.8,76103.8
86430.6,69890.4,95937.8,64029,79427.6,87441.2,63926.9,57227.2
95448.6,99017.1,107552,170300,97417.6,179857,65189.3,88166.6
86508.9,104584,59654,120210,77434,123445,69739.9,83180.1
94247.1,65007,125332,42008.4,122637,68294.8,83322.8,72667.4
94770,88881.3,101006,70204.4,109582,97578.6,87213.9,61135.8
95578.2,97600.5,94333.4,118006,85552.6,97021.4,59387.8,59904
103832,80486.1,140792,88466,117258,99107.4,70125,55857.1
85511.7,47091.6,95880.4,32802,77253.4,57092,59147.4,72316.1
88624.8,97739.1,76053.6,82643.4,95145.4,119836,59059.7,82095
64927.8,111047,61692.4,77988.4,83799.8,96138,65431,57092.8
119023,84348.9,139758,85184.4,121377,117937,70521.5,71685.4
44338.5,102885,40002.2,117275,50318.8,137677,70234.1,78467.3
93932.1,109895,76491.8,111409,98488.6,115973,56556.8,62420.6
105164,114737,93310,119197,112496,116964,75449.6,60793.9
60921,85859.1,99111.6,81321.8,82611.2,93413.6,56447.6,62444.9
141314,112480,179781,126185,101079,143346,59383,80804
102382,120833,93625,117118,86683.8,135724,67501.2,76129.3
90577.8,77082.3,110134,110881,101158,99397.2,67481.8,60806.3
72945.9,61347.6,86361.8,96752.6,83101.2,111810,56693.6,68453.2
97656.3,95627.7,89490.8,78216.6,109752,92541.4,74856.6,62935.8
119146,99964.8,123745,80848.6,128849,101709,88599.9,58104.7
104098,88557.3,63522.2,95277,99549.8,91077,70319.1,61888.3
82064.7,74639.7,82609.8,45180.8,94257.8,73351.6,59960,69685
83333.7,128305,108171,162623,90449.8,143700,59961.9,85032.6
77419.8,104766,36449,96033,51480.8,100197,70685.5,63825.1
91094.4,100446,94442.6,118831,112426,134179,72415.6,85484
101295,111917,112319,91464.8,119815,114099,83897.6,59560.3
66124.8,76383,76158.6,87197.6,87138.8,116498,56346.9,64394.3
89865.9,,108800,,121946,,64632.5,,
81313.2,,57787.8,,80074.4,,76027.8,,
114914,,117421,,114159,,60493.2,,
149921,,162028,,127994,,60930.6,,
125914,,132889,,95951.8,,87162,,
89184.6,,111887,,82061,,55578.1,,
106954,,84200.2,,97715.8,,58747.8,,
104967,,118181,,112200,,78399.4,,
112687,,108751,,125238,,78662.7,,
91663.2,,87593.8,,101620,,70057,,
79314.3,,80120.6,,88799.2,,67989.2,,
116662,,95649.4,,122350,,74711.1,,
108691,,120134,,111692,,86062.7,,
44561.7,,54842.2,,48538,,59663.2,,
123841,,107152,,112573,,58697,,
104683,,138634,,106190,,56941.8,,
106466,,118371,,107352,,70546.2,,
75762.9,,42663.6,,50811.6,,72784.4,,
79381.8,,103230,,101384,,71132.8,,
155114,,169218,,140921,,79406.6,,
93042.9,,78783.6,,102712,,73554.7,,
97650.9,,83550.6,,105861,,79320.7,,
93879,,147211,,136097,,78779.3,,
109309,,68976.6,,98540.4,,85721.1,,
85097.7,,54170.2,,72332.4,,84724.8,,
106558,,86990.4,,96149.2,,65881.5,,
80118.9,,75513.2,,78824.2,,59972.5,,
65781.9,,101627,,127133,,66325.4,,
107306,,155449,,121454,,82478.7,,
95649.3,,62627.6,,84684.6,,83470,,
95821.2,,119679,,115849,,73273.9,,
101747,,80350.2,,90988.8,,78317.8,,
96333.3,,117184,,118534,,88510.3,,
132846,,111133,,121951,,66512.5,,
132144,,154608,,145702,,69286.3,,
88945.2,,71639.4,,65045.4,,55447.7,,
90714.6,,136597,,119543,,58561,,
78406.2,,81065.6,,79220.4,,60926.2,,
91665,,100848,,106240,,75796.5,,
149741,,204175,,179221,,86524.8,,
77426.1,,86480.8,,119424,,71274.7,,
104558,,129966,,107681,,57957.5,,
82941.3,,100083,,91681.8,,66388.7,,
119120,,141204,,140777,,75731.5,,
85213.8,,72062.2,,96685.4,,61041,,
57721.5,,78068.2,,79389.8,,58938.8,,
91798.2,,117624,,108403,,72756.1,,
103344,,134775,,124669,,72720.4,,
117555,,112277,,135843,,83724,,
107396,,98070,,91627.2,,71558.2,,
79508.7,,52364.2,,72735.6,,79603.6,,
66357.9,,109043,,113700,,65307,,
114700,,94633,,110221,,79934.8,,
90394.2,,79769.2,,66950.8,,64107.1,,
89823.6,,129366,,122458,,75327.2,,
102056,,84344.4,,81564,,64828.6,,
107595,,153240,,119332,,88779.6,,
127670,,148477,,117029,,82075.7,,
95337,,66269,,72636.2,,76449,,
107590,,78505,,78591.8,,55875.1,,
102501,,140517,,149415,,85150,,
108521,,128068,,131974,,88635.2,,
85121.1,,97077.4,,87815,,56360.4,,
95500.8,,77334.6,,93137.8,,56989.8,,
85305.6,,72472.4,,62202,,55058.7,,
95538.6,,83668.2,,107908,,78205.5,,
92733.3,,110970,,127786,,66803.1,,
99612.9,,116896,,106947,,67126,,
80808.3,,107538,,93209.2,,70361.2,,
94623.3,,72608.2,,92085,,58877.8,,
116473,,115024,,123424,,87120.5,,
107193,,143406,,134015,,86492.6,,
83632.5,,82454.4,,91163.8,,61420.2,,
102066,,112049,,101030,,55548.9,,
108775,,97484.8,,117950,,58513.7,,
119462,,123197,,120421,,54674.8,,
99865.8,,91463.4,,93564.8,,62784.9,,
98057.7,,144803,,119055,,72855.3,,
82431,,83378.4,,112851,,72035.5,,
80818.2,,81006.8,,89217.8,,56564.7,,
124180,,136560,,121344,,78667.9,,
103669,,97399.4,,116010,,74617.4,,
88276.5,,84814.8,,85474.2,,57534.4,,
80824.5,,99073.8,,123287,,83831.5,,
61656.3,,59872.4,,76661.2,,54835.5,,
61368.3,,116159,,118756,,73831.3,,
84239.1,,101976,,84579.6,,77624.8,,
109112,,120149,,127163,,78123.4,,
78100.2,,45077.2,,59207.4,,55533.7,,
88920,,73390.8,,105398,,88338.9,,
109256,,121393,,102794,,73781.2,,
115962,,124923,,117128,,80649.5,,
93035.7,,59105.2,,69150.2,,76585.7,,
100329,,100692,,89006.4,,63869.6,,
109519,,141435,,147244,,85695.9,,
91437.3,,119420,,129018,,85611.5,,
62681.4,,74278.4,,85961.4,,60635.1,,
103747,,76899.2,,105804,,65776.5,,
101543,,85748.6,,111086,,59300.9,,
91465.2,,131040,,124200,,62626,,
76131.9,,76391,,86084.6,,59749.8,,
97448.4,,127576,,129734,,85813.9,,
123002,,137792,,123969,,58664.4,,
94452.3,,97448.4,,116682,,59498.5,,
93274.2,,95082.4,,108137,,77921,,
117864,,135167,,100520,,59324.4,,
87155.1,,79357.6,,72525.6,,55260,,
115970,,107610,,118707,,63776.9,,
68472,,101643,,110208,,70817.1,,
104484,,97812.4,,110432,,76768.4,,
95881.5,,120106,,111982,,81144.7,,
88542,,119371,,151106,,82323.6,,
100067,,106809,,99982.4,,76886.9,,
100958,,130810,,101424,,54726.1,,
126891,,177832,,126948,,65373.4,,
86787,,45187.8,,79059.4,,58009.1,,
110305,,131375,,109130,,66151.3,,
77155.2,,114485,,119182,,61672.9,,
110348,,143381,,132741,,86685.2,,
88398.9,,64045.8,,83274.8,,86897.6,,
64059.3,,59257.8,,79130.8,,64555.6,,
105041,,101086,,100505,,72632,,
90096.3,,91309.4,,116537,,86396.6,,
116304,,109679,,126757,,82442.4,,
121378,,141023,,131795,,83613.2,,
73915.2,,85248.8,,100016,,62411,,
120957,,115314,,108380,,69181.4,,
106870,,95494,,107423,,69643.3,,
102182,,92059.8,,78926.4,,56950.2,,
100447,,107920,,94718.4,,57815.9,,
100282,,124968,,118391,,83807.5,,
89819.1,,93318.4,,87008.6,,68362.5,,
82792.8,,100565,,106400,,79612.4,,
89574.3,,137332,,114859,,70466.8,,
89884.8,,148756,,126701,,81481.3,,
128975,,174821,,151329,,86369.5,,
109515,,128479,,128297,,84586.1,,
61933.5,,95061.4,,86101.4,,64087.8,,
112679,,101525,,116259,,75068.6,,
76657.5,,84120.4,,90886.6,,64565.3,,
105324,,104740,,107521,,62907,,
104679,,89719,,101667,,58729.3,,
95298.3,,83970.6,,96033,,56792.9,,
81105.3,,84714,,103894,,68264,,
84288.6,,81386.2,,64012.2,,54681.9,,
101476,,85666,,85663.2,,56870.6,,
91495.8,,54299,,67137,,55830.2,,
88569,,78199.8,,79515.8,,60035.8,,
92558.7,,97266.4,,111056,,77663.1,,
105491,,112939,,96656,,56165.9,,
106207,,107905,,117428,,79637.1,,
72741.6,,35512.4,,65237.2,,85852.6,,
114819,,103319,,103457,,63354,,
106413,,93122.4,,103804,,71833.2,,
65651.4,,77372.4,,74186,,54965.9,,
90486,,107831,,103866,,58875.3,,
100140,,74379.2,,90437.2,,68608.8,,
117043,,186487,,168578,,87846.2,,
104057,,213177,,144488,,78103.4,,
111235,,124071,,129616,,88152.2,,
90727.2,,110083,,109784,,81910,,
85046.4,,61374.6,,70123.2,,55340.1,,
88223.4,,86552.2,,93189.6,,56436.2,,
100645,,90147.4,,108793,,81327.5,,
80892.9,,125255,,104426,,71931.4,,
111843,,140645,,128729,,68737.1,,
94456.8,,79508.8,,128978,,58889.8,,
105420,,141084,,140190,,64670,,
129109,,146730,,133010,,64654.4,,
88108.2,,85177.4,,114783,,74466.6,,
103186,,108240,,114079,,84453,,
67508.1,,116719,,105321,,54940.6,,
98955.9,,89182.8,,97706,,60218.2,,
102612,,102358,,88942,,57537,,
107426,,151620,,136507,,83200.3,,
94393.8,,68952.8,,87435.6,,63926.4,,
99846.9,,91414.4,,99717.8,,71729.5,,
107307,,77683.2,,89348,,55347.4,,
90972,,65438.8,,74825.8,,56772.8,,
78355.8,,101076,,85293.6,,54751,,
98073.9,,73019.8,,80595.2,,60932.8,,
82300.5,,49210,,55948.2,,86386.2,,
130709,,152495,,130117,,81978.7,,
86532.3,,64982.4,,85162,,58061.4,,
103559,,125110,,121792,,57160.9,,
106027,,146044,,145165,,64881.3,,
67437,,41335,,53356.8,,75105.4,,
115460,,147129,,126167,,86510.9,,
59517.9,,22796.2,,52248,,79529.6,,
91110.6,,110432,,127775,,85977.9,,
63165.6,,110676,,99275.4,,71200.3,,
136650,,157811,,134971,,73948.7,,
87222.6,,100029,,79433.2,,64440.5,,
107003,,124211,,117037,,69651.8,,
79855.2,,39454.8,,63306.6,,57647.3,,
