"FSC-A","FSC-A","SSC-A","SSC-A","FITC-A","FITC-A","Comp-PE-A","Comp-PE-A"
58722.3,80487,90717.2,57041.6,92352.4,76731.2,47235,49374.2
109643,82638,100428,57568,100316,78538.6,44889.8,46464.9
127497,83797.2,145387,79338,110811,94606.4,50130.2,49302.6
122784,70931.7,109346,71607.2,88949,93471,43825.1,48325.1
77880.6,68615.1,69070.4,46953.2,80673.6,74617.2,45703.4,45776.7
78057.9,66655.8,84392,60095,74307.8,72982,44709.1,48658.5
87771.6,112324,71402.8,120548,80273.2,118103,44157.6,50667.9
60586.2,60606.9,114778,87413.2,75164.6,82789,50014.7,43125.4
91666.8,87385.5,92656.2,89972.4,82094.6,75283.6,49733.2,51394.8
96836.4,85147.2,70473.2,79528.4,91343,84469,49372,49029.8
70196.4,96514.2,38529.4,79847.6,180702,82545.4,41356.3,46092.9
97669.8,94523.4,81751.6,107058,86671.2,107640,53895.1,47211.3
77994.9,99456.3,180067,156876,132667,100778,47908.1,51103.7
85809.6,75783.6,91775.6,74249,82944.4,85115.8,43693.5,48089.6
91815.3,79001.1,81478.6,47544,79832.2,75985,50748.8,47908.8
77624.1,92450.7,55503,78526,73957.8,82418,50189.4,50118.5
119721,62774.1,114822,69475,125149,73712.8,41815.3,47516.3
87028.2,81283.5,46125.8,54642,74012.4,73473.4,42001.5,46608.4
68645.7,87487.2,131911,81023.6,106995,93000.6,39351,43058
58216.5,69385.5,76045.2,72718.8,86429,73137.4,48798.5,50082
99458.1,112296,84963.2,125824,94239.6,132958,47853.5,53723.8
116051,92329.2,83225.8,91172.2,107164,90351.8,50988.4,50664
75056.4,84455.1,102259,80469.2,104369,83680.8,51009.2,46623.7
94624.2,78048.9,85751.4,65718.8,82115.6,79034.2,54250.2,49222.3
85879.8,84074.4,107789,60349.8,103908,76860,50132.1,50237.3
101739,87086.7,86143.4,66019.8,77648.2,88034.8,47138.6,49395.5
75659.4,69081.3,93405.2,57797.6,84709.8,77938,42419.6,50347.6
81833.4,78004.8,99558.2,66369.8,91730.8,76052.2,47009.4,43783.2
92309.4,103132,90050.8,89880,83090,83102.6,48823.2,45357.7
155814,72673.2,220454,67032,146474,81457.6,53280.2,43628.2
96167.7,84836.7,62629,48941.2,130119,82658.8,40709.5,48534.4
86040.9,87986.7,68483.8,72573.2,77876.4,83563.2,51118.5,46880.2
73259.1,70827.3,56275.8,50460.2,79742.6,74062.8,44018.2,45947.6
82667.7,63446.4,105911,49576.8,103793,76195,46864.7,47111.2
91385.1,90452.7,126157,73509.8,108023,84891.8,51133.5,49327.3
90870.3,132018,90976.2,126280,76567.4,99548.4,46404,47549.6
71470.8,77147.1,68684,72034.2,85782.2,74201.4,50399.5,42778.3
61683.3,99684,28526.4,82014.8,149341,98553,43070.2,48414.8
99066.6,81720.9,111219,90987.4,112595,100334,46414,53875.7
78821.1,83636.1,81163.6,65261,77420,81653.6,49315.8,48452.2
89785.8,73873.8,87840.2,71191.4,105598,77351.4,49849.5,47949.2
119339,68019.3,110468,135982,104343,133661,50711.9,52334.9
71229.6,64343.7,77807.8,49873.6,80557.4,81823,47686,43274.1
88073.1,77443.2,67058.6,71934.8,85724.8,81957.4,45283.3,48022
60451.2,98490.6,51198,97868.4,86142,91848.4,49264.4,44892.4
69189.3,88029,74879,71726.2,93248.4,79605.4,48377,44799
112874,98773.2,116448,128208,110681,120294,49163.5,48596.6
77082.3,74892.6,65618,50926.4,77844.2,76766.2,39597.7,47365.3
76266,73775.7,94852.8,57990.8,82867.4,74737.6,52100.6,46532.4
98393.4,90536.4,97510,78202.6,82119.8,96959.8,52742.2,46922.7
114172,99034.2,112155,108263,96721.8,123934,53201,48993.1
69174.9,94252.5,75070.8,85289.4,84501.2,101163,49651.6,49078.6
91205.1,97371.9,91723.8,82609.8,93545.2,85142.4,41239.7,52018.4
60372.9,92706.3,61087.6,94766,159226,221003,44063.8,43919.9
72853.2,82231.2,69549.2,57932,72399.6,76473.6,44364.4,47258.8
102236,81948.6,101644,59561.6,85962.8,80283,51886.4,47207.8
84413.7,77714.1,76168.4,65875.6,74884.6,75342.4,43224.2,43187.2
100192,86291.1,78933.4,61076.4,84035,80812.2,47601.5,49184.1
43998.3,87909.3,77610.4,87092.6,73983,91348.6,48232.6,50748
77957.1,84902.4,86569,131481,74641,112673,47209.4,49874.6
98616.6,85060.8,133690,71265.6,103351,86165.8,49345.5,41483.7
76945.5,80805.6,82342.4,83987.4,79451.4,77890.4,43420.2,54198
95102.1,53580.6,92863.4,121632,76633.2,83246.8,47856.1,51743.2
81566.1,85252.5,92702.4,60417,72941.4,82010.6,50176.2,48466.6
81558,87298.2,73319.4,82010.6,79039.8,80997,47441.3,46910.5
89406.9,127334,114159,133034,94120.6,160156,44048.6,40927.5
88184.7,121057,115412,112785,100709,117090,44842.7,49569.6
95024.7,93799.8,94134.6,78043,84716.8,92078,46476.6,50154.6
97942.5,54674.1,79315.6,89811.4,93392.6,80592.4,47562.3,47134.5
72251.1,63267.3,72070.6,61460,105441,83231.4,48753.6,53619.8
108121,79429.5,118982,69930,98233.8,74659.2,48145.5,48556.9
77948.1,79263.9,87834.6,109718,80444,98270.2,40609.1,48614.5
80409.6,104648,98931,121694,95988.2,100969,47119.2,48796.2
97852.5,118597,87021.2,113522,81650.8,105703,47713.1,49881.9
119470,84034.8,156003,63861,78899.8,88767,46395.2,48645.3
116770,78768,98714,71768.2,92482.6,80458,54574.5,42031
119858,82183.5,94133.2,79196.6,96507.6,94607.8,54638.5,43450.5
89825.4,79954.2,95982.6,82257,103086,95176.2,54422.1,51362.7
108449,93616.2,86514.4,77413,90503,83921.6,48295.1,46852.6
126113,74324.7,126637,63138.6,93013.2,87949.4,47302.3,50786.1
81499.5,75343.5,107951,89969.6,84677.6,81807.6,43301.4,45699.5
93555,67254.3,66110.8,86119.6,81706.8,76928.6,47836.9,48500.1
95111.1,76425.3,87995.6,87022.6,78964.2,83624.8,43711.8,42453.9
85380.3,102240,71586.2,113380,81930.8,128321,50215.4,44105.6
107903,83115,117750,99684.2,104800,100419,44583.6,47387.7
96693.3,70986.6,86059.4,32954.6,78758.4,73479,45002,45393
65455.2,73423.8,58304.4,58231.6,88849.6,74874.8,47127.3,44908.8
91969.2,115929,88382,165110,85769.6,183751,53236.4,41310.4
85138.2,99450,72010.4,96866,75692.4,96297.6,41617.1,52260.9
84881.7,74320.2,62377,79466.8,74620,94777.2,48818.8,46909.1
100399,68479.2,90986,43668.8,82499.2,73897.6,47570.2,49396.5
81927.9,110192,89642,110368,91452.2,94280.2,53976.6,49978.6
132311,93400.2,124222,75706.4,98382.2,84561.4,49824.1,53401.3
92606.4,85793.4,68836.6,88331.6,74992.4,96544,47484.5,50924.3
87122.7,80347.5,66752,48837.6,80470.6,74114.6,48646.9,46801
100510,65518.2,87270.4,101258,85348.2,81663.4,46034,46029.8
86719.5,76644,72329.6,61607,83619.2,78677.2,41520.3,49549.5
106196,86842.8,152113,68986.4,234902,87511.2,41235.7,49500.8
78601.5,85105.8,64113,91236.6,88334.4,100341,50777.1,48094.9
91805.4,78010.2,131944,64894.2,92194.2,73082.8,46248.4,46445.5
88144.2,59595.3,63613.2,71164.8,72286.2,72905,48432.9,44063.8
91377.9,79025.4,80504.2,90512.8,99955.8,74639.6,48669.5,49037.9
84465,78435,72818.2,65004.8,81145.4,87885,48723.5,50066.2
86684.4,86454,108779,56683.2,87397.8,74691.4,43416.5,50312.7
85410,87885,76392.4,64488.2,83503,77445.2,48451.9,48031.1
80392.5,74761.2,53116,74212.6,91498.4,94194.8,45985.1,46238.2
92210.4,97747.2,77537.6,81446.4,93518.6,83199.2,44373.9,48845.6
90176.4,94495.5,91144.2,91910,94019.8,96458.6,42548.8,47793
89291.7,82017.9,67559.8,74159.4,84313.6,79686.6,51299.5,49236.7
81300.6,101411,149586,124151,103846,150564,39122,52651.6
68498.1,79191.9,85216.6,63329,84236.6,75819.8,49511.8,44805.6
86116.5,74656.8,72788.8,55703.2,81146.8,78792,47350,41558.1
87080.4,92367.9,113184,73956.4,97396.6,83714.4,46453.9,48480.2
89810.1,72269.1,62869.8,81037.6,74027.8,79633.4,48449.3,49413.7
91225.8,90887.4,75777.8,88852.4,80669.4,102662,47410.2,51809
91212.3,84048.3,80598,71454.6,80789.8,72531.2,47794.8,52160.2
82700.1,73773,101452,69176.8,111251,86322.6,45746.9,49074.1
70657.2,80820,71951.6,82062.4,85401.4,86724.4,51596.9,46599.1
80972.1,86261.4,73613.4,63382.2,85311.8,75985,39263.6,48305
97946.1,113374,80249.4,88097.8,72374.4,92139.6,48530.4,47173.1
96670.8,78489,103285,48484.8,90732.6,75150.6,46726.8,48774.9
96731.1,141463,78316,143914,78057,117638,52531.2,44114
92694.6,115664,81165,140197,77186.2,99317.4,48574.3,50789.5
52829.1,75738.6,67900,66220,78001,75219.2,50107.2,49571.7
112654,88397.1,103048,90161.4,100603,87753.4,47522.1,47845.2
89018.1,79944.3,74653.6,101622,72661.4,92065.4,45141.3,49621.7
89545.5,97942.5,143535,71075.2,100818,91274.4,44475.9,49369
86341.5,93526.2,99093.4,87844.4,77495.6,76046.6,50676.6,47231.6
111651,68341.5,149414,26082,126130,93959.6,53909.1,46651.7
83638.8,126805,100366,132178,96763.8,85099,54564.4,50660.6
91806.3,81459,70148.4,65374.4,79727.2,77026.6,49205.8,49469.4
100533,97783.2,81873.4,79710.4,83146,93802.8,49908.9,48810.9
100004,83791.8,83161.4,53040.4,83538,74758.6,50689.2,48245.2
100231,92749.5,100776,121871,76834.8,90440,54032.3,44012.1
121851,91057.5,112868,62217.4,102500,78565.2,51638.8,46700.5
118973,69309,129968,79181.2,142001,90300,48908.6,50734.6
74498.4,77529.6,70943.6,59053.4,82254.2,73563,49119.5,47963
82672.2,106405,71556.8,98555.8,77700,86982,42113.4,49631.5
69387.3,83943.9,26453,69993,83353.2,79751,48995.2,44993.7
111341,85155.3,107589,86389.8,84627.2,93648.8,46522,47415.3
96542.1,96184.8,93514.4,94883.6,90568.8,99013.6,54134.8,48702.5
95428.8,65408.4,78030.4,80390.8,84651,77414.4,51001.1,44304.1
90482.4,82515.6,106422,59577,84107.8,73732.4,41843.3,45495.4
56785.5,111628,81712.4,116150,81013.8,107395,41342.1,49285.6
90976.5,75100.5,98788.2,65126.6,105641,80319.4,49983.6,45401.9
86483.7,81720.9,87481.8,75224.8,73955,89033,44721.1,46845.9
97925.4,50562.9,118541,48494.6,102152,76426,52286.2,46401
87295.5,81706.5,67838.4,79812.6,83405,74447.8,44642,49554.8
102550,82619.1,83974.8,87301.2,82227.6,87502.8,44905.2,46695.5
113613,88175.7,109941,66025.4,92540,74641,45878.3,47705
129143,79665.3,138158,64888.6,112435,83582.8,54129.9,49349.1
94927.5,108549,81778.2,84548.8,80522.4,94789.8,45541.1,48511.6
76999.5,86612.4,80136,138169,86391.2,91550.2,49980.1,47440.5
73495.8,88275.6,64656.2,68647.6,74600.4,80567.2,44654.6,46245
85470.3,100509,102179,79371.6,100596,89174.4,46002,48177.6
105006,119036,99286.6,120047,87852.8,116612,53886.6,49912.6
77113.8,100471,98340.2,68485.2,93681,78502.2,42729.7,50268.7
80010.9,70930.8,99003.8,54908,99467.2,74893,52482,50508.1
99982.8,101800,90067.6,78755.6,82545.4,115609,50537.9,49529.2
114179,67363.2,102822,117768,77652.4,93763.6,52450,48447
95087.7,79913.7,161787,68691,111054,75352.2,49132.6,48282.8
73379.7,83556,82936,74239.2,130329,75966.8,45077.9,49364.1
104306,84860.1,116372,60285.4,94878,77484.4,47190.8,47447.2
134010,73301.4,230474,67849.6,192676,91809.2,53597.9,50554.1
86802.3,90024.3,68517.4,83665.4,81246.2,76864.2,53201,49489.6
64245.6,59094.9,110057,47649,93592.8,78363.6,48347.1,44875.6
92387.7,82783.8,88043.2,92233.4,86928.8,95209.8,41241.9,47070.4
91892.7,100729,86010.4,107103,90764.8,108340,49629.1,52661.5
92821.5,86021.1,70971.6,63541.8,82761,78983.8,47396.5,45678
89806.5,90472.5,86213.4,136192,78240.4,129840,51622.7,45165.1
81904.5,112637,73673.6,142890,74065.6,108434,47976.1,47840.5
69354,74174.4,31633,48609.4,161946,128633,45759.4,43703.1
85725,115434,40159,84126,81145.4,91366.8,46791.5,47670.1
77636.7,69866.1,93060.8,100297,86739.8,76122.2,46648.9,49194.4
74861.1,102748,54971,112686,72854.6,84893.2,47253.5,44519.7
72819.9,71643.6,124853,76633.2,92904,86178.4,48112.8,44207.6
94443.3,84022.2,93884,59056.2,81251.8,74258.8,53263.8,45654.6
80803.8,75095.1,85541.4,90473.6,80651.2,91602,48458.1,48320.5
117390,69732,93198,81912.6,94186.4,83337.8,45108.7,44212
60734.7,64940.4,25450.6,76750.8,75892.6,76083,48337.9,45821.8
122276,76674.6,176103,75069.4,136795,75923.4,49621.6,42990.1
83473.2,82323,75737.2,56754.6,86097.2,84389.2,51382.9,47443.8
78565.5,90227.7,79881.2,71393,76280.4,84844.2,49662.9,50661.9
64075.5,65869.2,17361.4,58874.2,97258,74088,47869,43516.3
83206.8,91924.2,113399,71101.8,119671,77365.4,50982.1,48470.9
78844.5,103009,79137.8,114201,72338,101965,46709,49302.9
112247,87477.3,99185.8,81552.8,89371.8,104986,48836.5,47293.9
112276,75798,106334,65763.6,99958.6,79459.8,49543,50624.3
88177.5,78561.9,98998.2,57964.2,89500.6,78332.8,49779.4,48742.2
107837,126853,74118.8,196158,77033.6,118957,49046.3,48296
57879.9,72261.9,78745.8,66473.4,84021,88377.8,43182.2,47453.2
93023.1,87853.5,132684,89325.6,119032,83715.8,46652.4,48452.2
104005,56214.9,101020,21726.6,99093.4,79451.4,52779,45366.2
75452.4,99755.1,81912.6,82553.8,81748.8,93942.8,48847.5,48968
61114.5,86481.9,79982,85650.6,76826.4,83213.2,46059.6,52716.1
109482,80196.3,133988,123743,111951,84203,46252.3,49713.3
80055,78282,81340,118091,102852,93375.8,46598,51320.5
108482,144443,99327.2,147301,86577.4,109666,49014.1,49277.7
92519.1,64611.9,71038.8,33444.6,89838,82034.4,45383.2,48146.5
53619.3,62029.8,87417.4,70799.4,82513.2,90105.4,42734.1,47214
65091.6,45670.5,28022.4,88004,78321.6,73388,49700.2,42534.9
112967,95567.4,118215,87397.8,140141,85262.8,52424.6,48124.6
76220.1,82773.9,63242.2,72650.2,84651,86238.6,46666.7,53057.5
84860.1,145835,82742.8,141238,82950,176616,53686.5,45938.4
64242.9,79998.3,81503.8,76976.2,87466.4,83564.6,50580.5,44491.7
99264.6,75622.5,60669,55428.8,77158.2,85617,47689.2,43564
83849.4,92789.1,73094,75111.4,92982.4,82279.4,46562.9,45932.2
97657.2,89752.5,79552.2,72080.4,79298.8,83939.8,49083.4,48349.9
48738.6,83745,52938.2,94004.4,77443.8,90442.8,46366.5,48548
75116.7,72601.2,82188.4,105428,75964,100394,39700,50827
79111.8,87988.5,75898.2,52368.4,72389.8,80589.6,48879.8,47763.2
56883.6,83502.9,50094.8,60114.6,73871,74345.6,48712.9,49043.5
83546.1,95161.5,82446,88502.4,78904,89093.2,48240.2,45978.5
106490,81316.8,99176,61506.2,92078,78911,45033.4,54271.2
112142,91745.1,125453,71722,109938,86742.6,53769.8,50340.6
83565.9,72081.9,61146.4,72181.2,86132.2,78449,48114,46324.1
89556.3,76131,66306.8,79956.8,74818.8,78765.4,44315.9,47166.1
88897.5,83130.3,74022.2,68742.8,76864.2,74533.2,46035.8,44882.5
88601.4,68495.4,68987.8,75845,82643.4,82363.4,44383.9,47590.8
86871.6,81423.9,85006.6,62545,86315.6,73577,46267.4,53303.5
97690.5,103805,78964.2,83574.4,73112.2,82107.2,48477.1,51849.5
98748.9,154355,77952,192500,84617.4,138425,54082.3,54571.7
87705.9,82219.5,75027.4,61356.4,78502.2,82152,45381.3,47090.6
88992,91313.1,96896.8,92233.4,78776.6,91830.2,50781.9,44790.9
96590.7,80901,105575,70910,83199.2,77711.2,47448.4,42465.8
88397.1,95494.5,85663.2,67345.6,75336.8,77574,53197.4,48862
82890,84354.3,78619.8,66026.8,92601.6,89338.2,48288.1,47971.1
99790.2,75390.3,115514,75894,103970,84707,48676.6,45526.3
107965,91146.6,94400.6,97405,103026,90403.6,53209.2,54083.7
75458.7,80721.9,82289.2,69602.4,85846.6,86767.8,49683,50427.8
83076.3,65861.1,50330,43668.8,77254.8,76053.6,48525.5,51841.6
64242,95538.6,74340,69801.2,73428.6,98453.6,43951.5,46051.2
93918.6,79109.1,82611.2,57832.6,77229.6,76116.6,48673.5,44482.2
107127,73352.7,71748.6,73582.6,74485.6,88300.8,44383.1,48334
98322.3,76828.5,91014,46033.4,82924.8,75118.4,54233.5,44833.7
125037,111308,105426,129706,112874,94630.2,54551.4,54204.4
90252.9,78174,78038.8,61210.8,78741.6,73724,46538.4,49299.5
98608.5,84240,138879,117641,91035,106215,47611.3,50955.8
91196.1,84763.8,100009,67348.4,83857.2,78547,44722.8,44748.2
133029,99804.6,157426,160441,169621,102942,46096.4,54436
96666.3,87472.8,86769.2,60516.4,73068.8,84809.2,48586.6,52207.4
88180.2,85796.1,75406.8,92342.6,77806.4,85120,44574.8,47234
93017.7,99609.3,93025.8,93892.4,80777.2,82506.2,45446.1,45645
144425,71607.6,127187,97085.8,120872,97886.6,46000.1,49102.3
79017.3,84422.7,82863.2,71085,83469.4,94547.6,40261.8,48056
97594.2,75763.8,74527.6,56155.4,88954.6,76787.2,48030.5,45314.9
63376.2,103842,79966.6,91898.8,94536.4,105498,54090.4,47747.7
110489,89695.8,133316,90568.8,106498,98212.8,44250.3,47383.3
87387.3,98109,73532.2,73767.4,84030.8,82168.8,50242,48075.6
86653.8,82543.5,124400,51629.2,110225,83129.2,48394.1,47444.1
64373.4,72137.7,40824,96544,83914.6,98919.8,48121.2,48106.8
109384,83286,115272,57397.2,87109.4,76091.4,45965.6,46268.1
115746,84321,167546,72014.6,120133,78024.8,47888.8,48865.9
97105.5,88898.4,94585.4,65661.4,101413,83106.8,51836.9,49003.1
98027.1,63719.1,86129.4,70749,77471.8,73481.8,50302.3,43900.5
96540.3,81586.8,104499,70585.2,95009.6,93408,47066.8,48842.7
88432.2,80410.5,109284,64758.4,93675.4,85234.8,54445.1,42427.7
112426,95147.1,95004,94129,101363,101842,45529,52597.6
97875,69858,93006.2,75264,76914.6,93060.8,50494.2,50087.9
103450,86575.5,96670,66649.8,85188.6,83731.2,53713.4,53255
82094.4,100032,88173.4,128167,86500.4,111444,49161.2,51202.3
99499.5,63681.3,112035,54591.6,85309,80231.2,45509.1,43744.8
73490.4,76047.3,83440,88359.6,85836.8,77457.8,40916.6,48726.4
85282.2,75904.2,136807,113697,127834,108170,47258.7,49159.6
67682.7,80353.8,136216,72545.2,96185.6,84536.2,53869.5,49970.8
97791.3,86344.2,94529.4,68695.2,76735.4,75993.4,50785.3,49293.1
91329.3,97928.1,87424.4,76319.6,78589,85918,48047.8,48801.1
92223.9,80892,59782.8,60477.2,76242.6,73523.8,48489.8,47418.5
87859.8,65896.2,72879.8,66495.8,75150.6,88454.8,45195.1,45819.3
99339.3,93790.8,177500,109659,138880,91273,46746.6,41925.2
86670.9,83567.7,71019.2,98952,76910.4,91348.6,51155.2,47304
100444,80542.8,80273.2,75040,78352.4,76377,48040,48375.5
73687.5,79543.8,68863.2,58049.6,86655.8,72857.4,49436.7,50549
85287.6,77619.6,70672,65730,74730.6,77896,44274.4,44857
92664.9,80669.7,124286,61098.8,110792,81544.4,47319.7,47725.5
58652.1,90419.4,68061,73666.6,78467.2,75601.4,38988.8,50616.9
80638.2,102434,80767.4,82672.8,81116,87830.4,42746.6,54482.4
139683,60768.9,124242,73200.4,107412,77609,48509.3,43348.9
91019.7,81906.3,96840.8,70040.6,74534.6,75241.6,46460.3,44333.4
154059,80459.1,190642,118213,140860,110970,46562.1,50506.4
97001.1,94841.1,106753,83153,95522,101377,47768.4,47950.5
97495.2,84539.7,93846.2,73715.6,102882,96497.8,46977.7,45694.3
122817,94399.2,181398,60758.6,109731,74163.6,47383.8,47665.8
90937.8,104188,101889,79167.2,86105.6,93599.8,48691.8,46694.8
63669.6,80501.4,75773.6,107061,86375.8,110537,51484.3,49135.4
101214,84726,82462.8,80089.8,75595.8,79599.8,46799.4,52265.4
65668.5,105566,37658.6,80595.2,93462.6,99912.4,48868.6,45756.3
94620.6,69998.4,42226.8,65308.6,182326,80777.2,45799.8,51355.5
57983.4,86679.9,91492.8,44773.4,76904.8,82114.2,38891.4,48108.5
89785.8,72847.8,95855.2,76746.6,90599.6,89394.2,41087,51425.6
71850.6,87218.1,84208.6,49870.8,76570.2,76678,49023.3,48546
91015.2,84510.9,105354,87479,104248,77821.8,44106.2,46500.6
124412,84997.8,114339,62966.4,90650,77686,48516.3,50581.1
71325.9,84140.1,99604.4,94518.2,88005.4,85337,50288.4,47666.8
86803.2,79312.5,82915,53858,74718,72668.4,48012.9,49849.2
93947.4,78304.5,116340,57421,89077.8,76470.8,45654.2,45655.9
99932.4,77074.2,108263,75181.4,85610,74569.6,48682.6,44102.8
98788.5,84491.1,89026,77264.6,107479,78344,49062.6,50145.9
70198.2,91728.9,71502.2,60267.2,79780.4,81814.6,48216.7,49475
81961.2,117246,83434.4,108186,85153.6,101639,45258.8,51537.1
82238.4,64416.6,68062.4,92785,76500.2,84056,47623.2,48540.1
84208.5,81066.6,68899.6,68164.6,80031,87581.2,51105.2,52908.5
86673.6,77720.4,72742.6,75292,78765.4,76255.2,45343.3,45007.5
129614,82366.2,108452,62966.4,116126,76151.6,47903.8,48113.8
87998.4,80679.6,75014.8,69868.4,77796.6,74723.6,47809.1,46233.3
104017,79894.8,71864.8,52522.4,202693,88289.6,42148.9,45513.4
96666.3,89007.3,129226,64341.2,100012,82481,48591.8,47981.1
91940.4,95515.2,84761.6,107380,92444.8,96091.8,43920.5,48722.5
95801.4,58356.9,98252,58660,87922.8,94481.8,50109.5,53553.5
69699.6,77296.5,91501.2,57598.8,86125.2,76944,45122.4,49406.7
85804.2,91006.2,85848,83836.2,88029.2,99349.6,52015.1,48027.5
109109,51600.6,140207,42184.8,111341,85388.8,49386.3,54389
96136.2,108313,68413.8,107272,77788.2,89189.8,47957.8,48399.6
83098.8,66085.2,78323,89271,73190.6,79745.4,47774.2,45258.5
104239,98918.1,141273,94900.4,119990,90862.8,46518,54143.2
84148.2,77391.9,82261.2,59822,77677.6,73830.4,53259.6,43748.6
86651.1,73496.7,83314,76078.8,72529.8,76200.6,46830.5,51052
94541.4,80683.2,75657.4,68971,75065.2,76273.4,47463.5,49968.4
83512.8,91355.4,43667.4,84771.4,81092.2,94021.2,54170.1,54513.2
70247.7,85038.3,78607.2,52592.4,78608.6,77277.2,43688.9,47201.7
95583.6,82827,127911,67020.8,93245.6,85311.8,45994.3,47060.2
85185,102882,107972,99848,109505,104797,46574.8,45469.9
89132.4,89114.4,56450.8,86041.2,73729.6,84352.8,51435.7,48577.8
108850,110624,145303,136916,133477,170607,50456.1,45692.1
85861.8,94016.7,108472,93812.6,94269,81330.2,49021.4,48583.5
90240.3,75301.2,80222.8,45222.8,80190.6,80357.2,49545.2,47675.4
87721.2,71647.2,63651,91107.8,73253.6,73585.4,47358.8,44047.8
90555.3,75951.9,85968.4,80453.8,79016,83090,45693.6,47587
83683.8,84548.7,70652.4,59367,80778.6,84760.2,47155.4,48283.7
86927.4,102302,80193.4,87883.6,84796.6,89796,47417.1,50821
90697.5,77063.4,97672.4,77110.6,98823.2,98506.8,48615.9,53562.9
99129.6,90615.6,102112,75346.6,103354,80715.6,47930,46558.6
97227,68769,95529,71486.8,93339.4,89905.2,46405.1,49792
96180.3,101790,101562,87304,82920.6,83920.2,42924.4,48608.2
108456,74697.3,99386,65578.8,107533,75065.2,46739.4,48544.3
87813.9,75507.3,80554.6,84915.6,90624.8,78331.4,45017.3,43611.2
89046,99666.9,74597.6,138642,72529.8,91889,44479.9,43254.2
84897.9,87241.5,67634,120747,74788,102327,48101.3,53389.8
89456.4,65146.5,84751.8,31287.2,77044.8,74922.4,42493.9,47849.8
58648.5,61213.5,80649.8,33311.6,83451.2,75804.4,43126.9,46648.6
109930,84742.2,132112,68699.4,108604,76896.4,50655.1,49727.7
72812.7,80044.2,70480.2,79177,86836.4,87403.4,46879,43876.9
93213.9,91526.4,79511.6,60928,74324.6,74468.8,47273.3,46686.8
106749,68191.2,97498.8,59767.4,80593.8,77043.4,51884.6,48819.2
81542.7,77004,86657.2,63046.2,98956.2,134351,47024.7,42077.5
101758,89245.8,94395,64064,97752.2,85474.2,50283.4,46478.6
77904,89265.6,113271,70067.2,119204,79406.6,49198,43816.8
97887.6,66556.8,84128.8,40181.4,72595.6,78867.6,45789.2,49168.4
97846.2,73120.5,86864.4,54734.4,82541.2,76214.6,51149.8,48882.8
89010,82832.4,116941,65035.6,96069.4,77357,44184.6,45664.2
85584.6,93042.9,57632.4,78828.4,76045.2,77491.4,44421.9,48816.1
98500.5,101771,79704.8,103475,79116.8,101413,46977.8,54401.7
102182,81194.4,105434,79713.2,87490.2,88429.6,48503.4,49687.1
90214.2,58594.5,91611.8,63859.6,85639.4,72864.4,49637.7,46497.2
124948,81207.9,142878,75349.4,122714,93550.8,47330.1,49653.5
107887,91538.1,95750.2,71792,101724,76651.4,54380.1,48542.8
101103,50922,82964,79598.4,84795.2,90326.6,47211.4,49820.8
143928,53632.8,152492,77684.6,127820,79297.4,48116,45722.1
84906.9,88338.6,78722,70481.6,74778.2,80997,40739,47294.1
85509.9,62802.9,101903,93349.2,81429.6,82398.4,45603.3,40652.5
105363,123206,72989,89175.8,91098,98834.4,47725.1,46007.3
98889.3,90927,159205,65263.8,130966,78618.4,54162.1,46825.9
116193,86752.8,107045,65482.2,112514,75751.2,54100.3,47933.1
89410.5,71595.9,65053.8,70084,87458,74166.4,47185.8,48977.5
108352,75744,104709,44566.2,95433.8,84998.2,52825.7,44017.3
76747.5,77203.8,127008,69316.8,97763.4,76731.2,53077.4,45884
84088.8,74628,44731.4,44643.2,171837,77975.8,40766.4,44520.7
91397.7,71428.5,70966,58951.2,83414.8,91624.4,51948.2,47810.1
110238,94648.5,108802,104049,91593.6,102130,51921.6,50863.3
102334,95842.8,69081.6,109789,81072.6,101823,47680.4,46278.7
66348.9,64759.5,60713.8,38570,75825.4,81697,44756.4,48148.1
85177.8,104836,73579.8,103263,93160.2,89440.4,48212.3,48516.1
91854,99994.5,98432.6,106390,85289.4,95751.6,44646,47762.4
100821,65142,86703.4,89297.6,83577.2,79436,49927.5,42071.2
80324.1,73991.7,70705.6,61404,85488.2,73280.2,50060.6,48199.2
112197,76389.3,108847,80291.4,96726,89110,46899.4,48660.2
86912.1,74592.9,68430.6,82364.8,76329.4,72996,48003.5,42243.2
70919.1,92554.2,79507.4,77039.2,75798.8,91649.6,45002.4,54096.5
99396.9,115233,84099.4,127779,85925,103036,46682.7,49365.8
105464,66087.9,83050.8,40584.6,82160.4,76875.4,48733.9,46574.3
76793.4,83387.7,85418.2,79144.8,92310.4,92604.4,43978.8,49584.4
88851.6,104779,87981.6,105914,86849,106848,47752.1,49393.2
96328.8,90729.9,84176.4,90381.2,86385.6,92736,52277.7,49015.2
98229.6,86287.5,113898,82500.6,73943.8,81695.6,53502.3,51362.6
88092.9,75850.2,78930.6,76314,77067.2,75943,47314.6,44931.2
111592,87894.9,100318,81498.2,104334,75622.4,48143.3,53452.5
64379.7,141720,85274,165297,77998.2,107097,53024.9,50479.9
99669.6,63676.8,222848,63109.2,145870,78020.6,42038.7,47485.6
95438.7,88629.3,77322,70140,81197.2,74421.2,48561.9,44412.2
88758.9,141355,129034,222452,101738,209315,54243.8,46228.8
87164.1,78206.4,99317.4,77921.2,80493,77320.6,47824.3,48642
83025,60506.1,64643.6,50864.8,81481.4,98085.4,45686.7,51049.2
91863.9,115923,84730.8,117970,85741.6,122598,46497.8,44892.9
77982.3,89791.2,79746.8,69245.4,81837,74832.8,43791.6,43142.2
92221.2,139877,58975,131018,77999.6,121577,47053.8,51170.1
85252.5,70038.9,63480.2,61748.4,74401.6,76815.2,41894.3,45607.8
93180.6,89631,84193.2,72469.6,75898.2,90013,47553.7,49859.3
75325.5,83685.6,100376,96602.8,129240,100772,47005.1,52468.9
99009.9,85041.9,111286,71813,95884.6,82815.6,52038.6,51037.2
98861.4,67518.9,104059,59473.4,95579.4,84383.6,47616.4,45633.8
98562.6,69327.9,77539,43563.8,74331.6,80536.4,52794.6,48545
94976.1,94302,89675.6,103025,102154,76022.8,53320.8,44205.7
102788,75325.5,113040,58511.6,101535,81792.2,47290.7,50115.7
94566.6,78054.3,170078,53289.6,127571,74820.2,41265.5,44503.4
88239.6,75326.4,114946,50811.6,106903,74356.8,48607.1,50804.2
140442,98386.2,126025,88457.6,104202,85514.8,49625.3,46834
98689.5,74434.5,95967.2,73558.8,93602.6,81450.6,48902.5,47843.9
66703.5,69011.1,69910.4,57411.2,72602.6,86688,46516.9,49802.3
92600.1,98038.8,68889.8,101394,208447,105888,39354.2,48516.9
96131.7,85842.9,73007.2,114467,78787.8,118868,51737.7,41641
93137.4,87102.9,59129,73260.6,79696.4,87350.2,46223.5,48987.5
82819.8,85563,84966,57814.4,92663.2,74072.6,50839.4,47950.6
96782.4,85080.6,98667.8,80222.8,96671.4,81505.2,49410.3,45509.4
82144.8,107351,85358,117607,80501.4,115779,48130.5,44271.4
87026.4,85683.6,70779.8,57929.2,75530,84378,46967.1,46952.8
98327.7,85833,82090.4,81076.8,91320.6,78425.2,47737.6,42190.8
74087.1,93708,87406.2,79718.8,82286.4,90405,49865.9,47723.4
91184.4,92375.1,63198.8,57503.6,73166.8,73463.6,48728.5,48794.2
69955.2,67067.1,64807.4,44438.8,85072.4,76132,49121.6,48333
82058.4,104863,103845,63522.2,103375,81377.8,48408,47383.2
69986.7,80380.8,87399.2,86692.2,74076.8,87822,40445.1,49083
79692.3,79173,67344.2,73943.8,74734.8,94470.6,45404.1,53761.1
83024.1,80933.4,79178.4,73392.2,74918.2,80469.2,48800.5,46045.8
119557,90277.2,135303,84757.4,88471.6,96300.4,52164.9,47106
85260.6,79964.1,61338.2,64670.2,73298.4,72898,49700.7,48397.1
78600.6,100133,73522.4,74264.4,73068.8,81680.2,48649.6,49105
59392.8,75233.7,111194,56121.8,96531.4,75026,44209,45755.6
91066.5,49781.7,99388.8,70278.6,86184,94672.2,43601.2,49134.9
85454.1,68202.9,84546,45595.2,88816,74081,54629.8,49042.3
68109.3,64143.9,53572.4,47755.4,82166,75877.2,48235.3,48416.9
84749.4,59422.5,82164.6,68671.4,76389.6,74211.2,47684.8,52886
102308,80154.9,120904,54924.8,90034,80682,46210.1,49198.9
72438.3,81856.8,82941.6,106513,75014.8,102682,42998,53773.9
72048.6,91115.1,65506,79973.6,89464.2,89840.8,49702.4,46263.6
85837.5,76248,73676.4,81158,75983.6,81186,50088.6,43411.7
114874,112060,98807.8,80680.6,121682,96754,44038.7,52225.3
91369.8,76842,66032.4,61936,75350.8,81246.2,53846.5,48718.2
112054,90897.3,126797,77812,130771,86730,49213.5,49792.3
78291,124995,51059.4,105573,89539.8,103816,44870.9,47579.2
88047,96511.5,81435.2,81356.8,80222.8,89544,53535.3,48717.9
71222.4,90533.7,68073.6,76715.8,91009.8,85895.6,50144.8,48708.2
95247.9,95936.4,82244.4,88193,79042.6,89514.6,47019.8,50232.4
99919.8,94041,92621.2,114201,90717.2,106649,40089.9,53183.5
76283.1,80554.5,115947,51886.8,119154,73313.8,48796.7,47560.9
101944,98392.5,96201,128309,79560.6,101815,46358.9,49135
84345.3,103564,69752.2,90216,78695.4,91506.8,46106.2,47248.9
94325.4,71399.7,88811.8,63543.2,80435.6,72945.6,45508,49823.3
89332.2,81679.5,85740.2,59967.6,76641.6,72658.6,51491.6,46173.2
92712.6,72288.9,118703,34468,103827,81606,39516.2,49070
76395.6,80777.7,71157.8,65192.4,82962.6,79375.8,46148.4,53738.3
71568,97443.9,74902.8,97886.6,82969.6,98677.6,51503.2,47081.4
84717.9,71138.7,89090.4,85381.8,74340,75766.6,50454.9,39290.3
83393.1,88233.3,69200.6,71883,74786.6,83612.2,48344.9,53664.1
97668.9,91996.2,106539,113002,88968.6,96801.6,49269,49389.9
98194.5,97770.6,93016,90428.8,81811.8,92736,51783.8,50091.8
77178.6,78070.5,95572.4,74375,84886.2,72916.2,41473.5,49450.6
77784.3,78186.6,64454.6,84044.8,75709.2,81457.6,51812.6,46760
83783.7,86359.5,67027.8,59507,74853.8,80775.8,48341,48190.1
77765.4,101022,75310.2,101639,82181.4,102959,46784.3,51499.6
73985.4,82456.2,123854,81018,102705,80353,50464.8,44419.2
72285.3,103401,61796,71167.6,82525.8,85278.2,49280,47110.4
84755.7,77148,168141,74002.6,158602,74957.4,49954.9,47949.2
84656.7,90888.3,46653.6,83759.2,75679.8,77849.8,48089.8,47555.1
102604,89701.2,89936,74198.6,84406,109588,49014,47562.9
83337.3,90558.9,75425,74274.2,86270.8,91596.4,47488.5,49349.7
98600.4,82098,74124.4,64233.4,76382.6,75052.6,49604.5,49020.8
77395.5,94057.2,49162.4,103223,72682.4,93916.2,48851.9,44745.2
98442.9,54977.4,76718.6,79907.8,73066,84113.4,46644.9,39810.3
91047.6,106416,73974.6,118250,72620.8,92254.4,47485,53321.7
80265.6,102273,51538.2,92486.8,75705,88905.6,47558.2,48229.8
58711.5,94383.9,68726,105157,72412.2,97503,39619.3,49374.5
60010.2,80622,82453,60130,85352.4,80613.4,45357.6,49473.1
92907.9,89702.1,68871.6,93476.6,80379.6,115174,47068.4,52116.2
83160,87363.9,131523,114065,104696,103446,52820.9,48399.6
104000,79377.3,98800.8,60396,102017,78138.2,53285.4,49863.9
82712.7,84188.7,136655,88499.6,93417.8,79115.4,50751.9,51054.6
71862.3,88570.8,66656.8,69498.8,76078.8,78667.4,40010.6,48873.6
81683.1,75054.6,123271,72486.4,90293,83389.6,52497.5,49847.8
105169,87360.3,90449.8,75621,72823.8,78076.6,48730.3,47410.7
103889,91996.2,94522.4,102885,98168,96000.8,50292.8,48978
111586,75512.7,133183,50976.8,113693,87540.6,47637.9,44776.1
96448.5,68911.2,67389,44317,73509.8,86844.8,45831.4,47465.3
115391,85863.6,128799,82987.8,102313,90202,46731.9,54015.7
100782,61517.7,96266.8,32158,81876.2,188399,48127.3,42811
47699.1,65708.1,91312.2,57232,92034.6,82593,40790.3,46365.5
59802.3,85691.7,66221.4,126321,73154.2,98809.2,48486.7,39657.8
94732.2,74194.2,92405.6,54642,93367.4,72881.2,40953.8,45645.3
98671.5,79395.3,64038.8,53337.2,72574.6,74376.4,47253,46211.5
84543.3,94639.5,81713.8,80487.4,83451.2,86720.2,47818.3,49542
69897.6,79863.3,79381.4,129049,73217.2,106704,41089.5,51693.3
78511.5,85582.8,59721.2,70077,73057.6,73634.4,53474.4,48576.3
113170,78253.2,133011,117757,80082.8,89465.6,49659.9,38946.1
101287,77569.2,99666,54517.4,98029.4,76850.2,52034.1,47986.5
82082.7,90542.7,65263.8,64681.4,88089.4,84184.8,48115.2,45249.4
86227.2,70732.8,84345.8,66952.2,94053.4,86644.6,42613.4,49459.5
96412.5,101668,86525.6,110071,73047.8,99113,44384.6,49220.9
126999,80312.4,106947,71951.6,99288,78678.6,49953.5,48446.2
96322.5,90907.2,69052.2,68188.4,82632.2,105997,48129.4,49460.5
95082.3,83029.5,99841,74730.6,87081.4,79952.6,49825.1,46997.8
91145.7,105268,79618,93252.6,94221.4,98981.4,49122.6,48734.5
83247.3,102629,81456.2,103621,72500.4,98263.2,43869.2,50383
83406.6,96012.9,64723.4,80322.2,76953.8,109850,50162.4,52756.7
95141.7,98290.8,102018,86805.6,89222,98957.6,43676.2,48363
113814,81103.5,108534,70777,107355,77273,43045.9,48396
59934.6,95990.4,81849.6,80430,73171,90549.2,47884.1,49808.1
95747.4,105284,57950.2,86766.4,79840.6,98389.2,46982.5,53469.4
93965.4,108320,70365.4,111934,75031.6,115835,49294.6,51006.1
67555.8,91390.5,91350,99757,97141.8,77712.6,48234.6,49742.9
126192,73701.9,106032,85919.4,189385,87490.2,53856,48958.4
103597,100236,97456.8,111108,95218.2,108416,47861.1,49280.4
106294,86352.3,60200,82152,89500.6,95307.8,52813.2,54475.5
121366,66976.2,125021,62190.8,133879,95039,52381.2,44328.7
95526,83498.4,81782.4,68693.8,79588.6,85601.6,46577.6,44488.5
76878,85037.4,64799,68360.6,73217.2,78409.8,48895.9,49302
88891.2,62156.7,85444.8,73577,74159.4,88328.8,43309.1,48037.5
82615.5,77122.8,94997,56459.2,89086.2,79923.2,49930.9,51725.3
83853,89175.6,59889.2,100121,78143.8,90518.4,44720.1,48841.9
88515.9,67639.5,77359.8,90720,78699.6,84417.2,50790.4,42719.1
77003.1,114353,76591.2,104135,83437.2,114625,43382.2,47860.1
95616.9,84767.4,88173.4,72584.4,78019.2,97886.6,48142.3,48679.5
96317.1,69529.5,108734,53018,84607.6,72490.6,53167.1,47890.4
98868.6,94536,82979.4,89709.2,83580,90830.6,53186.6,52631
153061,106406,142288,144549,173369,120285,43614.6,49056.2
91905.3,135559,78029,128288,90535.2,112839,53779.1,54262.9
81877.5,79155.9,68422.2,53488.4,78755.6,73784.2,52445.9,46085.6
90243,78220.8,61559.4,49513.8,73304,75775,52585.8,50865.1
89374.5,127187,99523.2,222495,90517,113880,48912,43710.8
96828.3,88333.2,55032.6,65945.6,89681.2,74036.2,49478.5,52156.2
103636,119344,54826.8,119900,73670.8,109892,46252.3,51065.3
90267.3,79799.4,101247,58324,90466.6,73771.6,42620.9,44537.7
98926.2,80267.4,76111,86849,81590.6,87612,42822.4,47105.7
80502.3,86913.9,88256,65374.4,72434.6,87663.8,46925.1,52593.2
104889,73699.2,98061.6,64891.4,92514.8,87549,52295.4,46174.3
76474.8,69889.5,54490.8,96045.6,73189.2,87833.2,43381,54315.7
80243.1,82689.3,53368,64835.4,73921.4,79557.8,49027.4,46448.6
108028,82179.9,126178,63904.4,104572,88215.4,54192.1,47631.6
71493.3,72967.5,102950,49712.6,79819.6,73945.2,50477.7,49384.9
115121,77249.7,132453,53355.4,121111,72657.2,54512.8,48817.8
89159.4,77067.9,70625.8,63294,76071.8,84032.2,45308.5,52297.2
89177.4,54495,68653.2,90686.4,73050.6,91884.8,48167.3,43874.6
85211.1,64584,87815,80360,80007.2,98873.6,49402.3,52084.6
82288.8,147943,75586,123599,73778.6,108283,47541.8,46975.4
84596.4,71111.7,99996.4,81510.8,109995,76126.4,46035.4,45037.6
93749.4,69964.2,110866,57792,91952,75537,54535.8,50909.2
83007.9,110278,64446.2,144043,75196.8,131071,47524.3,52052.5
90778.5,65047.5,92295,89093.2,84828.8,79331,50588.3,49031.8
77238,91662.3,92857.8,63364,94362.8,86730,48261.8,46964.3
152607,99647.1,167056,93879.8,129626,96250,38933.4,47004.3
78165.9,81826.2,80581.2,93543.8,76743.8,91163.8,44573.1,52269.8
91481.4,69344.1,71127,58228.8,74712.4,79868.6,48602.5,50463.2
96357.6,113844,74824.4,82773.6,79639,103659,50071.5,50780
89730,98028.9,90476.4,91455,85495.2,92775.2,48541.4,52750.3
91374.3,87606.9,75667.2,72227.4,80871,75034.4,54317.1,46330.7
109931,84289.5,122109,62655.6,115056,82551,48402.3,48635.1
80769.6,100359,83935.6,89070.8,75457.2,97584.2,42243.4,41510.4
74842.2,67086.9,41799.8,74162.2,92481.2,74320.4,46184.3,49029
94258.8,71722.8,108433,81733.4,93672.6,89105.8,48443.4,47614.6
107947,87262.2,138138,100092,115388,83517,49081.3,44206.6
89798.4,73477.8,69841.8,82591.6,78398.6,72937.2,47583.2,44517.6
51454.8,106428,71841,119126,79079,113840,45734.6,47363.5
94313.7,94962.6,87105.2,97707.4,107296,94488.8,49645,50694.4
57716.1,93854.7,129903,80960.6,127214,83435.8,44254.1,52308.6
90012.6,85464,75009.2,76886.6,72623.6,85274,49027.7,42150.4
86396.4,80118,133829,83242.6,94507,97207.6,42015.1,54484.5
100834,64871.1,81909.8,55759.2,85839.6,77660.8,52347.5,51289.1
67370.4,88560.9,32050.2,82796,209332,75481,47892.8,49253.7
98595,83241.9,93269.4,103663,74267.2,90931.4,48815.4,45975.8
103567,110406,61936,84518,109291,114899,50518.3,48146.4
89865,95275.8,92115.8,88450.6,88009.6,99912.4,51558,46761.5
130661,121586,170792,180155,146812,150469,42219.9,51588.4
76401,78071.4,76421.8,53894.4,86634.8,75019,45936.1,48490.1
84717.9,70426.8,78008,65749.6,91219.8,92608.6,49205.8,50372.5
83573.1,94229.1,129791,63907.2,99271.2,84494.2,47536.3,49693.8
89987.4,109923,78922.2,97840.4,95187.4,108202,45417.9,48494.7
84616.2,83000.7,70098,61048.4,72462.6,80375.4,48049.6,46243.9
96739.2,85868.1,71211,72192.4,80395,78041.6,43432,51820.6
67873.5,68862.6,85706.6,86384.2,111817,85558.2,50114.4,44134.6
102756,86482.8,83472.2,71181.6,77368.2,80235.4,48456.8,49658.3
94519.8,79957.8,96230.4,80460.8,87057.6,80092.6,49737.8,47156.3
107248,90273.6,102808,69820.8,92348.2,92002.4,46729.8,47027.1
91586.7,103716,76575.8,91940.8,78038.8,88440.8,47966.5,46224.4
84845.7,86171.4,75625.2,90783,76659.8,86881.2,50407.3,48744.9
73554.3,96875.1,67258.8,92710.8,80504.2,104366,42163.6,48926.1
119622,95867.1,127992,109302,118280,138622,44128.7,50100.9
69857.1,73811.7,85604.4,63872.2,88257.4,73796.8,44247.6,45373.9
92482.2,143964,80298.4,121486,98631.4,147206,54535.4,45327
87089.4,79522.2,74592,42705.6,80654,73661,44274.7,48641.1
78625.8,62503.2,70040.6,51154.6,72279.2,78856.4,49995.6,40192.1
93828.6,91001.7,97997.2,82742.8,86067.8,88341.4,51694.8,48489.2
64651.5,80264.7,70659.4,55274.8,77333.2,86556.4,41593.9,49643.5
98057.7,61675.2,101436,87087,97902,85899.8,46975.1,42914.8
64660.5,77742.9,104390,83827.8,90441.4,89703.6,48912,45847.5
107680,88434,148012,95471.6,120501,98449.4,48929,46199.7
104206,70228.8,99051.4,47241.6,88363.8,72788.8,49014.8,42384
95326.2,86213.7,86525.6,75392.8,81060,84845.6,48936.7,49894.7
102308,90342.9,63702.8,79788.8,82051.2,72947,44833.5,47831
101333,97245,105295,83179.6,99345.4,94662.4,49233.1,49720.4
113013,106039,117382,109389,97476.4,103142,46393.5,48065.4
92538,98086.5,103786,111930,90923,93776.2,45533.7,47504.3
77207.4,83120.4,82255.6,68728.8,72730,75691,44162.9,39876.9
98330.4,87073.2,105298,108417,103999,79451.4,53576.8,41610
83892.6,94860,102974,72893.8,87953.6,93209.2,51278.8,46810.4
107961,81110.7,85279.6,58272.2,78901.2,75793.2,49221.8,45102.1
108267,87227.1,115263,64059.8,110324,93720.2,47662.3,49655.4
115195,90045.9,65450,91513.8,99972.6,96467,47134.4,51711.3
114133,96460.2,96185.6,85241.8,118660,89845,49836.1,45445.9
79790.4,87130.8,63029.4,74522,83588.4,72858.8,49883.6,44009.6
85370.4,79640.1,69014.4,63705.6,75152,76526.8,45220.2,49260.2
80103.6,71517.6,80358.6,79969.4,76193.6,83013,49338.6,47080.3
90000.9,95551.2,61199.6,78423.8,73315.2,97041,47198.2,48284.6
106237,84006,85727.6,85225,78964.2,72681,47238.4,45636.1
101641,84515.4,80757.6,64132.6,81354,74242,48518.1,49502.4
93194.1,113579,53100.6,122734,78929.2,100491,46801.5,46042.4
107928,122435,69938.4,161251,90046.6,133899,49827.2,51917
69297.3,99395.1,85867.6,69861.4,83514.2,208492,46037.9,40249.9
94110.3,108994,106196,87425.8,87970.4,88825.8,44349.5,47058.2
91988.1,63853.2,71540,66203.2,85510.6,72671.2,46275.6,43647.1
76911.3,96156.9,55377,85552.6,78950.2,101273,51910.7,52281.8
89718.3,75137.4,59474.8,63477.4,77800.8,77267.4,49441.4,53979.4
72811.8,90600.3,63056,76055,75544,80519.6,47088.3,48978.3
70719.3,80876.7,88013.8,133757,93164.4,109305,41979.4,51320
78567.3,83229.3,101398,49992.6,98933.8,81446.4,49882.9,48194
68419.8,86685.3,74905.6,73301.2,81988.2,84700,52194.2,54489.4
74727,89865.9,49802.2,82954.2,141158,82068,45538.6,46399.4
93375,72595.8,74249,71493.8,88139.8,88545.8,53395.5,51992.7
68913,109416,100855,99489.6,95968.6,95447.8,51513.2,48713.4
82154.7,89429.4,71876,93686.6,83190.8,85621.2,45413.1,45740.8
169168,63750.6,198652,59868.2,133633,74018,51189.4,46845.3
70067.7,78570,52997,113578,75573.4,80056.2,48204.4,51077.7
88126.2,74297.7,56530.6,61107.2,77376.6,84193.2,46208.1,50217.7
93486.6,113432,79305.8,82285,83561.8,97532.4,46778.1,45650.8
134794,65604.6,172505,167066,131858,139650,43975.4,52783.5
85577.4,77574.6,89472.6,62666.8,85324.4,72945.6,51003.5,46247.7
122618,107059,100222,87280.2,98700,106380,45056.2,47924.1
69262.2,89937,54824,63211.4,75468.4,87043.6,49793.2,46878.1
86247,81085.5,66511.2,69745.2,73728.2,80234,45435.3,46186.3
99753.3,89298.9,195832,76043.8,170411,94087,45030.4,48563.5
77248.8,87598.8,79599.8,67474.4,79616.6,72627.8,46667.6,50407.9
87039,101048,68917.8,138230,79702,113936,46389.9,53973.4
77467.5,73611.9,86557.8,59319.4,83134.8,73521,47891.9,48027.6
101395,80394.3,59567.2,56123.2,168479,75276.6,44233,49544.3
110822,101857,80943.8,105462,195342,97662.6,45599.2,47237.6
87487.2,81478.8,67520.6,60585,80172.4,81576.6,46723.4,50720.3
87343.2,72219.6,76486.2,60130,77742,80526.6,52385,48621
85606.2,91835.1,75629.4,93185.4,72795.8,98239.4,48014.6,49885.5
79585.2,91953.9,78734.6,66046.4,75145,77824.6,50133.1,46732.9
99027.9,76035.6,76895,61453,75483.8,73766,40065.4,49535.9
132413,100423,108830,96709.2,104502,94847.2,48332.9,47270.4
52833.6,90157.5,89217.8,64038.8,82419.4,77740.6,42223.9,44995.9
100210,76340.7,167506,50556.8,145488,72585.8,40783.5,50891.1
97545.6,120864,68996.2,185739,94575.6,128717,48035.3,40089.3
125356,89103.6,98110.6,49200.2,88032,79588.6,49982.2,50660
85231.8,82076.4,105419,112041,79471,84875,50320.1,39162.6
111092,65137.5,51121,29089.2,84750.4,72984.8,47750.7,49228.2
56332.8,103812,87085.6,169996,81167.8,131620,44308.4,52681.3
105939,100499,83344.8,100253,89538.4,110559,44224.1,51209.3
94464,85284.9,87010,62613.6,82524.4,79885.4,53134.3,47132
87597,139473,77518,208459,78832.6,124891,44209.6,42296.9
108599,85148.1,84056,70971.6,78794.8,79443,48810,48456.4
63200.7,80621.1,44252.6,130617,81859.4,109260,48721.5,54484.3
116259,81580.5,98585.2,69749.4,91726.6,73911.6,49580,47275
85999.5,73981.8,62349,53715.2,73543.4,116529,46457.4,47903.9
94601.7,79308.9,100906,78547,86825.2,84880.6,48702.2,49382.3
76972.5,80989.2,74326,55043.8,93755.2,78586.2,53415.9,47800.1
92270.7,93192.3,74832.8,69692,90246.8,79245.6,46942.6,54538.5
116582,87335.1,97732.6,75772.2,103163,83468,49958.8,50679.2
97083.9,97260.3,113326,89434.8,102467,97626.2,47395.2,54093.4
111903,114906,106848,137284,99775.2,106610,50220.5,51128.4
93235.5,102238,134345,114930,107258,101739,53810,48008.1
81976.5,83933.1,79448.6,65529.8,79395.4,82651.8,47709.2,49062.4
73949.4,85616.1,89989.2,74580.8,79098.6,77903,46036.3,46713.1
85072.5,80779.5,77939.4,72784.6,73494.4,74326,44772.2,52551.2
83696.4,69264,64040.2,95240.6,78380.4,79563.4,47743.5,48744.4
101089,87560.1,106775,115020,74361,99302,54316.7,49504.9
82292.4,88054.2,52259.2,89576.2,73196.2,81253.2,48619.5,43342
108796,98649.9,112253,81947.6,106147,103524,54125.2,50979.7
83596.5,81360.9,51802.8,60796.4,75117,82248.6,44992,49755.4
82926.9,83592.9,55591.2,82346.6,78684.2,78576.4,45896.6,51586.1
88587.9,95558.4,104017,85541.4,93613.8,85206.8,51585.9,50253.3
94150.8,87845.4,169614,64306.2,143485,89166,46458.2,49621.3
73143,139693,66183.6,148819,73250.8,111852,47627.7,49749
96615.9,71247.6,73978.8,64853.6,92793.4,82840.8,51192.9,45917.9
85608,81518.4,66250.8,52648.4,75465.6,83328,46109.9,42670.9
95513.4,90515.7,69743.8,104497,86087.4,81641,43260.5,49288.4
114650,65903.4,117575,51277.8,120289,72917.6,44283.4,47206.3
101632,96349.5,90862.8,77198.8,83322.4,88439.4,47222.6,46035.5
79710.3,92649.6,82282.2,131510,88362.4,103664,45332.8,41335.4
91808.1,69320.7,82348,61539.8,87830.4,76818,53996.6,43139.5
76122.9,86379.3,79912,66848.6,77014,93237.2,41740.5,49048
69681.6,113028,78968.4,91291.2,90669.6,85740.2,51709,46264.1
102316,82461.6,82412.4,96719,76918.8,78855,45949.7,47798.3
87222.6,97424.1,86137.8,133822,74333,159484,48173.1,50660.6
96772.5,81154.8,99293.6,65122.4,77520.8,86126.6,46530.2,50016.8
109012,79488,87416,97458.2,105491,86641.8,52082.3,41901
94394.7,80983.8,72678.2,77238,76847.4,82889.8,48006.2,46042
90279,83427.3,84607.6,61703.6,81902.8,84078.4,49407.3,49086.6
71385.3,84777.3,88685.8,66575.6,95523.4,77627.2,46505.5,48440
89595,70528.5,88963,50750,75747,73390.8,51573.2,43542.7
96353.1,86198.4,61597.2,70334.6,77011.2,79368.8,47965,48953.4
50180.4,68166.9,91693,72980.6,90566,74352.6,47354.7,47913.4
97141.5,93942.9,87201.8,86569,84942.2,108072,47288.4,52337.1
95334.3,92081.7,60480,65342.2,79199.4,89901,53430,53502.2
85985.1,78768.9,91009.8,67092.2,77232.4,90067.6,45778.2,49111
91795.5,82965.6,74079.6,78229.2,75054,81188.8,48961.9,50907.2
93252.6,82255.5,134428,74580.8,96125.4,82794.6,45847,49114.4
88269.3,89993.7,96572,91515.2,85614.2,89556.6,45643.1,47705.2
99103.5,97689.6,94246.6,84358.4,86651.6,90391,47419.4,48044.5
92478.6,85300.2,78701,67145.4,89688.2,78033.2,47354.4,42261.7
63463.5,74165.4,31606.4,62920.2,94306.8,78346.8,46308.1,47162.4
99038.7,95052.6,79535.4,69881,88677.4,98410.2,41760.7,50292
103109,90263.7,93114,78736,106511,86213.4,51070.6,47899.5
87762.6,93339,97899.2,92472.8,84107.8,101703,44501.9,54247.9
102899,82361.7,79822.4,63156.8,83032.6,82034.4,47862.2,51601.7
75214.8,80636.4,71682.8,52925.6,91284.2,82080.6,53633,48591.3
93283.2,59263.2,72385.6,67760,86860.2,77182,43369.7,40916.5
85688.1,88434,78640.8,90343.4,77785.4,96024.6,43360.4,45880.3
101728,86932.8,127751,78596,116991,88925.2,50659.7,50651
88817.4,88254,79597,63453.6,83255.2,80738,46558.7,48803.4
120497,73718.1,88634,60386.2,91607.6,75605.6,46463.9,49828.6
93009.6,79512.3,111342,58087.4,102154,78306.2,54044.6,45388.8
103882,87021.9,84788.2,104975,76216,91586.6,46824.8,46572.5
69166.8,75148.2,70821.8,95235,74657.8,92972.6,50907.6,48236.2
94819.5,102434,108766,94927,99051.4,87795.4,50133.2,51591.4
88068.6,76188.6,113919,58994.6,93548,79874.2,47503.2,49072.8
100792,93438,103300,125020,98634.2,126589,54490.5,54601.4
100844,100570,75937.4,195761,81089.4,140237,47264,52835.4
90494.1,85897.8,129037,54726,109724,78793.4,48989.9,47744.7
55431.9,91449,17700.2,73805.2,75894,89126.8,50010.8,48463.6
87840,85308.3,75303.2,74158,88200,87934,52103.8,45255.3
77793.3,80301.6,84239.4,59658.2,79186.8,80246.6,52197.1,49382
112273,77814,78659,92386,102941,81211.2,48096.9,44595.2
81902.7,99720,99593.2,72083.2,77841.4,83893.6,45902,49040.4
85945.5,117267,72454.2,102533,75460,107338,50423.5,51368.2
102781,75242.7,125143,57356.6,101102,72720.2,42829.9,48724.4
73734.3,82979.1,78836.8,176421,73077.2,99969.8,46139.1,49388.5
82002.6,78779.7,78255.8,63798,74055.8,78687,46352.5,49333.5
90792,142605,111080,195061,132166,112897,46710.5,50333.7
99877.5,90085.5,102325,74853.8,82615.4,86563.4,49320,49107
98388.9,72406.8,56162.4,47048.4,75516,75709.2,42452.6,49000.1
103556,108764,78960,84096.6,80738,100474,46661.4,49698.4
53059.5,89085.6,89968.2,110705,88272.8,94222.8,48960.8,50785.7
84970.8,86353.2,73508.4,71750,82919.2,95713.8,48765.3,50373.5
75832.2,79247.7,74667.6,60138.4,83638.8,84917,47067.7,49319.4
59266.8,87066,109536,79888.2,81568.2,75796,39884.6,49703.8
111658,97660.8,97470.8,87008.6,107447,98919.8,51383.6,51724.4
104548,79557.3,120127,70926.8,111665,79217.6,48063.5,51292.9
86220.9,136796,73642.8,163170,106200,131646,49192.4,54214.6
77690.7,81646.2,94567.2,70527.8,81236.4,81282.6,46200,49304.9
91980.9,116642,47391.4,129042,79247,117447,47665.8,48704.8
75137.4,88024.5,91884.8,79035.6,86073.4,82273.8,49321.6,48186.4
90499.5,81984.6,71401.4,67372.2,74778.2,82252.8,48128.2,52871.6
96476.4,90519.3,86853.2,83616.4,105070,83753.6,47070.9,46709.2
81675,100300,65329.6,78821.4,77128.8,100631,48391.7,48494
101260,88905.6,74592,56607.6,77028,91771.4,47988.1,51168.7
103392,98169.3,87043.6,75045.6,91131.6,72706.2,47961.8,49560.8
47438.1,104899,71787.8,105881,74414.2,101737,44436.3,52801.8
110196,61670.7,104560,78846.6,103781,85345.4,51212.1,50217.3
83485.8,84823.2,61696.6,75376,73169.6,83739.6,46685.8,48974.9
119385,84251.7,99331.4,95468.8,76015.8,96660.2,47552,53207.5
76282.2,76496.4,66220,78408.4,73746.4,74352.6,44198.4,49355.4
68648.4,89584.2,87813.6,75726,78197,88692.8,47623.1,47308.3
93810.6,108142,106260,121656,91008.4,75794.6,51750.7,44574.2
109586,72345.6,113562,55223,90792.8,83540.8,48408.7,47961.8
91413,76484.7,111009,62155.8,112620,77417.2,47181.6,50732.7
112641,92899.8,165346,66236.8,135582,90115.2,47816.9,49012.6
99428.4,85461.3,92213.8,91344.4,90053.6,82803,47942.6,47575.5
100885,94005.9,89105.8,83011.6,107124,90500.2,50231.1,47743.6
87618.6,102850,83774.6,140701,75688.2,93307.2,50925.8,41147.9
79153.2,90330.3,75468.4,65615.2,75203.8,82600,45439.5,49047.6
72686.7,110951,79816.8,113949,85127,97699,47030.8,47365
82161.9,123805,90491.8,200521,99066.8,143444,49467.7,47774.3
89901.9,98301.6,84989.8,57019.2,81128.6,114405,48451.1,48208.6
88736.4,81711,62484.8,81496.8,73942.4,84197.4,44200.8,47679.3
83638.8,64520.1,83336.4,80346,99166.2,79697.8,46292.9,43578.9
102593,104648,124522,86413.6,109248,100583,42765.4,46988
68100.3,87626.7,95534.6,65227.4,92950.2,75756.8,48258.1,47164.2
87070.5,126491,57635.2,104007,74736.2,112851,46864.2,43342.5
92334.6,86037.3,101643,83011.6,89434.8,76386.8,54450.9,48387.7
96517.8,92651.4,63288.4,81604.6,79167.2,107477,49262,46443.3
82640.7,77823,94225.6,96049.8,75507.6,82002.2,48129.9,50366.7
89851.5,77904,68017.6,66396.4,73241,77672,48738.2,49234.9
96345,79057.8,61100.2,60044.6,78240.4,79486.4,47033.5,49615.3
90486,64575,117494,61595.8,98410.2,85782.2,50671.4,50050.9
79247.7,89523,94330.6,74215.4,92124.2,82497.8,41468.7,40897.9
109748,118652,93119.6,112507,89051.2,113800,45173.7,54215.2
96252.3,60732,133924,114818,117345,79521.4,47303.1,45192.8
107806,60802.2,109778,56672,94110.8,76049.4,47028.2,48946.5
101372,79345.8,101466,65485,78233.4,98443.8,54400.5,50140.9
95606.1,97725.6,69505.8,97087.2,73627.4,91219.8,48811.8,48382.6
54594,84735.9,78309,49593.6,78957.2,77121.8,48046.4,46961.2
75718.8,84146.4,57794.8,61759.6,75772.2,77266,48748.5,48588.1
71171.1,75501,70323.4,53580.8,73952.2,77072.8,46961.2,53501
86179.5,87613.2,83469.4,75653.2,91404.6,94280.2,51577.4,47773.6
80528.4,87861.6,93559.2,79934.4,95524.8,95282.6,43816.1,53231.9
92565.9,87615,129839,66444,112766,81337.2,49855.7,49801.2
56815.2,76014,70996.8,55785.8,81222.4,78520.4,41084.9,45473
81972.9,76351.5,87682,88114.6,83307,81796.4,53651.9,49915.3
94917.6,85618.8,76830.6,53429.6,74331.6,85285.2,51634,49729.6
88246.8,89359.2,73281.6,95211.2,83267.8,80607.8,45848.4,46191.7
98151.3,74991.6,59248,64311.8,80427.2,76402.2,47077.8,42329.3
102772,65070.9,92972.6,45350.2,84275.8,126662,47488.7,45269
91354.5,58005.9,75280.8,80038,94208.8,83020,49601.9,49552.4
98007.3,107786,65021.6,125373,87119.2,108395,50669.3,51269.2
110845,80185.5,119239,47775,96038.6,72783.2,52861.5,46363
109271,88167.6,80417.4,108153,81145.4,97524,45719.1,45462.1
77825.7,73386.9,90025.6,62906.2,92699.6,78792,48460.8,45191.1
121406,82966.5,85202.6,70141.4,100895,81337.2,53855.8,47831.4
98538.3,79852.5,94123.4,56754.6,74064.2,78143.8,47421.8,50464.3
70848.9,100505,73178,68693.8,73910.2,97062,52231,54127.4
98369.1,49676.4,80292.8,73136,93693.6,73630.2,49293.8,49634.9
99005.4,79906.5,109154,57180.2,85218,74795,47457.1,46355.2
95097.6,78777.9,62214.6,76424.6,80882.2,73390.8,48348.5,42116.1
94419.9,79174.8,94600.8,58672.6,76965,72804.2,49015.3,49043.2
114583,88016.4,97575.8,75262.6,104614,80409,47862.5,46182.5
58265.1,84809.7,73091.2,57167.6,81026.4,78201.2,43161.6,46725.6
56518.2,76509,91289.8,84560,83445.6,72496.2,44224.7,46842.9
103784,76129.2,91588,50526,95845.4,74846.8,47956.3,49121
89073.9,76315.5,85538.6,57744.4,93884,73154.2,54463.8,42876.9
81267.3,87703.2,67142.6,86014.6,76221.6,74169.2,48244.2,47548
86476.5,85346.1,63869.4,75835.2,73747.8,76993,45384.2,49333.5
99544.5,98108.1,74461.8,92026.2,80168.2,90395.2,47401.2,45766.6
96282.9,85058.1,96005,72801.4,86289,74365.2,54419.2,49737.1
92740.5,72343.8,98914.2,47899.6,93854.6,74558.4,48146.7,47393.2
91096.2,95033.7,83057.8,69175.4,93787.4,91438.2,47648.1,52906.1
67406.4,56259.9,67457.6,47335.4,81355.4,73098.2,44432.9,46201.3
97086.6,59720.4,147637,61366.2,122297,73234,51160.9,45707.5
84015,90632.7,64587.6,85198.4,82626.6,90759.2,48593,51329
113567,76891.5,81485.6,113897,98233.8,90036.8,53713.3,48163
76439.7,88997.4,62349,70240.8,78125.6,95040.4,45810,47533.3
73765.8,70601.4,83619.2,63008.4,154465,150920,47359.7,42013.4
50607.9,90973.8,74233.6,60523.4,79622.2,76028.4,43194,49794.3
88344,81112.5,87210.2,69935.6,90890.8,204557,48350.3,42222.2
87443.1,71913.6,92024.8,54825.4,84217,74887.4,48146.2,46507.1
86652.9,73166.4,104930,60361,106488,75082,44344.4,49971.7
86227.2,106024,52689,72846.2,72758,94255,47300.6,52517.7
75981.6,87012.9,75749.8,67712.4,83199.2,81888.8,46068,48247.2
81622.8,99264.6,108832,131257,106441,108276,48528.1,49771.5
87553.8,75234.6,117911,69494.6,103435,106105,50551.9,44728.6
110936,73218.6,106189,91252,79742.6,89642,53125.2,47104.2
119755,86023.8,105783,103480,104171,105056,47058.9,49004.9
80373.6,98228.7,57442,84364,72389.8,79318.4,46469,46193.1
65490.3,67279.5,79395.4,66904.6,75846.4,72445.8,51397.2,49878.7
76163.4,111944,47845,221592,75818.4,165943,47705.1,43139.4
110126,96717.6,77715.4,102476,95256,106695,47959.1,50262.8
69206.4,96986.7,58924.6,114150,74067,96430.6,48342.9,43713
110110,98694.9,121955,95419.8,100682,77310.8,52948.3,49185.6
101662,86811.3,90154.4,67708.2,96924.8,76428.8,46982.9,49045.5
83807.1,78342.3,92918,83557.6,78796.2,86228.8,42610.7,43234.1
95066.1,88641.9,62056.4,90746.6,82286.4,92531.6,48220.9,48688.4
110534,114229,108801,117708,84725.2,119946,48765.2,47039
73698.3,109642,79616.6,119189,72578.8,95123,42324.8,51265.3
106242,80115.3,146625,50226.4,113796,74548.6,47054.3,46864.4
82669.5,74646.9,61125.4,64135.4,73950.8,83745.2,47113.9,50849.3
107392,89277.3,84602,74456.2,90258,80620.4,48877,49478.4
76611.6,88490.7,63740.6,68255.6,75835.2,82748.4,48782.5,48615
88003.8,89116.2,65720.2,106701,74564,91406,51717.6,48825
67961.7,79309.8,33612.6,48662.6,78590.4,73567.2,47198,48809.8
73894.5,92170.8,53474.4,67317.6,74727.8,81176.2,53126.7,53363.3
92870.1,100718,95293.8,79445.8,91359.8,95690,49364.3,48660.8
73085.4,69740.1,96304.6,47147.8,73462.2,74181.8,46502.4,46862.9
86813.1,65836.8,86814,86524.2,84399,85864.8,52484.8,45937.3
81769.5,85613.4,89189.8,69445.6,72868.6,79543.8,44936,48026.9
71859.6,78974.1,95354,84806.4,75573.4,77505.4,49076.6,49231.4
48048.3,80135.1,63004.2,68902.4,73841.6,72359,45113.2,44025.8
74249.1,105692,72685.2,109368,87110.8,96525.8,47871,52582.6
89566.2,88560,77841.4,71057,78006.6,91653.8,49089.1,52618
96601.5,86211.9,84019.6,64654.8,83381.2,78318.8,39691.1,49038.1
95567.4,81162.9,81863.6,107873,83714.4,81474.4,43842.1,46732.8
91682.1,115545,157011,97682.2,98700,107600,48176.8,48855
81196.2,99695.7,74481.4,176988,84165.2,127750,49263.9,48058.5
85625.1,85923,88659.2,62710.2,82458.6,77751.8,52067.2,48856.6
108653,84456,90602.4,69295.8,97158.6,79476.6,49824.4,51445.5
101006,91634.4,95348.4,74370.8,100027,74964.4,48014.4,51052.8
94642.2,95263.2,59421.6,79185.4,76375.6,90819.4,45770.1,45527.9
107834,76562.1,99864.8,95439.4,103359,91165.2,50494.6,50767.5
88045.2,87290.1,82317.2,76050.8,87115,88470.2,44978.4,50304.3
104531,90180,127973,78153.6,100418,81964.4,41154.9,40890.2
119844,83970.9,114605,111129,114366,100453,54489.1,44683
61393.5,87206.4,71584.8,66915.8,97840.4,80162.6,47631.3,47129.8
73073.7,78889.5,91540.4,63446.6,83659.8,75462.8,54216.7,46051.2
77838.3,77403.6,65402.4,57831.2,75073.6,88635.4,46914.4,48618.1
84769.2,75507.3,79182.6,51723,83052.2,73868.2,48499.8,49274.4
76002.3,76370.4,72976.4,50051.4,86783.2,73124.8,52836.6,46760.3
80554.5,86891.4,77394.8,56130.2,108158,75038.6,49158.6,47475.7
124101,78860.7,97367.2,55165.6,107383,72324,51814.5,50152.1
79114.5,91534.5,103436,62220.2,81774,79667,47277.2,46427.7
98618.4,79190.1,60082.4,57590.4,74496.8,73063.2,47132.3,39653.4
86415.3,85678.2,86188.2,72289,83739.6,87019.8,46743.3,53660.6
93845.7,62010,107183,63774.2,98463.4,75306,48262.8,41749.4
101399,94092.3,96265.4,92498,100262,104639,45506.4,42908.3
88712.1,87180.3,82139.4,82286.4,72318.4,84232.4,47422.3,49724.8
106272,92721.6,94911.6,57736,91092.4,88594.8,51394.7,47713.8
90702.9,76638.6,100873,43302,98140,77018.2,47300.7,48388.9
122901,82202.4,83743.8,63018.2,106198,84348.6,48967.1,52689.8
82591.2,76560.3,78577.8,59550.4,72598.4,73358.6,45861.9,48364.2
72580.5,73744.2,77229.6,45683.4,93340.8,76133.4,44928.1,46689.3
111606,87412.5,123187,88433.8,107890,80960.6,51184.8,48839.7
77694.3,92210.4,61093.2,109131,79196.6,107083,48481.1,42023
60140.7,61815.6,38575.6,118930,74796.4,92090.6,44890.7,43053.4
88215.3,90269.1,116939,83447,102977,85390.2,53859.3,45482.2
87726.6,91651.5,87116.4,103799,73225.6,88439.4,45275.2,49314.3
69120.9,81215.1,79916.2,67225.2,84614.6,77295.4,45885.4,49985.6
83936.7,101741,66711.4,107757,75269.6,110909,43723.4,53923.2
98165.7,114460,97893.6,131804,82798.8,124464,48613,50021.6
95347.8,102525,59103.8,152880,79192.4,78870.4,46802.7,49522.5
88259.4,74250.9,147755,93011.8,120417,99181.6,45876,50553.9
85771.8,96781.5,68853.4,87113.6,83603.8,107814,48015.5,48765.7
103321,90843.3,82489.4,76648.6,83258,90161.4,45588.4,53370.5
95950.8,92747.7,91449.4,67559.8,74366.6,78576.4,45954.3,48928.9
53424.9,77174.1,73085.6,103981,80077.2,83672.4,43126.3,42219.6
70524.9,85739.4,41844.6,74690,204768,73603.6,42028,48907.9
96608.7,108314,94575.6,109241,75929,94353,49998.3,48305.6
113044,124875,92988,74881.8,85905.4,99386,52034.2,51344.1
100689,89203.5,77152.6,82488,102022,90721.4,54364.6,46528.4
87782.4,101780,75814.2,101795,79857.4,113995,48401.4,46122.8
98812.8,85246.2,97104,75623.8,89643.4,73836,49176.1,48333.4
86539.5,83750.4,83694.8,82300.4,72450,101619,47312.3,49559.7
82273.5,81153.9,62727,80022.6,77254.8,75616.8,42491.5,45769.6
74203.2,91034.1,82100.2,69232.8,87351.6,73484.6,51759.4,43250.8
84527.1,81207.9,64797.6,75343.8,77533.4,75369,47435.5,49475
87448.5,114869,80196.2,97322.4,86244.2,98999.6,48629.1,44161.4
70178.4,61866.9,87264.8,67328.8,106120,77820.4,46345,44127.6
82059.3,77016.6,87995.6,88607.4,78849.4,82919.2,42850.9,50324.9
99298.8,68629.5,92376.2,79769.2,94600.8,76825,47268.6,50074.8
100888,95728.5,83116.6,79861.6,79424.8,93466.8,48333.9,46592.1
89550.9,98081.1,90202,101704,77525,85885.8,49825.6,42457.5
85730.4,91216.8,49560,70450.8,95818.8,77917,48090.3,47953
92118.6,79601.4,52992.8,63187.6,76778.8,80886.4,46921,54609.1
74252.7,105502,65690.8,122646,81048.8,106100,48804.1,49497.2
88299,85360.5,106625,75654.6,90109.6,84067.2,49924.2,47702.4
87992.1,85113,80589.6,68450.2,73676.4,92493.8,44993.5,48402.8
79884.9,92011.5,69974.8,90900.6,76577.2,85839.6,49772.1,48760.7
84126.6,79308,65388.4,117058,77582.4,101241,46541.9,41879.6
69411.6,84866.4,57863.4,78428,79835,77081.2,44067.9,48812.1
101900,88109.1,55563.2,85071,75630.8,85761.2,48178.4,43750.3
86452.2,99990.9,72860.2,86023,78458.8,91287,51023.6,47869.1
96164.1,91994.4,66802.4,95624.2,73781.4,99323,52039.9,49483.1
105029,80626.5,90949.6,59488.8,98702.8,85243.2,43983.7,45990.4
91766.7,86058.9,70079.8,73893.4,82983.6,86144.8,47490.2,50333.9
72603,78668.1,72627.8,56203,79290.4,75349.4,40644.6,49437.9
69500.7,77241.6,76049.4,53354,77827.4,77365.4,43560.4,48297.3
86802.3,85491,95583.6,82461.4,81446.4,77933.8,48815.6,49497.9
67843.8,82643.4,91870.8,60603.2,91323.4,88314.8,48818.3,48200.4
67459.5,91033.2,66813.6,72734.2,74869.2,88176.2,45553,50787.3
92556,65620.8,63658,28743.4,72786,159982,46633.1,43237.1
111237,95580.9,107005,84618.8,108290,84985.6,48690.2,48998.9
80796.6,70402.5,80255,37300.2,92314.6,75208,48551,49341.1
94212.9,54207.9,63975.8,70049,72347.8,80879.4,47999.4,50626.4
92444.4,94517.1,76262.2,87971.8,80766,77840,53457.3,49487.5
83925.9,75513.6,67102,87185,73498.6,73924.2,48113.9,48884.5
90863.1,83459.7,79286.2,89686.8,79335.2,78540,47154.3,48387.1
111089,77819.4,129172,77088.2,104611,82924.8,51642.6,48653.1
85563.9,64670.4,84232.4,64521.8,81674.6,84189,41692.2,54205
117169,77262.3,87152.8,49288.4,95723.6,79924.6,48980.1,51121.9
87047.1,88243.2,51975,71325.8,73201.8,81636.8,43684.3,50610.2
89938.8,94101.3,103991,75647.6,104954,87834.6,54597.6,48761.9
82730.7,88831.8,86930.2,102445,74912.6,75934.6,48188.9,43101.7
94608,80886.6,114582,43244.6,87768.8,73102.4,52309.2,47477.9
101560,75880.8,75178.6,52794,87404.8,74586.4,50875.4,48302.1
96548.4,90622.8,88239.2,74615.8,86801.4,81890.2,47987.7,46953.6
73850.4,87900.3,41339.2,62007.4,72420.6,86014.6,47888.8,54320.4
104775,86222.7,102059,54231.8,120071,80508.4,48589.7,51665.3
88374.6,96261.3,112167,81383.4,106176,98065.8,52409.1,50061.5
90182.7,101451,59799.6,83913.2,74081,78201.2,48842.1,49147.6
101750,85054.5,103019,64099,75875.8,95818.8,47492.9,52732.7
83000.7,85258.8,86027.2,76910.4,72632,91260.4,47323.6,43206.7
93320.1,81429.3,101464,82461.4,98264.6,92118.6,49380.5,50301.5
121928,72469.8,171518,55431.6,175136,74877.6,43613.2,45983.9
105405,83279.7,106532,64866.2,107927,92243.2,48442.2,52324
96805.8,90526.5,116684,73197.6,89483.8,96210.8,52496,51266
71862.3,81448.2,84179.2,66066,75012,74701.2,40182.7,43857
87136.2,74088,97288.8,58424.8,110809,86739.8,50254.9,45929.3
93743.1,87284.7,83545,83850.2,85045.8,94095.4,50951.1,54229
89901.9,96606.9,71418.2,81132.8,87613.4,79772,49515.1,48877.9
97106.4,77503.5,104292,89271,84757.4,76192.2,47634.2,47828.1
92947.5,98555.4,105419,73334.8,94574.2,95708.2,46244.8,48098.7
137688,82808.1,103307,69035.4,100583,93073.4,46936.2,54308.4
61416.9,87689.7,88802,91719.6,87088.4,92096.2,42554.6,47439.3
61079.4,81345.6,33133.8,56803.6,166074,72815.4,44222.2,47894.8
76734,81542.7,58248.4,77211.4,75189.8,91242.2,51982.2,51851
114360,65515.5,110592,55986,91057.4,77851.2,50851.4,51417.7
106564,78298.2,77296.8,77340.2,84085.4,80873.8,48253.4,45243.6
97747.2,88011.9,68117,59498.6,81426.8,82362,48305.4,48358
93732.3,73008,87535,49611.8,101671,74212.6,48976.7,49817.1
88953.3,73031.4,106632,72633.4,109714,76594,46650.9,42914.2
107255,89229.6,51508.8,75307.4,75643.4,93070.6,40984.8,47216.1
84377.7,72677.7,92055.6,147091,76683.6,133119,43608,46055.5
137889,73236.6,184421,110691,155849,90598.2,47350.5,44455.5
86839.2,65154.6,64094.8,50926.4,76454,83441.4,45944.9,50562.6
114948,84534.3,94347.4,55428.8,96058.2,73490.2,47620.6,47706.8
124603,78297.3,129570,84131.6,112610,96577.6,49301.6,43251.1
94075.2,91106.1,87120.6,90494.6,75268.2,86545.2,49030.8,51606.7
91581.3,94335.3,68800.2,69729.8,76256.6,91159.6,47265.6,51177.9
120801,77124.6,168659,73995.6,127302,94416,49170.3,45511.6
89935.2,70585.2,68388.6,43668.8,75517.4,82418,49451.1,45921.3
57606.3,72709.2,44133.6,57926.4,98595,72921.8,40990.4,44134.6
81053.1,87327.9,43997.8,97052.2,73526.6,91000,47496.8,45774.4
68937.3,107611,102122,130113,91096.6,113396,42762.1,52311.2
81532.8,80351.1,89014.8,72633.4,94892,88158,54607.5,49213
98228.7,72235.8,108065,53102,78584.8,81548.6,47415.2,49773.6
58548.6,80969.4,100556,85590.4,94967.6,109224,48525.8,48097.5
106289,64675.8,106933,60173.4,112490,89681.2,52393.2,43385.7
100035,93545.1,78124.2,76462.4,77805,93118.2,50825.8,51625.7
97776,86529.6,85766.8,81326,80719.8,92330,45962,52589.5
72205.2,88575.3,88786.6,83487.6,72357.6,89958.4,46410,52165.8
93748.5,71479.8,103258,60338.6,85807.4,82966.8,50982.3,49253.5
103880,93248.1,118364,85223.6,105206,89707.8,46503,54404.1
76671.9,91497.6,75595.8,58010.4,83192.2,74586.4,47738.5,48974.1
83875.5,84785.4,101332,81061.4,97844.6,78143.8,53124.7,43415.3
78616.8,82386,73038,73115,81026.4,75041.4,48364,46270.2
78793.2,100219,65699.2,79805.6,73371.2,81383.4,42802.9,49128.8
106150,131552,116213,162194,111196,132664,50192.5,53107.8
88958.7,71320.5,93083.2,83241.2,84014,88044.6,50102.7,49214.5
101876,86447.7,116476,60789.4,104383,78794.8,47144.7,49259.4
91463.4,87691.5,85484,72658.6,73110.8,81555.6,42128.2,49032.7
88848.9,98251.2,72672.6,83643,75278,83788.6,47683.6,48509.6
61156.8,85934.7,106897,80304,109130,81772.6,41315.3,49790.2
89492.4,53109.9,121283,39936.4,102232,75262.6,45742.4,48830.8
104762,95745.6,85583.4,79646,82406.8,86842,49123.5,53979.6
89393.4,114295,82105.8,119244,79910.6,121064,45229.8,52971.8
90193.5,85675.5,96548.2,70505.4,108213,91054.6,46132.5,50910.3
94878.9,89137.8,95785.2,82674.2,91476,87670.8,47215.1,49218.9
82611.9,85256.1,48031.2,64094.8,117293,73641.4,45431.9,49340.4
98429.4,61464.6,71639.4,95873.4,89754,118783,52814.7,50054
75875.4,73106.1,74274.2,57348.2,82887,72270.8,43712.5,48525.9
88108.2,68134.5,62997.2,52668,78073.8,76603.8,46957.2,44431.5
84470.4,120256,63597.8,118405,73200.4,144939,47646.4,53048.7
85972.5,85725,56117.6,80514,77319.2,77376.6,46000.3,46755.5
92276.1,83291.4,82248.6,52043.6,81734.8,80558.8,48988.1,47893.2
70218.9,87940.8,74508,72791.6,80151.4,84534.8,49644.6,46882.5
113482,78809.4,109680,70966,129730,96651.8,40960.9,53955.4
132624,90993.6,110447,75416.6,85233.4,90843.2,48227.9,52651.6
89288.1,90221.4,91046.2,81344.2,102896,105963,47414,53577.8
107009,98727.3,97652.8,97596.8,89087.6,82451.6,51225.9,53265.8
90214.2,116744,53009.6,117097,95761.4,115763,46927.7,53055.6
88042.5,78464.7,104836,52337.6,105608,74382,49576.1,48722.9
78606,76153.5,73057.6,80934,78852.2,98414.4,53692.4,49114.5
89132.4,90236.7,66820.6,72667,72367.4,85969.8,49423.8,50378.3
99956.7,77246.1,78332.8,51942.8,81324.6,82044.2,46095.9,49144.3
87084.9,82260.9,65612.4,61133.8,83644.4,74615.8,47964.9,46959.8
138912,87334.2,191688,84060.2,178196,95123,50673.3,47133.9
138584,82753.2,122944,89353.6,111749,90195,51627.5,48169.6
90692.1,75899.7,111628,107528,100825,109757,52458.4,45616
88355.7,90280.8,74698.4,141887,79175.6,101172,49194.5,53178.8
71134.2,66252.6,60330.2,71911,85727.6,72854.6,52332.2,41352.5
100106,82802.7,116039,69340.6,86339.4,92059.8,52363.5,50187.5
101384,83680.2,85208.2,66358.6,88191.6,72954,53557.3,48149.9
94707,73683,95293.8,95986.8,93745.4,75534.2,41946.1,48425.7
77526,74878.2,83687.8,58069.2,99086.4,72625,49161.7,43333.8
107869,71141.4,116010,72276.4,103467,84690.2,46317.1,46589.6
116226,95518.8,173596,79934.4,130442,85167.6,47455,48492.2
86706,61308.9,53264.4,72464,74986.8,73824.8,48008.3,52109.7
111125,78358.5,77737.8,72440.2,79107,73243.8,48623.1,47849.1
113779,65792.7,144302,33329.8,119780,74785.2,48638.6,48856
90420.3,90914.4,68817,99986.6,77852.6,104618,44886.6,52168.7
100970,86355,90255.2,76498.8,87708.6,80848.6,47958.9,45243.2
96434.1,54742.5,84600.6,64674.4,80844.4,81440.8,48960.3,43798.2
110533,67344.3,113401,43268.4,88345.6,74496.8,46323.3,49764.3
83002.5,68661.9,50233.4,44766.4,73773,73206,46861.6,49008.4
129749,75471.3,101325,72420.6,92264.2,84959,51102.4,47283.6
70544.7,115580,53625.6,65793,72966.6,100913,50638.7,47016.1
133428,65902.5,155684,62493.2,132005,94462.2,45281.6,48557.6
87304.5,99992.7,63737.8,174639,76220.2,135013,45398,49176.9
95603.4,59385.6,152919,44310,129836,80554.6,49317.6,47852.7
84253.5,79814.7,66052,57786.4,72564.8,73766,48182.9,45671.9
100027,81685.8,63196,82345.2,101364,106639,48357,51205.7
82672.2,86578.2,55909,65567.6,72370.2,74625.6,44939.5,44720.8
84901.5,93484.8,73630.2,52680.6,73438.4,77606.2,44551.7,47262
93681.9,69688.8,62966.4,89689.6,85446.2,90935.6,48021,48168
93122.1,86202,88470.2,58909.2,84663.6,81272.8,54630.8,51409.4
71067.6,85135.5,74316.2,95851,79224.6,90085.8,44102.3,48673.5
85837.5,88434.9,74365.2,70159.6,83952.4,84158.2,50802.2,48735
93539.7,98172,68338.2,80376.8,85223.6,83190.8,46174.5,47965.3
102835,90528.3,64425.2,91201.6,104304,75636.4,45127.4,49798
78948,62433,66311,33098.8,73116.4,83826.4,48890,47393.8
95396.4,86159.7,105802,63028,84406,92048.6,53929.4,48334.4
77277.6,97181.1,77501.2,84084,72944.2,96069.4,45024.1,47786.8
111982,112293,92743,90048,190844,217636,43986.5,53695.2
71224.2,87452.1,49660.8,71356.6,83211.8,94598,46692,48598.7
88711.2,75053.7,75859,57258.6,75915,77730.8,43229.8,46065.8
86068.8,94710.6,64464.4,97371.4,75174.4,102964,48057.2,50881.9
87957,64188.9,77973,90589.8,76084.4,97853,49170.6,51721.6
69811.2,116716,86990.4,166249,92611.4,141105,54104.8,50995
104564,95790.6,80024,165490,77946.4,83349,47110.4,45321.7
95789.7,83659.5,73220,84422.8,79412.2,85146.6,49699.3,49132.8
72710.1,79776,71278.2,57957.2,79679.6,73721.2,52387,45836
78159.6,72915.3,82247.2,75499.2,74894.4,84121.8,50877.6,47274.8
100146,85012.2,80887.8,74190.2,83155.8,97928.6,44785.9,53614.3
87749.1,75178.8,73232.6,112636,73239.6,93301.6,50911.1,50746.5
90388.8,99668.7,92190,81650.8,74391.8,90974.8,53174.5,47679.4
81333,81242.1,66208.8,62669.6,77959,72280.6,48997.2,46673.3
90205.2,105707,79417.8,143119,81887.4,129958,49832.1,48771.2
88080.3,149784,49665,185395,73588.2,166683,49530,48967.5
101496,78036.3,102196,72490.6,111276,91530.6,54026.9,53146.2
98488.8,86785.2,99360.8,114845,94521,97913.2,49690.8,49456.9
85355.1,77923.8,93842,54532.8,79767.8,80134.6,44697.6,46118.7
82126.8,77302.8,70546,50012.2,74380.6,75985,48231.5,45568
82147.5,92169.9,35572.6,71187.2,188315,77257.6,40651.2,49746.2
81461.7,111160,103432,129815,104234,117272,52711.1,45823.2
91230.3,82011.6,127246,72829.4,84887.6,85997.8,43986.5,53040.1
96879.6,101354,86301.6,83844.6,81438,84495.6,47504.2,48715.2
95984.1,76050.9,33133.8,76129.2,82283.6,82807.2,45839.6,48819.9
122357,84552.3,199737,70221.2,131480,77595,53960.6,44315.4
114619,102582,78918,104646,86370.2,92723.4,48439.5,47640.9
79981.2,81856.8,56616,57842.4,99675.8,82292,46795.7,45368.9
115645,78197.4,95755.8,86009,103746,85990.8,50883.1,46253.2
84606.3,84001.5,88939.2,66495.8,91940.8,84639.8,44165.1,49976.7
104945,79278.3,75647.6,76469.4,79091.6,92356.6,47297.9,48371.6
89074.8,101813,92377.6,76777.4,83343.4,85783.6,46378.9,50592.6
59813.1,81728.1,86224.6,65030,118185,79319.8,49512.6,48337.8
81458.1,83134.8,72098.6,72248.4,73773,77730.8,48557,49747.8
95904.9,112303,66904.6,132418,75234.6,116493,47489.3,54443.3
56141.1,70729.2,66900.4,49791,79787.4,80710,43172.3,49269.2
94287.6,82179.9,66781.4,74652.2,77046.2,82997.6,50903.6,48634.9
87514.2,76411.8,60498.2,46389,74205.6,78134,46734.6,50611.7
95739.3,59830.2,85832.6,41697.6,76465.2,77784,48243.3,50326.8
108248,83228.4,100531,67002.6,85901.2,83078.8,54502.6,49049
94576.5,79661.7,117719,88312,90265,79086,54373.1,44237.7
102907,90932.4,52602.2,79380,108688,73707.2,49768.5,49732.7
84475.8,64746,64156.4,30402.4,74180.4,109550,48545.7,44727.9
81216,81237.6,142505,90328,115779,166496,47484.4,44115.1
87741,84458.7,85554,88351.2,85162,86681,52945.8,48766.5
102006,85084.2,105633,55655.6,88641,78962.8,50157.8,48515.2
94600.8,79644.6,82402.6,59045,79090.2,74324.6,44174.6,46948.5
108079,75951,105440,196003,105039,126288,52331.9,44856.2
70504.2,84770.1,114554,80941,99612.8,78276.8,47944.7,49280.5
77057.1,82668.6,57944.6,76057.8,78251.6,81726.4,49205.8,48749
96563.7,75003.3,113211,52694.6,90395.2,76164.2,47971.6,46720.4
96330.6,95778.9,61472.6,81712.4,84830.2,92229.2,44611.7,43423.3
80807.4,74423.7,46774,82384.4,76755,97658.4,46755.3,49567.4
84504.6,101974,104905,92078,91669.2,102290,47976.4,52429.4
88152.3,98901,58157.4,77292.6,83309.8,98870.8,53180,47489.9
131720,76655.7,139450,62780.2,125006,72427.6,45589.6,48833.6
85316.4,92324.7,89957,116894,96572,111527,46273.9,47744
86113.8,80877.6,64852.2,145550,73388,104804,48494.7,48608.4
83288.7,71912.7,96649,90568.8,93343.6,98357,48336.9,48868.8
110704,82188.9,102908,108387,88411.4,100367,52704.8,45904.2
108140,42791.4,116039,40243,99839.6,72423.4,52382.5,42592.5
83714.4,92017.8,76067.6,71292.2,73040.8,90116.6,45847.8,53506.6
83241,162194,94627.4,207288,92510.6,177097,43779.4,51553.7
67613.4,100726,107646,108093,114736,100568,48746.2,49798.4
107819,88530.3,69697.6,111524,81151,101142,49139.1,48869.4
67833,102825,67824.4,104448,89836.6,97293,48673.2,48931.7
69049.8,95871.6,80154.2,99166.2,83798.4,90178.2,42930.3,49116.6
105825,91816.2,65700.6,80354.4,77911.4,96152,47081,50242
92172.6,72037.8,76564.6,47374.6,79592.8,76427.4,51732.3,49573.4
60345.9,75465.9,89017.6,48923,95468.8,80691.8,43065,47497.5
85068,81750.6,59298.4,86563.4,74333,81407.2,44495.3,49258.1
80896.5,78643.8,80403.4,61205.2,77320.6,75674.2,47793.6,48776
69178.5,79227.9,68161.8,65837.8,81055.8,80960.6,48201.9,50465.1
66506.4,96438.6,30727.2,102854,138991,91217,45210.8,48860.2
88595.1,86905.8,81786.6,87336.2,75539.8,92863.4,48718.1,48799
69503.4,77279.4,61597.2,68884.2,73196.2,75430.6,47538.7,43350.4
114250,99572.4,115759,124201,102399,99722,48110.4,48465.6
77472,92161.8,81225.2,63788.2,76456.8,80327.8,49033.2,49775.1
97512.3,82104.3,123276,72349.2,99710.8,73500,45050,46285.4
75651.3,106486,58280.6,68038.6,92303.4,79268,48593.5,48876
103360,80781.3,93583,60797.8,93520,73952.2,45415.4,49734.6
109153,66602.7,99709.4,85842.4,89301.8,91513.8,48953.9,54594.5
93420,101971,94319.4,197462,99330,140832,46379.1,49385.6
81925.2,139734,68976.6,117789,82002.2,122114,47456.1,47445.3
126141,89440.2,135737,77926.8,91228.2,81604.6,53664.5,50349.6
113980,90866.7,108401,63539,98222.6,90197.8,46961.5,48100.9
85683.6,85043.7,75140.8,63079.8,75987.8,74484.2,48649.3,47751.6
103042,81242.1,128128,71093.4,118700,78160.6,49162.6,48835.5
92561.4,79411.5,71010.8,64762.6,79598.4,76143.2,43773.1,41674.2
99531,68156.1,62279,64752.8,78747.2,73376.8,45390.2,49119.5
96545.7,77135.4,86161.6,50484,81806.2,75682.6,49266.8,48705.7
122387,76977,138492,76154.4,87918.6,75961.2,51327.7,44839.5
76907.7,74846.7,52780,65083.2,73369.8,153600,48362.3,43698
100264,87595.2,158798,79230.2,90161.4,85555.4,49642.3,49436.5
68282.1,90324.9,84777,99058.4,78876,88804.8,48154.5,43654.2
99989.1,84445.2,98681.8,84253.4,100488,114127,52051.3,54117.4
93181.5,73016.1,82402.6,57442,96867.4,73969,48753.2,46059
90529.2,83317.5,69134.8,69491.8,74492.6,79955.4,49232.5,53983.7
85670.1,50618.7,82404,65128,213123,96874.4,43267.3,43097
88336.8,85842.9,56596.4,76377,72648.8,72360.4,46803.5,53414.1
87408,93731.4,62189.4,67076.8,75154.8,79515.8,43701.1,46580.4
86798.7,73126.8,61124,53993.8,73571.4,76252.4,49305.3,48216.4
89178.3,86253.3,77375.2,86557.8,76692,87649.8,46452.5,43430.7
85100.4,77381.1,82647.6,75782,86468.2,80999.8,47597.2,47298.2
97739.1,98595,74935,103352,74215.4,98355.6,47845.8,48611.3
87448.5,82233.9,71526,67365.2,74461.8,83416.2,48966.3,49352.6
77300.1,102363,90517,93069.2,77806.4,105217,48265.2,48881.2
119545,87972.3,144946,76358.8,85965.6,106546,52307.7,52813.7
86658.3,91550.7,67760,65730,77982.8,73899,48664.5,45861.4
109378,85632.3,101486,65858.8,93245.6,77001.4,45826.3,49849.7
115519,88441.2,88200,81089.4,87143,74947.6,53895.4,48196
111920,88981.2,131366,68240.2,120005,94306.8,45963,44740.1
100174,85446,74669,66197.6,105041,86000.6,49256.1,52177.6
114076,147184,122665,131398,124792,206562,50469.7,41647.7
102208,82511.1,88254.6,55347.6,99363.6,86178.4,54404,53610
90387.9,76353.3,66929.8,68513.2,74764.2,94325,46857.6,48912.8
107543,91717.2,105736,86055.2,89906.6,78178.8,54021.4,48104
89199,87824.7,77382.2,69221.6,80708.6,76819.4,47776.9,48614.9
102840,98892.9,120000,71841,97328,92495.2,46768.7,47740.6
74838.6,73529.1,32975.6,72583,100397,75684,44234.3,49625.4
103280,81320.4,68276.6,52221.4,79662.8,72464,49066.8,50732
117896,91753.2,99884.4,70401.8,106644,73817.8,54428.3,49953.9
74817,72763.2,31763.2,75142.2,76377,88048.8,48301.3,48050.9
76646.7,83177.1,84715.4,65612.4,87526.6,82042.8,46297,48504.6
92532.6,139691,92274,93989,84501.2,94656.8,46573,48250.6
78840,85824,89748.4,134301,95772.6,137404,53217.4,41692.6
101859,80951.4,94477.6,59227,77376.6,89377.4,51397.9,49229.7
96453,80592.3,86480.8,50456,75359.2,76217.4,50043.8,49004.5
86710.5,90849.6,77722.4,124174,72773.4,96125.4,44479,47882.6
77076,71514.9,51520,65979.2,75840.8,92353.8,47616.1,52409.4
91206.9,85896,78320.2,75759.6,86780.4,101168,47281.5,48441.4
97883.1,97558.2,78723.4,95495.4,72331,99867.6,49317.4,53166.8
93222.9,80223.3,96929,69792.8,87197.6,79144.8,51758.3,46712.1
117791,83562.3,89906.6,99250.2,87536.4,93168.6,47583.2,46784
97283.7,88026.3,59567.2,92842.4,77242.2,95996.6,45656,43096.7
89987.4,69239.7,90391,64780.8,77852.6,75642,47744,46139.6
142930,82377,148382,77214.2,148589,75114.2,50110,51748.5
93713.4,94399.2,95862.2,133797,86745.4,105349,48055.7,50006
119830,51529.5,80799.6,42169.4,94084.2,101280,53705.8,45285.8
95418.9,101998,89076.4,90406.4,81639.6,94049.2,49891.9,49008.7
101706,84788.1,135544,92324.4,128589,83332.2,49611.4,50398.8
72527.4,87561,71639.4,62189.4,93559.2,76253.8,50992.9,48061
92742.3,87866.1,93209.2,87775.8,83118,94624.6,48530.9,39289.1
78549.3,95707.8,89755.4,64471.4,86604,73498.6,46655.4,49253.5
92334.6,88685.1,94064.6,75334,79970.8,83468,49069.1,49844.8
95330.7,74946.6,109131,53142.6,100429,79371.6,48518.5,50305.7
107605,96343.2,100100,84196,95932.2,95279.8,47481.2,49398.8
96287.4,101606,98613.2,71261.4,81774,101865,47749,52708.7
86786.1,91974.6,114024,78204,76122.2,83844.6,45803.6,50579.5
79527.6,48613.5,46545.8,19636.4,85198.4,99806,49426.3,44100
97461.9,70747.2,95088,90490.4,82017.6,101284,48144.3,40962.4
82673.1,66597.3,80820.6,58511.6,90148.8,76851.6,49007.1,50029
74530.8,94115.7,67725,78020.6,76888,100827,42061.7,53999.8
92216.7,94655.7,99393,82394.2,88492.6,97853,49838.7,46134.2
107527,83851.2,113758,55185.2,91063,93556.4,43046.2,46241.5
85932.9,85229.1,90188,153370,87796.8,153619,47506.1,42157.3
86166,91840.5,60498.2,91218.4,77492.8,88723.6,45705.3,48814.9
78248.7,87265.8,90606.6,67040.4,85141,79318.4,49313.6,48199.3
92055.6,83282.4,122783,53124.4,102278,76778.8,53712.2,48682.2
87237.9,93868.2,89240.2,119832,96777.8,92432.2,47689.8,50828.6
92320.2,87921.9,79870,57461.6,78360.8,77093.8,42159.7,48019.2
94208.4,79244.1,98379.4,76371.4,90643,74391.8,49216.6,48508.3
98775.9,90351.9,91554.4,75220.6,85384.6,82532.8,53442.8,47133.6
82050.3,86712.3,84427,73802.4,83629,82588.8,46551.5,50303.8
93949.2,97288.2,83336.4,110289,95198.6,110226,43513.5,51429.2
105149,53586,84715.4,40163.2,101933,78489.6,54442.2,46466.8
81316.8,96755.4,97339.2,77012.6,96616.8,89665.8,45558.2,48704.9
89856,96569.1,98443.8,96509,104978,101164,48155.2,50335.8
62514.9,105071,58896.6,104756,85848,107558,46115.8,49588.8
82338.3,114305,81765.6,93910.6,72427.6,89819.8,51256.9,47909.4
108894,100392,122186,82731.6,106016,80592.4,50904.6,49962.5
117122,72456.3,121997,47014.8,130491,83265,52444.1,48437.1
85052.7,84944.7,73509.8,83735.4,83073.2,87761.8,51681.2,48663.9
81739.8,95201.1,69020,82595.8,78533,96647.6,42766.3,54601
106947,75019.5,114229,42837.2,81347,75595.8,44527,49047.8
71883,70164,32051.6,73521,126847,87196.2,43269.8,49483.3
100382,100033,60538.8,116630,137791,103544,52845.8,50022.7
106787,76878.9,87263.4,55449.8,74915.4,76748,49968.2,44857.2
81078.3,103366,73532.2,65717.4,92311.8,92079.4,39729.8,45314.8
89940.6,102575,95862.2,88638.2,108542,87694.6,41428.6,48859.6
91042.2,76901.4,92573.6,64163.4,94029.6,82460,47101.3,42792.1
63058.5,90919.8,71024.8,86340.8,74747.4,98819,47540,48499.9
84477.6,94681.8,81834.2,87736.6,88155.2,82636.4,48073.5,53715.2
91291.5,72923.4,67919.6,61595.8,86577.4,74498.2,53375.1,48059.1
99233.1,57901.5,104188,49987,85031.8,77128.8,53093.6,44188.9
88184.7,76295.7,80858.4,38745,85275.4,72910.6,47923.9,46884.6
97137,83152.8,79653,84728,74291,81145.4,47352.9,49417.9
71806.5,57470.4,88977,22873.2,85694,102752,44781.8,47556.6
78402.6,108877,69986,112643,75901,92541.4,49190.2,50642.4
91998,89319.6,68979.4,64475.6,73781.4,73750.6,45653.1,48205.1
80473.5,75754.8,50684.2,62906.2,98740.6,77588,48235.5,48655.7
79347.6,92938.5,130914,81706.8,135054,96479.6,39606.4,46159.8
63444.6,85237.2,66799.6,75147.8,78400,85167.6,46309.2,52073.4
89684.1,58424.4,68637.8,52572.8,72378.6,112447,49678.2,45086.8
99298.8,67206.6,96462.8,71458.8,84599.2,101206,49183,48252.4
103098,92907.9,81880.4,57689.8,100348,78050,51040.2,47702.9
74121.3,92226.6,84851.2,101982,104805,90420.4,53129,49125.6
94833.9,78392.7,112021,51080.4,96349.4,77712.6,50374.5,47634.5
103118,81841.5,107037,77880.6,100738,85964.2,48296.7,48471.8
85864.5,92219.4,49424.2,183998,80200.4,79581.6,48549.4,49263.1
100801,75177,98470.4,73460.8,72970.8,83203.4,44587.7,47477.7
84671.1,60240.6,76167,60030.6,78069.6,80878,47833.8,49724.8
74821.5,68958.9,49547.4,56740.6,73204.6,76281.8,45838.8,49720.3
83235.6,69806.7,70834.4,46719.4,91779.8,72304.4,48990,47526.4
90020.7,86313.6,100244,61965.4,87690.4,75790.4,47235.8,49362.4
87806.7,123026,74005.4,90624.8,78565.2,136737,48457.5,46325.4
106520,115718,76524,119531,80277.4,128440,47884.3,49512.1
92908.8,85087.8,87630.2,71853.6,75933.2,77301,44368.7,47780.4
83259.9,84663,101963,84389.2,118324,92954.4,49566.1,48407.7
92119.5,86548.5,88996.6,85696.8,73215.8,88069.8,46457.2,49044.1
72870.3,81490.5,107262,94645.6,119274,78988,47908.8,48042.5
95021.1,97162.2,117907,115370,96569.2,101178,52329,49933.4
76017.6,86881.5,83013,56375.2,82899.6,80782.8,48263.4,48373.3
101958,86829.3,73372.6,62602.4,89993.4,83412,49664.1,47969.5
89609.4,88185.6,84212.8,78607.2,86646,92715,48189.7,46378.4
83481.3,79269.3,66196.2,49316.4,73144.4,75045.6,51036.5,48517.1
108397,83898.9,100246,61621,89019,75313,50462.7,47274.9
99914.4,98348.4,95240.6,140097,118619,119645,51241.9,44123.1
104842,76895.1,66028.2,75594.4,74323.2,79410.8,48418.5,47567.2
73456.2,80478.9,79462.6,58982,79833.6,73540.6,52715.7,49155.3
50342.4,89777.7,54262.6,72472.4,77544.6,82525.8,46952.1,53151
76515.3,75493.8,35285.6,67092.2,75733,74153.8,49563.3,48292
111828,84716.1,164494,117298,135785,111783,44289.6,48365.6
96072.3,81822.6,75021.8,67345.6,73994.2,79987.6,45719.2,47525.7
88031.7,75579.3,61091.8,50355.2,88845.4,73166.8,47049.1,47786.3
75903.3,96816.6,80647,118923,83491.8,112638,41716.9,48320.5
97751.7,81231.3,56389.2,64534.4,76955.2,77988.4,45941.3,49350.2
85924.8,91611.9,104429,65350.6,97328,96423.6,47019.3,47416.3
89293.5,95769,137974,89296.2,120208,96562.2,42855.7,48756.4
74349.9,99533.7,91984.2,82262.6,96702.2,88060,45595.5,49813.1
81390.6,77437.8,59691.8,51284.8,75273.8,73218.6,48472,48032.1
94195.8,67518,72895.2,53785.2,79226,171248,50228.6,41771.6
115511,53973.9,137448,54217.8,120320,73057.6,48368.8,48092.8
96057,93463.2,60449.2,82283.6,155392,78429.4,44374.7,50155.3
93662.1,89403.3,88625.6,97850.2,87557.4,76531,54387.8,48210
80197.2,70889.4,75572,46687.2,79738.4,78115.8,50183.9,49999.2
99208.8,79029,89730.2,56116.2,80981.6,80354.4,47552.3,48829.1
97632.9,76909.5,84873.6,119946,73372.6,112421,54513.8,46685.2
74614.5,74950.2,66963.4,57570.8,78062.6,81552.8,48056.6,47896
64341.9,96255,78950.2,69631.8,89322.8,78580.6,40396.3,48910.5
74525.4,86891.4,70428.4,82943,73760.4,86490.6,48708.7,51814.6
88654.5,88243.2,67820.2,75847.8,75476.8,97276.2,48531.5,48468.9
90495,71282.7,104794,61497.8,104954,84267.4,45640.4,50438.8
85597.2,108242,56673.4,96901,74065.6,94490.2,47654.1,53627.4
82587.6,92924.1,101672,102144,92953,109658,48837.6,53620.8
67500.9,77380.2,86843.4,54895.4,73428.6,73470.6,45530.7,49176.1
88206.3,87589.8,65249.8,61565,78211,80099.6,46687.4,49688.6
78887.7,80529.3,64516.2,63477.4,75149.2,73969,43662.1,47205.6
101732,115531,84327.6,110282,75651.8,82545.4,49577.6,52667.3
66432.6,88627.5,104439,67608.8,76547.8,91470.4,42274.8,46848.5
91656,89973.9,123432,83234.2,104565,80413.2,51732.5,49969.3
121202,73917.9,102577,73683.4,97532.4,100558,49334.2,53781.8
79152.3,91026,102966,70177.8,113525,79259.6,47332.1,54378.3
80876.7,106621,93332.4,123322,95958.8,105521,46757.8,50950
85958.1,101197,66616.2,142342,78223.6,129121,45370.9,50589.4
103661,92220.3,99800.4,68437.6,97154.4,85191.4,54090.3,54134.7
74191.5,104623,63572.6,79410.8,73004.4,90685,47464.8,50507.2
93461.4,94216.5,68017.6,80577,79342.2,90685,47424.2,50819.4
77628.6,64274.4,77959,46446.4,83707.4,135573,50492.3,40946
94586.4,79442.1,75997.6,72560.6,80458,80203.2,47932,54402.7
117838,83689.2,115080,86126.6,117030,76297.2,46336.4,45369.9
140417,85098.6,131894,65814,134781,89621,46060.9,51263
115368,82426.5,101464,74701.2,100192,79737,47498.5,53479.6
83423.7,95225.4,77785.4,89447.4,75343.8,73488.8,48655.5,51437.8
76851.9,67968,81179,46475.8,77590.8,73997,45910.1,49672.7
85104.9,94056.3,80067.4,72249.8,78771,86171.4,48203.3,47257.1
111704,56285.1,105827,45179.4,98813.4,73088.4,47405.3,47663.2
88305.3,85415.4,41167,71929.2,73827.6,83106.8,49285.8,48445.9
84517.2,88507.8,82857.6,64276.8,74537.4,74806.2,48627.4,48877.6
77793.3,72627.3,94120.6,56448,80291.4,86156,45796.3,51277.1
79392.6,58574.7,84554.4,64234.8,79737,74743.2,49923.6,48525.8
80079.3,77530.5,95744.6,71293.6,84905.8,73861.2,47791,49270.5
107626,104107,96817,80871,207038,100554,50614.8,51203.2
115753,89177.4,126594,69392.4,151890,86769.2,51071,48264.8
72016.2,83958.3,38602.2,69497.4,200080,78460.2,43126,48705.1
88946.1,96088.5,55834.8,85484,72968,86997.4,47891.8,50181.1
104761,87959.7,106740,73431.4,116731,73099.6,51792.4,48847.2
76869.9,90380.7,89924.8,81841.2,83364.4,101459,48987.8,49117.7
96307.2,101884,75195.4,103471,78929.2,102168,46450.1,52183.4
91505.7,72325.8,56744.8,44791.6,76522.6,96975.2,46762.7,43874.3
114417,78675.3,107237,58702,97290.2,74435.2,54450.6,49481.1
69462,99356.4,86153.2,101762,77453.6,100190,46096,45281
95718.6,109444,106791,91746.2,94368.4,87473.4,48214,48281.4
88096.5,79485.3,132695,47566.4,120112,86059.4,50061,46587.9
85570.2,87053.4,61559.4,81009.6,77315,89682.6,47611.8,52496.9
88098.3,82052.1,78535.8,65140.6,77974.4,72294.6,48498.2,50172.8
81600.3,99670.5,84884.8,72287.6,104019,77372.4,50006.1,48960.6
72063,97323.3,72494.8,96990.6,72954,102861,40160.1,52976.1
140890,116998,168360,78776.6,140792,97486.2,52633.7,46519.1
81826.2,72864,88978.4,63207.2,72555,90372.8,47693.3,50225
67870.8,69686.1,105802,54731.6,91021,74999.4,48968.4,49553.4
79077.6,84394.8,78167.6,66719.8,73325,76739.6,47101.2,49459.3
86636.7,83220.3,71813,58552.2,86581.6,72774.8,51466.7,48558.6
97315.2,80946,63823.2,54973.8,84502.6,116437,47652.3,44243.6
50099.4,82849.5,105756,65123.8,104924,97262.2,47440.5,46292.4
108093,90320.4,108542,69974.8,111398,83536.6,49396.7,47172.4
90202.5,108107,57631,71750,75810,102785,46138.8,53351.4
81442.8,145381,54413.8,122185,76118,128866,48038.1,49873.9
95450.4,75582,90742.4,83351.8,80136,91533.4,51521.2,47023.9
82233.9,84492.9,74902.8,101035,72710.4,93910.6,51683,50132.6
82607.4,63089.1,75712,70954.8,76967.8,72581.6,51811,48894.9
113286,103169,103334,77757.4,91828.8,103922,52880.1,53171
118215,98478.9,114089,57971.2,103708,81036.2,53810.5,48288
148288,86346,130424,69141.8,136073,84326.2,45050,49896.2
75478.5,94439.7,55643,80535,88379.2,92855,42600.8,52507.9
64365.3,92001.6,35005.6,72994.6,74081,76449.8,48937.3,49432.5
82014.3,82314,57136.8,55350.4,73953.6,75206.6,47085.8,50574.5
149409,81565.2,181450,145095,117827,107342,45266,42297.4
79857.9,101685,69017.2,120282,73809.4,121937,44737.8,50779.8
81615.6,86962.5,71653.4,79052.4,74517.8,86954,48030.3,54203.6
73008,85752,57736,66747.8,79006.2,86108.4,44428.4,49094.9
74897.1,89460,92199.8,64771,92423.8,79746.8,44191.5,49738.4
77153.4,86068.8,98604.8,52687.6,89656,210210,44767.1,41583.2
90666,71628.3,74047.4,69407.8,86122.4,86636.2,48329.9,48736
102064,88826.4,97412,62801.2,75552.4,80291.4,52480.8,48048.9
87151.5,90491.4,57136.8,77575.4,84616,84560,49017.2,50504.7
96096.6,96233.4,79480.8,65742.6,85776.6,74991,50006.3,49613.9
80168.4,74283.3,59344.6,65966.6,72972.2,76762,49475.1,48906.8
96692.4,96912.9,102183,105420,85199.8,113079,47018.2,51717
108830,117780,116652,109325,108524,100397,48308.9,50066.7
77216.4,69343.2,119844,59738,98264.6,78936.2,39352.3,49573.2
73789.2,82457.1,78426.6,103356,74522,83910.4,51615.6,46221.6
89261.1,90761.4,79093,73390.8,76375.6,79889.6,46800.5,47819.2
87363.9,101201,52061.8,82406.8,78572.2,92199.8,47284.1,47593.6
83417.4,84614.4,95011,82700.8,79395.4,85026.2,46127.2,47909.6
83950.2,,58452.8,,72772,,47406.5,,
67325.4,,66890.6,,78372,,53527.3,,
69056.1,,68245.8,,94705.8,,53612.2,,
73659.6,,56569.8,,74173.4,,48812,,
104903,,107372,,81515,,49667,,
86523.3,,73274.6,,76119.4,,47678.3,,
80379,,65700.6,,74653.6,,45286.8,,
85310.1,,114486,,96765.2,,46479.3,,
98970.3,,85282.4,,87691.8,,47252.5,,
112287,,79858.8,,96034.4,,46420.3,,
79939.8,,91690.2,,88625.6,,46123.6,,
141232,,140449,,135904,,47845.3,,
93292.2,,89353.6,,95415.6,,45235.6,,
88489.8,,95159.4,,106193,,50083.1,,
123011,,138779,,101711,,53801,,
94345.2,,61195.4,,88587.8,,48303.5,,
88587,,73229.8,,74295.2,,46867,,
86085.9,,73869.6,,78239,,49851.7,,
79189.2,,81365.2,,79825.2,,47785.2,,
84361.5,,65053.8,,74950.4,,47732.5,,
87345,,64870.4,,75989.2,,49564.8,,
88674.3,,68413.8,,82429.2,,48573.9,,
104924,,74869.2,,72829.4,,47737.5,,
86255.1,,73403.4,,74265.8,,49550.5,,
123846,,97057.8,,100563,,52293.4,,
91188,,96626.6,,74817.4,,45511.5,,
79522.2,,103162,,91046.2,,47112.4,,
82683.9,,113092,,90753.6,,46812.8,,
92624.4,,86570.4,,85835.4,,49852.9,,
56575.8,,91404.6,,90805.4,,51409.8,,
80876.7,,69144.6,,74629.8,,48269.7,,
83835.9,,69966.4,,79499,,48686.6,,
91809,,76788.6,,81454.8,,49505.5,,
66501.9,,64622.6,,80131.8,,52374,,
109476,,89607,,75810,,45241.4,,
90635.4,,60125.8,,73530.8,,48836.4,,
60405.3,,91796.6,,85279.6,,51395.8,,
90795.6,,108688,,108394,,47751,,
70851.6,,77505.4,,73780,,46164.2,,
91971,,76840.4,,73577,,48455.3,,
66728.7,,58629.2,,85365,,50488.1,,
91109.7,,87703,,99754.2,,49463.9,,
139992,,233639,,192009,,49869.9,,
93527.1,,69854.4,,79273.6,,45794.4,,
93924,,90297.2,,86338,,45558.2,,
92962.8,,98116.2,,91124.6,,47600.9,,
78444,,85993.6,,98756,,50672.3,,
106703,,76340.6,,93350.6,,54437.9,,
84858.3,,101489,,84777,,48248.1,,
111002,,120436,,98411.6,,47728.6,,
100450,,63725.2,,77175,,47855.2,,
97521.3,,67800.6,,84443.8,,50937.5,,
55678.5,,69867,,81053,,50745.8,,
97134.3,,69245.4,,103884,,46256.4,,
77232.6,,71394.4,,74200,,48631.8,,
109889,,113978,,110562,,45057.6,,
73779.3,,71806,,95158,,44642,,
85365.9,,134323,,79095.8,,46617.4,,
99332.1,,86527,,96688.2,,48230.8,,
96831.9,,82461.4,,84453.6,,47893.6,,
98075.7,,110277,,98579.6,,52780.4,,
89426.7,,105162,,106364,,49203,,
95961.6,,79665.6,,91928.2,,53125.5,,
93057.3,,86644.6,,82299,,43699.8,,
108226,,118304,,130711,,47817.2,,
84795.3,,82055.4,,89350.8,,51225.7,,
87660.9,,72720.2,,72427.6,,47230.6,,
98325,,87537.8,,78596,,47787.2,,
89827.2,,76882.4,,77568.4,,49628,,
88230.6,,49001.4,,232240,,41780.7,,
78738.3,,59609.2,,72443,,48994,,
160413,,212384,,181811,,51153.4,,
77130,,57078,,77466.2,,48847.9,,
95067.9,,61937.4,,74811.8,,45258.4,,
83594.7,,96577.6,,115609,,51427.7,,
60254.1,,60551.4,,76028.4,,45889.7,,
102231,,77908.6,,92615.6,,50639.6,,
89666.1,,113263,,87458,,46182,,
73676.7,,55118,,76619.2,,50204.5,,
99535.5,,83587,,102224,,48908.1,,
88444.8,,57453.2,,72479.4,,48609,,
96757.2,,68178.6,,80603.6,,48919.1,,
82953,,65177,,76277.6,,45684.3,,
117948,,103089,,93352,,52972,,
102375,,121079,,94343.2,,49136.2,,
70703.1,,36834,,118600,,43664.4,,
91426.5,,88027.8,,81159.4,,50495.3,,
84249.9,,80150,,77886.2,,43182.9,,
104923,,92978.2,,91847,,48161.4,,
126273,,108507,,83902,,50321.1,,
85426.2,,78348.2,,73966.2,,46337.7,,
84816,,61668.6,,78162,,46671,,
90541.8,,51714.6,,83426,,46590,,
86388.3,,56523.6,,76144.6,,49325.1,,
