"FSC-A", "FSC-H", "FSC-W", "SSC-A", "SSC-H", "SSC-W", "FITC-A", "FITC-H", "FITC-W", "PE-A", "PE-H", "PE-W", "Time", "Event #", "Comp-FITC-A", "Comp-PE-A"
137741,85518,105557,177976,96022,121471,235378,143198,107723,105809,79895,86792.3,0.001,3,235378,94981.2
74842.2,53755,91244.7,54271.4,27706,128374,109507,67739,105945,100918,67824,97513.6,0.018,27,109507,95880.6
61848,50643,80036.1,16974.1,13211,84203.7,89558,61504,95429.2,97953.6,68075,94300.2,0.038,59,89558,93833.9
123271,78720,102626,124596,71505,114195,215843,121665,116266,109873,69879,103044,0.062,97,215843,99943.9
87669.9,56192,102248,131411,76781,112165,187989,127574,96571.9,95721.3,67040,93573.9,0.092,127,187989,87073.8
108323,69032,102837,116472,72443,105367,244184,138834,115266,107074,75924,92424.1,0.099,143,244184,95841.6
115955,74872,101496,188402,109222,113046,235637,139426,110759,98126.6,65000,98935.8,0.158,221,235637,87287.3
136243,87969,101500,178398,92729,126083,198194,126347,102803,107249,80808,86979.5,0.166,229,198194,98131.6
118322,79983,96950.1,140003,80367,114166,216589,143536,98890.8,103869,74814,90988.2,0.169,233,216589,93906.4
129971,82196,103628,206175,114756,117744,232268,140449,108380,99040.4,62679,103555,0.175,242,232268,88356.1
120411,75293,104807,164500,93054,115854,207260,120970,112284,97902.1,68653,93457.1,0.179,251,207260,88368.1
114617,69397,108240,202773,121116,109720,247284,138085,117363,112239,72697,101183,0.237,340,247284,100864
144970,83839,113322,229518,110246,136437,215919,112501,125781,100892,63328,104410,0.24,343,215919,90960
118315,81916,94656.5,136391,85276,104818,197739,123317,105087,107412,73101,96295.9,0.248,351,197739,98315.6
117687,80220,96144.5,149411,88570,110554,165726,112707,96364.8,99083.3,69064,94021.8,0.261,369,165726,91459.9
168248,96970,113708,182457,87474,136697,250569,124108,132314,107736,71933,98155.2,0.288,401,250569,96210
129103,83383,101470,153074,87799,114260,222429,135654,107458,106453,73260,95229.8,0.29,407,222429,96221.7
91251.9,57212,104528,89018.9,41785,139618,129292,89720,94441.4,96476.4,74651,84696.5,0.292,413,129292,90528.9
125347,80448,102112,161654,92088,115044,240699,147453,106980,110133,75546,95540,0.293,416,240699,99060.7
133937,84435,103958,168358,91768,120233,188917,114128,108482,100107,63509,103302,0.296,425,188917,91417
108963,69127,103303,153206,88855,112999,232346,139158,109423,96992.6,66136,96112.7,0.3,433,232346,86304.7
138279,79280,114307,225492,116754,126573,241081,143894,109799,107716,68012,103795,0.333,476,241081,96626.5
56044.8,42520,86381.8,13343.3,8699,100525,98474.1,57212,112801,101657,65063,102396,0.338,486,98474.1,97127.5
110113,76288,94593.9,118654,72147,107782,179329,104907,112028,98628.5,70004,92333.6,0.338,487,179329,90379.4
120901,77467,102280,176140,98661,117002,230982,137884,109785,100518,70153,93902.2,0.34,492,230982,89892.4
145894,91947,103987,164893,93047,116140,246164,145952,110534,115128,71385,105695,0.354,505,246164,103804
111834,80884,90613.1,121450,76450,104112,155023,97380,104330,98436.9,70719,91222.5,0.365,523,155023,91305.8
125730,75228,109532,166425,85307,127854,238164,134255,116259,97950.7,80799,79447.7,0.369,533,238164,86995.2
81015.3,59199,89687.6,98364,62871,102533,194038,120601,105443,97174.2,67490,94360.8,0.369,534,194038,88248.5
174102,97314,117249,170997,76884,145758,227319,114396,130228,105942,69255,100252,0.371,536,227319,95484.9
161975,75183,141191,170010,79950,139359,214321,105012,133754,98199.5,58879,109302,0.393,565,214321,88340.8
85030.2,51528,108146,143053,83022,112923,246150,146807,109884,101135,70781,93641,0.394,566,246150,89812.4
135623,82203,108125,230672,111680,135363,231927,131357,115712,106538,68470,101973,0.428,597,231927,95869.2
112247,80339,91564.8,104550,57256,119670,166870,90046,121449,99423.6,71552,91064.2,0.442,616,166870,91747.6
124926,77451,105708,142232,81473,114410,211255,115929,119425,99297.8,58811,110652,0.465,633,211255,89580
132636,85825,101281,180766,109412,108276,226767,133275,111509,107148,66001,106394,0.497,676,226767,96717.2
129864,81817,104022,196666,104625,123190,249425,149580,109281,110765,73081,99329.4,0.498,677,249425,99291.4
107891,75988,93050.9,98123.7,60224,106779,190342,114611,108840,105956,76435,90847.4,0.5,680,190342,97200.1
135546,79413,111860,210449,107976,127732,254092,137948,120714,104323,65224,104822,0.508,692,254092,92634.5
136192,79133,112791,215282,112951,124910,247244,122801,131948,99533.7,63270,103098,0.508,694,247244,88160.5
59991.3,48625,80855.3,55658.5,32920,110803,94769,64564,96195.7,97697.6,70590,90702.8,0.555,743,94769,93338.2
136444,79454,112543,211676,109922,126202,237176,136678,113724,101657,65406,101859,0.56,751,237176,90747.2
145246,85620,111175,170995,91684,122228,250230,155665,105348,110818,74441,97561.3,0.589,777,250230,99307.3
143227,92572,101397,130274,67812,125902,229086,123576,121491,106880,70716,99050.6,0.614,807,229086,96341.7
124719,79347,103011,185687,104783,116137,257666,148473,113734,104474,68295,100254,0.676,865,257666,92621.7
96909.3,57924,109645,144965,83624,113609,254042,152757,108990,109046,70214,101781,0.677,866,254042,97360.1
69737.4,54273,84209.6,66236.2,45520,95361.4,113841,73764,101142,93441.9,74512,82185.5,0.688,880,113841,88205.2
147663,88021,109942,225455,116148,127212,247737,128960,125897,107966,69794,101380,0.705,903,247737,96570.5
113115,77936,95117.6,131221,79429,108269,188118,126254,97648.4,107557,75513,93346.6,0.728,946,188118,98904
138804,79396,114574,216874,117335,121132,223746,128464,114144,103578,66322,102350,0.736,951,223746,93285.4
118977,77638,100431,156289,93019,110112,245964,148144,108810,105575,74594,92755.4,0.744,958,245964,94261.1
150279,72397,136037,131051,54052,158894,202973,87119,152688,102409,62906,106691,0.751,965,202973,93072.7
125968,81217,101646,151396,86734,114394,210509,123373,111823,106668,73295,95376.1,0.755,972,210509,96984.6
133022,81599,106836,204481,109861,121980,212198,129710,107213,106219,69461,100217,0.811,1011,212198,96457.9
76661.1,63339,79320.2,47397.3,35150,88370.8,106382,81352,85699.8,94291.3,71713,86169.6,0.818,1016,106382,89397.8
97901.1,66018,97186.3,115987,66859,113692,190925,115932,107929,101998,73899,90454.8,0.821,1018,190925,93215.1
116978,79251,96733.6,105182,64275,107246,161935,101526,104530,103922,73667,92451.9,0.823,1020,161935,96473.4
117274,74317,103417,189109,108999,113702,194909,130205,98103.4,99831.2,66722,98056.6,0.831,1028,194909,90865.3
125276,78925,104024,181407,103697,114648,226100,138483,107000,108546,72564,98032.7,0.843,1037,226100,98145
119894,75599,103935,151105,87067,113738,212830,134942,103363,108026,74670,94812.2,0.846,1041,212830,98236.3
116816,73013,104854,201227,118047,111715,256618,147667,113889,110083,73589,98036.2,0.867,1066,256618,98278.4
141255,86895,106534,174672,88098,129938,210537,116244,118697,100754,68940,95778.7,0.964,1149,210537,91068.8
110471,76312,94871.8,134012,82482,106479,166832,108327,100931,98592.8,69809,92557.9,0.967,1151,166832,90918.5
133908,79846,109909,204547,112398,119266,218042,117149,121978,98276.8,63064,102129,0.971,1153,218042,88246.8
114487,72374,103670,149823,82676,118762,222181,135275,107639,112388,78945,93298.6,1.007,1177,222181,102168
114026,82604,90465.8,115637,72832,104053,185797,111746,108965,99020.3,67551,96066.6,1.011,1180,185797,90473.7
134029,82012,107103,163648,84859,126384,200715,107877,121936,104314,73627,92850.9,1.016,1185,200715,95081.3
77858.1,59387,85919.6,97767.7,66273,96680.4,226551,125242,118548,103569,67504,100550,1.017,1186,226551,93147.9
126383,80356,103075,174710,97698,117196,246639,138233,116931,107280,74582,94268.1,1.021,1192,246639,95934.6
53441.1,45003,77824,18356.9,13989,85998.9,91492.8,62862,95384.7,91923.3,67431,89340,1.044,1233,91492.8,87714.6
122140,76871,104130,154101,88799,113731,204368,123655,108313,99679.6,69183,94424.9,1.062,1247,204368,90278.6
133793,80901,108383,224318,123438,119096,225448,131708,112180,110106,72850,99051.3,1.091,1273,225448,99735.1
136149,81555,109407,230653,121965,123938,259579,141457,120261,109514,72369,99173.5,1.095,1277,259579,97573
117017,76772,99891,139173,75215,121264,172924,99820,113532,99242,72119,90183.2,1.103,1288,172924,91287.5
108219,70189,101045,148177,85732,113270,212767,136172,102399,98754.4,72465,89311.6,1.175,1339,212767,88967.1
101740,66354,100485,137573,79884,112864,195613,125610,102059,95732.8,69576,90174,1.206,1355,195613,86734.6
120318,78435,100531,175771,100225,114935,201117,124332,106010,98120.9,68479,93904,1.226,1369,201117,88869.5
125307,78852,104146,180545,102237,115733,253575,147275,112838,102494,75201,89321.1,1.235,1373,253575,90829.4
126396,78854,105048,169444,97128,114330,254324,141862,117490,105799,71996,96305.5,1.258,1398,254324,94099.6
129740,82448,103128,177429,98374,118202,211680,124294,111612,104876,71779,95754.6,1.295,1442,211680,95138.9
105011,69198,99453.8,135683,75558,117686,253140,155674,106567,117566,79132,97366.5,1.302,1455,253140,105922
125730,80057,102925,186648,99696,122695,226462,129870,114279,104324,65783,103933,1.308,1466,226462,93907
94261.5,57301,107808,150550,86734,113756,219624,127359,113013,100137,65713,99867.5,1.327,1479,219624,90034.5
127283,78620,106101,216974,116195,122377,257061,145584,115718,110513,75141,96386.8,1.329,1484,257061,98688.4
96514.2,70641,89539.4,78781.6,51220,100801,181867,92869,128341,105115,76013,90626.8,1.351,1502,181867,96749.1
115258,74948,100784,95266.6,55289,112923,204593,116281,115309,98721.5,72747,88935.8,1.392,1592,204593,89310.2
143331,90079,104279,209635,111586,123122,260543,145970,116976,112211,75087,97937.6,1.412,1623,260543,100226
131297,74085,116146,182405,80069,149297,249279,129742,125917,103669,75582,89890,1.416,1633,249279,92202.4
136313,84211,106084,206952,114145,118821,220941,123937,116830,108024,71141,99512.8,1.426,1650,220941,97860.4
135818,80003,111258,195773,102451,125232,230996,121159,124948,96906.8,60434,105088,1.433,1661,230996,86281
123847,80084,101349,193540,109447,115891,202484,117743,112703,107266,72030,97595,1.439,1671,202484,97951.5
127049,80904,102916,200076,112670,116377,228596,140982,106263,115254,77593,97344.7,1.44,1673,228596,104738
128390,78310,107446,185547,99263,122503,235202,134219,114844,110226,70007,103186,1.448,1690,235202,99406.5
88428.6,62120,93291.3,119130,65514,119170,193882,126530,100421,104996,79352,86715.4,1.453,1695,193882,96077.7
124171,76301,106652,188178,101163,121907,199169,127834,102107,98617.1,68377,94519.6,1.454,1699,199169,89455.3
105348,67879,101711,169275,93155,119087,250575,154950,105980,108694,75341,94548.6,1.462,1708,250575,97167.9
86353.2,63264,89454.4,69631,45155,101059,112038,72940,100665,106672,79965,87424.2,1.472,1727,112038,101519
124878,79035,103549,214058,108016,129874,216429,128232,110611,107629,75807,93046.4,1.477,1733,216429,97673.2
128991,79468,106377,178109,98325,118714,213131,125764,111063,102049,67442,99165,1.508,1769,213131,92245
123472,74584,108493,197606,106526,121569,202784,108708,122251,99204.8,64078,101462,1.511,1775,202784,89876.8
83332.8,59894,91182.7,67586.1,43543,101723,136260,87401,102172,95714.2,72290,86771.7,1.521,1791,136260,89446.2
103718,60076,113144,211850,120910,114828,258058,155387,108838,103716,73524,92448.2,1.521,1793,258058,91845.8
104871,77159,89073.3,133425,84578,103385,182976,118994,100774,104091,73526,92779.6,1.546,1825,182976,95674.2
127410,76937,108530,101995,51427,129977,165618,88139,123146,104840,65808,104407,1.566,1852,165618,97222
104757,73434,93490.4,112079,71294,103027,187956,137143,89818,99004.6,73009,88870.8,1.568,1854,187956,90358.6
130196,79290,107611,206735,117649,115161,225095,131603,112093,104098,68563,99502.4,1.576,1866,225095,93743.9
93178.8,61575,99172.8,132139,77861,111222,227236,152949,97366.5,111310,83988,86855.2,1.578,1871,227236,100857
110749,81510,89044.5,106771,73211,95577.7,155488,108324,94070.3,104369,73841,92630.1,1.584,1878,155488,97216.1
112982,76765,96454.8,104812,62746,109472,131500,92675,92991.4,96071.7,69386,90741,1.588,1888,131500,90022.7
135258,83652,105966,174888,93480,122608,229210,133306,112685,104566,67506,101514,1.601,1899,229210,94022.2
92874.6,69088,88099.7,86945.4,58655,97145.3,130533,104289,82028.1,94899.1,74958,82970.6,1.612,1912,130533,88894.6
69826.5,57125,80107.6,36057.4,24575,96157.1,96362,77066,81945.1,95391,76873,81323,1.632,1935,96362,90958.4
87470.1,55381,103509,122050,70266,113835,249619,167122,97886.9,103379,68726,98580.5,1.638,1939,249619,91896.5
136691,82195,108987,193057,104733,120804,222235,130129,111923,108047,65105,108762,1.694,2013,222235,97823.7
121803,72767,109699,180768,96232,123107,227060,125517,118554,106506,71225,97999.4,1.695,2014,227060,96061.7
126938,82144,101273,165184,91642,118128,199444,128383,101810,100731,68539,96317.2,1.715,2041,199444,91556.2
154751,86135,117743,208601,104813,130431,242807,146531,108595,111092,76173,95579.2,1.722,2051,242807,99923.3
78346.8,61806,83075,52302.2,39797,86129.1,109336,80589,88913.7,92705.5,69101,87922.7,1.732,2068,109336,87676
94187.7,61041,101124,142251,83310,111902,237133,154746,100427,107752,77891,90660.4,1.756,2111,237133,96843.8
106610,69702,100238,170499,97839,114206,227164,136839,108795,97039.8,66572,95529.6,1.757,2114,227164,86590.2
127989,82576,101578,188255,104994,117507,213264,121739,114807,110452,75088,96401.1,1.762,2119,213264,100642
129416,78923,107465,185451,105415,115294,257204,147654,114160,110515,74457,97273.5,1.762,2121,257204,98683.3
115964,76598,99217,170349,93077,119943,259681,149586,113770,110721,78383,92573.5,1.764,2124,259681,98775.3
124416,76320,106836,147041,80718,119385,213651,127422,109885,100659,68982,95630.7,1.769,2132,213651,90831.2
123077,79068,102013,125666,74887,109974,219373,140674,102200,103957,67340,101172,1.779,2160,219373,93865.5
117655,79709,96735,116057,70866,107328,161273,100318,105357,93653.6,69117,88801.3,1.784,2171,161273,86235
139118,84002,108536,218787,114487,125241,257493,143362,117709,104527,66115,103612,1.784,2174,257493,92682.6
106889,74563,93948.8,105791,65282,106203,150323,102037,96549,99638.1,66249,98565.8,1.798,2198,150323,92723.2
124277,82150,99143.6,209405,117101,117194,208179,131999,103359,96383.4,60306,104742,1.812,2218,208179,86807.2
114522,71519,104942,221107,129832,111609,217463,129181,110323,107337,71086,98956.9,1.835,2245,217463,97333.9
125345,77991,105327,162831,94237,113239,215674,124205,113799,108905,76444,93364.6,1.882,2309,215674,98983.5
116528,76179,100248,130008,64936,131210,216825,130843,108602,102434,76440,87821.8,1.894,2326,216825,92459.8
101676,70852,94047,108843,66387,107448,144200,85067,111092,94404.3,66352,93243.3,1.899,2332,144200,87771.1
97776,70687,90651,57977.9,33820,112349,130483,80910,105690,100741,71005,92981.3,1.907,2347,130483,94738.4
115401,65936,114701,190419,103585,120474,244690,135319,118505,104686,67282,101969,1.91,2352,244690,93430.3
141572,82744,112130,150459,70030,140804,205392,111979,120206,100872,70207,94161,1.915,2360,205392,91424.1
160990,88982,118571,209484,92386,148602,251872,119780,137808,112265,70657,104128,1.978,2457,251872,100679
122924,77996,103286,160310,85184,123334,206860,125160,108315,103977,69086,98633.9,2.005,2488,206860,94461.2
129120,83350,101524,162035,92915,114288,225424,132488,111507,109559,74180,96792.8,2.031,2529,225424,99190
84496.5,54818,101017,110237,69338,104193,223606,135693,107996,111265,79580,91629.7,2.034,2535,223606,100980
123585,77959,103892,163562,92605,115752,224177,122801,119638,104855,62172,110528,2.036,2539,224177,94542.6
114262,78545,95337.6,139245,82491,110625,204203,120659,110913,107015,76219,92016,2.038,2540,204203,97622.2
84621.6,69082,80277.9,48960.3,36636,87582.3,115621,84265,89922.9,103399,77418,87529.5,2.038,2541,115621,98080.4
108007,70595,100267,124522,73085,111660,175615,112600,102213,97415.9,64792,98534.5,2.068,2590,175615,89337.6
105829,72403,95791.9,129213,78806,107455,215997,141877,99773.7,106042,76748,90550.2,2.068,2591,215997,96105.8
119367,77030,101556,165023,98583,109704,224122,121861,120532,102424,72908,92067.3,2.07,2594,224122,92114.1
99773.1,72475,90220.5,98090.8,64138,100229,216239,139486,101598,101396,77446,85802.5,2.136,2691,216239,91448.6
140072,89439,102637,155611,80188,127178,215527,117942,119760,108862,75087,95014.5,2.165,2738,215527,98947.4
110368,70364,102795,168427,98431,112140,235635,136179,113399,102405,69986,95893.8,2.167,2740,235635,91565.9
113228,75857,97822.4,140067,82744,110938,205741,123932,108797,102425,72212,92956,2.195,2784,205741,92961.1
126460,80300,103209,186798,106004,115486,249569,158820,102983,113788,80156,93033.7,2.203,2795,249569,102308
106422,73803,94501.5,124536,79336,102874,194218,119788,106257,105515,72294,95651.9,2.217,2818,194218,96581.4
120766,67992,116404,148039,75872,127872,243516,138238,115446,113651,80388,92653.3,2.217,2819,243516,102449
99607.5,70153,93052,124168,76045,107009,197489,135547,95484.4,97813.4,73584,87115.4,2.228,2845,197489,88728.9
123685,77294,104870,159253,91737,113769,227676,134851,110648,104177,69080,98832.4,2.241,2871,227676,93703.8
132545,85811,101228,144913,80450,118049,208986,115848,118225,97744.8,70687,90622.1,2.241,2872,208986,88131.4
126897,79657,104402,209276,113406,120938,233982,121722,125978,109741,70932,101393,2.25,2889,233982,98977.9
108061,66411,106637,208784,102025,134113,260200,128805,132390,98993.2,66645,97345.9,2.275,2926,260200,87024
92492.1,65180,92997.3,83523.4,40806,134142,145226,86902,109521,103702,76642,88675,2.29,2934,145226,97021.7
141459,90013,102993,174316,95289,119887,219072,127939,112218,105340,70904,97364.5,2.298,2947,219072,95262.2
121119,78094,101643,164361,90821,118602,220741,141705,102088,111547,76829,95151,2.306,2959,220741,101393
146189,80248,119388,157668,74999,137774,259342,133610,127208,107828,74549,94791.3,2.35,3014,259342,95898
110502,73129,99028.6,126973,75805,109772,170204,105500,105730,94410,62619,98808,2.371,3044,170204,86580.6
132555,77475,112128,190999,88819,140931,233559,116624,131247,99169.1,64629,100561,2.374,3052,233559,88425.3
132437,84470,102751,172438,96371,117264,228187,130813,114319,98338.2,66878,96365,2.375,3057,228187,87841.7
75595.5,63656,77828.1,63359,45078,92113.6,107577,84514,83420.5,94174.1,73347,84145.1,2.392,3088,107577,89225.5
121927,78660,101584,136187,78810,113249,199772,115183,113665,105330,75177,91821.6,2.438,3140,199772,96140
108567,74898,94996.5,101757,63081,105718,180272,107322,110082,105391,76729,90016.9,2.469,3182,180272,97098.5
113211,73656,100730,158029,86280,120035,195993,109374,117437,97421.6,61191,104339,2.484,3210,195993,88405.9
127717,78491,106637,227795,128799,115907,241387,129175,122466,114810,73906,101808,2.484,3211,241387,103707
134418,84984,103657,191488,104006,120660,226023,125294,118223,110147,70999,101672,2.509,3263,226023,99750.1
98286.3,68069,94628.9,94571.6,59801,103641,197257,135127,95668.8,95659.8,75428,83114.5,2.511,3273,197257,86586
80248.5,64172,81954.2,72090.6,50017,94458.5,113832,86624,86120.6,94125.5,71409,86384.1,2.52,3283,113832,88889.2
134802,86879,101686,165746,91790,118339,217510,141219,100941,108061,72552,97611,2.526,3293,217510,98055.3
60021.9,46412,84753.8,52543.9,19299,178430,101946,60977,109568,104288,73426,93082.1,2.573,3364,101946,99598.9
112280,78506,93730.5,109401,64999,110305,194953,117427,108803,103679,74126,91664.5,2.592,3387,194953,94711.4
146216,76141,125851,146403,69130,138792,220905,111530,129806,105184,68558,100547,2.6,3400,220905,95022
123441,76875,105234,172670,95568,118409,219893,137981,104441,103991,71657,95108,2.606,3409,219893,93876
85117.5,64764,86132.1,64026.8,41676,100683,130093,90096,94629.8,107176,77571,90547.5,2.609,3411,130093,101191
115460,75351,100421,144308,74899,126269,174707,101562,112735,105744,64860,106846,2.611,3413,174707,97707.7
128296,80796,104065,195763,108092,118691,237343,132685,117229,100821,64283,102786,2.616,3420,237343,89903
133103,82063,106297,166305,87720,124247,245112,149854,107195,112784,80391,91943.4,2.627,3441,245112,101509
102014,65064,102754,121946,75120,106388,219621,137342,104797,110460,74252,97494.1,2.631,3446,219621,100358
137543,88606,101732,133759,74458,117731,252109,133837,123450,98864.5,68643,94389.6,2.634,3452,252109,87267.5
131878,83976,102919,216945,116891,121632,235452,124037,124403,101054,61400,107861,2.637,3456,235452,90223
131060,85078,100956,154224,89363,113103,227413,127455,116933,110282,75644,95545.1,2.659,3497,227413,99820.6
136608,85558,104640,230592,123315,122548,241265,137135,115299,101629,68066,97851.1,2.662,3499,241265,90530.5
74669.4,59100,82800.9,44533.1,30059,97093,114805,72826,103313,101014,75820,87312.6,2.664,3502,114805,95732.8
126277,80871,102332,189744,108309,114811,233580,136658,112016,109589,71715,100147,2.677,3515,233580,98844.8
105328,61528,112189,204340,110447,121249,255798,136711,122624,98685.7,60378,107116,2.683,3530,255798,86919
80199.9,59150,88858.5,93859.5,47554,129351,146917,81201,118574,105331,78787,87615.6,2.694,3545,146917,98572.8
123209,73855,109331,145730,70931,134646,216285,116247,121934,104483,65637,104322,2.713,3567,216285,94533.9
108572,74053,96085.2,159946,97302,107728,193653,119541,106167,97852,66655,96209.3,2.736,3590,193653,88944
123820,90367,89796.9,138782,83348,109123,189934,127877,97339.8,108986,78248,91280.4,2.737,3596,189934,100249
73717.2,59229,81567,27508.9,17690,101912,102738,75129,89620,101108,78217,84715.9,2.755,3622,102738,96382.2
114922,76573,98357.4,162098,92284,115115,248258,136264,119399,110030,74230,97142.9,2.761,3627,248258,98610
147456,85802,112628,199924,97725,134072,219502,115360,124699,101270,60809,109142,2.781,3652,219502,91172.6
140206,83971,109425,221706,112756,128860,239993,120064,130998,107393,65525,107411,2.789,3664,239993,96353.3
93388.5,62894,97311.5,109279,68177,105046,208392,134765,101341,109621,79420,90457.3,2.8,3683,208392,100035
116844,78229,97885.8,154195,88456,114242,193875,118008,107669,105922,75063,92478,2.801,3685,193875,97003.3
129308,85168,99500.9,131985,76108,113651,199269,118931,109806,107326,74520,94386.8,2.807,3695,199269,98159.4
127418,74247,112469,207889,111262,122452,230712,129153,117070,106270,68955,101001,2.833,3738,230712,95657.7
98469,62609,103072,140600,78629,117188,235618,150726,102447,112921,82314,89904.7,2.841,3748,235618,102083
86130,66091,85406.7,75741.4,52666,94250.3,133528,83145,105248,92815.6,67404,90243.3,2.846,3757,133528,86673.3
140401,82143,112016,184371,97269,124222,246958,134074,120714,109821,75605,95195.3,2.847,3759,246958,98461.1
136374,85474,104563,165096,87382,123821,221048,129194,112131,105786,74743,92754.8,2.866,3794,221048,95617.5
136040,75257,118468,123346,44687,180894,159146,75406,138315,97703.3,63042,101569,2.873,3810,159146,90382.6
111776,78101,93792.9,137599,86473,104283,188890,116205,106528,95235.1,68636,90933.8,2.879,3825,188890,86546.2
134174,81440,107972,183868,101758,118418,239092,130887,119715,107078,73314,95718.3,2.885,3843,239092,96080.2
102381,68586,97828.4,136662,83556,107189,202524,136862,96978,99026.1,71224,91117.8,2.888,3847,202524,89710
132337,83239,104192,180334,102407,115406,232474,147637,103195,113838,74950,99539.5,2.895,3865,232474,103144
114890,71552,105230,141324,76853,120513,246024,142729,112965,103895,78365,86886.7,2.898,3875,246024,92578.1
124240,77066,105653,150508,84061,117339,209893,126242,108961,105331,72710,94938.4,2.914,3919,209893,95675.9
129016,81141,104204,204720,115438,116223,241613,144017,109948,115730,78775,96280.2,2.952,3955,241613,104616
123997,76362,106417,158440,83424,124467,213582,118260,118360,98020.8,65769,97673.5,2.961,3969,213582,88196
114890,74669,100838,131468,76879,112071,210194,126942,108516,108006,74166,95438.8,2.986,4004,210194,98337.5
126894,78799,105536,185402,104268,116532,229642,141185,106597,101693,63764,104519,3.005,4037,229642,91129.5
107603,65873,107053,151790,83752,118776,215398,128943,109477,98910.2,68490,94644.2,3.016,4046,215398,89001.9
119651,76607,102360,162016,91733,115748,248515,140520,115903,102993,71820,93981.4,3.021,4052,248515,91561.2
126092,80778,102300,174460,100832,113391,223528,131820,111130,112824,77381,95553.7,3.024,4060,223528,102542
77139.9,56886,88869.7,50905.1,31091,107302,117123,70357,109097,92642.5,58028,104629,3.041,4085,117123,87254.9
163985,87076,123420,209210,95562,143476,252258,133573,123767,115441,80458,94031,3.042,4086,252258,103837
118406,73431,105675,162119,93083,114142,232532,140315,108607,110831,71466,101634,3.071,4123,232532,100134
130627,82849,103330,184218,100435,120206,230906,126788,119354,106954,68108,102915,3.135,4198,230906,96332.3
69306.3,55880,81282.3,29455.1,18838,102472,77709.1,56378,90332.1,90908,68048,87552.1,3.155,4223,77709.1,87333.3
153048,83084,120723,137420,49359,182458,182183,90185,132390,104287,70197,97362.5,3.159,4229,182183,95906.6
71328.6,51168,91357.7,52024.8,39094,87212.9,108220,66431,106762,101458,76653,86744,3.177,4257,108220,96480.4
124610,78953,103434,154656,88384,114676,216980,131640,108022,101171,71232,93081,3.228,4328,216980,91190
120437,76115,103698,167210,85586,128038,222096,122680,118644,104544,68287,100333,3.248,4354,222096,94328
126520,77047,107618,198680,106772,121949,229872,130982,115015,100154,63300,103692,3.271,4379,229872,89580.2
135671,88144,100873,183315,102389,117334,227010,141030,105490,108929,79922,89321.6,3.297,4422,227010,98486.4
118628,76594,101502,181714,106519,111800,232223,149935,101504,110129,73912,97648.4,3.3,4428,232223,99446.3
117417,71626,107433,196891,101868,126668,243310,128534,124057,103359,65609,103244,3.306,4436,243310,92166.7
132596,80325,108183,205201,99196,135570,226385,119913,123726,107755,66300,106513,3.311,4448,226385,97341.1
99974.7,65560,99938.1,138907,84646,107547,215152,131472,107249,101210,72665,91280.2,3.328,4484,215152,91312.7
112934,75482,98052.9,133551,80371,108900,186599,114514,106790,97137,69269,91902.2,3.372,4557,186599,88553.5
139413,86408,105737,201999,108263,122278,255201,135032,123858,109408,68560,104582,3.376,4565,255201,97668.6
139675,84232,108673,220010,119348,120811,230456,128854,117211,104400,65830,103934,3.396,4589,230456,93799
120110,76832,102451,149923,87271,112584,185431,109720,110758,99297.8,68203,95414.8,3.403,4605,185431,90767.9
121585,78928,100955,155465,89908,113322,215906,138565,102115,104878,77078,89172.8,3.406,4611,215906,94946
138809,84261,107962,155600,78568,129791,212511,110877,125609,97899.2,62013,103461,3.513,4743,212511,88123.7
65388.6,55898,76663,20597.7,14907,90554.2,74886.2,62904,78019.6,101519,79364,83830.5,3.523,4755,74886.2,98073.8
100800,68286,96740.6,110974,70256,103518,187719,124812,98567,102866,73198,92098.2,3.527,4758,187719,94230.5
107593,66938,105340,127254,74200,112395,218687,131685,108835,106393,74326,93811,3.546,4786,218687,96333.8
77215.5,59714,84743.9,42219.3,24333,113709,110176,75992,95016.3,93200.2,70503,86634.2,3.55,4791,110176,88132.2
158873,83793,124258,197808,74620,173727,237091,115989,133961,105667,68691,100814,3.552,4794,237091,94760.8
109511,71473,100414,164391,95523,112785,227625,130480,114329,99369.3,70452,92435.5,3.558,4806,227625,88898.5
127390,75526,110539,193633,101957,124464,225957,124312,119122,98162.3,60099,107043,3.572,4834,225957,87768.3
119259,75378,103688,163646,90578,118403,246029,154815,104148,114942,73926,101897,3.576,4843,246029,103625
126116,81950,100856,179268,101395,115868,237454,125473,124025,106455,71643,97380.5,3.578,4846,237454,95532
127651,74598,112144,201760,102775,128655,249828,141271,115896,106132,67160,103565,3.588,4877,249828,94639.6
129075,76783,110169,214740,110269,127626,241089,127316,124101,100420,61111,107692,3.591,4884,241089,89330.2
66737.7,53846,81226.5,35434,21334,108850,99937,70829,92468.8,99533.7,74238,87866.6,3.598,4896,99937,94936.6
139029,87128,104575,162951,84572,126273,228728,123956,120930,108230,72294,98112.3,3.605,4911,228728,97708
105397,70436,98065.1,101584,61423,108387,178058,118175,98745.1,102643,74278,90562.2,3.608,4927,178058,94451.9
106544,69930,99849.2,102781,57503,117139,166815,109198,100115,105279,80585,85618.8,3.614,4943,166815,97606
88173.9,64955,88962.6,67250,43614,101052,130296,87696,97371.3,93173.1,63710,95843.5,3.618,4955,130296,87179.5
111216,72401,100670,178375,108160,108081,205174,130329,103172,96675.1,69342,91368.9,3.645,4990,205174,87237.2
66672,50197,87045.4,23802.3,15005,103959,99067.5,62764,103443,103499,65725,103201,3.646,4991,99067.5,98942
125562,74902,109861,178864,97735,119937,253355,147182,112812,108435,71638,99199.1,3.66,5013,253355,96781.2
136502,84641,105691,165830,83863,129590,210487,124096,111160,112826,78984,93615.6,3.682,5058,210487,103143
85817.7,63358,88767.8,65541.2,38456,111694,137590,95520,94400.3,103247,74759,90509.8,3.7,5088,137590,96918.3
111844,74023,99020.6,145247,83369,114178,246395,149164,108255,103146,74400,90857.1,3.758,5170,246395,91811.7
128830,79451,106267,124394,60504,134740,170071,98764,112853,100287,65844,99818.2,3.778,5210,170071,92464
122114,78715,101669,149242,78087,125254,201784,111399,118710,99786.8,66303,98632.5,3.786,5231,201784,90504.7
135555,87962,100995,200297,117405,111807,240779,145027,108805,100744,62471,105686,3.79,5236,240779,89667.7
113510,73423,101317,125281,75189,109197,253069,154871,107090,102890,69092,97594.4,3.88,5365,253069,91248.8
103105,64410,104907,162492,92932,114590,247154,153798,105317,113748,78976,94390.5,3.888,5377,247154,102379
128527,82418,102200,167939,93460,117762,227484,118565,125740,101201,65076,101916,3.921,5423,227484,90736.8
118621,81733,95113.8,152179,88933,112143,195691,122491,104700,96755.2,69431,91327.4,3.936,5454,195691,87753.4
85200.3,62520,89310.4,64787.6,39285,108080,135289,78730,112617,95655.6,64024,97914.6,3.957,5475,135289,89432.2
128241,78502,107060,169945,90198,123479,203220,128147,103929,98068,68396,93967.2,3.967,5497,203220,88719.8
106989,71675,97825.6,156810,95877,107186,202494,138801,95609,105568,75869,91190.4,3.972,5507,202494,96253.6
106246,66555,104619,162435,94817,112273,248563,148739,109519,112947,74992,98705.2,4.032,5586,248563,101513
100876,72566,91103.9,108600,62741,113438,148410,89120,109136,100110,67852,96692.9,4.032,5589,148410,93283.2
111442,73290,99652,142731,82982,112724,209445,121009,113431,98487,72203,89393,4.037,5604,209445,88852.5
66162.6,54109,80135.1,34147,19466,114962,93150.2,72757,83905.2,99927,75150,87143.2,4.042,5615,93150.2,95642.1
135767,85630,103908,186070,106639,114351,224589,137727,106868,115357,77638,97375.2,4.073,5667,224589,105026
88998.3,59870,97421,75316.7,40292,122505,146485,79961,120059,95236.6,66808,93423.3,4.085,5698,146485,88498.3
50689.8,40537,81950,14244.2,10366,90055,89274.9,54644,107070,91414.2,62505,95847,4.105,5745,89274.9,87307.5
131846,80750,107005,177233,98217,118260,242385,122219,129971,103784,67354,100982,4.105,5747,242385,92634
77100.3,45179,111841,132966,71421,122009,236355,141375,109565,97608.9,65972,96963.9,4.12,5780,236355,86736.6
94721.4,58550,106023,152336,85889,116238,218145,127656,111991,98371.1,66382,97117.4,4.132,5791,218145,88336.5
117656,72454,106422,175694,98454,116951,248195,156966,103626,109369,72642,98670.5,4.163,5844,248195,97952.3
93768.3,75010,81925.1,74658.9,51329,95323.2,144052,97265,97060.9,101903,76409,87402.4,4.211,5928,144052,95276.8
134140,84393,104168,148977,73942,132041,215964,118160,119782,101201,80338,82555.1,4.226,5945,215964,91266.7
144215,74659,126593,96944,37624,168864,169887,85167,130728,95316.6,66653,93719.3,4.23,5949,169887,87501.9
119476,76134,102845,129687,74734,113725,198886,120461,108202,99805.4,71211,91851.6,4.271,6000,198886,90656.7
142906,86672,108056,221252,118799,122055,254301,129176,129017,112437,73643,100059,4.301,6030,254301,100739
130933,81555,105215,177091,99083,117133,231830,117146,129695,110539,71510,101304,4.304,6035,231830,99874.8
84793.5,57929,95928.2,112315,62391,117977,235931,131010,118022,105850,71304,97287.5,4.318,6054,235931,94997.2
100061,67047,97806.1,152630,91894,108851,225339,132565,111401,112228,78359,93862.4,4.324,6060,225339,101862
135969,85094,104718,204138,102287,130793,235804,134805,114637,101317,70017,94832.8,4.341,6096,235804,90469.9
116303,71059,107264,157015,83128,123787,212654,124596,111853,98256.7,63884,100798,4.348,6106,212654,88474.6
96883.2,71060,89351.8,97374.4,58963,108229,141423,80444,115214,94485.8,60057,103106,4.35,6108,141423,87980.4
109405,74317,96478,133402,78711,111072,195442,128041,100034,109615,77565,92615.8,4.354,6113,195442,100625
119037,76588,101859,121739,60343,132215,175269,101618,113036,94748.9,64160,96781,4.36,6123,175269,86686.5
98937.9,64357,100750,129732,75528,112569,220985,137862,105051,97936.4,71803,89388.5,4.368,6136,220985,87771.1
124883,78467,104303,180535,100499,117728,255547,160194,104545,102618,69025,97431.2,4.383,6165,255547,90863.1
124836,79657,102706,125029,70624,116022,211334,133082,104071,105108,73229,94065.9,4.385,6169,211334,95386.5
126663,81741,101553,194805,102394,124682,231281,127367,119004,109847,74991,95997.2,4.385,6170,231281,99207.9
136822,83765,107046,188560,100015,123556,223988,125687,116792,108139,70739,100186,4.398,6200,223988,97836
140025,86885,105618,221204,112850,128461,249313,147214,110988,108673,76571,93011.5,4.403,6211,249313,97204.4
93849.3,70255,87545.5,78477,46686,110163,149042,97051,100644,97314.4,72639,87798.5,4.424,6274,149042,90458.4
127651,79604,105092,175019,97766,117322,205159,115838,116070,109508,75291,95319.7,4.425,6278,205159,100071
136227,89947,99255.7,159466,86844,120340,215347,125278,112653,99608.1,66879,97607.9,4.428,6282,215347,89702.1
148874,93024,104883,206064,112592,119943,231780,133854,113481,111314,71674,101781,4.515,6389,231780,100652
138446,79096,114711,130729,58729,145881,204022,113608,117693,97661.8,69307,92348.1,4.516,6392,204022,88276.8
108649,76089,93580.1,110425,68088,106286,154929,100225,101306,94774.7,63752,97426.8,4.524,6404,154929,87647.9
85435.2,60527,92505.5,80553.3,43260,122033,146682,81474,117988,104510,67168,101971,4.527,6409,146682,97762.7
113317,68863,107842,182567,102221,117047,258821,157838,107465,103127,69254,97590.8,4.532,6419,258821,91221.5
105916,57514,120690,111903,48040,152658,168954,82486,134236,105666,69755,99274.6,4.536,6423,168954,97893.6
108430,73884,96178.9,134919,69332,127532,186064,95975,127053,98617.1,72526,89112.5,4.57,6480,186064,90058.1
95238,70858,88084.9,78597.1,53141,96929.6,121350,93366,85178.6,93769.4,68123,90208.5,4.589,6502,121350,88187.3
129176,81119,104361,213021,120448,115905,252785,136517,121351,115035,75390,99999,4.61,6534,252785,103407
121826,72712,109803,105185,56166,122733,206509,120253,112544,98043.7,72602,88501.5,4.629,6564,206509,88544.2
107770,65468,107882,165188,92421,117135,243529,132201,120725,99030.4,66378,97774.2,4.632,6576,243529,87828
129760,83434,101924,187206,108462,113115,234434,138526,110910,103370,69340,97699.5,4.637,6587,234434,92586.4
102831,65417,103018,162863,96431,110684,230836,140202,107902,103293,70885,95498.7,4.64,6592,230836,92674.7
101343,64471,103017,160689,93301,112870,237830,146717,106235,105106,72594,94887.4,4.646,6604,237830,94166.2
126894,86246,96423.1,121397,66044,120463,182185,120816,98825.2,106621,78314,89224.2,4.65,6612,182185,98240.3
102970,74145,91014,99103.3,61865,104984,135696,95416,93201.8,97237.1,68776,92656.3,4.654,6618,135696,90995.1
144669,78386,120953,152015,61155,162905,257982,126696,133446,110779,81099,89520.6,4.659,6627,257982,98912.1
134875,69339,127477,193708,95940,132321,252644,138555,119500,104643,73965,92718,4.662,6632,252644,93021.5
117010,64745,118439,119112,55165,141505,243681,139690,114324,110512,78051,92791.9,4.663,6636,243681,99302.5
69656.4,51649,88385.1,54706.1,36770,97503.9,102919,67144,100454,93231.7,71779,85122.8,4.667,6644,102919,88497.5
132988,83944,103825,191079,106290,117815,234908,127995,120277,102717,70676,95246.7,4.668,6649,234908,91911.2
102446,63499,105732,152499,87931,113660,208666,127257,107461,98941.7,66738,97159.7,4.675,6664,208666,89343.1
115960,75373,100826,147021,82002,117499,256815,156621,107461,113360,81551,91098.6,4.676,6667,256815,101547
118793,78224,99524.5,145063,87244,108969,191656,114673,109532,102507,70838,94834.4,4.69,6696,191656,93690.5
106912,75283,93069.9,133847,84629,103650,153023,119027,84254,103243,74930,90299.5,4.716,6767,153023,96204.1
66499.2,53735,81103.4,35158,22089,104310,111047,65858,110504,94029.6,74053,83215.1,4.758,6816,111047,88921.5
120080,73007,107792,203121,113814,116961,244473,147660,108504,108121,71080,99687.8,4.77,6830,244473,96875.1
166979,84469,129552,142743,56385,165909,242705,105726,150445,105557,61339,112779,4.771,6831,242705,94392.4
145572,90974,104868,177442,94862,122587,210589,138082,99949,102136,80953,82685.1,4.774,6840,210589,92449.2
130534,82272,103981,170110,96908,115040,234234,135700,113123,109946,68194,105660,4.791,6860,234234,99170.8
58722.3,39626,97118.7,93796.6,41374,148573,166372,80607,135266,111496,69670,104880,4.797,6868,166372,103843
115897,75984,99960.5,145967,82825,115498,215071,126458,111459,100705,70793,93226.7,4.839,6935,215071,90811.6
131286,81118,106067,172670,97270,116337,204985,124566,107845,105769,71264,97267.1,4.914,7045,204985,96339.2
121527,82379,96679.9,147443,90597,106657,195930,117839,108966,110027,69930,103114,4.923,7057,195930,101014
124019,79091,102764,168332,97363,113306,243200,131746,120978,113385,76762,96802.8,4.954,7100,243200,102197
117336,76324,100751,130563,75261,113692,183520,116739,103026,96231.8,63754,98921.6,4.96,7108,183520,87789.9
134647,85928,102693,178187,97763,119448,226040,139003,106572,110061,74931,96261.7,5.018,7166,226040,99663.5
88066.8,63687,90623.6,66377.7,36912,117851,116574,72839,104886,106985,64300,109042,5.049,7201,116574,101623
70912.8,55379,83918.8,52553.9,34912,98653,103197,76628,88259.4,91049.5,72860,81897.1,5.104,7261,103197,86302.4
112931,71929,102894,139933,75981,120696,230339,150542,100274,112990,80747,91705.1,5.107,7271,230339,102394
146698,86512,111129,211207,107887,128298,260602,148233,115216,106079,81856,84929.4,5.123,7297,260602,94091.1
125836,80258,102754,169302,96163,115381,236159,140738,109970,108890,68760,103785,5.132,7319,236159,98026.9
125080,79278,103399,146298,78047,122846,201743,103731,127459,101041,61393,107860,5.14,7340,201743,91760.8
109188,76030,94117.4,117320,70363,109272,194157,125819,101131,97810.6,68547,93514.1,5.142,7345,194157,88879.4
132367,76109,113978,202231,100639,131692,260214,131334,129848,106486,65113,107178,5.145,7356,260214,94516.5
146533,90514,106096,200666,109610,119979,232055,137615,110511,112728,76976,95974.9,5.162,7389,232055,102054
96997.5,59608,106644,179319,106659,110182,259685,163033,104388,113130,78570,94363,5.168,7397,259685,101185
134931,83205,106277,215032,117831,119598,244084,147753,108264,104137,66938,101956,5.2,7459,244084,92909
108864,70126,101738,142232,77990,119519,226336,152120,97509.6,110512,81510,88854.2,5.266,7533,226336,100100
147087,87691,109926,214724,110179,127721,245838,122770,131231,98654.3,66947,96575,5.273,7539,245838,87345.7
105227,64522,106881,123848,64060,126702,234970,145746,105657,99997,76176,86029.8,5.277,7544,234970,89188.4
135228,84894,104392,177176,100444,115601,218179,128645,111148,110500,75676,95694.2,5.284,7556,218179,100464
103051,69866,96664.2,190682,115957,107769,240699,147192,107169,104512,62272,109990,5.363,7681,240699,93439.4
106128,71937,96684.7,102645,62196,108158,208076,138678,98332.1,97960.7,69706,92100.4,5.382,7709,208076,88389.2
132443,82486,105227,210828,112811,122477,239618,144488,108684,107051,66538,105439,5.392,7725,239618,96028.8
67937.4,53303,83529,43582.1,28490,100253,116365,64230,118731,97142.8,69134,92087.1,5.413,7754,116365,91790
134847,85509,103350,186275,106215,114934,231285,131345,115402,107373,70421,99924.7,5.415,7757,231285,96733.9
132238,87583,98950.1,170683,97086,115216,241611,137478,115177,103167,66886,101085,5.423,7770,241611,92053.2
105250,68872,100152,149262,89518,109274,200776,120629,109079,96283.3,64329,98089.9,5.429,7788,200776,87047.6
136995,86526,103762,173329,93552,121422,228072,136211,109734,111380,75606,96545.1,5.442,7811,228072,100889
95596.2,64296,97439.8,136160,80893,110311,228884,135762,110489,99673.9,73769,88549.8,5.478,7858,228884,89145.2
129430,86236,98361.7,112615,63242,116700,165514,91663,118337,97972.2,69838,91937.1,5.51,7909,165514,90358.5
78143.4,60928,84053.4,59536.6,44273,88130.3,118739,76896,101197,103130,80034,84448.3,5.534,7946,118739,97668.2
118562,78734,98688.1,171723,102198,110120,214001,136616,102658,108596,75010,94879.7,5.534,7948,214001,98751.6
123658,83892,96601.1,135175,80305,110315,199662,121262,107907,101939,67259,99327.6,5.539,7955,199662,92754.5
140306,81784,112431,174590,87202,131212,246406,136976,117893,103512,72680,93337.4,5.547,7963,246406,92177.3
103788,73250,92858,97627.5,65346,97911.4,166223,105894,102873,103748,74115,91738.9,5.57,8007,166223,96101.7
131936,84650,102144,211538,117123,118366,231214,139819,108375,113991,77897,95902.5,5.578,8026,231214,103355
108813,72187,98787.2,145940,86808,110178,238731,145262,107705,104141,72580,94034.1,5.603,8074,238731,93159.5
117892,80890,95514.4,128407,76642,109800,182033,105474,113106,98389.7,70988,90833.2,5.608,8090,182033,90016.2
134861,87040,101543,226140,116940,126734,222841,130807,111646,110651,72901,99471.8,5.61,8098,222841,100400
131656,79332,108761,194288,106163,119937,258404,152784,110841,105733,77547,89356.2,5.614,8110,258404,93846.2
98136,63293,101614,178347,104736,111596,210649,126482,109147,107423,71938,97863.1,5.614,8112,210649,97733.2
136949,70889,126608,139677,71793,127503,244005,131878,121257,114230,80726,92735.5,5.616,8116,244005,103006
107429,56663,124252,108987,45590,156670,172737,76784,147433,100111,70088,93609.5,5.642,8157,172737,92165.5
94325.4,62842,98369.1,155648,89288,114243,205424,127413,105662,100825,76635,86222.6,5.651,8176,205424,91375.5
120352,78864,100013,170293,99363,112319,198114,122158,106285,95422.5,64489,96971.7,5.658,8188,198114,86309.2
79177.5,62624,82859.2,53486.3,32681,107257,121945,81253,98356.6,103222,73946,91482.1,5.658,8190,121945,97612.2
90597.6,70516,84199.4,57754.8,38041,99498.5,127343,92966,89769.9,99297.8,73552,88475.9,5.662,8198,127343,93440
149319,91057,107469,225847,122377,120947,257447,144939,116408,113183,70090,105829,5.669,8213,257447,101340
106922,75404,92929.1,116037,74631,101896,158094,98230,105475,105907,72189,96146.7,5.704,8244,158094,98634.9
127987,79345,105713,168966,85876,128946,219855,124623,115616,97644.7,70272,91063.9,5.709,8251,219855,87531.3
124911,76408,107138,202896,114330,116303,236332,133708,115836,105767,64205,107960,5.729,8277,236332,94895.8
122732,77544,103727,182938,98552,121652,256618,140464,119730,108751,73747,96643.1,5.752,8315,256618,96947.1
117683,78322,98471.4,144197,82041,115187,226403,130261,113906,108945,76792,92975.7,5.753,8318,226403,98530
114659,69709,107795,131887,67995,127118,202344,117786,112584,102597,72194,93134.9,5.772,8348,202344,93289
93525.3,60197,101820,151913,95037,104757,231679,142291,106706,101637,67090,99283,5.78,8370,231679,90980
86328.9,53873,105018,125861,70674,116711,193772,111062,114342,95255.2,65307,95589.2,5.798,8398,193772,86341.6
96784.2,71967,88135.5,70101.5,45940,100004,138138,87681,103249,94062.5,68131,90479.8,5.81,8423,138138,87708.2
99109.8,65374,99355.4,156832,91261,112624,241833,146256,108363,99011.8,70909,91509.3,5.811,8429,241833,87887.4
125893,80907,101975,151534,85699,115882,210715,122114,113086,105946,71400,97244.6,5.812,8431,210715,96253
112978,77281,95807.8,200204,118815,110429,217639,147027,97010.6,104266,75959,89958.4,5.814,8437,217639,94254.2
136759,89788,99819.7,174278,95573,119506,223588,134273,109129,107088,72823,96372.7,5.821,8452,223588,96803.4
129353,80700,105047,217097,118779,119783,217310,131516,108288,100159,68583,95708.8,5.826,8462,217310,90162.4
111577,76005,96207.9,128809,77775,108539,179762,113436,103855,96719.5,67703,93623.7,5.827,8471,179762,88450.4
117720,78713,98013,133839,83248,105364,213578,131544,106406,111753,75071,97559,5.858,8515,213578,101928
129992,82008,103882,146006,82942,115365,227004,135741,109598,100759,72292,91342.8,5.866,8524,227004,90317
122475,82120,97741.1,154397,90314,112038,182223,117729,101438,106076,72265,96198.6,5.87,8533,182223,97693.7
117297,73117,105135,166718,90796,120336,217735,124552,114566,98542.7,65308,98886.8,5.894,8562,217735,88526.9
136436,80084,111651,196850,110178,117090,240449,140006,112553,114241,74933,99914.8,5.897,8568,240449,103181
129562,81980,103574,197477,110439,117186,241763,146563,108105,111662,76013,96271.1,5.902,8577,241763,100540
120240,74815,105327,186671,102263,119629,254559,138199,120715,115321,76612,98648.7,5.926,8607,254559,103611
127568,81909,102068,160935,83629,126117,232731,152663,99908.1,106684,80028,87364.7,5.937,8628,232731,95978.1
51201,42180,79552.1,66457.8,47566,91565,114206,72312,103504,97079.8,74201,85743.1,5.962,8663,114206,91826.4
163886,88622,121193,187031,80981,151360,218076,107641,132773,110397,72631,99613.2,5.968,8678,218076,100366
88857,59016,98673.8,155011,91775,110692,252068,147673,111865,114383,84641,88564.6,5.973,8685,252068,102788
102966,67918,99355.1,120941,70009,113214,182778,122276,97963.3,99429.3,65956,98796.2,5.982,8703,182778,91021.5
116832,76186,100500,124460,70685,115394,201696,122587,107828,96496.4,66775,94705.9,6,8731,201696,87218.4
129344,78600,107846,177962,93786,124357,214065,120526,116398,97494.5,62362,102457,6.002,8738,214065,87647.5
120272,80256,98212.9,137836,80923,111628,178846,113901,102904,99917,67817,96556.3,6.017,8776,178846,91690
129066,89600,94402.8,196596,119214,108076,258767,157113,107939,116236,78992,96435.7,6.018,8779,258767,104333
134439,79539,110771,188657,102237,120933,243772,138716,115169,112651,77494,95268.1,6.025,8797,243772,101438
146331,83843,114380,144983,61936,153410,191574,100439,125001,106269,69465,100258,6.028,8804,191574,97456.6
132871,85065,102367,180831,102185,115975,225046,138161,106750,110809,77171,94102.6,6.032,8808,225046,100457
127176,82577,100932,186944,105772,115830,214489,129814,108284,104993,70112,98140.9,6.064,8852,214489,95127
143049,88157,106343,210169,117103,117620,236380,143903,107652,114712,77774,96661.5,6.067,8857,236380,103838
61443.9,49195,81853.6,70722.1,42633,108715,136694,81869,109423,102790,63662,105816,6.077,8870,136694,96501.9
109197,69838,102471,122188,62103,128942,236837,139987,110877,104986,77805,88431.1,6.078,8878,236837,94091.8
126735,79127,104967,190527,108556,115023,241832,148588,106662,111344,74667,97727.9,6.083,8885,241832,100220
117418,75737,101603,141263,81594,113462,186135,115650,105478,99892.6,69253,94531.1,6.101,8903,186135,91330.5
95335.2,66726,93635,76755.2,44634,112700,140141,95362,96309.9,103489,76969,88116.8,6.112,8916,140141,97042.6
127662,78172,107027,145158,79247,120043,194500,121927,104544,96147.5,67284,93649.6,6.129,8944,194500,87200.5
118208,79342,97638.9,137583,82346,109497,194815,111380,114629,98013.6,63602,100994,6.146,8967,194815,89052.2
96968.7,69580,91332.9,88551.3,56882,102023,140969,99007,93312.3,94125.5,71180,86662.1,6.157,8987,140969,87640.9
126626,84001,98790.8,145956,80864,118289,230775,138246,109400,104656,71242,96273.7,6.165,9006,230775,94040.3
120156,74847,105209,165993,92520,117580,197823,109869,118000,97165.6,64271,99078.1,6.179,9039,197823,88065.8
148321,73541,132176,105813,37511,184867,202961,90702,146648,99060.4,62476,103912,6.226,9098,202961,89724.2
107896,67021,105506,159741,88515,118271,238494,146581,106630,103748,74391,91398.5,6.249,9137,238494,92777.2
123309,77085,104835,199311,110757,117934,221184,126968,114167,100709,69393,95111.6,6.269,9156,221184,90534.7
127479,81251,102823,163685,95835,111935,213369,121974,114642,104554,74815,91587,6.276,9170,213369,94739.5
101896,74005,90235.4,94016.8,56702,108664,167577,112752,97402.7,102737,74496,90380.2,6.285,9188,167577,95028.4
119228,75058,104103,121539,72281,110197,190865,112775,110916,103436,66889,101344,6.291,9197,190865,94656.4
102251,57544,116452,189342,103231,120203,238447,112357,139082,97586.1,71151,89884.9,6.3,9207,238447,86617.5
139938,80725,113608,163192,81988,130445,244915,123941,129503,104544,70443,97262,6.307,9216,244915,93278.4
132755,85475,101787,181248,102366,116037,206379,122043,110824,106408,67026,104042,6.349,9261,206379,96914.3
116654,77753,98325,160884,95712,110160,184670,107638,112437,98528.4,68072,94857.8,6.366,9291,184670,90033.6
135490,83967,105750,229566,122085,123233,212582,121878,114309,109898,75647,95209.3,6.388,9312,212582,100120
104671,67142,102167,165807,89220,121793,239270,141635,110713,114911,82877,90866.9,6.396,9326,239270,103904
107705,67014,105329,114629,60638,123888,202624,119847,110801,104095,76403,89289.7,6.397,9330,202624,94774.7
109040,77236,92521.8,115837,71795,105739,170502,105432,105983,101092,72363,91555,6.404,9342,170502,93249.3
104957,63441,108423,150758,85438,115640,258015,156369,108137,108563,72640,97945.6,6.408,9350,258015,96694
146688,89566,107333,225465,115544,127883,253565,138280,120174,112638,74001,99753.5,6.408,9351,253565,100974
127086,79890,104252,185660,101435,119953,217051,130274,109190,103195,70049,96546.1,6.418,9369,217051,93210.2
78748.2,61683,83667.2,70816.5,45801,101330,119511,77287,101340,91970.4,70459,85544.4,6.423,9382,119511,86472.9
159079,87046,119769,212088,89776,154823,216350,101183,140130,103606,66341,102349,6.424,9385,216350,93654.2
118131,74305,104190,182319,102159,116960,232888,146773,103988,110192,76620,94251,6.429,9391,232888,99478.6
118592,71990,107960,181446,98953,120170,224960,132114,111593,114563,74310,101036,6.462,9442,224960,104215
114184,71486,104680,175245,101802,112816,234945,136537,112770,112133,77544,94769.1,6.466,9451,234945,101326
100083,71286,92009.9,120060,74873,105088,209007,124852,109710,104682,76822,89302.8,6.475,9465,209007,95067.4
117850,75835,101845,156222,89052,114968,227735,141544,105443,110234,77178,93606,6.477,9466,227735,99758.6
152277,79704,125209,194110,92240,137914,259342,142206,119518,112169,77847,94430.4,6.489,9489,259342,100239
131158,84586,101619,176122,98384,117319,221750,130621,111258,99337.8,70128,92833.1,6.491,9492,221750,89137.3
101407,62063,107081,138584,75747,119902,227891,123312,121116,97345.8,64983,98174.2,6.495,9503,227891,86862.9
122699,80301,100138,167021,98639,110969,235432,130787,117973,110775,73124,99279.9,6.502,9525,235432,99945.1
132916,82585,105476,191175,102886,121774,245432,133068,120875,101386,73028,90984.3,6.504,9529,245432,90095.7
82992.6,60817,89432.3,73572.1,35613,135389,112710,70226,105182,101316,70943,93593.6,6.516,9550,112710,96130.9
105128,69571,99030.8,152036,89567,111245,241112,135994,116193,109120,77439,92347.7,6.59,9624,241112,98029.3
143634,80062,117574,137941,64890,139314,209541,105217,130516,102371,70819,94734.1,6.594,9629,209541,92732
166706,97673,111855,150563,71906,137225,241890,138370,114566,111042,75587,96276.8,6.6,9639,241890,99915.4
60569.1,43129,92036.8,87347.3,49982,114529,181281,111579,106476,111756,80088,91449.9,6.606,9644,181281,103417
134540,83558,105522,191152,110909,112952,227135,134680,110525,110928,73179,99342.4,6.608,9646,227135,100480
145294,86267,110378,150550,70320,140308,217158,107457,132441,99276.3,64642,100649,6.638,9681,217158,89287
118534,78566,98875.8,144906,88455,107360,205521,133871,100612,98402.6,66749,96614.4,6.663,9707,205521,88948.6
95238.9,61656,101232,158666,93357,111382,259842,155894,109235,105767,74561,92964.9,6.687,9743,259842,93814.3
136436,86593,103259,169371,88013,126116,213399,112172,124677,97455.9,63424,100701,6.699,9754,213399,87639.6
107507,72550,97113.2,117370,70777,108679,210436,125302,110063,102570,74480,90252.4,6.731,9793,210436,92889.6
139043,81374,111981,206210,108877,124124,254436,138317,120554,106220,69057,100805,6.749,9815,254436,94516.4
84636.9,61283,90510.6,86161.8,51861,108881,137557,90563,99543.6,103300,74203,91234.7,6.775,9847,137557,96972.7
124629,79757,102407,177603,103561,112392,226365,134257,110497,108691,68497,103993,6.785,9857,226365,98278.7
113734,74108,100578,156964,90304,113913,260031,154242,110485,113358,79435,93523,6.793,9863,260031,101396
69845.4,56026,81701.1,43261.8,29156,97242.6,98336.8,66892,96343.4,94401.4,71496,86532,6.804,9877,98336.8,89878
131118,81786,105066,159538,84950,123078,242507,138048,115126,99286.3,66878,97294,6.805,9880,242507,88131
137270,81493,110391,198314,98770,131585,249055,124616,130979,99505.1,61023,106864,6.812,9893,249055,88048.6
119013,69427,112343,173077,92820,122202,242149,137442,115463,99217.7,67859,95821.2,6.823,9924,242149,88078.8
132700,80248,108372,94614.5,52810,117414,175361,110852,103674,98961.7,68603,94537.5,6.833,9937,175361,90895.1
90343.8,61624,96079,164227,94646,113716,241384,150546,105080,103486,73362,92446.7,6.834,9941,241384,92382.6
102172,68840,97268.7,112946,65316,113326,207010,126981,106839,103492,77135,87929.6,6.84,9954,207010,93969.5
108877,72294,98698.9,136691,77231,115992,210134,120863,113942,108262,74905,94721.1,6.85,9973,210134,98596.3
137044,83064,108125,228708,110986,135050,252494,125479,131874,109345,72685,98590.2,6.887,10037,252494,97730.2
111838,66299,110551,160778,85736,122897,218195,125260,114160,102306,69138,96976.5,6.899,10053,218195,92269.5
141947,87366,106479,226601,120267,123479,232156,141381,107614,104459,66759,102545,6.918,10087,232156,93779.4
58602.6,46526,82547,32752.7,21966,97718.4,94728.9,64526,96211.7,96845.3,67303,94302.7,6.984,10182,94728.9,92487.8
89278.2,64601,90570.4,80504.7,51453,102539,161378,117897,89706.2,104828,80731,85097.2,6.985,10183,161378,97404.2
97153.2,64229,99130.2,125291,75288,109062,195611,125554,102104,99181.9,71418,91013.3,6.999,10202,195611,90183.8
134970,80844,109413,208086,108011,126257,260436,131189,130102,99277.8,63013,103253,7.031,10237,260436,87297.7
115249,77456,97512.5,142471,80268,116322,184735,108829,111246,103077,69181,97646.3,7.042,10248,184735,94579.5
121986,73956,108098,147603,85262,113454,210014,119350,115320,104343,66654,102593,7.071,10292,210014,94682.2
117451,78596,97934.5,119970,70851,110970,184235,106547,113321,97367.3,62133,102700,7.082,10300,184235,88892.4
140360,85196,107970,222391,120040,121415,240483,140320,112317,115069,75919,99331.9,7.108,10329,240483,104007
140602,85095,108285,157211,85187,120946,227790,114133,130799,108566,74551,95437.4,7.113,10339,227790,98087.2
112448,75902,97090.7,142136,83537,111508,240406,144880,108747,109614,79043,90882.8,7.131,10363,240406,98555.1
72401.4,57018,83217.6,42275.1,28538,97082.5,106439,72519,96190,94284.2,70583,87542.5,7.147,10391,106439,89388
114660,73598,102100,157230,93803,109850,230098,146015,103275,112322,78528,93739.1,7.157,10413,230098,101738
132122,82466,104998,211782,117856,117765,200406,116708,112536,97945,66857,96009.7,7.158,10414,200406,88726.3
78813.9,59207,87238.8,75975.9,48149,103411,131115,76227,112726,103089,73330,92131.8,7.179,10433,131115,97057.4
109148,80051,89356.7,92006.2,53382,112954,184346,102887,117423,105791,80459,86169.9,7.217,10489,184346,97311.5
100389,64241,102412,145946,86601,110446,248944,156846,104018,102700,71423,94234.8,7.239,10520,248944,91248.3
60795.9,51816,76893.6,21718.8,16495,86290.7,90583.3,63436,93582,92249.3,70948,85212.4,7.244,10531,90583.3,88082.5
138845,82311,110548,201357,106468,123944,236744,135437,114557,103704,66301,102507,7.251,10548,236744,92813.4
138715,84489,107598,220689,118086,122479,250503,142122,115513,116166,74053,102806,7.263,10570,250503,104643
158128,82490,125628,173053,68296,166059,208144,99628,136918,106456,68835,101354,7.27,10586,208144,96881.7
121904,76165,104892,166366,91877,118669,188803,114603,107967,98005,63105,101781,7.285,10615,188803,89320.1
120460,75191,104993,176592,99250,116606,253992,145852,114127,103829,71223,95538.9,7.293,10629,253992,92145.8
122057,74987,106674,158197,92834,111679,230243,133128,113344,109212,63828,112134,7.293,10630,230243,98620.8
130433,78438,108979,237480,125474,124038,220465,122229,118207,100758,62048,106422,7.333,10673,220465,90616.4
125593,78334,105074,159016,79802,130589,170928,94907,118031,109572,66065,108695,7.337,10683,170928,101710
100577,67190,98100.9,130988,76997,111490,205056,136613,98369.6,99076.1,69278,93724.6,7.338,10685,205056,89643.5
121431,80445,98925.8,133675,78052,112240,203663,127599,104603,100622,68654,96052.1,7.346,10695,203663,91253.4
116699,81121,94279.1,140159,81512,112688,190649,116563,107190,107101,77558,90499.9,7.357,10713,190649,98331.4
130961,85483,100402,152070,87878,113408,221706,124267,116923,111374,71612,101924,7.369,10733,221706,101176
102925,67292,100239,151151,77356,128055,222434,126102,115600,108284,77231,91886.6,7.394,10763,222434,98051.9
95069.7,58823,105919,104409,33009,207293,196069,88884,144565,103767,77027,88286.5,7.395,10764,196069,94747.4
119453,74638,104886,149418,86775,112846,204850,119691,112164,95981.6,63135,99631.7,7.399,10769,204850,86558.5
131547,83916,102734,163970,93263,115222,206053,132978,101550,102660,73986,90934.8,7.414,10800,206053,93181.3
123234,76469,105615,200420,109552,119895,252259,141943,116470,110379,76136,95011.4,7.423,10821,252259,98774.9
96976.8,68226,93153.2,101484,62368,106639,152989,95388,105110,104220,61043,111891,7.431,10833,152989,97182.4
130839,83187,103077,190588,106319,117480,235876,155125,99650.9,97161.3,72529,87793.4,7.44,10846,235876,86311.1
124402,78889,103345,171137,93168,120381,207011,118778,114219,100054,61509,106605,7.496,10933,207011,90531.7
122577,74674,107577,199851,111194,117789,214433,117179,119928,96546.4,58436,108277,7.504,10951,214433,86682.5
115862,75253,100901,126898,72235,115130,202442,113649,116739,96776.7,68696,92325,7.505,10956,202442,87464.3
116981,79061,96969.1,136562,78334,114251,231659,142508,106534,104775,67506,101717,7.584,11083,231659,94118.4
114314,80692,92842.5,132602,82216,105700,181946,119291,99957.4,102281,72127,92934.3,7.593,11100,181946,93911.2
122117,80389,99554.5,172754,97002,116715,207646,119645,113739,102109,70908,94373.4,7.603,11113,207646,92557.4
119030,71255,109477,181032,105219,112757,242758,146771,108396,105604,84624,81783.7,7.612,11130,242758,94437.2
114150,74814,99993.5,159861,91609,114363,225522,133433,110766,103676,72548,93655.8,7.613,11134,225522,93302.4
157352,72828,141597,148926,53409,182741,187000,79578,154002,108823,69178,103094,7.615,11136,187000,100221
119358,77908,100404,148543,89840,108358,196136,118666,108321,102602,68836,97683.7,7.674,11276,196136,93580.2
114396,74843,100171,150250,85709,114886,237836,149441,104301,111453,77798,93886.3,7.701,11307,237836,100512
139915,92036,99629.1,230739,117956,128198,219492,141245,101842,106228,91478,76102.8,7.702,11310,219492,96130.9
121237,75767,104866,107094,61310,114476,239611,145375,108018,98853,73930,87629.3,7.738,11353,239611,87830.9
134500,91082,96776.1,203307,117626,113274,216818,125076,113606,108267,70819,100190,7.767,11375,216818,98293.1
120322,79778,98842,166791,101154,108061,201719,112227,117795,97061.2,63098,100812,7.803,11429,201719,87782.2
126839,78893,105364,159448,88067,118655,216529,129718,109395,107992,76697,92277.1,7.806,11438,216529,98031.8
126324,77551,106753,164860,80502,134211,222801,116329,125519,96523.6,65224,96985.3,7.81,11455,222801,86274.7
119411,76201,102698,169854,96042,115903,208291,121964,111923,98123.7,64072,100366,7.82,11471,208291,88542.4
171449,92394,121611,192996,77687,162809,244693,121708,131760,108577,74273,95804.7,7.829,11485,244693,97321.2
121917,81593,97924.2,163937,94812,113316,189830,107532,115693,106472,71024,98245,7.833,11488,189830,97739.9
112289,68344,107676,142301,79902,116716,209994,124401,110627,98923.1,68916,94071.4,7.836,11496,209994,89263.4
131327,80180,107342,186242,93977,129878,247394,124662,130058,103375,64503,105030,7.849,11511,247394,91994.6
132124,82476,104986,181303,101803,116714,209838,126793,108460,104223,73914,92409.3,7.851,11514,209838,94570.1
113841,77335,96472.3,125350,73483,111793,180683,117571,100716,102532,73289,91685.9,7.857,11520,180683,94221
110631,67065,108108,156614,84795,121043,212462,127449,109251,97969.3,67641,94920.5,7.863,11532,212462,88196
120652,77688,101780,164582,92210,116972,251015,134972,121881,107168,76861,91377.9,7.864,11536,251015,95621.8
44622.9,34795,84046.7,40597.7,26421,100701,105535,61463,112529,94435.8,68274,90648.6,7.873,11552,105535,89581.1
90280.8,62839,94155.6,92389.4,57247,105767,182901,136619,87737.6,94877.6,72778,85436.5,7.878,11561,182901,86464.2
134866,82302,107392,224084,109858,133678,257663,138189,122196,103552,66251,102434,7.894,11584,257663,91699.5
100251,73553,89324,91022.4,60589,98454.2,142695,106896,87484,102455,75700,88698.9,7.929,11613,142695,95891.2
108737,77712,91700.1,108598,66679,106737,205451,127091,105943,99901.2,74347,88061.8,7.93,11616,205451,90450.5
113953,73530,101564,149532,88413,110841,245163,144431,111244,112587,76096,96962.9,7.963,11676,245163,101309
96294.6,70837,89088.5,74264.2,49751,97826.7,165681,107229,101261,94231.3,67321,91732.8,7.972,11697,165681,86609.9
113528,80270,92689.2,105761,63513,109130,191127,122751,102041,108036,77785,91023.7,7.989,11724,191127,99244.7
132892,89071,97778.4,149537,88065,111282,229824,132740,113468,97576,59280,107874,8.011,11777,229824,87004.1
98344.8,68891,93555.4,115583,46497,162910,156166,86084,118890,96271.9,67606,93324.2,8.012,11779,156166,89088.2
131899,80698,107117,200811,108628,121150,223852,118311,123998,109976,67638,106558,8.015,11781,223852,99678.4
125928,73219,112714,215927,106388,133013,260745,136709,124997,100905,63157,104706,8.02,11786,260745,88910.8
90333.9,66920,88465.7,87354.4,52987,108043,127965,77358,108409,92664,64802,93713.6,8.024,11790,127965,86777.6
120434,76730,102864,167440,96563,113639,222149,133832,108784,103037,72833,92714.1,8.04,11807,222149,92818.4
60687,51286,77549.1,31587.3,21812,94906.6,93258.9,70488,86707.2,102711,77850,86464.7,8.09,11874,93258.9,98421.3
116395,71443,106771,188348,106485,115919,244839,144259,111229,99599.5,65191,100127,8.131,11946,244839,88336.9
116950,74976,102225,204210,120079,111452,246819,144984,111568,99562.3,70464,92599.3,8.159,11988,246819,88208.6
147440,81928,117940,215856,104535,135326,248949,108156,150848,101344,64576,102851,8.162,11992,248949,89892.5
134185,79959,109980,189961,97365,127862,253738,146570,113454,102541,74016,90792.9,8.176,12017,253738,90869.1
120053,82441,95435.3,161510,96232,109992,200189,124441,105428,98175.2,64713,99423.8,8.219,12087,200189,88966.5
129593,76598,110877,132976,69433,125512,182302,98025,121881,98801.6,68846,94051.4,8.223,12101,182302,90415.7
107996,70203,100817,157793,91499,113019,234686,153315,100319,101368,71300,93173.6,8.237,12125,234686,90572.9
105873,72761,95360.3,120683,73770,107213,178628,108370,108024,97420.2,69275,92162.1,8.246,12134,178628,89203.3
100340,65531,100348,125824,71918,114659,251679,148342,111189,101530,75809,87771.5,8.247,12136,251679,89952.8
121070,78924,100533,178241,99688,117178,230685,131667,114821,100462,68786,95715.2,8.252,12141,230685,89850.3
143859,86990,108379,224724,114988,128079,232559,130264,117001,112926,72201,102501,8.282,12186,232559,102228
93850.2,72188,85202.1,70194.4,47448,96953.7,127180,90283,92319.3,99971.3,69158,94735.5,8.307,12218,127180,94121
54447.3,46751,76324.7,15005,11981,82077.2,76708.1,60858,82604.4,90723.5,67155,88536.3,8.336,12263,76708.1,87194.9
103166,70142,96391.5,104949,64290,106983,229465,143753,104611,108683,80039,88989.6,8.345,12276,229465,98127.5
99433.8,65928,98842.6,123093,73996,109020,227823,131484,113555,97134.2,69909,91058.2,8.352,12284,227823,86654.3
116020,73516,103426,168517,94028,117454,260186,149170,114309,101673,65177,102233,8.376,12309,260186,89704.5
115100,74613,101098,142311,82827,112602,185384,113275,107255,101549,73748,90240.9,8.392,12335,185384,93020.9
123019,79307,101658,139040,77258,117944,205796,109709,122934,98938.8,66402,97648.5,8.414,12366,205796,89472.2
110828,76110,95430.5,129362,81787,103658,174683,110911,103218,102099,72764,91957.1,8.414,12367,174683,94063.7
106879,72585,96499.2,130084,73899,115363,242848,148131,107441,114604,78347,95864.8,8.42,12379,242848,103433
113190,68115,108905,211424,114252,121275,252622,150597,109935,110988,73023,99608.5,8.427,12396,252622,99367.4
102727,65853,102232,165585,100130,108377,223583,148709,98533.1,105906,72639,95549.8,8.435,12418,223583,95621
122357,78628,101984,131880,74081,116668,218177,119782,119370,110723,79527,91244.2,8.459,12456,218177,100687
126287,82414,100424,166927,95274,114824,208354,121822,112087,106383,69070,100940,8.463,12462,208354,96799.1
128200,81807,102702,180377,102576,115243,252978,137758,120350,114390,77551,96667.5,8.495,12512,252978,102753
120117,81524,96560.1,126531,73734,112463,208325,112772,121066,101476,68595,96950.4,8.5,12524,208325,91892.7
131795,87065,99205.5,162462,86171,123558,202765,132466,100316,97760.5,85647,74805.1,8.518,12551,202765,88433.3
140854,83656,110345,197762,95075,136319,251511,122311,134763,112325,65143,113003,8.53,12565,251511,100756
110901,74815,97146.1,136249,79339,112545,208510,134262,101778,106170,79125,87936.5,8.542,12585,208510,96578.9
109570,72460,99099.5,141716,85739,108323,206531,110510,122479,97095.6,66068,96313.7,8.557,12605,206531,87595.2
103873,70693,96295.2,113273,71595,103687,198141,111702,116250,98561.3,68458,94354.4,8.558,12608,198141,89446.8
117463,66281,116142,187085,98345,124672,257859,140221,120517,100182,67619,97095.4,8.561,12614,257859,88320
143371,86218,108979,198164,100722,128938,243662,130617,122255,97650.4,61826,103510,8.564,12620,243662,86442
126008,75892,108813,157851,76757,134775,243896,110728,144354,116618,68166,112119,8.57,12645,243896,105399
106247,69553,100111,145052,85782,110817,205079,131754,102009,98685.7,66870,96717,8.574,12653,205079,89252.1
84607.2,56839,97553,125028,71785,114144,218447,141623,101086,107383,84513,83270.6,8.582,12667,218447,97334.4
132663,76020,114367,163416,82551,129734,239446,124910,125629,105626,69780,99201.4,8.584,12672,239446,94611
124572,78693,103744,176200,98844,116825,250236,149029,110042,104186,68995,98962.3,8.592,12683,250236,92674.7
128753,74790,112822,178731,80432,145630,237188,124105,125252,103139,73718,91691.3,8.594,12685,237188,92228.1
139224,81183,112390,222582,115454,126346,251570,148479,111038,109874,74405,96777.2,8.602,12704,251570,98301.8
78975.9,62308,83067.4,45057.9,30805,95858.2,108830,79633,89564.5,92992.9,71735,84956.9,8.604,12708,108830,87986.7
119849,76834,102226,147969,77332,125398,216124,134113,105612,96334.8,79975,78942.1,8.627,12757,216124,86393.1
114857,72711,103523,118065,67295,114979,217626,135618,105166,108503,75139,94635.7,8.628,12761,217626,98491.9
130712,81322,105338,180932,95291,124435,229403,120287,124986,96812.4,65903,96273.3,8.69,12870,229403,86259.9
111995,74800,98124.5,132259,81199,106747,185899,122244,99661.7,106719,74178,94286.3,8.726,12908,185899,98168.1
121759,77219,103337,174133,100297,113782,197247,125110,103323,102161,70288,95253.8,8.738,12919,197247,93087.3
137462,84120,107094,209349,112186,122296,222708,123583,118102,107545,69351,101629,8.739,12923,222708,97300
136618,85494,104726,197862,111460,116338,245705,143225,112428,112898,73696,100398,8.739,12924,245705,101596
93582.9,61839,99177.7,120498,67044,117787,170286,105533,105748,95225.1,72991,85499.2,8.745,12935,170286,87392
125848,78165,105515,233483,132100,115833,236475,131285,118046,114081,72974,102453,8.755,12947,236475,103203
122898,75436,106769,140413,77036,119452,228661,134234,111637,110753,75218,96497.4,8.755,12949,228661,100235
98425.8,64520,99975.7,140445,80906,113764,201155,124288,106067,96045.9,66262,94993.6,8.757,12950,201155,86792.8
131006,87134,98533.2,167842,94437,116476,196787,115367,111788,108075,72661,97477.5,8.762,12955,196787,99022.9
117670,74177,103963,145301,84066,113273,182630,119823,99887.4,100493,67644,97361.6,8.768,12959,182630,92092.3
136095,80827,110349,207975,98784,137976,249910,141142,116040,98102.3,68786,93467.2,8.77,12962,249910,86606.4
132088,84522,102418,189701,102129,121731,193975,120789,105244,107070,72641,96597.3,8.772,12964,193975,98147
129961,83119,102469,157562,89070,115931,228977,133572,112346,110735,73471,98775.3,8.788,12983,228977,100202
134177,82725,106297,214547,118598,118557,235934,135470,114137,103380,65462,103497,8.79,12989,235934,92527.4
145785,87193,109575,186054,93808,129981,242092,135388,117187,100548,78526,83914.7,8.793,12990,242092,89411.4
120308,79931,98641,143818,82532,114201,194280,126323,100792,102251,69827,95967.2,8.802,13006,194280,93313.9
131706,75817,113846,186476,94366,129505,257832,142245,118790,113531,77265,96296.4,8.817,13023,257832,101670
131047,85183,100822,173104,102391,110797,219612,129370,111251,98507,65674,98300,8.819,13027,219612,88404.8
120668,78934,100187,118022,66851,115701,203523,120434,110750,103868,75090,90652.5,8.834,13051,203523,94506
113769,70048,106441,153558,87670,114789,217283,139599,102005,99503.7,63988,101911,8.842,13071,217283,89508.7
120072,75429,104324,183791,101627,118521,223419,137073,106819,102715,69929,96262.8,8.898,13119,223419,92438.2
124632,77512,105376,170366,94259,118451,242638,140100,113501,112329,79124,93039,8.906,13132,242638,101168
136657,85133,105199,207645,111691,121838,228656,132478,113114,104846,67181,102279,8.945,13174,228656,94328
107910,74976,94323.4,130136,82520,103352,178165,104062,112205,104958,72174,95304.5,8.952,13185,178165,96762.1
125680,76761,107301,178736,94552,123886,240299,137354,114654,97257.2,66167,96329.7,8.992,13244,240299,86203.4
113506,66391,112044,187570,100061,122851,241926,135361,117130,97521.7,62373,102467,9.009,13289,241926,86393.1
121377,77817,102221,175328,97405,117964,216659,132311,107315,102628,71581,93961.3,9.021,13318,216659,92661.9
124232,80676,100918,159770,89669,116770,194108,109287,116401,100214,63537,103367,9.03,13331,194108,91285.4
117926,77518,99698.2,151417,87249,113735,195574,131345,97583.7,100967,72922,90740,9.059,13369,195574,91970.2
146754,93464,102902,201537,107348,123038,231900,128463,118305,113140,70080,105804,9.063,13375,231900,102473
113258,76968,96435.7,130197,77258,110443,166755,114122,95761.3,98459.8,66570,96930.5,9.082,13389,166755,90789.1
108351,75904,93551,119798,74255,105732,151749,102950,96600.3,104500,82627,82884.8,9.084,13393,151749,97519.7
63580.5,52500,79367.9,61818.9,36976,109567,117021,83220,92154.5,98575.6,75248,85852.8,9.151,13458,117021,93192.6
106892,68712,101951,160866,96082,109724,213445,141261,99024.6,104732,71895,95468.4,9.154,13463,213445,94913.3
127185,76186,109406,167034,83480,131130,192600,104868,120363,101990,66751,100134,9.154,13464,192600,93130.9
114764,79773,94282.5,119984,72500,108459,157919,102507,100963,95107.9,70885,87931,9.166,13475,157919,87843.6
117602,72185,106770,174200,100973,113063,235251,128956,119555,109036,76277,93682.1,9.169,13481,235251,98214.5
113887,71887,103825,152908,85081,117782,252768,127306,130123,108220,76415,92812.6,9.185,13504,252768,96592.2
140692,86666,106390,204807,114929,116787,243545,135642,117670,111990,73282,100153,9.206,13534,243545,100787
119642,73490,106693,205129,113148,118812,250114,143478,114244,104549,67620,101327,9.209,13536,250114,93043.5
125834,78894,104529,185487,104878,115907,217364,119337,119369,104647,72044,95194.2,9.224,13553,217364,94648.6
132376,87742,98873.6,154928,91134,111411,227083,136470,109050,105831,72525,95632.8,9.225,13555,227083,95385.6
103078,69814,96761.6,174627,103508,110565,244031,124991,127952,109671,65539,109666,9.228,13557,244031,98445.6
140313,77055,119337,102275,44239,151511,165480,82745,131064,96370.6,66159,95463.1,9.245,13577,165480,88758.5
132617,86644,100309,170117,98749,112900,242744,143476,110879,106669,74293,94096.2,9.26,13598,242744,95503.2
122735,81162,99104.8,149036,87628,111462,190572,108030,115610,105185,70062,98390.1,9.269,13615,190572,96418.8
128297,81101,103674,197838,114769,112970,193498,117002,108383,96536.4,59231,106813,9.27,13616,193498,87635.5
106198,72132,96487.1,146362,89001,107774,221793,136755,106288,111599,80300,91080.1,9.271,13619,221793,101396
142480,86752,107635,223141,124162,117780,245614,131262,122629,112025,74762,98200.4,9.271,13620,245614,100727
96259.5,67989,92786.5,96875.3,61066,103967,176290,105041,109989,95182.2,68891,90546.8,9.275,13637,176290,87072.9
130220,83145,102641,172873,97852,115781,200759,126813,103751,101340,66543,99806.2,9.284,13652,200759,92104.9
105157,74211,92864.4,158086,93349,110985,246674,158938,101713,104410,75182,91014,9.285,13654,246674,93063
99618.3,65912,99050,108907,65504,108961,234290,155589,98685.7,104464,65276,104880,9.288,13658,234290,93687
119632,81789,95858.6,143586,86523,108758,196478,116322,110696,107969,75267,94010.3,9.302,13675,196478,98931.3
130783,82197,104273,166431,94381,115566,220576,117727,122790,106780,69577,100578,9.302,13676,220576,96633
102673,64280,104679,142214,82165,113432,249652,163785,99894.4,113797,77788,95873,9.387,13782,249652,102313
133545,81451,107451,173633,89755,126781,227863,132854,112403,111072,72990,99729.3,9.397,13795,227863,100591
118754,73590,105757,178392,100884,115887,213768,138788,100942,105697,68814,100662,9.412,13812,213768,95863.7
55225.8,43659,82898.8,20879.4,14442,94748.3,81081,57882,91802.7,96506.4,62503,101189,9.433,13832,81081,92776.7
111655,76593,95536.3,123586,76070,106472,207863,131178,103848,102332,71449,93863.4,9.445,13849,207863,92770.5
97209,66517,95775.4,139757,84286,108667,217336,135672,104983,106286,75290,92516.6,9.452,13857,217336,96288.7
106811,72175,96986.1,147186,89464,107819,229788,146984,102456,98319.6,69989,92064.1,9.463,13869,229788,87749.4
127997,68435,122575,177010,88073,131715,238284,131472,118779,97474.5,69144,92388.2,9.473,13884,238284,86513.5
123919,82274,98708.8,141764,85371,108827,163924,96835,110940,96994,71620,88754.6,9.509,13929,163924,89453.5
149104,90186,108350,221128,122763,118047,246862,137266,117861,113399,77688,95661.1,9.533,13966,246862,102043
137500,77224,116689,181004,85113,139371,250031,125651,130409,107168,72039,97494.3,9.548,13987,250031,95667
118719,77975,99780.3,152688,88933,112518,219707,123661,116437,97081.3,69927,90985.1,9.553,14000,219707,86974.8
125232,79558,103160,194990,112374,113718,238048,141264,110437,105857,71311,97284.5,9.561,14016,238048,94907
129203,82553,102570,153796,87550,115125,231441,142889,106150,107758,70882,99630.4,9.573,14038,231441,97111.4
104515,67203,101923,109933,60724,118644,212439,134102,103820,106449,79573,87671.1,9.602,14080,212439,96677
118678,75309,103277,176408,99824,115814,224473,123888,118745,114739,78183,96178.6,9.608,14089,224473,104413
117369,77790,98880.3,154664,69830,145154,183010,106855,112243,103609,71226,95332.2,9.616,14098,183010,95190.8
119954,72647,108212,214694,124335,113164,248065,141064,115247,115677,75111,100931,9.631,14117,248065,104266
123153,78624,102653,193274,114815,110320,224443,131717,111672,99402.2,69409,93855.6,9.648,14137,224443,89077.8
93098.7,70952,85992.2,77250,49057,103199,128464,80300,104845,98025.1,70528,91086.8,9.673,14179,128464,92115.7
110810,68425,106131,156395,84436,121388,249441,154608,105734,108091,75932,93291.9,9.682,14196,249441,96616.6
95331.6,65932,94759,106272,63853,109073,181105,117528,100988,99447.9,71014,91776.5,9.691,14210,181105,91117.1
112885,74830,98864.7,107675,61704,114362,190673,124025,100754,108833,78412,90961.6,9.698,14227,190673,100062
80416.8,55364,95191.7,102747,60019,112192,197746,128448,100893,96346.2,70368,89730.4,9.703,14240,197746,87249.9
106330,67618,103057,149632,88329,111020,228354,152315,98252.9,96710.9,66937,94686.7,9.707,14248,228354,86206.6
128009,80042,104810,140529,73820,124759,198827,118748,109731,104981,74467,92390,9.716,14271,198827,95834.5
119381,81099,96472,150560,81552,120992,180872,101282,117036,107828,73017,96780.2,9.719,14279,180872,99507.6
127807,85662,97779.3,162341,94767,112267,181029,120729,98269.2,108059,72287,97967.5,9.726,14292,181029,99732
126559,84718,97903.2,148179,81358,119362,202534,122165,108650,99322.1,68123,95550.3,9.732,14299,202534,90005.5
135220,80062,110686,218707,110580,129618,244155,130625,122495,102444,61733,108755,9.733,14304,244155,91212.6
134824,84601,104442,216945,121047,117456,248435,143484,113472,117158,76349,100566,9.743,14329,248435,105730
104430,72880,93906.5,88109.4,50973,113282,157274,94247,109363,97151.3,73321,86836.1,9.749,14339,157274,89916.7
118601,75159,103416,168282,96719,114027,241204,148021,106792,112284,75492,97475.5,9.817,14409,241204,101188
135443,88324,100498,190174,102930,121085,230972,129421,116959,108403,71699,99084.7,9.835,14435,230972,97777.9
136291,78346,114006,203495,108700,122688,240051,128726,122213,104067,74584,91442.2,9.883,14488,240051,93024.5
95894.1,65974,95257.5,110789,61565,117935,167878,107513,102332,105580,81295,85113.2,9.887,14499,167878,97857.4
125624,80875,101798,181693,103974,114523,219072,136038,105537,97385.9,64813,98472.2,9.888,14502,219072,87308.6
110504,74910,96675.7,131184,83425,103054,234350,151997,101044,104200,71142,95988.9,9.89,14509,234350,93419.7
154013,86624,116520,161195,80124,131847,222835,108767,134266,103126,65233,103605,9.917,14559,222835,92875.4
145565,89667,106391,205781,107179,125828,222954,126546,115464,106591,70036,99742,9.92,14564,222954,96334.9
132880,82763,105222,173443,94359,120463,229090,133286,112642,102500,68969,97397.5,9.924,14574,229090,91961.4
102231,72647,92224.2,82962.9,46174,117751,128159,80949,103757,98807.3,76337,84826.9,9.942,14615,128159,92911.9
119889,75360,104260,154667,87991,115197,240971,134774,117176,98090.8,63497,101241,9.964,14667,240971,87006.2
73565.1,61581,78289.8,43981.1,32117,89745.1,106605,84307,82869.4,91813.1,70517,85327.9,9.999,14696,106605,86909.3
109057,65748,108705,144065,78058,120954,206541,134274,100808,100310,74107,88708.6,10.009,14707,206541,90809.3
137813,84048,107459,225462,123139,119994,258500,148331,114211,108488,72386,98222,10.014,14710,258500,96597.4
119821,69470,113035,193738,103005,123264,256372,136414,123166,106209,69664,99915.4,10.05,14766,256372,94415.9
112468,71159,103581,151283,85357,116153,237075,152383,101960,113508,79861,93147.3,10.096,14845,237075,102602
108391,69060,102860,146441,85186,112661,204241,124181,107787,102910,75946,88804,10.099,14850,204241,93514.9
136096,80118,111326,200864,96252,136764,261471,132329,129494,112821,72094,102559,10.101,14854,261471,100794
124916,81436,100527,174178,98211,116229,206518,119931,112851,106699,72589,96332.2,10.102,14860,206518,97199.6
100829,65703,100573,141969,71045,130960,166255,90125,120895,105691,74952,92413.6,10.104,14863,166255,98043.6
109264,68384,104713,162326,92596,114889,250699,150602,109094,106126,71997,96602.3,10.105,14864,250699,94593.9
129236,83741,101141,185773,102971,118235,210382,120534,114387,102334,67611,99193,10.105,14865,210382,92656.1
128772,80815,104426,158760,89833,115820,223425,127399,114933,103346,72221,93780.1,10.114,14885,223425,93068.6
130244,83678,102006,187663,97975,125529,217803,121648,117338,109977,71447,100878,10.123,14902,217803,99958.1
103323,66226,102246,123719,72778,111408,242828,153457,103703,105819,76365,90812.9,10.125,14909,242828,94648.5
140690,84359,109298,209588,108567,126517,220083,131053,110057,102591,66725,100763,10.13,14923,220083,92467.2
120849,74751,105951,211955,112194,123809,230802,129834,116501,101819,66447,100423,10.158,14963,230802,91202
124456,76259,106956,189283,105873,117168,212406,117495,118475,100858,66889,98817.8,10.174,14983,212406,91087.2
106709,71802,97397.1,131091,79710,107780,204408,143501,93352.1,100143,72908,90017.1,10.196,15017,204408,90740.1
116842,71874,106539,160573,86842,121178,219910,114691,125659,97127,61629,103284,10.207,15038,219910,87011.2
112748,72523,101885,153721,88455,113891,210121,124107,110957,98173.8,69478,92603.7,10.217,15058,210121,88508.2
173089,81438,139291,193875,68995,184155,241335,94384,167572,97687.6,67036,95501.7,10.218,15059,241335,86586.2
97056.9,71439,89037.1,96379.1,59840,105553,152005,99588,100030,95657,70249,89239.4,10.229,15079,152005,88664.8
103870,63951,106444,157916,89128,116116,249632,131772,124153,101068,69034,95946.9,10.238,15091,249632,89585
123514,74201,109091,174983,96733,118550,227965,128698,116085,102521,65523,102541,10.26,15132,227965,92034.6
122894,83816,96091.3,125322,77961,105349,197523,130819,98952.5,103638,75325,90169.4,10.28,15162,197523,94551.8
105264,62764,109913,213041,118242,118079,257426,144841,116477,104898,67375,102034,10.297,15178,257426,93056.1
141566,89734,103391,192255,104378,120711,222865,115405,126560,110054,69448,103855,10.305,15195,222865,99802.4
84601.8,66371,83537.4,88921.7,51479,113203,141577,88484,104860,100021,74877,87543.6,10.333,15236,141577,93508.8
124151,81482,99855,179301,103346,113702,222886,129446,112843,100848,70839,93298.4,10.338,15248,222886,90595.1
126670,83188,99791.1,157393,95246,108298,236408,139399,111143,104451,66342,103182,10.376,15300,236408,93576.7
128071,74392,112825,212422,112309,123955,226552,122592,121112,99552.3,62489,104407,10.39,15319,226552,89130.9
117476,77561,99262.7,159644,88579,118114,229525,139036,108189,101316,72580,91482.7,10.417,15370,229525,90757.4
114485,73521,102051,175651,102143,112700,204652,122221,109736,101684,68061,97912,10.42,15379,204652,92270.5
106951,67406,103984,138265,78898,114849,238520,135667,115221,112204,82587,89037.9,10.421,15384,238520,101232
80701.2,54002,97937.7,91730.2,55383,108546,188402,120688,102306,95195.1,69110,90272.1,10.428,15399,188402,86528.6
100904,66122,100009,139800,80209,114225,214533,122500,114772,99136.2,66491,97712.3,10.43,15404,214533,89267.7
121918,73281,109033,189424,104663,118610,235883,129392,119473,101603,66003,100884,10.441,15430,235883,90752.3
74634.3,55007,88920.2,64940.6,43731,97321,129681,83712,101524,99492.2,76873,84819.4,10.442,15431,129681,93526.9
145287,88740,107297,219303,122361,117458,229898,136736,110188,99522.3,63964,101968,10.447,15441,229898,88947
135393,83810,105872,207532,109501,124207,240789,131380,120112,104732,66094,103848,10.45,15447,240789,93655.5
73588.5,57792,83449.2,40674.9,26389,101014,114276,85389,87706.4,102886,74790,90155.3,10.452,15452,114276,97629
130208,81314,104943,238480,130498,119764,231897,134044,113378,109588,71050,101083,10.455,15460,231897,98920.8
138578,86616,104851,176862,104499,110918,248109,136097,119474,109276,65783,108866,10.468,15486,248109,97863.3
128530,84777,99358.7,169193,92167,120306,195484,113308,113066,96056,63386,99314.1,10.473,15496,195484,87063.7
135575,82375,107861,215102,118183,119280,247387,147276,110084,104027,72226,94391.2,10.512,15558,247387,92647
119968,73992,106258,149057,80208,121791,225974,137500,107705,108550,78318,90833.8,10.512,15559,225974,98155
119527,76095,102942,142737,81493,114788,229611,143598,104791,104007,66589,102362,10.531,15589,229611,93444.7
127453,81226,102833,159139,91654,113790,211966,137294,101180,109551,75889,94605.6,10.533,15592,211966,99800.4
128307,81238,103507,178284,104045,112298,235704,127129,121507,110678,73850,98217.6,10.556,15642,235704,99835.3
82312.2,58192,92700.2,68085.2,39037,114303,124484,72945,111841,103486,74186,91419.9,10.564,15659,124484,97760
143284,85681,109596,177484,86538,134411,249492,136583,119713,107716,73707,95775,10.591,15700,249492,96239.5
129391,83143,101990,154393,90402,111925,229631,147228,102216,108992,72740,98197.4,10.599,15712,229631,98428.7
115073,71017,106192,187196,107593,114023,248362,148103,109901,113582,72459,102730,10.612,15730,248362,102157
125542,81658,100756,164344,99349,108410,258648,150418,112691,110964,75466,96362.8,10.692,15860,258648,99065.9
104312,75255,90840.2,95017.8,58786,105928,160932,107498,98112.1,96675.1,69812,90753.8,10.726,15911,160932,89272.3
127560,82362,101500,151773,87514,113657,223948,133725,109753,97357.3,69163,92251.7,10.734,15928,223948,87055.6
87327,56224,101790,172292,97219,116143,242444,137658,115422,104843,68744,99950.7,10.761,15970,242444,93690.9
124061,81614,99621.2,162089,93677,113397,196024,121155,106035,95907.2,64446,97529.4,10.763,15975,196024,86890.1
90415.8,57067,103834,165608,95793,113300,229442,142135,105792,100273,69827,94111.1,10.763,15976,229442,89718.7
118550,76731,101253,180430,106462,111069,231590,135814,111752,103927,75641,90043,10.765,15979,231590,93273.5
64835.1,54632,77775.5,24463,18630,86055.2,108094,73194,96784.3,95180.8,72156,86448.4,10.769,15981,108094,90208.5
111915,69720,105199,156255,90477,113181,226562,145908,101763,110273,75565,95637.6,10.785,16001,226562,99851.2
134072,77686,113103,231802,122491,124020,259049,142860,118837,110028,71339,101078,10.791,16014,259049,98112.2
124959,81263,100775,141062,77791,118840,179030,100189,117108,102083,67222,99523,10.796,16021,179030,93848
131970,82507,104825,158947,87093,119605,237011,143118,108531,112121,77775,94476.8,10.801,16024,237011,101218
132175,76090,113842,200399,104786,125335,251533,132186,124706,101497,66672,99767.7,10.817,16054,251533,89926.6
107657,75203,93818.3,114068,72604,102964,176872,120738,96005.5,97270,69877,91227.3,10.824,16073,176872,89133.9
121980,68526,116657,135696,72699,122326,261016,143356,119325,106047,78503,88530.6,10.828,16076,261016,94040.6
131040,84124,102085,174397,97291,117475,253885,150862,110290,114163,75881,98598.6,10.83,16079,253885,102484
108978,69028,103465,146115,86203,111084,204334,126021,106262,99898.4,71893,91065,10.835,16093,204334,90499
119659,70803,110757,198700,102966,126469,244474,129955,123288,98635.7,66576,97094.9,10.836,16094,244474,87389.9
115560,74899,101114,183994,108547,111088,225926,131940,112220,107839,71895,98301,10.84,16103,225926,97446.6
111720,70170,104342,136225,76623,116514,196718,131501,98038.1,98212.4,64954,99092.4,10.842,16110,196718,89163.4
100765,78096,84559.1,89978.5,52748,111792,146900,110685,86978.5,103423,84952,79785.6,10.845,16118,146900,96665.9
115164,77440,97461.1,170356,94969,117559,252481,139468,118641,113918,77470,96369.4,10.86,16161,252481,102304
115638,73988,102428,169095,94924,116744,234122,141370,108534,111935,76006,96515.4,10.871,16182,234122,101165
75376.8,55698,88690.7,90722.1,60639,98048.5,237720,153607,101423,116113,83771,90838,10.872,16184,237720,105178
115264,77336,97676.8,143386,89463,105037,214616,130287,107954,107873,75786,93283.7,11.005,16341,214616,98001.1
116681,79336,96385.4,144301,85044,111200,186777,122393,100011,103305,72917,92847.6,11.029,16369,186777,94712.9
117707,78881,97793.8,138059,85366,105989,188215,107745,114482,98464.1,63703,101297,11.033,16375,188215,89806.2
75440.7,59608,82943.2,46097.5,30147,100210,102358,77364,86708.7,100294,74945,87703,11.049,16386,102358,95586
107974,75569,93638.6,108874,67487,105727,170516,111946,99824.4,109547,76871,93393.4,11.053,16397,170516,101703
144072,88056,107226,204134,108283,123548,243791,126387,126414,111424,70222,103989,11.064,16416,243791,100210
125366,79684,103107,202344,109362,121256,209203,135645,101075,107899,74796,94540.9,11.078,16438,209203,98275.9
128947,78574,107550,201185,112865,116820,249172,133180,122614,97764.8,66976,95662.8,11.082,16445,249172,86302.9
127314,78322,106530,192202,106801,117940,245518,157245,102326,111912,75406,97263.5,11.114,16511,245518,100618
109093,74048,96552.1,162628,97101,109762,214224,135707,103454,98355.4,69330,92973,11.121,16521,214224,88501.1
124430,75232,108393,190766,101918,122668,254039,149831,111117,113736,78156,95371.2,11.214,16598,254039,102051
80056.8,57784,90796.8,76479.3,49223,101825,150489,77679,126964,95725.6,56558,110921,11.233,16619,150489,88803.1
138227,85480,105976,183623,96145,125165,197828,116149,111622,95506.8,69330,90280.3,11.259,16672,197828,86406.8
124224,78565,103623,167190,95178,115121,244064,135155,118345,99383.6,67240,96865,11.26,16674,244064,88156.6
143840,87882,107265,202774,101254,131244,240749,117503,134275,112349,70539,104381,11.262,16676,240749,101275
128507,77333,108904,215468,121987,115758,258267,139512,121321,106980,76244,91955.1,11.315,16745,258267,95099.5
135698,77483,114774,225209,115948,127293,259691,129180,131747,111823,68651,106749,11.32,16759,259691,99877.4
121118,79802,99466.4,143053,86047,108953,208411,131927,103530,101948,70388,94920.1,11.348,16794,208411,92360.6
91547.1,70436,85178.5,69026.1,41570,108821,110543,76404,94819.2,93110.2,73434,83095.9,11.362,16817,110543,88025.2
129954,74696,114017,164154,68784,156403,205358,95651,140703,98113.7,66353,96905.7,11.377,16831,205358,88667.3
114061,74993,99677,139499,82931,110239,252190,149161,110803,113346,81035,91667.2,11.39,16851,252190,101745
128675,83921,100485,170598,94824,117906,237135,142881,108768,108145,84880,83499.1,11.474,16949,237135,97236.9
111660,71747,101994,168157,97364,113187,205511,135121,99676.4,103276,74242,91165.4,11.475,16952,205511,93822.5
147254,95835,100698,136931,64896,138282,178880,104833,111826,102284,73009,91814.1,11.476,16953,178880,94055.1
114990,73276,102844,140397,82466,111574,201850,115851,114185,105139,72058,95623.1,11.477,16956,201850,95854.2
119278,77292,101136,175923,100886,114280,237393,138856,112043,109854,75904,94848.7,11.489,16971,237393,98934
132330,78557,110396,208680,110482,123785,257098,146281,115184,107921,65984,107188,11.508,17001,257098,96094.1
124542,80097,101901,200483,114129,115123,249505,130107,125678,109322,73424,97577.5,11.517,17016,249505,97844.8
94419,64153,96454.5,131383,75698,113745,221776,140633,103349,110420,81241,89074.5,11.525,17029,221776,100219
133281,81927,106616,176908,95935,120851,193206,113180,111874,103283,71781,94297.5,11.532,17036,193206,94395.7
114118,68260,109564,111847,62931,116477,247679,161895,100262,104569,80564,85063,11.535,17045,247679,93175.5
118770,75859,102608,149690,89148,110042,257667,161051,104852,115327,76474,98831.6,11.535,17046,257667,103474
114722,79626,94421.8,134057,82590,106375,197234,129501,99813.4,100849,68492,96496.8,11.569,17094,197234,91776.5
134220,82430,106711,199652,108188,120941,239738,137055,114636,99848.3,67507,96933.1,11.598,17124,239738,88820.4
106153,61512,113098,181037,94521,125521,225661,121513,121707,96832.4,62737,101153,11.6,17127,225661,86452
127222,73855,112892,230409,120694,125110,241435,133123,118858,101184,66325,99980.3,11.616,17151,241435,90077.9
145379,76302,124866,214038,106955,131150,243958,128445,124474,107197,64885,108273,11.635,17178,243958,95975
134394,85917,102514,130695,75999,112702,237108,124388,124925,100093,69815,93958.1,11.636,17180,237108,89185.9
117986,72287,106967,171227,95544,117449,248799,144745,112648,107359,74259,94747.5,11.679,17244,248799,95913.9
104222,74217,92031.2,99375,60536,107583,156721,99522,103202,99064.7,66206,98062.2,11.723,17301,156721,91855.5
116283,80408,94775.4,129009,82208,102846,177778,111155,104816,101357,71980,92283,11.732,17314,177778,93179.2
134565,79273,111247,214171,119409,117545,239308,124482,125988,110861,66342,109514,11.732,17315,239308,99852.6
113936,72883,102450,149561,87214,112386,229719,141842,106138,109425,76096,94239.9,11.735,17320,229719,98857.9
127157,76979,108255,158086,71232,145445,200008,106126,123511,108264,74955,94659.2,11.735,17321,200008,99063.5
106510,66810,104479,191062,110106,113722,258088,150750,112199,110126,75450,95655.4,11.739,17328,258088,98253.7
130489,82559,103583,170287,95185,117245,211684,124542,111392,112883,72389,102196,11.743,17342,211684,103145
91359,62653,95562.9,101233,59401,111688,205966,129918,103898,107304,81199,86605.7,11.753,17375,205966,97829.9
147642,86427,111954,193575,87969,144211,245318,124961,128657,109924,67802,106250,11.762,17383,245318,98639.5
66974.4,52621,83412.2,33419.1,23351,93792.7,103794,59980,113408,98885.9,67082,96607,11.788,17417,103794,94111.4
121955,74368,107472,181077,99325,119477,229468,131608,114267,97816.3,67386,95130.9,11.801,17441,229468,87260.8
142562,63635,146821,111647,43214,169318,229937,105998,142164,113777,83588,89204.9,11.807,17453,229937,103199
100612,71029,92831.1,86406.3,54300,104286,189265,123152,100718,100475,71936,91535.6,11.831,17486,189265,91768.5
125770,74306,110926,170383,91893,121513,224191,134936,108886,109704,77715,92511.8,11.845,17498,224191,99391.1
98001.9,74562,86138.4,83840.9,55827,98421.9,166280,109284,99715.9,105392,68682,100565,11.854,17512,166280,97743.5
111691,67995,107652,171051,102494,109372,186192,86747,140665,95685.6,70551,88884,11.858,17517,186192,87120.8
95986.8,70833,88808.8,62206.4,34623,117747,135058,82174,107712,100603,70832,93081.4,11.888,17562,135058,94390.7
61103.7,50108,79917.2,28096.6,20582,89463.7,93992.5,59956,102740,92778.4,66170,91889.5,11.89,17566,93992.5,88454.7
120616,68467,115453,145249,73440,129617,235816,141384,109308,115125,78775,95777,11.906,17581,235816,104277
64834.2,52629,80734.5,33444.8,19279,113691,106079,64061,108521,98271,70332,91569.8,11.909,17587,106079,93391.4
114797,74404,101115,187723,107453,114493,248923,153745,106107,102234,67364,99459.3,11.918,17605,248923,90783.1
92500.2,61342,98824.5,127399,79346,105225,193822,129944,97752.3,95800,71278,88082.6,11.919,17606,193822,86884.2
138207,85866,105484,179321,97359,120707,231049,132160,114574,108215,75345,94126.9,11.948,17652,231049,97587
141870,89558,103816,130620,67217,127354,193535,114781,110502,100526,71301,92398.2,11.95,17654,193535,91623.5
121442,83848,94920,160403,98148,107105,240424,142450,110610,107802,73243,96458.5,11.959,17672,240424,96742.5
141585,85280,108806,179476,100673,116835,237476,145996,106600,104707,67126,102227,11.964,17687,237476,93783.6
123922,82541,98391.7,136212,79370,112470,207444,117088,116110,109092,72573,98513.8,11.972,17706,207444,99549.4
141084,83071,111303,214519,118105,119036,236817,135267,114736,114829,71614,105083,11.976,17715,236817,103935
91374.3,56484,106018,130916,73589,116590,204647,123727,108398,98326.8,64885,99313.3,11.983,17723,204647,88913
96795.9,65716,96530.8,125740,78554,104902,223382,147910,98976,109601,81172,88488.7,12.027,17781,223382,99325.4
96246,68173,92523.1,146219,87760,109191,250337,151847,108044,113450,81015,91774.2,12.053,17831,250337,101935
149543,92732,105686,210819,114671,120486,220649,129919,111304,101683,59260,112452,12.058,17844,220649,91533.2
115348,71351,105947,162800,85695,124503,221686,126564,114791,98721.5,64813,99822.7,12.06,17848,221686,88523.9
99531,64733,100766,163139,102344,104466,219046,135695,105792,103791,69643,97670.1,12.064,17861,219046,93714.7
119338,71883,108801,186718,100569,121675,214491,120322,116827,96133.2,66236,95117.2,12.075,17886,214491,86266.6
122309,75445,106245,208510,104385,130909,225309,114731,128700,98229.6,66142,97329.6,12.096,17903,225309,87865.3
139630,85811,106639,207256,113498,119674,260636,136561,125080,111228,73191,99595,12.131,17948,260636,99239
114102,75393,99184.1,140834,82390,112024,222558,141028,103423,107360,76202,92332.9,12.149,17966,222558,97122.4
124827,80966,101038,157995,92028,112513,203060,130545,101940,111336,78408,93057.9,12.173,17998,203060,101995
112419,75314,97823.7,112880,66340,111512,195364,115695,110665,107559,76330,92348.7,12.179,18011,195364,98572.1
120434,78130,101021,150761,85233,115920,239155,155819,100586,114018,73696,101394,12.232,18093,239155,103017
126744,78560,105732,161750,88099,120324,205843,126837,106358,97787.7,66590,96239.9,12.24,18104,205843,88318.9
122762,79787,100835,162996,92788,115124,232860,139051,109749,102000,71896,92977.4,12.243,18112,232860,91288.9
109091,67556,105829,155482,86821,117364,225405,138802,106426,96762.4,65527,96775.7,12.254,18142,225405,86393.7
112833,73223,100988,160759,93059,113213,251008,155493,105793,108696,79261,89873.8,12.277,18190,251008,97149.4
122586,74760,107461,206832,115180,117685,239558,132145,118806,98931.7,63084,102777,12.314,18244,239558,87912
134473,82989,106192,202996,116844,113857,238799,142706,109665,106272,70980,98121.1,12.322,18252,238799,95287.1
60317.1,48731,81117.6,36510.8,23006,104006,93410.5,68225,89728.8,94909.1,72329,85995.4,12.325,18255,93410.5,90612.2
125089,83785,97843.8,204654,114453,117186,207108,134916,100604,108982,83654,85378.2,12.33,18267,207108,99454.7
107248,71767,97936.9,150765,95053,103948,196649,117359,109814,103220,68811,98307.6,12.388,18343,196649,94174.4
124463,76301,106903,144653,82311,115173,246914,143921,112435,111912,78953,92893.9,12.423,18382,246914,100554
87250.5,64463,88702.8,71236.9,45233,103212,130479,93199,91750.6,93865.2,68889,89296.5,12.443,18400,130479,87863.2
120213,83315,94560.1,125613,76311,107876,165249,109856,98581.6,105912,73885,93943.5,12.447,18408,165249,98310
78510.6,52762,97518.5,89193.4,48078,121581,128485,70731,119049,93217.4,59412,102826,12.449,18410,128485,87307.1
128876,78740,107264,226774,120530,123304,257083,141156,119358,105964,67974,102164,12.45,18413,257083,94138.6
121127,76897,103232,169890,93331,119295,215763,118023,119809,102391,67638,99208.8,12.458,18426,215763,92465.8
107956,70256,100703,114795,70002,107471,218490,146530,97720.2,103320,62634,108107,12.467,18437,218490,93269.8
119008,82100,94997.6,136192,82169,108623,198873,128501,101426,110186,70820,101965,12.467,18438,198873,101038
79371.9,44292,117441,67707.6,36007,123234,95997.3,56271,111803,98341.1,63922,100824,12.485,18466,95997.3,93925.2
128094,76399,109881,212241,112596,123534,215880,119612,118282,98404,68861,93652.5,12.495,18474,215880,88473.5
89070.3,56710,102933,154722,91672,110610,212617,133696,104222,97767.7,67640,94726.5,12.501,18495,212617,87987.3
146606,86639,110897,204976,109184,123034,260573,142585,119767,107251,72282,97241.8,12.506,18507,260573,95265.1
138768,83520,108888,233347,119911,127533,253869,140285,118598,103944,65605,103835,12.542,18558,253869,92265.8
120658,78433,100818,190376,103384,120681,236483,127062,121973,104973,65997,104240,12.573,18593,236483,94095.2
137554,81261,110936,230427,120299,125531,235136,133026,115841,112761,70732,104478,12.576,18601,235136,101945
135924,82503,107971,144364,78755,120133,220128,138695,104015,111027,78595,92578.9,12.601,18631,220128,100901
114596,80410,93398.5,114154,70419,106238,139276,106113,86017.8,103998,71205,95718.4,12.641,18689,139276,97591.5
128685,80407,104885,217583,115215,123764,226395,134494,110317,109396,76149,94149.7,12.648,18696,226395,98982.3
112484,75023,98259.7,116060,65370,116355,192404,134843,93511.5,110203,78982,91441.9,12.655,18707,192404,101352
136272,78950,113118,135929,62804,141842,195184,110504,115756,107669,77637,90887,12.655,18708,195184,98690.5
132565,81106,107116,181824,88904,134033,200672,125909,104450,107763,75519,93517.9,12.655,18709,200672,98532.5
115235,72632,103977,162479,94309,112908,181654,125814,94623,98213.8,67290,95653.8,12.66,18721,181654,89857.7
137731,87656,102974,147367,78178,123537,195977,115195,111494,98159.5,67194,95737.4,12.672,18734,195977,89144.5
132674,81443,106761,222461,119494,122008,208457,124258,109944,113039,69661,106345,12.68,18741,208457,103450
125238,79580,103136,214664,120592,116660,210333,122050,112940,98035.1,63328,101453,12.721,18763,210333,88359.8
141664,75284,123321,160364,79129,132817,228470,117443,127492,104879,75859,90607,12.733,18771,228470,94369.5
120999,76194,104073,140116,70604,130058,217798,92570,154192,99433.6,72054,90438.9,12.75,18799,217798,89414.9
