"FSC-A", "FSC-H", "FSC-W", "SSC-A", "SSC-H", "SSC-W", "FITC-A", "FITC-H", "FITC-W", "PE-A", "PE-H", "PE-W", "Time", "Event #", "Comp-FITC-A", "Comp-PE-A"
105098,61748,111546,161933,92971,114148,262143,141521,121394,112289,79222,92890.7,0.037,29,262143,88172.1
111175,67879,107338,191267,103182,121483,262143,167827,102366,115705,85772,88406.8,0.052,42,262143,91587.6
90934.2,50280,118526,211201,114474,120912,262143,179536,95690,112921,79887,92635.9,0.153,99,262143,88804.1
109278,62745,114139,165276,96915,111763,252428,138783,119201,112016,81920,89612.8,0.16,103,252428,88792.6
101981,61142,109310,81897.5,40563,132318,156024,85832,119130,103420,81552,83109.3,0.311,202,156024,89065.7
98251.2,57903,111203,173665,103559,109902,254927,148015,112873,113258,73424,101091,0.315,204,254927,89804.7
140688,84808,108718,164094,87669,122667,254120,111706,149088,110579,74274,97570.2,0.369,239,254120,87200.4
116303,66627,114399,154788,92108,110133,220129,124170,116183,110851,76749,94655.9,0.518,348,220129,90599.4
138392,76535,118503,156796,80274,128009,212973,103690,134607,119175,68909,113342,0.523,351,212973,99581.9
93528,62233,98492,111868,77031,95174.7,183748,106594,112972,103178,79398,85164.7,0.526,354,183748,86273.6
106843,60469,115795,140334,59820,153743,216819,92172,154162,122672,72965,110182,0.554,381,216819,102725
95719.5,55978,112063,105970,60626,114553,200296,114717,114426,100550,70146,93941.4,0.677,470,200296,82122.3
77377.5,50996,99439.4,72117.4,40160,117686,113305,69648,106615,105058,75047,91743.6,0.702,487,113305,94634
88902.9,58069,100335,118153,76295,101491,222656,140665,103736,113945,83552,89375.6,0.715,493,222656,93460.9
92530.8,62656,96784,126198,87042,95017.7,209461,131128,104686,115892,82650,91895,0.845,574,209461,96622
100115,62734,104587,112982,65607,112860,175350,111889,102706,108679,80668,88292.7,0.849,580,175350,92547
104467,63939,107076,114961,64394,117000,162679,91070,117067,111354,79673,91595.2,0.871,591,162679,96387.1
147356,68449,141085,179832,65739,179277,215364,77175,182884,112605,62915,117296,0.894,597,215364,92791.7
134391,81765,107716,171459,94909,118395,218713,113185,126639,110556,76985,94114.4,0.905,605,218713,90434.3
146332,66659,143867,196429,82872,155338,262143,120894,142106,112039,64984,112991,0.925,627,262143,87922.3
84888.9,58724,94736,96161.2,69131,91160.5,164288,110669,97287.9,99101.9,71783,90477.5,0.978,673,164288,83987.5
117081,68316,112317,181854,101494,117425,218664,105245,136162,102951,66211,101901,1.101,756,218664,82833.7
95916.6,57868,108626,200677,136136,96606,209414,106529,128830,102738,60903,110554,1.212,827,209414,83472.2
86263.2,51697,109355,100374,38865,169256,147543,62015,155920,102730,65045,103505,1.266,859,147543,89156
103553,67796,100101,127368,79598,104867,173044,113131,100243,101258,75990,87327.4,1.355,917,173044,85337.5
131894,78985,109436,196008,110865,115867,262143,149261,115099,118237,84135,92099.4,1.416,970,262143,94119.9
108302,66303,107050,201709,109439,120791,262143,153498,111922,109215,78560,91108.5,1.484,1026,262143,85097.4
149743,81014,121134,161936,74367,142706,227982,112751,132513,111162,68670,106088,1.695,1182,227982,90187.5
68943.6,38378,117731,130636,82129,104243,213367,128984,108411,109804,72085,99828,1.737,1210,213367,90174
103364,65803,102945,131250,80557,106777,207871,122216,111467,111990,83634,87755.7,1.737,1211,207871,92865.6
110912,69636,104381,180675,106188,111507,250676,142798,115046,111253,77024,94659.7,1.763,1228,250676,88190.7
128618,74544,113076,138454,78609,115429,218879,114430,125356,111925,77049,95200.6,1.805,1257,218879,91788
129830,79166,107477,160611,90474,116341,222143,121704,119621,110757,74503,97426.9,1.828,1282,222143,90320.3
139120,81485,111890,120791,56218,140812,202163,91984,144036,104790,75201,91322.4,1.881,1322,202163,86191.3
77562.9,60613,83862.6,36509.3,27137,88170.1,99620.8,79555,82065.9,102381,81232,82598.4,1.884,1324,99620.8,93215.7
119102,70667,110455,156182,91696,111624,223251,126212,115924,109186,73418,97463.7,1.885,1326,223251,88646.5
110959,64677,112433,138190,78466,115419,262143,147947,116121,112647,79287,93110,1.953,1364,262143,88529.5
99743.4,59002,110789,223193,134964,108378,262143,159062,108007,111022,74118,98167.3,1.974,1381,262143,86905.2
115834,70900,107071,161685,102464,103414,224040,121580,120766,113654,75899,98136.1,1.993,1393,224040,93042.3
118342,73812,105073,148560,90556,107514,182137,104718,113987,97212.7,68793,92610.2,1.998,1394,182137,80456.2
146557,73573,130547,228177,103916,143903,262143,135439,126845,118654,75162,103458,2.141,1490,262143,94536.6
81867.6,56543,94888.4,126122,53823,153569,138015,68255,132517,107157,70966,98957.8,2.161,1507,138015,94459.6
74527.2,56208,86895.4,60242.5,45216,87315.4,108773,67569,105500,93994.6,63854,96470.5,2.197,1543,108773,83987.4
86068.8,59795,94332.4,82163.8,60580,88885.6,162260,102650,103594,108776,79374,89811.9,2.218,1556,162260,93847.8
125695,72879,113030,205249,111181,120985,240556,140032,112582,108290,74469,95299.9,2.219,1560,240556,86158.8
104928,66870,102835,143888,91172,103429,185625,119615,101702,102233,71739,93393.4,2.369,1663,185625,85155.6
110119,71360,101131,89952.5,46113,127841,141760,82966,111979,100688,73740,89485.5,2.4,1682,141760,87645.6
124041,72264,112492,129012,74934,112832,220400,101121,142840,110804,75687,95943.5,2.522,1751,220400,90527.6
120322,72507,108754,170789,108904,102777,230144,127357,118429,113804,69896,106706,2.545,1761,230144,92631.2
120506,69017,114428,192329,98649,127771,246703,132844,121706,114234,79004,94760,2.591,1786,246703,91537
99324,69789,93271.1,149079,88890,109911,241788,133323,118853,114158,84826,88197.5,2.617,1802,241788,91913.2
77655.6,50565,100647,73846.6,42533,113785,109778,60222,119464,100783,63818,103496,2.671,1840,109778,90683.2
119822,64273,122177,88115.8,41381,139551,152827,69685,143728,102204,58415,114663,2.696,1858,152827,88144.1
114633,71829,104590,139837,86441,106018,204056,116176,115110,112415,79570,92587.9,2.726,1875,204056,93641.6
94574.7,64654,95864.9,121004,61542,128857,199261,111223,117411,104792,71090,96604.7,2.783,1912,199261,86459.7
133945,73618,119240,143349,67183,139835,232145,116665,130406,112426,81373,90545.3,2.848,1953,232145,91068.5
102778,69048,97550.6,96348.8,67414,93664.8,167168,90850,120589,110563,72068,100542,2.852,1958,167168,95183.4
94995.9,63349,98275.5,66168.2,45487,95332.8,151219,91249,108607,105244,77882,88560.8,2.857,1966,151219,91332.2
126556,78686,105406,128896,78576,107505,199872,101344,129251,110105,71823,100467,2.874,1979,199872,91716.4
84518.1,57381,96529.8,84015.8,51180,107582,119790,70147,111915,105298,75805,91033.8,2.887,1987,119790,94277.5
112954,69779,106086,212498,107593,129435,262143,171295,100294,110455,77002,94007.9,2.964,2027,262143,86338
96043.5,63456,99191.7,105994,66717,104117,155918,84965,120264,106722,74669,93668.8,3.019,2056,155918,92377.9
124326,70556,115480,154243,84706,119336,221222,114205,126947,104440,69228,98869.9,3.155,2150,221222,84087.3
103565,67023,101267,84762.4,51293,108299,156095,92583,110493,99827.8,76421,85608.9,3.163,2156,156095,85467.1
93574.8,63618,96396,109099,74758,95640.5,151990,99537,100072,111650,73110,100084,3.179,2166,151990,97667.2
82971.9,62313,87263.4,53000.3,37779,91940.7,119708,84792,92522.8,108360,85421,83135.3,3.182,2170,119708,97347.2
118507,72117,107692,147682,82854,116814,214688,123094,114301,108309,77940,91072.1,3.207,2182,214688,88558
113147,68165,108783,114815,64209,117187,168969,90612,122208,112449,75123,98098.8,3.231,2202,168969,96904.2
77810.4,57145,89235.8,61844.7,43711,92723.9,116696,67415,113443,108272,74662,95037.9,3.256,2226,116696,97536
112486,67851,108649,108743,63242,112687,206078,104117,129715,110092,81928,88065.2,3.265,2231,206078,91133.1
137199,72482,124051,227151,125238,118866,262143,134131,128082,116751,70900,107918,3.544,2390,262143,92633.6
105476,71346,96887,105936,69110,100457,164220,100290,107312,107375,78145,90049.6,3.625,2446,164220,92266.8
77951.7,55294,92390.5,54857.8,36596,98239.1,125423,80038,102697,109026,93096,76749.8,3.641,2453,125423,97486.6
121567,76256,104477,140953,85416,108147,208898,103008,132905,113320,75465,98410.5,3.692,2491,208898,94101.5
96877.8,62616,101396,118971,72104,108134,172961,91550,123814,104793,67938,101088,3.693,2493,172961,88880.7
92981.7,55081,110631,114192,58910,127036,141311,70252,131824,93982.1,54193,113653,3.783,2550,141311,80981.6
73868.4,51544,93920.5,136289,94774,94243.4,151706,97073,102420,102417,70824,94769.9,3.844,2587,151706,88459.7
97704,62480,102483,150296,92874,106055,199613,109021,119994,105828,69351,100006,3.863,2600,199613,87463.7
142468,74605,125150,229813,106123,141920,255599,125644,133321,114873,80808,93162.7,3.871,2604,255599,91357.4
93850.2,60210,102152,143505,81855,114895,215292,115214,122463,109431,75592,94873.6,3.946,2657,215292,89624.3
120635,71188,111057,122732,62767,128146,192389,90314,139606,103023,74902,90140.2,4.093,2738,192389,85322.8
64295.1,51153,82373.3,38132.2,28924,86399.8,82068.6,62214,86450.8,101845,71716,93069,4.102,2746,82068.6,94295.1
117680,66768,115509,218813,99971,143443,262143,149491,114922,113059,69395,106772,4.121,2764,262143,88942.1
117364,76484,100565,74230.2,43011,113105,160247,77783,135016,104886,64455,106645,4.234,2826,160247,90142.8
116337,68664,111037,106001,55876,124326,182490,96763,123597,108039,73569,96242.1,4.271,2852,182490,91249.8
102362,64114,104632,156921,92927,110667,176993,114696,101132,103925,76426,89116.7,4.298,2873,176993,87641.7
136386,71090,125731,227682,110060,135575,255461,104540,160148,113793,67161,111040,4.329,2892,255461,90291
101249,73757,89963.8,118870,78032,99834.6,191958,111514,112812,107161,79159,88719.1,4.336,2896,191958,89501
70822.8,54658,84917.9,46145.8,32861,92030.4,102101,77619,86206.6,103670,79388,85580.9,4.364,2911,102101,94276.5
85297.5,64063,87258.8,84467,63123,87696,144193,93811,100733,108518,79496,89461.3,4.449,2981,144193,95251.9
132445,73810,117598,188741,91084,135802,239008,123640,126687,108242,73312,96760.8,4.563,3070,239008,86253
112088,72424,101428,117006,73285,104634,179753,120839,97487.7,107103,81373,86258.5,4.662,3143,179753,90565.9
117636,70457,109420,180210,105672,111763,242637,133491,119120,110077,77257,93376.8,4.72,3175,242637,87754.5
112540,66099,111582,164907,98037,110238,225437,122455,120650,114679,76556,98171.6,4.772,3206,225437,93939.2
98711.1,61126,105833,127653,77606,107799,206400,129673,104313,106336,76311,91321.4,4.868,3273,206400,87347.1
94383.9,56980,108556,154788,93249,108786,233107,137746,110906,108878,80623,88503.5,4.908,3300,233107,87432
114848,70775,106347,159309,89529,116615,207265,104399,130110,108827,70024,101852,4.948,3321,207265,89758.4
116295,72482,105151,158463,99372,104506,220185,129964,111031,110542,75866,95490.6,4.964,3333,220185,90285.2
134601,77594,113684,185203,102751,118125,250463,135360,121264,113894,72488,102971,5.144,3441,250463,90851.6
70410.6,53436,86354.3,52724.3,30627,112820,97331.4,53310,119653,89331.5,55001,106442,5.145,3442,97331.4,80377
103831,67570,100706,158218,84256,123065,187651,93537,131476,100497,68171,96612.6,5.221,3482,187651,83233.2
94573.8,68366,90658.9,103423,70023,96795.5,170964,101662,110211,100428,76197,86376.9,5.224,3488,170964,84699.4
88221.6,58131,99459.7,95490.5,56494,110774,177389,98585,117922,105116,79386,86777,5.55,3707,177389,88796.2
112923,68299,108355,155322,91256,111545,210053,111645,123302,105426,73519,93978.8,5.58,3718,210053,86101.6
143637,75206,125168,194293,93616,136015,262143,131686,130460,109611,70037,102566,5.598,3727,262143,85493.5
124856,72715,112529,195910,113019,113602,262143,149149,115186,113149,76735,96635.6,5.661,3758,262143,89031.8
74366.1,50909,95732.7,92235.1,49200,122860,125503,67752,121398,98552.7,65109,99199,5.671,3766,125503,87006.5
126217,72003,114881,154582,87860,115305,229747,121658,123762,113784,76874,97002,5.716,3792,229747,92647.1
118669,76448,101730,109771,64637,111297,195078,129231,98928.6,110125,84641,85268.1,5.75,3820,195078,92178.2
110882,65845,110361,155028,91301,111279,211622,124892,111047,113218,77265,96031.2,5.771,3831,211622,93748.8
122167,69491,115214,160232,74629,140709,180701,88736,133457,107341,65353,107641,5.813,3849,180701,90716
99597.6,63759,102373,107229,68979,101877,215568,122509,115318,112102,85025,86406.2,5.886,3916,215568,92269.2
107733,65293,108134,144745,91647,103506,214873,130039,108290,114238,80460,93048.6,5.894,3922,214873,94469.5
120707,71735,110276,140821,75088,122907,215401,106026,133142,106423,74149,94061,5.956,3967,215401,86605.9
117401,73036,105346,124275,75807,107437,234051,120253,127554,105229,72269,95425.4,6.061,4031,234051,83696.5
108779,73533,96949.2,103180,65694,102932,163938,95387,112635,109079,78393,91189.6,6.165,4098,163938,93997
109732,71363,100773,155681,97413,104736,210360,120665,114252,108957,75865,94122.1,6.261,4152,210360,89603.4
134609,71142,124002,200205,101982,128656,246029,117936,136716,111961,73907,99279.7,6.317,4207,246029,89326.1
105317,68773,100360,120985,70117,113080,204462,107273,124912,112233,75694,97171.2,6.319,4209,204462,93422.1
119707,69631,112667,143982,71865,131302,164722,78503,137514,98359.5,69900,92218.7,6.43,4266,164722,83205
98621.1,63702,101460,119286,70103,111515,145233,86994,109409,109744,74569,96450.5,6.436,4268,145233,96383.1
119168,63835,122344,165094,81996,131952,225678,105360,140376,108440,68091,104371,6.462,4294,225678,87678
132777,70764,122968,183296,90479,132765,198400,92497,140570,110036,72652,99258.1,6.481,4307,198400,91782.9
116020,69609,109231,170810,102157,109578,235538,129452,119243,110406,75099,96346.6,6.581,4363,235538,88736
107847,71038,99494.1,175893,98712,116778,200782,101738,129336,102934,76001,88760.6,6.868,4521,200782,84462.3
120597,73549,107458,190673,114520,109116,229941,126120,119485,111936,67726,108316,6.933,4565,229941,90781.4
115456,71498,105828,166958,100345,109041,250754,141019,116533,110818,80476,90245.3,7.057,4636,250754,87748.8
121865,79917,99935.8,159099,97761,106655,204302,114152,117292,110893,72352,100446,7.147,4705,204302,92096.9
128728,76427,110384,206666,118780,114026,244470,128562,124621,111621,75431,96978.9,7.166,4721,244470,89130.1
112277,63809,115316,146302,80832,118617,212614,111898,124523,107628,74001,95316,7.218,4750,212614,88067.1
116625,69796,109506,136997,78416,114495,201172,119972,109893,101288,72447,91625.6,7.286,4790,201172,82780
101510,63892,104122,124720,75668,108020,225248,132206,111658,115619,81161,93360.3,7.327,4818,225248,94896.4
130700,73888,115926,214303,110500,127100,243991,132614,120577,111529,71360,102426,7.414,4877,243991,89081.7
115073,69626,108313,137229,79511,113109,198836,113473,114837,111068,75072,96959.5,7.426,4887,198836,92775
122887,65674,122629,205051,102955,130525,216239,104612,135467,108456,70427,100924,7.458,4905,216239,88561.6
96233.4,64446,97861,138940,81368,111906,223535,134010,109317,113208,83671,88671.3,7.463,4908,223535,92643.1
104910,67980,101139,76805.3,48289,104237,166675,91492,119390,98642.4,75967,85097.8,7.475,4915,166675,83308.3
135622,61129,145399,180170,80666,146377,246420,98256,164360,109101,61829,115643,7.487,4923,246420,86430.8
117494,66126,116446,204484,107513,124646,262143,153025,112268,112331,74568,98724.6,7.489,4927,262143,88213.5
114634,67467,111353,182287,109264,109335,231396,114020,133001,114879,73652,102220,7.53,4952,231396,93591.1
117355,63533,121054,208257,73174,186519,177785,101269,115053,96583.4,66781,94782.8,7.637,5025,177785,80227.2
104543,62897,108929,155754,94669,107823,221941,124886,116467,115249,82812,91206.3,7.642,5031,221941,94830.7
93028.5,62130,98128.4,118031,73537,105189,210177,133662,103052,105832,79404,87348.5,7.647,5033,210177,86495.9
103166,70139,96395.6,117365,77265,99548.6,145277,96508,98653.5,98772.1,70394,91955.7,7.663,5040,145277,85406.7
152902,76634,130759,129895,49155,173183,200626,87727,149876,109241,63005,113629,7.682,5061,200626,90783.2
94631.4,63201,98127.6,139263,90244,101134,216853,121677,116799,107299,75404,93257.1,7.786,5129,216853,87348.6
115744,63047,120313,196431,111665,115285,252903,121898,135968,111038,74736,97368.8,7.801,5138,252903,87770.5
118627,73460,105831,146348,91849,104422,207342,123068,110414,104783,68932,99621.1,7.873,5180,207342,85707.9
116508,68891,110834,195293,110730,115585,219299,119438,120330,106166,69464,100163,7.945,5228,219299,85990.7
143871,75289,125234,144338,71025,133184,262143,97661,175913,113793,75405,98900.2,7.978,5256,262143,89676.3
110333,69699,103743,173634,101173,112474,229614,122356,122985,104132,78084,87398.2,7.982,5264,229614,83007.5
115025,66043,114142,213903,116219,120620,262143,144020,119288,106330,66526,104748,8.021,5300,262143,82213.2
109037,72796,98162.5,142471,96520,96736.4,204564,118346,113281,111581,82026,89149.7,8.121,5379,204564,92761.4
66349.8,50345,86370.1,48417.3,31439,100928,94423.7,66008,93748.6,91626.5,71282,84240.5,8.237,5461,94423.7,82939.5
116916,71064,107821,159888,90743,115474,211467,116780,118674,107387,72465,97119.2,8.271,5480,211467,87932.5
106257,66105,105342,151823,83347,119379,182352,97384,122716,97410.1,65399,97614.1,8.318,5512,182352,80633.7
107272,66557,105626,175887,106755,107975,205419,112190,119996,114900,69171,108862,8.39,5561,205419,96001.7
105384,64092,107758,139355,85566,106734,224821,126190,116760,107094,75277,93235.4,8.483,5616,224821,86410
122322,75987,105498,158512,99613,104286,239742,130618,120288,115401,78599,96221.7,8.562,5672,239742,93344.9
111231,67381,108185,155780,91495,111582,201581,110677,119364,109867,70909,101542,8.574,5677,201581,91321.9
125422,77081,106637,184292,104601,115465,221683,118946,122141,112045,71237,103078,8.599,5694,221683,91650.1
102783,68397,98483.4,116701,70882,107899,167624,105410,104216,105119,75630,91089,8.649,5732,167624,89697.3
101873,57912,115284,115699,60496,125338,184527,82856,145954,114403,72745,103066,8.656,5733,184527,97426.9
117849,62623,123331,185838,56940,213893,208191,89480,152481,117622,87704,87891.6,8.696,5765,208191,98468
74445.3,53796,90691.6,70813.3,47648,97398,115002,67681,111358,107556,73303,96159.5,8.736,5787,115002,96975.6
102167,62111,107801,203449,122772,108602,254066,134126,124141,114260,79088,94681,8.77,5815,254066,90885.8
120804,69134,114517,179248,100485,116905,262143,151368,113497,110942,75243,96629.8,8.773,5816,262143,86825.2
95361.3,61587,101476,146476,89491,107267,220019,140403,102698,113379,81149,91565.3,8.809,5841,220019,93137.7
132680,70925,122599,136225,58120,153607,176592,93801,123379,109350,77983,91896.3,9.04,5995,176592,93103.4
134744,76142,115976,220858,116315,124439,237043,118423,131181,112004,70295,104421,9.046,5999,237043,90195.6
134413,74519,118210,219552,110536,130171,262143,166094,103434,116058,82489,92206,9.118,6054,262143,91940.8
67913.1,56562,78688,38221.9,31457,79629.6,94248.5,83657,73833.3,106935,86466,81050.1,9.186,6098,94248.5,98264
126966,72504,114764,136189,69364,128674,195282,99850,128173,105945,68746,100998,9.196,6107,195282,87979.4
112694,67831,108881,113178,68107,108906,151292,80630,122970,105029,68755,100112,9.281,6158,151292,91110.2
120895,75806,104517,133812,83703,104769,208419,119500,114301,112328,79488,92611.7,9.291,6162,208419,93153.3
139212,71056,128397,149626,67572,145118,249015,120978,134896,115048,82455,91441.1,9.302,6175,249015,92138.4
116383,69621,109554,200144,111842,117278,234636,125590,122439,108627,67889,104862,9.654,6448,234636,87040.2
124415,71903,113398,168781,92269,119880,229513,116047,129615,110984,79030,92033.8,9.658,6451,229513,89868.5
135838,74535,119437,194076,105269,120824,246774,129438,124945,112293,71160,103418,9.718,6490,246774,89590.1
122578,69143,116184,111326,53101,137396,153855,67144,150170,95191,62383,100002,9.733,6496,153855,81036.4
95168.7,54657,114111,208174,120303,113405,252889,135159,122621,109072,76131,93893,9.741,6503,252889,85806.6
86159.7,53449,105644,174144,81706,139680,165910,81449,133496,114936,78599,95833.9,9.753,6513,165910,99672.3
96598.8,62498,101294,99118.5,58797,110479,167964,100921,109072,102651,78274,85946.2,9.755,6514,167964,87198.6
111814,65697,111540,94596.2,51160,121178,152965,85073,117836,106217,75449,92261.7,9.764,6522,152965,92144.5
119539,73699,106299,233845,129214,118604,262143,148053,116038,116271,77327,98541.3,9.79,6537,262143,92153.4
135068,73094,121102,200246,112788,116354,262143,134368,127856,116842,67803,112935,9.801,6542,262143,92724.7
79269.3,56407,92098.4,65338.9,38804,110351,122381,77704,103217,111581,83930,87127.3,9.807,6548,122381,100322
108152,70042,101194,180900,119994,98800.5,196092,111692,115059,110009,67870,106226,9.825,6563,196092,91969
114208,70861,105626,137471,76601,117614,192382,99722,126431,99787.8,67870,96356.2,9.848,6578,192382,82088.7
99003.6,38586,168152,202523,59744,222157,209318,59078,232200,105316,63411,108845,9.908,6623,209318,86058.8
106608,70319,99356.4,121913,76536,104392,194812,120609,105856,110672,79212,91564.3,9.992,6687,194812,92749.2
93451.5,65325,93753.3,89716.6,61358,95825.6,135186,80483,110080,94393.4,67765,91288.5,10.024,6710,135186,81956.3
114878,66956,112441,188860,107554,115078,243559,131407,121469,113673,75730,98371.8,10.048,6730,243559,91265.9
122421,74243,108064,189954,112412,110743,249813,142659,114761,115520,78567,96359.9,10.05,6733,249813,92537
128301,71100,118261,127182,66954,124489,200248,96233,136371,101322,61512,107951,10.065,6741,200248,82899.6
117007,70949,108080,176986,97120,119429,262143,137661,124798,114606,78430,95764.8,10.081,6749,262143,90489.1
114448,68396,109663,173656,90060,126369,250678,114238,143809,111086,70707,102962,10.158,6811,250678,88023.4
120820,66751,118621,171570,89257,125973,262143,121287,141646,107822,65309,108197,10.198,6843,262143,83705
110742,73832,98298.9,159861,101080,103647,183521,121863,98694.5,107993,76355,92691.3,10.28,6898,183521,91109.4
142802,74665,125342,208384,104646,130503,262143,124138,138393,111086,66957,108728,10.399,6967,262143,86968.7
94056.3,66642,92495.3,149785,92806,105772,234121,131757,116452,107223,82750,84918.2,10.445,6998,234121,85684.1
102697,61967,108612,196015,110780,115960,262143,137447,124992,107047,70318,99766.9,10.501,7049,262143,82929.4
125636,68721,119814,237675,127360,122301,252425,117118,141250,113931,63868,116907,10.552,7083,252425,90708.3
124735,72265,113120,187721,107663,114269,262143,128444,133753,117219,70731,108609,10.636,7127,262143,93101.4
130664,74711,114617,156856,87660,117268,208581,89456,152808,108204,67547,104983,10.673,7156,208581,89014.9
124021,75709,107356,128562,79979,105346,215712,128152,110314,105273,69158,99759.8,10.698,7175,215712,85427.8
116477,67593,112932,119080,63998,121942,193553,104011,121955,105239,74809,92193.9,10.737,7206,193553,87431.9
126409,75705,109429,189860,105659,117763,220267,116464,123948,108198,69578,101912,10.737,7207,220267,87932.9
105438,66071,104584,135483,83766,105998,191660,108085,116211,108400,78722,90243.2,10.738,7209,191660,90767.7
120533,64561,122354,199449,102970,126941,249879,108919,150351,112676,73461,100520,10.834,7280,249879,89686.7
114950,70435,106955,190400,111533,111878,203449,111791,119269,109928,70088,102789,10.911,7333,203449,91210.7
124771,69261,118060,142826,82069,114053,235732,115848,133355,112747,76496,96593.4,10.918,7336,235732,91060.1
109418,70309,101990,175463,101096,113745,262143,149405,114988,108783,81660,87303.2,10.993,7388,262143,84665.5
138454,78377,115770,211630,112867,122882,262143,156255,109947,117397,82808,92910.1,11.075,7443,262143,93279.4
106423,69232,100742,129358,89758,94449.9,194910,109014,117174,108064,74377,95218.4,11.141,7485,194910,90132
170733,77235,144871,196232,81922,156982,262143,99776,172184,115805,70955,106961,11.215,7530,262143,91688.3
77445,51113,99298.3,73075.1,48238,99279.7,150386,94848,103910,97455.6,74947,85218.2,11.262,7571,150386,83620.1
92899.8,59825,101768,92421.4,59469,101850,152398,81086,123172,113077,69931,105971,11.312,7597,152398,99056.6
86754.6,62520,90939.7,111363,69671,104754,211980,142733,97331,111213,84210,86550.8,11.314,7599,211980,91710.6
87176.7,55423,103084,108091,56130,126205,145333,88362,107790,103074,69946,96574.9,11.414,7657,145333,89702.9
134014,70545,124498,220478,117275,123208,262143,133866,128336,107821,68949,102484,11.495,7719,262143,83703.6
100342,67680,97163.2,131424,85249,101034,233729,148799,102942,114149,85511,87484.6,11.515,7736,233729,92646.4
94050.9,65318,94364.8,99615.3,64159,101753,161096,100154,105413,104277,74309,91965.9,11.531,7743,161096,89456.1
93906.9,60899,101057,123155,75552,106829,187237,110402,111146,105643,76575,90413.7,11.561,7763,187237,88417.3
141838,79524,116889,228031,128140,116624,262143,153352,112029,117206,70030,109685,11.598,7791,262143,93089
87998.4,62440,92361.7,88713.3,55149,105422,134637,88349,99871.7,100260,77327,84971.9,11.605,7801,134637,87873.2
105328,69655,99099.4,84791.3,54740,101514,182884,103304,116022,110335,79840,90567.7,11.67,7842,182884,93509.8
97964.1,60425,106250,126299,65133,127080,162541,81928,130020,112513,76043,96966.7,11.724,7886,162541,97559.1
114539,62940,119264,224182,126808,115860,262143,149686,114772,115213,76022,99321.6,11.761,7907,262143,91096.3
63554.4,51692,80575.4,44718.9,35417,82748.3,103777,74841,90874.7,103481,80324,84429.4,11.807,7937,103777,93933.2
98469,68056,94822.9,96564.1,69269,91360.1,168059,97785,112634,110261,77362,93405.5,11.815,7947,168059,94799.2
104158,65699,103899,116679,65984,115887,181180,101499,116985,110974,86448,84129.2,11.866,7993,181180,94305.5
83881.8,57820,95075.7,71826.2,45915,102520,127817,86110,97278.1,97859.9,77492,82761.4,11.919,8029,127817,86100.8
135025,73386,120582,212470,112779,123467,249948,126878,129105,112787,72669,101716,11.923,8033,249948,89792.1
121063,77277,102669,134914,81505,108481,244141,138662,115389,112291,75995,96836.3,11.945,8050,244141,89829.6
145279,74784,127313,206284,96856,139578,229308,105369,142622,108937,70054,101912,11.951,8057,229308,87840.9
131257,76469,112491,165062,94772,114142,217391,112274,126895,111950,70466,104117,11.958,8062,217391,91949.7
134732,74236,118942,215127,113730,123965,262143,133820,128380,113904,74314,100449,11.966,8065,262143,89786.7
140848,81119,113791,208971,115812,118253,262143,151358,113504,113119,74352,99706,12.028,8110,262143,89001.4
121018,72592,109255,184448,106651,113342,262143,162317,105841,117217,84470,90942.9,12.08,8143,262143,93100
94261.5,65346,94535.6,113773,63590,117254,170805,99051,113011,98327.8,77419,83235.5,12.111,8173,170805,82613.7
105891,63993,108445,104644,61519,111477,176713,94422,122652,112652,70717,104399,12.155,8201,176713,96394.5
112340,67500,109071,193363,110409,114775,262143,156191,109992,115782,83583,90782.7,12.269,8264,262143,91664.8
70063.2,51716,88786.1,56450.3,38029,97281.7,109858,71779,100303,106426,80329,86826.8,12.349,8308,109858,96318.7
139384,75141,121567,211424,117462,117961,262143,148769,115480,117144,71736,107020,12.356,8313,262143,93026.9
129356,77545,109323,180728,108621,109041,217632,130412,109366,112877,75625,97818.4,12.363,8320,217632,92855
114251,71785,104306,145133,84453,112624,204840,116516,115215,108830,77623,91883.3,12.38,8329,204840,89984.3
130508,72573,117853,198080,111575,116346,254052,122352,136079,112256,71518,102867,12.393,8333,254052,88883.3
150163,72364,135994,154635,52419,193329,192125,70664,178183,109264,72073,99354,12.459,8364,192125,91588.8
80353.8,53598,98251.2,186281,116569,104728,250136,135149,121295,110015,77637,92867.3,12.532,8412,250136,87002.5
133911,72870,120434,178428,91325,128043,227152,119821,124241,113517,76965,96660.5,12.55,8428,227152,92619.4
111539,72096,101390,194856,119385,106966,262143,149235,115119,110937,74897,97071.4,12.55,8430,262143,86819.7
86158.8,63663,88693.6,82466,59070,91493.1,138983,85520,106506,99625,78353,83328.3,12.612,8477,138983,86838.6
123050,74517,108219,141467,79392,116777,187082,108244,113268,100323,70709,92983.7,12.623,8482,187082,83111.7
87762.6,57391,100218,92893.3,61876,98388,203728,126720,105362,111970,82968,88444.9,12.752,8568,203728,93227.5
111042,65528,111056,139813,68262,134230,179320,96481,121805,109717,70330,102238,12.755,8570,179320,93219.5
103468,63462,106850,158984,95218,109425,210244,113894,120977,103837,72879,93374.5,12.829,8609,210244,84494.2
74109.6,50077,96987.6,98268.4,68294,94299.9,188169,121520,101480,103052,74935,90125.9,12.874,8639,188169,85740
107306,67449,104263,107538,63528,110937,192694,105713,119459,105068,77401,88961.6,12.941,8690,192694,87339.9
118627,70970,109544,197194,119072,108533,215740,118882,118931,113951,73617,101442,12.967,8711,215740,94102.7
88593.3,61399,94562.6,81512.5,52764,101243,156500,99924,102642,96107.3,73998,85117,12.971,8717,156500,81709.3
110877,69547,104483,136071,87842,101518,218857,111954,128115,108653,74972,94977.8,12.998,8737,218857,88518.1
124863,75324,108638,169032,99773,111029,207213,106677,127299,109985,73785,97688.6,13.002,8738,207213,90921.1
98100.9,64160,100205,110383,66607,108609,180075,117261,100642,104977,75702,90879.3,13.003,8739,180075,88409.7
123376,69585,116197,227972,124072,120417,257748,120898,139719,108039,61255,115589,13.032,8761,257748,84326
121303,72141,110197,187164,109469,112050,235086,126273,122010,103929,70188,97040.8,13.101,8793,235086,82301.3
85682.7,62219,90250.6,71359.8,33405,139998,135084,77817,113765,109566,86277,83226.7,13.103,8796,135084,97138.7
102850,65976,102164,128474,74497,113020,183060,91038,131780,112658,67934,108681,13.177,8854,183060,95816.2
126729,68560,121139,201016,105030,125429,240897,115821,136309,105857,66402,104476,13.269,8903,240897,83694.5
137019,74372,120740,170033,83826,132933,243519,120355,132602,112365,80934,90987.2,13.361,8962,243519,89961.4
121947,73166,109230,158922,87517,119007,215775,114594,123401,111631,76030,96223.2,13.391,8980,215775,91779.6
101613,63876,104253,139177,87669,104040,261676,144111,119000,117416,88024,87419,13.439,9017,261676,93341.8
106120,67965,102327,177777,96171,121147,200428,103201,127279,102898,73267,92040.7,13.449,9024,200428,84458.9
118946,70959,109855,235060,125806,122449,234269,116720,131537,108591,70957,100295,13.476,9039,234269,87038.1
111686,69378,105501,124706,73832,110694,164783,94219,114618,112419,77153,95491.9,13.496,9054,164783,97258.9
101619,68522,97190.7,115458,75801,99822.4,170264,95935,116313,109789,79346,90680.2,13.507,9062,170264,94124.3
128938,76002,111183,219025,115877,123873,248710,123336,132155,104012,72447,94089.9,13.615,9128,248710,81130.6
83892.6,58579,93855.9,73788.6,50759,95270,184332,114911,105128,113268,91843,80823.9,13.646,9151,184332,96309.1
108944,68407,104372,114220,70847,105657,199282,122308,106781,98490.6,74106,87100.6,13.688,9168,199282,80156.7
103333,73546,92078.5,112983,76654,96596.1,159354,98625,105890,97582.6,68812,92936.9,13.709,9183,159354,82922
127495,75366,110866,234955,127632,120644,252566,128999,128312,111236,73708,98903.5,13.71,9186,252566,88000.2
93661.2,65933,93097.2,96456.5,62482,101171,153895,99233,101636,95712.7,74249,84480.9,13.737,9209,153895,81554.3
110126,71926,100342,118677,78492,99088.2,203489,118766,112287,111964,73138,100326,13.804,9252,203489,93242.5
166863,87124,125517,187216,88272,138995,231877,113631,133734,112790,68239,108322,13.823,9270,231877,91457.4
102334,61237,109519,212117,124801,111388,262143,159907,107436,115236,81274,92921.2,13.915,9330,262143,91118.4
132871,69764,124818,196160,89099,144284,233239,107375,142357,102810,71489,94248.9,13.984,9376,233239,81352
80126.1,54440,96457.5,77286.9,54157,93525.8,168030,109120,100917,109117,82516,86662.8,13.985,9377,168030,93657.8
113141,72618,102107,104666,59673,114950,160676,92127,114300,95028.2,63386,98251.5,14.013,9402,160676,80246
127774,76419,109577,207719,126627,107505,250997,150966,108961,111217,74162,98281,14.08,9458,250997,88125.2
106510,70314,99272,94814.3,59257,104861,179316,96894,121283,112898,80153,92309.3,14.199,9533,179316,96400.7
121985,67825,117868,225255,126380,116809,262143,136213,126125,115908,76711,99022.6,14.25,9562,262143,91790.4
84826.8,62090,89534.7,66996.2,46336,94757.1,125118,94157,87085.5,100315,74272,88515.8,14.308,9600,125118,88804.1
93624.3,65127,94212.3,138581,82601,109951,213029,128894,108314,110110,83185,86748.6,14.342,9631,213029,90511.5
120950,72942,108670,210622,114857,120179,262143,183670,93536.3,116908,80055,95705.3,14.375,9652,262143,92790.9
109613,68778,104446,86608.8,48949,115957,153344,93293,107720,103595,74474,91162.2,14.49,9729,153344,89487.5
98624.7,56146,115119,202227,105430,125705,262143,180811,95015.3,127057,79739,104425,14.554,9780,262143,102939
103593,70789,95905.5,100675,65865,100172,158926,89204,116759,109687,78438,91644.6,14.566,9793,158926,95065.3
132517,75380,115211,195168,108662,117709,213692,109874,127460,109180,70174,101964,14.665,9868,213692,89520.4
110591,67114,107991,174969,106291,107881,255762,148465,112900,114961,73917,101926,14.726,9910,255762,91430.8
86829.3,61004,93279.9,87481,59210,96827.4,165156,94433,114617,107001,75136,93329.7,14.737,9921,165156,91806.7
86284.8,63593,88921.1,75136.9,54085,91045,144523,89125,106272,112902,79623,92927.2,14.852,9990,144523,99605.8
103961,58564,116337,121850,58688,136068,214380,112426,124968,102664,77977,86284,14.858,9995,214380,82940.7
100585,69045,95473,110339,72791,99341.9,172018,110596,101933,99253.7,74299,87547.5,14.897,10021,172018,83428.1
119092,67576,115496,158944,82194,126732,200077,96925,135282,103804,69735,97553.2,14.933,10047,200077,85396.6
114142,61085,122460,188011,97499,126376,262143,162418,105775,110929,74693,97329.2,14.981,10069,262143,86811.4
104157,60734,112392,190975,88701,141101,213387,87132,160498,102945,58892,114559,15.059,10117,213387,83313.7
108631,65246,109114,192808,112137,112682,228111,132560,112775,106386,73878,94373,15.123,10147,228111,85399.3
103355,67933,99708.2,117958,77598,99622.6,202387,121497,109168,106253,77450,89908.4,15.139,10164,202387,87633.5
75163.5,49884,98747.4,84432.5,53406,103610,123177,71412,113042,91808.6,62640,96053.2,15.178,10197,123177,80476.3
114315,66636,112428,215378,120012,117613,245968,125629,128313,106241,71378,97545.3,15.295,10264,245968,83611.6
86454,53048,106806,156462,69147,148291,182658,83956,142583,106372,60918,114435,15.333,10290,182658,89567.2
80564.4,50131,105321,189895,123180,101031,262143,161466,106399,115554,84862,89238.6,15.344,10296,262143,91437.1
96802.2,64020,99094.5,136877,90947,98632.7,240381,150850,104432,114526,80415,93335.7,15.445,10366,240381,92411.2
94039.2,65513,94072.2,120852,78010,101528,194568,127131,100300,110041,84088,85763.3,15.536,10428,194568,92141
106861,65634,106701,133787,82034,106881,203945,114360,116874,109107,76366,93633.7,15.562,10449,203945,90344
110120,73238,98539.7,126988,87358,95266.1,190641,120385,103783,114504,77813,96438.2,15.677,10524,190641,96965.1
91914.3,61785,97494.5,95911.4,62221,101021,130420,76256,112085,108442,78446,90595.3,15.703,10541,130420,96443.2
125526,67692,121528,196556,98033,131400,260184,132636,128558,108363,74927,94781.4,15.703,10542,260184,84426.2
101515,66135,100595,120166,76233,103305,183729,98692,122004,103453,73497,92247.3,15.78,10601,183729,86550
120722,71292,110975,127871,74133,113042,213541,115142,121542,111216,79780,91359,15.789,10607,213541,91569.8
118637,68086,114194,227763,134039,111361,262143,151542,113367,116736,79833,95829.8,15.809,10618,262143,92618.4
53520.3,38404,91331.8,27166.7,15949,111631,101179,58677,113006,102944,76170,88572,15.844,10635,101179,93635.4
103396,67822,99910.6,61280.3,32875,122162,130244,71644,119140,107074,74493,94199.7,15.852,10642,130244,95091.7
118522,71693,108343,170695,81223,137728,223295,112122,130517,124159,72640,112016,15.929,10690,223295,103615
148704,69605,140011,189488,80754,153779,262143,112629,152534,119032,75407,103450,15.929,10691,262143,94914.7
83073.6,55998,97223.3,82739.3,46983,115412,120692,67559,117078,106272,72235,96416.8,16.018,10737,120692,95168.8
113349,66635,111479,169849,98217,113333,262143,139012,123585,116075,73443,103578,16.038,10760,262143,91957.4
98902.8,68426,94725.6,92584.2,63682,95279.6,149195,92981,105157,105911,77914,89085.1,16.045,10771,149195,92185
137217,78621,114380,234223,118240,129821,262143,124568,137915,112797,68344,108163,16.125,10817,262143,88679.9
127801,77738,107741,148482,88675,109737,223559,125896,116375,112430,78839,93459,16.135,10825,223559,91862.6
118993,72710,107252,110814,56206,129209,162587,82364,129369,107015,65500,107074,16.178,10852,162587,92056.8
118647,71385,108926,196400,113043,113862,262143,167650,102474,115069,74677,100983,16.262,10902,262143,90951.4
102957,69807,96658.1,94626.6,60598,102338,155083,87852,115689,110262,80604,89649.8,16.27,10907,155083,95994.4
114227,67679,110610,122969,69743,115551,174806,98728,116037,106893,77290,90637.4,16.425,10996,174806,90811.3
96615,63743,99332.6,98472.7,64424,100172,183983,117767,102384,111043,77227,94232.8,16.442,11009,183983,94116.6
91825.2,59881,100497,139134,89682,101674,228251,136343,109713,114236,76229,98211.9,16.476,11039,228251,93237.3
100562,60783,108425,182194,89813,132946,218335,115934,123422,105921,78451,88483.4,16.477,11040,218335,85833.7
101992,72656,91997.6,87733.5,60874,94452.5,188696,115857,106738,107995,80502,87917.5,16.55,11095,188696,90634.7
103304,62897,107638,174505,109686,104265,237050,142779,108806,105262,76026,90738.3,16.568,11105,237050,83453.7
110160,65862,109615,173855,99821,114142,197329,110329,117214,111576,76068,96127.5,16.712,11202,197329,93421.5
112867,65274,113320,156751,88677,115846,222473,116583,125061,107209,69831,100615,16.739,11221,222473,86742
122192,68239,117352,230840,122195,123805,262143,150987,113783,117953,76240,101392,16.743,11225,262143,93835.6
122061,74184,107831,150074,90841,108269,200423,109405,120058,106277,71888,96886,16.771,11244,200423,87837.7
122247,68751,116530,193615,88267,143754,233303,122523,124791,107434,76636,91873.5,16.804,11267,233303,85970.5
111478,59103,123612,196813,100630,128176,262143,130305,131843,104498,67868,100907,16.807,11275,262143,80380.6
101593,64987,102451,108514,60916,116743,161523,94122,112467,99513.2,76168,85622.5,16.866,11307,161523,84653
129028,72538,116573,200423,109479,119977,236538,120590,128549,112298,78646,93577.9,17.181,11519,236538,90536
67745.7,49178,90279.8,87515.5,51536,111289,124265,73208,111242,95918.3,74837,83997.2,17.23,11553,124265,84485.9
108792,71323,99964.9,156191,94413,108419,224761,121631,121103,110955,75761,95979.9,17.248,11560,224761,90276.8
102689,66408,101341,127294,81605,102228,207196,126159,107632,110799,78078,93000.7,17.275,11584,207196,91736.8
129411,73209,115847,160542,78552,133941,207966,91634,148736,106823,70867,98787.2,17.278,11589,207966,87690.2
114692,70543,106552,166185,102740,106007,232066,122657,123994,114925,71346,105566,17.329,11633,232066,93574.9
105501,67250,102812,117110,73307,104695,200871,114440,115032,111925,89237,82198.1,17.337,11639,200871,93444.7
126404,67889,122023,157908,88044,117540,212356,96109,144804,109192,66217,108070,17.371,11665,212356,89655.8
77565.6,56812,89476.5,52492.4,34726,99065.4,111939,79197,92630,106704,78354,89248.5,17.374,11667,111939,96406
85762.8,55550,101180,193585,119972,105748,262143,147479,116490,115255,88401,85444.1,17.398,11693,262143,91137.7
128301,72881,115371,180210,105558,111884,227806,116786,127836,105512,70656,97866.2,17.402,11698,227806,84553.9
135814,78447,113461,219592,120572,119358,262143,135739,126565,115092,80667,93503.8,17.531,11770,262143,90974.8
117320,63417,121240,165952,89694,121255,230794,126334,119725,114868,79758,94385.7,17.534,11775,230794,93635.4
102600,65319,102941,136460,85952,104047,174774,120668,94921.6,111199,78799,92482.6,17.574,11813,174774,95119.8
105925,62761,110608,172290,94622,119330,243798,139461,114566,107145,74702,93997.8,17.78,11941,243798,84715.2
96399,65547,96382.8,110504,73960,97917.2,152396,92145,108388,107040,67695,103626,17.857,11984,152396,93019.3
72530.1,52126,91189.3,79035.4,57498,90084.2,114969,80373,93745.7,102551,70373,95501.9,18.083,12135,114969,91973.4
103846,66189,102821,159901,97410,107579,195968,107442,119534,109005,63436,112613,18.09,12142,195968,90975.7
114790,69242,108646,154502,86193,117474,216488,110559,128327,106141,70569,98571.3,18.121,12174,216488,86224.5
104768,50818,135111,128949,39241,215356,161109,68287,154619,104412,68554,99815.6,18.122,12175,161109,89590.1
92572.2,63610,95375.1,81788.5,53042,101054,152152,105260,94731.4,102673,81259,82806.9,18.126,12180,152152,88675.4
112576,67992,108509,163068,101632,105152,243860,126137,126700,113428,73498,101140,18.23,12258,243860,90992.6
115319,73782,102431,118049,72837,106216,178173,104706,111519,108727,76556,93076.5,18.234,12259,178173,92335.5
131846,71548,120768,143225,66606,140924,217321,114286,124620,109067,71974,99311,18.266,12279,217321,89073.4
123244,72653,111171,166537,98655,110630,217455,119961,118798,114699,75348,99762.4,18.287,12298,217455,94692.9
76796.1,54783,91869.9,88015,61875,93222.7,157901,109381,94606.9,101120,76504,86622.5,18.399,12372,157901,86592.6
80208.9,48902,107492,153671,90386,111422,250198,129679,126443,119799,69404,113123,18.47,12422,250198,96781
139342,73006,125085,184756,90528,133750,234150,115395,132980,111770,75324,97246.3,18.482,12428,234150,90228.5
126881,70819,117416,142562,70071,133336,197598,102115,126816,113130,74396,99656.8,18.495,12440,197598,94950.6
83372.4,55997,97574.8,111130,72714,100160,185356,120315,100964,109311,79904,89655.3,18.699,12580,185356,92258.4
117575,71820,107288,181213,110545,107431,226432,130196,113978,111704,75168,97390.4,18.717,12593,226432,90872.4
109127,67452,106027,147292,85065,113477,225845,133202,111117,108529,73531,96728.4,18.721,12595,225845,87751
83491.2,58487,93553.8,97004.3,71341,89111.1,134720,82455,107076,110422,77078,93887,18.754,12620,134720,98027.9
100567,68832,95751.3,132324,86588,100152,163785,101848,105391,110399,82304,87906.8,18.755,12621,163785,95330.4
138628,76468,118809,178860,90193,129963,220618,110973,130288,114333,75154,99701,18.759,12625,220618,94036.2
102727,68872,97751,114035,72709,102785,169525,121829,91193.2,112437,84051,87669,18.835,12671,169525,96840.6
115211,73659,102506,125711,78695,104690,164050,106844,100625,99489.7,69155,94283.3,18.96,12740,164050,84397.1
111326,69609,104812,111857,64868,113009,176462,100356,115236,99124,77816,83481.4,18.971,12747,176462,82889.5
103583,61908,109653,148684,72582,134250,167760,85075,129231,113350,70357,105583,19.037,12794,167760,97916.5
139285,61061,149493,170647,69481,160958,262143,125983,136366,114925,84390,89249,19.099,12847,262143,90807.9
89570.7,62847,93403.1,92932,62732,97085.8,154143,107969,93563.3,99556,78313,83313.1,19.143,12887,154143,85374.8
105394,58899,117270,221904,131502,110589,262143,161505,106373,111231,73428,99275.7,19.147,12889,262143,87113.6
91327.5,60130,99538.3,86252.8,56105,100751,153742,80366,125372,110768,71422,101640,19.205,12920,153742,96624.2
83793.6,52761,104083,73487.8,37867,127184,108963,61287,116518,98049,68354,94006.8,19.268,12961,108963,88024.4
117754,73202,105423,116447,67560,112959,206594,127272,106381,111755,82281,89011.9,19.327,13014,206594,92748.5
89027.1,54518,107019,193433,104946,120794,262143,176746,97200.5,109531,73492,97673.2,19.345,13032,262143,85413.4
142510,77452,120585,172424,78806,143390,244023,109624,145883,112812,75865,97452.9,19.378,13053,244023,90362.2
118404,72691,106749,149079,88771,110059,222925,129388,112913,111703,80403,91048.2,19.466,13114,222925,91193.6
71364.6,54889,85207.4,55580.9,37176,97981.2,96082.5,63051,99869.4,97746.8,77315,82855,19.5,13128,96082.5,88907.2
103221,59495,113702,175562,96021,119824,257319,131161,128572,113084,77972,95048,19.535,13149,257319,89410.8
129644,73500,115597,160443,83518,125898,206128,106106,127314,112876,77903,94956.8,19.602,13195,206128,93912
106842,51429,136148,165760,83803,129628,211054,120198,115074,107749,82419,85677.3,19.608,13201,211054,88332
115795,66476,114158,224718,122867,119862,251586,133408,123591,108457,70847,100327,19.73,13276,251586,85311
92858.4,64093,94949,92213,60625,99682.8,169395,108291,102515,113319,83754,88669.9,19.802,13321,169395,97734.4
79535.7,56180,92781.3,60445.4,41727,94934.9,128771,85931,98208,110426,81739,88536.6,19.978,13431,128771,98579.3
111869,69725,105148,130810,78561,109123,197220,114343,113037,104981,72037,95506.7,19.986,13438,197220,86836.5
88311.6,66187,87443,88110.2,64205,89936.8,134295,89411,98434.6,112035,85038,86341.9,20.003,13454,134295,99680.2
118904,80328,97008.8,149414,95507,102526,201171,117929,111796,116785,81267,94178.9,20.009,13458,201171,98277.5
129335,72600,116751,230599,126995,119001,262143,150235,114353,116780,75807,100957,20.059,13495,262143,92662.6
106400,61631,113141,140205,48646,188885,182288,89969,132784,118078,82606,93678.2,20.06,13496,182288,101308
117268,67363,114088,118372,64109,121007,193124,86755,145889,106784,69805,100254,20.087,13520,193124,89017
119641,72204,108592,155952,77776,131409,191630,96557,130064,107830,73596,96021.2,20.105,13532,191630,90200.5
130020,74867,113815,160495,92830,113306,249329,136804,119441,115659,74515,101722,20.162,13587,249329,92720.9
112600,73246,100747,119542,73075,107210,162213,99175,107193,107454,79398,88693.5,20.227,13622,162213,92530.1
120212,71442,110274,195162,104517,122374,222544,107815,135275,111152,68801,105877,20.244,13632,222544,90678
72672.3,54168,87923.7,49386.1,32297,100213,106283,78028,89267.9,108943,84783,84211.1,20.283,13662,106283,99164.6
118574,76220,101953,138785,85409,106493,177991,114524,101855,111189,83318,87459,20.33,13696,177991,94814.2
110375,70636,102406,83376.8,46939,116410,156971,93921,109531,104768,79904,85929.2,20.333,13701,156971,90326.9
122875,73585,109435,172604,93296,121246,219539,116638,123353,109053,72948,97972.6,20.336,13706,219539,88855.6
83378.7,60898,89728.8,80964.6,56179,94449.8,138309,97592,92878.8,94211.2,71626,86200.9,20.373,13739,138309,81486.8
121734,70481,113193,164976,86829,124519,238889,119845,130634,112775,80683,91603.2,20.426,13773,238889,90797.2
112671,71790,102856,128728,71610,117809,188108,108150,113988,102252,73383,91318.4,20.435,13780,188108,84946.6
116770,67690,113055,234963,120287,128015,240767,117068,134784,109061,69058,103499,20.475,13810,240767,86910.8
144389,81389,116265,206705,113666,119179,258278,131628,128594,112263,71472,102939,20.488,13822,258278,88501.4
127839,68698,121955,230815,124197,121796,262143,157836,108846,112976,71399,103699,20.5,13827,262143,88859.3
73406.7,56593,85006.6,50541.1,38252,86590.6,100417,66743,98601.1,92589.7,69757,86987.1,20.555,13871,100417,83351.3
115861,71990,105474,127265,76606,108874,225423,121606,121485,108498,79056,89943.2,20.565,13881,225423,87759.4
102149,61885,108176,159038,82501,126334,203543,105539,126393,101907,73263,91159.4,20.579,13893,203543,83181.5
111427,78252,93320.2,84676.8,55495,99997.8,146820,93396,103023,101761,74634,89356.4,20.595,13908,146820,88253.8
142422,76613,121830,209045,115529,118585,262143,154604,111121,116142,76938,98930.2,20.76,14041,262143,92025
131242,75730,113576,222699,123710,117976,262143,127844,134381,109963,71125,101322,20.767,14047,262143,85845.4
91591.2,61865,97026.1,121074,77478,102413,184022,112340,107353,111663,79793,91711.4,20.861,14107,184022,94732.7
115645,73562,103027,122849,76646,105042,221422,122152,118796,115601,79523,95268.6,20.871,14118,221422,95230.4
102782,66794,100846,101212,60836,109031,174625,109336,104670,98874.2,73731,87884.6,20.962,14180,174625,82808.7
112964,73216,101114,124121,71568,113660,176888,93452,124048,106243,71658,97166.7,20.996,14194,176888,89969.7
61834.5,49597,81706.3,32653.6,28185,75926.3,89875.3,60225,97801,92661.5,72297,83996.1,21.129,14272,89875.3,84393
119858,63767,123183,117965,62815,123075,196567,105084,122590,112191,75241,97720.2,21.144,14282,196567,94107.1
96689.7,66087,95883.5,131969,87251,99124.9,192825,119652,105614,103540,76464,88742.4,21.198,14317,192825,85800.2
117797,69528,111034,144649,84763,111838,193778,102037,124459,101271,74400,89205.9,21.297,14383,193778,83443.7
94707,53573,115855,150758,79868,123705,235792,124769,123852,106666,76916,90884.1,21.316,14397,235792,84972.8
86053.5,61158,92213.7,70195.1,45479,101152,129645,78420,108345,106989,78198,89664.8,21.354,14421,129645,95061.3
121627,69808,114184,156097,72615,140880,225415,105029,140654,111148,74766,97426.5,21.431,14475,225415,90409.8
108168,63272,112039,138341,74070,122402,195648,107738,119011,103376,75107,90202.5,21.44,14480,195648,85376.2
108247,69442,102158,123540,70402,115002,189369,111184,111621,107236,77335,90874.7,21.445,14483,189369,89813.7
116446,67561,112955,166024,97712,111353,262143,165042,104094,115535,77707,97439.1,21.488,14518,262143,91417.8
123658,75519,107312,176047,98133,117569,190182,106637,116880,103926,72653,93745.9,21.552,14563,190182,86429.7
132794,74214,117266,235994,136283,113485,262143,130209,131940,115216,70944,106433,21.751,14685,262143,91099
126637,75021,110626,182183,101512,117617,236655,121679,127462,113526,84212,88348.7,21.807,14722,236655,91753.5
121115,68010,116709,180162,94971,124323,223684,107500,136366,107572,71902,98048.2,21.808,14723,223684,86993.4
102295,68840,97385.2,101190,65322,101521,184153,116646,103464,107374,82588,85204.1,21.886,14765,184153,90431.6
134875,69414,127340,146948,61451,156716,215531,92273,153079,111247,70238,103800,21.905,14778,215531,91418.5
114064,67002,111568,180323,106780,110673,248074,134856,120557,116920,81598,93905.5,22.141,14915,248074,94097.7
80860.5,53518,99018.5,120184,74556,105644,205149,125661,106992,111621,88252,82890.1,22.162,14927,205149,92747.5
83431.8,58496,93472.8,38831.8,25666,99153.8,129048,67960,124445,114649,84284,89146.7,22.204,14947,129048,102777
109793,73925,97333.5,96455.1,59686,105909,161270,82987,127357,95164.8,69733,89437.1,22.235,14967,161270,80328
119653,74377,105430,155620,95414,106889,214215,121106,115921,109339,72523,98804.9,22.241,14976,214215,89631
107987,64733,109327,128457,69723,120743,181680,88787,134103,109989,69155,104233,22.351,15045,181680,93274.2
115574,67446,112301,185898,111353,109409,225492,127743,115684,107650,71099,99226.8,22.372,15058,225492,86904.4
120226,72597,108533,146073,81623,117284,222493,114602,127234,104143,70202,97221.2,22.401,15074,222493,83673.7
67254.3,47090,93599,78288.8,52851,97079.2,118712,64124,121326,97385.2,55964,114042,22.408,15081,118712,86463.7
137740,72905,123818,229017,120163,124904,262143,147274,116652,113114,70363,105355,22.437,15101,262143,88997.3
95877.9,62921,99862.6,73667.2,45971,105019,144105,92640,101944,110292,83461,86604.8,22.445,15109,144105,97034.7
117966,74855,103280,174213,100949,113099,241783,138919,114063,112992,83184,89019.8,22.446,15110,241783,90747.6
106842,63317,110586,189594,107697,115372,253492,134895,123154,109366,71542,100185,22.494,15135,253492,86045.1
93319.2,63562,96217.4,100089,66199,99086.2,155341,92680,109845,101422,75448,88097.4,22.562,15170,155341,87130.3
91300.5,60559,98804,118129,80674,95963.1,178358,111297,105024,96917.4,72217,87951.3,22.618,15205,178358,80508.5
91810.8,58844,102252,74423.4,47913,101797,150862,81145,121842,108772,73485,97005.6,22.651,15231,150862,94892.3
118374,68420,113385,159914,95688,109524,236346,129320,119774,112335,77648,94812.1,22.701,15261,236346,90591
99922.5,66971,97781.4,101411,68629,96840.3,171628,103328,108855,110710,72926,99491.6,22.707,15267,171628,94920.7
121107,74297,106826,150449,86916,113441,228131,124289,120290,110459,74068,97735.4,22.721,15277,228131,89471.3
97709.4,60633,105611,139657,80509,113684,186209,103442,117973,110655,80002,90646.5,22.805,15336,186209,93524.1
92235.6,62827,96212.6,109845,76169,94511.1,156641,93858,109374,109202,71226,100478,22.82,15349,156641,94791.2
109678,70200,102392,130226,86283,98913.1,191899,113705,110604,108744,75602,94265.3,22.825,15354,191899,91089.3
90734.4,62334,95395.3,104972,66192,103932,200412,125671,104513,109572,81425,88190.5,22.835,15361,200412,91134.1
113167,66901,110858,164150,97727,110079,251508,158100,104256,113309,74890,99156.4,22.906,15419,251508,90170.3
94895.1,60277,103174,106568,63787,109490,151329,94058,105441,109785,83805,85852.1,22.936,15433,151329,95862.2
124130,74908,108599,201029,107766,122252,237746,116905,133279,114136,74328,100635,22.967,15454,237746,92263
113476,64355,115558,158051,90503,114450,252678,141970,116641,116981,73491,104319,22.999,15483,252678,93734.8
132043,75837,114107,190423,108361,115167,250712,138742,118426,113222,77591,95631.2,23.098,15550,250712,90156.6
137814,70050,128934,234318,108907,141004,262143,120648,142396,114730,70066,107313,23.1,15553,262143,90613.3
85446.9,54132,103448,115814,74187,102309,190888,110822,112884,99600.1,68405,95422.8,23.107,15559,190888,82038.4
108311,68741,103261,129978,80788,105439,196876,125116,103124,105297,76203,90557.2,23.205,15623,196876,87184.1
119819,71550,109748,163858,94806,113269,212492,115265,120816,111216,74368,98007.5,23.211,15633,212492,91666.3
116399,69562,109662,153397,89855,111880,220487,117395,123087,110898,75217,96624.7,23.245,15659,220487,90613.4
114455,71102,105495,151020,89114,111063,203401,111943,119079,116994,80292,95492.6,23.272,15672,203401,98280.8
105388,72152,95724.6,133675,84388,103813,151284,100718,98438.6,97422.5,68028,93853.7,23.362,15733,151284,83504.4
131612,74421,115899,214528,115655,121562,262143,163053,105363,115594,78705,96253,23.367,15737,262143,91477.2
137661,74932,120399,123347,63817,126670,254638,138999,120058,114286,85592,87506.5,23.424,15786,254638,90859.4
124648,77982,104754,122859,73296,109851,228274,116932,127939,113324,83571,88868.3,23.424,15788,228274,92323
86552.1,57952,97878.9,122498,73320,109493,199968,121413,107938,106870,79111,88531.7,23.429,15790,199968,88473
122360,73260,109459,201058,116813,112800,252115,130620,126494,111015,73193,99401.7,23.459,15828,252115,87820.9
116448,66481,114793,158456,85428,121559,239525,129538,121181,113629,82298,90485.8,23.467,15834,239525,91592.9
89685,50201,117081,154179,79001,127901,190996,81106,154330,102262,76213,87935.8,23.474,15836,190996,84690.5
118588,61865,125625,142257,68696,135713,170837,74755,149769,98838.4,61204,105834,23.588,15887,170837,83121.3
123699,73420,110416,160070,91302,114897,241310,142938,110639,116203,76460,99600.8,23.592,15889,241310,94002.4
112860,74504,99275.1,131038,83445,102914,216058,127485,111069,110434,78423,92287.2,23.593,15890,216058,90557.1
98749.8,51210,126375,159418,42252,247269,245528,80699,199394,120281,78373,100580,23.631,15914,245528,97692.2
87387.3,61331,93378.8,135684,90907,97816.6,201908,118526,111640,105349,77978,88539.9,23.654,15925,201908,86773.7
106698,70562,99097.8,131151,84164,102123,165955,98876,109996,101012,73232,90396.5,23.759,15993,165955,85744
94542.3,59945,103360,141527,85376,108639,200517,115391,113883,106185,72453,96048.1,23.905,16113,200517,87737.9
95417.1,60974,102556,130331,84950,100546,196255,122785,104750,107098,77768,90252.4,23.996,16165,196255,89042.2
99496.8,60802,107244,100953,53794,122988,172347,104728,107850,100458,79029,83306.7,24.008,16170,172347,84602.6
112368,73737,99870.2,120173,75972,103665,191841,111406,112853,108491,78151,90979,24.034,16192,191841,90842.1
91063.8,63417,94106.6,92915.4,60353,100895,177721,106774,109082,107702,80332,87864.9,24.065,16214,177721,91351.8
143250,80674,116370,206680,111437,121548,262143,121882,140954,105439,70819,97573.3,24.087,16235,262143,81321.7
87144.3,56286,101466,124858,77663,105362,210980,135720,101877,105843,81664,84940,24.112,16246,210980,86433.1
105502,65052,106287,169082,99722,111118,244722,140178,114413,114257,80873,92589,24.143,16263,244722,91742.6
93505.5,64255,95369.6,117496,76272,100957,178125,116723,100011,102738,77852,86485.3,24.283,16346,178125,86350.8
103376,68479,98933,127239,79777,104525,187095,112530,108962,116824,88871,86149.2,24.291,16353,187095,99611.2
117684,71047,108555,211924,122949,112963,262143,138494,124047,114541,74456,100819,24.397,16422,262143,90424.2
114952,64313,117138,195173,109522,116788,262143,168691,101842,115648,78083,97064.9,24.418,16434,262143,91531
147335,80556,119864,230768,110475,136896,252045,127007,130056,113806,71234,104703,24.449,16462,252045,90617.7
135860,76115,116977,210348,116250,118584,254530,124482,134002,108123,70073,101122,24.462,16471,254530,84706.2
84363.3,47300,116889,158844,66179,157300,184923,80058,151379,111668,67831,107890,24.476,16482,184923,94655.3
107787,74404,94939.9,107652,69574,101404,175409,107208,107227,112259,81095,90720.7,24.664,16612,175409,96121.2
149165,72592,134666,191823,89521,140428,242734,103773,153294,107528,71164,99024.4,24.683,16623,242734,85196.7
130783,74919,114403,124607,65176,125295,184874,95220,127241,110272,68453,105573,24.71,16639,184874,93263.2
54745.2,44763,80150.6,42395,34158,81339.6,79936.5,60189,87037.8,87558.2,72670,78962.7,24.732,16655,79936.5,80204.1
103496,67633,100287,110836,67517,107584,172119,92838,121502,98452,59479,108478,24.744,16663,172119,82617
92188.8,62656,96426.3,86418.4,59883,94576.3,136228,93583,95400.3,108439,84212,84390.1,24.752,16674,136228,95906
107583,70077,100612,167692,106632,103064,206209,108691,124335,103671,65634,103516,24.945,16778,206209,84699.9
123368,74551,108450,112997,71427,103678,262143,96253,178486,104963,76825,89539.1,24.982,16816,262143,80845.6
120290,75330,104651,177042,110805,104712,205184,124361,108128,114000,78354,95351,24.985,16820,205184,95123.5
149484,85467,114624,195510,113380,113009,262143,142501,120559,115924,75269,100934,25.001,16831,262143,91807
91170.9,67196,88918.6,76924,53117,94909.1,114822,78686,95632.6,110085,84932,84945.1,25.026,16844,114822,99521.8
115956,69500,109342,145424,83256,114473,194423,117609,108339,105141,73689,93508,25.064,16857,194423,87253.9
85996.8,65491,86055.9,78262.6,56506,90769.4,143650,95521,98556.6,107405,82932,84875.8,25.123,16892,143650,94189.6
111859,64968,112837,102472,55213,121631,178729,80203,146044,99173.7,74560,87170.7,25.276,17011,178729,82730.6
108732,66640,106930,124480,76144,107138,197936,106491,121813,104207,72983,93573.6,25.319,17044,197936,85996.4
106479,70965,98333.1,180569,107812,109763,237792,140546,110881,110141,82850,87123.4,25.348,17069,237792,88263.7
116530,73642,103703,137758,84789,106478,200847,109384,120335,106209,71427,97449.3,25.383,17094,200847,87731.1
122180,66463,120475,124414,68326,119334,189582,99752,124553,110683,74667,97147.5,25.405,17111,189582,93241.4
133028,79134,110169,215045,120668,116793,262143,140207,122532,107910,72402,97677.1,25.523,17186,262143,83793.3
91012.5,60644,98354.2,76486.5,38744,129378,140031,89908,102072,105925,80375,86368.6,25.548,17202,140031,93041.8
133552,69160,126554,158235,71498,145040,234713,104130,147721,111068,77559,93850.5,25.598,17230,234713,89474.3
100520,59940,109905,169570,94159,118023,207255,117475,115622,102341,68150,98415.4,25.616,17236,207255,83273.3
124681,73492,111183,162128,90206,117788,217811,118207,120758,109238,76877,93123.1,25.643,17252,217811,89199.4
98626.5,67952,95119.9,104321,67017,102016,154183,86727,116510,108580,74104,96025.6,25.671,17274,154183,94394.9
119842,71149,110388,194993,109715,116475,262143,155227,110675,112793,75064,98475.9,25.688,17282,262143,88675.8
80589.6,57929,91172.3,67551,45730,96807.8,127367,85209,97960.7,110172,75807,95245.2,25.753,17323,127367,98454.5
70897.5,53756,86433.9,44876.2,33488,87822.7,115346,72934,103646,109753,81719,88018.2,25.768,17334,115346,99141
116013,71023,107050,166330,95777,113812,213918,121560,115328,106122,75399,92240.1,25.859,17405,213918,86441.5
82485,62551,86421.3,68243.8,51614,86651.4,111947,84018,87321.2,109787,85596,84057.9,25.944,17455,111947,99488.2
88933.5,54590,106766,92611.8,58662,103464,159567,105285,99324.3,99097.8,75545,85968.3,25.952,17459,159567,84417.7
87342.3,62838,91092.4,64327.3,38228,110279,134113,80794,108785,111648,79259,92316.7,25.963,17468,134113,99309.2
103350,68939,98248.1,150846,94359,104769,187190,112822,108735,107724,71142,99235.5,25.967,17473,187190,90502.7
99235.8,64843,100296,92871.2,60170,101154,169803,101500,109638,111138,87886,82875.1,25.969,17475,169803,95516.4
111771,65578,111699,232210,127297,119548,262143,179083,95932.1,119131,80445,97052.5,26.005,17503,262143,95014.1
92793.6,61412,99025,93283.9,51727,118187,162104,93519,113599,113908,80901,92274.2,26.006,17504,162104,98994.4
90454.5,60394,98155.9,144087,87968,107345,193072,96912,130563,107463,63962,110108,26.11,17558,193072,89700.8
95018.4,62758,99224.4,104448,61845,110682,142422,94545,98722.7,107517,78277,90016.8,26.173,17596,142422,94414.4
74734.2,57812,84719.1,39001.6,28602,89364.6,94001.5,71340,86353.8,106633,82805,84394.3,26.203,17617,94001.5,97984.5
126153,67860,121833,146535,76398,125701,232690,107607,141715,110891,77774,93442.2,26.205,17618,232690,89483.8
88223.4,56074,103110,133939,88910,98726.9,218726,133697,107216,103347,72268,93719.7,26.346,17718,218726,83224
101417,64064,103748,148222,97960,99161.4,224752,123349,119412,111592,76166,96018.1,26.348,17723,224752,90915.1
100032,56561,115905,196872,114448,112734,262143,170697,100645,116668,77743,98349.1,26.412,17762,262143,92550.8
74050.2,52317,92760.5,36423.7,19021,125496,84516.7,51348,107870,91774.1,54147,111077,26.441,17782,84516.7,83998.6
93899.7,65347,94171.3,84140,58273,94627,171735,115519,97428.6,105440,77258,89442.3,26.484,17820,171735,89640.6
122174,68968,116094,217936,111315,128309,262143,132264,129890,114893,75062,100312,26.499,17831,262143,90776.1
124927,75926,107832,168044,87480,125891,206500,102584,131923,112368,73516,100171,26.555,17869,206500,93369.8
84944.7,58341,95420.6,73936.3,49440,98007.4,139514,86425,105793,111162,73579,99010.5,26.616,17918,139514,98326.5
126539,70680,117330,187743,100501,122426,262143,142954,120177,115005,80938,93120.3,26.635,17931,262143,90887.9
95130,62299,100073,88544.9,59484,97553.6,206580,119526,113268,109388,83405,85952.7,26.894,18087,206580,90383.1
113152,70764,104793,139136,86147,105847,196531,112807,114176,114775,82019,91708.9,26.932,18102,196531,96693.7
121605,74496,106979,185944,102057,119404,197076,105379,122563,110475,75324,96118.9,26.935,18106,197076,92343.5
88102.8,64851,89033.4,81393.8,54114,98573.8,120699,79464,99543.5,105519,82076,84254.7,27.012,18144,120699,94414.6
70319.7,44223,104210,44467.7,23350,124807,116370,59667,127816,91970.1,53347,112984,27.065,18181,116370,81264.1
94623.3,63386,97832.8,101173,65410,101368,182793,114349,104763,107189,80682,87066.8,27.195,18264,182793,90371.8
95067,66692,93419.2,122315,77884,102923,141828,82286,112958,94405.8,70058,88312.2,27.33,18346,141828,81357.6
122587,64214,125111,236742,128255,120971,262143,148231,115899,112447,69287,106359,27.357,18370,262143,88329.4
139358,71202,128268,171951,61186,184176,204843,90768,147900,107004,76676,91457.6,27.45,18431,204843,88158.3
105037,65019,105872,132303,74835,115863,193931,101393,125349,105900,73883,93935.7,27.529,18484,193931,88058.1
90720,62761,94731.2,91473.3,59097,101440,142244,82409,113120,104730,72403,94796.6,27.613,18540,142244,91643.2
121335,70210,113258,210134,120553,114235,236582,126053,123001,108066,69456,101967,27.689,18585,236582,86300.9
90656.1,56689,104804,147374,94506,102198,238406,128440,121646,112238,76108,96647.4,27.794,18666,238406,90304.8
127194,76910,108384,168479,94741,116543,239952,117066,134330,110519,68650,105505,27.814,18682,239952,88443.1
99555.3,66882,97551.7,96540.7,67135,94241.3,148231,90246,107645,112125,77460,94864.8,27.855,18703,148231,98487.7
76689,53781,93451,80169.7,48422,108504,120597,81455,97028.2,102974,68025,99206.5,27.88,18722,120597,91879.3
128359,74567,112813,183361,105777,113604,261731,123587,138791,114126,67239,111235,27.927,18755,261731,90046.8
134450,78293,112543,183555,99606,120771,230951,111135,136191,111296,71928,101405,27.932,18760,230951,90048.1
124263,72447,112409,147090,80336,119992,212669,115375,120802,109655,79763,90096.1,27.995,18798,212669,90089.2
120128,76867,102420,148710,90132,108129,216532,130807,108485,112143,77671,94622.2,28.073,18853,216532,92222
101455,62889,105725,116755,59751,128059,161282,87363,120987,96315.7,67699,93238.4,28.078,18861,161282,81477.8
107886,64557,109522,147165,70693,136429,165899,83367,130416,118151,78187,99034,28.117,18891,165899,102889
103300,69089,97987.8,151547,93551,106165,218633,123359,116152,107854,76386,92534.1,28.124,18898,218633,87739.6
115479,66778,113331,143143,73010,128490,198843,105541,123472,107378,78360,89804.9,28.246,18972,198843,89084.3
121349,76556,103881,145826,85360,111959,203460,115274,115672,107922,72385,97710.1,28.248,18975,203460,89203.2
105009,61082,112666,173013,95434,118811,262143,155046,110805,117886,82151,94044,28.297,18996,262143,93769.3
85269.6,59789,93465.8,67476.5,45883,96378.6,162175,100233,106036,107858,80220,88115,28.303,19005,162175,92938
60270.3,44673,88417.5,68149.9,51409,86877.3,137495,88735,101548,95254.5,76706,81383.5,28.327,19023,137495,82605
106058,63798,108947,149766,88002,111532,231585,118078,128535,111482,77620,94126.2,28.394,19066,231585,90176.1
89829,56301,104564,104006,52499,129834,158933,93437,111475,106169,77578,89688.9,28.41,19076,158933,91547.1
123409,73811,109573,156238,90685,112910,197895,119650,108393,111159,79348,91809.7,28.432,19094,197895,92952.7
111985,66729,109983,167808,92403,119016,204390,107877,124169,100263,65593,100175,28.469,19117,204390,81458.6
103864,59386,114620,100349,35732,184051,134046,72904,120499,113061,83022,89247.9,28.497,19138,134046,100728
119016,74728,104376,131818,78221,110441,210355,117484,117342,108765,72655,98107.5,28.639,19238,210355,89412.1
111135,57137,127471,227736,60714,245823,190915,74238,168536,98458.9,58280,110717,28.656,19248,190915,80894.7
99199.8,63805,101891,89001.7,47866,121857,138366,80617,112482,96219.1,72797,86621.9,28.683,19267,138366,83489.5
138841,81783,111259,214900,115730,121695,232671,128754,118430,107869,71323,99116.8,28.73,19301,232671,86463.4
117788,72538,106418,143752,80354,117243,177897,117597,99140.9,101241,73309,90506.3,28.796,19348,177897,84874.4
100208,57151,114910,220575,107255,134778,262143,129930,132224,107236,74621,94179.9,28.804,19353,262143,83118.5
89602.2,37130,158152,143572,56507,166513,153829,62614,161007,94480.3,57683,107343,28.89,19414,153829,80328.1
86010.3,60786,92731.4,84464.3,57720,95901.8,151921,104262,95493.3,95351.1,72884,85738,29.016,19497,151921,81374.3
113817,63097,118216,224658,123970,118764,262143,139168,123447,114668,78411,95839.9,29.028,19509,262143,90551.2
126712,72815,114045,173666,91407,124513,253685,131410,126516,117838,77741,99338.1,29.057,19532,253685,94499.1
125113,75384,108768,164910,98711,109487,205893,107226,125841,109905,69394,103794,29.092,19559,205893,90962.4
102766,64151,104985,176531,114457,101078,254309,148319,112369,111625,73786,99144.6,29.153,19604,254309,88229
132500,70741,122751,151541,63735,155823,203978,89108,150019,109364,77950,91946.8,29.273,19684,203978,90597.7
125332,66063,124332,115289,48386,156153,165801,88762,122417,98802.5,70448,91913.5,29.387,19760,165801,83548.7
120721,71487,110671,214199,117869,119096,262143,173396,99078.4,116439,75434,101160,29.462,19805,262143,92321.7
107844,67536,104651,133879,85305,102853,229277,127967,117420,106612,79335,88068.5,29.506,19835,229277,85518.4
110721,61735,117538,125650,63475,129730,188195,87940,140249,103675,73049,93012.4,29.598,19890,188195,86361.3
103449,69819,97102.7,105839,72662,95459.4,172810,112898,100315,112442,79185,93060.9,29.677,19958,172810,96543.8
98729.1,61119,105864,161096,96849,109011,253186,158746,104524,116549,84201,90713.6,29.722,19982,253186,93256.2
93513.6,42698,143531,175599,52425,219515,179516,75397,156037,113746,71896,103684,29.747,19999,179516,97231
131659,79100,109082,153437,86791,115860,195528,105659,121278,112038,77233,95069.8,29.789,20032,195528,94049.5
131185,72428,118702,234807,109256,140846,257870,122565,137884,105327,63576,108574,29.868,20098,257870,81603.1
146897,73686,130650,213173,93861,148842,262143,134882,127369,115913,78605,96641.2,29.933,20144,262143,91795.9
124766,69050,118417,197288,116370,111106,262143,165974,103509,115258,77960,96889.7,30.047,20225,262143,91140.4
109153,65916,108524,145460,88879,107257,228986,132077,113622,108958,76042,93904.2,30.049,20228,228986,87891.2
108180,67077,105695,115582,66062,114662,151636,89028,111623,100962,74887,88355.2,30.208,20317,151636,87011.7
104642,68162,100611,124039,77706,104612,171816,99317,113375,104186,71386,95647.9,30.222,20327,171816,88378.8
118739,68549,113520,161359,92486,114340,262143,143383,119818,111754,73047,100263,30.312,20389,262143,87636.6
115767,68296,111089,169763,94521,117705,243712,138941,114955,113965,82463,90571.3,30.315,20391,243712,91543
93399.3,57469,106510,93127.9,56521,107982,188508,114894,107526,108534,81416,87364.9,30.395,20436,188508,91191.5
117736,69895,110394,174809,105606,108481,209240,111346,123154,109290,72994,98124,30.455,20489,209240,90040.4
89061.3,62766,92991.8,99562.9,69338,94103.5,157188,90915,113308,108763,76670,92968.8,30.46,20492,157188,94302.1
94851,60406,102906,140636,88332,104342,215281,132025,106864,111396,83024,87932.1,30.514,20521,215281,91590.5
114418,59437,126159,155066,66277,153333,193203,83771,151147,98316.7,64369,100099,30.519,20524,193203,80542.1
63205.2,50324,82310.9,38884.3,28522,89345.7,95631.2,79307,79025.7,95082,77783,80111.2,30.602,20574,95631.2,86283.9
121880,72777,109753,172285,93204,121141,244991,119458,134405,113548,72822,102187,30.649,20601,244991,91008.6
89816.4,53502,110018,178703,108938,107506,238293,138094,113088,114874,76859,97950.5,30.653,20607,238293,92951
98541.9,60970,105922,173531,68306,166494,193388,89032,142352,121256,78593,101112,30.799,20682,193388,103465
149273,84832,115319,184992,99199,122215,215723,114063,123946,112059,69407,105809,30.843,20722,215723,92212.2
109088,67504,105908,145945,81174,117829,223661,124248,117972,110744,79723,91036.4,30.866,20737,223661,90166.8
96256.8,57167,110348,187605,123758,99346.4,262143,158569,108343,109474,79922,89768.6,30.889,20751,262143,85356.9
86941.8,59465,95818,74059.1,48085,100937,135393,77739,114140,109808,75017,95929.9,30.9,20759,135393,97351.8
119448,65653,119235,147866,82858,116953,179566,80585,146032,103315,68702,98554,30.955,20786,179566,86795
116927,69940,109564,153601,84345,119348,199497,106470,122797,111170,79578,91553.4,31.008,20816,199497,92816.3
80236.8,54854,95861.7,71485.4,47077,99515,156466,101678,100849,110985,84656,85918.5,31.014,20820,156466,96590.3
115031,74856,100709,163571,102192,104899,209143,115233,118945,106074,73482,94603.4,31.075,20866,209143,86832.5
114356,66312,113018,177952,110182,105846,231629,127968,118624,107289,74817,93980.3,31.107,20877,231629,85979.6
94379.4,60425,102362,121030,62801,126301,206651,105149,128799,107211,78586,89407.4,31.146,20905,206651,88198.9
143953,68318,138091,215352,103936,135788,262143,134239,127979,124426,71861,113475,31.196,20948,262143,100309
108290,66641,106494,107225,63044,111463,170142,91498,121865,100537,69533,94757.9,31.24,20986,170142,84884.1
78769.8,56652,91122.2,111102,77550,93890.5,156660,94641,108483,111710,75786,96601,31.319,21045,156660,97296.9
93427.2,65583,93360.2,121422,72697,109461,213708,120163,116555,108534,76434,93059.4,31.398,21095,213708,88873.1
111006,63990,113688,193382,113577,111585,262143,138777,123794,115369,76585,98724.9,31.42,21105,262143,91252.2
98756.1,61106,105916,123636,78577,103116,219357,125680,114384,109647,76529,93896.4,31.437,21119,219357,89465.7
88967.7,64415,90516,59064,36533,105954,124135,76572,106244,106486,83214,83864.3,31.466,21136,124135,95065.9
111320,71898,101470,123757,72434,111971,197190,112721,114646,107909,75794,93304.6,31.49,21151,197190,89767.7
145854,73744,129620,221685,106739,136111,262143,133306,128875,111697,73933,99011.1,31.505,21164,262143,87580
98366.4,58521,110158,145673,86649,110178,220332,129509,111496,106088,73020,95214.3,31.592,21230,220332,85816.9
117932,69731,110837,178779,104454,112169,235530,141204,109315,113711,76361,97590.9,31.611,21243,235530,92041.8
96561,56020,112964,164285,95121,113188,238412,129545,120611,108189,77358,91655.6,31.623,21251,238412,86255.4
126961,72056,115473,208421,113690,120143,262143,156186,109996,115276,76258,99067.6,31.664,21276,262143,91158.4
107837,65816,107378,171991,103166,109257,211413,120552,114931,113933,79068,94433.9,31.699,21296,211413,94482.8
95098.5,65003,95878.3,102531,67228,99950.7,153577,80073,125696,99194.4,75669,85911.1,31.744,21335,153577,85065.3
96047.1,55492,113432,167151,65217,167969,198990,89168,146252,120438,73719,107069,31.759,21347,198990,102131
131788,77494,111452,167786,100016,109943,245216,121013,132800,109478,70025,102460,31.872,21405,245216,86918.2
102845,61309,109936,169412,99142,111986,262143,226528,75839.6,123114,77387,104260,31.919,21445,262143,98996.8
94211.1,67048,92086.5,93092,64761,94206.1,149860,104266,94193.8,98877,75020,86377,31.958,21472,149860,85089.9
120735,72430,109243,164743,93667,115266,194496,99337,128316,108970,71399,100022,31.971,21481,194496,91076.7
83389.5,58372,93623.9,84251.8,58190,94887.8,147301,98837,97671.2,101953,76515,87324,31.999,21499,147301,88401.3
81963,57634,93200.7,116363,80659,94545.7,180718,118378,100048,110854,81459,89185.1,32.008,21509,180718,94228
72122.4,57828,81735.7,37999.7,29970,83094.7,85870.5,64797,86849.8,93929.7,76512,80455.1,32.016,21515,85870.5,86029.6
140390,79342,115961,173978,89264,127731,218522,114064,125553,112423,79202,93024.9,32.021,21522,218522,92319.1
135769,74320,119722,209387,107999,127061,222336,113542,128331,116458,67713,112714,32.066,21552,222336,96003.3
116068,72771,104528,146335,87434,109685,176833,104107,111318,108175,75544,93844.5,32.066,21553,176833,91906.8
132528,71594,121314,183971,92403,130479,243475,124485,128179,115368,77384,97704.4,32.067,21555,243475,92968.3
108061,65986,107324,168339,104519,105553,257213,151211,111478,112217,78398,93807,32.138,21607,257213,88553.9
94287.6,58989,104752,133181,79510,109774,174083,101515,112384,108109,75208,94206,32.161,21619,174083,92093.6
126708,69926,118753,202007,95693,138346,228993,108942,137755,107247,69596,100990,32.188,21637,228993,86179.3
123626,73793,109793,163228,98464,108642,251684,137509,119951,108799,72375,98518.3,32.283,21691,251684,85644.2
103072,63683,106071,88235.8,36954,156482,139740,67611,135452,99872,60955,107378,32.37,21738,139740,87015.9
132404,72417,119823,199255,106534,122575,225968,107279,138042,108434,62943,112901,32.389,21751,225968,87644.4
113802,73262,101801,124658,77414,105531,179628,105446,111641,100098,73169,89656,32.472,21799,179628,83572.5
143248,83908,111884,116540,52903,144369,212247,103264,134701,105356,75275,91725.2,32.619,21904,212247,85829.4
77985.9,54709,93419.4,49475.8,30035,107956,103311,65578,103245,98736.2,76959,84080.9,32.649,21920,103311,89231.6
120246,66867,117853,104781,43121,159247,177979,92120,126618,106587,76359,91479.6,32.679,21936,177979,90213
93197.7,62738,97354.1,116497,72719,104990,151231,91761,108010,98283.6,72980,88258.6,32.726,21978,151231,84370.3
105069,59980,114801,182473,105736,113098,236557,125012,124012,105660,73518,94188,32.73,21981,236557,83896.5
94209.3,66293,93133.5,86759.2,57167,99460.4,140699,88476,104219,101362,75384,88120.6,32.76,22000,140699,88418
112954,70307,105289,117684,69922,110302,202899,127766,104074,111286,80358,90759.3,32.811,22027,202899,92619.3
86362.2,52621,107558,101114,49685,133372,132325,68799,126050,110127,70060,103016,32.919,22099,132325,97952.8
113904,73717,101263,148017,84772,114430,188068,108804,113279,110030,80683,89373.7,33.074,22193,188068,92727.9
144220,80045,118079,207894,110760,123010,262143,142393,120651,115788,79312,95675.9,33.09,22202,262143,91670.4
159986,69869,150064,222103,79946,182069,262143,86304,199062,109946,64279,112096,33.15,22246,262143,85828.8
107829,68501,103162,124395,64115,127152,165428,87871,123379,99303.4,67937,95793.9,33.286,22337,165428,84084.1
107788,69386,101808,116418,72401,105380,180189,107437,109915,104115,72427,94209.5,33.293,22339,180189,87538.1
120165,72005,109370,162748,93028,114652,219339,126077,114014,111383,75572,96590.9,33.297,22342,219339,91203.4
107949,67947,104118,126913,80131,103797,191576,106099,118334,98763.8,71965,89940.8,33.324,22358,191576,81138.9
124459,73854,110442,176888,82793,140019,201020,100949,130502,111058,81140,89700.7,33.35,22377,201020,92564.4
97245.9,65244,97681.1,103143,65070,103881,172276,104975,107552,108583,82452,86305.6,33.355,22382,172276,92733.1
111753,66568,110020,147877,87115,111247,229050,132789,113044,112590,84493,87329.2,33.454,22445,229050,91517.5
124766,65185,125438,145147,72084,131962,223233,111802,130854,110076,80211,89936.8,33.529,22507,223233,89538.3
101411,68723,96708.2,148451,88064,110475,228894,131638,113955,111779,80067,91492.4,33.536,22514,228894,90720.4
90115.2,62316,94771.6,84233.8,54313,101640,139813,78102,117318,109820,74123,97097.9,33.543,22524,139813,96957.6
70578,54515,84846.4,54065.6,36159,97990.7,184891,121464,99758.1,99400,62717,103868,33.585,22546,184891,82390
109654,67442,106555,113798,61102,122056,183917,99572,121050,109885,81452,88413.3,33.592,22549,183917,92964.9
74090.7,58201,83428.2,52212.3,40716,84040.3,123720,81627,99331.1,111719,86204,84933.8,33.752,22639,123720,100337
121735,69278,115159,182484,108267,110461,229159,133851,112200,112291,73592,99998.3,33.807,22686,229159,91208
122350,72596,110451,141998,88013,105734,247433,127620,127063,114704,74203,101307,33.867,22718,247433,91940.4
113690,66345,112303,192228,109021,115555,234105,122937,124798,112568,76097,96945.4,33.904,22737,234105,91030.4
153332,78537,127950,212923,105922,131740,262143,128772,133413,108296,63280,112156,33.906,22740,262143,84178.3
77498.1,54420,93328.1,76703.2,53448,94050.6,184151,117938,102330,111003,83358,87270.5,33.975,22781,184151,94061.1
120843,70392,112507,199679,102075,128202,262143,129810,132346,113541,75260,98870.8,34.024,22811,262143,89423.7
125024,65433,125221,217344,124654,114267,262143,142436,120614,112213,79841,92108.2,34.162,22901,262143,88096.2
115943,60930,124708,133657,68961,127019,213671,88892,157530,110904,80531,90253.3,34.274,22980,213671,91246
110691,69478,104411,101927,66468,100498,146960,87955,109501,94752.2,62810,98864.5,34.279,22983,146960,81231.8
129034,68093,124188,95148.2,36644,170168,148404,65165,149249,104634,63701,107649,34.3,22993,148404,90981.2
85584.6,59482,94295.3,157005,96954,106128,254781,146047,114329,107154,75475,93043.5,34.304,22997,254781,83714.4
115094,65183,115717,212105,116577,119239,262143,152955,112319,114581,78592,95546.7,34.309,23000,262143,90464.2
104899,64010,107399,185765,106154,114685,262143,141463,121444,109190,73828,96926.1,34.442,23109,262143,85072.6
96730.2,65746,96421.2,112477,73192,100712,147431,85131,113496,95106.8,63245,98552,34.484,23136,147431,81543.2
86714.1,48953,116089,129650,41453,204972,150020,72706,135225,102171,62991,106299,34.495,23145,150020,88369.2
115960,73072,104001,143810,82383,114401,176332,118061,97882.5,112714,84012,87926,34.504,23156,176332,96491.7
102062,66654,100350,123068,73695,109443,205512,116447,115662,99783.7,72188,90588.8,34.513,23166,205512,80876.5
101428,67009,99198.6,91056.5,60010,99441.4,167190,101263,108203,111058,77213,94262.8,34.639,23239,167190,95676.8
89310.6,64789,90340.3,116224,75179,101316,165673,104181,104218,98391.2,78674,81960.6,34.709,23298,165673,83149.3
127884,68894,121650,185894,94449,128988,233317,125626,121716,109833,69565,103472,34.752,23332,233317,88367.7
145987,77527,123408,222249,113000,128897,262143,151531,113375,110141,68246,105767,34.878,23408,262143,86023.4
101343,66985,99150.5,162009,99362,106856,208143,118230,115375,102589,72978,92127.6,34.907,23422,208143,83440.1
128728,73324,115055,213623,120943,115757,227274,120716,123385,115238,76077,99271.2,34.976,23470,227274,94329.1
93735,64454,95308.5,95991.4,65932,95414.9,127284,77516,107613,109931,80327,89688.7,34.995,23480,127284,98220.6
124185,74934,108610,183089,107557,111559,256190,152745,109920,111861,74152,98863.8,35.006,23485,256190,88291.9
119722,67929,115504,116039,61497,123660,176890,91752,126348,101355,72517,91598.3,35.014,23489,176890,85081.6
112684,69053,106945,156564,93323,109947,219137,135220,106207,114196,81462,91870.7,35.064,23529,219137,94035.8
109256,69643,102813,116613,67428,113341,164223,99553,108108,96584.8,74078,85447.5,35.087,23540,164223,81476.3
114256,68167,109846,147728,88499,109396,184460,100402,120404,115035,70488,106954,35.106,23566,184460,98065.1
123888,72433,112091,218678,120541,118891,262143,158793,108190,113817,75003,99450.7,35.137,23583,262143,89699.7
79926.3,51070,102566,146900,66250,145316,167373,77087,142293,104129,62943,108419,35.168,23604,167373,88730.9
108022,67341,105126,154353,95614,105797,204613,106785,125575,110199,70539,102383,35.206,23628,204613,91374.2
128178,81143,103524,180162,107851,109476,239451,133478,117567,111591,77875,93909.8,35.24,23658,239451,89561.5
113534,70981,104825,112380,70458,104530,192651,106058,119044,110775,82330,88179,35.248,23668,192651,93051.5
117516,76092,101213,233057,132969,114866,262143,172415,99642.2,115995,77464,98133.6,35.283,23697,262143,91877.4
135670,77016,115447,174236,94263,121137,262143,136233,126106,113857,75475,98863.5,35.376,23744,262143,89739.7
116276,69331,109911,169271,93553,118578,204036,99055,134993,112338,71065,103597,35.386,23759,204036,93566.2
123602,70213,115368,196044,110248,116537,257729,120595,140060,111159,71043,102542,35.415,23772,257729,87448
137794,68289,132239,154778,71134,142598,221707,91027,159620,109704,73030,98447.1,35.523,23833,221707,89307.5
137703,81847,110260,163472,86466,123902,228895,114318,131221,115004,79110,95270.9,35.676,23933,228895,93945.3
101756,61303,108782,148244,84879,114461,241143,125296,126129,110891,75508,96246.4,35.677,23934,241143,88706.2
105284,65480,105374,163284,90616,118092,211295,109278,126717,107107,78922,88940.8,35.702,23953,211295,87668.2
127601,77193,108332,190170,111182,112095,257298,133958,125878,111613,77314,94609.9,35.715,23965,257298,87941.6
109653,71574,100403,134747,86389,102221,196847,121856,105867,110791,80098,90648.6,35.721,23971,196847,92680.6
129111,74030,114297,200514,103255,127266,221959,119234,121998,113882,76237,97896.8,35.754,23995,221959,93461.5
103650,67140,101174,121367,71176,111750,198790,118263,110161,104912,82206,83637.4,35.83,24040,198790,86623
118950,70958,109861,175967,105108,109717,260316,144367,118172,115677,84316,89911.9,35.971,24124,260316,91728
108634,66634,106844,159528,105445,99149.6,246298,138443,116592,114163,83969,89102,35.983,24140,246298,91503.8
122256,70904,113000,197426,115652,111874,238832,129118,121223,113022,73476,100809,36.119,24222,238832,91049.4
131370,74620,115378,170914,88771,126179,241296,116258,136021,109528,78580,91346.6,36.137,24235,241296,87328.6
110657,59303,122287,130667,80739,106062,246595,128573,125694,107948,74309,95203.3,36.165,24249,246595,85261
109652,66667,107791,117591,72856,105777,221364,126398,114775,110081,80838,89243.7,36.173,24254,221364,89715.7
124482,75039,108717,176730,93495,123880,200395,109373,120076,110923,71881,101132,36.258,24304,200395,92486.7
76645.8,52327,95993.6,86603.3,46403,122312,129920,58629,145226,96393,65299,96742.9,36.298,24341,129920,84440.4
51727.5,37514,90366.6,97890.3,69507,92297.7,173579,113491,100234,99331,73434,88647.7,36.316,24355,173579,83361.7
112731,67512,109432,164275,91879,117175,242743,134967,117869,105083,74902,91942.9,36.35,24379,242743,82750.5
80780.4,61613,85923.8,56446.1,40452,91448,105700,69592,99539.3,101118,74059,89481.1,36.367,24396,105700,91393.7
133302,74335,117523,178286,101499,115116,219693,110181,130674,111638,73135,100038,36.441,24452,219693,91426.1
122134,67404,118749,177149,98309,118093,240382,118812,132593,111868,69746,105116,36.444,24457,240382,89753.2
111082,69046,105435,165404,90934,119206,184890,98745,122709,99791.9,68294,95761.9,36.502,24486,184890,82782.1
125180,69335,118321,181790,73441,162223,262143,120762,142262,104753,60096,114235,36.52,24495,262143,80635.9
129098,70202,120517,219127,107184,133982,224665,103106,142801,108077,65572,108018,36.577,24529,224665,87408.2
102737,63751,105613,148224,75049,129436,184590,95525,126640,118546,71141,109206,36.588,24536,184590,101564
127942,75894,110481,167179,103072,106297,247129,143435,112914,115714,77649,97663.3,36.645,24570,247129,92978.5
110066,72573,99393.1,124923,68065,120282,170974,94289,118836,97887.5,72110,88963.5,36.689,24604,170974,82158
103683,68991,98490.4,107975,69815,101357,143436,80900,116195,93362.5,70878,86325.9,36.826,24676,143436,80166.4
122856,73552,109467,150598,77344,127606,199472,99210,131767,112765,75632,97712.4,36.846,24687,199472,94413.9
127735,67606,123824,190888,98064,127570,242957,121092,131490,109197,81746,87543.3,36.862,24695,242957,86844.6
132668,72796,119437,208181,109589,124496,262143,139067,123536,109739,67495,106554,36.864,24698,262143,85621.8
87055.2,53994,105665,131900,85219,101435,206734,128383,105532,112761,77092,95858.4,36.896,24716,206734,93741.7
115497,65789,115053,205754,109727,122889,262143,157731,108918,116643,78314,97611.2,36.997,24771,262143,92526
129160,74703,113310,213084,115638,120762,253772,138273,120278,108792,71026,100383,37.003,24775,253772,85445.2
93504.6,60946,100547,112721,76012,97185.9,186177,115482,105655,108311,87173,81427.1,37.022,24786,186177,91182.4
96929.1,58772,108085,120771,54197,146038,189273,79315,156391,116371,72945,104551,37.139,24857,189273,98958.2
118658,70142,110866,179862,106084,111114,248247,134820,120673,109233,71792,99713.9,37.19,24893,248247,86393.8
90173.7,56990,103696,136439,93775,95352.5,226392,133483,111151,108750,73309,97218.8,37.353,25017,226392,87921.5
88839.9,64157,90749.4,82878.7,51957,104539,146672,96184,99936.5,103764,78647,86465.5,37.4,25061,146672,90269.8
136874,70093,127975,217062,110238,129042,262143,122033,140780,108963,62642,113997,37.441,25089,262143,84846.3
101037,65302,101399,120190,74746,105380,173361,104413,108812,99303.4,70837,91872.2,37.442,25090,173361,83354.2
110938,69607,104450,132782,81232,107125,207696,112651,120829,111492,81925,89187.8,37.493,25120,207696,92383.6
109922,68663,104916,122198,80558,99410.9,195647,114669,111817,107128,73783,95153.9,37.519,25140,195647,89128.5
141667,82982,111883,211899,119137,116563,262143,159441,107750,114216,74832,100027,37.58,25181,262143,90098.5
111485,69374,105317,114013,65979,113247,186213,94135,129640,99542.2,71434,91323.4,37.584,25185,186213,82410.6
109129,68806,103942,148594,88335,110243,184763,98245,123249,112402,66664,110500,37.605,25202,184763,95404.2
120734,70145,112801,129342,80607,105159,237422,124845,124632,108257,78542,90330.3,37.617,25212,237422,86414
142534,73336,127374,230296,113028,133530,262143,113746,151037,112390,69618,105800,37.628,25219,262143,88272.8
162343,82675,128688,209819,98694,139327,262143,114100,150568,114569,77533,96841.2,37.628,25220,262143,90451.8
94461.3,63299,97799.6,73112.4,50244,95364.5,178986,116822,100409,108983,85271,83759.9,37.641,25226,178986,92516
106104,71531,97211.2,157502,106567,96859.8,208744,120854,113197,112224,74192,99131.1,37.766,25323,208744,93019.9
95807.7,58348,107610,126002,67449,122429,143779,65341,144209,110970,69086,105268,37.822,25366,143779,97742.2
129839,74279,114557,181513,98003,121380,262143,137843,124633,110946,73911,98374.9,37.842,25379,262143,86829.3
80262,55989,93947.9,80186.3,53410,98391.5,176506,119217,97029,114697,93248,80610.9,37.845,25381,176506,98458.8
97182,64184,99229.1,99985.1,63575,103069,167143,97533,112309,107850,80184,88147.8,37.858,25392,167143,92472.6
113012,74404,99542.5,184723,101129,119708,262143,194939,88129.1,120947,83214,95253.3,37.92,25432,262143,96830.2
80568.9,47304,111622,204022,116616,114656,262143,174728,98323.1,116951,76582,100082,37.946,25449,262143,92833.7
113788,65452,113934,185845,97119,125408,262143,137794,124677,104560,68680,99773.3,37.95,25453,262143,80442.7
118419,76040,102061,131228,84354,101953,214768,122303,115083,114472,76123,98551.8,38.05,25528,214768,94713.7
107910,66335,106610,115051,70550,106874,193236,116733,108486,106513,79455,87853.6,38.123,25567,193236,88734.8
132491,72201,120260,193842,101986,124562,262143,141152,121711,112466,74665,98715.1,38.139,25579,262143,88348.7
118681,78178,99489.5,137281,83890,107246,191555,114395,109740,101743,73894,90235.3,38.198,25619,191555,84120.2
75078,58701,83819.9,55235.9,41831,86537.2,102164,81299,82355.6,105396,79073,87352.7,38.225,25627,102164,95997
118800,73994,105220,167371,95844,114444,164439,94629,113884,108772,74947,95113.3,38.257,25649,164439,93643.2
101236,65933,100626,136821,88222,101638,188358,111544,110667,104542,77110,88850.4,38.453,25763,188358,87213
108465,66580,106765,192015,113185,111180,190768,110140,113512,100000,71624,91500.4,38.473,25776,190768,82449.6
98160.3,63815,100808,137829,76053,118769,154738,89241,113635,111425,68507,106593,38.496,25794,154738,97189.4
72569.7,52622,90379.1,35253.5,21039,109814,110001,59817,120518,108865,80608,88509.9,38.511,25807,110001,98745.3
137181,76902,116906,225786,109999,134520,241163,118357,133536,116872,72465,105697,38.541,25825,241163,94685.2
106962,68387,102503,134434,85112,103514,184131,108358,111364,108911,77938,91580.4,38.566,25843,184131,91971
65612.7,51646,83259,31280.5,25061,81800.2,91720.3,64869,92663.4,98182.9,80488,79943.7,38.625,25872,91720.3,89744.6
115251,72582,104063,163431,96704,110756,260803,146769,116455,113936,79212,94264.5,38.633,25879,260803,89941.6
157426,62112,166105,196283,59723,215388,224981,72190,204244,113058,65128,113766,38.654,25887,224981,92359.6
93143.7,71046,85919.9,68221.7,50797,88016.5,126721,97567,85119,106405,86036,81051.6,38.702,25918,126721,94746.5
105993,68749,101039,158040,98934,104689,164546,107574,100244,97719.2,68902,92945.4,38.795,25985,164546,82581
120689,73947,106961,147610,90945,106370,225554,136079,108627,111119,69408,104920,38.798,25988,225554,90368
111259,71811,101537,127288,82862,100673,187212,116350,105450,109612,79599,90246.5,38.809,26004,187212,92388.5
105978,63201,109893,121608,74878,106436,172209,79886,141275,111595,68732,106406,38.824,26019,172209,95751.9
109326,68474,104635,145667,89857,106240,231581,128731,117896,110639,81712,88736.3,38.872,26053,231581,89333.3
66304.8,44675,97265.8,47339.5,26444,117321,122062,69349,115351,106666,67665,103310,38.875,26056,122062,95436
120083,59401,132486,124472,58767,138809,262143,124446,138050,114225,75312,99398.1,38.93,26098,262143,90108.2
112331,71575,102853,144678,89426,106027,174789,109928,104205,103664,74964,90626.7,39.084,26197,174789,87583.6
95093.1,61636,101110,154848,99204,102296,219227,128297,111984,111018,82252,88456.1,39.231,26273,219227,90849.4
87867.9,65282,88209.8,65806.7,47915,90007.5,122740,83106,96790.7,108828,80294,88825.6,39.345,26339,122740,97536.1
116208,67189,113349,123060,72841,110719,204560,111152,120610,110400,67035,107931,39.394,26382,204560,91580.5
134985,72916,121323,146528,64754,148298,218385,107187,133524,107118,68715,102163,39.459,26422,218385,87026.9
85242.6,58150,96069.8,105384,63903,108077,137565,81932,110036,99676,67049,97426.8,39.483,26436,137565,87020
122794,69393,115969,185802,92859,131131,222996,109594,133349,114474,76138,98533.6,39.555,26489,222996,93958.2
118471,69719,111363,183210,108083,111089,262143,147464,116502,114334,76728,97656.9,39.564,26495,262143,90217.2
110372,78328,92346.4,78177,50046,102374,149480,85803,114172,110457,77927,92893.1,39.62,26526,149480,96704.4
103753,68948,98618.5,125728,79092,104179,198848,122531,106355,109990,82542,87329,39.628,26529,198848,91696.1
117907,69571,111069,104409,55418,123472,153762,77962,129255,98569.3,68720,94002.2,39.658,26556,153762,84423.1
106228,66000,105481,195201,111739,114487,262143,156328,109896,115022,79596,94704,39.668,26570,262143,90904.5
117662,70009,110144,188583,106106,116477,212423,115620,120406,108726,70840,100585,39.73,26614,212423,89183.1
119336,64637,120996,218312,107881,132621,262143,94925,180983,121727,68138,117079,39.818,26669,262143,97609.9
93809.7,49342,124598,182236,80347,148643,181525,78442,151659,105606,67408,102673,39.879,26718,181525,88905.6
107939,63753,110958,149113,87492,111693,209542,108781,126240,109187,77642,92162.5,40.051,26812,209542,89909.1
119201,69053,113130,216530,112733,125877,258111,131894,128251,109192,72935,98115.3,40.178,26888,258111,85446.3
101345,60996,108889,147340,88219,109456,234837,126696,121474,110012,79145,91095.6,40.304,26965,234837,88407.2
161528,82596,128165,218569,104656,136868,260400,111703,152777,108362,69937,101543,40.305,26966,260400,84404.9
74484.9,50740,96205,142460,82025,113822,192350,108396,116294,100953,83657,79085.1,40.342,26991,192350,83256.3
109336,72305,99100.7,144740,89977,105423,185595,105988,114760,105668,75175,92119.1,40.387,27014,185595,88593.2
82113.3,58274,92346.1,83788.1,57065,96226,120068,76717,102569,99641.5,68493,95339.8,40.455,27056,120068,88595.2
96293.7,63763,98971.3,115059,74072,101800,196893,120040,107494,108246,79126,89654.5,40.494,27087,196893,90131.7
105168,65187,105731,131742,73851,116909,188271,95992,128537,107695,67454,104633,40.539,27125,188271,90374.3
111664,64301,113809,160926,81935,128717,249941,131331,124724,117009,78913,97174,40.544,27127,249941,94014.2
129357,83134,101974,103358,58455,115878,155503,89126,114344,104575,77707,88195.8,40.564,27142,155503,90268.8
116017,71950,105675,129425,72869,116400,192936,107235,117912,109166,81481,87803.6,40.57,27147,192936,91416.1
94995,64613,96352,100787,62935,104952,172312,106592,105943,102410,75329,89096.2,40.612,27169,172312,86557.1
120083,73650,106854,165848,93251,116557,223920,122175,120113,108022,77585,91246.3,40.651,27185,223920,87421.6
86537.7,57304,98969.3,112647,74505,99086.1,191399,121568,103181,112978,84210,87924.4,40.854,27319,191399,95369.1
86253.3,56746,99614,135958,92888,95923.2,198960,117060,111388,98842.5,75489,85810.4,40.883,27336,198960,80538.2
106133,70700,98381.3,118310,76457,101411,191721,121352,103538,106547,75720,92216.9,40.885,27341,191721,88908.7
141095,78846,117277,156899,85682,120008,218856,112802,127151,111628,73304,99799,40.946,27373,218856,91493.5
140116,81935,112072,119260,58246,134186,208772,107243,127580,109618,77969,92137.8,40.977,27394,208772,90410.5
135464,75032,118320,214932,118558,118809,262143,153072,112233,113059,70689,104818,40.979,27396,262143,88942.1
95890.5,62627,100345,121032,61714,128527,191614,116325,107953,109208,82852,86383.4,41.03,27423,191614,91579.2
103334,71083,95270.6,102996,71556,94331.2,157908,99864,103627,102493,74421,90256.2,41.062,27443,157908,87965.1
124551,82015,99525.4,165728,103271,105172,217513,129317,110232,109293,72134,99296.3,41.096,27467,217513,89282.1
108004,70439,100487,124782,76684,106642,176187,101425,113844,97869.6,68902,93088.5,41.159,27524,176187,81660.4
81867.6,59385,90347.3,111194,72377,100684,207269,131026,103671,112527,88579,83253.8,41.17,27529,207269,93457.8
124030,77035,105516,177957,98446,118467,262143,153518,111907,116685,73946,103414,41.195,27541,262143,92567.4
95858.1,65662,95674.1,113974,75845,98482.6,210312,133641,103135,109916,77255,93242.2,41.374,27665,210312,90566.9
123033,75805,106366,159117,93523,111501,219438,124539,115475,106027,80116,86731.4,41.416,27689,219438,85838.5
136719,77557,115528,169399,96413,115148,250125,131254,124889,113426,72261,102870,41.428,27695,250125,90414.8
71046,49474,94111.5,63431.7,33033,125846,108657,63743,111713,103264,67280,100587,41.447,27706,108657,93267.6
106185,68762,101203,139198,82853,110104,201681,114770,115164,109747,77866,92368.9,41.453,27710,201681,91192.6
121423,70275,113234,180029,109348,107898,226466,125134,118606,109678,71597,100394,41.476,27725,226466,88843.4
101255,64773,102448,124879,82052,99742.5,209357,136582,100456,110291,79879,90487.2,41.51,27742,209357,91030.1
118580,71462,108746,167071,96562,113390,214060,121915,115069,107695,71149,99199.1,41.566,27777,214060,88001.7
117476,83572,92123.1,121639,81242,98123.1,196871,125956,102434,110953,81389,89341.8,41.576,27786,196871,92841.3
155982,71338,143296,164826,61129,176709,222873,90402,161569,111136,72711,100169,41.589,27793,222873,90631.2
94880.7,63433,98026.3,119501,80737,97001.7,192607,103955,121424,106564,71460,97729.5,41.606,27806,192607,88843.8
84052.8,52352,105220,108572,40365,176275,160820,62857,167674,99640.1,66601,98046.8,41.609,27808,160820,84844.7
120248,73463,107273,185363,115373,105293,228095,134506,111136,109902,74457,96734,41.617,27817,228095,88917.1
100738,67246,98176.2,107267,71770,97950.1,199505,115568,113135,107833,76514,92361.6,41.673,27852,199505,89478.7
149398,79992,122399,131248,65126,132074,219511,108258,132885,114409,73945,101398,41.701,27866,219511,94213.9
125114,72845,112561,174511,95945,119201,228386,121401,123290,108886,66776,106864,41.732,27884,228386,87874.6
115914,75796,100223,130788,86087,99565.9,184789,104553,115830,111656,75725,96632.2,41.744,27891,184789,94655.2
