O95292;VAPB UNQ484/PRO983;ALS;S.cerevisiae;P40075;2 (inParanoid (1.000, INP1864)), S.cerevisiae;Q6Q595;2 (inParanoid (0.115, INP1864)), S.cerevisiae;P38174;1 (pombase (n/), S.pombe;Q10484;3 (inParanoid (1.000, INP1903), eggNOG (COG5066), pombase (n/), S.pombe;O60119;3 (inParanoid (0.056, INP1903), eggNOG (COG5066), pombase (n/)
P00441;SOD1;ALS;S.cerevisiae;P00445;3 (homologene (HG0000392), inParanoid (0.98, INP1107)), S.pombe;P28758;5 (homologene (HG0000392), OrthoMCL (0.564, OG5_127584), inParanoid (0.98, INP1334), eggNOG (COG2032), pombase (n/)
P07737;PFN1;ALS;S.cerevisiae;P07274;2 (KOG Cluster (KOG1755)), S.pombe;P39825;1 (KOG Cluster (KOG175)
P09651;HNRNPA1 HNRPA1;ALS;S.cerevisiae;Q99383;2 (inParanoid (0.050, INP1129))
P14920;DAO DAMOX;ALS;S.cerevisiae;P38758;2 (eggNOG (COG0665)), S.pombe;Q9Y7N4;3 (inParanoid (0.222, INP1752), eggNOG (COG0665), pombase (n/), S.pombe;Q9UTM9;2 (eggNOG (COG0665)), S.pombe;Q10058;2 (eggNOG (COG0665)), S.pombe;O14252;2 (eggNOG (COG0665)), S.pombe;O43029;2 (eggNOG (COG0665))
P31321;PRKAR1B;ALS;S.cerevisiae;Q04958;2 (eggNOG (COG0664)), S.pombe;P36600;3 (inParanoid (0.097, INP1239), eggNOG (COG0664)), S.pombe;Q9USJ4;2 (eggNOG (COG0664))
P55072;VCP;ALS;S.cerevisiae;P25694;5 (homologene (HG0005168), OrthoMCL (2.338, OG5_126926), inParanoid (1.000, INP0020), eggNOG (COG0464), pombase (n/), S.cerevisiae;P32794;2 (KOG Cluster (KOG0730)), S.cerevisiae;P18759;2 (eggNOG (COG0464)), S.cerevisiae;P38126;2 (eggNOG (COG0464)), S.cerevisiae;P39955;2 (eggNOG (COG0464)), S.cerevisiae;P28737;2 (eggNOG (COG0464)), S.cerevisiae;P40340;2 (eggNOG (COG0464)), S.cerevisiae;P24004;2 (eggNOG (COG0464)), S.pombe;Q9P3A7;5 (homologene (HG0005168), OrthoMCL (2.360, OG5_126926), inParanoid (1.000, INP0025), eggNOG (COG0464), pombase (n/), S.pombe;O60058;2 (KOG Cluster (KOG0730)), S.pombe;O13764;2 (eggNOG (COG0464)), S.pombe;Q9P7Q4;2 (eggNOG (COG0464)), S.pombe;Q09803;2 (eggNOG (COG0464)), S.pombe;O14114;2 (eggNOG (COG0464)), S.pombe;Q9P3U2;2 (eggNOG (COG0464)), S.pombe;O14325;2 (eggNOG (COG0464))
Q14203;DCTN1;ALS;S.cerevisiae;P33420;2 (eggNOG (COG5244)), S.pombe;O42667;2 (eggNOG (COG5244))
Q16514;TAF12 TAF15 TAF2J TAFII20;ALS;S.cerevisiae;Q03761;3 (OrthoMCL (0.291, OG5_129809), eggNOG (COG5624), pombase (n/), S.pombe;O13722;3 (OrthoMCL (0.370, OG5_129809), eggNOG (COG5624), pombase (n/)
Q99700;ATXN2 ATX2 SCA2 TNRC13;ALS;S.cerevisiae;P53297;1 (pombase (n/), S.pombe;Q9USW1;2 (inParanoid (0.256, INP2148), pombase (n/)
Q99720;SIGMAR1 OPRS1 SRBP AAG8;ALS;S.cerevisiae;P32352;4 (homologene (HG0039965), OrthoMCL (0.269, OG5_131051), inParanoid (1.000, INP1627), pombase (n/), S.pombe;P87113;4 (homologene (HG0039965), OrthoMCL (0.251, OG5_131051), inParanoid (1.000, INP1899), pombase (n/)
