O14976;GAK;PD;S.cerevisiae;P31374;2 (eggNOG (COG0515)), S.cerevisiae;P22209;2 (eggNOG (COG0515)), S.cerevisiae;P16892;2 (eggNOG (COG0515)), S.cerevisiae;P24583;2 (eggNOG (COG0515)), S.cerevisiae;P38070;2 (eggNOG (COG0515)), S.cerevisiae;P38080;2 (eggNOG (COG0515)), S.pombe;Q9HFF4;2 (eggNOG (COG0515)), S.pombe;Q10447;2 (eggNOG (COG0515)), S.pombe;Q10292;2 (eggNOG (COG0515)), S.pombe;O94537;2 (eggNOG (COG0515)), S.pombe;Q10452;2 (eggNOG (COG0515)), S.pombe;P36582;2 (eggNOG (COG0515)), S.pombe;Q9UTH3;2 (eggNOG (COG0515))
O43426;SYNJ1 KIAA0910;PD;S.cerevisiae;P50942;2 (inParanoid (1.000, INP0274), pombase (n/), S.cerevisiae;Q12271;2 (inParanoid (0.445, INP0274)), S.pombe;O43001;2 (inParanoid (0.285, INP0373), pombase (n/)
O60733;PLA2G6 PLPLA9;PD;S.cerevisiae;P35845;2 (eggNOG (COG0666)), S.cerevisiae;P25631;2 (eggNOG (COG0666)), S.cerevisiae;Q12451;2 (eggNOG (COG0666)), S.cerevisiae;P39678;2 (eggNOG (COG0666)), S.cerevisiae;P39010;2 (eggNOG (COG0666)), S.cerevisiae;P25302;2 (eggNOG (COG0666)), S.pombe;Q9P7I0;2 (eggNOG (COG0666)), S.pombe;Q10225;2 (eggNOG (COG0666)), S.pombe;P41412;2 (eggNOG (COG0666)), S.pombe;O13987;2 (eggNOG (COG0666)), S.pombe;Q09701;2 (eggNOG (COG0666)), S.pombe;Q10311;2 (eggNOG (COG0666)), S.pombe;Q9C104;2 (eggNOG (COG0666))
P30793;GCH1 DYT5 GCH;PD;S.cerevisiae;P51601;5 (homologene (HG0000132), OrthoMCL (0.859, OG5_127507), inParanoid (1.000, INP0753), eggNOG (COG0302), pombase (n/), S.pombe;O13774;5 (homologene (HG0000132), OrthoMCL (0.883, OG5_127507), inParanoid (1.000, INP0863), eggNOG (COG0302), pombase (n/)
P36956;SREBF1 BHLHD1 SREBP1;PD;S.pombe;O43019;2 (eggNOG (NOG08465), pombase (n/), S.pombe;Q9UUD1;1 (pombase (n/)
P61266;STX1B STX1B1 STX1B2;PD;S.cerevisiae;P39926;3 (inParanoid (0.815, INP1471), eggNOG (COG5074), pombase (n/), S.cerevisiae;P32867;3 (inParanoid (0.547, INP1471), eggNOG (COG5074), pombase (n/), S.pombe;Q9USH7;3 (inParanoid (0.816, INP1713), eggNOG (COG5074), pombase (n/)
Q01968;OCRL INPP5F OCRL1;PD;S.cerevisiae;P40559;2 (eggNOG (COG5411), pombase (n/), S.cerevisiae;P50942;2 (eggNOG (COG5411)), S.cerevisiae;Q08227;2 (eggNOG (COG5411)), S.cerevisiae;Q12271;2 (eggNOG (COG5411)), S.pombe;O14306;2 (eggNOG (COG5411)), S.pombe;O43001;2 (eggNOG (COG5411)), S.pombe;Q9USQ6;2 (eggNOG (COG5411), pombase (n/)
Q99497;PARK7;PD;S.cerevisiae;Q04432;2 (eggNOG (COG0693)), S.cerevisiae;Q04902;2 (eggNOG (COG0693)), S.cerevisiae;Q08914;2 (eggNOG (COG0693)), S.cerevisiae;Q08992;2 (eggNOG (COG0693)), S.pombe;Q10356;5 (homologene (HG0038295), OrthoMCL (0.197, OG5_127669), inParanoid (1.000, INP2023), eggNOG (COG0693), pombase (n/), S.pombe;Q10092;2 (eggNOG (COG0693)), S.pombe;Q09918;2 (eggNOG (COG0693)), S.pombe;Q09675;2 (eggNOG (COG0693)), S.pombe;O43084;2 (eggNOG (COG0693)), S.pombe;O74914;2 (eggNOG (COG0693))
