"FSC-A", "FSC-H", "FSC-W", "SSC-A", "SSC-H", "SSC-W", "FITC-A", "FITC-H", "FITC-W", "PE-A", "PE-H", "PE-W", "Time", "Event #", "Comp-FITC-A", "Comp-PE-A"
102202,61788,108402,112562,62396,118227,164511,97219,110898,90658.6,66087,89902.7,0.786,234,164511,84407.2
100445,61717,106661,85863.1,48536,115937,140822,83188,110941,87408.8,62661,91419.2,1.647,487,140822,82057.5
85180.5,54444,102535,137723,84684,106582,190470,115589,107992,100122,69333,94638.6,1.722,516,190470,92883.8
59739.3,35148,111388,103385,53283,127160,98253.5,63237,101826,88076,70733,81604.7,2.035,614,98253.5,84342.3
90544.5,48167,123195,117103,63621,120628,163087,85720,124686,94622.9,67573,91770.4,2.09,628,163087,88425.5
110706,55652,130368,163837,71496,150179,111949,52221,140493,97400.1,60211,106014,2.299,701,111949,93146
94061.7,61944,99516.1,99208.5,48925,132892,96560.5,47364,133608,88166.3,57713,100117,2.633,833,96560.5,84497
97547.4,60317,105988,130153,78611,108505,167773,98258,111901,97416.8,68229,93571.7,3.268,1021,167773,91041.4
68652,47530,94659.7,97667,54207,118079,109856,58936,122158,88919.7,59619,97744.7,3.92,1167,109856,84745.2
73538.1,46946,102658,106006,64499,107710,106851,70771,98946.8,93516.4,67897,90264.5,4.346,1269,106851,89456.1
111709,49979,146481,174093,58383,195423,147405,60115,160698,101267,80990,81943.9,4.359,1274,147405,95665.7
86366.7,49865,113509,152269,88142,113216,217809,125933,113349,101111,64431,102845,4.619,1332,217809,92834.6
76617.9,44146,113741,130645,80013,107007,155096,87433,116253,92193.1,58458,103356,4.659,1340,155096,86299.5
99763.2,53909,121280,161008,82061,128585,169231,87330,126998,89546.6,57937,101291,5.141,1472,169231,83115.8
105700,51482,134554,88395.7,36288,159642,88814,48147,120891,89054.5,63756,91540.8,5.449,1547,88814,85679.6
85772.7,46665,120459,162560,80415,132482,235554,112649,137038,102984,68747,98173.6,6.191,1746,235554,94032.7
105160,58209,118397,106724,56919,122881,164684,91646,117766,89910.8,56403,104469,6.33,1780,164684,83652.8
133223,48036,181758,147518,54857,176235,119294,61601,126914,95768.2,69548,90243.7,6.69,1884,119294,91235
90845.1,50763,117283,112423,56608,130154,169334,83221,133349,89008.6,62352,93553.9,6.781,1903,169334,82574
58378.5,38817,98562.3,147856,92943,104256,184780,104790,115562,94511.7,67319,92008.4,7.203,2015,184780,87490
83793.6,52102,105399,110164,61371,117641,116882,69571,110103,90412.5,65595,90331.2,8.059,2243,116882,85971
82225.8,49294,109319,85660.1,50222,111780,144333,78294,120814,94438,67038,92322.1,8.305,2306,144333,88953.3
57821.4,34392,110182,132286,79531,109008,192858,114920,109982,97565.5,62741,101912,8.381,2322,192858,90236.9
95488.2,50524,123860,155977,73338,139384,208752,97401,140458,95978.1,62308,100950,8.382,2323,208752,88045.5
50406.3,39097,84493.1,117946,71006,108860,168567,100382,110051,100836,70243,94079.1,9.717,2625,168567,94430.6
48975.3,35648,90037.2,81405.4,51852,102889,85913.1,59616,94444.5,97387.6,81399,78408.7,10.201,2723,85913.1,94122.9
75504.6,55931,88471,46111.9,28200,107163,69833.6,41591,110039,84721.9,54860,101209,10.638,2819,69833.6,82068.2
93273.3,67329,90789.4,147158,79338,121558,146795,91041,105671,95704.3,70121,89446.5,10.682,2832,146795,90126.1
64977.3,49606,85843.5,65291.1,49036,87260.7,67633.2,48876,90686.9,84146.4,61494,89677.4,11.654,3058,67633.2,81576.4
51865.2,34134,99579.2,122542,66865,120107,168941,98300,112632,92747.8,69189,87850.9,11.855,3129,168941,86328
83128.5,51468,105850,143705,79525,118426,191972,106426,118214,95566.7,68201,91832.3,11.938,3152,191972,88271.8
88056.9,55629,103739,117498,66735,115387,114934,61494,122488,96268.6,67136,93974.3,12.132,3199,114934,91901.1
85239,50375,110893,104517,65302,104891,133175,74412,117289,87741,59272,97013.6,12.345,3265,133175,82680.3
60954.3,42362,94299.2,131803,84926,101710,182193,113155,105521,97698.9,66054,96932.8,13.026,3422,182193,90775.6
86085,51400,109760,120007,66795,117745,112851,65272,113308,89367.3,55207,106088,13.493,3539,112851,85078.9
143081,50191,186826,147957,51011,190087,127588,54811,152554,92001.3,65133,92570.6,14.895,3889,127588,87153
104421,59009,115971,136932,71859,124883,130706,61640,138967,100401,68009,96750.2,15.814,4127,130706,95434.3
76014,42850,116258,174060,65218,174909,227469,93774,158972,98765.1,63860,101357,15.996,4174,227469,90121.2
67666.5,44831,98918,125612,71730,114765,140275,79678,115377,97188.8,61819,103032,16.618,4337,140275,91858.4
68345.1,43305,103431,147679,80435,120324,203532,127382,104714,96156,71198,88509.2,16.653,4345,203532,88421.8
74144.7,48241,100726,153738,93973,107216,197733,116898,110854,100554,70109,93995.2,19.348,5058,197733,93040.1
70947,49370,94178.3,60458.1,35378,111996,86036.8,58769,95943.6,92389.1,70761,85567.1,19.909,5206,86036.8,89119.7
71856,52963,88914,62335.9,43292,94365,72621.9,55545,85684.6,89414.5,69304,84553.1,20.005,5233,72621.9,86654.9
53789.4,38624,91268.2,74961.3,42239,116306,96987.2,61663,103079,90436.2,64186,92338.3,21.887,5725,96987.2,86750.7
75741.3,47357,104816,99030.5,65489,99101.6,98530.1,58540,110305,92796.4,65599,92707.3,22.813,5964,98530.1,89052.2
102793,57493,117173,167325,85038,128952,206024,98750,136729,103419,69347,97735.4,22.843,5976,206024,95589.9
57861.9,45384,83554.5,132249,73834,117386,174003,111595,102186,101485,81384,81722.9,23.524,6150,174003,94873.2
67930.2,45697,97421.6,80795.1,49593,106769,123307,68100,118664,91157.6,58667,101831,23.71,6205,123307,86471.9
49857.3,37504,87122.6,79524.7,54022,96474.2,88271.9,56307,102740,86802.7,64173,88646.4,24.091,6303,88271.9,83448.4
70199.1,39042,117836,117790,66510,116065,175647,86212,133522,89577.2,56427,104038,24.099,6307,175647,82902.6
67589.1,42660,103833,115348,68681,110066,168745,94554,116958,91993,60360,99881.6,24.463,6438,168745,85580.7
53753.4,36496,96525.2,109467,64369,111451,152099,97428,102311,94032.1,62933,97921.4,24.661,6486,152099,88252.3
48006.9,29752,105747,89999.7,55781,105739,140858,79336,116357,87715.9,61456,93539.3,24.703,6506,140858,82363.3
82617.3,47755,113379,116672,74668,102403,181656,97727,121819,90222.1,59405,99533.7,24.758,6519,181656,83319.2
71730,41165,114196,127242,66898,124651,199803,94311,138841,97824,62405,102732,24.945,6573,199803,90231.5
77304.6,45168,112164,148263,80940,120046,185400,99229,122448,95508.3,66759,93758.6,26.234,6915,185400,88463.1
90790.2,48189,123473,161667,87465,121134,215503,113792,124114,96781.5,65260,97190.9,26.261,6926,215503,88592.4
87581.7,55064,104238,152445,86043,116112,175964,106535,108246,96862.1,68722,92371.6,27.122,7145,175964,90175.5
84321.9,45906,120379,124399,68915,118300,140389,82029,112162,92746.4,66533,91356.6,28.012,7377,140389,87411.6
96921.9,58777,108067,149520,78557,124736,162731,87340,122106,95502.7,72089,86821.4,28.013,7378,162731,89318.9
71585.1,50762,92419.6,85485,52761,106183,127036,77521,107396,88502.7,66043,87823.3,28.023,7381,127036,83675.3
63453.6,44039,94427.6,93669.3,54396,112852,133466,69888,125155,94027.9,72159,85397.7,28.811,7591,133466,88956.2
87165.9,48934,116739,103726,61779,110034,145917,77475,123431,89270,61657,94886.2,29.077,7653,145917,83725.1
86288.4,58715,96312.6,138098,69401,130407,165018,108967,99246.8,96434,65007,97218.8,29.355,7729,165018,90163.3
69560.1,42323,107712,114871,71790,104864,147272,91577,105393,100269,74043,88748.9,30.138,7959,147272,94672.7
81090,35332,150411,169516,82435,134766,191239,92771,135096,105732,65498,105793,30.201,7978,191239,98464.7
84951,51180,108780,171650,98959,113676,195788,115975,110638,96254.7,65850,95795.7,30.274,7996,195788,88814.8
95326.2,56870,109852,186270,99110,123170,212338,119497,116453,95067.7,64793,96157.8,30.309,8006,212338,86998.8
76833,49569,101582,135419,77302,114807,206175,111890,120760,97330.6,67463,94550.5,30.359,8016,206175,89495.9
99867.6,52651,124308,185979,78129,156003,196425,98709,130413,98943,62293,104094,30.715,8092,196425,91478.8
90404.1,51481,115086,146635,77685,123703,144546,79588,119025,90786.5,62846,94672.4,30.744,8107,144546,85293.7
123703,56944,142368,131894,51120,169089,162923,60692,175927,91455,59966,99949.9,30.865,8138,162923,85264
68719.5,42063,107068,162078,80466,132006,180004,91617,128761,99722.8,67719,96508.1,30.997,8170,180004,92882.6
83108.7,44184,123271,107892,56683,124743,170556,86106,129811,88745.9,59205,98235.9,31.093,8201,170556,82264.8
91595.7,52833,113619,152429,81159,123086,177589,98026,118729,92329.4,64203,94246.3,33.709,8885,177589,85581
66107.7,51643,83892,152088,86426,115327,148540,84890,114674,98517.6,67184,96101,33.835,8925,148540,92873.1
101575,49187,135337,145815,58216,164150,153032,82090,122172,93349.6,63113,96933.5,33.911,8941,153032,87534.4
89271.9,55312,105773,195779,103963,123415,201615,113185,116739,99996.6,65884,99468.4,33.946,8947,201615,92335.2
91331.1,53933,110980,151424,83802,118419,181569,96501,123307,90237.4,57834,102255,34.166,9011,181569,83337.8
77770.8,44902,113509,85704.6,45949,122239,102069,68826,97190,89605,71588,82029.8,34.521,9090,102069,85726.3
67315.5,43397,101657,123643,72352,111995,139523,81189,112623,90999.1,66318,89926.1,35.481,9349,139523,85697.3
78739.2,51958,99315.8,142770,86225,108513,175282,104994,109409,92468.4,62784,96521.5,36.781,9701,175282,85807.6
72686.7,48778,97658.7,94831.4,56065,110851,156421,95333,107530,90922.7,66493,89614.1,37.074,9764,156421,84978.7
76495.5,44930,111578,123531,70245,115250,153676,90090,111791,93414.9,64323,95176.6,37.208,9799,153676,87575.3
98492.4,54429,118591,211345,96723,143200,187731,83758,146889,89121.2,58862,99226.2,37.521,9897,187731,81987.5
63790.2,35800,116775,71045.7,35785,130112,89078.1,50926,114633,89639.7,61458,95587.7,38.322,10136,89078.1,86254.7
87219,51095,111870,113784,68987,108092,150041,92427,106387,87492.2,60829,94262.4,38.975,10324,150041,81790.6
56859.3,33891,109950,110455,64437,112339,166383,118714,91851.7,91393.9,69456,86235.8,39.354,10413,166383,85071.3
98509.5,53378,120947,165819,95031,114353,158461,73138,141991,96318.7,64725,97525.5,39.488,10451,158461,90297.1
50853.6,27584,120822,113492,64747,114875,156365,93186,109969,88558.3,59820,97020.3,39.534,10465,156365,82616.4
53789.4,33495,105244,102354,65562,102313,121799,74270,107475,86605.3,65443,86728.4,39.638,10494,121799,81977
92887.2,51813,117489,114984,44159,170646,119511,51796,151214,87978.7,64394,89538.9,39.644,10496,119511,83437.2
80777.7,52819,100226,152575,86661,115382,168861,105135,105260,92440.6,61081,99182.8,39.719,10521,168861,86023.8
55890,47083,77794.7,86020.1,58463,96427.1,99917.4,75847,86334.1,87499.1,69182,82887.8,39.867,10550,99917.4,83702.2
51343.2,33946,99123,102521,59799,112356,173352,106359,106816,99519.8,70059,93094.8,39.875,10552,173352,92932.4
57566.7,37672,100146,89270,60718,96353.6,105728,77742,89127.6,87215.5,69671,82039.3,40.567,10757,105728,83197.9
73108.8,40003,119772,134214,73483,119699,152550,93268,107191,98008.9,66095,97180,41.202,10912,152550,92212
91444.5,58634,102209,203233,104265,127743,193723,108329,117197,89899.6,73213,80472.9,41.874,11090,193723,82538.2
65934.9,36763,117540,125096,63155,129812,219676,99077,145308,90707.2,62330,95372.8,42.139,11157,219676,82359.6
69881.4,49679,92186.8,81025.9,39290,135152,88456.8,50980,113713,89928.8,59185,99578.9,42.46,11270,88456.8,86567.5
64237.5,38517,109299,118150,66017,117289,181428,110145,107949,95771,69441,90385.3,43.504,11552,181428,88876.7
96317.1,58100,108644,183345,98451,122048,219938,128890,111831,100066,65089,100753,43.728,11618,219938,91708.4
129471,52836,160592,145201,51098,186228,189444,73072,169907,97152.7,79994,79593.4,43.943,11680,189444,89953.8
82629,41815,129503,109054,56559,126363,185133,99715,121675,95897.5,70917,88621,44.107,11718,185133,88862.5
70629.3,42907,107879,150292,86305,114125,178637,100009,117061,89769,60380,97434.6,44.409,11799,178637,82980.8
86436.9,48192,117545,100808,49449,133604,119344,55341,141330,94868.9,68982,90129.7,44.418,11803,119344,90333.8
55505.7,34135,106566,135346,79786,111173,224528,133689,110066,98412,65167,98969.2,44.609,11852,224528,89879.9
84612.6,44882,123550,132739,66943,129950,170992,81097,138182,97573.8,66637,95961.7,44.763,11894,170992,91076.1
89731.8,46197,127295,179013,94371,124315,204997,108668,123631,90037.2,59234,99616.5,46.43,12353,204997,82247.4
77290.2,48350,104763,106898,69321,101061,130916,75475,113676,88049.5,63980,90190.9,46.877,12465,130916,83074.8
90612,53295,111424,144160,73782,128048,214594,126937,110792,98808.1,63473,102020,47.158,12535,214594,90653.6
71347.5,37692,124054,129417,61578,137736,148801,75477,129202,96033.7,61659,102072,47.253,12551,148801,90379.3
59659.2,36501,107116,126308,53692,154170,128432,67616,124481,86694.3,61116,92964.2,47.432,12602,128432,81813.9
62964,32327,127646,161782,88798,119401,208852,109462,125042,100348,72335,90916.2,47.848,12740,208852,92411.9
97616.7,52136,122706,178444,82320,142062,192134,94465,133295,94271.2,65186,94777.4,48.606,12955,192134,86970.1
65020.5,35173,121149,90712.8,56509,105204,171668,98497,114221,89357.5,62639,93490.2,49.232,13118,171668,82834.2
90695.7,48258,123168,177003,92204,125808,185502,106158,114519,93435.8,63533,96381.5,49.534,13199,185502,86386.7
59311.8,44601,87151.8,118835,71125,109497,136206,80595,110756,99186.2,65058,99915,49.951,13296,136206,94010.4
101804,53994,123567,132457,72475,119775,200826,102044,128977,99963.2,67843,96564,50.547,13450,200826,92331.9
64086.3,46571,90184,145815,44417,215146,139378,44824,203781,92676.9,62381,97364.1,51.007,13579,139378,87380.5
76480.2,46787,107128,156200,89858,113921,185110,115322,105196,97420.9,70719,90280.9,52.26,13915,185110,90386.7
52914.6,30420,113998,119812,59462,132051,142310,77522,120307,93448.3,58658,104406,52.678,14035,142310,88040.5
84641.4,57564,96363.3,76972.6,39010,129312,96158.8,50990,123590,91958.2,59941,100542,53.104,14163,96158.8,88304.2
79785,52041,100474,79027.1,42807,120988,82022.5,54176,99221.6,87032.1,68230,83595.7,53.48,14255,82022.5,83915.2
85337.1,52395,106740,145839,68340,139855,164028,84265,127571,88231.6,59703,96851.9,54.093,14428,164028,81998.6
56692.8,36562,101620,130627,63824,134131,206498,119489,113258,99892.4,78615,83273.5,54.161,14447,206498,92045.4
59184,44822,86535.2,63421.5,43449,95661.4,143524,112185,83843.8,87882.8,56045,102765,54.81,14636,143524,82428.8
71463.6,41429,113047,133187,65777,132699,193420,91046,139226,99273.8,61937,105042,54.836,14644,193420,91923.8
62885.7,42892,96085,129727,80164,106055,232673,144375,105617,94581.2,66820,92763.7,55.426,14814,232673,85739.6
86987.7,45052,126539,111864,39362,186249,90861.5,41903,142107,97632.2,65889,97109.1,55.591,14861,90861.5,94179.5
86681.7,54300,104618,138348,81063,111849,134491,80235,109852,86740.2,58689,96859.8,55.593,14864,134491,81629.5
78525.9,44864,114708,91735.8,53064,113297,131516,74842,115163,88629.2,65874,88174.4,56.274,15058,131516,83631.6
75534.3,45040,109907,108781,68509,104061,135364,82041,108131,91626,63612,94397.3,56.381,15084,135364,86482.2
58006.8,43284,87827.7,95741.8,60876,103071,147430,98097,98494.3,96090.7,69346,90811.3,57.161,15267,147430,90488.3
111697,55202,132607,141840,63347,146741,157078,75597,136173,89884.4,60274,97731.4,57.823,15447,157078,83915.4
69790.5,39623,115433,93269,53522,114205,127965,75957,110409,89174.1,63762,91655.1,58.209,15540,127965,84311.4
65038.5,40441,105397,157866,84149,122948,167815,89536,122832,101741,66800,99815.9,58.586,15641,167815,95364.1
72047.7,42250,111757,173554,94077,120901,197267,108143,119546,101178,72781,91106.3,58.644,15660,197267,93681.9
70197.3,45710,100644,64298.6,40649,103665,73489.3,52877,91083,86086.9,64125,87981.1,58.687,15670,73489.3,83294.3
98823.6,53100,121968,117048,46721,164184,123311,60512,133549,96121.3,61214,102908,59.085,15768,123311,91435.5
113861,60019,124327,197163,102456,126115,190076,100951,123394,96720.4,66734,94984.1,60.505,16144,190076,89497.5
94562.1,51984,119214,134064,73111,120174,143530,86700,108493,88800.1,63510,91632.9,60.804,16216,143530,83346
102737,36062,186705,176255,71705,161091,140721,71974,128133,88199.7,66201,87313.7,60.886,16237,140721,82852.3
115053,61014,123580,164292,83806,128476,234517,136231,112818,95087.1,61846,100760,61.366,16362,234517,86175.5
76459.5,45561,109981,118670,74359,104589,152705,84699,118156,89510.4,64574,90843.9,61.445,16389,152705,83707.6
63727.2,40027,104340,107280,62156,113114,172196,97263,116026,93277.3,65805,92896,62.73,16717,172196,86733.9
49742.1,33441,97482.1,108348,66324,107060,131226,74120,116028,91249.3,65132,91815.3,64.676,17250,131226,86262.8
72479.7,47155,100732,100635,58333,113061,106445,69464,100426,93863.9,64698,95079.7,64.715,17262,106445,89819
64791,41343,102705,136185,83168,107313,144080,92353,102243,99262.7,69901,93064.2,65.205,17375,144080,93787.6
66498.3,36329,119960,144730,72323,131148,195584,99876,128337,102179,65921,101582,65.267,17399,195584,94746.7
79737.3,48402,107964,171527,97699,115060,228919,134990,111137,97443.2,69174,92318.4,65.804,17547,228919,88744.2
89478,50910,115184,124023,67574,120282,162472,82405,129212,93754.1,65059,94441.5,66.149,17633,162472,87580.2
91693.8,42150,142568,100931,48009,137778,104781,54035,127083,88830.7,62090,93760.8,66.558,17736,104781,84849
105050,50202,137137,148438,62717,155110,169715,65480,169860,92543.4,57286,105871,67.292,17911,169715,86094.3
94541.4,52956,117000,153252,78182,128463,209082,110460,124049,94286.5,62680,98582.6,67.56,17976,209082,86341.3
71760.6,47549,98906.4,95545.8,57647,108621,147572,94499,102343,92336.3,69614,86927.2,67.989,18091,147572,86728.6
106167,50689,137263,176012,76854,150091,206988,90311,150205,97892.1,63031,101783,68.003,18093,206988,90026.6
80537.4,46913,112508,117556,68410,112618,148925,85311,114404,93255.1,64720,94430.9,68.538,18231,148925,87596
86168.7,51992,108616,160263,96859,108436,171497,108424,103660,100603,67667,97434.4,68.743,18291,171497,94085.8
108819,63909,111589,203304,102113,130480,189813,97003,128239,91303.5,67480,88673.2,70.116,18663,189813,84090.6
87734.7,51498,111651,163179,92870,115151,189880,113406,109729,94554.8,67275,92110.6,70.812,18870,189880,87339.3
57745.8,38921,97233.6,93619.3,56964,107707,115079,68467,110153,94589.5,62097,99828,71.155,18979,115079,90216.5
72896.4,45270,105530,159193,87138,119728,185197,107330,113082,93699.9,65378,93926.3,71.62,19115,185197,86662.4
77440.5,56820,89319.6,96794,61257,103555,105142,74188,92880.4,91963.8,69424,86813.5,71.963,19182,105142,87968.4
93581.1,54815,111884,129669,77982,108974,165143,92316,117237,95540.3,64309,97363.2,71.975,19187,165143,89264.8
80310.6,43352,121407,123529,77132,104958,193760,108082,117488,96147.7,65848,95692.1,72.42,19318,193760,88784.8
108514,66929,106255,161209,88360,119568,196318,115351,111537,102943,76247,88482.2,72.633,19362,196318,95483.3
103171,60682,111423,165556,81991,132330,192867,95678,132107,103084,66399,101744,73.643,19651,192867,95754.9
93271.5,54678,111793,138887,72983,124716,195763,105024,122158,98484.3,70956,90961.5,75.536,20131,195763,91045.3
82062.9,40413,133078,146541,79937,120141,221335,105733,137189,99115.3,64949,100011,76.225,20317,221335,90704.6
65999.7,47624,90823,80392,53087,99244.1,86893.1,56912,100060,91053.3,70865,84206.2,76.279,20334,86893.1,87751.4
79232.4,44457,116800,147934,91714,105709,165706,102330,106124,89531.3,58444,100396,76.617,20418,165706,83234.5
70048.8,47076,97517.2,81761.2,51189,104677,101961,65616,101836,95112.1,60150,103629,77.024,20519,101961,91237.6
78732,52718,97875.1,88669.5,49635,117076,140416,83783,109835,90514,64650,91754.5,78.957,21020,140416,85178.2
82573.2,53466,101214,79729,43053,121365,97298.6,57283,111317,90801.8,65051,91478.7,79.516,21164,97298.6,87104.4
92245.5,55296,109328,78225,42705,120046,91514.8,47655,125853,90448.7,57112,103790,79.761,21229,91514.8,86971.1
90017.1,39747,148423,123303,57289,141053,158878,69197,150473,90793.4,61328,97023.2,79.781,21235,158878,84756
61448.4,35756,112627,124982,63162,129679,141228,83483,110867,87520,55461,103419,79.835,21245,141228,82153.3
68488.2,43083,104181,99273.8,45487,143030,111054,59009,123338,92076.4,62365,96758.1,80.447,21400,111054,87856.3
66936.6,46074,95211.1,59357.2,39200,99235.5,74630.5,52201,93695.2,84879,59838,92961.5,80.739,21472,74630.5,82043
84672.9,42549,130417,202579,103821,127876,240338,127756,123288,92811.7,61066,99605.5,81.119,21569,240338,83678.8
90999,50614,117827,167459,89259,122952,176498,92754,124706,96083.8,61961,101628,81.445,21656,176498,89376.8
74448.9,40172,121455,121665,68824,115853,207145,115193,117850,97220.8,64670,98522.7,81.646,21700,207145,89349.3
50411.7,28089,117618,99351.6,56616,115005,150669,82643,119481,95178.9,69428,89843.3,81.747,21734,150669,89453.4
73602,41873,115195,101704,51166,130267,103934,57713,118023,94312.9,59441,103984,82.733,22026,103934,90363.4
71881.2,42124,111832,154671,81132,124938,227332,128804,115667,101788,74843,89130.6,82.777,22038,227332,93149.7
91158.3,53379,111919,123542,72385,111852,195085,104633,122190,91291,64799,92329.3,82.984,22093,195085,83877.8
84193.2,44149,124979,124783,65253,125324,111274,53625,135989,96502.1,64807,97587.7,83.116,22130,111274,92273.7
82145.7,48006,112142,135068,77525,114180,164454,91176,118207,92138.9,62247,97007.4,83.682,22266,164454,85889.7
47572.2,36760,84812.1,90072,55304,106737,130110,83074,102642,98360.6,61939,104073,83.828,22305,130110,93416.4
55056.6,39049,92401.6,65993,35994,120157,71108.2,42420,109857,91452.3,69036,86815.8,84.457,22460,71108.2,88750.2
45221.4,36183,81906.7,81444.3,55380,96380.1,84776.1,54602,101752,91477.3,58525,102436,84.826,22567,84776.1,88255.8
82092.6,49575,108523,138886,82603,110190,173419,95280,119282,93591.5,66730,91916.8,84.934,22592,173419,87001.5
64662.3,41937,101049,123688,78582,103153,135927,81789,108916,93831.9,66978,91811.8,85.246,22662,135927,88666.7
66716.1,40209,108740,91810.9,55461,108489,153001,93007,107810,89317.2,63022,92880.2,85.358,22696,153001,83503.2
91935,46374,129923,133522,54441,160734,139659,82773,110576,88299.8,60366,95862.1,85.403,22707,139659,82992.7
86080.5,58521,96399.1,83529.3,41240,132739,80318.4,49819,105657,85380.8,59325,94319.7,86.13,22870,80318.4,82328.6
52155.9,32414,105451,93636,60583,101291,119501,73996,105838,86688.7,66868,84961.9,86.566,22985,119501,82147.7
128813,62168,135792,132221,57962,149499,115392,58742,128738,92895.1,65634,92756.4,86.986,23091,115392,88510.2
106228,54620,127458,121143,54453,145799,143030,58645,159836,89028.1,60655,96192.3,87.07,23120,143030,83593
106494,61172,114092,174182,92461,123460,162231,88349,120341,95360.9,62068,100689,87.216,23158,162231,89196.2
67086,37605,116914,133726,59365,147627,153193,78523,127856,99550.4,67690,96382.6,87.73,23296,153193,93729.1
67525.2,51650,85679.2,136530,92630,96595.4,151276,96016,103254,97629.4,66794,95790.7,87.874,23337,151276,91880.9
128862,67600,124928,144909,74876,126833,198325,103303,125819,99510.1,69986,93182.8,88.097,23391,198325,91973.7
77413.5,56032,90544.2,108288,61377,115626,146457,85553,112190,94771.6,63641,97593.5,88.675,23533,146457,89206.2
88817.4,54660,106490,112034,68882,106592,158724,93196,111616,96518.8,68281,92638.6,89.208,23665,158724,90487.3
75057.3,49560,99252.5,151459,98018,101267,167395,110559,99226.6,96546.6,74848,84535,89.618,23774,167395,90185.6
69138.9,42687,106147,129847,58066,146551,161091,85609,123320,101489,63988,103945,90.038,23871,161091,95368
73900.8,39230,123456,122125,70686,113228,176413,91663,126130,89625.8,60729,96720.1,90.442,23978,176413,82922.1
90472.5,47372,125163,132521,63782,136166,160505,78025,134814,96399.3,66876,94467.7,91.332,24187,160505,90300.1
88119,48264,119654,124245,66075,123232,209119,112101,122254,96787.1,60531,104790,92.162,24371,209119,88840.6
80952.3,46696,113613,116745,65823,116236,151475,91406,108604,94379.6,72463,85357.5,92.429,24441,151475,88623.5
49500.9,34264,94679.3,103203,55900,120993,114683,79289,94791,91271.6,74879,79883.2,93.304,24677,114683,86913.6
77055.3,45293,111494,117366,71111,108165,143323,88850,105715,95487.4,66903,93536.4,96.946,25505,143323,90041.2
77235.3,53977,93775,135022,92004,96178.3,117816,75564,102181,93791.6,61842,99394.1,98.276,25820,117816,89314.6
86259.6,52716,107237,131555,72483,118946,177272,107652,107919,98817.9,66278,97711.6,98.669,25916,177272,92081.5
68875.2,37105,121650,147291,77600,124393,214395,103848,135300,97950.5,62499,102710,98.796,25949,214395,89803.5
53823.6,40465,87171.2,72605.3,40330,117983,103096,62752,107670,93378.8,67850,90194.2,98.978,25994,103096,89461.2
73245.6,46275,103733,128960,69968,120791,182595,100335,119266,94934.2,61010,101977,99.602,26145,182595,87995.6
107195,50153,140075,137698,62038,145462,156796,73656,139511,92636.5,65426,92792.3,99.749,26181,156796,86678.3
87130.8,51622,110616,140387,81126,113409,132869,75953,114646,94739.6,60930,101901,100.268,26299,132869,89690.6
70316.1,49344,93390,103094,56565,119444,102807,67160,100321,86526.1,58407,97087.2,100.798,26426,102807,82619.4
66206.7,36509,118845,162661,95400,111741,165549,91692,118325,96126.8,65903,95591.5,101.608,26605,165549,89836
73211.4,39908,120226,97476.5,62411,102357,135724,82005,108466,86844.4,64509,88227,101.929,26698,135724,81686.9
90972,52427,113719,154689,79781,127069,195271,93139,137400,99073.6,67041,96849.5,104.476,27310,195271,91653.3
70427.7,41047,112445,145326,81365,117054,209880,105229,130712,94861.9,67854,91621.3,105.555,27594,209880,86886.5
79665.3,47657,109553,151767,93043,106899,168988,96481,114787,89834.3,59914,98263.9,105.959,27697,168988,83412.8
89909.1,49632,118719,133251,88019,99214.2,186275,118182,103296,92606,73984,82031.6,106.822,27897,186275,85527.5
52548.3,34000,101288,122565,66975,119931,195380,105923,120884,93353.8,61963,98736.9,107.997,28207,195380,85929.4
80705.7,49443,106974,79729,39961,130755,90978.3,49100,121433,85069.4,61999,89922.5,108.921,28458,90978.3,81612.2
73464.3,45057,106855,100005,59565,110030,99924.3,65753,99594.5,91049.2,64264,92851.3,109.191,28529,99924.3,87252
61934.4,35922,112993,115237,67316,112189,170748,89654,124814,96859.4,62931,100869,110.221,28760,170748,90371
82278,52615,102484,65955.5,34700,124567,239572,146311,107310,90810.1,65293,91148.1,111.348,29049,239572,81706.4
91964.7,53449,112762,140967,74625,123798,181339,99071,119957,91323,58030,103135,111.621,29124,181339,84432.1
101714,55374,120381,167655,93447,117579,166840,92415,118315,96944.2,61380,103508,111.621,29125,166840,90604.2
59726.7,39775,98409.8,66162.6,41873,103552,88223.3,53323,108430,89375.6,64472,90850.6,112.524,29369,88223.3,86023.1
174527,57816,197831,179014,43666,262143,220882,101731,142294,92460,62095,97583.7,113.254,29533,220882,84066.5
55872.9,40374,90694.2,61942.6,30421,133443,65004.7,38884,109560,89171.3,64779,90213.3,113.422,29562,65004.7,86701.1
96080.4,52174,120687,90173.5,47209,125180,87586.7,52286,109782,90569.6,64088,92615.9,114.612,29853,87586.7,87241.3
60091.2,31482,125092,98170.1,51237,125567,169084,79647,139127,89133.8,68428,85366.6,114.649,29864,169084,82708.6
63758.7,39129,106788,143390,72801,129080,202754,114854,115692,97815.7,62971,101800,115.014,29950,202754,90111
95436.9,48320,129440,165574,86135,125977,204349,116633,114824,89331.1,59338,98662,115.218,30002,204349,81565.9
62735.4,47437,86671.3,158732,96527,107770,173667,111241,102313,90284.7,66433,89065.6,118.432,30723,173667,83685.3
74229.3,50404,96514,78945,53532,96647.7,94691,67738,91612.8,97610,68798,92981.9,119.524,30990,94691,94011.7
99561.6,56327,115839,171106,95693,117183,208294,125323,108925,100539,68538,96135.1,120.085,31120,208294,92623.5
61855.2,38562,105123,90986.6,56000,106480,113866,67384,110743,87002.9,66835,85311.9,120.27,31159,113866,82676
78894,49803,103817,77167.2,40123,126043,83534.8,47477,115309,86406.6,53642,105565,120.683,31273,83534.8,83232.2
64043.1,38073,110239,111288,69759,104551,152654,89174,112189,95299.8,62238,100350,120.807,31311,152654,89498.9
79830,40577,128934,135161,67288,131642,172085,99102,113799,96849.6,69582,91218.1,120.927,31344,172085,90310.4
139268,63543,143636,138504,67385,134703,142853,78890,118672,94403.2,60150,102856,121.317,31422,142853,88974.8
62533.8,43945,93257.8,146349,88021,108964,141861,87061,106787,93699.9,72041,85239.2,121.338,31424,141861,88309.2
63756,37308,111995,132496,80565,107780,153692,95879,105053,94627,67796,91472.6,121.553,31478,153692,88786.7
88081.2,60348,95653.4,174009,102436,111326,200387,115041,114155,102266,74085,90465.5,121.602,31492,200387,94651.8
102923,63749,105808,144527,76401,123973,184409,105955,114062,95709.8,64690,96961.5,122.158,31633,184409,88702.3
68143.5,43441,102803,147801,78378,123585,185477,112763,107796,98131.2,63998,100490,122.316,31664,185477,91083.1
93789,66290,92722.2,110458,68048,106380,148958,91295,106929,94300.4,70526,87628.3,122.767,31780,148958,88640
130172,63542,134257,190933,72359,172929,184552,82555,146506,95726.5,63030,99532.5,122.938,31821,184552,88713.6
81068.4,52283,101618,135674,77895,114147,153954,85005,118693,92287.7,67503,89598.4,123.172,31880,153954,86437.4
86649.3,56203,101038,72444,33421,142057,98570.5,49669,130059,90982.4,58764,101467,123.387,31930,98570.5,87236.8
101623,53217,125147,157101,68429,150459,116645,54982,139035,93609.5,62062,98849.5,123.979,32086,116645,89177.1
86782.5,47296,120251,120970,59478,133291,121176,62119,127842,93488.6,70221,87251.2,126.723,32753,121176,88883.9
74636.1,53157,92017.1,102568,62950,106782,131641,84445,102164,88579.1,63565,91325.8,127.003,32818,131641,83576.8
68248.8,42086,106277,111724,63658,115020,177046,105907,109557,99864.5,76509,85541.9,127.277,32882,177046,93136.8
90835.2,56494,105374,139958,74629,122905,187890,104215,118156,97486.3,65938,96891.9,127.826,33010,187890,90346.4
61488,32291,124793,102285,61160,109603,179395,100564,116909,88968.3,59264,98384,128.205,33102,179395,82151.3
86670.9,44602,127350,153820,71873,140258,194368,89219,142773,92601.8,63148,96103.6,129.311,33324,194368,85215.8
82264.5,46923,114896,106737,60829,114996,107575,57002,123680,92430.8,58718,103163,129.402,33351,107575,88343
67032.9,49901,88035.7,103043,62027,108873,109674,68387,105102,85895,68011,82769.2,129.546,33385,109674,81727.4
91349.1,48379,123745,147219,68052,141776,128009,70275,119377,96322.8,65231,96773.2,129.598,33398,128009,91458.5
59710.5,40484,96660.1,136271,80256,111277,227227,133284,111728,96493.8,65990,95829.9,131.541,33862,227227,87859.2
87561.9,52300,109722,165145,95289,113580,160548,92482,113770,96090.7,64470,97679.5,131.551,33866,160548,89989.9
74629.8,43097,113487,129537,74065,114620,166835,91873,119009,88000.9,64078,90003.2,132.063,33991,166835,81661.2
97816.5,64113,99987.6,103577,62441,108711,132883,87733,99262.5,90490.4,67478,87886.1,133.01,34191,132883,85440.9
99486.9,51145,127480,197287,107000,120835,250559,145892,112553,97512.7,64951,98391,133.032,34196,250559,87991.4
101758,55887,119326,154446,72785,139064,157752,77445,133494,97739.2,66804,95884.1,134.125,34429,157752,91744.6
89752.5,53236,110490,145484,80373,118628,149811,89336,109900,101342,64840,102430,137.211,35084,149811,95649.3
113351,45753,162363,117038,36308,211254,102916,41110,164064,93815.3,59373,103553,137.968,35235,102916,89904.5
108617,49420,144038,174794,74881,152980,194813,87742,145509,96908,70321,90313.9,138.469,35350,194813,89505.1
62363.7,38775,105405,128386,76500,109986,147334,79154,121986,97547.4,65806,97147.2,140.131,35681,147334,91948.7
106169,46881,148417,176737,66532,174091,167389,75788,144746,90252.7,61043,96895.6,140.787,35813,167389,83891.9
95924.7,46631,134814,112259,52632,139782,141474,63594,145794,87905,59797,96341.6,140.84,35821,141474,82529
69349.5,45438,100024,75194.8,46440,106115,93338.5,63221,96756.3,96307.5,76180,82851.3,141.854,36043,93338.5,92760.7
61885.8,42741,94891.3,95049.6,59489,104711,147942,84524,114707,88893.3,63440,91830.2,142.385,36179,147942,83271.5
84837.6,55462,100247,165085,96434,112191,189260,113914,108883,90662.8,63766,93179.3,142.464,36197,189260,83470.9
56402.1,33278,111075,98314.7,56135,114780,152138,83639,119209,90591.9,64199,92478.5,142.949,36307,152138,84810.6
75373.2,41567,118836,160699,89641,117486,195203,106954,119611,93159.2,63254,96520.1,143.22,36365,195203,85741.5
73226.7,47219,101632,137980,85826,105360,118133,70832,109301,88294.2,60977,94895.6,143.761,36480,118133,83805.1
67066.2,45589,96410.3,82036.4,49621,108348,112928,70395,105133,87813.2,67755,84937.3,145.209,36809,112928,83522
97117.2,50897,125050,178117,80136,145666,182664,93982,127376,95323.4,63062,99063.1,145.59,36899,182664,88382.2
72959.4,46029,103879,78644.8,41913,122971,115900,52161,145618,98867.9,62283,104032,145.846,36957,115900,94463.7
81396.9,48728,109474,125413,71663,114690,134673,71348,123702,87795.2,60683,94816.4,146.349,37076,134673,82677.6
54322.2,28931,123053,103919,46200,147412,168011,64860,169762,91578.8,61532,97538,146.507,37113,168011,85194.4
79109.1,52990,97839.1,141234,81636,113380,179054,94277,124468,98224.4,66690,96524.7,146.871,37203,179054,91420.3
80489.7,48198,109444,144168,85058,111079,160990,93620,112696,97575.2,65765,97235.5,147.264,37285,160990,91457.6
55435.5,39628,91678.1,87543.6,53579,107080,146413,90447,106088,97496,68484,93299.1,148.364,37540,146413,91932.3
71625.6,42964,109256,161522,97643,108410,176725,108258,106984,95228.9,65050,95940.4,149.633,37848,176725,88513.4
81145.8,52023,102223,123075,72915,110620,150782,88746,111347,96142.1,68666,91759.7,150.04,37948,150782,90412.4
57092.4,26381,141830,124943,70503,116141,186833,108361,112995,90807.3,62823,94728.8,150.909,38165,186833,83707.7
76989.6,45816,110127,185550,96687,125769,138951,75411,120756,100191,74594,88024.9,151.017,38189,138951,94911
83418.3,47181,115871,137857,84689,106680,146639,89122,107832,89656.4,63349,92751.6,151.423,38273,146639,84084.1
84342.6,46411,119098,134331,70791,124359,179170,84974,138184,97942.2,66106,97097.7,153.33,38694,179170,91133.7
79116.3,44408,116757,151307,80098,123799,170788,89833,124595,91432.8,64265,93241.1,153.649,38756,170788,84942.9
115082,49050,153762,182792,64795,184882,113214,53245,139348,89431.2,60314,97174.2,153.702,38768,113214,85129.1
80130.6,52175,100650,118756,71035,109563,171719,96220,116959,103483,77936,87018.1,154.808,38988,171719,96957.4
58462.2,42503,90143.7,80453.2,37487,140651,96431.2,41068,153884,87714.6,55159,104216,154.914,39015,96431.2,84050.2
102195,54672,122502,143630,78068,120574,179630,87203,134998,95634.8,64362,97379.2,155,39028,179630,88808.9
72132.3,48322,97828.4,108075,66551,106427,128147,80929,103773,94959.2,71002,87648.9,155.185,39079,128147,90089.7
85419,47555,117717,98371.7,50192,128445,133147,62195,140299,90664.1,56145,105829,156.049,39252,133147,85604.6
71784.9,46939,100226,168450,96018,114974,184283,105329,114662,92612.9,69784,86975.2,156.279,39294,184283,85610.1
98757,58774,110119,157741,77045,134178,154971,82681,122836,93034.1,76938,79246.7,156.584,39359,154971,87145.2
60131.7,39512,99736.6,122858,72395,111218,128361,84427,99639.5,93699.9,66814,91907.6,158.061,39651,128361,88822.2
61741.8,36158,111906,118739,67211,115780,126179,79789,103639,99936.8,75407,86854.8,158.415,39723,126179,95142
