"FSC-A", "FSC-H", "FSC-W", "SSC-A", "SSC-H", "SSC-W", "FITC-A", "FITC-H", "FITC-W", "PE-A", "PE-H", "PE-W", "Time", "Event #", "Comp-FITC-A", "Comp-PE-A"
90304.2,62830,94193.5,68707.7,34263,131420,87255.9,51362,111335,90892.1,68002,87596,1.241,454,87255.9,87576.4
70068.6,48435,94807.8,108134,70566,100426,165119,111049,97445.9,89919.1,67161,87743.5,2.229,929,165119,83644.6
74286,50301,96785.5,70257.5,29807,154474,101872,51568,129465,102082,63246,105778,2.631,1105,101872,98210.5
59104.8,48659,79604.8,54090.5,38411,92287.9,63799.6,46225,90452.6,87652,66146,86843.7,2.792,1182,63799.6,85227.6
85815,57100,98493.4,85913.1,50268,112008,129232,80616,105058,93919.5,76526,80431.6,3.087,1320,129232,89008.7
99747,60245,108507,80246.1,44874,117195,130240,78072,109328,87001.5,62750,90864.2,3.431,1452,130240,82052.4
69729.3,36803,124169,156520,75741,135431,189843,101477,122605,101014,64054,103351,4.426,1853,189843,93800
96460.2,59905,105527,164534,95498,112913,203493,118740,112314,99271,65608,99162.1,4.786,1993,203493,91538.3
85900.5,52864,106492,146721,86602,111031,211571,128558,107854,104928,69104,99510.6,5.474,2263,211571,96888.6
98919.9,49350,131364,119986,39503,199059,90753.1,49565,119996,98316.1,66263,97237.4,5.656,2328,90753.1,94867.5
69379.2,40921,111113,125057,77668,105523,208026,120026,113585,98826.2,74841,86539.1,5.782,2376,208026,90921.2
48315.6,41676,75976.9,44916.5,38606,76248.4,67392.8,57088,77365.7,86793,74310,76545.1,6.352,2584,67392.8,84232.1
75897,47856,103937,52191.7,29266,116874,76480.6,47484,105556,90418.1,69509,85250,6.796,2777,76480.6,87511.8
46610.1,40785,74896.1,44838.6,29619,99211.5,74313.6,43937,110845,84937.3,55925,99534.2,7.13,2927,74313.6,82113.4
46094.4,39343,76782.2,55739,39605,92233.6,92248.7,66562,90826.8,94303.2,69133,89396.5,7.422,3044,92248.7,90797.7
48998.7,41802,76818.8,43369.4,24748,114848,70845.5,51379,90366.3,91742.8,65287,92092.7,7.486,3063,70845.5,89050.6
84146.4,54941,100373,139181,79911,114144,176602,107174,107991,90344.4,59787,99031.8,8.404,3418,176602,83633.6
76460.4,52997,94550.8,42656.3,27985,99893.7,62691.8,43853,93689.6,88784.9,66394,87637.5,9.16,3709,62691.8,86402.6
64102.5,45446,92439.8,42442.3,23425,118740,61130.8,38126,105080,87193.3,63451,90058.5,10.38,4209,61130.8,84870.3
50340.6,40282,81900.6,37500.8,23384,105100,67260.7,35220,125156,89463.2,56341,104064,10.683,4319,67260.7,86907.3
66961.8,43354,101223,82242.1,45314,118944,96350.6,60105,105057,96657.8,66439,95344.1,11.362,4574,96350.6,92996.5
73293.3,49589,96863.2,43302.7,28540,99435.3,65708.1,40983,105074,88309.5,60981,94905.8,11.418,4601,65708.1,85812.6
98839.8,58860,110050,76983.8,50485,99934.8,114804,74923,100421,92497.5,58653,103352,12.447,5038,114804,88135
70917.3,58173,79893.4,77431.3,51725,98106.1,127847,81430,102893,96035.1,74637,84324.9,12.766,5163,127847,91176.9
83444.4,62481,87524.4,110487,74126,97683.3,139473,89411,102230,96963.6,79028,80409.6,14.49,5822,139473,91663.7
90238.5,49482,119516,97963,56647,113335,135036,78414,112859,95878,77188,81404.7,15.078,6044,135036,90746.7
97457.4,56705,112635,119425,66678,117379,163739,86869,123529,89577.2,62594,93787.4,15.533,6186,163739,83355.1
76304.7,50667,98697.5,94037.7,44940,137135,100098,47988,136701,91927.6,63040,95567.4,16.117,6404,100098,88123.9
66896.1,44760,97946.9,43911.5,25205,114175,78011,49252,103803,94025.2,64411,95667.4,16.878,6728,78011,91060.7
54543.6,32379,110398,82850.9,44520,121961,101849,57702,115677,98659.4,68425,94493.9,17.39,6919,101849,94789.1
83805.3,52459,104696,75033.6,38765,126852,82035,52342,102714,93952.9,74740,82382.9,18.4,7296,82035,90835.6
45333.9,36897,80521.5,48930.8,32810,97736.3,70909.5,49615,93663.7,88087.1,72180,79978.9,18.577,7359,70909.5,85392.5
62369.1,42799,95502.7,89787,40956,143673,96033.7,52800,119198,85701.8,60943,92160.8,19.123,7564,96033.7,82052.6
61789.5,38059,106399,69141.4,27911,162346,114215,60868,122974,104276,63135,108242,20.281,8010,114215,99936.2
57037.5,43602,85730.2,32241,22499,93913,64016.4,41740,100512,94087.7,67927,90775.9,20.392,8057,64016.4,91655.1
59071.5,35504,109039,112726,67259,109838,179345,111905,105031,93476.1,60439,101359,20.64,8146,179345,86661
80130.6,58954,89076.9,41631.9,25350,107629,79471.9,55923,93132.8,91713.6,68383,87895.3,21.94,8636,79471.9,88693.7
88151.4,53131,108733,83575.1,44339,123530,114266,60425,123931,93790.2,62038,99078.6,22.517,8866,114266,89448.1
66715.2,45436,96228.7,44113,26217,110272,71910.3,43076,109405,89342.2,73671,79476.8,22.742,8952,71910.3,86609.7
96656.4,61469,103052,62644.5,37522,109415,86715.1,52070,109141,89335.3,63547,92131.5,23.378,9200,86715.1,86040.1
81823.5,50889,105374,137571,78396,115004,195895,115737,110926,93042.4,65367,93283,24.195,9498,195895,85598.4
62200.8,36519,111624,40986.9,23524,114186,60776.4,35204,113142,84421.6,57763,95782,24.329,9545,60776.4,82112.1
83550.6,56087,97626.4,68953.7,38370,117773,107850,65071,108621,97231.9,75346,84572.4,26.537,10409,107850,93133.6
86123.7,49644,113694,108510,60718,117121,102394,63051,106430,91856.8,67159,89636.9,26.95,10567,102394,87965.8
103166,55289,122286,119451,65363,119767,194043,101312,125521,92524,61428,98711.5,27.063,10618,194043,85150.3
90929.7,60642,98268,63481.3,37113,112098,88825.2,52742,110372,88982.2,58406,99844.9,27.626,10852,88825.2,85606.9
106154,51619,134774,138438,38791,233887,132844,54990,158320,99840.9,64709,101117,27.802,10922,132844,94792.9
74693.7,48773,100365,106634,58824,118801,171721,95671,117631,100690,74439,88647.5,28.014,11003,171721,94164.8
95155.2,45680,136517,94567.3,45330,136721,119430,69818,112105,97411.2,69839,91409.4,28.668,11253,119430,92872.9
54255.6,41317,86058.9,32526,19114,111522,62445.8,34555,118433,90775.3,57214,103979,28.891,11339,62445.8,88402.4
110689,56173,129139,98054.8,38284,167854,99582.4,56389,115736,90808.7,60819,97851.6,29.169,11437,99582.4,87024.6
88622.1,57079,101753,72841.6,33934,140677,82078.1,52285,102880,98378.6,68452,94187.8,29.96,11773,82078.1,95259.7
117850,37949,203522,153128,47492,211307,173220,84265,134720,104825,64931,105802,29.964,11776,173220,98243.1
74654.1,51429,95131.8,91443.9,52867,113357,100305,60520,108619,91418.9,71466,83833.3,30.463,11985,100305,87607.3
77283,55278,91624.5,58744.2,32573,118192,83899,48918,112400,94205.9,61620,100193,30.724,12074,83899,91017.7
59861.7,44931,87313.8,35508.9,25075,92806.1,63539.7,48838,85264.3,84840,74782,74350.5,32.313,12705,63539.7,82425.5
48046.5,35324,89139.8,60210.6,35195,112117,83283.2,55407,98508.3,93358,75552,80981.4,32.46,12771,83283.2,90193.2
75951.9,49947,99657.3,85686.5,52439,107087,107259,72579,96851,89285.3,62205,94066.4,33.101,12991,107259,85209.4
104060,55968,121849,127727,58715,142565,148859,73298,133096,88975.3,57429,101536,33.88,13308,148859,83318.6
53717.4,40991,85882.8,80525.5,36986,142684,82411.7,47943,112653,86264.8,65123,86811.9,34.513,13567,82411.7,83133.1
57335.4,39510,95103.3,87205.8,57352,99649.9,95504.1,69003,90705.6,90757.3,73696,80708.2,35.138,13812,95504.1,87128.1
88388.1,48619,119143,173653,84733,134310,232123,126102,120636,103185,69176,97755.7,35.213,13843,232123,94364.6
69472.8,43674,104249,45428,21024,141608,64653.1,43494,97418.1,91221.5,70598,84680.8,35.357,13897,64653.1,88764.7
103659,57751,117633,77860.9,42841,119108,154421,86350,117199,93630.4,61060,100494,35.86,14083,154421,87762.4
86221.8,48908,115536,143151,67361,139272,208239,106794,127789,100079,62469,104992,36.349,14270,208239,92165.5
95845.5,48000,130861,157420,80078,128833,200487,99737,131737,91794.2,57206,105161,38.735,15171,200487,84175.7
87171.3,53448,106886,133004,76905,113341,239664,137680,114081,104146,69110,98759.9,38.872,15237,239664,95038.5
77652.9,47532,107066,73810.4,48062,100646,98172.9,63099,101965,91495.4,62070,96604.5,39.21,15369,98172.9,87764.8
97686.9,62709,102091,72086.8,41709,113268,91161.8,49610,120427,91246.5,59330,100791,39.757,15579,91161.8,87782.4
82337.4,52194,103385,67758.3,22274,199363,71354.3,37979,123128,84438.3,61066,90619.2,40.318,15790,71354.3,81726.9
81266.4,55776,95486.9,47045.9,27952,110303,75816.2,49914,99545,89895.5,56538,104202,41.713,16357,75816.2,87014.5
66345.3,39241,110803,156221,100351,102023,186879,110059,111279,94471.4,67061,92323,42.62,16717,186879,87370
84456,49890,110942,121671,69677,114440,145176,84029,113226,92732.5,60128,101073,43.095,16916,145176,87215.8
88096.5,56768,101703,55594.4,34187,106574,92530.9,56920,106537,91125.6,59661,100099,43.139,16933,92530.9,87609.4
56142,37881,97128.4,36962.9,21167,114442,66995.2,42397,103559,95270.6,61636,101299,44.32,17401,66995.2,92724.8
53701.2,35888,98065.1,71807.4,45881,102569,103239,62323,108562,100468,71123,92575.7,44.985,17651,103239,96544.7
98991.9,51567,125808,202198,105914,125113,256231,125078,134255,103277,67347,100500,45.652,17919,256231,93540.2
70054.2,38934,117919,95836.3,41661,150758,87535.2,41206,139220,89668.9,55498,105887,49.482,19409,87535.2,86342.6
93718.8,53592,114606,144796,78936,120216,183497,97295,123600,101697,66312,100506,50.136,19655,183497,94723.7
90437.4,61311,96669.5,180358,122229,96703.3,185929,116341,104736,96214.4,67899,92866,53.388,20916,185929,89149.1
89263.8,61812,94641.7,94203.1,55693,110852,106930,61207,114493,86216.1,57020,99092.6,53.43,20926,106930,82152.8
72032.4,45827,103012,33070.9,18337,118195,64943.6,36589,116323,92111.1,64376,93770.9,54.977,21539,64943.6,89643.3
64772.1,47324,89698.8,65856.8,35450,121749,105825,66008,105068,100333,63059,104274,56.254,22054,105825,96311.6
162354,66837,159193,168891,67536,163889,186104,77224,157937,99068.1,63088,102912,57.006,22315,186104,91996.1
95937.3,62751,100195,80923,48923,108402,112127,68973,106540,92860.3,64056,95005.9,57.128,22360,112127,88599.5
60413.4,39920,99179.7,110808,46150,157355,114422,54539,137494,99410,62197,104747,57.22,22395,114422,95062
62108.1,44701,91056.5,118589,49571,156782,113663,64891,114793,97236.1,74595,85427.5,57.798,22604,113663,92916.9
103495,63458,106884,166946,74197,147458,250136,141524,115831,103466,66717,101635,59.29,23121,250136,93960.9
54408.6,36783,96939.4,88189.9,35584,162422,94593.7,47582,130286,94257.3,60338,102377,59.512,23210,94593.7,90662.7
70840.8,54436,85285.9,37115.8,22377,108702,65847.1,44074,97911.6,92428,60299,100455,59.529,23218,65847.1,89925.9
61830,45847,88382.9,86010.4,56809,99223.4,123178,81715,98789.3,93159.2,65000,93927.4,59.571,23242,123178,88478.4
134702,61084,144520,178710,80959,144665,198257,104829,123944,96917.8,62117,102252,59.617,23262,198257,89384
76474.8,49356,101545,105708,70990,97586.8,161236,102885,102704,91977.7,68329,88218,62.792,24434,161236,85850.7
71591.4,50821,92320.4,57263.8,31070,120787,72730.4,39748,119917,87821.6,59210,97204.5,62.927,24482,72730.4,85057.8
60615.9,41148,96542.3,48712.6,34460,92641.5,68646.5,46031,97734.6,94545,74791,82845.6,65.462,25437,68646.5,91936.4
78213.6,57042,89860.2,61981.5,35473,114510,71459.9,48778,96010.4,94524.2,74937,82665.9,66.109,25667,71459.9,91808.7
48183.3,36921,85526.9,50885.1,26182,127370,71956.1,45442,103774,95258.1,70679,88326.6,66.233,25709,71956.1,92523.8
45652.5,39200,76323.5,53092.4,42384,82093.9,80793.8,59110,89577,95932.2,73449,85597,68.022,26413,80793.8,92862.1
64756.8,46712,90852.5,89415.9,29177,200842,70375.7,41110,112190,84325.7,71346,77458.8,68.642,26631,70375.7,81651.5
83698.2,50074,109543,94329.6,53069,116490,126066,87003,94960.7,87500.5,68949,83169.2,69.272,26877,126066,82710
66393,40113,108472,74014.7,39026,124292,87835.5,61480,93630.2,98983.3,82908,78243,69.574,26988,87835.5,95645.5
93699,49621,123751,88541.6,33764,171859,88665.3,44041,131940,92198.7,59702,101208,69.909,27111,88665.3,88829.4
110915,62378,116530,143495,74389,126418,157235,91217,112968,88554.1,60750,95530.6,70.042,27155,157235,82579.2
89533.8,43166,135933,99016.6,31819,203940,101531,52904,125774,99970.2,76314,85851.2,70.791,27445,101531,96112
77382,52070,97394,70370.1,38504,119774,78097.1,57186,89500.5,86640.1,68700,82649.8,70.911,27492,78097.1,83672.4
72826.2,31182,153061,121571,35637,223567,107216,35995,195208,98489.8,61159,105539,70.955,27511,107216,94415.6
105816,36440,190306,209526,54197,253362,150365,53969,182592,93980.7,63901,96385.3,71.741,27803,150365,88266.8
61418.7,44986,89475.3,34702.7,24761,91849.2,60948.7,41671,95854.1,87018.2,62640,91041.2,73.076,28296,60948.7,84702.1
74200.5,46828,103844,45553.1,23365,127771,74777.8,43670,112220,98305,72635,88697.1,73.11,28307,74777.8,95463.4
57995.1,36007,105556,103815,34753,195771,116793,53594,142818,88791.8,58869,98847.6,73.476,28434,116793,84353.7
99843.3,45353,144276,94643.7,28263,219459,101163,41076,161403,90300,58025,101989,73.993,28640,101163,86455.8
180331,50952,231947,203119,73146,181987,112750,36510,202388,95133,67868,91864.1,74.081,28687,112750,90848.5
61146.9,30373,131937,128950,51614,163732,140637,61315,150319,98713.6,62679,103213,75.065,29015,140637,93369.4
150388,68328,144243,208967,55938,244822,178469,67119,174260,94870.3,64096,97001.7,76.018,29373,178469,88088.5
75751.2,49121,101065,56169.9,29795,123549,72592.8,43004,110628,89970.5,61344,96118.8,76.039,29384,72592.8,87212
87088.5,33564,170046,122302,31418,255114,112295,47276,155669,98457.9,64674,99770.1,76.589,29589,112295,94190.6
96693.3,52913,119761,91047.8,34034,175322,99792.3,49721,131534,94058.5,59582,103458,76.603,29597,99792.3,90266.4
58762.8,48702,79074.4,37143.6,29718,81911.4,60337.1,53440,73994.3,87075.2,74653,76441.1,78.204,30195,60337.1,84782.3
131972,54312,159246,75924.6,25062,198539,116125,42267,180054,86798.5,57031,99742.8,78.696,30368,116125,82385.8
77122.8,49333,102453,140056,84188,109027,187519,118108,104051,96977.5,62612,101506,79.077,30486,187519,89851.8
88386.3,53328,108620,113544,70698,105253,154747,95057,106689,97983.9,66310,96840.2,79.26,30563,154747,92103.5
87283.8,49483,115600,80643.6,35119,150490,93396.9,45664,134041,87650.6,56286,102055,80.219,30903,93396.9,84101.5
99719.1,56200,116285,141337,70164,132014,168867,97024,114063,99077.8,65256,99502.9,81.022,31223,168867,92660.9
108424,57311,123984,160405,65934,159436,182488,90248,132518,95764,65690,95539.5,81.26,31312,182488,88829.5
67509,46750,94636.8,40283.6,24798,106461,74433.1,47172,103410,90826.8,65141,91377.5,84.189,32366,74433.1,87998.3
93710.7,59317,103536,62117.7,35808,113688,87469.9,56653,101185,97167.9,68183,93395.7,84.255,32392,87469.9,93844.1
78191.1,50749,100974,85297.4,51923,107660,94103,62412,98813.3,94332.4,64155,96363,86.259,33147,94103,90756.4
60175.8,42358,93103.6,132682,83174,104546,149713,86211,113809,95943.4,65472,96037.1,86.321,33167,149713,90254.3
105186,58686,117463,140430,71351,128985,197470,107538,120343,101230,64906,102212,87.013,33437,197470,93725.7
179104,53433,219673,210657,56626,243804,167804,53922,203946,100968,62355,106119,87.335,33567,167804,94591.7
167615,47053,233456,141089,30561,262143,165916,54214,200566,91980.5,57472,104886,90.484,34708,165916,85675.7
59491.8,39967,97551.8,84756.6,44367,125197,95591.7,55760,112351,86491.4,53852,105257,90.757,34812,95591.7,82858.9
79304.4,33331,155930,111054,54981,132374,109401,61480,116619,90697.5,72346,82160.1,92.414,35389,109401,86540.2
77896.8,49593,102939,98665,61466,105198,158007,105495,98157.6,92115.3,63849,94549.1,93.044,35597,158007,86111
92552.4,59812,101410,45193.1,25012,118414,84712.2,46550,119263,99518.4,64407,101263,94.909,36279,84712.2,96299.4
94775.4,59224,104876,87772.9,41355,139095,83832.3,54608,100609,90860.1,64254,92673,97.772,37259,83832.3,87674.5
100516,53925,122159,126518,65981,125665,136953,80289,111788,91859.5,69262,86917.9,98.497,37530,136953,86655.3
71054.1,42934,108460,146368,85113,112702,187446,105307,116654,94376.8,63320,97679.7,98.816,37643,187446,87253.9
56545.2,40211,92157.5,81675,55509,96428.6,119458,83965,93238.8,86635.9,65527,86647.8,99.276,37807,119458,82096.5
49681.8,43415,74995.9,53627.6,37941,92631.7,75806.4,64106,77497.4,93377.4,79193,77274.3,100.735,38321,75806.4,90496.8
45964.8,38538,78165.7,39837.4,29089,89751.6,71205.5,49984,93360.4,88609.7,64455,90095.8,101.883,38717,71205.5,85903.9
91101.6,45012,132641,125855,70898,116336,157786,98217,105284,89025.3,60470,96483.6,102.496,38927,157786,83029.5
52971.3,42551,81585.1,41848.7,29205,93908.5,66311.3,53825,80739.1,91530.1,76631,78278,102.535,38945,66311.3,89010.3
84732.3,46323,119876,155260,70749,143820,217429,104545,136300,103884,72365,94081,102.662,39001,217429,95622.1
95699.7,64523,97202.2,120457,59847,131908,129669,68424,124196,101951,78032,85624.6,103.598,39333,129669,97023.5
70068.6,51424,89297.1,71386.2,46102,101479,137524,83099,108458,86986.2,60908,93595.7,104.811,39744,137524,81760.3
63841.5,49812,83994.2,103021,65047,103796,136224,81390,109689,86749.9,57600,98702.1,105.96,40136,136224,81573.4
66356.1,45442,95698.1,47223.9,27237,113627,68767.5,43617,103325,93907,74322,82805.8,106.308,40266,68767.5,91293.8
70543.8,46492,99439.9,104830,64230,106961,187314,121776,100806,94604.8,63705,97323.9,106.495,40334,187314,87486.9
58770,46893,82134.9,48056.5,31163,101063,89774.5,59301,99213.6,99857.6,75245,86972.8,107.141,40577,89774.5,96446.2
84352.5,49802,111002,113674,72996,102057,163515,102943,104098,94495,62611,98909.5,108.235,40917,163515,88281.4
148882,54491,179060,116109,50861,149611,127763,69600,120303,100081,81412,80564.7,108.511,41012,127763,95226.4
57517.2,39650,95068,74531.8,38993,125266,84067.2,52031,105887,95839.1,67218,93440.9,109.279,41270,84067.2,92644.6
52476.3,37520,91660.1,78920,45791,112950,195412,108017,118560,92890.9,61822,98471.4,109.304,41277,195412,85465.3
67144.5,45946,95772.9,108844,72953,97778,141993,86559,107506,101531,67795,98148,109.99,41489,141993,96135.4
119844,58971,133186,116301,37420,203686,95028.7,40112,155260,93224.5,58205,104966,111.178,41878,95028.7,89613.4
54161.1,40714,87181.4,69750.2,46196,98951.2,84206.2,57318,96279.3,99177.9,77861,83478.5,111.768,42077,84206.2,95978.1
71856.9,45003,104642,50639.1,23891,138909,81171.8,40585,131075,99838.1,62073,105408,112.702,42384,81171.8,96753.6
71430.3,42895,109133,147383,82841,116596,182752,102383,116980,103231,72702,93056,113.997,42853,182752,96286.6
77817.6,60047,84931,54504.7,36268,98489.5,98733.1,69292,93381.2,85832.5,67069,83870.6,114.182,42919,98733.1,82080.6
68679.9,47864,94037.4,51684.4,33351,101562,78334.8,52009,98708.9,94387.9,74922,82563.3,115.277,43285,78334.8,91411.2
60735.6,44898,88653.6,41340,29484,91889.1,71893.6,44595,105653,94449.1,61210,101124,116.398,43640,71893.6,91717.2
45070.2,34217,86323.2,67132.8,51490,85446,178658,124365,94146.6,94721.5,74978,82793.2,116.746,43732,178658,87932.5
74933.1,52832,92951.5,50839.2,27156,122691,61468.6,40543,99361.3,92615.7,69981,86733,118.345,44182,61468.6,90279.9
74173.5,45789,106162,79603.9,48523,107514,119906,77347,101596,95918.3,62891,99952.4,119.411,44506,119906,91361.9
80401.5,51110,103095,120398,61281,128757,186923,115775,105810,89062.9,59302,98425.4,119.871,44626,186923,81959.8
81689.4,59231,90385,41023.1,29546,90993.3,62170.5,43697,93242.3,87083.5,55043,103684,120.386,44768,62170.5,84721
79606.8,51317,101664,111272,59107,123375,151246,92050,107681,97326.4,68980,92467.1,120.976,44940,151246,91579.1
76981.5,51821,97355.5,58310.5,27556,138679,71254.2,37959,123020,90778.1,61457,96803.2,121.042,44959,71254.2,88070.5
108689,69268,102833,163994,88675,121201,201089,106458,123791,99526.8,67590,96502.2,122.294,45314,201089,91885.4
