"FSC-A", "FSC-H", "FSC-W", "SSC-A", "SSC-H", "SSC-W", "FITC-A", "FITC-H", "FITC-W", "PE-A", "PE-H", "PE-W", "Time", "Event #", "Comp-FITC-A", "Comp-PE-A"
45743.4,34750,86268.8,46220.3,35846,84502.9,81276.1,59276,89859.5,48855.7,41710,76763.6,0.235,69,81276.1,45767.2
41254.2,33183,81476.5,23848.2,17965,86997.9,166065,150889,72127.3,46884.7,42872,71670,0.254,79,166065,40574.2
63405.9,23030,180433,102863,28448,236966,75585.4,24294,203901,44831.7,30695,95718.8,0.466,139,75585.4,41959.4
44972.1,33560,87821.5,22957.2,13288,113224,91145.1,64312,92879.8,38586.4,30279,83516.6,1.083,364,91145.1,35122.9
54231.3,40610,87517.9,30201.9,20359,97220.5,77424.4,55504,91418.4,38244.5,32184,77876.9,2.222,749,77424.4,35302.3
66818.7,33362,131258,90472.3,32216,184045,75521.5,35931,137747,47510.2,39663,78502.1,2.673,899,75521.5,44640.4
77173.2,41770,121083,55359.5,17354,209061,81816.8,26450,202720,54955,37773,95346.8,3.017,1013,81816.8,51846
43326,34506,82287.5,44670.4,32967,88801.6,204033,193324,69166.1,49087.8,41915,76751.1,3.286,1112,204033,41334.6
120713,41714,189650,159226,40661,256635,178344,73221,159626,53330.1,37469,93278.3,3.83,1304,178344,46553.1
41868.9,31048,88376.7,66896.5,36320,120708,77726,52539,96953.7,43087.2,36755,76826.7,4.227,1429,77726,40133.6
57770.1,42058,90019,55379,38724,93722.7,88328.9,55984,103400,38989.5,31750,80479.2,5.002,1685,88328.9,35633
75084.3,42342,116214,75445,32540,151947,80108.5,46916,111902,52954.8,40504,85681.6,6.813,2299,80108.5,49910.7
64509.3,35915,117714,89467.4,45260,129548,83520.9,48266,113405,47971.7,39795,79001.7,7.141,2395,83520.9,44797.9
118401,32609,237957,140726,41124,224264,79647,29030,179805,43137.3,34280,82469.2,8.364,2783,79647,40110.7
90558,46003,129009,89522.9,31986,183423,114854,47978,156886,46706.8,35986,85060.2,8.525,2829,114854,42342.3
157303,42915,240219,103031,30065,224588,78676.8,22221,232040,40996.7,34001,79019.9,9.006,2998,78676.8,38006.9
45787.5,36447,82331.3,50571,38011,87191.1,77003.2,56687,89023.6,48675,41424,77007.7,9.54,3182,77003.2,45748.9
53632.8,41232,85246.4,54143.3,42028,84427.9,73171,57160,83893.2,43251.2,33093,85653,9.62,3208,73171,40470.7
65142.9,39298,108637,78957.6,36698,141004,75390.8,47363,104318,47817.4,39378,79581.5,9.641,3213,75390.8,44952.5
41459.4,35548,76434.2,33571.3,26709,82374,75214.3,63872,77173.8,47832.7,40543,77319.5,9.945,3326,75214.3,44974.5
60015.6,41832,94023.3,73453.2,54750,87923.8,102043,73362,91157.1,46795.7,36955,82987.6,11.859,3969,102043,42918.1
49849.2,39624,82447.9,50707.2,38942,85335.8,82194.9,60740,88684.9,49254.6,41126,78489.3,12.81,4273,82194.9,46131.2
105487,28618,241569,80471.3,15779,262143,87572.8,25909,221513,52144.5,41169,83007.6,12.867,4289,87572.8,48816.7
91976.4,38985,154618,220658,73800,195949,92813.1,30272,200931,42550.7,30988,89989.7,14.946,4979,92813.1,39023.8
122447,41358,194030,65987.5,22246,194397,78209.7,30517,167957,49087.8,40008,80409.5,15.051,5021,78209.7,46115.9
64569.6,41220,102660,50133.1,33325,98590.4,78273.7,53515,95856.2,36336,29760,80017.3,15.404,5147,78273.7,33361.6
60759.9,43897,90711.5,68832.8,49401,91314.5,108542,79158,89863.7,42730,33770,82924.3,15.803,5264,108542,38605.4
108421,48375,146884,67077.2,23249,189082,74488.7,29922,163147,41850.1,32396,84661.4,16.322,5430,74488.7,39019.6
79578.9,39756,131182,62741.8,24849,165473,72838.8,37063,128796,49958,40299,81243.9,16.459,5477,72838.8,47190.1
59085,25471,152024,159958,42300,247826,108715,42987,165741,50415.3,35270,93677.8,17.025,5654,108715,46284.1
44091.9,35616,81132.3,51257.6,38892,86373.1,76732.2,60530,83078.1,44528.6,36273,80451.8,17.234,5733,76732.2,41612.8
71517.6,43465,107833,60073,25325,155457,88420.7,38814,149295,56189.4,40615,90666.6,17.65,5876,88420.7,52829.4
64971,45775,93018.9,63422.9,40412,102853,72972.2,53633,89167.3,45380.7,38617,77014.6,17.716,5897,72972.2,42607.8
52284.6,38012,90143.2,52650.4,40689,84801.7,84389.7,67535,81891.8,48402.6,39114,81099.1,18.445,6173,84389.7,45195.8
65943.9,41470,104213,65969.4,23251,185943,169037,116622,94990.5,45225,38394,77196.1,18.539,6205,169037,38801.7
41979.6,34474,79804.4,23878.8,19431,80537.4,139038,120853,75397.1,44548.1,39814,73328.6,18.751,6273,139038,39264.7
56880,39928,93360.2,55480.5,37700,96444.8,73166.8,53659,89361.7,48848.8,42384,75532.1,19.371,6458,73166.8,46068.4
53108.1,38346,90765.5,130114,42367,201268,72894.4,30988,154163,44903.9,37171,79169.9,19.413,6472,72894.4,42134
62615.7,42992,95449.9,66989.7,48995,89605.8,83876.8,60428,90966.9,50455.6,39371,83987.2,19.605,6540,83876.8,47268.3
91967.4,33466,180098,209021,87495,156562,77891.4,27129,188164,41770.9,30199,90648.6,20.112,6688,77891.4,38811
81486,45992,116113,73394.8,37741,127448,75311.6,47282,104387,50908.8,41805,79807.6,20.418,6785,75311.6,48046.9
44971.2,36203,81408.5,41181.5,31466,85771.1,74390,58751,82981.1,44302.1,36800,78896.2,20.724,6880,74390,41475.3
86021.1,34797,162010,85386.3,33590,166594,73260,24742,194049,49591,38064,85382.5,20.778,6897,73260,46807.2
105614,45865,150911,198735,58047,224375,106873,37766,185458,54208.6,35017,101454,20.932,6951,106873,50147.4
99700.2,29289,223086,108669,26106,262143,191459,70649,177602,55632,42512,85761.6,21.893,7250,191459,48356.5
49870.8,35468,92148.8,44594,32340,90368.3,98321.6,74213,86825.9,38099.9,32581,76637.2,23.473,7770,98321.6,34363.7
137014,39787,225686,142080,39089,238209,82454.8,21294,253769,43554.3,34210,83436.8,23.963,7923,82454.8,40421
48025.8,36336,86619.9,54704.8,29777,120400,72428.7,48639,97590.2,47319.8,41160,75343.7,23.974,7926,72428.7,44567.5
96719.4,30750,206133,109365,27520,260442,78786.6,28881,178780,49168.5,42435,75935.1,24.259,8023,78786.6,46174.6
69408,37481,121361,76094.2,27787,179469,92631,42824,141758,51897,41019,82915.8,24.67,8157,92631,48377.1
53358.3,23846,146645,94806.3,21200,262143,93547,32901,186338,52696.3,41031,84168.2,25.115,8290,93547,49141.5
53010.9,36833,94320.9,67538.7,31256,141612,89115.7,43729,133556,46385.7,40092,75823.9,25.321,8367,89115.7,42999.3
105984,50266,138180,134913,57547,153643,73528.2,33130,145450,36084.4,28966,81641.5,26.552,8765,73528.2,33290.3
107068,37276,188240,91257.7,28540,209554,76651.5,24084,208580,32872.1,21198,101628,27.36,8997,76651.5,29959.4
80735.4,40116,131894,95803,43943,142879,82901,46862,115936,50596,39817,83277.5,27.63,9087,82901,47445.8
54928.8,41408,86935.2,61892.5,45518,89111.8,83316.6,61135,89314.4,43065,34472,81872.4,28.292,9280,83316.6,39898.9
96527.7,55516,113950,162683,52398,203473,84291,28520,193692,54486.6,42344,84329.2,28.477,9327,84291,51283.6
90111.6,40822,144666,65798.4,24786,173976,84733,29866,185933,50935.2,40810,81795.8,28.872,9454,84733,47715.3
109990,53759,134085,117858,37333,206893,74030,29068,166906,33635.2,22460,98144.2,28.952,9482,74030,30822.1
161261,40201,262143,152063,38965,255758,74597.1,21375,228716,41142.6,31489,85627.4,29.869,9770,74597.1,38307.9
132844,43175,201647,148540,41244,236027,104999,38110,180562,54722.9,38954,92065.5,30.142,9875,104999,50732.9
66168.9,47241,91794.1,63520.2,43446,95816.9,97313.9,67056,95108,49086.5,39869,80687.5,31.715,10389,97313.9,45388.5
42861.6,27545,101978,29476.3,16098,120000,102404,65549,102384,31457.1,26374,78166.8,32.102,10497,102404,27565.7
99239.4,51643,125937,76423.6,29436,170149,77937.3,29028,175958,50198.5,38420,85627.4,32.287,10579,77937.3,47236.8
45601.2,25889,115436,68114.2,18534,240851,72284.2,30446,155594,52133.3,43575,78407.6,33.415,10956,72284.2,49386.5
108611,45300,157129,78079.1,34474,148430,93826.4,48454,126904,48837.6,36659,87308,33.767,11088,93826.4,45272.2
67381.2,24592,179566,125011,40265,203470,98317.5,38442,167612,46777.7,34368,89199.9,34.664,11376,98317.5,43041.6
96733.8,33476,189376,145070,43623,217943,82225.4,35830,150397,44046.3,36712,78628.8,37.247,12199,82225.4,40921.8
52719.3,37884,91199.8,67969.6,41982,106104,87546.4,58787,97597.1,41506.8,34067,79848.2,37.982,12432,87546.4,38180
45312.3,37961,78227.3,41723.6,26616,102735,76362.4,55964,89423.3,40980,35638,75359.6,38.118,12472,76362.4,38078.2
92258.1,48531,124585,70766.3,36277,127842,80129.3,47589,110348,50925.4,41691,80052,38.17,12496,80129.3,47880.5
103752,36104,188331,130439,27980,262143,89236.6,41779,139980,53922.3,43483,81269.7,38.607,12627,89236.6,50531.3
68030.1,47976,92930.2,52326.6,34914,98220.6,78921.4,56790,91075.8,45988.1,39256,76775,39.413,12862,78921.4,42989.1
59407.2,38355,101507,55326.2,36322,99825.3,78536.4,58987,87255.9,49047.5,42836,75039.2,39.837,12994,78536.4,46063.2
45674.1,34514,86727.1,51869.2,41537,81837.9,77594,58671,86673.1,45198.6,37701,78569.2,39.844,12997,77594,42250.1
67387.5,34344,128590,126794,47360,175456,89677.2,30129,195064,33168.2,22266,97624.6,40.131,13088,89677.2,29760.4
152764,44242,226291,209883,52266,262143,88241.4,29511,195960,48401.2,37052,85610,40.602,13239,88241.4,45048
89483.4,45455,129015,194735,47758,262143,72563.6,25906,183568,47386.5,38837,79963,41.628,13538,72563.6,44629.1
44232.3,32608,88898.7,57772.6,41923,90312.8,72555.2,52768,90111,48747.3,39632,80609.2,42.608,13869,72555.2,45990.2
65175.3,30363,140675,76971.2,38054,132559,73062.6,41326,115865,43616.8,36996,77264.3,43.597,14166,73062.6,40840.4
76383.9,43532,114993,75083.6,38575,127561,91858.1,55471,108525,49999.7,42421,77244.3,45.466,14791,91858.1,46509.1
44997.3,29530,99862.6,61767.4,44609,90743.8,78680.9,55977,92117,32779,24434,87918.6,46.033,14975,78680.9,29789.1
133915,36749,238815,91346.6,23288,257063,85168.1,29409,189791,48732,31814,100387,46.175,15005,85168.1,45495.6
103256,36920,183288,116717,37691,202944,79211.9,24173,214753,52006.8,35962,94775.6,47.133,15320,79211.9,48996.8
66047.4,25913,167039,103198,46825,144435,92403,43883,137997,45665.7,40571,73765.6,47.298,15383,92403,42154.4
60475.5,29465,134510,78835.2,25905,199442,79936.1,35328,148287,47533.8,40266,77364.9,47.541,15463,79936.1,44496.3
50110.2,33410,98294.6,69725.2,16597,262143,73009.8,27646,173073,46549.7,38499,79240.5,49.421,16035,73009.8,43775.3
72837.9,41375,115372,75528.4,35463,139577,76333.2,37112,134797,48968.3,40401,79433.4,50.171,16284,76333.2,46067.6
50778,29040,114593,80369.8,35096,150077,82556.3,34570,156506,46733.2,38916,78700.4,50.223,16297,82556.3,43596.1
47693.7,36347,85994.8,45790.8,33938,88424.3,86872.2,66368,85783.2,38961.7,32001,79791.1,50.61,16424,86872.2,35660.6
56259,40618,90772.3,42314.4,28982,95684,76244.3,50954,98063.8,42814.8,35668,78667.4,50.668,16442,76244.3,39917.5
59077.8,37564,103070,62679.3,22273,184427,74018.9,38484,126050,54371.2,41762,85323.3,50.898,16521,74018.9,51558.5
47787.3,40671,77003,36177.5,28558,83021.6,77229.8,59286,85371.4,46409.3,39465,77067.8,51.888,16830,77229.8,43474.6
63328.5,45824,90570.4,63695.4,45848,91047.4,90131.8,62334,94761.7,47392.1,38832,79982.6,53.2,17258,90131.8,43967
54206.1,41182,86262.2,56089.3,41511,88551.6,78699,59957,86022,42661.9,33719,82917.3,53.45,17330,78699,39671.3
48099.6,27934,112847,48907.1,24840,129033,114496,71327,105200,56206,42019,87663.2,53.741,17438,114496,51855.2
144247,58289,162181,152540,44748,223404,129510,46626,182036,52425.2,40696,84424.5,54.771,17759,129510,47503.8
121419,34209,232609,102178,25439,262143,78076.3,26759,191218,50215.1,38754,84917.7,54.785,17767,78076.3,47248.2
94714.2,39873,155674,61246.2,13390,262143,78578.1,25407,202688,53498.3,37968,92342.7,55.72,18065,78578.1,50512.4
74368.8,47739,102093,90956,41783,142663,93099.4,45431,134300,46555.3,38748,78740.7,56.552,18326,93099.4,43017.5
54984.6,34494,104467,32186.8,15922,132483,81909.9,47279,113540,47129.3,39496,78202.1,56.793,18415,81909.9,44016.8
42833.7,29357,95621.1,55344.2,26617,136268,76647.4,36410,137961,34483.1,29319,77079.2,57.257,18580,76647.4,31570.5
65305.8,38974,109814,63256.1,25515,162475,78126.3,43718,117116,50409.7,41407,79784.9,57.555,18681,78126.3,47440.9
81906.3,41338,129852,80325.3,34122,154276,73365.6,43257,111152,52237.6,41833,81835.9,57.825,18766,73365.6,49449.7
53743.5,41426,85022.3,44473.1,35160,82894.9,73843.8,58718,82418.1,49060.1,40772,78858,59.134,19181,73843.8,46254
52437.6,32121,106988,65260.5,18430,232062,81494.3,30915,172758,55252.5,38504,94042.9,60.939,19814,81494.3,52155.7
75136.5,48478,101575,70994.2,37544,123926,75532.6,48960,101105,44432.7,37310,78047.3,61.746,20069,75532.6,41562.5
104761,36955,185783,70067.1,22053,208222,80169.6,33405,157282,53180,35577,97962.3,62.308,20278,80169.6,50133.6
52615.8,38745,88998,51267.4,39494,85072.6,73482.4,60269,79904.1,47055.7,38731,79622,62.612,20374,73482.4,44263.3
111500,30273,241379,86934.8,18684,262143,102802,20834,262143,35353.3,25245,91777,62.637,20382,102802,31446.8
45125.1,30784,96066.7,79840.2,42329,123613,83142.9,50901,107048,42785.6,34270,81820.7,64.164,20877,83142.9,39626.2
133563,34600,252982,105644,31984,216468,74160.7,22434,216644,45715.7,38342,78139.5,65.406,21271,74160.7,42897.6
95648.4,48536,129150,97803.2,39391,162718,92567,49106,123538,45675.4,36630,81719.4,65.725,21382,92567,42157.9
70527.6,39675,116499,136127,74332,120018,163383,99561,107547,57461.2,42706,88179.1,65.778,21403,163383,51252.6
40090.5,29235,89870.7,22654.2,14211,104473,86134.1,77026,73285.5,46237,41312,73348.8,67.141,21880,86134.1,42963.9
149654,43347,226260,100528,21353,262143,94229.5,37422,165021,50565.4,41877,79133.1,69.08,22529,94229.5,46984.7
58843.8,32859,117362,73364.2,28938,166148,163770,98995,108418,52972.9,38057,91221.9,69.286,22609,163770,46749.6
61158.6,38679,103624,58001.9,31225,121736,72521.9,48046,98921.7,50255.4,40035,82266.5,69.682,22750,72521.9,47499.6
81648,34470,155233,97263.9,28426,224241,96302,35879,175904,43569.6,35342,80792.7,69.991,22848,96302,39910.1
119980,48908,160771,166469,61084,178602,104618,32187,213014,54261.4,37477,94886.9,70.454,22989,104618,50285.9
77320.8,36938,137184,88983.6,32787,177864,124627,60820,134291,48647.2,31807,100234,70.53,23015,124627,43911.4
128516,41430,203294,129025,46848,180494,134516,69573,126711,56090.7,41480,88620,71.635,23390,134516,50979.1
49312.8,39187,82470.3,62405.4,50000,81796.1,74968.3,63222,77712.2,47243.3,38926,79539.1,71.974,23500,74968.3,44394.5
68879.7,27762,162600,84594,27206,203777,91763.6,36052,166810,31825.4,23773,87734.5,72.01,23512,91763.6,28338.4
103690,41912,162135,72248,24243,195308,75018.3,29412,167156,43500.1,35392,80549.8,72.216,23576,75018.3,40649.4
44891.1,30498,96464.8,33533.8,21604,101725,159244,121377,85981.8,43465.3,38165,74637.5,73.535,24041,159244,37414
40068.9,33005,79562.4,22611.1,19199,77183.3,243546,189469,84240.9,37689.9,33766,73151.8,74.158,24249,243546,28435.1
55392.3,25105,144600,134024,29104,262143,104320,33977,201215,54118.3,39239,90387,76.487,25025,104320,50154.1
47106.9,37652,81992.9,29298.4,23577,81439.6,106802,94090,74390.2,48242.7,41603,75995.4,76.612,25054,106802,44184.3
120445,39532,199674,137351,44829,200796,112158,46156,159251,40697.8,28225,94496.8,76.642,25066,112158,36435.8
46332.9,33188,91493.1,50216.5,38152,86260,79388.5,58982,88210,46177.2,38843,77910.3,76.803,25121,79388.5,43160.4
82280.7,47336,113916,84605.1,34870,159010,100594,56065,117588,47854.9,41448,75666.4,77.873,25512,100594,44032.3
111299,50751,143724,129837,46640,182440,101581,48452,137398,42805.1,36942,75937.2,78.073,25571,101581,38945
115667,49140,154260,196656,49935,258096,83126.2,33038,164894,48847.4,39469,81108.3,79.206,25938,83126.2,45688.6
51845.4,39525,85964.3,67606.8,49242,89977.7,75121.2,57782,85202,48679.2,41081,77657.3,80.436,26357,75121.2,45824.6
61946.1,32791,123805,124591,57115,142961,174538,105000,108938,55968.3,44708,82042.2,80.484,26373,174538,49335.9
43478.1,25824,110338,34823.7,19469,117222,90204,57100,103531,49307.5,43565,74174.6,82.081,26939,90204,45879.7
65769.3,36700,117446,102583,36981,181794,72766.5,34904,136627,47240.5,37598,82343.6,82.856,27169,72766.5,44475.4
149360,40760,240149,100530,24495,262143,88538.8,28707,202128,51471.7,41375,81528.7,84.723,27764,88538.8,48107.2
48064.5,34901,90254,32612.2,18607,114864,198749,116260,112035,45871.4,39727,75672.1,85.487,27995,198749,38318.9
59181.3,36081,107494,69153.9,25921,174842,75443.6,30775,160659,42875.9,29779,94359,85.624,28033,75443.6,40009.1
140592,38723,237942,118506,41105,188940,92828.4,32793,185515,53576.2,44882,78231.1,85.915,28129,92828.4,50048.7
47385,36018,86218.6,59494.8,38442,101427,87059.9,42265,134995,42467.3,35292,78860.2,87.007,28497,87059.9,39159
58310.1,44539,85799.2,95013.4,39738,156696,82196.3,45495,118405,41116.2,31667,85091.5,87.307,28609,82196.3,37992.7
60817.5,38615,103217,70065.7,45778,100306,98350.8,63607,101334,48075.9,37764,83431.4,89.38,29280,98350.8,44338.6
72272.7,28317,167266,61724.3,23327,173411,128658,77195,109227,53610.9,35969,97679.8,90.347,29581,128658,48721.9
111938,39694,184812,166836,42442,257617,77382.7,27234,186214,32338.3,21208,99930.5,90.823,29735,77382.7,29397.8
60731.1,43856,90753.2,64112.4,46438,90479.1,89311.7,68980,84852.6,49939.9,41126,79581.3,91.216,29859,89311.7,46546.1
60420.6,42842,92426.2,57619.7,39179,96382.3,74281.6,53371,91212.8,48538.8,40391,78756.1,91.268,29873,74281.6,45716.1
51153.3,38909,86159.6,44635.7,33750,86673.9,72991.7,58041,82417.3,49382.5,42309,76492.8,92.564,30308,72991.7,46608.8
69096.6,40370,112170,61586.7,18510,218052,118908,60339,129149,53938.9,41274,85645.8,92.865,30407,118908,49420.5
125143,44887,182712,112288,32865,223914,91872,41335,145662,52072.2,37107,91966.5,94.433,30898,91872,48581
62914.5,46619,88443.9,64801.8,47329,89730.4,78215.3,58027,88336.8,46314.8,37629,80663.5,94.971,31066,78215.3,43342.6
52263.9,37417,91540.4,47917.5,37618,83479.2,73127.9,58586,81803,46492.7,38020,80140.6,95.734,31300,73127.9,43713.9
68202,31507,141863,74826.5,32352,151577,96724.5,45553,139155,56472.9,36485,101439,95.763,31310,96724.5,52797.4
49291.2,38239,84477.8,50261,40852,80630.2,85183.4,64326,86785.7,49071.2,40781,78858.5,96.221,31435,85183.4,45834.2
112567,48662,151600,85272.3,37496,149040,95915.6,47060,133573,55171.9,40646,88957,97.525,31839,95915.6,51527.1
80694,38536,137232,48713.9,18301,174445,80000.1,32295,162344,53748.5,39709,88706.9,98.025,32012,80000.1,50708.5
55111.5,37014,97578.9,92515.6,46697,129839,72467.6,45673,103984,38104.1,31783,78569.9,98.677,32247,72467.6,35350.3
63959.4,34529,121395,88850.2,32729,177912,81537.4,28176,189652,53389.9,35174,99475.8,98.698,32255,81537.4,50291.5
49389.3,37476,86369.3,55846,41398,88408.3,88914.1,67004,86966.1,50211,42039,78275.6,98.804,32291,88914.1,46832.2
121306,34281,231905,131334,35872,239940,91553.7,24155,248399,40483.8,26539,99971.5,98.912,32323,91553.7,37004.7
63702,35728,116849,85590.6,32331,173495,106872,43388,161426,49845.4,32223,101377,98.944,32332,106872,45784.3
65916.9,30080,143615,99433.6,31804,204895,106160,33308,208878,33157.1,24324,89334.9,99.343,32458,106160,29123
47592,37904,82286.5,54340.7,43351,82149.6,82158.7,65780,81854,43458.3,34782,81883.9,100.093,32699,82158.7,40336.3
46922.4,35082,87654.8,59945.1,46131,85161.1,83255.4,64608,84451.3,49356.1,41256,78403.2,100.268,32766,83255.4,46192.4
53528.4,26331,133228,78341.8,29860,171943,110113,52977,136217,43158.1,38460,73541.6,100.376,32807,110113,38973.8
54179.1,39169,90650.3,58386.9,44441,86101.7,85421.1,63659,87939.7,49328.3,40359,80100.6,101.217,33069,85421.1,46082.3
54678.6,40245,89040,49161.5,37852,85117,81868.2,60715,88368.9,50077.5,41692,78717.3,104.928,34148,81868.2,46966.5
95710.5,41104,152600,90017.8,53110,111079,90664.1,56796,104616,46545.5,37567,81199.1,105.034,34185,90664.1,43100.3
113748,46433,160546,144682,36002,262143,109968,25800,262143,53723.5,40068,87871.2,106.676,34716,109968,49544.7
47038.5,35515,86800.4,57961.6,43226,87877,97130.4,69275,91888,50800.3,43001,77422.6,107.124,34864,97130.4,47109.4
135981,57031,156260,91010.2,23717,251484,90968.5,29238,203903,45639.3,34190,87482.1,108.561,35287,90968.5,42182.5
96556.5,49279,128410,104218,42510,160669,87531.1,39922,143691,53969.5,44862,78840.6,108.616,35303,87531.1,50643.4
80499.6,45582,115739,78098.5,29344,174423,75429.7,37069,133356,47102.9,40013,77148.4,108.974,35404,75429.7,44236.6
155011,55116,184316,167210,44447,246547,80271.1,27365,192240,48429,37469,84705.8,108.983,35408,80271.1,45378.7
53985.6,39194,90268.9,37985.9,25483,97690.4,78990.9,45110,114758,39367.6,32025,80561.9,109.899,35691,78990.9,36365.9
92263.5,39382,153537,109647,41544,172970,80212.7,34650,151712,51435.6,39483,85375.5,110.328,35814,80212.7,48387.5
100099,57773,113549,97060.9,37864,167996,77042.1,39508,127798,50084.5,41650,78807.6,111.095,36057,77042.1,47156.9
44590.5,34261,85294.7,42721.6,30461,91914.5,73980,57189,84777.7,47695.1,38894,80365.7,111.655,36220,73980,44883.8
47211.3,35076,88209.6,71314,46184,101196,94681.2,59700,103937,49128.2,41669,77267.6,111.822,36278,94681.2,45530.3
46531.8,34381,88697.5,86952.8,69761,81686.6,90419.5,71472,82909.9,50716.9,41554,79987.1,112.153,36377,90419.5,47281
43687.8,37848,75648,22983.7,19069,78989.8,117081,96522,79495.1,44470.3,39049,74634.5,112.427,36470,117081,40021.2
45183.6,36178,81849.5,33308.6,27677,78870.9,84242.3,69446,79499.3,45369.6,39011,76218,112.855,36585,84242.3,42168.4
41633.1,34634,78780,32870.7,25533,84369.9,83281.9,54808,99583.3,37689.9,31263,79008.5,113.063,36656,83281.9,34525.1
82990.8,22997,236504,86216.1,35013,161376,128809,42455,198836,50208.2,36398,90401.8,114.097,36954,128809,45313.5
48724.2,36440,87628.7,54275.3,43236,82269.1,87307.3,63647,89898.5,45952,36361,82822.6,114.946,37213,87307.3,42634.3
45316.8,35448,83781.4,62131.6,23263,175036,75514.5,46774,105805,48021.7,42632,73821.4,115.781,37484,75514.5,45152.2
81664.2,39133,136763,67715.2,20565,215793,74025.8,30870,157154,47742.3,36693,85270.8,116.599,37713,74025.8,44929.3
56085.3,41287,89025.8,51060.3,36458,91784.7,88399.8,60281,96106.1,40232.2,31879,82708.2,117.556,37979,88399.8,36873
80893.8,42722,124092,55369.3,22008,164880,79527.5,50317,103582,45822.7,37768,79512.8,118.458,38268,79527.5,42800.7
130301,38291,223014,112737,36328,203379,87841,28383,202824,53309.3,40483,86299.9,118.796,38379,87841,49971.3
53709.3,41008,85834.3,40482.4,30915,85817.6,72494.1,51454,92334.3,37435.5,31585,77675.2,118.829,38390,72494.1,34680.7
68211,37151,120327,77101.9,33269,151882,82531.2,56898,95060.8,51706.6,43763,77431.7,119.071,38464,82531.2,48570.4
136001,36173,246398,155327,45099,225715,87501.9,22561,254179,39546.9,26749,96891.3,119.777,38699,87501.9,36221.8
59363.1,36316,107127,40764.5,21158,126266,91758.1,41307,145580,46667.9,42271,72352.8,120.996,39054,91758.1,43181.1
63551.7,37059,112386,75322.7,37995,129921,81049.5,39123,135768,47248.9,40495,76466.3,121.103,39100,81049.5,44169
48719.7,36769,86836.6,67492.8,38155,115927,77641.2,56096,90706.9,49368.6,40737,79422.2,121.139,39107,77641.2,46418.3
44963.1,32372,91026.2,72680.3,50630,94078.2,94749.4,57302,108364,49276.9,38897,83024.7,122.398,39488,94749.4,45676.4
58246.2,41607,91744.7,79236.9,55967,92784.5,111538,74057,98704.2,47841,36926,84907.9,123.249,39763,111538,43602.6
71672.4,39187,119864,56188,21922,167974,199149,122879,106214,48409.5,36699,86448.3,123.932,39972,199149,40841.9
48812.4,26148,122341,48035.6,24822,126825,212082,133670,103980,48041.2,41944,75062.6,124.431,40094,212082,39982.1
68121,33218,134396,72243.9,30996,152748,90548.8,38673,153446,54702.1,46513,77074.2,124.548,40130,90548.8,51261.2
49428.9,37020,87503.3,67756.9,36128,122911,79640,40984,127349,37366,31753,77120.8,126.743,40876,79640,34339.7
