"FSC-A", "FSC-H", "FSC-W", "SSC-A", "SSC-H", "SSC-W", "FITC-A", "FITC-H", "FITC-W", "PE-A", "PE-H", "PE-W", "Time", "Event #", "Comp-FITC-A", "Comp-PE-A"
46677.6,38450,79559.5,35802.2,22097,106183,50830.9,32403,102807,66832.6,46288,94623.7,0.02,10,50830.9,64901
66026.7,42176,102597,55212.2,28286,127921,63556.4,35504,117317,72403.7,47157,100622,0.042,16,63556.4,69988.6
56371.5,50728,72826.9,64926.9,38128,111599,77610.6,51617,98539.1,84460.6,73211,75606.2,0.304,114,77610.6,81511.4
78172.2,55064,93038.9,80325.3,52088,101064,111667,70466,103854,61667.3,45290,89234.5,1.374,397,111667,57424
70273.8,46938,98118,73018.1,52622,90937.5,136422,97237,91945.7,74373.3,56844,85745.7,1.918,544,136422,69189.3
66298.5,43075,100869,67213.5,44977,97936.7,97794.8,63189,101427,60622.1,47368,83873.7,2.088,573,97794.8,56905.9
42848.1,35449,79215,21087.7,13507,102318,45155.5,30344,97525.5,64315.3,43442,97025.2,2.266,623,45155.5,62599.4
52679.7,41080,84041.3,75924.6,46983,105906,110975,69952,103969,67683.3,48915,90681.6,2.525,666,110975,63466.2
57701.7,42777,88401.2,25569,15356,109123,50433.4,29143,113413,74615.2,49695,98399.9,2.72,707,50433.4,72698.7
71987.4,49103,96079,74124.5,52123,93199.3,114765,68442,109892,65378.6,51373,83402.9,2.958,754,114765,61017.6
41500.8,32399,83946.9,49671.6,34765,93636.7,59275.2,37617,103269,55873.8,43576,84031.3,3.207,802,59275.2,53621.4
73364.4,54673,87941.2,63716.2,35619,117233,101649,63574,104786,83443.1,66197,82609.9,3.222,808,101649,79580.4
56569.5,40570,91381.3,65038.1,47378,89964.5,127020,90701,91778,63503.5,51714,80476.6,3.615,877,127020,58676.8
72413.1,48225,98406.8,86541.4,58764,96514.5,127088,85974,96876,73731.2,54687,88358.2,4.767,1111,127088,68901.8
45229.5,36409,81412.9,47094.6,38689,79774.4,53004.9,41792,83119.4,67595.7,57113,77564.7,6.024,1318,53004.9,65581.5
61567.2,43404,92960.7,53512.2,33524,104611,69220.6,44045,102996,80264.2,56821,92574.8,7.69,1607,69220.6,77633.8
73467,42239,113988,92921.5,53069,114751,133175,83462,104571,71465.5,49086,95415.4,7.881,1637,133175,66404.8
63323.1,43005,96499.1,98627.4,66391,97357.3,125379,85521,96080.1,65877.7,50535,85433,8.503,1758,125379,61113.2
51939.9,30121,113009,89146.3,56071,104194,135102,75450,117350,61905,49731,81579.1,8.708,1791,135102,56771.1
58482,41503,92347,62369.3,43433,94109,90145.7,63271,93372.8,60189.8,44764,88119.9,8.902,1818,90145.7,56764.2
51890.4,34974,97234.8,23956.7,12395,126666,59692.2,34295,114069,82931.6,53218,102127,9.343,1888,59692.2,80663.3
49158.9,30429,105875,29619.5,16809,115482,43676.6,23873,119901,59001.3,38743,99804.1,9.475,1910,43676.6,57341.6
61387.2,46402,86700.4,34280.2,27304,82280.5,54343.4,36587,97342,78081.9,48647,105190,11.755,2290,54343.4,76016.8
42297.3,34157,81154.6,46412.1,36664,82960.5,72516.3,50041,94970.7,58628.8,44403,86532.4,11.77,2296,72516.3,55873.2
45712.8,33460,89534.8,33229.3,17238,126332,52725.5,30966,111587,60833.3,42101,94695.5,11.97,2335,52725.5,58829.8
54810,37258,96409.6,25079.8,14009,117327,59023.6,31417,123123,67655.5,43332,102323,12.108,2357,59023.6,65412.6
45668.7,39292,76171.8,23265.8,20505,74359.9,57967.2,52479,72389.7,83628,73083,74992,12.723,2462,57967.2,81425.2
97031.7,42546,149463,80606.1,34291,154052,82621.6,44311,122197,59525.4,42858,91022.8,13.395,2569,82621.6,56385.7
58802.4,43277,89046.7,54690.9,23658,151502,68311.5,35656,125557,65491.2,53820,79747.9,13.993,2684,68311.5,62895.4
63125.1,44825,92291.5,47893.8,31758,98834,79752.6,59866,87306.1,74658.3,61828,79135.8,14.887,2850,79752.6,71627.7
45273.6,36701,80843.9,23955.3,16244,96646.9,44976.2,27234,108231,59713,41342,94658,15.124,2887,44976.2,58003.9
74228.4,47693,101999,77435.5,34417,147451,89158.8,40556,144075,78772.7,53233,96978.3,15.859,3012,89158.8,75384.7
59155.2,41975,92359.6,40228,28034,94042.3,71642,45628,102900,75396.4,49151,100531,16.367,3099,71642,72674
54632.7,43832,81684.8,28489.4,20911,89287.2,55545.8,34399,105824,75249,52656,93655.4,16.44,3109,55545.8,73138.3
45846.9,32928,91248.3,45875.6,35743,84114.4,70411.8,49818,92627.4,73475.4,54516,88327.9,18.048,3403,70411.8,70799.8
69033.6,48435,93407.4,52037.4,27761,122846,80018.1,44884,116836,65776.2,43116,99979.3,19.447,3641,80018.1,62735.5
52794.9,41356,83663,34611,27330,82995.5,62169.1,54107,75301.1,82625.8,67704,79979.9,20.055,3744,62169.1,80263.3
47501.1,37038,84049.7,37871.9,29411,84389.4,64883.8,48698,87318.3,62936.4,45774,90108,20.728,3848,64883.8,60470.8
61247.7,36118,111134,142910,50214,186517,148273,75205,129209,78115.2,55714,91886.4,20.744,3852,148273,72480.9
55366.2,40747,89049,64605.8,40488,104574,97252.7,63788,99917.8,65514.9,48552,88432.7,22.785,4216,97252.7,61819.3
60981.3,46173,86554.3,26770,17604,99659.1,54122.4,36668,96732,72142.4,47914,98675.2,23.425,4340,54122.4,70085.7
45236.7,33750,87841,37589.8,24475,100653,56400.6,33957,108852,63285.3,49644,83544.1,23.583,4365,56400.6,61142.1
45516.6,32454,91914,57690.6,40300,93816.6,98456.5,64427,100151,59500.3,44741,87155.3,23.999,4431,98456.5,55759
53579.7,34916,100567,73528.2,51792,93040.3,119812,73387,106995,60524.8,44221,89698.4,24.004,4433,119812,55971.9
42653.7,35372,79027.3,43140,29245,96673.8,71635,53790,87277.8,60262.1,50611,78033.1,24.07,4443,71635,57539.9
70681.5,50462,91795.5,46512.2,30627,99527.3,62411,41397,98803.5,76655.7,54058,92931.8,25,4592,62411,74284.1
57624.3,40202,93937.3,79701.2,45865,113884,69169.2,41851,108315,58613.5,45331,84738.8,25.48,4682,69169.2,55985.1
72546.3,43614,109011,58948.5,34014,113578,97565.5,55399,115418,78459.9,53094,96846.2,27.067,4964,97565.5,74752.4
43566.3,36355,78535.6,25134,18003,91494.8,44099.1,30528,94669.9,58328.6,42884,89138.6,27.085,4971,44099.1,56652.8
44912.7,27998,105129,54635.3,18490,193650,80002.8,35532,147559,64414,48109,87747.3,27.983,5129,80002.8,61373.9
58263.3,36539,104500,57129,27366,136812,66222.4,41823,103769,75503.4,57338,86298.6,28.545,5235,66222.4,72987
42758.1,35894,78068.6,22045.4,14584,99065.2,49037.8,31653,101530,59751.9,42669,91773.9,28.602,5248,49037.8,57888.5
44623.8,33996,86023.8,38436.3,28637,87961.7,62438.8,42404,96500.1,66247.4,47095,92187.9,29.087,5326,62438.8,63874.7
60549.3,42107,94239.9,38543.3,23578,107133,57839.3,37999,99754.1,78130.5,57635,88841.2,29.137,5339,57839.3,75932.6
54339.3,41709,85381.6,39261.9,23689,108619,61337.9,33328,120615,61475.5,40000,100722,29.384,5367,61337.9,59144.7
62024.4,46330,87736.5,29406.8,20538,93836.1,54197.5,38590,92041.6,74310.8,47123,103347,29.402,5368,54197.5,72251.3
107246,30340,231657,151447,50849,195191,137496,46505,193763,61215.6,40618,98769.6,30.341,5528,137496,55990.8
48670.2,40582,78597.7,32015.9,20978,100019,58505.1,42966,89237.8,58524.6,46131,83142.9,30.386,5536,58505.1,56301.4
53703,36773,95708.3,26503.1,15420,112640,53523.3,29803,117696,62274.8,42214,96679.8,30.461,5547,53523.3,60240.9
47462.4,35542,87516.1,68072.5,49180,90711.6,77848.3,57487,88748.2,58325.8,48261,79203.5,30.768,5601,77848.3,55367.6
65788.2,43999,97990.8,60337.1,35941,110021,80607.5,50648,104302,61831.4,42741,94807.8,30.91,5620,80607.5,58768.3
68251.5,48594,92047,66139,34916,124140,87458.8,55691,102920,73382.3,49894,96387.9,32.293,5853,87458.8,70058.8
53424,32425,107978,24308.3,11273,141317,45964.5,27022,111477,56471.5,39550,93575.7,32.483,5878,45964.5,54724.9
56661.3,39666,93615.6,85168.1,59637,93592.5,102955,68628,98316,81966.9,57311,93730.4,32.5,5883,102955,78054.6
56612.7,37888,97924.7,65762.3,37319,115485,127216,76477,109016,73750.6,59081,81808.4,32.925,5964,127216,68916.4
57447,32570,115592,83840.6,48994,112148,110897,67462,107731,60406.6,41649,95051.7,33.376,6041,110897,56192.5
45575.1,36803,81156.7,20492.8,17875,75133.7,47262.8,38673,80092.4,69928.1,50828,90163.1,33.858,6120,47262.8,68132.1
40842,35505,75387.2,32462.1,20641,103068,51236.8,35921,93478.9,57008.1,43222,86439.3,35.054,6314,51236.8,55061.1
56561.4,35952,103104,74006.4,52406,92548.2,103683,76005,89401.5,68888.4,52733,85613.8,35.522,6405,103683,64948.4
76005.9,52132,95548.3,66624.1,42124,103653,98275.8,63926,100751,66611.6,52414,83288,36.491,6589,98275.8,62877.1
61299.9,41904,95870.3,79102.1,51633,100402,126943,78946,105380,66248.8,46577,93215.1,36.625,6615,126943,61424.9
50454,27643,119616,97558.5,38922,164267,108680,54801,129969,85594.8,56773,98806.5,36.993,6679,108680,81465
50867.1,39859,83635.5,30835.8,22207,91000.7,53402.4,36858,94953.1,61196.1,41775,96003.6,37.026,6686,53402.4,59166.8
49800.6,37289,87525.3,38334.8,25127,99984.5,72399.5,43663,108668,79580.3,51167,101928,37.519,6764,72399.5,76829.1
49337.1,32503,99478.7,56933,36244,102946,70511.9,44426,104017,83441.7,60342,90624,37.87,6830,70511.9,80762.2
66010.5,47387,91292.2,79706.8,54317,96169.9,122316,80996,98969,71500.2,55279,84767,38.095,6866,122316,66852.2
72703.8,46778,101858,61973.1,33096,122718,103743,58374,116471,61898.1,47409,85565,38.847,6984,103743,57955.9
51253.2,38059,88255.9,22387.3,16994,86335,59482.3,43501,89612.4,68654.9,46435,96896,39.508,7105,59482.3,66394.6
50859,39616,84135.1,31426.5,25566,80558.9,55687.6,42396,86082.2,67723.6,47983,92498,39.524,7110,55687.6,65607.5
55807.2,42949,85156.4,28381,18729,99310.1,54878.6,36948,97340.1,66083.4,45051,96132,40.199,7209,54878.6,63998
63050.4,43148,95765.1,85931.2,56894,98983.8,110494,71569,101180,62267.8,48183,84693.5,40.476,7256,110494,58069.1
74353.5,45862,106250,55301.1,34071,106372,89965,53163,110903,58081.1,42796,88943,40.831,7326,89965,54662.5
64531.8,45196,93573.7,78788,48496,106472,120063,66018,119186,69518.1,48515,93907.8,40.991,7356,120063,64955.7
130985,41415,207274,167164,42822,255833,139695,50091,182768,86768,65283,87104.2,41.119,7381,139695,81459.6
47376.9,39695,78218.7,24179,20382,77745,55456.8,43815,82949.2,78372.4,57612,89151.8,41.183,7394,55456.8,76265
45468.9,36274,82148.4,45708.8,30709,97547,70664.8,42982,107745,58610.7,37700,101886,41.287,7409,70664.8,55925.5
52275.6,42253,81081.4,51072.8,35968,93057.9,85657.4,65907,85175.2,78405.7,58325,88099.4,43.328,7733,85657.4,75150.8
58853.7,42066,91690.1,88366.5,34740,166701,113723,48430,153891,78186.1,69869,73337.3,45.619,8124,113723,73864.6
66674.7,45801,95403.9,64573.8,44435,95238.2,89182.4,64557,90534.8,58403.6,45214,84653.9,45.649,8130,89182.4,55014.7
61939.8,45340,89529.9,103758,66402,102405,152016,99342,100285,85024.9,66840,83366.1,46.226,8217,152016,79248.3
55303.2,42482,85315,34331.6,21475,104771,56175.5,34171,107738,70295.1,51231,89923.3,46.43,8247,56175.5,68160.4
47689.2,33915,92152.7,21970.3,13914,103482,49183.8,27941,115361,60683.2,40303,98675.9,46.516,8264,49183.8,58814.2
48675.6,39511,80737.1,35082.2,25200,91236,50687.7,39790,83485.1,68508.9,58214,77125.8,46.784,8312,50687.7,66582.8
89001.9,61441,94933.8,81355.3,43262,123242,156689,91551,112165,86007.6,53832,104707,46.901,8325,156689,80053.5
70834.5,50531,91868.6,48973.9,30829,104108,75942.6,44030,113036,83965.7,57493,95712.1,47.457,8415,75942.6,81079.9
52595.1,40225,85689.8,46836.1,25636,119732,57584.9,38675,97579.5,65752.6,55888,77103.5,47.794,8473,57584.9,63564.3
44559,30103,97007.6,28108.6,14859,123974,57163.8,34707,107940,56655,43180,85987.6,48.226,8568,57163.8,54482.8
62596.8,45117,90926.8,26119.5,17884,95715,58202.1,38245,99734.1,75677.2,46751,106085,48.269,8576,58202.1,73465.5
43681.5,38047,75241.4,35732.7,25888,90458.1,47906.3,33307,94262.2,60270.4,42616,92685.4,49.248,8736,47906.3,58450
49435.2,40821,79365.6,30340.9,26305,75591.1,63290.9,46833,88566.4,64876.9,47673,89186.1,49.394,8766,63290.9,62471.8
49383,40066,80775.8,23741.2,18158,85686.9,52005.5,40366,84433.2,66528.2,48063,90714.1,49.814,8831,52005.5,64552
44231.4,31255,92745.1,49629.9,34311,94796.1,61896.7,47377,85620.9,56691.1,46708,79543.4,49.937,8849,61896.7,54339.1
72434.7,48738,97400,90878.2,54517,109247,113136,77807,95293.5,73089,51475,93054.1,49.983,8856,113136,68789.8
41260.5,31922,84708,39681.7,20476,127006,52605.9,33308,103506,55577.8,46083,79038.8,50.492,8934,52605.9,53578.7
45696.6,37563,79726.7,34862.6,21386,106834,61283.7,44506,90241.5,68464.5,59429,75500,50.747,8977,61283.7,66135.7
78325.2,45993,111607,118250,65093,119055,148578,85886,113374,73358.6,52850,90967.5,50.772,8987,148578,67712.7
47367.9,35272,88010.4,28324,17337,107068,47643.6,30419,102646,68182.3,46200,96718.5,50.89,9005,47643.6,66371.8
64118.7,40916,102700,54406,31720,112407,61749.4,42349,95558.5,64027.6,50922,82402.7,50.894,9006,61749.4,61681.1
48538.8,35031,90806.4,77556.4,33007,153990,96817.7,43850,144699,68671.6,52177,86253.7,50.959,9017,96817.7,64992.5
43114.5,34740,81334.3,18411.9,12831,94041.4,43780.8,29235,98143.3,63524.4,43610,95462.8,51.374,9087,43780.8,61860.7
52286.4,35941,95340.7,85974.3,39980,140931,96464.6,49452,127839,82645.2,62543,86600.2,51.441,9095,96464.6,78979.6
61782.3,44316,91365.8,53278.7,34737,100517,100421,65629,100278,63165.8,41236,100389,51.94,9174,100421,59349.8
59754.6,45563,85948.6,38892.2,25902,98403.2,65453.7,40446,106057,64184.6,43981,95641.4,52.078,9204,65453.7,61697.4
52028.1,33952,100427,91656.6,53297,112704,127214,71840,116051,73834,57244,84529.1,52.887,9343,127214,68999.9
57884.4,37588,100923,52779.7,33919,101977,106004,67720,102585,85415.5,65965,84860,53.012,9359,106004,81387.3
42357.6,36134,76823.7,30158.8,21817,90594,57144.3,38044,98438.9,57116.5,42482,88112.3,53.088,9366,57144.3,54945
62155.8,42286,96330.8,31605.8,17977,115221,56377,30055,122932,68307.4,42195,106093,53.183,9382,56377,66165.1
71019.9,47347,98303.2,47376.8,25168,123366,79583.1,52121,100066,71394.6,48775,95928.5,53.699,9466,79583.1,68370.4
54733.5,33262,107841,56848.2,26843,138792,69116.4,36282,124845,81732,64232,83391.3,53.871,9499,69116.4,79105.6
70458.3,43473,106217,67991.9,42664,104442,100158,63776,102922,72378.7,54061,87741.8,53.889,9503,100158,68572.7
60949.8,48093,83055.9,21739.6,15010,94918.5,50983.8,37285,89614.5,71643.4,53920,87077.5,54.716,9647,50983.8,69706
64353.6,44543,94683.3,47358.7,23098,134371,71525.2,47638,98397.9,83487.6,58946,92821.3,54.998,9686,71525.2,80769.6
63891,43690,95838,76716.9,55993,89791.9,115228,77678,97216.7,58634.4,43925,87482.4,55.032,9694,115228,54255.7
62246.7,43884,92958.7,61166.9,44378,90329.4,78536.4,58387,88152.5,62919.7,48353,85279.3,55.758,9815,78536.4,59935.4
46951.2,33230,92596.9,47032,24455,126039,59289.1,32846,118297,67163.4,45755,96199.8,55.909,9843,59289.1,64910.4
61487.1,43185,93310.6,67508.1,48861,90546.9,99254.3,61508,105754,77416,49177,103169,56.082,9880,99254.3,73644.4
48443.4,32344,98156.9,42079.5,27423,100562,78540.6,45601,112875,66740.9,44327,98674.1,56.11,9881,78540.6,63756.3
59773.5,44052,88924.8,69323.5,39391,115336,103748,65911,103158,77723.2,59266,85945.9,56.974,10027,103748,73780.8
61425.9,48131,83638.6,32464.8,21855,97351.4,61917.6,43769,92710.1,80513,52815,99905.3,57.024,10038,61917.6,78160.1
67480.2,46873,94348.2,92740.8,59488,102170,117898,66267,116598,60263.4,45788,86254.6,57.025,10039,117898,55783.3
61643.7,42284,95541.6,112400,51497,143042,77546.7,46345,109658,58669.1,47358,81188.8,58.061,10217,77546.7,55722.3
47287.8,33519,92456.6,29299.8,16867,113843,82400.6,59961,90061.9,58081.1,41705,91269.8,58.394,10255,82400.6,54949.9
63292.5,47253,87781.5,29146.9,20682,92359.1,59100,37809,102441,75361.6,50366,98060.2,58.648,10300,59100,73115.8
43972.2,31688,90941.8,51089.4,28127,119039,63470.2,33842,122912,68670.2,42419,106093,59.775,10488,63470.2,66258.3
56868.3,39616,94076.1,113145,83516,88785.9,193623,134013,94686.8,72466.3,54543,87071.6,59.939,10515,193623,65108.6
61979.4,43458,93466.8,50101.2,26239,125135,78977,52650,98306.5,79784.6,67571,77381.8,60.103,10541,78977,76783.5
49834.8,39526,82628.5,45048.5,35175,83931.7,67120.3,48950,89863.1,65566.3,49850,86197.6,60.498,10611,67120.3,63015.7
76263.3,50312,99340,77040.8,51982,97128.7,117629,74717,103175,75417.2,50018,98815.3,61.76,10826,117629,70947.3
58585.5,41126,93358.4,51578.7,31614,106923,88759.8,51521,112905,63837.1,43531,96106.9,61.871,10843,88759.8,60464.3
43837.2,32692,87878.2,33337.8,25943,84216.3,62295.6,43012,94917.8,70385.4,43774,105377,61.889,10848,62295.6,68018.2
63103.5,49059,84297.5,64311.1,47233,89232,102928,81621,82644.1,57894.9,46041,82409.2,62.37,10924,102928,53983.6
48772.8,34966,91413.8,47436.5,36528,85107.3,55777.9,42344,86327.7,57208.2,42185,88875.2,62.696,10981,55777.9,55088.7
63496.8,45746,90965.9,45892.2,24812,121215,77249.2,42958,117850,66618.5,42738,102155,64.201,11249,77249.2,63683.1
51120.9,38258,87570.2,32998.6,23775,90960.9,55044,37412,96422.6,68497.8,44575,100708,64.363,11269,55044,66406.1
46724.4,34327,89204.7,41462.3,31820,85395.2,59740.8,35025,111782,57794.8,41252,91817.1,64.417,11280,59740.8,55524.7
63914.4,43179,97007.7,67309.4,32425,136043,80460.1,44224,119235,77136.7,55536,91026.1,64.555,11303,80460.1,74079.2
112090,45117,162820,98241,22892,262143,105479,40915,168952,81659.7,60459,88517,64.599,11308,105479,77651.5
48501,40741,78018.7,38340.4,26072,96374.4,61169.7,43627,91888.5,76413.9,62087,80658.7,64.883,11355,61169.7,74089.4
48183.3,38960,81050.8,45643.4,27301,109567,79681.8,47398,110174,81169,52063,102174,67.721,11849,79681.8,78141.1
47658.6,37571,83132,24868.5,21009,77575.4,57130.4,40905,91531.5,75739.7,59404,83558,67.996,11895,57130.4,73568.8
59852.7,40942,95806.4,23883,13414,116684,62431.8,38129,107308,79072.9,50992,101626,68.13,11914,62431.8,76700.5
48789,38916,82162.5,40943.8,27145,98850.5,63367.3,40631,102209,83443.1,59526,91867.9,68.197,11928,63367.3,81035.1
68738.4,49641,90748.4,85036,52132,106900,135803,85798,103732,85692.1,56269,99804.8,68.45,11966,135803,80531.6
50381.1,35387,93304.8,29989.2,18726,104954,64971.4,32330,131703,60982.1,40827,97889.2,69.375,12154,64971.4,58513.2
45720.9,36122,82951.2,23681.4,18583,83516.4,52300.1,39247,87332.6,62784.9,41828,98371.2,69.516,12182,52300.1,60797.5
48508.2,39198,81101.9,22964.2,17839,84364.7,45790.8,42553,70522.5,65266.1,47019,90969.1,69.652,12208,45790.8,63526
54922.5,44232,81375.5,49941.3,29305,111686,62541.7,45439,90202.9,72805.4,60436,78949.2,69.766,12230,62541.7,70428.8
89894.7,44081,133648,98890.2,38652,167672,118828,48649,160076,60470.6,42526,93190,69.842,12249,118828,55955.1
48799.8,35151,90983,77506.4,51734,98184.2,101332,73838,89939.1,64826.8,53532,79363.6,70.369,12329,101332,60976.2
61992,40767,99656.8,32695.6,17385,123252,56516,33771,109675,73959.1,45981,105413,70.422,12340,56516,71811.5
54383.4,40900,87141.1,34295.5,24401,92110.5,52369.6,41688,82328.2,68606.2,55885,80454.1,71.222,12467,52369.6,66616.2
44911.8,37190,79143.3,30965,23905,84891.2,67259.3,51514,85567.2,82488.2,64152,84267.7,71.332,12481,67259.3,79932.3
51879.6,31015,109624,70778.8,36758,126192,78350.1,39979,128436,62109.4,52762,77146.4,71.361,12485,78350.1,59132.1
54492.3,37387,95520,44787.2,24490,119852,117155,85575,89720.8,58691.4,39626,97067.5,72.001,12577,117155,54239.5
56556,39372,94139.3,52487.8,27637,124465,80542.2,54253,97292.5,82735.6,59209,91576.6,72.962,12742,80542.2,79675
42821.1,29829,94080.4,32755.3,21676,99033.7,55155.2,31334,115359,73558.8,45560,105811,73.276,12794,55155.2,71462.9
52536.6,39068,88129.4,50123.4,29771,110338,63299.2,37965,109268,64400.1,50100,84242,73.372,12816,63299.2,61994.7
73663.2,51774,93243.5,50633.5,30031,110496,88291.4,53229,108705,76147,49705,100400,73.764,12883,88291.4,72791.9
137308,46890,191910,173692,47672,238779,110035,41680,173015,73603.3,55930,86244.7,73.851,12899,110035,69421.9
63594.9,44202,94288.8,85024.9,59451,93727.5,123125,82975,97247.5,74130.1,57287,84804.4,73.899,12907,123125,69451.3
50334.3,35767,92227.7,27633.2,17533,103289,49549.3,33733,96263.8,67805.6,43505,102142,73.976,12920,49549.3,65922.7
52583.4,38836,88734.8,40093.2,27901,94173.9,55028.7,42619,84618.6,59083.3,45898,84362.8,74.32,12972,55028.7,56992.2
52908.3,36552,94862.1,63921.9,43618,96042.6,107945,73232,96600.7,63744,45084,92661,74.37,12984,107945,59642.1
47366.1,32560,95337.4,41964.1,31006,88697.6,56577.2,29751,124629,60373.3,38786,102012,74.835,13055,56577.2,58223.3
68293.8,47316,94591.7,84771.9,48551,114428,151617,90551,109732,61242,49473,81126.2,75.136,13109,151617,55480.6
39786.3,33925,76858.8,24472.3,15610,102743,43226.2,34712,81610.8,55330.3,49268,73600.1,75.138,13110,43226.2,53687.7
59872.5,41339,94917.7,29911.4,16737,117122,50030.3,33655,97423.4,69961.5,49441,92736.7,75.198,13122,50030.3,68060.3
61873.2,42612,95159.2,99991,43890,149305,88060.7,34741,166119,67056.4,45112,97415.5,75.445,13170,88060.7,63710.1
64231.2,43966,95743.4,52280.7,24403,140404,78447.4,45331,113413,82830.1,63331,85714,75.55,13188,78447.4,79849.1
44866.8,27786,105823,30603.6,15809,126867,52229.2,27341,125193,66326.6,48488,89646.6,75.902,13238,52229.2,64341.9
72802.8,44992,106046,121500,75415,105584,191174,117804,106353,88491.6,64098,90476.8,76.087,13274,191174,81227
41857.2,34051,80560.1,22423.5,19440,75593.9,54703.4,38508,93098.7,76750.2,54302,92628.3,76.189,13294,54703.4,74671.5
61795.8,43579,92931.2,32731.7,22891,93709.6,71594.7,49776,94262.9,79052.1,61156,84713.8,76.424,13341,71594.7,76331.5
53610.3,40951,85795.3,26571.2,18627,93486.5,53312.1,33076,105631,70190.8,47681,96475,77.089,13449,53312.1,68165
69553.8,49703,91710.3,55039.8,33401,107993,84931.8,50350,110548,67059.2,45682,96204,77.127,13453,84931.8,63831.8
78807.6,43173,119629,74492.9,35559,137292,115907,57653,131755,58477.3,42997,89131.1,77.265,13469,115907,54072.9
59914.8,38094,103076,59768.6,22284,175776,66836.8,33864,129347,56343.6,42831,86211.8,77.794,13550,66836.8,53803.9
53775.9,43528,80965.3,30720.4,16692,120614,54703.4,37262,96211.8,71131.9,60048,77632.9,77.96,13589,54703.4,69053.1
60231.6,45340,87060.8,29241.4,21608,88687.8,55518,38220,95196.9,73715.9,51760,93335.5,78.232,13636,55518,71606.2
84162.6,37778,146002,142137,58133,160238,111903,57183,128250,66293.3,43461,99965.4,78.632,13717,111903,62040.9
69186.6,46225,98090.1,67459.5,44602,99121.7,98307.8,55580,115918,61572.8,47597,84779.2,79.047,13775,98307.8,57837.1
80516.7,53258,99078.9,69915.6,45520,100659,108161,65870,107613,81994.7,61235,87753.8,79.152,13792,108161,77884.6
41071.5,31484,85493,36495.8,28477,83990.3,60577.6,47153,84194.3,74905.7,64603,75987.5,79.43,13837,60577.6,72603.8
43992.9,37410,77068.1,29839.1,22552,86712.4,59974.3,48499,81042.5,80440.7,59107,89190.1,80.217,13970,59974.3,78161.7
79737.3,49860,104807,56282.5,18640,197882,76286,35296,141644,77075.5,57032,88568.2,81.154,14121,76286,74176.6
62962.2,37938,108764,55739,21757,167896,64475.1,30929,136618,59950.7,41986,93577.1,82.261,14279,64475.1,57500.6
61582.5,43540,92693.4,48281.6,32000,98880.8,87000.1,60950,93546.2,84153.4,54488,101216,83.042,14409,87000.1,80847.4
56854.8,42835,86985.8,35329.6,21535,107516,54914.7,37721,95408.2,79345.4,64867,80163.7,83.084,14419,54914.7,77258.6
78829.2,47262,109309,115175,73420,102808,164965,89193,121211,82554.9,56305,96089.5,83.257,14448,164965,76286.2
50355,39942,82621.4,31530.8,21334,96859.5,55808.5,38914,93988.4,65901.3,46622,92636.7,83.291,14455,55808.5,63780.6
61137.9,45018,89002.9,21764.6,13841,103054,50156.8,32515,101094,74959.9,55366,88729.1,84.442,14643,50156.8,73054
58081.5,42415,89742.5,33877.1,17269,128564,52989.6,33856,102573,69516.7,47856,95199,84.827,14704,52989.6,67503.1
66357,44732,97218.4,57869.9,22699,167080,72843,31598,151080,69697.4,47068,97044.5,85.097,14744,72843,66929.4
47952.9,35730,87955.3,62832.2,39890,103228,105409,63310,109115,59877,45694,85877.8,85.614,14835,105409,55871.5
59079.6,45380,85320.4,59828.4,43420,90302,85701.8,65386,85898.4,62691.8,49518,82971.2,86.365,14980,85701.8,59435.1
62620.2,46938,87431.9,23794,16804,92797.2,50198.5,33947,96910.1,75775.9,48981,101387,86.605,15029,50198.5,73868.3
40430.7,33932,78087.5,16256,12238,87053.1,44025.5,27927,103314,57804.5,42039,90113.4,87.062,15103,44025.5,56131.6
55080,36816,98047.7,95063.5,52218,119309,138014,85173,106195,79053.5,60099,86205.2,88.314,15322,138014,73808.9
54425.7,40291,88527,28261.5,16381,113067,54052.9,40221,88073.7,79977.8,62488,83878.9,88.481,15353,54052.9,77923.8
97356.6,56761,112407,80271.1,37206,141392,127310,67560,123496,84324.4,54548,101310,88.944,15433,127310,79486.6
48966.3,37927,84611.4,21853.6,14357,99756,54707.6,34832,102932,65927.7,47990,90032,89.896,15581,54707.6,63848.8
103018,42334,159480,92202.9,31407,192397,113142,44723,165795,64550.2,44686,94668.6,89.985,15603,113142,60250.8
61977.6,40790,99577.4,100514,69598,94647.3,113929,84583,88273.3,64476.5,50996,82860.1,90,15606,113929,60147.3
42137.1,30339,91021.4,67633.2,40905,108359,105291,66190,104251,75920.4,49113,101308,90.511,15693,105291,71919.3
44217,29671,97664.6,77831.7,36016,141625,85685.2,42022,133632,64768.4,42646,99532.5,91.299,15810,85685.2,61512.4
51658.2,36987,91531.4,45001.2,30889,95477.4,74706.9,53058,92276.3,66909,55095,79588.9,91.902,15910,74706.9,64070.2
45585,38189,78228.2,50787.8,30468,109243,84652.4,49442,112208,72891.6,50112,95327,92.443,16005,84652.4,69674.8
39968.1,32556,80456.7,18721.9,17040,72004.6,47793.8,38793,80741.7,64876.9,49401,86066.5,93.102,16120,47793.8,63060.7
70733.7,46888,98865.4,85931.2,41714,135005,107354,58591,120079,75699.4,53694,92394.6,93.476,16186,107354,71620
66981.6,44756,98080.9,69928.1,46209,99175.7,105872,73430,94490.5,62362.3,48005,85136.5,94.559,16347,105872,58339.2
49482.9,39115,82907.1,38568.3,28884,87509.1,62690.4,49828,82453.2,66394.7,55246,78761.3,95.211,16451,62690.4,64012.5
56077.2,42888,85690.1,27004.9,20125,87940.1,58267.4,36693,104069,66469.8,45738,95241.7,96.189,16600,58267.4,64255.6
44648.1,37043,78990.8,56377,44356,83297,88540.2,63551,91305.8,66596.3,53385,81754.3,96.425,16651,88540.2,63231.8
61279.2,46052,87205.6,41840.4,29411,93232.2,56901,43511,85704,70374.3,51213,90056.3,97.417,16814,56901,68212.1
58089.6,42496,89584,31415.4,23372,88090,55420.7,39742,91390.7,77988.7,51012,100193,98.951,17059,55420.7,75882.7
65088.9,47327,90131.8,65920.8,36594,118057,85981.2,42177,133600,79977.8,57029,91908.1,99.259,17113,85981.2,76710.5
77706,54163,94022.5,47105.7,26363,117100,69242.9,42171,107607,79178.6,50887,101972,100.273,17265,69242.9,76547.3
57830.4,41129,92148.4,42660.5,25150,111165,77537,46230,109917,68351.9,47243,94818.4,100.319,17277,77537,65405.5
53416.8,36091,96997.1,65068.7,46878,90966.8,103683,68786,98784.1,57824,44337,85471.6,101.67,17494,103683,53884.1
44027.1,36996,77991.1,42486.7,24495,113673,60280.1,42665,92593.9,69611.2,61143,74612.6,101.9,17539,60280.1,67320.6
50703.3,33137,100277,86269,58227,97098,121982,78695,101585,67157.9,54332,81006.7,101.902,17540,121982,62522.5
112965,45045,164353,125596,37947,216910,139972,52825,173652,63682.8,43979,94898,102.637,17638,139972,58363.9
50679,27738,119738,72638.6,28727,165713,64062.3,36499,115027,57853.2,45253,83783.8,104.601,17959,64062.3,55418.8
51637.5,37008,91442.8,34933.5,23735,96456.7,52066.6,36847,92605.6,62177.5,42203,96553.9,105.195,18053,52066.6,60198.9
54814.5,42820,83893.6,39182.7,23429,109603,52625.4,36580,94282.6,65284.1,47396,90270.5,105.601,18114,52625.4,63284.4
53681.4,39678,88665.4,46299.5,26168,115954,74302.5,45802,106316,80661.7,66034,80053.4,108.116,18491,74302.5,77838.2
89964,43136,136681,87048.8,31414,181601,68443.6,37023,121155,56338.1,48856,75572.6,108.221,18510,68443.6,53737.2
84229.2,46310,119198,85490.6,28586,195995,117625,51489,149714,80664.5,59872,88295.5,108.764,18595,117625,76194.7
50698.8,33757,98426.9,30764.9,15369,131187,59411.4,35834,108656,62273.4,43319,94211.5,109.191,18661,59411.4,60015.8
58734.9,39834,96632.3,59850.6,43093,91021.1,96126.8,69417,90752.5,56788.4,40214,92547.1,109.224,18664,96126.8,53135.6
49958.1,37938,86300.1,66895.1,52952,82792.7,83607.1,57003,96122.6,80843.8,55147,96073.7,109.523,18711,83607.1,77666.7
65907,43206,99969.5,38737.9,21578,117654,78571.1,43427,118572,78946.4,53981,95845.5,109.527,18712,78571.1,75960.7
58406.4,40124,95397.3,76951.8,53201,94793.6,100061,67972,96474.5,77844.2,58472,87248.5,109.785,18753,100061,74041.9
67930.2,44629,99752.9,77164.5,49482,102200,102041,73588,90875.9,82910.7,55180,98471.1,110.042,18783,102041,79033.1
70830,45022,103103,62580.6,33181,123603,93238.4,53773,113635,66921.5,47270,92781.3,111.581,19008,93238.4,63378.5
52525.8,38734,88871,68981.5,39477,114517,98819.3,68168,95003.8,84514.8,66573,83198.3,111.826,19045,98819.3,80759.6
62738.1,45695,89979.3,30260.3,17625,112519,54176.6,38190,92969.9,65637.2,44673,96290.8,111.99,19080,54176.6,63578.5
47155.5,37479,82456.4,27510.9,18728,96270.5,54633.9,39795,89973.4,59626.8,39293,99450.4,112.144,19104,54633.9,57550.7
52317.9,36283,94499,64698.9,29809,142243,86804.1,52098,109194,63994.2,52792,79442.4,112.334,19133,86804.1,60695.7
53582.4,38385,91483,24633.6,16490,97900.9,50685,33910,97956,62422.1,47585,85970.3,113.463,19314,50685,60496.1
53574.3,39331,89269.2,18870.6,9610,128690,46645.6,34108,89626.1,74637.4,58522,83582.9,114.111,19428,46645.6,72864.9
63585.9,47499,87731.6,29401.3,20996,91771.9,56292.2,41214,89512.5,76502.8,52466,95560.7,115.891,19678,56292.2,74363.7
67663.8,44520,99605,63400.7,46400,89548,97856,65315,98187.1,73960.5,56417,85915.2,115.941,19687,97856,70242
71778.6,42088,111768,81929.4,55763,96288.3,119996,75972,103513,84438.3,61092,90580.6,117.091,19865,119996,79878.5
58931.1,45811,84305.3,27558.1,23108,78156.9,52048.6,42033,81151.8,82709.2,58715,92317.6,117.166,19873,52048.6,80731.3
73684.8,53834,89701.8,31202.7,18628,109776,58274.4,37723,101240,81021.7,59743,88878,117.225,19892,58274.4,78807.3
51231.6,38482,87248.9,23119.9,12386,122330,58591.3,31737,120989,74169,47969,101331,117.482,19930,58591.3,71942.5
97389.9,48950,130389,56624.4,26162,141845,96770.4,46885,135266,80739.5,56331,93933.1,117.597,19950,96770.4,77062.3
46682.1,38432,79604.4,51221.5,34871,96264.9,89114.3,64888,90004.2,58268.8,46958,81321.7,118.55,20076,89114.3,54882.5
46246.5,29752,101869,41445.6,22493,120757,66778.4,40066,109229,65827.6,49113,87839.9,119.061,20162,66778.4,63290
47347.2,38740,80096.7,28959.3,22286,85159.9,51259,42621,78818.2,61194.8,50962,78695.1,119.073,20165,51259,59246.9
55739.7,44833,81479.2,32521.8,22184,96076,62026,40320,100817,65881.8,47409,91072,119.294,20192,62026,63524.8
70661.7,46931,98674.3,74333,49535,98344.4,118386,73340,105789,69765.5,52257,87493.6,119.545,20233,118386,65266.8
67495.5,48559,91093,30981.7,17449,116363,56623,34252,108340,68463.1,44108,101723,119.888,20293,56623,66311.4
54839.7,36001,99829.9,58478.7,34518,111028,91987.4,60261,100040,58777.5,43884,87777.9,120.598,20385,91987.4,55282
54044.1,40043,88450.8,43272.1,27336,103742,53609.5,38816,90513,61218.4,48627,82505.8,120.904,20431,53609.5,59181.2
49693.5,35822,90913.8,26026.4,14170,120371,47839.6,28872,108590,67497,44535,99326,122.072,20593,47839.6,65679.1
67411.8,48379,91318.5,83947.7,56286,97743.6,107651,78846,89478.7,66546.2,52530,83022.6,122.145,20610,107651,62455.5
48044.7,39059,80612.9,28458.9,21715,85889,45001.2,34046,86624,62833.6,47466,86753.9,122.299,20635,45001.2,61123.5
66978,46603,94188.6,37473,24207,101451,56322.8,33627,109768,73386.4,47207,101880,122.861,20722,56322.8,71246.2
44909.1,35213,83581.7,30096.3,19407,101633,56239.4,37224,99014.2,58631.6,41522,92540.8,123.011,20741,56239.4,56494.5
52282.8,36612,93587,28628.4,14658,127998,63873.3,30445,137494,64874.1,43207,98400.4,123.411,20802,63873.3,62446.9
71251.2,45076,103592,55070.4,34340,105099,75874.5,51589,96387.1,60284.3,40971,96429,123.561,20823,75874.5,57401.1
41335.2,35399,76526,24831,18547,87740.4,46861.1,38209,80376,58036.7,49670,76575.2,126.236,21193,46861.1,56255.9
55426.5,39990,90833.5,71972.8,44862,105140,82635.5,48780,111021,68417.2,50843,88188.9,126.623,21248,82635.5,65277
70436.7,48385,95404.3,28624.3,15111,124143,58360.5,32927,116157,77204.8,53324,94885.8,126.626,21250,58360.5,74987.1
67784.4,51730,85875.1,86506.6,57488,98617.1,141715,93766,99048.8,71108.2,53425,87227.9,127.875,21430,141715,65723.1
46716.3,36517,83840.4,38002.6,24581,101320,58808.1,41809,92182.3,57693.3,48589,77815.8,128.313,21499,58808.1,55458.6
54801,41656,86216.6,23634.2,16071,96377.9,51051.9,36485,91701.8,71496,53424,87705.2,128.386,21512,51051.9,69556.1
65840.4,44620,96703.6,77040.8,32820,153837,74780.6,46848,104611,81099.5,65777,80802.4,128.928,21591,74780.6,78257.9
49314.6,39418,81990,23659.2,16515,93886.1,53199.5,38063,91597.6,65610.8,48989,87772.1,128.94,21592,53199.5,63589.2
136534,32298,262143,180904,38071,262143,132871,31966,262143,62515.2,42287,96885.6,129.027,21608,132871,57466.1
53468.1,33415,104866,19355.8,12322,102946,47236.4,27042,114477,55262.2,36512,99191.1,129.647,21702,47236.4,53467.2
61273.8,40555,99017.1,68538.1,30515,147197,78439.1,40356,127381,81173.2,53754,98965.1,130.455,21834,78439.1,78192.5
55557,41438,87865.8,26244.6,19260,89302.5,50165.1,38167,86137.8,65275.8,45829,93345.1,130.678,21869,50165.1,63369.5
44532.9,37833,77141.9,26731.1,21979,79705.6,52959,38804,89442.4,68951,51539,87676.7,132.592,22137,52959,66938.5
79643.7,52869,98725.7,62570.8,34565,118636,94481.1,54662,113276,83554.3,66562,82266.4,132.865,22190,94481.1,79964
68828.4,43522,103643,46467.7,26019,117042,51291,30705,109474,59043,41410,93442.3,133.127,22230,51291,57094
68128.2,46087,96878.7,48053.7,25244,124752,68945.4,35602,126914,64461.2,41480,101845,133.151,22232,68945.4,61841.3
67942.8,44168,100813,49260.2,22236,145184,76523.7,44527,112630,81123.2,60758,87502.7,134.082,22367,76523.7,78215.3
51687,35844,94502.8,28672.9,18803,99936.6,54716,33584,106773,56320,40048,92164.1,135.632,22617,54716,54240.8
58507.2,37909,101146,82168.5,45291,118898,118699,74495,104424,63706.5,50834,82131.4,136.671,22756,118699,59195.9
52938,38973,89019.2,33371.1,24072,90852.9,54349,37310,95465.5,63542.5,51543,80793.1,136.994,22802,54349,61477.2
52590.6,39923,86330.6,39182.7,23683,108427,66176.5,47323,91645.6,73743.7,61546,78524.4,137.678,22902,66176.5,71229
53343,36116,96796.1,30696.8,23895,84191,47624.2,28549,109324,74775,49163,99677.8,138.503,23011,47624.2,72965.3
54269.1,42624,83440.8,37562,26099,94320.1,71038.7,47348,98327.1,62253.9,47432,86015.2,139.468,23145,71038.7,59554.5
77837.4,37213,137080,43065,17118,164874,59283.5,28478,136428,63891.3,41080,101928,139.511,23151,59283.5,61638.6
61239.6,45558,88094.3,56987.2,36476,102388,84060.2,61763,89195.4,72056.2,55904,84471.2,139.851,23207,84060.2,68861.9
47999.7,32497,96800,38290.3,27995,89637.2,57682.2,40970,92269,57744.8,37420,101132,140.6,23315,57682.2,55552.8
61533,46605,86527.8,44524.5,30288,96340.3,64188.8,45488,92478.9,69070.5,45446,99604,141.482,23441,64188.8,66631.3
45570.6,35188,84873.1,50716.9,31835,104407,57797.6,31985,118425,65919.4,44058,98054.6,142.508,23576,57797.6,63723.1
71026.2,47506,97982.9,29983.7,18515,106131,49819,31180,104713,66661.6,42152,103642,142.53,23579,49819,64768.5
97920.9,50442,127222,90217.9,35537,166377,117087,56477,135868,63036.5,48548,85094.3,142.639,23596,117087,58587.2
65232.9,41906,102016,98802.6,31400,206214,89570.2,38996,150530,68999.6,48067,94076.1,142.732,23605,89570.2,65595.9
44947.8,37583,78378.5,20011.8,17535,74793,45366.8,38788,76651.5,67481.7,49337,89638.2,143.333,23680,45366.8,65757.8
51431.4,38204,88226.6,29520.8,15954,121266,49535.4,29368,110541,58951.3,42916,90023.1,144.626,23861,49535.4,57068.9
44924.4,37774,77941.6,19094.4,15039,83208.5,46042.4,35763,84373,61446.3,49901,80698.7,144.937,23907,46042.4,59696.7
64600.2,49326,85829.8,39879.1,31069,84119.8,79004.8,60070,86193.8,77842.8,57392,88888.8,145.056,23923,79004.8,74840.6
68670,44038,102193,68914.8,45693,98842.3,107746,69736,101257,57619.7,43889,86038.9,145.117,23936,107746,53525.3
151238,44417,223147,117076,33347,230086,135009,59724,148148,84531.5,69794,79374.4,145.268,23959,135009,79401.1
39954.6,32026,81760.6,16503.5,10971,98584.6,82238,61196,88070.3,58370.3,43073,88811,146.093,24086,82238,55245.2
68715.9,30969,145415,75169.8,16435,262143,81833.5,29599,181190,64580.8,47949,88268.1,146.755,24184,81833.5,61471.1
46422,39358,77298.4,20232.8,15581,85102.3,44627.3,29621,98737.3,61809.1,43297,93556.7,146.868,24203,44627.3,60113.3
61421.4,39041,103105,61574.2,43930,91858.1,104547,66011,103795,59029.1,44774,86401.3,146.978,24227,104547,55056.3
58417.2,42483,90116.7,27080,14188,125086,45040.2,30545,96636.2,64828.2,44887,94650.6,149.001,24501,45040.2,63116.7
46764,37598,81513,67180.1,36548,120464,89767.6,51664,113871,69882.2,45726,100158,149.092,24519,89767.6,66471.1
53914.5,43598,81043.6,35760.5,28849,81236.9,60038.3,49400,79649.2,75756.4,67169,73914.6,149.718,24599,60038.3,73474.9
