"FSC-A", "FSC-H", "FSC-W", "SSC-A", "SSC-H", "SSC-W", "FITC-A", "FITC-H", "FITC-W", "PE-A", "PE-H", "PE-W", "Time", "Event #", "Comp-FITC-A", "Comp-PE-A"
87573.6,63424,90489.8,38176.3,21865,114426,79537.2,47731,109207,86095.2,59897,94200.6,3.077,518,79537.2,83072.8
61901.1,41533,97675.4,33034.7,19179,112882,72463.5,45820,103644,96307.5,61687,102317,9.279,1474,72463.5,93553.9
68518.8,49282,91117.4,44107.5,21909,131938,84571.8,46502,119188,93826.4,60849,101054,10.892,1708,84571.8,90612.7
85000.5,54517,102181,40757.6,21743,122848,69712.7,38592,118384,88077.4,60438,95506.8,11.747,1816,69712.7,85428.3
51977.7,40816,83457.7,40297.5,29214,90399.7,89339.5,65463,89439.1,92023.6,68338,88250.4,15.115,2298,89339.5,88628.7
59699.7,47100,83067.5,32578.8,20027,106610,77332.6,51425,98552.7,91758.1,59732,100674,15.553,2353,77332.6,88819.4
73903.5,48235,100411,59560.1,36295,107545,108916,62385,114417,98726.1,62082,104219,18.927,2825,108916,94587.3
39533.4,31787,81506.9,22694.5,17825,83439.5,60467.8,42885,92405.7,91257.7,64762,92348.3,19.474,2900,60467.8,88959.9
67179.6,50954,86405,37336.8,21258,115105,62932.2,48292,85404,86064.6,67232,83893.6,20.933,3109,62932.2,83673.2
67582.8,42124,105144,56898.3,27055,137826,81750.1,47680,112365,86780.5,66072,86076.5,24.655,3639,81750.1,83674
117716,34648,222658,96977.5,26590,239019,117556,47914,160792,87314.2,55225,103617,26.327,3888,117556,82847.1
82597.5,56462,95871.7,62283.1,38555,105869,99503.1,61928,105300,92176.5,59487,101550,26.889,3952,99503.1,88395.3
71040.6,47453,98112.2,48127.4,25290,124716,84733,45928,120908,89602.2,59516,98665.4,27.024,3970,84733,86382.3
68396.4,31600,141849,36299.9,20291,117241,65916.6,43466,99385.9,86991.8,74012,77029.3,28.42,4150,65916.6,84486.9
83339.1,57978,94203.2,44292.3,28076,103389,85532.3,53392,104987,95588.9,69433,90223.9,28.55,4170,85532.3,92338.7
62019,42421,95812.9,54878.6,27964,128613,80796.5,47540,111382,90241.6,68388,86478.2,31.723,4584,80796.5,87171.3
82423.8,56695,95276.9,33900.7,19289,115181,75381.1,45173,109361,91089.5,60078,99364.8,32.539,4699,75381.1,88225
109169,47954,149195,102107,25421,262143,149300,60140,162696,87853.6,73916,77893.4,34.562,5004,149300,82180.2
100592,47288,139410,100548,35852,183798,111047,63163,115219,91887.3,74008,81368.6,35.407,5103,111047,87667.5
48137.4,35117,89834.9,54235,30941,114875,85033.2,51552,108099,85282.1,56570,98798.8,38.593,5542,85033.2,82050.8
90424.8,48870,121262,144774,33788,262143,155267,51731,196702,90949.1,60775,98073.9,40.929,5844,155267,85048.9
81504,56716,94178.8,53986.2,33067,106996,105486,67311,102704,89236.6,62364,93775.4,46.083,6579,105486,85228.2
64277.1,43689,96419.3,74010.5,32025,151455,111310,62034,117594,87786.8,58308,98669.1,50.52,7218,111310,83557.1
72736.2,55036,86613.1,25211.8,17737,93154.5,67669.4,45956,96500.6,90161,61531,96029.5,54.13,7721,67669.4,87589.5
48330,35306,89711.5,41419.2,28369,95683.7,71010.9,41292,112704,91209,62218,96073.1,54.908,7821,71010.9,88510.6
104506,60151,113862,84930.4,48049,115840,111069,68178,106765,90537.6,58501,101425,55.807,7945,111069,86317
70234.2,51312,89703.5,43986.6,25334,113788,80928.6,50657,104699,98777.6,69574,93044.6,56.314,8015,80928.6,95702.3
57099.6,46311,80803.2,34559.6,24758,91481.4,69380.5,49207,92403.9,90476.5,70697,83871.6,57.281,8149,69380.5,87840
42819.3,28717,97719.3,55787.6,44901,81425.8,113855,91313,81714.5,99536.5,80809,80724,58.874,8353,113855,95210
63234.9,48233,85919.6,42588.2,30837,90510.1,64697.6,46367,91444.8,86947.3,60629,93984.3,64.455,9130,64697.6,84488.8
78380.1,49197,104411,60046.6,30679,128271,86715.1,47454,119757,99658.8,64430,101370,69.037,9730,86715.1,96363.7
73872.9,51917,93251.4,26501.7,13734,126461,60273.2,35808,110312,85404.4,52763,106079,72.698,10248,60273.2,83114
63756.9,43132,96874.1,65956.9,24158,178928,81210.8,42478,125294,84762.2,58979,94185.6,74.193,10434,81210.8,81676.2
61963.2,37736,107611,50447.3,25974,127285,88682,45116,128820,90907.4,66307,89850.3,75.258,10569,88682,87537.5
64890,47859,88857.5,55762.6,31083,117571,86271.7,57382,98531,87339.3,74021,77327.6,75.743,10638,86271.7,84060.9
49806.9,41402,78840.3,43917.1,26308,109402,77069.9,46863,107779,87204.4,68133,83880.5,77.454,10849,77069.9,84275.8
59670,41458,94325.2,53243.9,34989,99728.4,81953,57670,93131.1,91427.2,65160,91954.8,78.464,10978,81953,88313
47350.8,36158,85822.8,46808.2,28185,108839,69522.2,41958,108590,85080.5,67144,83043,78.973,11056,69522.2,82438.7
55262.7,44346,81669.1,64266.6,48739,86415,87061.3,63507,89842.8,87863.3,64601,89135,80.747,11280,87061.3,84555
58144.5,40503,94080.9,44844.2,32925,89260.7,69070.5,47700,94897.4,87292,55730,102652,80.925,11308,69070.5,84667.3
56071.8,40683,90325.7,23104.6,14137,107108,63225.5,39308,105412,96150.5,61637,102233,82.814,11544,63225.5,93747.9
65515.5,46169,92998,37762.1,21031,117673,68663.2,41013,109719,89347.8,55869,104808,82.922,11565,68663.2,86738.6
56617.2,36835,100732,48878,31314,102295,84229.8,58330,94635.4,95443,59887,104446,88.596,12299,84229.8,92242.2
61057.8,47633,84006.5,30621.7,23089,86916.9,69607,51025,89402.6,91660.8,70882,84747.6,88.831,12323,69607,89015.7
100127,46413,141381,117790,60833,126896,174836,92480,123897,100522,69546,94726,94.632,13125,174836,93878.3
77274,58170,87059.1,67266.3,41107,107241,110911,73747,98562,94792.4,72020,86258.2,97.598,13498,110911,90577.8
56470.5,42645,86782.8,30725.9,20072,100322,67636,47662,93000.6,94500.5,66197,93556.9,99.758,13769,67636,91930.4
49425.3,43076,75195.8,62958.7,48146,85698.9,107378,87010,80876.8,98192.4,81623,78839.7,100.505,13867,107378,94112
58458.6,44189,86699,40824.3,26953,99264,82589.6,53868,100479,95561.1,70477,88861.5,102.957,14165,82589.6,92422.7
67460.4,47108,93850,56435.4,22994,160848,77581.5,41656,122056,86982,60616,94042.1,110.874,15106,77581.5,84033.9
98424,50703,127218,70263.1,27491,167501,83675.2,53097,103278,88121.8,75825,76164.2,113.425,15438,83675.2,84942.2
90849.6,59493,100078,54333.7,32214,110536,83607.1,45096,121502,85592,57535,97494.7,114.82,15623,83607.1,82415
53217,44782,77880.2,31213.8,19429,105287,65897.1,43948,98266.9,95413.8,60851,102760,117.191,15885,65897.1,92909.7
49628.7,41156,79027.8,42328.3,33505,82794.4,65299.4,48827,87645.4,95600,64226,97550,122.166,16443,65299.4,93118.7
51258.6,39182,85735.4,38226.4,30160,83063.8,78131.9,57466,89104,90358.3,63157,93762,128.121,17082,78131.9,87389.3
46730.7,36003,85063.6,38288.9,29083,86280.8,66126.5,54026,80214.4,87254.5,72651,78709.3,129.885,17235,66126.5,84741.7
74302.2,47957,101538,70303.4,36013,127937,91015.8,54110,110235,104107,62802,108639,136.756,17865,91015.8,100648
68344.2,47631,94035.5,33964.6,22801,97623.2,64722.6,33073,128251,84054.7,52384,105158,145.588,18526,64722.6,81595.2
52519.5,41276,83387.9,62312.3,34616,117971,92048.6,57564,104796,89859.3,65330,90142.7,147.189,18645,92048.6,86361.5
70653.6,50434,91810.2,62839.1,28291,145567,83202.6,46427,117448,91655.2,61356,97899.4,150.393,18890,83202.6,88493.5
71451.9,52532,89139.4,51234,32535,103202,83345.8,53415,102259,92073.6,60939,99019.3,150.906,18936,83345.8,88906.5
