"FSC-A", "FSC-H", "FSC-W", "SSC-A", "SSC-H", "SSC-W", "FITC-A", "FITC-H", "FITC-W", "PE-A", "PE-H", "PE-W", "Time", "Event #", "Comp-FITC-A", "Comp-PE-A"
44099.1,38022,76010.7,35435.3,29887,77702.2,78376.5,68696,74771.2,38097.1,32955,75761.9,0.461,168,78376.5,35118.8
62526.6,25911,158147,114276,37543,199483,84382.7,36247,152567,39616.4,33077,78492.6,0.764,254,84382.7,36409.8
72229.5,43446,108954,54223.9,26581,133690,78165.3,34939,146617,49431.2,39695,81610.3,1.518,435,78165.3,46460.9
51471.9,37832,89164.2,68037.7,49626,89850.5,84603.7,59864,92619.8,43103.9,32926,85794.1,2.534,670,84603.7,39889
50333.4,37554,87837.5,59237.6,45678,84990.5,73625.5,55116,87544.9,49390.9,38283,84551.4,3.139,784,73625.5,46593.1
72575.1,43544,109229,87340.6,35804,159869,110138,56154,128539,53788.8,43143,81707.5,3.35,830,110138,49603.6
86030.1,41708,135180,58776.1,21403,179973,72488.5,33918,140062,46943.1,40661,75661.2,3.941,940,72488.5,44188.5
53569.8,33854,103703,36134.4,20834,113665,120125,82051,95946.7,49187.9,34292,94003.9,4.488,1048,120125,44623.2
51462,40657,82952.8,55812.7,42612,85838.2,127794,112285,74587.9,48156.6,40456,78010.4,4.745,1107,127794,43300.4
125222,61589,133247,129009,44036,191995,101797,37249,179101,46961.1,38230,80503.4,5.557,1231,101797,43092.9
42328.8,32391,85642.9,54917.5,43201,83310,74406.7,53969,90354.1,50008,37210,88076.5,5.609,1243,74406.7,47180.6
57960,42379,89630.9,67437.2,43714,101102,87968.9,59207,97372.5,44805.3,36463,80529.8,6.953,1459,87968.9,41462.4
60432.3,36774,107698,69387.4,49181,92462,99756.1,71428,91527.4,51994.3,39934,85328.3,7.188,1518,99756.1,48203.6
43858.8,30872,93104.8,55960,34406,106592,82395,50311,107329,50483.4,41562,79603.5,7.538,1584,82395,47352.4
56519.1,41771,88674.8,50919.9,36586,91212.1,82616,61594,87903.4,51695.5,42990,78807.1,7.906,1643,82616,48556.1
59173.2,46109,84104.5,56618.9,42822,86651.1,90708.6,63496,93622.9,45379.3,38335,77578.7,8.223,1705,90708.6,41932.4
42927.3,31316,89835.4,56838.5,35141,106001,112899,68837,107485,36245.6,26142,90865.1,8.323,1722,112899,31955.5
53137.8,38499,90455.3,56869.1,34685,107452,84424.4,56200,98449.1,54464.4,43152,82716.4,9.077,1841,84424.4,51256.2
82394.1,36484,148004,53744.3,20421,172479,72371.7,27901,169992,47857.7,38878,80672.9,11.136,2195,72371.7,45107.6
55696.5,44619,81806.5,55751.5,42455,86061.3,73111.2,55556,86244.8,48323.3,41787,75787.2,12.436,2410,73111.2,45545.1
48350.7,34977,90594.1,40500.4,29509,89946.7,154389,141109,71703.5,36013.5,29354,80404.1,12.543,2434,154389,30146.7
49973.4,36224,90411.2,56153.2,38771,94917.8,86667.9,56613,100328,48978,40196,79854.3,13.574,2604,86667.9,45684.7
61071.3,23933,167232,63142.1,23740,174308,77717.7,31981,159260,51881.8,33986,100045,14.622,2809,77717.7,48928.5
55043.1,43578,82778.1,72243.9,51479,91971,90583.5,65618,90470.3,49443.7,39079,82917.7,15.588,2969,90583.5,46001.5
54098.1,40623,87275,48387.3,34935,90771.7,74577.7,53360,91595.2,46501.1,38230,79714.7,16.307,3093,74577.7,43667.1
82975.5,43102,126163,82834.3,19133,262143,85542,35216,159191,43937.9,34965,82354.2,17.239,3249,85542,40687.3
63515.7,38139,109142,60252.3,36272,108864,79173,46975,110456,51108.9,40220,83278.8,17.418,3289,79173,48100.3
68080.5,45131,98861.6,71099.9,37334,124809,90701.7,63804,93163.8,41073.1,32168,83678.4,17.826,3358,90701.7,37626.4
54854.1,37068,96981.7,54692.3,34685,103339,80889.7,61965,85551.3,47521.3,40104,77657,17.885,3364,80889.7,44447.5
42375.6,31502,88157.2,70434.1,52955,87167.7,88604.2,64020,90702.3,48986.4,39361,81562.2,18.14,3419,88604.2,45619.4
43095.6,34700,81392.3,66941,47014,93313.6,97124.9,66608,95561.7,55316.4,44453,81551.7,18.335,3454,97124.9,51625.7
63054.9,45983,89867.2,64083.2,45410,92485.2,93370.5,63990,95626.3,50711.4,40213,82645.4,19.131,3581,93370.5,47163.3
53202.6,41719,83575.5,44303.5,33914,85612.8,74280.2,53791,90498.9,46962.5,40051,76845.4,19.382,3627,74280.2,44139.9
57690,40111,94257.7,58810.9,40675,94756.8,88253.9,58877,98235.4,49075.3,38244,84096.9,21.958,4070,88253.9,45721.7
46330.2,36192,83894.1,29062.1,22614,84222.8,99532.3,84813,76909.8,43709.9,37887,75608.4,23.14,4290,99532.3,39927.7
105218,35441,194565,78437.7,20761,247603,99002.8,37497,173034,51260.4,40699,82542.6,23.625,4366,99002.8,47498.3
61976.7,38936,104317,73171,30571,156859,86722.1,40146,141569,51284.1,42087,79857.2,25.276,4636,86722.1,47988.6
137597,53087,169864,133642,45919,190734,100514,26997,244000,38958.9,26040,98049.6,26.738,4907,100514,35139.4
58525.2,38711,99080.6,68987.1,41023,110210,97703.1,55349,115685,49238,36761,87779.4,27.321,5005,97703.1,45525.2
61827.3,42424,95509.9,74928,50539,97162.2,88064.8,57957,99581,53950.1,41292,85626.1,27.55,5041,88064.8,50603.6
79491.6,51313,101525,136529,63792,140261,166200,109199,99745,50137.3,37061,88659.2,27.565,5044,166200,43821.7
68139.9,34219,130501,49563.2,23464,138432,162668,102391,104116,47376.8,41160,75434.5,27.969,5126,162668,41195.4
68441.4,46894,95649.2,73955,52627,92095.5,105584,71126,97286.2,53392.7,42722,81904.9,28.117,5162,105584,49380.5
44786.7,32053,91571.5,43808.6,33280,86269.3,79170.2,58615,88518.3,42092,33022,83536.4,30.066,5474,79170.2,39083.5
50850,28068,118730,51399.4,22135,152180,77898.4,33072,154365,39815.2,31092,83922.8,30.091,5481,77898.4,36855
55735.2,41908,87159.1,37278.4,27285,89539.2,77359.1,56532,89680.2,45842.2,37229,80698.2,30.101,5488,77359.1,42902.6
52494.3,40083,85828.6,55668.1,39941,91341.4,81733.4,53356,100391,40775.6,31647,84440,30.174,5499,81733.4,37669.8
63378,44424,93497.7,65211.8,46727,91461.5,91135.4,63374,94244.4,54806.3,43724,82146.8,30.737,5594,91135.4,51343.2
48028.5,37830,83203.7,67723.6,51587,86035.9,87752.1,70449,81632.4,48766.8,39664,80576.3,31.147,5656,87752.1,45432.2
60364.8,44817,88271.6,64739.2,44764,94780.4,96763.5,72740,87180.2,51904,42182,80640.6,31.362,5692,96763.5,48227
48509.1,24763,128381,78701.8,26889,191818,80547.7,28395,185905,46403.8,37683,80702.6,32.102,5821,80547.7,43342.9
48318.3,37173,85185.2,46719.3,36096,84823.7,75358.9,57875,85334.2,46096.6,37213,81180.9,32.165,5830,75358.9,43232.9
51346.8,35675,94325.5,63688.4,41798,99858.5,113588,76513,97292,50370.8,39929,82674.3,32.309,5856,113588,46054.5
59738.4,43973,89032.3,56028.1,42665,86062.6,80133.5,60553,86727.8,45468.3,36605,81404.4,32.475,5875,80133.5,42423.2
59363.1,43794,88834.5,54100.2,38029,93231.7,79726.2,59029,88514.8,43305.4,35151,80739.3,32.868,5956,79726.2,40275.9
44266.5,27980,103683,57426.5,39336,95675.7,123560,60794,133198,55554.1,42202,86270.7,32.957,5971,123560,50858.9
55249.2,40299,89848.7,52186.2,40119,85248.2,78104.1,53822,95102.9,48488.8,38183,83224.5,35.683,6433,78104.1,45520.8
63866.7,46305,90391.3,50327.7,36792,89646.6,84997.1,60939,91409,47899.4,36940,84979.3,35.817,6451,84997.1,44669.5
59241.6,42710,90902.8,54428.2,38813,91902.4,84188.1,62341,88502.8,46893,38158,80538.4,36.268,6541,84188.1,43693.9
51003.9,35398,94428.8,68189.2,36921,121038,82424.2,54498,99118.4,46699.8,39739,77015.5,36.467,6585,82424.2,43567.7
89022.6,30203,193166,68253.2,15252,262143,72692.8,24208,196794,45351.5,34514,86114.6,36.556,6606,72692.8,42589.2
59913,44148,88938.5,50637.7,36671,90496.4,79916.7,57596,90933.7,45436.3,34742,85709.4,36.677,6625,79916.7,42399.5
73320.3,42691,112556,38796.3,17337,146655,134890,64872,136270,38642,31634,80054.4,36.923,6668,134890,33516.2
141354,35045,262143,107927,27044,261540,80578.3,20883,252875,37624.5,30628,80506.7,36.928,6670,80578.3,34562.5
60661.8,45278,87802.7,70088,45994,99867.1,98279.9,62211,103533,51102,40093,83531.2,37.166,6709,98279.9,47367.3
56329.2,35345,104444,72845.7,41497,115045,97942.2,53693,119545,47528.3,34305,90797.6,37.261,6725,97942.2,43806.5
54877.5,42112,85402.1,56667.5,42469,87446.4,94688.2,67312,92189.9,49488.2,40885,79326.3,38.094,6865,94688.2,45890
64337.4,45452,92766.3,78141.6,55930,91562.5,97765.6,70377,91040.7,48328.9,34948,90628.5,38.198,6879,97765.6,44613.8
57716.1,41016,92219.7,67769.5,48691,91214.8,91026.9,67385,88529.2,44619,35213,83041.8,38.723,6957,91026.9,41160
54387.9,39766,89633.5,72651.1,50282,94691.2,98805.4,69150,93641.5,47050.1,38262,80588.5,40.139,7197,98805.4,43295.5
59523.3,43679,89308.8,51824.8,38420,88401.5,82022.5,63100,85189,46316.2,37680,80556.7,40.807,7321,82022.5,43199.3
43900.2,30500,94329.3,52487.8,33393,103011,96339.5,66077,95550.7,53492.8,41169,85153.9,41.048,7368,96339.5,49831.9
67944.6,47424,93893.8,80257.2,56132,93703,116396,84216,90578,52152.8,39262,87053.3,41.594,7461,116396,47729.8
50949,32413,103014,65510.7,38946,110237,112735,68265,108228,50746.1,40333,82456,42.078,7542,112735,46462.2
56131.2,42602,86348.4,54575.6,41529,86124.5,78851.9,60497,85419.8,49509,40579,79958.2,42.17,7558,78851.9,46512.6
53871.3,38881,90802.9,62383.2,45877,89115.4,90842.1,67696,87943.5,49471.5,41284,78533.2,42.863,7660,90842.1,46019.5
53792.1,40415,87228,57357,42611,88215.4,84844.2,59552,93369.7,50735,40672,81750.8,43.407,7746,84844.2,47510.9
60779.7,39404,101088,60196.7,35499,111131,80440.7,46060,114454,47867.4,37732,83140,45.337,8077,80440.7,44810.7
49379.4,34021,95121.5,60647.1,32112,123772,78519.7,45808,112336,35107.2,27071,84990.9,45.825,8155,78519.7,32123.5
57170.7,41751,89740.1,54148.8,39647,89507.4,83229,59293,91992.3,44890.1,36518,80560.7,46.478,8258,83229,41727.3
80458.2,43075,122412,60877.8,33096,120549,85080.5,49519,112600,49156,38857,82906.2,46.589,8272,85080.5,45922.9
63594.9,46013,90577.8,49928.8,35339,92592.7,95915.6,75302,83476.2,47891.1,38812,80866.4,46.675,8286,95915.6,44246.3
54873,43404,82853.1,49710.6,36132,90164.7,72886,52828,90419.1,45055.5,34807,84832.2,48.371,8597,72886,42285.8
58062.6,39235,96984.6,70685.7,46788,99009.5,94301.8,54982,112403,54255.9,41317,86059.3,48.435,8607,94301.8,50672.4
54089.1,40773,86939.5,48591.6,37826,84188.1,74053.6,53852,90120.7,36847.5,29310,82389.6,48.672,8646,74053.6,34033.5
61376.4,45996,87450.3,55302.5,39964,90689.3,83644.6,60203,91054.2,47921.6,39127,80266.6,48.766,8656,83644.6,44743.1
51083.1,38669,86575.3,48139.9,36156,87257.8,75927.4,54084,92004.6,49460.4,40997,79065.2,49.202,8724,75927.4,46575.1
86877,42540,133840,99072.2,42436,153002,128062,51605,162633,53149.4,39500,88182.3,50.669,8964,128062,48283.1
57699.9,42218,89568.9,62636.2,49334,83206.8,97668.4,77798,82274.5,54425.4,44214,80671.9,51.242,9071,97668.4,50714.1
58527.9,42657,89919.2,76744.7,49225,102174,131626,91271,94512.4,49832.9,36542,89372.5,52.029,9188,131626,44831.1
71197.2,44029,105975,59490.6,35741,109084,85354.3,52572,106402,55498.5,44314,82076.8,52.151,9216,85354.3,52255.1
48478.5,36387,87313.8,50662.7,36371,91287.9,75356.1,50168,98440,47547.7,36162,86170.2,54.482,9605,75356.1,44684.2
67577.4,44507,99506.9,62973.9,41337,99839.4,91161.8,59758,99976.2,52166.7,41452,82476,54.731,9652,91161.8,48702.6
47519.1,37427,83207.6,34214.9,25119,89267.3,75520.1,49105,100790,41541.5,34609,78663.5,55.081,9707,75520.1,38671.8
54019.8,38394,92208.2,57298.6,43193,86938.2,92101.4,71198,84777.1,55791.8,44555,82064.3,55.618,9794,92101.4,52292
52310.7,39810,86114.9,51651,37774,89611.9,79852.7,59952,87290.3,48872.4,40514,79056.7,56.474,9939,79852.7,45838
43650.9,29553,96799.2,47959.2,25399,123747,74998.8,46315,106124,34794.5,26049,87538.5,57.389,10094,74998.8,31944.5
44218.8,35310,82070.9,32766.5,24345,88206.3,195962,170185,75462.5,37507.8,33316,73781.6,57.427,10103,195962,30061.2
59769,38317,102227,44292.3,27804,104400,74230.2,40826,119158,42502,32123,86710.9,57.802,10170,74230.2,39681.3
76251.6,46460,107560,86542.8,39563,143358,88943.3,54375,107200,49906.6,40332,81093.8,60.266,10564,88943.3,46526.7
52233.3,40306,84929.3,51253.5,39637,84742.7,75064.2,52203,94236.1,47881.3,39657,79127.3,62.795,11002,75064.2,45028.9
129173,41382,204570,107978,36409,194360,74310.8,22933,212359,35132.2,27239,84526.9,63.752,11153,74310.8,32308.4
54338.4,37266,95559.5,63523,44009,94595.3,95329,68134,91694,52560.1,38968,88395,63.759,11155,95329,48937.6
73370.7,35911,133898,94171.1,38292,161172,75931.5,31501,157971,42503.4,33010,84383.6,64.481,11290,75931.5,39618
50083.2,38123,86096.4,50858.7,41236,80829.3,74399.8,57152,85313.9,48577.7,38839,81968.9,64.691,11323,74399.8,45750.5
50276.7,38803,84914.4,72548.3,39746,119623,95148.3,64485,96699,48322,43001,73645.4,65.582,11479,95148.3,44706.3
50808.6,37821,88040.8,45871.4,33674,89274.4,72898.5,54245,88072.2,47652,39690,78682.8,66.576,11655,72898.5,44881.8
53069.4,38313,90777.4,57725.3,30939,122276,73732.5,48020,100628,46722.1,39467,77583.2,66.582,11656,73732.5,43920.2
63959.4,42219,99283.3,71910.3,49371,95455,100742,68754,96026.5,54923.1,43700,82367,67.81,11870,100742,51094.9
66443.4,32085,135716,40265.5,19448,135687,126309,95053,87086.2,55205.2,41317,87565.2,68.318,11946,126309,50405.5
93010.5,34352,177443,137376,43345,207708,72399.5,23847,198967,30523,23018,86904,68.473,11969,72399.5,27771.8
58916.7,41938,92068.4,51175.6,36991,90666.5,78683.7,54735,94210.6,48769.5,40401,79110.9,69.497,12177,78683.7,45779.6
54847.8,43806,82055.1,49607.7,38905,83564.9,75629.9,55144,89882.5,45218.1,37334,79375.7,70.665,12370,75629.9,42344.2
47503.8,35572,87518.5,53915.3,39249,90025.1,82933,60372,90026.7,52432.2,40454,84940.8,70.713,12381,82933,49280.7
62240.4,44755,91140.4,76445.8,51765,96782.6,90936.6,63066,94498.1,44866.4,36045,81574.9,71.617,12523,90936.6,41410.8
44125.2,30906,93567.2,53662.3,38431,91509.9,85592,56611,99086,39841.6,29977,87102,72.275,12617,85592,36589.1
48840.3,39681,80663.2,47970.3,38197,82304.4,86235.6,69175,81699.1,35001.6,28833,79556.9,73.256,12790,86235.6,31724.6
71619.3,39938,117523,56346.4,33570,110001,87000.1,44948,126850,47342,38793,79978.5,73.483,12834,87000.1,44036
54655.2,40781,87832.2,58441.2,42613,89878.7,84961,58848,94616.7,53284.3,44244,78926.8,75.25,13134,84961,50055.7
54079.2,37561,94356.8,132286,46839,185092,148912,61263,159298,51132.5,40266,83222.1,75.544,13186,148912,45473.9
50749.2,35206,94469.7,63240.8,46114,89876.2,93891.7,69699,88283.7,49588.2,41294,78699.5,76.196,13296,93891.7,46020.4
58322.7,40554,94250.5,55376.2,38634,93936.3,84986,54434,102319,51873.4,40465,84012.7,76.247,13308,84986,48643.9
63606.6,48180,86519.8,58371.7,42328,90376.2,82143.4,60677,88721.5,48723.7,40739,78380.8,76.939,13417,82143.4,45602.2
127683,46965,178172,96054.6,24925,252559,109678,27986,256837,54697.9,38970,91985.6,77.413,13489,109678,50530.1
67923.9,45325,98212,58701.1,36451,105540,84108.9,46273,119123,51781.7,40339,84126.1,77.978,13594,84108.9,48585.5
56607.3,31125,119191,113919,30078,248214,131900,42297,204369,52554.5,42364,81300.5,78.632,13716,131900,47542.3
101764,21341,262143,190583,33784,262143,170781,37401,262143,53776.3,34662,101676,79.419,13834,170781,47286.6
42458.4,31668,87866.4,40924.4,28390,94470.6,80791,57240,92500.3,48440.1,40998,77432.3,79.431,13839,80791,45370.1
54678.6,41903,85516.9,59832.6,44811,87505,87068.2,64446,88540.8,51480,43189,78117,80.529,14025,87068.2,48171.4
61958.7,46377,87554.7,55771,38616,94650,92123.6,63438,95170.3,53610.9,43804,80208.3,80.763,14058,92123.6,50110.2
171659,46742,240679,155035,52130,194905,81536,28482,187611,47425.4,38876,79948.3,81.683,14206,81536,44327
74841.3,29393,166870,60166.1,22460,175559,86617.9,40333,140743,48908.5,41773,76730.7,84.773,14697,86617.9,45617.1
46831.5,18045,170083,93074.4,24947,244507,161644,86064,123089,47531.1,37867,82261.5,84.908,14715,161644,41388.6
75816,37910,131065,51563.4,18350,184156,85644.9,34083,164681,53623.4,42192,83292.2,85.284,14779,85644.9,50368.9
45166.5,35667,82990.8,26127.8,21103,81140.8,155866,129764,78718.7,45376.6,38910,76427.6,85.821,14874,155866,39453.6
101892,41472,161014,196585,46812,262143,123499,36859,219583,42357.5,28100,98787.9,85.949,14894,123499,37664.5
57853.8,41468,91432.1,68923.1,49183,91839.6,85600.4,61005,91958.1,52929.8,43292,80125.8,86.228,14950,85600.4,49677
73032.3,43268,110619,79809.6,39810,131384,88394.3,44587,129926,39695.6,31490,82613.3,87.215,15134,88394.3,36336.6
62263.8,45294,90089.6,58388.3,41320,92607.4,90476.5,66439,89246.8,48066.2,39031,80706.8,87.858,15248,90476.5,44628.1
125809,49790,165596,198454,63912,203497,99572.6,39946,163360,33996.6,24368,91431.5,88.381,15335,99572.6,30212.9
118022,44197,175005,175112,69087,166112,139998,50793,180633,43968.5,36800,78302.1,88.765,15402,139998,38648.6
65520,40707,105484,51770.6,28503,119034,72452.4,42346,112130,46692.9,32793,93314.6,90.919,15744,72452.4,43939.7
63464.4,42034,98948.5,86003.5,50280,112099,118213,74704,103705,47008.4,36879,83536.5,92.225,15984,118213,42516.3
64530.9,44682,94648.8,58399.5,39593,96665.2,92328,64373,93996,49378.4,38214,84682.6,92.576,16029,92328,45869.9
55188,37373,96775.8,71236.1,47186,98938.9,98018.6,68545,93715.8,52972.9,39862,87091.3,94.144,16281,98018.6,49248.2
56473.2,43321,85432.6,65659.4,51259,83947.3,86690.1,68064,83470.3,49541,40078,81010,94.65,16367,86690.1,46246.8
59395.5,44061,88344.4,62630.6,42791,95921.1,82288,56498,95451.6,49604.9,38929,83508.7,95.435,16481,82288,46478
68463.9,42127,106508,97910.2,43643,147026,74317.7,34225,142308,45098.6,39167,75460.9,96.749,16701,74317.7,42274.5
70951.5,50215,92599.4,71408.5,47739,98029.4,88449.9,57384,101015,54692.3,43242,82889.7,97.05,16758,88449.9,51331.2
74606.4,34662,141060,54419.9,20912,170546,82367.2,32882,164163,45232,37083,79937.5,97.826,16882,82367.2,42102
54853.2,40965,87754.4,50803.1,38369,86774,80432.4,57484,91698.8,52355.7,43462,78946.8,98.106,16922,80432.4,49299.3
48580.2,38444,82815.3,45935.3,35215,85486.8,74288.5,52393,92924.1,41263.5,33774,80068.9,99.131,17089,74288.5,38440.6
71183.7,33690,138471,61449.1,16765,240211,99724.2,34211,191036,43513.9,34345,83031.9,99.643,17172,99724.2,39724.4
61863.3,46077,87989.1,61072.4,41819,95708.7,94918.9,66709,93249.9,48505.4,39232,81027,99.926,17218,94918.9,44898.5
43920.9,31378,91733.1,76579.3,52245,96060.8,113206,75310,98513.5,50596,41298,80291,101.481,17464,113206,46294.2
52204.5,41134,83173.9,51856.7,39165,86773.5,80628.3,61406,86051.2,49023.9,41020,78323.5,101.705,17500,80628.3,45960
54350.1,41997,84812.9,55025.9,44108,81757.9,79937.5,66148,79197.9,51190.9,41862,80140.7,102.794,17660,79937.5,48153.3
62388,43079,94910.7,72120.1,35414,133463,80707.6,49491,106873,44058.8,35855,80531,103.482,17783,80707.6,40991.9
60991.2,42344,94396.4,69285.9,49880,91032.9,101905,75415,88556,54076.6,42819,82766.1,104.265,17908,101905,50204.2
64589.4,42448,99720.4,49424.2,32159,100720,86659.5,55867,101658,44755.2,34172,85832.8,105.508,18098,86659.5,41462.2
71879.4,41202,114332,80682.5,36565,144609,209804,79241,173518,46284.2,38851,78074.8,106.346,18224,209804,38311.7
80595,47346,111559,77568.9,50763,100143,111364,75579,96565.9,51990.2,39049,87255.2,106.601,18260,111364,47758.3
51480.9,35114,96082.8,59838.1,44453,88217.9,79300.9,60565,85809.7,50183.2,39983,82255.1,106.835,18295,79300.9,47169.7
70139.7,37061,124030,59287.7,21130,183884,117249,68891,111539,54339.3,39360,90477.1,107.384,18388,117249,49883.8
65774.7,47870,90048.3,49806.5,34944,93410,86054.9,57986,97259.6,48099.6,39122,80574.9,108.156,18499,86054.9,44829.5
97879.5,26516,241915,183884,43169,262143,111698,28544,256454,45490.5,29680,100447,108.451,18545,111698,41246
64016.1,41401,101335,119633,65504,119692,134865,80562,109710,53346.8,40320,86709.7,109.837,18757,134865,48221.9
46886.4,35907,85575.1,48790.4,30410,105147,78771.3,48488,106467,40130.7,31054,84691.4,112.122,19099,78771.3,37137.4
54228.6,30970,114754,50422.2,24805,133218,83468.1,52855,103494,51710.8,42523,79696.1,112.737,19189,83468.1,48539
105134,35128,196142,110070,25884,262143,88230.2,23980,241128,44254.8,33661,86161.5,113.145,19261,88230.2,40902.1
54228.6,32748,108523,70242.3,46610,98764.1,101256,69368,95662.4,48576.3,34971,91032.5,113.217,19277,101256,44728.6
82682.1,38344,141317,53799.9,28321,124495,82953.8,40977,132671,51847,39772,85433.1,115.35,19596,82953.8,48694.8
57564,35396,106580,29947.5,15599,125818,91332.7,59060,101347,55285.9,37522,96562.4,115.508,19616,91332.7,51815.2
54684.9,40459,88579.3,51756.6,39534,85797.6,81698.6,67908,78844.9,51869.2,41501,81908.9,115.718,19648,81698.6,48764.7
56838.6,41405,89964.4,58879,45791,84267.5,83098.4,56517,96359.2,51405,40143,83921.9,116.308,19748,83098.4,48247.2
133495,33606,260333,102960,23781,262143,91072.8,32280,184899,56083.7,41446,88681.7,117.755,19979,91072.8,52623
59251.5,43260,89762.1,64957.5,49030,86825.5,74670.8,58012,84355.4,48637.5,40633,78446.2,118.177,20035,74670.8,45800
65679.3,39514,108932,63702.3,46292,90183.9,87094.6,60039,95068.8,45535,35171,84847.8,119.304,20195,87094.6,42225.4
106782,41389,169081,54474.1,17487,204152,73197.4,34897,137464,47964.7,41733,75322.1,122.13,20607,73197.4,45183.2
88210.8,27620,209304,91702.5,31023,193721,90717,36173,164355,38448.8,30840,81704.9,123.393,20800,90717,35001.5
67302,37089,118922,59322.4,19390,200503,74857.1,32836,149404,31295.8,25447,80599.1,127,21315,74857.1,28451.3
67887.9,41116,108209,51730.2,29744,113979,74372,42364,115051,53463.6,35071,99905.6,127.691,21403,74372,50637.4
120709,38428,205860,125923,39356,209688,130247,41200,207182,57529.3,38755,97284,130.767,21882,130247,52579.9
78796.8,36360,142025,49882.9,24437,133778,74258,42662,114073,44296.5,36477,79584.9,132.665,22152,74258,41474.7
50595.3,34631,95747,49507.6,35099,92439.4,79727.6,58055,90001.4,43928.2,35488,81122.5,133.176,22236,79727.6,40898.5
44402.4,34021,85534.1,46316.2,35120,86428.8,77803.9,48943,104181,49135.1,37605,85630.1,133.438,22273,77803.9,46178.6
55838.7,40905,89462,56078.2,39198,93758.3,73657.5,54699,88250.6,46855.5,37875,81075.2,133.442,22275,73657.5,44056.5
63454.5,43770,95009.2,61817.5,44840,90349.5,87738.2,59490,96655.1,51713.6,39738,85286.1,134.563,22464,87738.2,48379.5
54828,41295,87013.1,59701.9,29243,133797,76140,46701,106848,44738.5,37518,78148.8,134.82,22498,76140,41845.2
50557.5,35917,92249.8,76526.4,55901,89716.4,82446.5,61459,87915.7,50026.1,38371,85442.4,136.241,22698,82446.5,46893.1
52259.4,39253,87251.2,56659.2,36223,102510,74921,55922,87801.3,40322.5,31736,83267.5,137.773,22915,74921,37475.5
160358,42363,248075,112447,26488,262143,90241.6,32511,181910,40827.1,33452,79984.6,138.439,22999,90241.6,37397.9
50313.6,35914,91812.4,80436.5,44245,119143,97678.1,53287,120131,56176.8,37943,97029.9,139.22,23106,97678.1,52465.1
51310.8,38584,87152.8,63271.4,46135,89878.7,86477.5,59245,95660.2,49796.8,40729,80126.7,140.43,23290,86477.5,46510.6
43382.7,36986,76870.4,65990.2,21669,199582,77778.8,35771,142498,41251,33466,80781.3,141.24,23410,77778.8,38295.4
71167.5,43956,106107,58047.8,33730,112784,86619.2,51254,110756,44901.2,36653,80283.8,142.947,23631,86619.2,41609.6
59600.7,46708,83625.8,33815.9,25932,85460.4,72310.6,55161,85911.2,40236.3,33769,78087.2,143.577,23716,72310.6,37488.5
67521.6,49663,89102.5,61889.8,47337,85683.6,112059,77329,94969.5,47287.8,35665,86893.4,144.302,23814,112059,43029.6
48060,39858,79022,51926.2,38631,88090.9,97445.9,68558,93150.6,49353.3,36043,89737.8,145.019,23918,97445.9,45650.4
54895.5,40647,88509.2,51702.4,36111,93832.1,75894,54652,91008.4,48087.1,41089,76697.7,145.863,24040,75894,45203.1
42230.7,29436,94022,57329.2,38688,97113.4,85239,54455,102584,37894.2,31125,79789,147.135,24248,85239,34655.1
74293.2,46774,104094,67668,27629,160508,138596,68657,132295,52632.3,38597,89367.4,147.478,24291,138596,47365.7
48314.7,37095,85357.9,53299.6,39477,88482.9,77662.1,56332,90351.2,35884.2,29405,79976.5,147.5,24295,77662.1,32933.1
136169,63110,141404,88037,31147,185238,115084,44180,170714,43659.9,33449,85542,149.873,24623,115084,39286.7
